
     Program PWSCF v.6.3 starts on  2Dec2021 at 22:15:37 

     This program is part of the open-source Quantum ESPRESSO suite
     for quantum simulation of materials; please cite
         "P. Giannozzi et al., J. Phys.:Condens. Matter 21 395502 (2009);
         "P. Giannozzi et al., J. Phys.:Condens. Matter 29 465901 (2017);
          URL http://www.quantum-espresso.org", 
     in publications or presentations arising from this work. More details at
     http://www.quantum-espresso.org/quote

     Parallel version (MPI & OpenMP), running on       2 processor cores
     Number of MPI processes:                 2
     Threads/MPI process:                     1

     MPI processes distributed on     1 nodes
     R & G space division:  proc/nbgrp/npool/nimage =       2
     Reading input from pw-input.in

     Current dimensions of program PWSCF are:
     Max number of different atomic species (ntypx) = 10
     Max number of k-points (npk) =  40000
     Max angular momentum in pseudopotentials (lmaxx) =  3

     Subspace diagonalization in iterative solution of the eigenvalue problem:
     a serial algorithm will be used

 
     Parallelization info
     --------------------
     sticks:   dense  smooth     PW     G-vecs:    dense   smooth      PW
     Min         147     147     54                 1643     1643     350
     Max         148     148     55                 1644     1644     351
     Sum         295     295    109                 3287     3287     701
 

     Title: 
     Pd-kp-conv                                                                 


     bravais-lattice index     =            2
     lattice parameter (alat)  =       7.8000  a.u.
     unit-cell volume          =     118.6380 (a.u.)^3
     number of atoms/cell      =            1
     number of atomic types    =            1
     number of electrons       =        16.00
     number of Kohn-Sham states=           12
     kinetic-energy cutoff     =      35.0000  Ry
     charge density cutoff     =     140.0000  Ry
     convergence threshold     =      1.0E-07
     mixing beta               =       0.7000
     number of iterations used =            8  plain     mixing
     Exchange-correlation      =  SLA  PW   PBX  PBC ( 1  4  3  4 0 0)

     celldm(1)=   7.800000  celldm(2)=   0.000000  celldm(3)=   0.000000
     celldm(4)=   0.000000  celldm(5)=   0.000000  celldm(6)=   0.000000

     crystal axes: (cart. coord. in units of alat)
               a(1) = (  -0.500000   0.000000   0.500000 )  
               a(2) = (   0.000000   0.500000   0.500000 )  
               a(3) = (  -0.500000   0.500000   0.000000 )  

     reciprocal axes: (cart. coord. in units 2 pi/alat)
               b(1) = ( -1.000000 -1.000000  1.000000 )  
               b(2) = (  1.000000  1.000000  1.000000 )  
               b(3) = ( -1.000000  1.000000 -1.000000 )  


     PseudoPot. # 1 for Pd read from file:
     ./pd_pbe_v1.4.uspp.F.UPF
     MD5 check sum: 2d733d2bc2cbfd217af676df1668a4bc
     Pseudo is Ultrasoft + core correction, Zval = 16.0
     Generated by new atomic code, or converted to UPF format
     Using radial grid of  887 points,  6 beta functions with: 
                l(1) =   0
                l(2) =   0
                l(3) =   1
                l(4) =   1
                l(5) =   2
                l(6) =   2
     Q(r) pseudized with  8 coefficients,  rinner =    1.130   1.130   1.130
                                                       1.130   1.130

     atomic species   valence    mass     pseudopotential
        Pd            16.00   106.40000     Pd( 1.00)

     48 Sym. Ops., with inversion, found



   Cartesian axes

     site n.     atom                  positions (alat units)
         1           Pd  tau(   1) = (   0.0000000   0.0000000   0.0000000  )

     number of k points=   413  Marzari-Vanderbilt smearing, width (Ry)=  0.0250

     Number of k-points >= 100: set verbosity='high' to print them.

     Dense  grid:     3287 G-vectors     FFT dimensions: (  24,  24,  24)

     Estimated max dynamical RAM per process >      22.78 MB

     Estimated total dynamical RAM >      45.55 MB

     Initial potential from superposition of free atoms
     Check: negative starting charge=   -0.079046

     starting charge   15.49999, renormalised to   16.00000

     negative rho (up, down):  8.160E-02 0.000E+00
     Starting wfcs are   12 randomized atomic wfcs

     total cpu time spent up to now is        1.7 secs

     Self-consistent Calculation

     iteration #  1     ecut=    35.00 Ry     beta= 0.70
     Davidson diagonalization with overlap
     ethr =  1.00E-02,  avg # of iterations =  3.5

     negative rho (up, down):  8.027E-02 0.000E+00

     total cpu time spent up to now is        6.9 secs

     total energy              =    -198.05083663 Ry
     Harris-Foulkes estimate   =    -199.06107154 Ry
     estimated scf accuracy    <       1.38086152 Ry

     iteration #  2     ecut=    35.00 Ry     beta= 0.70
     Davidson diagonalization with overlap
     ethr =  8.63E-03,  avg # of iterations =  2.0

     negative rho (up, down):  8.153E-02 0.000E+00

     total cpu time spent up to now is       11.5 secs

     total energy              =    -198.36564297 Ry
     Harris-Foulkes estimate   =    -199.16625354 Ry
     estimated scf accuracy    <       1.66482433 Ry

     iteration #  3     ecut=    35.00 Ry     beta= 0.70
     Davidson diagonalization with overlap
     ethr =  8.63E-03,  avg # of iterations =  2.0

     negative rho (up, down):  8.163E-02 0.000E+00

     total cpu time spent up to now is       15.2 secs

     total energy              =    -198.69137379 Ry
     Harris-Foulkes estimate   =    -198.69189069 Ry
     estimated scf accuracy    <       0.00115993 Ry

     iteration #  4     ecut=    35.00 Ry     beta= 0.70
     Davidson diagonalization with overlap
     ethr =  7.25E-06,  avg # of iterations =  2.6

     negative rho (up, down):  8.176E-02 0.000E+00

     total cpu time spent up to now is       19.4 secs

     total energy              =    -198.69185427 Ry
     Harris-Foulkes estimate   =    -198.69185258 Ry
     estimated scf accuracy    <       0.00000194 Ry

     iteration #  5     ecut=    35.00 Ry     beta= 0.70
     Davidson diagonalization with overlap
     ethr =  1.21E-08,  avg # of iterations =  2.0

     negative rho (up, down):  8.180E-02 0.000E+00

     total cpu time spent up to now is       23.0 secs

     total energy              =    -198.69185475 Ry
     Harris-Foulkes estimate   =    -198.69185459 Ry
     estimated scf accuracy    <       0.00000010 Ry

     iteration #  6     ecut=    35.00 Ry     beta= 0.70
     Davidson diagonalization with overlap
     ethr =  6.55E-10,  avg # of iterations =  2.0

     negative rho (up, down):  8.180E-02 0.000E+00

     total cpu time spent up to now is       26.6 secs

     End of self-consistent calculation

     Number of k-points >= 100: set verbosity='high' to print the bands.

     the Fermi energy is    14.6683 ev

!    total energy              =    -198.69185476 Ry
     Harris-Foulkes estimate   =    -198.69185476 Ry
     estimated scf accuracy    <          5.2E-10 Ry

     The total energy is the sum of the following terms:

     one-electron contribution =     -57.30647580 Ry
     hartree contribution      =      40.35438799 Ry
     xc contribution           =     -31.26256717 Ry
     ewald contribution        =    -150.47752455 Ry
     smearing contrib. (-TS)   =       0.00032477 Ry

     convergence has been achieved in   6 iterations

     Writing output data file Pd-kp-conv.save/
 
     init_run     :      1.42s CPU      1.55s WALL (       1 calls)
     electrons    :     22.36s CPU     24.92s WALL (       1 calls)

     Called by init_run:
     wfcinit      :      1.12s CPU      1.22s WALL (       1 calls)
     potinit      :      0.00s CPU      0.01s WALL (       1 calls)
     hinit0       :      0.29s CPU      0.29s WALL (       1 calls)

     Called by electrons:
     c_bands      :     19.00s CPU     21.29s WALL (       6 calls)
     sum_band     :      3.30s CPU      3.53s WALL (       6 calls)
     v_of_rho     :      0.03s CPU      0.03s WALL (       7 calls)
     newd         :      0.04s CPU      0.04s WALL (       7 calls)
     mix_rho      :      0.00s CPU      0.00s WALL (       6 calls)

     Called by c_bands:
     init_us_2    :      0.48s CPU      0.53s WALL (    5369 calls)
     cegterg      :     17.67s CPU     18.96s WALL (    2478 calls)

     Called by sum_band:
     sum_band:bec :      0.03s CPU      0.03s WALL (    2478 calls)
     addusdens    :      0.04s CPU      0.04s WALL (       6 calls)

     Called by *egterg:
     h_psi        :     14.30s CPU     15.41s WALL (    8704 calls)
     s_psi        :      0.29s CPU      0.32s WALL (    8704 calls)
     g_psi        :      0.15s CPU      0.16s WALL (    5813 calls)
     cdiaghg      :      2.27s CPU      2.40s WALL (    8291 calls)

     Called by h_psi:
     h_psi:pot    :     14.24s CPU     15.34s WALL (    8704 calls)
     h_psi:calbec :      0.39s CPU      0.42s WALL (    8704 calls)
     vloc_psi     :     13.48s CPU     14.54s WALL (    8704 calls)
     add_vuspsi   :      0.30s CPU      0.33s WALL (    8704 calls)

     General routines
     calbec       :      0.47s CPU      0.52s WALL (   11182 calls)
     fft          :      0.01s CPU      0.01s WALL (      78 calls)
     ffts         :      0.00s CPU      0.00s WALL (       6 calls)
     fftw         :     14.30s CPU     15.39s WALL (  187024 calls)
 
     Parallel routines
     fft_scatt_xy :      2.45s CPU      2.65s WALL (  187108 calls)
     fft_scatt_yz :      3.92s CPU      4.26s WALL (  187108 calls)
 
     PWSCF        :    23.99s CPU        28.60s WALL

 
   This run was terminated on:  22:16: 6   2Dec2021            

=------------------------------------------------------------------------------=
   JOB DONE.
=------------------------------------------------------------------------------=
