
     Program PWSCF v.6.3 starts on  2Dec2021 at 22:12:26 

     This program is part of the open-source Quantum ESPRESSO suite
     for quantum simulation of materials; please cite
         "P. Giannozzi et al., J. Phys.:Condens. Matter 21 395502 (2009);
         "P. Giannozzi et al., J. Phys.:Condens. Matter 29 465901 (2017);
          URL http://www.quantum-espresso.org", 
     in publications or presentations arising from this work. More details at
     http://www.quantum-espresso.org/quote

     Parallel version (MPI & OpenMP), running on       2 processor cores
     Number of MPI processes:                 2
     Threads/MPI process:                     1

     MPI processes distributed on     1 nodes
     R & G space division:  proc/nbgrp/npool/nimage =       2
     Reading input from pw-input.in

     Current dimensions of program PWSCF are:
     Max number of different atomic species (ntypx) = 10
     Max number of k-points (npk) =  40000
     Max angular momentum in pseudopotentials (lmaxx) =  3

     Subspace diagonalization in iterative solution of the eigenvalue problem:
     a serial algorithm will be used

 
     Parallelization info
     --------------------
     sticks:   dense  smooth     PW     G-vecs:    dense   smooth      PW
     Min         120     120     42                 1210     1210     264
     Max         121     121     43                 1211     1211     267
     Sum         241     241     85                 2421     2421     531
 

     Title: 
     Pd-kp-conv                                                                 


     bravais-lattice index     =            2
     lattice parameter (alat)  =       7.0000  a.u.
     unit-cell volume          =      85.7500 (a.u.)^3
     number of atoms/cell      =            1
     number of atomic types    =            1
     number of electrons       =        16.00
     number of Kohn-Sham states=           12
     kinetic-energy cutoff     =      35.0000  Ry
     charge density cutoff     =     140.0000  Ry
     convergence threshold     =      1.0E-07
     mixing beta               =       0.7000
     number of iterations used =            8  plain     mixing
     Exchange-correlation      =  SLA  PW   PBX  PBC ( 1  4  3  4 0 0)

     celldm(1)=   7.000000  celldm(2)=   0.000000  celldm(3)=   0.000000
     celldm(4)=   0.000000  celldm(5)=   0.000000  celldm(6)=   0.000000

     crystal axes: (cart. coord. in units of alat)
               a(1) = (  -0.500000   0.000000   0.500000 )  
               a(2) = (   0.000000   0.500000   0.500000 )  
               a(3) = (  -0.500000   0.500000   0.000000 )  

     reciprocal axes: (cart. coord. in units 2 pi/alat)
               b(1) = ( -1.000000 -1.000000  1.000000 )  
               b(2) = (  1.000000  1.000000  1.000000 )  
               b(3) = ( -1.000000  1.000000 -1.000000 )  


     PseudoPot. # 1 for Pd read from file:
     ./pd_pbe_v1.4.uspp.F.UPF
     MD5 check sum: 2d733d2bc2cbfd217af676df1668a4bc
     Pseudo is Ultrasoft + core correction, Zval = 16.0
     Generated by new atomic code, or converted to UPF format
     Using radial grid of  887 points,  6 beta functions with: 
                l(1) =   0
                l(2) =   0
                l(3) =   1
                l(4) =   1
                l(5) =   2
                l(6) =   2
     Q(r) pseudized with  8 coefficients,  rinner =    1.130   1.130   1.130
                                                       1.130   1.130

     atomic species   valence    mass     pseudopotential
        Pd            16.00   106.40000     Pd( 1.00)

     48 Sym. Ops., with inversion, found



   Cartesian axes

     site n.     atom                  positions (alat units)
         1           Pd  tau(   1) = (   0.0000000   0.0000000   0.0000000  )

     number of k points=   413  Marzari-Vanderbilt smearing, width (Ry)=  0.0250

     Number of k-points >= 100: set verbosity='high' to print them.

     Dense  grid:     2421 G-vectors     FFT dimensions: (  20,  20,  20)

     Estimated max dynamical RAM per process >      16.70 MB

     Estimated total dynamical RAM >      33.40 MB

     Initial potential from superposition of free atoms
     Check: negative starting charge=   -0.083349

     starting charge   15.49999, renormalised to   16.00000

     negative rho (up, down):  8.604E-02 0.000E+00
     Starting wfcs are   12 randomized atomic wfcs

     total cpu time spent up to now is        1.2 secs

     Self-consistent Calculation

     iteration #  1     ecut=    35.00 Ry     beta= 0.70
     Davidson diagonalization with overlap
     ethr =  1.00E-02,  avg # of iterations =  3.5

     negative rho (up, down):  8.607E-02 0.000E+00

     total cpu time spent up to now is        4.9 secs

     total energy              =    -198.32774130 Ry
     Harris-Foulkes estimate   =    -198.94246927 Ry
     estimated scf accuracy    <       0.86059201 Ry

     iteration #  2     ecut=    35.00 Ry     beta= 0.70
     Davidson diagonalization with overlap
     ethr =  5.38E-03,  avg # of iterations =  2.0

     negative rho (up, down):  8.732E-02 0.000E+00

     total cpu time spent up to now is        8.4 secs

     total energy              =    -198.56050342 Ry
     Harris-Foulkes estimate   =    -198.84225582 Ry
     estimated scf accuracy    <       0.51915949 Ry

     iteration #  3     ecut=    35.00 Ry     beta= 0.70
     Davidson diagonalization with overlap
     ethr =  3.24E-03,  avg # of iterations =  2.0

     negative rho (up, down):  8.781E-02 0.000E+00

     total cpu time spent up to now is       11.4 secs

     total energy              =    -198.67400111 Ry
     Harris-Foulkes estimate   =    -198.67462128 Ry
     estimated scf accuracy    <       0.00136641 Ry

     iteration #  4     ecut=    35.00 Ry     beta= 0.70
     Davidson diagonalization with overlap
     ethr =  8.54E-06,  avg # of iterations =  2.2

     negative rho (up, down):  8.795E-02 0.000E+00

     total cpu time spent up to now is       14.2 secs

     total energy              =    -198.67437531 Ry
     Harris-Foulkes estimate   =    -198.67438564 Ry
     estimated scf accuracy    <       0.00002283 Ry

     iteration #  5     ecut=    35.00 Ry     beta= 0.70
     Davidson diagonalization with overlap
     ethr =  1.43E-07,  avg # of iterations =  2.0

     negative rho (up, down):  8.799E-02 0.000E+00

     total cpu time spent up to now is       16.9 secs

     End of self-consistent calculation

     Number of k-points >= 100: set verbosity='high' to print the bands.

     the Fermi energy is    22.9223 ev

!    total energy              =    -198.67438004 Ry
     Harris-Foulkes estimate   =    -198.67437993 Ry
     estimated scf accuracy    <       0.00000007 Ry

     The total energy is the sum of the following terms:

     one-electron contribution =     -31.01534192 Ry
     hartree contribution      =      31.52859045 Ry
     xc contribution           =     -31.51250810 Ry
     ewald contribution        =    -167.67495590 Ry
     smearing contrib. (-TS)   =      -0.00016457 Ry

     convergence has been achieved in   5 iterations

     Writing output data file Pd-kp-conv.save/
 
     init_run     :      1.07s CPU      1.17s WALL (       1 calls)
     electrons    :     13.55s CPU     15.69s WALL (       1 calls)

     Called by init_run:
     wfcinit      :      0.78s CPU      0.86s WALL (       1 calls)
     potinit      :      0.00s CPU      0.01s WALL (       1 calls)
     hinit0       :      0.27s CPU      0.27s WALL (       1 calls)

     Called by electrons:
     c_bands      :     11.67s CPU     13.56s WALL (       5 calls)
     sum_band     :      1.84s CPU      2.02s WALL (       5 calls)
     v_of_rho     :      0.02s CPU      0.02s WALL (       6 calls)
     newd         :      0.02s CPU      0.03s WALL (       6 calls)
     mix_rho      :      0.00s CPU      0.00s WALL (       5 calls)

     Called by c_bands:
     init_us_2    :      0.30s CPU      0.34s WALL (    4543 calls)
     cegterg      :     10.82s CPU     11.82s WALL (    2065 calls)

     Called by sum_band:
     sum_band:bec :      0.02s CPU      0.02s WALL (    2065 calls)
     addusdens    :      0.02s CPU      0.03s WALL (       5 calls)

     Called by *egterg:
     h_psi        :      8.18s CPU      8.98s WALL (    7336 calls)
     s_psi        :      0.19s CPU      0.22s WALL (    7336 calls)
     g_psi        :      0.09s CPU      0.10s WALL (    4858 calls)
     cdiaghg      :      1.90s CPU      2.04s WALL (    6923 calls)

     Called by h_psi:
     h_psi:pot    :      8.13s CPU      8.93s WALL (    7336 calls)
     h_psi:calbec :      0.27s CPU      0.30s WALL (    7336 calls)
     vloc_psi     :      7.60s CPU      8.35s WALL (    7336 calls)
     add_vuspsi   :      0.21s CPU      0.23s WALL (    7336 calls)

     General routines
     calbec       :      0.32s CPU      0.36s WALL (    9401 calls)
     fft          :      0.01s CPU      0.01s WALL (      67 calls)
     ffts         :      0.00s CPU      0.00s WALL (       5 calls)
     fftw         :      8.05s CPU      8.84s WALL (  159120 calls)
 
     Parallel routines
     fft_scatt_xy :      1.37s CPU      1.50s WALL (  159192 calls)
     fft_scatt_yz :      2.48s CPU      2.74s WALL (  159192 calls)
 
     PWSCF        :    14.84s CPU        18.81s WALL

 
   This run was terminated on:  22:12:45   2Dec2021            

=------------------------------------------------------------------------------=
   JOB DONE.
=------------------------------------------------------------------------------=
