
     Program PWSCF v.6.3 starts on  2Dec2021 at 22:16:32 

     This program is part of the open-source Quantum ESPRESSO suite
     for quantum simulation of materials; please cite
         "P. Giannozzi et al., J. Phys.:Condens. Matter 21 395502 (2009);
         "P. Giannozzi et al., J. Phys.:Condens. Matter 29 465901 (2017);
          URL http://www.quantum-espresso.org", 
     in publications or presentations arising from this work. More details at
     http://www.quantum-espresso.org/quote

     Parallel version (MPI & OpenMP), running on       2 processor cores
     Number of MPI processes:                 2
     Threads/MPI process:                     1

     MPI processes distributed on     1 nodes
     R & G space division:  proc/nbgrp/npool/nimage =       2
     Reading input from pw-input.in

     Current dimensions of program PWSCF are:
     Max number of different atomic species (ntypx) = 10
     Max number of k-points (npk) =  40000
     Max angular momentum in pseudopotentials (lmaxx) =  3

     Subspace diagonalization in iterative solution of the eigenvalue problem:
     a serial algorithm will be used

 
     Parallelization info
     --------------------
     sticks:   dense  smooth     PW     G-vecs:    dense   smooth      PW
     Min         156     156     54                 1763     1763     362
     Max         157     157     55                 1764     1764     363
     Sum         313     313    109                 3527     3527     725
 

     Title: 
     Pd-kp-conv                                                                 


     bravais-lattice index     =            2
     lattice parameter (alat)  =       8.0000  a.u.
     unit-cell volume          =     128.0000 (a.u.)^3
     number of atoms/cell      =            1
     number of atomic types    =            1
     number of electrons       =        16.00
     number of Kohn-Sham states=           12
     kinetic-energy cutoff     =      35.0000  Ry
     charge density cutoff     =     140.0000  Ry
     convergence threshold     =      1.0E-07
     mixing beta               =       0.7000
     number of iterations used =            8  plain     mixing
     Exchange-correlation      =  SLA  PW   PBX  PBC ( 1  4  3  4 0 0)

     celldm(1)=   8.000000  celldm(2)=   0.000000  celldm(3)=   0.000000
     celldm(4)=   0.000000  celldm(5)=   0.000000  celldm(6)=   0.000000

     crystal axes: (cart. coord. in units of alat)
               a(1) = (  -0.500000   0.000000   0.500000 )  
               a(2) = (   0.000000   0.500000   0.500000 )  
               a(3) = (  -0.500000   0.500000   0.000000 )  

     reciprocal axes: (cart. coord. in units 2 pi/alat)
               b(1) = ( -1.000000 -1.000000  1.000000 )  
               b(2) = (  1.000000  1.000000  1.000000 )  
               b(3) = ( -1.000000  1.000000 -1.000000 )  


     PseudoPot. # 1 for Pd read from file:
     ./pd_pbe_v1.4.uspp.F.UPF
     MD5 check sum: 2d733d2bc2cbfd217af676df1668a4bc
     Pseudo is Ultrasoft + core correction, Zval = 16.0
     Generated by new atomic code, or converted to UPF format
     Using radial grid of  887 points,  6 beta functions with: 
                l(1) =   0
                l(2) =   0
                l(3) =   1
                l(4) =   1
                l(5) =   2
                l(6) =   2
     Q(r) pseudized with  8 coefficients,  rinner =    1.130   1.130   1.130
                                                       1.130   1.130

     atomic species   valence    mass     pseudopotential
        Pd            16.00   106.40000     Pd( 1.00)

     48 Sym. Ops., with inversion, found



   Cartesian axes

     site n.     atom                  positions (alat units)
         1           Pd  tau(   1) = (   0.0000000   0.0000000   0.0000000  )

     number of k points=   413  Marzari-Vanderbilt smearing, width (Ry)=  0.0250

     Number of k-points >= 100: set verbosity='high' to print them.

     Dense  grid:     3527 G-vectors     FFT dimensions: (  24,  24,  24)

     Estimated max dynamical RAM per process >      24.49 MB

     Estimated total dynamical RAM >      48.99 MB

     Check: negative/imaginary core charge=   -0.000001    0.000000

     Initial potential from superposition of free atoms
     Check: negative starting charge=   -0.080332

     starting charge   15.49999, renormalised to   16.00000

     negative rho (up, down):  8.292E-02 0.000E+00
     Starting wfcs are   12 randomized atomic wfcs

     total cpu time spent up to now is        1.6 secs

     Self-consistent Calculation

     iteration #  1     ecut=    35.00 Ry     beta= 0.70
     Davidson diagonalization with overlap
     ethr =  1.00E-02,  avg # of iterations =  3.4

     negative rho (up, down):  8.035E-02 0.000E+00

     total cpu time spent up to now is        6.4 secs

     total energy              =    -197.96190087 Ry
     Harris-Foulkes estimate   =    -199.06753801 Ry
     estimated scf accuracy    <       1.50427725 Ry

     iteration #  2     ecut=    35.00 Ry     beta= 0.70
     Davidson diagonalization with overlap
     ethr =  9.40E-03,  avg # of iterations =  2.0

     negative rho (up, down):  8.254E-02 0.000E+00

     total cpu time spent up to now is       11.0 secs

     total energy              =    -198.29531984 Ry
     Harris-Foulkes estimate   =    -199.25566607 Ry
     estimated scf accuracy    <       2.04293143 Ry

     iteration #  3     ecut=    35.00 Ry     beta= 0.70
     Davidson diagonalization with overlap
     ethr =  9.40E-03,  avg # of iterations =  2.0

     negative rho (up, down):  8.261E-02 0.000E+00

     total cpu time spent up to now is       14.8 secs

     total energy              =    -198.67997750 Ry
     Harris-Foulkes estimate   =    -198.68022170 Ry
     estimated scf accuracy    <       0.00056680 Ry

     iteration #  4     ecut=    35.00 Ry     beta= 0.70
     Davidson diagonalization with overlap
     ethr =  3.54E-06,  avg # of iterations =  2.7

     negative rho (up, down):  8.272E-02 0.000E+00

     total cpu time spent up to now is       19.5 secs

     total energy              =    -198.68029342 Ry
     Harris-Foulkes estimate   =    -198.68029256 Ry
     estimated scf accuracy    <       0.00000191 Ry

     iteration #  5     ecut=    35.00 Ry     beta= 0.70
     Davidson diagonalization with overlap
     ethr =  1.19E-08,  avg # of iterations =  1.8

     negative rho (up, down):  8.274E-02 0.000E+00

     total cpu time spent up to now is       22.9 secs

     End of self-consistent calculation

     Number of k-points >= 100: set verbosity='high' to print the bands.

     the Fermi energy is    13.1258 ev

!    total energy              =    -198.68029358 Ry
     Harris-Foulkes estimate   =    -198.68029354 Ry
     estimated scf accuracy    <       0.00000005 Ry

     The total energy is the sum of the following terms:

     one-electron contribution =     -63.25691932 Ry
     hartree contribution      =      42.52101785 Ry
     xc contribution           =     -31.22950396 Ry
     ewald contribution        =    -146.71558644 Ry
     smearing contrib. (-TS)   =       0.00069828 Ry

     convergence has been achieved in   5 iterations

     Writing output data file Pd-kp-conv.save/
 
     init_run     :      1.47s CPU      1.57s WALL (       1 calls)
     electrons    :     19.47s CPU     21.30s WALL (       1 calls)

     Called by init_run:
     wfcinit      :      1.15s CPU      1.24s WALL (       1 calls)
     potinit      :      0.01s CPU      0.01s WALL (       1 calls)
     hinit0       :      0.30s CPU      0.30s WALL (       1 calls)

     Called by electrons:
     c_bands      :     16.61s CPU     18.21s WALL (       5 calls)
     sum_band     :      2.80s CPU      2.98s WALL (       5 calls)
     v_of_rho     :      0.03s CPU      0.03s WALL (       6 calls)
     newd         :      0.04s CPU      0.04s WALL (       6 calls)
     mix_rho      :      0.00s CPU      0.00s WALL (       5 calls)

     Called by c_bands:
     init_us_2    :      0.44s CPU      0.48s WALL (    4543 calls)
     cegterg      :     15.46s CPU     16.52s WALL (    2065 calls)

     Called by sum_band:
     sum_band:bec :      0.02s CPU      0.02s WALL (    2065 calls)
     addusdens    :      0.03s CPU      0.04s WALL (       5 calls)

     Called by *egterg:
     h_psi        :     12.55s CPU     13.46s WALL (    7410 calls)
     s_psi        :      0.27s CPU      0.29s WALL (    7410 calls)
     g_psi        :      0.14s CPU      0.15s WALL (    4932 calls)
     cdiaghg      :      1.99s CPU      2.10s WALL (    6997 calls)

     Called by h_psi:
     h_psi:pot    :     12.50s CPU     13.40s WALL (    7410 calls)
     h_psi:calbec :      0.35s CPU      0.38s WALL (    7410 calls)
     vloc_psi     :     11.81s CPU     12.67s WALL (    7410 calls)
     add_vuspsi   :      0.28s CPU      0.31s WALL (    7410 calls)

     General routines
     calbec       :      0.43s CPU      0.47s WALL (    9475 calls)
     fft          :      0.01s CPU      0.01s WALL (      67 calls)
     ffts         :      0.00s CPU      0.00s WALL (       5 calls)
     fftw         :     12.43s CPU     13.32s WALL (  161478 calls)
 
     Parallel routines
     fft_scatt_xy :      2.10s CPU      2.25s WALL (  161550 calls)
     fft_scatt_yz :      3.50s CPU      3.78s WALL (  161550 calls)
 
     PWSCF        :    21.18s CPU        24.86s WALL

 
   This run was terminated on:  22:16:57   2Dec2021            

=------------------------------------------------------------------------------=
   JOB DONE.
=------------------------------------------------------------------------------=
