
     Program PWSCF v.6.3 starts on  2Dec2021 at 23:12:28 

     This program is part of the open-source Quantum ESPRESSO suite
     for quantum simulation of materials; please cite
         "P. Giannozzi et al., J. Phys.:Condens. Matter 21 395502 (2009);
         "P. Giannozzi et al., J. Phys.:Condens. Matter 29 465901 (2017);
          URL http://www.quantum-espresso.org", 
     in publications or presentations arising from this work. More details at
     http://www.quantum-espresso.org/quote

     Parallel version (MPI & OpenMP), running on       2 processor cores
     Number of MPI processes:                 2
     Threads/MPI process:                     1

     MPI processes distributed on     1 nodes
     R & G space division:  proc/nbgrp/npool/nimage =       2
     Reading input from pw-input.in

     Current dimensions of program PWSCF are:
     Max number of different atomic species (ntypx) = 10
     Max number of k-points (npk) =  40000
     Max angular momentum in pseudopotentials (lmaxx) =  3

     Subspace diagonalization in iterative solution of the eigenvalue problem:
     a serial algorithm will be used

 
     Parallelization info
     --------------------
     sticks:   dense  smooth     PW     G-vecs:    dense   smooth      PW
     Min         111     111     42                 1066     1066     229
     Max         112     112     43                 1067     1067     230
     Sum         223     223     85                 2133     2133     459
 

     Title: 
     Pd-kp-conv                                                                 


     bravais-lattice index     =            2
     lattice parameter (alat)  =       6.8000  a.u.
     unit-cell volume          =      78.6080 (a.u.)^3
     number of atoms/cell      =            1
     number of atomic types    =            1
     number of electrons       =        16.00
     number of Kohn-Sham states=           12
     kinetic-energy cutoff     =      35.0000  Ry
     charge density cutoff     =     140.0000  Ry
     convergence threshold     =      1.0E-07
     mixing beta               =       0.7000
     number of iterations used =            8  plain     mixing
     Exchange-correlation      =  SLA  PW   PBX  PBC ( 1  4  3  4 0 0)

     celldm(1)=   6.800000  celldm(2)=   0.000000  celldm(3)=   0.000000
     celldm(4)=   0.000000  celldm(5)=   0.000000  celldm(6)=   0.000000

     crystal axes: (cart. coord. in units of alat)
               a(1) = (  -0.500000   0.000000   0.500000 )  
               a(2) = (   0.000000   0.500000   0.500000 )  
               a(3) = (  -0.500000   0.500000   0.000000 )  

     reciprocal axes: (cart. coord. in units 2 pi/alat)
               b(1) = ( -1.000000 -1.000000  1.000000 )  
               b(2) = (  1.000000  1.000000  1.000000 )  
               b(3) = ( -1.000000  1.000000 -1.000000 )  


     PseudoPot. # 1 for Pd read from file:
     ./pd_pbe_v1.4.uspp.F.UPF
     MD5 check sum: 2d733d2bc2cbfd217af676df1668a4bc
     Pseudo is Ultrasoft + core correction, Zval = 16.0
     Generated by new atomic code, or converted to UPF format
     Using radial grid of  887 points,  6 beta functions with: 
                l(1) =   0
                l(2) =   0
                l(3) =   1
                l(4) =   1
                l(5) =   2
                l(6) =   2
     Q(r) pseudized with  8 coefficients,  rinner =    1.130   1.130   1.130
                                                       1.130   1.130

     atomic species   valence    mass     pseudopotential
        Pd            16.00   106.40000     Pd( 1.00)

     48 Sym. Ops., with inversion, found



   Cartesian axes

     site n.     atom                  positions (alat units)
         1           Pd  tau(   1) = (   0.0000000   0.0000000   0.0000000  )

     number of k points=    35  Marzari-Vanderbilt smearing, width (Ry)=  0.0400
                       cart. coord. in units 2pi/alat
        k(    1) = (   0.0000000   0.0000000   0.0000000), wk =   0.0027435
        k(    2) = (  -0.1111111   0.1111111  -0.1111111), wk =   0.0219479
        k(    3) = (  -0.2222222   0.2222222  -0.2222222), wk =   0.0219479
        k(    4) = (  -0.3333333   0.3333333  -0.3333333), wk =   0.0219479
        k(    5) = (  -0.4444444   0.4444444  -0.4444444), wk =   0.0219479
        k(    6) = (   0.0000000   0.2222222   0.0000000), wk =   0.0164609
        k(    7) = (  -0.1111111   0.3333333  -0.1111111), wk =   0.0658436
        k(    8) = (  -0.2222222   0.4444444  -0.2222222), wk =   0.0658436
        k(    9) = (  -0.3333333   0.5555556  -0.3333333), wk =   0.0658436
        k(   10) = (   0.5555556  -0.3333333   0.5555556), wk =   0.0658436
        k(   11) = (   0.4444444  -0.2222222   0.4444444), wk =   0.0658436
        k(   12) = (   0.3333333  -0.1111111   0.3333333), wk =   0.0658436
        k(   13) = (   0.2222222  -0.0000000   0.2222222), wk =   0.0329218
        k(   14) = (   0.0000000   0.4444444   0.0000000), wk =   0.0164609
        k(   15) = (  -0.1111111   0.5555556  -0.1111111), wk =   0.0658436
        k(   16) = (  -0.2222222   0.6666667  -0.2222222), wk =   0.0658436
        k(   17) = (   0.6666667  -0.2222222   0.6666667), wk =   0.0658436
        k(   18) = (   0.5555556  -0.1111111   0.5555556), wk =   0.0658436
        k(   19) = (   0.4444444   0.0000000   0.4444444), wk =   0.0329218
        k(   20) = (   0.0000000   0.6666667   0.0000000), wk =   0.0164609
        k(   21) = (  -0.1111111   0.7777778  -0.1111111), wk =   0.0658436
        k(   22) = (   0.7777778  -0.1111111   0.7777778), wk =   0.0658436
        k(   23) = (   0.6666667  -0.0000000   0.6666667), wk =   0.0329218
        k(   24) = (   0.0000000   0.8888889   0.0000000), wk =   0.0164609
        k(   25) = (   0.8888889   0.0000000   0.8888889), wk =   0.0329218
        k(   26) = (  -0.2222222   0.4444444   0.0000000), wk =   0.0658436
        k(   27) = (  -0.3333333   0.5555556  -0.1111111), wk =   0.1316872
        k(   28) = (   0.5555556  -0.3333333   0.7777778), wk =   0.1316872
        k(   29) = (  -0.2222222   0.6666667   0.0000000), wk =   0.0658436
        k(   30) = (   0.6666667  -0.2222222   0.8888889), wk =   0.1316872
        k(   31) = (   0.5555556  -0.1111111   0.7777778), wk =   0.1316872
        k(   32) = (   0.4444444   0.0000000   0.6666667), wk =   0.0658436
        k(   33) = (   0.7777778  -0.1111111   1.0000000), wk =   0.0658436
        k(   34) = (   0.6666667  -0.0000000   0.8888889), wk =   0.0658436
        k(   35) = (   0.5555556  -0.1111111   1.0000000), wk =   0.0658436

     Dense  grid:     2133 G-vectors     FFT dimensions: (  20,  20,  20)

     Estimated max dynamical RAM per process >       5.73 MB

     Estimated total dynamical RAM >      11.46 MB

     Initial potential from superposition of free atoms
     Check: negative starting charge=   -0.081587

     starting charge   15.49999, renormalised to   16.00000

     negative rho (up, down):  8.422E-02 0.000E+00
     Starting wfcs are   12 randomized atomic wfcs

     total cpu time spent up to now is        0.5 secs

     Self-consistent Calculation

     iteration #  1     ecut=    35.00 Ry     beta= 0.70
     Davidson diagonalization with overlap
     ethr =  1.00E-02,  avg # of iterations =  3.4

     negative rho (up, down):  8.471E-02 0.000E+00

     total cpu time spent up to now is        0.9 secs

     total energy              =    -198.36301434 Ry
     Harris-Foulkes estimate   =    -198.87563896 Ry
     estimated scf accuracy    <       0.72333272 Ry

     iteration #  2     ecut=    35.00 Ry     beta= 0.70
     Davidson diagonalization with overlap
     ethr =  4.52E-03,  avg # of iterations =  2.0

     negative rho (up, down):  8.595E-02 0.000E+00

     total cpu time spent up to now is        1.1 secs

     total energy              =    -198.56150577 Ry
     Harris-Foulkes estimate   =    -198.75277674 Ry
     estimated scf accuracy    <       0.33890098 Ry

     iteration #  3     ecut=    35.00 Ry     beta= 0.70
     Davidson diagonalization with overlap
     ethr =  2.12E-03,  avg # of iterations =  2.1

     negative rho (up, down):  8.662E-02 0.000E+00

     total cpu time spent up to now is        1.4 secs

     total energy              =    -198.63846340 Ry
     Harris-Foulkes estimate   =    -198.63922724 Ry
     estimated scf accuracy    <       0.00163700 Ry

     iteration #  4     ecut=    35.00 Ry     beta= 0.70
     Davidson diagonalization with overlap
     ethr =  1.02E-05,  avg # of iterations =  2.1

     negative rho (up, down):  8.673E-02 0.000E+00

     total cpu time spent up to now is        1.6 secs

     total energy              =    -198.63885079 Ry
     Harris-Foulkes estimate   =    -198.63889076 Ry
     estimated scf accuracy    <       0.00006849 Ry

     iteration #  5     ecut=    35.00 Ry     beta= 0.70
     Davidson diagonalization with overlap
     ethr =  4.28E-07,  avg # of iterations =  2.0

     negative rho (up, down):  8.676E-02 0.000E+00

     total cpu time spent up to now is        1.9 secs

     total energy              =    -198.63886832 Ry
     Harris-Foulkes estimate   =    -198.63886958 Ry
     estimated scf accuracy    <       0.00000228 Ry

     iteration #  6     ecut=    35.00 Ry     beta= 0.70
     Davidson diagonalization with overlap
     ethr =  1.42E-08,  avg # of iterations =  2.0

     negative rho (up, down):  8.676E-02 0.000E+00

     total cpu time spent up to now is        2.1 secs

     End of self-consistent calculation

          k = 0.0000 0.0000 0.0000 (   283 PWs)   bands (ev):

   -24.7333 -24.7333 -24.7333  16.4782  21.4394  21.4394  21.4394  23.7994
    23.7994  43.7429  50.0031  50.0031

          k =-0.1111 0.1111-0.1111 (   280 PWs)   bands (ev):

   -24.8475 -24.7484 -24.7484  17.0212  21.2308  21.6419  21.6419  23.7032
    23.7032  44.4514  47.2686  50.7443

          k =-0.2222 0.2222-0.2222 (   283 PWs)   bands (ev):

   -25.1321 -24.7868 -24.7868  18.1653  21.2263  21.8713  21.8713  23.8367
    23.8367  43.3287  45.4493  52.5498

          k =-0.3333 0.3333-0.3333 (   281 PWs)   bands (ev):

   -25.4466 -24.8303 -24.8303  18.4210  21.6431  21.6431  23.0283  24.6683
    24.6683  39.3422  44.3576  52.4051

          k =-0.4444 0.4444-0.4444 (   269 PWs)   bands (ev):

   -25.6474 -24.8584 -24.8584  18.1910  21.3836  21.3836  25.4591  25.4591
    25.6123  35.7994  43.1612  50.3580

          k = 0.0000 0.2222 0.0000 (   283 PWs)   bands (ev):

   -24.8443 -24.7740 -24.7740  17.2041  20.9717  21.8272  21.8272  23.3123
    23.9856  44.7519  47.9474  49.8437

          k =-0.1111 0.3333-0.1111 (   283 PWs)   bands (ev):

   -25.0553 -24.8201 -24.8048  18.2265  20.5869  22.0515  22.2018  23.2848
    24.2300  44.8988  45.9256  49.7597

          k =-0.2222 0.4444-0.2222 (   280 PWs)   bands (ev):

   -25.3470 -24.8653 -24.8548  18.8249  21.2460  21.5629  22.1534  24.7802
    24.9107  40.9641  45.3102  49.3805

          k =-0.3333 0.5556-0.3333 (   271 PWs)   bands (ev):

   -25.5734 -24.9096 -24.8883  18.6125  21.0983  21.8525  22.8824  25.5612
    27.1720  36.8318  43.9474  48.7503

          k = 0.5556-0.3333 0.5556 (   271 PWs)   bands (ev):

   -25.6352 -24.9430 -24.8787  18.5451  21.0150  21.6997  23.6205  25.4140
    28.5137  35.1560  43.5141  48.0954

          k = 0.4444-0.2222 0.4444 (   273 PWs)   bands (ev):

   -25.5078 -24.9374 -24.8409  18.7667  21.2821  21.8411  22.6726  24.4530
    26.9025  38.2115  44.1337  48.2823

          k = 0.3333-0.1111 0.3333 (   280 PWs)   bands (ev):

   -25.2498 -24.8921 -24.7922  18.8674  20.9416  21.8211  22.1712  23.3483
    25.1946  42.3177  45.2888  49.9810

          k = 0.2222-0.0000 0.2222 (   285 PWs)   bands (ev):

   -24.9877 -24.8178 -24.7557  17.8344  20.8613  21.9351  21.9537  23.2356
    24.1178  45.2735  45.5402  49.7559

          k = 0.0000 0.4444 0.0000 (   290 PWs)   bands (ev):

   -25.1165 -24.8767 -24.8767  18.7167  19.9182  22.7398  22.9283  22.9283
    24.4767  46.2229  47.1333  47.6443

          k =-0.1111 0.5556-0.1111 (   278 PWs)   bands (ev):

   -25.3115 -24.9403 -24.9292  19.0964  19.6478  22.2757  23.2607  24.9587
    25.0366  43.0009  45.8660  46.1979

          k =-0.2222 0.6667-0.2222 (   276 PWs)   bands (ev):

   -25.4847 -25.0313 -24.9542  18.9849  20.1287  21.9957  23.0079  25.6648
    28.1312  38.4128  44.0623  45.7199

          k = 0.6667-0.2222 0.6667 (   275 PWs)   bands (ev):

   -25.5445 -25.1194 -24.9395  19.1381  20.3853  22.1062  22.7145  25.4635
    31.2798  34.9819  42.6177  46.8646

          k = 0.5556-0.1111 0.5556 (   273 PWs)   bands (ev):

   -25.4820 -25.1456 -24.8924  19.6131  20.6140  21.7043  22.6225  24.4397
    29.8603  37.5421  41.8480  47.0180

          k = 0.4444 0.0000 0.4444 (   275 PWs)   bands (ev):

   -25.3670 -25.0553 -24.8342  20.0210  20.4549  21.3250  22.7188  23.2942
    27.3691  41.3430  42.6393  47.9190

          k = 0.0000 0.6667 0.0000 (   274 PWs)   bands (ev):

   -25.4097 -24.9920 -24.9920  18.6383  18.8902  24.4960  24.4960  24.8693
    25.0724  43.7759  43.7759  44.0483

          k =-0.1111 0.7778-0.1111 (   273 PWs)   bands (ev):

   -25.5120 -25.0724 -25.0245  18.4484  18.7971  23.9168  24.5145  25.7145
    28.2294  40.3034  42.0314  42.7478

          k = 0.7778-0.1111 0.7778 (   272 PWs)   bands (ev):

   -25.5040 -25.2127 -25.0118  18.6411  19.4137  22.9194  24.1103  25.6256
    32.3016  36.2759  40.0692  43.7088

          k = 0.6667-0.0000 0.6667 (   268 PWs)   bands (ev):

   -25.3705 -25.3644 -24.9595  19.2410  20.3635  21.7200  23.5330  24.8724
    32.8312  36.4600  38.9609  46.3804

          k = 0.0000 0.8889 0.0000 (   270 PWs)   bands (ev):

   -25.5933 -25.0666 -25.0666  17.9268  18.2904  25.4878  25.8409  25.8409
    28.3365  40.0419  40.9688  40.9688

          k = 0.8889 0.0000 0.8889 (   272 PWs)   bands (ev):

   -25.5865 -25.1267 -25.0616  18.0530  18.4856  24.8089  25.1913  25.9161
    30.6676  38.7725  39.2929  41.3493

          k =-0.2222 0.4444 0.0000 (   280 PWs)   bands (ev):

   -25.2208 -24.9273 -24.8318  19.2144  20.1350  21.6909  22.9272  23.3725
    25.2555  43.6440  45.2095  48.8843

          k =-0.3333 0.5556-0.1111 (   278 PWs)   bands (ev):

   -25.4194 -25.0191 -24.8784  19.4112  20.7631  21.1351  22.8497  24.4122
    27.3257  39.9938  43.9759  46.5940

          k = 0.5556-0.3333 0.7778 (   268 PWs)   bands (ev):

   -25.5528 -25.0620 -24.9187  19.2053  20.4943  22.0731  22.5463  25.2847
    29.9494  35.8905  43.6414  45.5017

          k =-0.2222 0.6667 0.0000 (   277 PWs)   bands (ev):

   -25.4277 -25.0511 -24.9650  19.1899  19.2949  22.2271  24.4794  24.5345
    27.4919  41.7444  42.4883  44.3233

          k = 0.6667-0.2222 0.8889 (   274 PWs)   bands (ev):

   -25.4833 -25.1629 -25.0003  19.1773  19.7562  21.8157  23.8633  25.4369
    30.8020  37.6160  42.2255  42.3355

          k = 0.5556-0.1111 0.7778 (   274 PWs)   bands (ev):

   -25.4536 -25.2546 -24.9870  19.5417  20.1861  21.3939  23.3650  25.3167
    33.1277  35.4194  40.6155  43.5618

          k = 0.4444 0.0000 0.6667 (   272 PWs)   bands (ev):

   -25.4329 -25.1990 -24.9330  20.2033  20.3953  20.5657  23.4568  24.5032
    30.1676  39.6789  39.7379  45.1260

          k = 0.7778-0.1111 1.0000 (   276 PWs)   bands (ev):

   -25.5420 -25.1311 -25.0669  18.4301  18.7853  23.5774  24.9065  25.8371
    30.8258  39.6398  39.9994  40.3236

          k = 0.6667-0.0000 0.8889 (   268 PWs)   bands (ev):

   -25.4711 -25.2513 -25.0524  18.8370  19.4968  22.4239  24.1157  25.8255
    33.9077  36.4618  38.8863  41.4551

          k = 0.5556-0.1111 1.0000 (   272 PWs)   bands (ev):

   -25.4096 -25.2917 -25.0619  19.3406  20.2201  21.1275  23.7032  25.8298
    34.0050  37.3735  38.8451  40.4629

     the Fermi energy is    25.6313 ev

!    total energy              =    -198.63886887 Ry
     Harris-Foulkes estimate   =    -198.63886895 Ry
     estimated scf accuracy    <       0.00000009 Ry

     The total energy is the sum of the following terms:

     one-electron contribution =     -23.70268255 Ry
     hartree contribution      =      29.28074720 Ry
     xc contribution           =     -31.60999572 Ry
     ewald contribution        =    -172.60657228 Ry
     smearing contrib. (-TS)   =      -0.00036553 Ry

     convergence has been achieved in   6 iterations

     Writing output data file Pd-kp-conv.save/
 
     init_run     :      0.40s CPU      0.43s WALL (       1 calls)
     electrons    :      1.45s CPU      1.98s WALL (       1 calls)

     Called by init_run:
     wfcinit      :      0.09s CPU      0.10s WALL (       1 calls)
     potinit      :      0.00s CPU      0.01s WALL (       1 calls)
     hinit0       :      0.30s CPU      0.30s WALL (       1 calls)

     Called by electrons:
     c_bands      :      1.18s CPU      1.30s WALL (       6 calls)
     sum_band     :      0.23s CPU      0.24s WALL (       6 calls)
     v_of_rho     :      0.02s CPU      0.02s WALL (       7 calls)
     newd         :      0.03s CPU      0.03s WALL (       7 calls)
     mix_rho      :      0.00s CPU      0.00s WALL (       6 calls)

     Called by c_bands:
     init_us_2    :      0.03s CPU      0.03s WALL (     455 calls)
     cegterg      :      1.10s CPU      1.21s WALL (     210 calls)

     Called by sum_band:
     sum_band:bec :      0.00s CPU      0.00s WALL (     210 calls)
     addusdens    :      0.03s CPU      0.03s WALL (       6 calls)

     Called by *egterg:
     h_psi        :      0.89s CPU      0.99s WALL (     721 calls)
     s_psi        :      0.01s CPU      0.02s WALL (     721 calls)
     g_psi        :      0.01s CPU      0.01s WALL (     476 calls)
     cdiaghg      :      0.17s CPU      0.18s WALL (     686 calls)

     Called by h_psi:
     h_psi:pot    :      0.89s CPU      0.99s WALL (     721 calls)
     h_psi:calbec :      0.02s CPU      0.02s WALL (     721 calls)
     vloc_psi     :      0.85s CPU      0.94s WALL (     721 calls)
     add_vuspsi   :      0.01s CPU      0.02s WALL (     721 calls)

     General routines
     calbec       :      0.02s CPU      0.03s WALL (     931 calls)
     fft          :      0.01s CPU      0.01s WALL (      78 calls)
     ffts         :      0.00s CPU      0.00s WALL (       6 calls)
     fftw         :      0.88s CPU      0.97s WALL (   15988 calls)
 
     Parallel routines
     fft_scatt_xy :      0.16s CPU      0.18s WALL (   16072 calls)
     fft_scatt_yz :      0.23s CPU      0.25s WALL (   16072 calls)
 
     PWSCF        :     1.93s CPU         2.65s WALL

 
   This run was terminated on:  23:12:30   2Dec2021            

=------------------------------------------------------------------------------=
   JOB DONE.
=------------------------------------------------------------------------------=
