
     Program PWSCF v.6.3 starts on  2Dec2021 at 23:12:44 

     This program is part of the open-source Quantum ESPRESSO suite
     for quantum simulation of materials; please cite
         "P. Giannozzi et al., J. Phys.:Condens. Matter 21 395502 (2009);
         "P. Giannozzi et al., J. Phys.:Condens. Matter 29 465901 (2017);
          URL http://www.quantum-espresso.org", 
     in publications or presentations arising from this work. More details at
     http://www.quantum-espresso.org/quote

     Parallel version (MPI & OpenMP), running on       2 processor cores
     Number of MPI processes:                 2
     Threads/MPI process:                     1

     MPI processes distributed on     1 nodes
     R & G space division:  proc/nbgrp/npool/nimage =       2
     Reading input from pw-input.in

     Current dimensions of program PWSCF are:
     Max number of different atomic species (ntypx) = 10
     Max number of k-points (npk) =  40000
     Max angular momentum in pseudopotentials (lmaxx) =  3

     Subspace diagonalization in iterative solution of the eigenvalue problem:
     a serial algorithm will be used

 
     Parallelization info
     --------------------
     sticks:   dense  smooth     PW     G-vecs:    dense   smooth      PW
     Min         126     126     42                 1365     1365     267
     Max         127     127     43                 1368     1368     270
     Sum         253     253     85                 2733     2733     537
 

     Title: 
     Pd-kp-conv                                                                 


     bravais-lattice index     =            2
     lattice parameter (alat)  =       7.3000  a.u.
     unit-cell volume          =      97.2542 (a.u.)^3
     number of atoms/cell      =            1
     number of atomic types    =            1
     number of electrons       =        16.00
     number of Kohn-Sham states=           12
     kinetic-energy cutoff     =      35.0000  Ry
     charge density cutoff     =     140.0000  Ry
     convergence threshold     =      1.0E-07
     mixing beta               =       0.7000
     number of iterations used =            8  plain     mixing
     Exchange-correlation      =  SLA  PW   PBX  PBC ( 1  4  3  4 0 0)

     celldm(1)=   7.300000  celldm(2)=   0.000000  celldm(3)=   0.000000
     celldm(4)=   0.000000  celldm(5)=   0.000000  celldm(6)=   0.000000

     crystal axes: (cart. coord. in units of alat)
               a(1) = (  -0.500000   0.000000   0.500000 )  
               a(2) = (   0.000000   0.500000   0.500000 )  
               a(3) = (  -0.500000   0.500000   0.000000 )  

     reciprocal axes: (cart. coord. in units 2 pi/alat)
               b(1) = ( -1.000000 -1.000000  1.000000 )  
               b(2) = (  1.000000  1.000000  1.000000 )  
               b(3) = ( -1.000000  1.000000 -1.000000 )  


     PseudoPot. # 1 for Pd read from file:
     ./pd_pbe_v1.4.uspp.F.UPF
     MD5 check sum: 2d733d2bc2cbfd217af676df1668a4bc
     Pseudo is Ultrasoft + core correction, Zval = 16.0
     Generated by new atomic code, or converted to UPF format
     Using radial grid of  887 points,  6 beta functions with: 
                l(1) =   0
                l(2) =   0
                l(3) =   1
                l(4) =   1
                l(5) =   2
                l(6) =   2
     Q(r) pseudized with  8 coefficients,  rinner =    1.130   1.130   1.130
                                                       1.130   1.130

     atomic species   valence    mass     pseudopotential
        Pd            16.00   106.40000     Pd( 1.00)

     48 Sym. Ops., with inversion, found



   Cartesian axes

     site n.     atom                  positions (alat units)
         1           Pd  tau(   1) = (   0.0000000   0.0000000   0.0000000  )

     number of k points=    35  Marzari-Vanderbilt smearing, width (Ry)=  0.0400
                       cart. coord. in units 2pi/alat
        k(    1) = (   0.0000000   0.0000000   0.0000000), wk =   0.0027435
        k(    2) = (  -0.1111111   0.1111111  -0.1111111), wk =   0.0219479
        k(    3) = (  -0.2222222   0.2222222  -0.2222222), wk =   0.0219479
        k(    4) = (  -0.3333333   0.3333333  -0.3333333), wk =   0.0219479
        k(    5) = (  -0.4444444   0.4444444  -0.4444444), wk =   0.0219479
        k(    6) = (   0.0000000   0.2222222   0.0000000), wk =   0.0164609
        k(    7) = (  -0.1111111   0.3333333  -0.1111111), wk =   0.0658436
        k(    8) = (  -0.2222222   0.4444444  -0.2222222), wk =   0.0658436
        k(    9) = (  -0.3333333   0.5555556  -0.3333333), wk =   0.0658436
        k(   10) = (   0.5555556  -0.3333333   0.5555556), wk =   0.0658436
        k(   11) = (   0.4444444  -0.2222222   0.4444444), wk =   0.0658436
        k(   12) = (   0.3333333  -0.1111111   0.3333333), wk =   0.0658436
        k(   13) = (   0.2222222  -0.0000000   0.2222222), wk =   0.0329218
        k(   14) = (   0.0000000   0.4444444   0.0000000), wk =   0.0164609
        k(   15) = (  -0.1111111   0.5555556  -0.1111111), wk =   0.0658436
        k(   16) = (  -0.2222222   0.6666667  -0.2222222), wk =   0.0658436
        k(   17) = (   0.6666667  -0.2222222   0.6666667), wk =   0.0658436
        k(   18) = (   0.5555556  -0.1111111   0.5555556), wk =   0.0658436
        k(   19) = (   0.4444444   0.0000000   0.4444444), wk =   0.0329218
        k(   20) = (   0.0000000   0.6666667   0.0000000), wk =   0.0164609
        k(   21) = (  -0.1111111   0.7777778  -0.1111111), wk =   0.0658436
        k(   22) = (   0.7777778  -0.1111111   0.7777778), wk =   0.0658436
        k(   23) = (   0.6666667  -0.0000000   0.6666667), wk =   0.0329218
        k(   24) = (   0.0000000   0.8888889   0.0000000), wk =   0.0164609
        k(   25) = (   0.8888889   0.0000000   0.8888889), wk =   0.0329218
        k(   26) = (  -0.2222222   0.4444444   0.0000000), wk =   0.0658436
        k(   27) = (  -0.3333333   0.5555556  -0.1111111), wk =   0.1316872
        k(   28) = (   0.5555556  -0.3333333   0.7777778), wk =   0.1316872
        k(   29) = (  -0.2222222   0.6666667   0.0000000), wk =   0.0658436
        k(   30) = (   0.6666667  -0.2222222   0.8888889), wk =   0.1316872
        k(   31) = (   0.5555556  -0.1111111   0.7777778), wk =   0.1316872
        k(   32) = (   0.4444444   0.0000000   0.6666667), wk =   0.0658436
        k(   33) = (   0.7777778  -0.1111111   1.0000000), wk =   0.0658436
        k(   34) = (   0.6666667  -0.0000000   0.8888889), wk =   0.0658436
        k(   35) = (   0.5555556  -0.1111111   1.0000000), wk =   0.0658436

     Dense  grid:     2733 G-vectors     FFT dimensions: (  20,  20,  20)

     Estimated max dynamical RAM per process >       7.01 MB

     Estimated total dynamical RAM >      14.02 MB

     Initial potential from superposition of free atoms
     Check: negative starting charge=   -0.084718

     starting charge   15.49999, renormalised to   16.00000

     negative rho (up, down):  8.745E-02 0.000E+00
     Starting wfcs are   12 randomized atomic wfcs

     total cpu time spent up to now is        0.6 secs

     Self-consistent Calculation

     iteration #  1     ecut=    35.00 Ry     beta= 0.70
     Davidson diagonalization with overlap
     ethr =  1.00E-02,  avg # of iterations =  3.7

     negative rho (up, down):  8.698E-02 0.000E+00

     total cpu time spent up to now is        0.9 secs

     total energy              =    -198.24833498 Ry
     Harris-Foulkes estimate   =    -199.01180870 Ry
     estimated scf accuracy    <       1.05784169 Ry

     iteration #  2     ecut=    35.00 Ry     beta= 0.70
     Davidson diagonalization with overlap
     ethr =  6.61E-03,  avg # of iterations =  2.0

     negative rho (up, down):  8.822E-02 0.000E+00

     total cpu time spent up to now is        1.2 secs

     total energy              =    -198.51273471 Ry
     Harris-Foulkes estimate   =    -198.95933848 Ry
     estimated scf accuracy    <       0.86570667 Ry

     iteration #  3     ecut=    35.00 Ry     beta= 0.70
     Davidson diagonalization with overlap
     ethr =  5.41E-03,  avg # of iterations =  2.0

     negative rho (up, down):  8.859E-02 0.000E+00

     total cpu time spent up to now is        1.5 secs

     total energy              =    -198.69826266 Ry
     Harris-Foulkes estimate   =    -198.69940892 Ry
     estimated scf accuracy    <       0.00239335 Ry

     iteration #  4     ecut=    35.00 Ry     beta= 0.70
     Davidson diagonalization with overlap
     ethr =  1.50E-05,  avg # of iterations =  2.2

     negative rho (up, down):  8.875E-02 0.000E+00

     total cpu time spent up to now is        2.1 secs

     total energy              =    -198.69896800 Ry
     Harris-Foulkes estimate   =    -198.69898297 Ry
     estimated scf accuracy    <       0.00003649 Ry

     iteration #  5     ecut=    35.00 Ry     beta= 0.70
     Davidson diagonalization with overlap
     ethr =  2.28E-07,  avg # of iterations =  2.0

     negative rho (up, down):  8.880E-02 0.000E+00

     total cpu time spent up to now is        2.3 secs

     total energy              =    -198.69897496 Ry
     Harris-Foulkes estimate   =    -198.69897476 Ry
     estimated scf accuracy    <       0.00000021 Ry

     iteration #  6     ecut=    35.00 Ry     beta= 0.70
     Davidson diagonalization with overlap
     ethr =  1.30E-09,  avg # of iterations =  2.3

     negative rho (up, down):  8.881E-02 0.000E+00

     total cpu time spent up to now is        2.6 secs

     End of self-consistent calculation

          k = 0.0000 0.0000 0.0000 (   331 PWs)   bands (ev):

   -30.4307 -30.4307 -30.4307  11.9894  16.3628  16.3628  16.3628  18.0358
    18.0358  37.2795  42.1912  42.1912

          k =-0.1111 0.1111-0.1111 (   335 PWs)   bands (ev):

   -30.4839 -30.4382 -30.4382  12.4377  16.2179  16.5100  16.5100  17.9754
    17.9754  37.6257  39.6477  42.6404

          k =-0.2222 0.2222-0.2222 (   338 PWs)   bands (ev):

   -30.6168 -30.4571 -30.4571  13.4817  16.1821  16.6804  16.6804  18.0828
    18.0828  35.2378  38.4020  43.5236

          k =-0.3333 0.3333-0.3333 (   344 PWs)   bands (ev):

   -30.7663 -30.4786 -30.4786  13.9538  16.5239  16.5239  17.5186  18.6662
    18.6662  31.0496  37.4700  42.8860

          k =-0.4444 0.4444-0.4444 (   341 PWs)   bands (ev):

   -30.8623 -30.4925 -30.4925  13.8610  16.3398  16.3398  19.2078  19.2078
    19.7830  27.5066  36.6230  41.4927

          k = 0.0000 0.2222 0.0000 (   335 PWs)   bands (ev):

   -30.4821 -30.4504 -30.4504  12.5880  16.0377  16.6427  16.6427  17.7092
    18.1691  37.8827  40.3770  41.5163

          k =-0.1111 0.3333-0.1111 (   335 PWs)   bands (ev):

   -30.5808 -30.4727 -30.4652  13.4769  15.7585  16.8168  16.9148  17.6943
    18.3478  36.8487  38.6579  40.8297

          k =-0.2222 0.4444-0.2222 (   336 PWs)   bands (ev):

   -30.7191 -30.4948 -30.4895  14.2209  16.1727  16.4746  16.8866  18.7868
    18.8289  32.6629  37.9770  40.1563

          k =-0.3333 0.5556-0.3333 (   339 PWs)   bands (ev):

   -30.8274 -30.5160 -30.5065  14.1789  16.1508  16.6772  17.4177  19.2754
    20.7382  28.5994  36.9564  39.7798

          k = 0.5556-0.3333 0.5556 (   345 PWs)   bands (ev):

   -30.8571 -30.5321 -30.5022  14.1398  16.0887  16.5707  17.9765  19.1780
    21.9497  26.9254  36.5278  39.3922

          k = 0.4444-0.2222 0.4444 (   344 PWs)   bands (ev):

   -30.7959 -30.5291 -30.4841  14.2679  16.2743  16.6725  17.2551  18.5201
    20.3869  29.9140  36.7753  39.6322

          k = 0.3333-0.1111 0.3333 (   333 PWs)   bands (ev):

   -30.6728 -30.5067 -30.4600  14.1344  15.9688  16.6528  16.9050  17.7478
    19.0441  34.1087  37.3991  41.2278

          k = 0.2222-0.0000 0.2222 (   331 PWs)   bands (ev):

   -30.5489 -30.4711 -30.4419  13.1235  15.9590  16.7222  16.7398  17.6614
    18.2713  37.7681  37.8621  41.4928

          k = 0.0000 0.4444 0.0000 (   343 PWs)   bands (ev):

   -30.6099 -30.4998 -30.4998  13.9602  15.2872  17.2961  17.4356  17.4356
    18.5170  38.5569  38.7861  38.7862

          k =-0.1111 0.5556-0.1111 (   337 PWs)   bands (ev):

   -30.7028 -30.5302 -30.5254  14.4882  15.0586  16.9467  17.6754  18.9106
    18.9248  34.6440  37.4444  37.6689

          k =-0.2222 0.6667-0.2222 (   336 PWs)   bands (ev):

   -30.7859 -30.5730 -30.5377  14.5264  15.4250  16.7321  17.5042  19.3452
    21.4477  30.2851  35.8706  37.0637

          k = 0.6667-0.2222 0.6667 (   348 PWs)   bands (ev):

   -30.8149 -30.6147 -30.5313  14.6406  15.6234  16.8298  17.3008  19.2127
    24.2150  26.9766  34.3392  38.0260

          k = 0.5556-0.1111 0.5556 (   343 PWs)   bands (ev):

   -30.7846 -30.6270 -30.5087  14.9611  15.7948  16.5298  17.2395  18.5119
    22.8073  29.3203  33.4814  39.1902

          k = 0.4444 0.0000 0.4444 (   335 PWs)   bands (ev):

   -30.7290 -30.5839 -30.4806  15.1203  15.6452  16.3051  17.3108  17.7054
    20.6866  33.1952  33.8562  40.0266

          k = 0.0000 0.6667 0.0000 (   335 PWs)   bands (ev):

   -30.7501 -30.5556 -30.5556  14.2452  14.5315  18.5478  18.5478  18.9337
    18.9407  35.4338  35.4338  35.5567

          k =-0.1111 0.7778-0.1111 (   335 PWs)   bands (ev):

   -30.7998 -30.5936 -30.5714  14.1728  14.4474  18.1522  18.5624  19.3791
    21.6018  32.2756  33.3833  34.6097

          k = 0.7778-0.1111 0.7778 (   345 PWs)   bands (ev):

   -30.7967 -30.6591 -30.5658  14.3419  14.8810  17.4222  18.2870  19.3232
    24.9789  28.5974  31.5301  35.3625

          k = 0.6667-0.0000 0.6667 (   347 PWs)   bands (ev):

   -30.7327 -30.7306 -30.5411  14.7853  15.5549  16.5443  17.8861  18.8093
    25.4599  28.4736  30.6221  37.5022

          k = 0.0000 0.8889 0.0000 (   334 PWs)   bands (ev):

   -30.8390 -30.5919 -30.5919  13.8016  14.0811  19.2201  19.4721  19.4721
    21.9863  31.2405  33.2129  33.2129

          k = 0.8889 0.0000 0.8889 (   342 PWs)   bands (ev):

   -30.8364 -30.6196 -30.5897  13.9057  14.2148  18.7929  19.0264  19.5205
    23.8198  30.2662  31.3864  33.5015

          k =-0.2222 0.4444 0.0000 (   335 PWs)   bands (ev):

   -30.6594 -30.5235 -30.4787  14.3699  15.4344  16.5703  17.4389  17.7576
    19.0846  35.6415  36.4772  40.2798

          k =-0.3333 0.5556-0.1111 (   336 PWs)   bands (ev):

   -30.7541 -30.5672 -30.5013  14.7725  15.8578  16.1363  17.3893  18.4980
    20.6919  31.6851  35.6012  38.2818

          k = 0.5556-0.3333 0.7778 (   342 PWs)   bands (ev):

   -30.8183 -30.5879 -30.5211  14.6507  15.7252  16.8142  17.1748  19.0933
    23.0001  27.7890  35.6796  36.8627

          k =-0.2222 0.6667 0.0000 (   338 PWs)   bands (ev):

   -30.7589 -30.5831 -30.5427  14.6711  14.8143  16.9091  18.5365  18.5850
    20.8663  33.5602  33.9841  35.7777

          k = 0.6667-0.2222 0.8889 (   340 PWs)   bands (ev):

   -30.7862 -30.6357 -30.5595  14.7161  15.1434  16.6109  18.1148  19.1987
    23.6382  29.6390  33.6865  33.9942

          k = 0.5556-0.1111 0.7778 (   344 PWs)   bands (ev):

   -30.7721 -30.6786 -30.5534  15.0054  15.4282  16.3097  17.7695  19.1162
    25.7426  27.4783  32.2273  35.0479

          k = 0.4444 0.0000 0.6667 (   339 PWs)   bands (ev):

   -30.7616 -30.6523 -30.5276  15.5173  15.5918  15.6369  17.8329  18.5546
    23.0360  31.2707  31.5520  36.6741

          k = 0.7778-0.1111 1.0000 (   343 PWs)   bands (ev):

   -30.8148 -30.6217 -30.5913  14.1814  14.4322  17.9076  18.8385  19.4698
    23.8082  31.1508  32.0582  32.2605

          k = 0.6667-0.0000 0.8889 (   341 PWs)   bands (ev):

   -30.7812 -30.6777 -30.5844  14.4953  14.9356  17.0643  18.2971  19.4617
    26.4165  28.7483  30.3926  33.2292

          k = 0.5556-0.1111 1.0000 (   342 PWs)   bands (ev):

   -30.7519 -30.6968 -30.5881  14.8698  15.4605  16.1133  18.0144  19.4642
    26.4295  29.4440  30.6061  32.1177

     the Fermi energy is    19.3675 ev

!    total energy              =    -198.69897501 Ry
     Harris-Foulkes estimate   =    -198.69897501 Ry
     estimated scf accuracy    <          3.8E-09 Ry

     The total energy is the sum of the following terms:

     one-electron contribution =     -41.35531641 Ry
     hartree contribution      =      34.82636816 Ry
     xc contribution           =     -31.38677959 Ry
     ewald contribution        =    -160.78420429 Ry
     smearing contrib. (-TS)   =       0.00095711 Ry

     convergence has been achieved in   6 iterations

     Writing output data file Pd-kp-conv.save/
 
     init_run     :      0.42s CPU      0.45s WALL (       1 calls)
     electrons    :      1.61s CPU      2.07s WALL (       1 calls)

     Called by init_run:
     wfcinit      :      0.10s CPU      0.11s WALL (       1 calls)
     potinit      :      0.00s CPU      0.02s WALL (       1 calls)
     hinit0       :      0.31s CPU      0.31s WALL (       1 calls)

     Called by electrons:
     c_bands      :      1.32s CPU      1.42s WALL (       6 calls)
     sum_band     :      0.24s CPU      0.26s WALL (       6 calls)
     v_of_rho     :      0.02s CPU      0.02s WALL (       7 calls)
     newd         :      0.04s CPU      0.04s WALL (       7 calls)
     mix_rho      :      0.00s CPU      0.00s WALL (       6 calls)

     Called by c_bands:
     init_us_2    :      0.04s CPU      0.04s WALL (     455 calls)
     cegterg      :      1.21s CPU      1.32s WALL (     210 calls)

     Called by sum_band:
     sum_band:bec :      0.00s CPU      0.00s WALL (     210 calls)
     addusdens    :      0.03s CPU      0.04s WALL (       6 calls)

     Called by *egterg:
     h_psi        :      0.95s CPU      1.02s WALL (     741 calls)
     s_psi        :      0.02s CPU      0.02s WALL (     741 calls)
     g_psi        :      0.01s CPU      0.01s WALL (     496 calls)
     cdiaghg      :      0.22s CPU      0.24s WALL (     706 calls)

     Called by h_psi:
     h_psi:pot    :      0.94s CPU      1.02s WALL (     741 calls)
     h_psi:calbec :      0.02s CPU      0.03s WALL (     741 calls)
     vloc_psi     :      0.89s CPU      0.96s WALL (     741 calls)
     add_vuspsi   :      0.02s CPU      0.02s WALL (     741 calls)

     General routines
     calbec       :      0.03s CPU      0.03s WALL (     951 calls)
     fft          :      0.01s CPU      0.01s WALL (      78 calls)
     ffts         :      0.00s CPU      0.00s WALL (       6 calls)
     fftw         :      0.91s CPU      0.99s WALL (   15882 calls)
 
     Parallel routines
     fft_scatt_xy :      0.17s CPU      0.18s WALL (   15966 calls)
     fft_scatt_yz :      0.24s CPU      0.26s WALL (   15966 calls)
 
     PWSCF        :     2.13s CPU         2.80s WALL

 
   This run was terminated on:  23:12:47   2Dec2021            

=------------------------------------------------------------------------------=
   JOB DONE.
=------------------------------------------------------------------------------=
