
     Program PWSCF v.6.3 starts on  2Dec2021 at 23:13:15 

     This program is part of the open-source Quantum ESPRESSO suite
     for quantum simulation of materials; please cite
         "P. Giannozzi et al., J. Phys.:Condens. Matter 21 395502 (2009);
         "P. Giannozzi et al., J. Phys.:Condens. Matter 29 465901 (2017);
          URL http://www.quantum-espresso.org", 
     in publications or presentations arising from this work. More details at
     http://www.quantum-espresso.org/quote

     Parallel version (MPI & OpenMP), running on       2 processor cores
     Number of MPI processes:                 2
     Threads/MPI process:                     1

     MPI processes distributed on     1 nodes
     R & G space division:  proc/nbgrp/npool/nimage =       2
     Reading input from pw-input.in

     Current dimensions of program PWSCF are:
     Max number of different atomic species (ntypx) = 10
     Max number of k-points (npk) =  40000
     Max angular momentum in pseudopotentials (lmaxx) =  3

     Subspace diagonalization in iterative solution of the eigenvalue problem:
     a serial algorithm will be used

 
     Parallelization info
     --------------------
     sticks:   dense  smooth     PW     G-vecs:    dense   smooth      PW
     Min         156     156     54                 1859     1859     362
     Max         157     157     55                 1860     1860     363
     Sum         313     313    109                 3719     3719     725
 

     Title: 
     Pd-kp-conv                                                                 


     bravais-lattice index     =            2
     lattice parameter (alat)  =       8.1000  a.u.
     unit-cell volume          =     132.8602 (a.u.)^3
     number of atoms/cell      =            1
     number of atomic types    =            1
     number of electrons       =        16.00
     number of Kohn-Sham states=           12
     kinetic-energy cutoff     =      35.0000  Ry
     charge density cutoff     =     140.0000  Ry
     convergence threshold     =      1.0E-07
     mixing beta               =       0.7000
     number of iterations used =            8  plain     mixing
     Exchange-correlation      =  SLA  PW   PBX  PBC ( 1  4  3  4 0 0)

     celldm(1)=   8.100000  celldm(2)=   0.000000  celldm(3)=   0.000000
     celldm(4)=   0.000000  celldm(5)=   0.000000  celldm(6)=   0.000000

     crystal axes: (cart. coord. in units of alat)
               a(1) = (  -0.500000   0.000000   0.500000 )  
               a(2) = (   0.000000   0.500000   0.500000 )  
               a(3) = (  -0.500000   0.500000   0.000000 )  

     reciprocal axes: (cart. coord. in units 2 pi/alat)
               b(1) = ( -1.000000 -1.000000  1.000000 )  
               b(2) = (  1.000000  1.000000  1.000000 )  
               b(3) = ( -1.000000  1.000000 -1.000000 )  


     PseudoPot. # 1 for Pd read from file:
     ./pd_pbe_v1.4.uspp.F.UPF
     MD5 check sum: 2d733d2bc2cbfd217af676df1668a4bc
     Pseudo is Ultrasoft + core correction, Zval = 16.0
     Generated by new atomic code, or converted to UPF format
     Using radial grid of  887 points,  6 beta functions with: 
                l(1) =   0
                l(2) =   0
                l(3) =   1
                l(4) =   1
                l(5) =   2
                l(6) =   2
     Q(r) pseudized with  8 coefficients,  rinner =    1.130   1.130   1.130
                                                       1.130   1.130

     atomic species   valence    mass     pseudopotential
        Pd            16.00   106.40000     Pd( 1.00)

     48 Sym. Ops., with inversion, found



   Cartesian axes

     site n.     atom                  positions (alat units)
         1           Pd  tau(   1) = (   0.0000000   0.0000000   0.0000000  )

     number of k points=    35  Marzari-Vanderbilt smearing, width (Ry)=  0.0400
                       cart. coord. in units 2pi/alat
        k(    1) = (   0.0000000   0.0000000   0.0000000), wk =   0.0027435
        k(    2) = (  -0.1111111   0.1111111  -0.1111111), wk =   0.0219479
        k(    3) = (  -0.2222222   0.2222222  -0.2222222), wk =   0.0219479
        k(    4) = (  -0.3333333   0.3333333  -0.3333333), wk =   0.0219479
        k(    5) = (  -0.4444444   0.4444444  -0.4444444), wk =   0.0219479
        k(    6) = (   0.0000000   0.2222222   0.0000000), wk =   0.0164609
        k(    7) = (  -0.1111111   0.3333333  -0.1111111), wk =   0.0658436
        k(    8) = (  -0.2222222   0.4444444  -0.2222222), wk =   0.0658436
        k(    9) = (  -0.3333333   0.5555556  -0.3333333), wk =   0.0658436
        k(   10) = (   0.5555556  -0.3333333   0.5555556), wk =   0.0658436
        k(   11) = (   0.4444444  -0.2222222   0.4444444), wk =   0.0658436
        k(   12) = (   0.3333333  -0.1111111   0.3333333), wk =   0.0658436
        k(   13) = (   0.2222222  -0.0000000   0.2222222), wk =   0.0329218
        k(   14) = (   0.0000000   0.4444444   0.0000000), wk =   0.0164609
        k(   15) = (  -0.1111111   0.5555556  -0.1111111), wk =   0.0658436
        k(   16) = (  -0.2222222   0.6666667  -0.2222222), wk =   0.0658436
        k(   17) = (   0.6666667  -0.2222222   0.6666667), wk =   0.0658436
        k(   18) = (   0.5555556  -0.1111111   0.5555556), wk =   0.0658436
        k(   19) = (   0.4444444   0.0000000   0.4444444), wk =   0.0329218
        k(   20) = (   0.0000000   0.6666667   0.0000000), wk =   0.0164609
        k(   21) = (  -0.1111111   0.7777778  -0.1111111), wk =   0.0658436
        k(   22) = (   0.7777778  -0.1111111   0.7777778), wk =   0.0658436
        k(   23) = (   0.6666667  -0.0000000   0.6666667), wk =   0.0329218
        k(   24) = (   0.0000000   0.8888889   0.0000000), wk =   0.0164609
        k(   25) = (   0.8888889   0.0000000   0.8888889), wk =   0.0329218
        k(   26) = (  -0.2222222   0.4444444   0.0000000), wk =   0.0658436
        k(   27) = (  -0.3333333   0.5555556  -0.1111111), wk =   0.1316872
        k(   28) = (   0.5555556  -0.3333333   0.7777778), wk =   0.1316872
        k(   29) = (  -0.2222222   0.6666667   0.0000000), wk =   0.0658436
        k(   30) = (   0.6666667  -0.2222222   0.8888889), wk =   0.1316872
        k(   31) = (   0.5555556  -0.1111111   0.7777778), wk =   0.1316872
        k(   32) = (   0.4444444   0.0000000   0.6666667), wk =   0.0658436
        k(   33) = (   0.7777778  -0.1111111   1.0000000), wk =   0.0658436
        k(   34) = (   0.6666667  -0.0000000   0.8888889), wk =   0.0658436
        k(   35) = (   0.5555556  -0.1111111   1.0000000), wk =   0.0658436

     Dense  grid:     3719 G-vectors     FFT dimensions: (  24,  24,  24)

     Estimated max dynamical RAM per process >       9.37 MB

     Estimated total dynamical RAM >      18.74 MB

     Initial potential from superposition of free atoms
     Check: negative starting charge=   -0.081280

     starting charge   15.49999, renormalised to   16.00000

     negative rho (up, down):  8.390E-02 0.000E+00
     Starting wfcs are   12 randomized atomic wfcs

     total cpu time spent up to now is        0.6 secs

     Self-consistent Calculation

     iteration #  1     ecut=    35.00 Ry     beta= 0.70
     Davidson diagonalization with overlap
     ethr =  1.00E-02,  avg # of iterations =  3.4

     negative rho (up, down):  8.121E-02 0.000E+00

     total cpu time spent up to now is        1.1 secs

     total energy              =    -197.91337363 Ry
     Harris-Foulkes estimate   =    -199.06970771 Ry
     estimated scf accuracy    <       1.56977589 Ry

     iteration #  2     ecut=    35.00 Ry     beta= 0.70
     Davidson diagonalization with overlap
     ethr =  9.81E-03,  avg # of iterations =  2.0

     negative rho (up, down):  8.345E-02 0.000E+00

     total cpu time spent up to now is        1.5 secs

     total energy              =    -198.26318820 Ry
     Harris-Foulkes estimate   =    -199.29909481 Ry
     estimated scf accuracy    <       2.21965100 Ry

     iteration #  3     ecut=    35.00 Ry     beta= 0.70
     Davidson diagonalization with overlap
     ethr =  9.81E-03,  avg # of iterations =  2.0

     negative rho (up, down):  8.350E-02 0.000E+00

     total cpu time spent up to now is        1.9 secs

     total energy              =    -198.67205607 Ry
     Harris-Foulkes estimate   =    -198.67218303 Ry
     estimated scf accuracy    <       0.00031094 Ry

     iteration #  4     ecut=    35.00 Ry     beta= 0.70
     Davidson diagonalization with overlap
     ethr =  1.94E-06,  avg # of iterations =  3.1

     negative rho (up, down):  8.362E-02 0.000E+00

     total cpu time spent up to now is        2.4 secs

     total energy              =    -198.67231752 Ry
     Harris-Foulkes estimate   =    -198.67231707 Ry
     estimated scf accuracy    <       0.00000289 Ry

     iteration #  5     ecut=    35.00 Ry     beta= 0.70
     Davidson diagonalization with overlap
     ethr =  1.81E-08,  avg # of iterations =  1.4

     negative rho (up, down):  8.363E-02 0.000E+00

     total cpu time spent up to now is        2.8 secs

     End of self-consistent calculation

          k = 0.0000 0.0000 0.0000 (   459 PWs)   bands (ev):

   -36.7133 -36.7133 -36.7133   7.2043  10.5699  10.5699  10.5699  11.5703
    11.5703  29.4426  32.5489  32.5489

          k =-0.1111 0.1111-0.1111 (   477 PWs)   bands (ev):

   -36.7299 -36.7161 -36.7161   7.5501  10.4898  10.6602  10.6602  11.5376
    11.5376  29.1056  30.4715  32.6089

          k =-0.2222 0.2222-0.2222 (   483 PWs)   bands (ev):

   -36.7707 -36.7226 -36.7226   8.4102  10.4844  10.7671  10.7671  11.6090
    11.6090  25.5814  30.0568  32.4836

          k =-0.3333 0.3333-0.3333 (   468 PWs)   bands (ev):

   -36.8161 -36.7296 -36.7296   8.9396  10.6787  10.6787  11.4808  11.9538
    11.9538  21.6677  29.3386  31.7004

          k =-0.4444 0.4444-0.4444 (   470 PWs)   bands (ev):

   -36.8461 -36.7342 -36.7342   8.9412  10.5693  10.5693  12.2622  12.2622
    13.4451  18.4082  28.7502  30.8946

          k = 0.0000 0.2222 0.0000 (   479 PWs)   bands (ev):

   -36.7294 -36.7199 -36.7199   7.6661  10.3816  10.7409  10.7409  11.3873
    11.6489  29.5683  31.1388  31.2470

          k =-0.1111 0.3333-0.1111 (   474 PWs)   bands (ev):

   -36.7597 -36.7272 -36.7248   8.3793  10.2191  10.8569  10.9092  11.3902
    11.7585  27.1411  29.8995  30.2139

          k =-0.2222 0.4444-0.2222 (   463 PWs)   bands (ev):

   -36.8018 -36.7344 -36.7326   9.0927  10.4925  10.6606  10.8976  12.0438
    12.1213  23.1446  29.3401  29.4974

          k =-0.3333 0.5556-0.3333 (   463 PWs)   bands (ev):

   -36.8354 -36.7410 -36.7384   9.1533  10.4719  10.7755  11.3105  12.3001
    13.7046  19.5070  28.4841  29.3093

          k = 0.5556-0.3333 0.5556 (   459 PWs)   bands (ev):

   -36.8446 -36.7460 -36.7371   9.1372  10.4327  10.7136  11.6587  12.2470
    14.8691  17.8798  27.7624  29.5233

          k = 0.4444-0.2222 0.4444 (   465 PWs)   bands (ev):

   -36.8256 -36.7449 -36.7313   9.1931  10.5377  10.7748  11.2382  11.8712
    13.2499  20.6705  27.5356  30.0577

          k = 0.3333-0.1111 0.3333 (   471 PWs)   bands (ev):

   -36.7878 -36.7378 -36.7237   8.9543  10.3500  10.7744  10.9089  11.4172
    12.2077  24.4815  27.8275  31.4321

          k = 0.2222-0.0000 0.2222 (   473 PWs)   bands (ev):

   -36.7499 -36.7263 -36.7177   8.0889  10.3392  10.7955  10.8022  11.3601
    11.7168  28.3659  28.4443  31.8940

          k = 0.0000 0.4444 0.0000 (   472 PWs)   bands (ev):

   -36.7685 -36.7356 -36.7356   8.8011   9.9348  11.1728  11.2254  11.2254
    11.8570  28.4860  28.4860  29.4824

          k =-0.1111 0.5556-0.1111 (   463 PWs)   bands (ev):

   -36.7970 -36.7452 -36.7439   9.3241   9.7913  10.9541  11.3725  12.0882
    12.2378  24.9782  27.3950  28.0191

          k =-0.2222 0.6667-0.2222 (   455 PWs)   bands (ev):

   -36.8229 -36.7583 -36.7479   9.4257  10.0473  10.8256  11.2765  12.3392
    14.1233  21.1746  26.1520  27.1227

          k = 0.6667-0.2222 0.6667 (   461 PWs)   bands (ev):

   -36.8321 -36.7713 -36.7460   9.4977  10.1751  10.9085  11.1590  12.2667
    16.5036  18.1368  24.7130  27.8525

          k = 0.5556-0.1111 0.5556 (   458 PWs)   bands (ev):

   -36.8224 -36.7749 -36.7389   9.6851  10.2702  10.7418  11.1249  11.8658
    15.0982  20.2260  23.9287  29.5478

          k = 0.4444 0.0000 0.4444 (   463 PWs)   bands (ev):

   -36.8050 -36.7617 -36.7301   9.7193  10.1545  10.5939  11.1689  11.3870
    13.3552  23.7388  24.0716  30.6958

          k = 0.0000 0.6667 0.0000 (   472 PWs)   bands (ev):

   -36.8121 -36.7535 -36.7535   9.2420   9.4667  11.8876  11.8876  12.1011
    12.4628  25.5975  25.8888  25.8888

          k =-0.1111 0.7778-0.1111 (   463 PWs)   bands (ev):

   -36.8276 -36.7653 -36.7586   9.2381   9.4128  11.7105  11.8973  12.3589
    14.3849  22.9649  23.7336  25.2957

          k = 0.7778-0.1111 0.7778 (   468 PWs)   bands (ev):

   -36.8269 -36.7852 -36.7569   9.3535   9.6940  11.2668  11.7430  12.3297
    16.9943  19.9330  21.9861  25.8275

          k = 0.6667-0.0000 0.6667 (   456 PWs)   bands (ev):

   -36.8069 -36.8067 -36.7491   9.6251  10.1272  10.7196  11.5149  12.0355
    17.2954  19.7640  21.2231  27.3777

          k = 0.0000 0.8889 0.0000 (   464 PWs)   bands (ev):

   -36.8400 -36.7651 -36.7651   9.0130   9.1803  12.2667  12.4156  12.4156
    15.0764  21.4064  24.3122  24.3122

          k = 0.8889 0.0000 0.8889 (   462 PWs)   bands (ev):

   -36.8393 -36.7733 -36.7644   9.0868   9.2634  12.0800  12.1625  12.4415
    16.4365  20.5103  22.6199  24.5087

          k =-0.2222 0.4444 0.0000 (   470 PWs)   bands (ev):

   -36.7837 -36.7430 -36.7294   9.1173  10.0241  10.7210  11.2276  11.4399
    12.2335  26.0451  26.4589  30.3653

          k =-0.3333 0.5556-0.1111 (   460 PWs)   bands (ev):

   -36.8128 -36.7565 -36.7366   9.5415  10.3047  10.4534  11.2129  11.8728
    13.4204  22.3042  25.8412  28.5175

          k = 0.5556-0.3333 0.7778 (   464 PWs)   bands (ev):

   -36.8330 -36.7631 -36.7430   9.4844  10.2307  10.9026  11.0952  12.2019
    15.4113  18.8633  26.0585  27.0229

          k =-0.2222 0.6667 0.0000 (   464 PWs)   bands (ev):

   -36.8147 -36.7618 -36.7494   9.5324   9.6396  10.9348  11.8813  11.9365
    13.6261  24.0921  24.4057  25.9273

          k = 0.6667-0.2222 0.8889 (   463 PWs)   bands (ev):

   -36.8234 -36.7779 -36.7547   9.5812   9.8641  10.7535  11.6508  12.2620
    15.8150  20.7010  23.8959  24.5962

          k = 0.5556-0.1111 0.7778 (   465 PWs)   bands (ev):

   -36.8193 -36.7909 -36.7530   9.7671  10.0377  10.5756  11.4453  12.2139
    17.6040  18.7377  22.7416  25.3548

          k = 0.4444 0.0000 0.6667 (   470 PWs)   bands (ev):

   -36.8157 -36.7829 -36.7450  10.0988  10.1205  10.1410  11.4903  11.8898
    15.2439  21.9950  22.2182  26.8074

          k = 0.7778-0.1111 1.0000 (   463 PWs)   bands (ev):

   -36.8325 -36.7740 -36.7646   9.2643   9.3975  11.5565  12.0667  12.4146
    16.1824  21.4540  23.0520  23.2589

          k = 0.6667-0.0000 0.8889 (   464 PWs)   bands (ev):

   -36.8224 -36.7908 -36.7625   9.4659   9.7181  11.0433  11.7558  12.4093
    18.2657  19.9703  20.9902  23.9188

          k = 0.5556-0.1111 1.0000 (   459 PWs)   bands (ev):

   -36.8133 -36.7965 -36.7633   9.7171  10.0391  10.4457  11.5949  12.4116
    18.0914  20.6738  21.2451  22.8068

     the Fermi energy is    12.4285 ev

!    total energy              =    -198.67231767 Ry
     Harris-Foulkes estimate   =    -198.67231764 Ry
     estimated scf accuracy    <       0.00000004 Ry

     The total energy is the sum of the following terms:

     one-electron contribution =     -66.12778152 Ry
     hartree contribution      =      43.56641035 Ry
     xc contribution           =     -31.21148604 Ry
     ewald contribution        =    -144.90428288 Ry
     smearing contrib. (-TS)   =       0.00482242 Ry

     convergence has been achieved in   5 iterations

     Writing output data file Pd-kp-conv.save/
 
     init_run     :      0.49s CPU      0.53s WALL (       1 calls)
     electrons    :      1.89s CPU      2.15s WALL (       1 calls)

     Called by init_run:
     wfcinit      :      0.14s CPU      0.16s WALL (       1 calls)
     potinit      :      0.01s CPU      0.01s WALL (       1 calls)
     hinit0       :      0.33s CPU      0.33s WALL (       1 calls)

     Called by electrons:
     c_bands      :      1.54s CPU      1.73s WALL (       5 calls)
     sum_band     :      0.30s CPU      0.33s WALL (       5 calls)
     v_of_rho     :      0.03s CPU      0.03s WALL (       6 calls)
     newd         :      0.04s CPU      0.05s WALL (       6 calls)
     mix_rho      :      0.00s CPU      0.00s WALL (       5 calls)

     Called by c_bands:
     init_us_2    :      0.04s CPU      0.05s WALL (     385 calls)
     cegterg      :      1.42s CPU      1.53s WALL (     175 calls)

     Called by sum_band:
     sum_band:bec :      0.00s CPU      0.00s WALL (     175 calls)
     addusdens    :      0.04s CPU      0.05s WALL (       5 calls)

     Called by *egterg:
     h_psi        :      1.25s CPU      1.34s WALL (     624 calls)
     s_psi        :      0.02s CPU      0.02s WALL (     624 calls)
     g_psi        :      0.01s CPU      0.01s WALL (     414 calls)
     cdiaghg      :      0.16s CPU      0.17s WALL (     589 calls)

     Called by h_psi:
     h_psi:pot    :      1.24s CPU      1.34s WALL (     624 calls)
     h_psi:calbec :      0.02s CPU      0.03s WALL (     624 calls)
     vloc_psi     :      1.20s CPU      1.28s WALL (     624 calls)
     add_vuspsi   :      0.02s CPU      0.02s WALL (     624 calls)

     General routines
     calbec       :      0.03s CPU      0.03s WALL (     799 calls)
     fft          :      0.01s CPU      0.01s WALL (      67 calls)
     ffts         :      0.00s CPU      0.00s WALL (       5 calls)
     fftw         :      1.21s CPU      1.30s WALL (   13780 calls)
 
     Parallel routines
     fft_scatt_xy :      0.22s CPU      0.24s WALL (   13852 calls)
     fft_scatt_yz :      0.27s CPU      0.29s WALL (   13852 calls)
 
     PWSCF        :     2.49s CPU         2.97s WALL

 
   This run was terminated on:  23:13:18   2Dec2021            

=------------------------------------------------------------------------------=
   JOB DONE.
=------------------------------------------------------------------------------=
