
     Program PWSCF v.6.3 starts on  2Dec2021 at 20:28: 8 

     This program is part of the open-source Quantum ESPRESSO suite
     for quantum simulation of materials; please cite
         "P. Giannozzi et al., J. Phys.:Condens. Matter 21 395502 (2009);
         "P. Giannozzi et al., J. Phys.:Condens. Matter 29 465901 (2017);
          URL http://www.quantum-espresso.org", 
     in publications or presentations arising from this work. More details at
     http://www.quantum-espresso.org/quote

     Parallel version (MPI & OpenMP), running on       2 processor cores
     Number of MPI processes:                 2
     Threads/MPI process:                     1

     MPI processes distributed on     1 nodes
     R & G space division:  proc/nbgrp/npool/nimage =       2
     Reading input from pw-input.in

     Current dimensions of program PWSCF are:
     Max number of different atomic species (ntypx) = 10
     Max number of k-points (npk) =  40000
     Max angular momentum in pseudopotentials (lmaxx) =  3

     Subspace diagonalization in iterative solution of the eigenvalue problem:
     a serial algorithm will be used

 
     Parallelization info
     --------------------
     sticks:   dense  smooth     PW     G-vecs:    dense   smooth      PW
     Min         126     126     42                 1365     1365     264
     Max         127     127     43                 1368     1368     267
     Sum         253     253     85                 2733     2733     531
 

     Title: 
     Pd-kp-conv                                                                 


     bravais-lattice index     =            2
     lattice parameter (alat)  =       7.3000  a.u.
     unit-cell volume          =      97.2542 (a.u.)^3
     number of atoms/cell      =            1
     number of atomic types    =            1
     number of electrons       =        16.00
     number of Kohn-Sham states=           12
     kinetic-energy cutoff     =      35.0000  Ry
     charge density cutoff     =     140.0000  Ry
     convergence threshold     =      1.0E-07
     mixing beta               =       0.7000
     number of iterations used =            8  plain     mixing
     Exchange-correlation      =  SLA  PW   PBX  PBC ( 1  4  3  4 0 0)

     celldm(1)=   7.300000  celldm(2)=   0.000000  celldm(3)=   0.000000
     celldm(4)=   0.000000  celldm(5)=   0.000000  celldm(6)=   0.000000

     crystal axes: (cart. coord. in units of alat)
               a(1) = (  -0.500000   0.000000   0.500000 )  
               a(2) = (   0.000000   0.500000   0.500000 )  
               a(3) = (  -0.500000   0.500000   0.000000 )  

     reciprocal axes: (cart. coord. in units 2 pi/alat)
               b(1) = ( -1.000000 -1.000000  1.000000 )  
               b(2) = (  1.000000  1.000000  1.000000 )  
               b(3) = ( -1.000000  1.000000 -1.000000 )  


     PseudoPot. # 1 for Pd read from file:
     ./pd_pbe_v1.4.uspp.F.UPF
     MD5 check sum: 2d733d2bc2cbfd217af676df1668a4bc
     Pseudo is Ultrasoft + core correction, Zval = 16.0
     Generated by new atomic code, or converted to UPF format
     Using radial grid of  887 points,  6 beta functions with: 
                l(1) =   0
                l(2) =   0
                l(3) =   1
                l(4) =   1
                l(5) =   2
                l(6) =   2
     Q(r) pseudized with  8 coefficients,  rinner =    1.130   1.130   1.130
                                                       1.130   1.130

     atomic species   valence    mass     pseudopotential
        Pd            16.00   106.40000     Pd( 1.00)

     48 Sym. Ops., with inversion, found



   Cartesian axes

     site n.     atom                  positions (alat units)
         1           Pd  tau(   1) = (   0.0000000   0.0000000   0.0000000  )

     number of k points=     4  Marzari-Vanderbilt smearing, width (Ry)=  0.0050
                       cart. coord. in units 2pi/alat
        k(    1) = (   0.0000000   0.0000000   0.0000000), wk =   0.0740741
        k(    2) = (  -0.3333333   0.3333333  -0.3333333), wk =   0.5925926
        k(    3) = (   0.0000000   0.6666667   0.0000000), wk =   0.4444444
        k(    4) = (   0.6666667  -0.0000000   0.6666667), wk =   0.8888889

     Dense  grid:     2733 G-vectors     FFT dimensions: (  20,  20,  20)

     Estimated max dynamical RAM per process >       6.04 MB

     Estimated total dynamical RAM >      12.09 MB

     Initial potential from superposition of free atoms
     Check: negative starting charge=   -0.084718

     starting charge   15.49999, renormalised to   16.00000

     negative rho (up, down):  8.745E-02 0.000E+00
     Starting wfcs are   12 randomized atomic wfcs

     total cpu time spent up to now is        0.5 secs

     Self-consistent Calculation

     iteration #  1     ecut=    35.00 Ry     beta= 0.70
     Davidson diagonalization with overlap
     ethr =  1.00E-02,  avg # of iterations =  4.0

     negative rho (up, down):  8.721E-02 0.000E+00

     total cpu time spent up to now is        0.5 secs

     total energy              =    -198.18972822 Ry
     Harris-Foulkes estimate   =    -198.97602956 Ry
     estimated scf accuracy    <       1.09216942 Ry

     iteration #  2     ecut=    35.00 Ry     beta= 0.70
     Davidson diagonalization with overlap
     ethr =  6.83E-03,  avg # of iterations =  2.0

     negative rho (up, down):  8.827E-02 0.000E+00

     total cpu time spent up to now is        0.6 secs

     total energy              =    -198.38162091 Ry
     Harris-Foulkes estimate   =    -198.94426510 Ry
     estimated scf accuracy    <       1.15322084 Ry

     iteration #  3     ecut=    35.00 Ry     beta= 0.70
     Davidson diagonalization with overlap
     ethr =  6.83E-03,  avg # of iterations =  2.0

     negative rho (up, down):  8.969E-02 0.000E+00

     total cpu time spent up to now is        0.6 secs

     total energy              =    -198.61267861 Ry
     Harris-Foulkes estimate   =    -198.63848679 Ry
     estimated scf accuracy    <       0.04229882 Ry

     iteration #  4     ecut=    35.00 Ry     beta= 0.70
     Davidson diagonalization with overlap
     ethr =  2.64E-04,  avg # of iterations =  2.0

     negative rho (up, down):  8.953E-02 0.000E+00

     total cpu time spent up to now is        0.7 secs

     total energy              =    -198.64009576 Ry
     Harris-Foulkes estimate   =    -198.64888788 Ry
     estimated scf accuracy    <       0.04764482 Ry

     iteration #  5     ecut=    35.00 Ry     beta= 0.70
     Davidson diagonalization with overlap
     ethr =  2.64E-04,  avg # of iterations =  1.0

     negative rho (up, down):  8.889E-02 0.000E+00

     total cpu time spent up to now is        0.7 secs

     total energy              =    -198.63166185 Ry
     Harris-Foulkes estimate   =    -198.64093152 Ry
     estimated scf accuracy    <       0.02304199 Ry

     iteration #  6     ecut=    35.00 Ry     beta= 0.70
     Davidson diagonalization with overlap
     ethr =  1.44E-04,  avg # of iterations =  2.0

     negative rho (up, down):  8.891E-02 0.000E+00

     total cpu time spent up to now is        0.8 secs

     total energy              =    -198.63414313 Ry
     Harris-Foulkes estimate   =    -198.63412656 Ry
     estimated scf accuracy    <       0.00118455 Ry

     iteration #  7     ecut=    35.00 Ry     beta= 0.70
     Davidson diagonalization with overlap
     ethr =  7.40E-06,  avg # of iterations =  1.0

     negative rho (up, down):  8.878E-02 0.000E+00

     total cpu time spent up to now is        0.8 secs

     total energy              =    -198.63355377 Ry
     Harris-Foulkes estimate   =    -198.63414970 Ry
     estimated scf accuracy    <       0.00124003 Ry

     iteration #  8     ecut=    35.00 Ry     beta= 0.70
     Davidson diagonalization with overlap
     ethr =  7.40E-06,  avg # of iterations =  2.0

     negative rho (up, down):  8.896E-02 0.000E+00

     total cpu time spent up to now is        0.8 secs

     total energy              =    -198.63357510 Ry
     Harris-Foulkes estimate   =    -198.63395076 Ry
     estimated scf accuracy    <       0.00080720 Ry

     iteration #  9     ecut=    35.00 Ry     beta= 0.70
     Davidson diagonalization with overlap
     ethr =  5.04E-06,  avg # of iterations =  2.0

     negative rho (up, down):  8.889E-02 0.000E+00

     total cpu time spent up to now is        0.9 secs

     total energy              =    -198.63380694 Ry
     Harris-Foulkes estimate   =    -198.63400434 Ry
     estimated scf accuracy    <       0.00069228 Ry

     iteration # 10     ecut=    35.00 Ry     beta= 0.70
     Davidson diagonalization with overlap
     ethr =  4.33E-06,  avg # of iterations =  1.0

     negative rho (up, down):  8.887E-02 0.000E+00

     total cpu time spent up to now is        0.9 secs

     total energy              =    -198.63385706 Ry
     Harris-Foulkes estimate   =    -198.63386392 Ry
     estimated scf accuracy    <       0.00002692 Ry

     iteration # 11     ecut=    35.00 Ry     beta= 0.70
     Davidson diagonalization with overlap
     ethr =  1.68E-07,  avg # of iterations =  1.0

     negative rho (up, down):  8.886E-02 0.000E+00

     total cpu time spent up to now is        1.0 secs

     End of self-consistent calculation

          k = 0.0000 0.0000 0.0000 (   331 PWs)   bands (ev):

   -30.3588 -30.3588 -30.3588  11.9863  16.4241  16.4241  16.4241  18.0504
    18.0504  37.3103  42.1602  42.1602

          k =-0.3333 0.3333-0.3333 (   344 PWs)   bands (ev):

   -30.6958 -30.4068 -30.4068  13.9859  16.5598  16.5598  17.5345  18.7083
    18.7083  31.0659  37.4603  42.9016

          k = 0.0000 0.6667 0.0000 (   335 PWs)   bands (ev):

   -30.6794 -30.4841 -30.4841  14.2404  14.5860  18.6169  18.6169  18.9486
    18.9523  35.4380  35.4380  35.5446

          k = 0.6667-0.0000 0.6667 (   347 PWs)   bands (ev):

   -30.6620 -30.6598 -30.4696  14.8142  15.5732  16.5996  17.8977  18.8812
    25.4769  28.5100  30.6163  37.5058

     the Fermi energy is    18.9052 ev

!    total energy              =    -198.63386008 Ry
     Harris-Foulkes estimate   =    -198.63386011 Ry
     estimated scf accuracy    <       0.00000004 Ry

     The total energy is the sum of the following terms:

     one-electron contribution =     -41.33613767 Ry
     hartree contribution      =      34.88772162 Ry
     xc contribution           =     -31.40035882 Ry
     ewald contribution        =    -160.78420429 Ry
     smearing contrib. (-TS)   =      -0.00088093 Ry

     convergence has been achieved in  11 iterations

     Writing output data file Pd-kp-conv.save/
 
     init_run     :      0.34s CPU      0.36s WALL (       1 calls)
     electrons    :      0.46s CPU      0.54s WALL (       1 calls)

     Called by init_run:
     wfcinit      :      0.01s CPU      0.01s WALL (       1 calls)
     potinit      :      0.00s CPU      0.01s WALL (       1 calls)
     hinit0       :      0.31s CPU      0.32s WALL (       1 calls)

     Called by electrons:
     c_bands      :      0.25s CPU      0.28s WALL (      11 calls)
     sum_band     :      0.12s CPU      0.12s WALL (      11 calls)
     v_of_rho     :      0.03s CPU      0.03s WALL (      12 calls)
     newd         :      0.06s CPU      0.06s WALL (      12 calls)
     mix_rho      :      0.00s CPU      0.01s WALL (      11 calls)

     Called by c_bands:
     init_us_2    :      0.01s CPU      0.01s WALL (      92 calls)
     cegterg      :      0.23s CPU      0.25s WALL (      44 calls)

     Called by sum_band:
     sum_band:bec :      0.00s CPU      0.00s WALL (      44 calls)
     addusdens    :      0.06s CPU      0.07s WALL (      11 calls)

     Called by *egterg:
     h_psi        :      0.18s CPU      0.20s WALL (     128 calls)
     s_psi        :      0.00s CPU      0.00s WALL (     128 calls)
     g_psi        :      0.00s CPU      0.00s WALL (      80 calls)
     cdiaghg      :      0.03s CPU      0.03s WALL (     124 calls)

     Called by h_psi:
     h_psi:pot    :      0.18s CPU      0.20s WALL (     128 calls)
     h_psi:calbec :      0.01s CPU      0.01s WALL (     128 calls)
     vloc_psi     :      0.17s CPU      0.19s WALL (     128 calls)
     add_vuspsi   :      0.00s CPU      0.00s WALL (     128 calls)

     General routines
     calbec       :      0.01s CPU      0.01s WALL (     172 calls)
     fft          :      0.01s CPU      0.02s WALL (     133 calls)
     ffts         :      0.00s CPU      0.00s WALL (      11 calls)
     fftw         :      0.18s CPU      0.20s WALL (    3004 calls)
 
     Parallel routines
     fft_scatt_xy :      0.04s CPU      0.04s WALL (    3148 calls)
     fft_scatt_yz :      0.05s CPU      0.06s WALL (    3148 calls)
 
     PWSCF        :     0.88s CPU         1.36s WALL

 
   This run was terminated on:  20:28:10   2Dec2021            

=------------------------------------------------------------------------------=
   JOB DONE.
=------------------------------------------------------------------------------=
