
     Program PWSCF v.6.3 starts on  2Dec2021 at 21:18:44 

     This program is part of the open-source Quantum ESPRESSO suite
     for quantum simulation of materials; please cite
         "P. Giannozzi et al., J. Phys.:Condens. Matter 21 395502 (2009);
         "P. Giannozzi et al., J. Phys.:Condens. Matter 29 465901 (2017);
          URL http://www.quantum-espresso.org", 
     in publications or presentations arising from this work. More details at
     http://www.quantum-espresso.org/quote

     Parallel version (MPI & OpenMP), running on       2 processor cores
     Number of MPI processes:                 2
     Threads/MPI process:                     1

     MPI processes distributed on     1 nodes
     R & G space division:  proc/nbgrp/npool/nimage =       2
     Reading input from pw-input.in

     Current dimensions of program PWSCF are:
     Max number of different atomic species (ntypx) = 10
     Max number of k-points (npk) =  40000
     Max angular momentum in pseudopotentials (lmaxx) =  3

     Subspace diagonalization in iterative solution of the eigenvalue problem:
     a serial algorithm will be used

 
     Parallelization info
     --------------------
     sticks:   dense  smooth     PW     G-vecs:    dense   smooth      PW
     Min         150     150     54                 1738     1738     362
     Max         151     151     55                 1741     1741     363
     Sum         301     301    109                 3479     3479     725
 

     Title: 
     Pd-kp-conv                                                                 


     bravais-lattice index     =            2
     lattice parameter (alat)  =       7.9000  a.u.
     unit-cell volume          =     123.2598 (a.u.)^3
     number of atoms/cell      =            1
     number of atomic types    =            1
     number of electrons       =        16.00
     number of Kohn-Sham states=           12
     kinetic-energy cutoff     =      35.0000  Ry
     charge density cutoff     =     140.0000  Ry
     convergence threshold     =      1.0E-07
     mixing beta               =       0.7000
     number of iterations used =            8  plain     mixing
     Exchange-correlation      =  SLA  PW   PBX  PBC ( 1  4  3  4 0 0)

     celldm(1)=   7.900000  celldm(2)=   0.000000  celldm(3)=   0.000000
     celldm(4)=   0.000000  celldm(5)=   0.000000  celldm(6)=   0.000000

     crystal axes: (cart. coord. in units of alat)
               a(1) = (  -0.500000   0.000000   0.500000 )  
               a(2) = (   0.000000   0.500000   0.500000 )  
               a(3) = (  -0.500000   0.500000   0.000000 )  

     reciprocal axes: (cart. coord. in units 2 pi/alat)
               b(1) = ( -1.000000 -1.000000  1.000000 )  
               b(2) = (  1.000000  1.000000  1.000000 )  
               b(3) = ( -1.000000  1.000000 -1.000000 )  


     PseudoPot. # 1 for Pd read from file:
     ./pd_pbe_v1.4.uspp.F.UPF
     MD5 check sum: 2d733d2bc2cbfd217af676df1668a4bc
     Pseudo is Ultrasoft + core correction, Zval = 16.0
     Generated by new atomic code, or converted to UPF format
     Using radial grid of  887 points,  6 beta functions with: 
                l(1) =   0
                l(2) =   0
                l(3) =   1
                l(4) =   1
                l(5) =   2
                l(6) =   2
     Q(r) pseudized with  8 coefficients,  rinner =    1.130   1.130   1.130
                                                       1.130   1.130

     atomic species   valence    mass     pseudopotential
        Pd            16.00   106.40000     Pd( 1.00)

     48 Sym. Ops., with inversion, found



   Cartesian axes

     site n.     atom                  positions (alat units)
         1           Pd  tau(   1) = (   0.0000000   0.0000000   0.0000000  )

     number of k points=    72  Marzari-Vanderbilt smearing, width (Ry)=  0.0150
                       cart. coord. in units 2pi/alat
        k(    1) = (   0.0000000   0.0000000   0.0000000), wk =   0.0011574
        k(    2) = (  -0.0833333   0.0833333  -0.0833333), wk =   0.0092593
        k(    3) = (  -0.1666667   0.1666667  -0.1666667), wk =   0.0092593
        k(    4) = (  -0.2500000   0.2500000  -0.2500000), wk =   0.0092593
        k(    5) = (  -0.3333333   0.3333333  -0.3333333), wk =   0.0092593
        k(    6) = (  -0.4166667   0.4166667  -0.4166667), wk =   0.0092593
        k(    7) = (   0.5000000  -0.5000000   0.5000000), wk =   0.0046296
        k(    8) = (   0.0000000   0.1666667   0.0000000), wk =   0.0069444
        k(    9) = (  -0.0833333   0.2500000  -0.0833333), wk =   0.0277778
        k(   10) = (  -0.1666667   0.3333333  -0.1666667), wk =   0.0277778
        k(   11) = (  -0.2500000   0.4166667  -0.2500000), wk =   0.0277778
        k(   12) = (  -0.3333333   0.5000000  -0.3333333), wk =   0.0277778
        k(   13) = (   0.5833333  -0.4166667   0.5833333), wk =   0.0277778
        k(   14) = (   0.5000000  -0.3333333   0.5000000), wk =   0.0277778
        k(   15) = (   0.4166667  -0.2500000   0.4166667), wk =   0.0277778
        k(   16) = (   0.3333333  -0.1666667   0.3333333), wk =   0.0277778
        k(   17) = (   0.2500000  -0.0833333   0.2500000), wk =   0.0277778
        k(   18) = (   0.1666667  -0.0000000   0.1666667), wk =   0.0138889
        k(   19) = (   0.0000000   0.3333333   0.0000000), wk =   0.0069444
        k(   20) = (  -0.0833333   0.4166667  -0.0833333), wk =   0.0277778
        k(   21) = (  -0.1666667   0.5000000  -0.1666667), wk =   0.0277778
        k(   22) = (  -0.2500000   0.5833333  -0.2500000), wk =   0.0277778
        k(   23) = (   0.6666667  -0.3333333   0.6666667), wk =   0.0277778
        k(   24) = (   0.5833333  -0.2500000   0.5833333), wk =   0.0277778
        k(   25) = (   0.5000000  -0.1666667   0.5000000), wk =   0.0277778
        k(   26) = (   0.4166667  -0.0833333   0.4166667), wk =   0.0277778
        k(   27) = (   0.3333333   0.0000000   0.3333333), wk =   0.0138889
        k(   28) = (   0.0000000   0.5000000   0.0000000), wk =   0.0069444
        k(   29) = (  -0.0833333   0.5833333  -0.0833333), wk =   0.0277778
        k(   30) = (  -0.1666667   0.6666667  -0.1666667), wk =   0.0277778
        k(   31) = (   0.7500000  -0.2500000   0.7500000), wk =   0.0277778
        k(   32) = (   0.6666667  -0.1666667   0.6666667), wk =   0.0277778
        k(   33) = (   0.5833333  -0.0833333   0.5833333), wk =   0.0277778
        k(   34) = (   0.5000000   0.0000000   0.5000000), wk =   0.0138889
        k(   35) = (   0.0000000   0.6666667   0.0000000), wk =   0.0069444
        k(   36) = (  -0.0833333   0.7500000  -0.0833333), wk =   0.0277778
        k(   37) = (   0.8333333  -0.1666667   0.8333333), wk =   0.0277778
        k(   38) = (   0.7500000  -0.0833333   0.7500000), wk =   0.0277778
        k(   39) = (   0.6666667  -0.0000000   0.6666667), wk =   0.0138889
        k(   40) = (   0.0000000   0.8333333   0.0000000), wk =   0.0069444
        k(   41) = (   0.9166667  -0.0833333   0.9166667), wk =   0.0277778
        k(   42) = (   0.8333333   0.0000000   0.8333333), wk =   0.0138889
        k(   43) = (   0.0000000  -1.0000000   0.0000000), wk =   0.0034722
        k(   44) = (  -0.1666667   0.3333333   0.0000000), wk =   0.0277778
        k(   45) = (  -0.2500000   0.4166667  -0.0833333), wk =   0.0555556
        k(   46) = (  -0.3333333   0.5000000  -0.1666667), wk =   0.0555556
        k(   47) = (   0.5833333  -0.4166667   0.7500000), wk =   0.0555556
        k(   48) = (   0.5000000  -0.3333333   0.6666667), wk =   0.0277778
        k(   49) = (  -0.1666667   0.5000000   0.0000000), wk =   0.0277778
        k(   50) = (  -0.2500000   0.5833333  -0.0833333), wk =   0.0555556
        k(   51) = (   0.6666667  -0.3333333   0.8333333), wk =   0.0555556
        k(   52) = (   0.5833333  -0.2500000   0.7500000), wk =   0.0555556
        k(   53) = (   0.5000000  -0.1666667   0.6666667), wk =   0.0555556
        k(   54) = (   0.4166667  -0.0833333   0.5833333), wk =   0.0555556
        k(   55) = (   0.3333333   0.0000000   0.5000000), wk =   0.0277778
        k(   56) = (  -0.1666667   0.6666667  -0.0000000), wk =   0.0277778
        k(   57) = (   0.7500000  -0.2500000   0.9166667), wk =   0.0555556
        k(   58) = (   0.6666667  -0.1666667   0.8333333), wk =   0.0555556
        k(   59) = (   0.5833333  -0.0833333   0.7500000), wk =   0.0555556
        k(   60) = (   0.5000000   0.0000000   0.6666667), wk =   0.0277778
        k(   61) = (   0.8333333  -0.1666667   1.0000000), wk =   0.0277778
        k(   62) = (   0.7500000  -0.0833333   0.9166667), wk =   0.0555556
        k(   63) = (   0.6666667   0.0000000   0.8333333), wk =   0.0277778
        k(   64) = (  -0.1666667  -1.0000000  -0.0000000), wk =   0.0138889
        k(   65) = (   0.6666667  -0.3333333   1.0000000), wk =   0.0277778
        k(   66) = (   0.5833333  -0.2500000   0.9166667), wk =   0.0555556
        k(   67) = (   0.5000000  -0.1666667   0.8333333), wk =   0.0277778
        k(   68) = (   0.6666667  -0.1666667   1.0000000), wk =   0.0277778
        k(   69) = (   0.5833333  -0.0833333   0.9166667), wk =   0.0555556
        k(   70) = (   0.5000000   0.0000000   0.8333333), wk =   0.0277778
        k(   71) = (  -0.3333333  -1.0000000   0.0000000), wk =   0.0138889
        k(   72) = (  -0.5000000  -1.0000000   0.0000000), wk =   0.0069444

     Dense  grid:     3479 G-vectors     FFT dimensions: (  24,  24,  24)

     Estimated max dynamical RAM per process >      10.29 MB

     Estimated total dynamical RAM >      20.59 MB

     Initial potential from superposition of free atoms
     Check: negative starting charge=   -0.079301

     starting charge   15.49999, renormalised to   16.00000

     negative rho (up, down):  8.186E-02 0.000E+00
     Starting wfcs are   12 randomized atomic wfcs

     total cpu time spent up to now is        0.8 secs

     Self-consistent Calculation

     iteration #  1     ecut=    35.00 Ry     beta= 0.70
     Davidson diagonalization with overlap
     ethr =  1.00E-02,  avg # of iterations =  3.5

     negative rho (up, down):  7.988E-02 0.000E+00

     total cpu time spent up to now is        1.6 secs

     total energy              =    -198.00895678 Ry
     Harris-Foulkes estimate   =    -199.06434633 Ry
     estimated scf accuracy    <       1.43913961 Ry

     iteration #  2     ecut=    35.00 Ry     beta= 0.70
     Davidson diagonalization with overlap
     ethr =  8.99E-03,  avg # of iterations =  2.0

     negative rho (up, down):  8.154E-02 0.000E+00

     total cpu time spent up to now is        2.5 secs

     total energy              =    -198.33289185 Ry
     Harris-Foulkes estimate   =    -199.20983508 Ry
     estimated scf accuracy    <       1.84504473 Ry

     iteration #  3     ecut=    35.00 Ry     beta= 0.70
     Davidson diagonalization with overlap
     ethr =  8.99E-03,  avg # of iterations =  2.0

     negative rho (up, down):  8.164E-02 0.000E+00

     total cpu time spent up to now is        3.3 secs

     total energy              =    -198.68600504 Ry
     Harris-Foulkes estimate   =    -198.68649107 Ry
     estimated scf accuracy    <       0.00110834 Ry

     iteration #  4     ecut=    35.00 Ry     beta= 0.70
     Davidson diagonalization with overlap
     ethr =  6.93E-06,  avg # of iterations =  2.7

     negative rho (up, down):  8.177E-02 0.000E+00

     total cpu time spent up to now is        4.2 secs

     total energy              =    -198.68645676 Ry
     Harris-Foulkes estimate   =    -198.68645561 Ry
     estimated scf accuracy    <       0.00000216 Ry

     iteration #  5     ecut=    35.00 Ry     beta= 0.70
     Davidson diagonalization with overlap
     ethr =  1.35E-08,  avg # of iterations =  2.0

     negative rho (up, down):  8.179E-02 0.000E+00

     total cpu time spent up to now is        5.0 secs

     End of self-consistent calculation

          k = 0.0000 0.0000 0.0000 (   411 PWs)   bands (ev):

   -35.3766 -35.3766 -35.3766   8.1962  11.8176  11.8176  11.8176  12.9514
    12.9514  31.1661  34.6975  34.6975

          k =-0.0833 0.0833-0.0833 (   423 PWs)   bands (ev):

   -35.3895 -35.3786 -35.3786   8.4058  11.7598  11.8784  11.8784  12.9266
    12.9266  31.1951  33.1195  34.7888

          k =-0.1667 0.1667-0.1667 (   426 PWs)   bands (ev):

   -35.4230 -35.3837 -35.3837   8.9845  11.6633  12.0029  12.0029  12.9159
    12.9159  29.6359  32.0301  34.9428

          k =-0.2500 0.2500-0.2500 (   429 PWs)   bands (ev):

   -35.4691 -35.3907 -35.3907   9.6842  11.8230  12.0319  12.0319  13.0699
    13.0699  26.6534  31.7403  34.8026

          k =-0.3333 0.3333-0.3333 (   425 PWs)   bands (ev):

   -35.5148 -35.3976 -35.3976  10.0070  11.9384  11.9384  12.7558  13.3845
    13.3845  23.6561  31.1167  34.1237

          k =-0.4167 0.4167-0.4167 (   422 PWs)   bands (ev):

   -35.5481 -35.4025 -35.4025  10.0103  11.8367  11.8367  13.6749  13.6749
    14.2844  21.0090  30.5856  33.3738

          k = 0.5000-0.5000 0.5000 (   434 PWs)   bands (ev):

   -35.5604 -35.4046 -35.4046   9.9850  11.7953  11.7953  13.7902  13.7902
    15.2896  19.6447  30.3898  33.0700

          k = 0.0000 0.1667 0.0000 (   427 PWs)   bands (ev):

   -35.3891 -35.3816 -35.3816   8.4759  11.6934  11.9257  11.9257  12.8275
    13.0025  31.3012  33.6736  34.0283

          k =-0.0833 0.2500-0.0833 (   433 PWs)   bands (ev):

   -35.4143 -35.3876 -35.3851   8.9359  11.5596  12.0577  12.0620  12.7322
    13.0537  30.6660  31.9960  33.4254

          k =-0.1667 0.3333-0.1667 (   435 PWs)   bands (ev):

   -35.4553 -35.3951 -35.3911   9.6333  11.5198  12.0790  12.1442  12.8926
    13.1942  27.8048  31.7495  32.8886

          k =-0.2500 0.4167-0.2500 (   431 PWs)   bands (ev):

   -35.5001 -35.4020 -35.3989  10.1020  11.9043  11.9881  12.0907  13.4650
    13.4751  24.7521  31.2286  32.4016

          k =-0.3333 0.5000-0.3333 (   429 PWs)   bands (ev):

   -35.5365 -35.4067 -35.4064  10.1511  11.7789  11.9833  12.7459  13.7183
    14.5517  21.9160  30.6433  32.1193

          k = 0.5833-0.4167 0.5833 (   430 PWs)   bands (ev):

   -35.5551 -35.4121 -35.4073  10.1163  11.7101  11.9089  13.2027  13.7984
    15.8530  19.8586  30.2642  32.1444

          k = 0.5000-0.3333 0.5000 (   431 PWs)   bands (ev):

   -35.5510 -35.4138 -35.4046  10.1306  11.7375  11.9077  13.2052  13.6442
    15.5169  20.3862  30.1616  31.8855

          k = 0.4167-0.2500 0.4167 (   431 PWs)   bands (ev):

   -35.5256 -35.4112 -35.3985  10.1704  11.8395  11.9863  12.6460  13.3083
    14.3175  22.8314  30.3193  32.3039

          k = 0.3333-0.1667 0.3333 (   429 PWs)   bands (ev):

   -35.4852 -35.4046 -35.3911  10.0166  11.7558  12.0464  12.1031  12.9289
    13.6004  25.7694  30.6578  33.2394

          k = 0.2500-0.0833 0.2500 (   435 PWs)   bands (ev):

   -35.4413 -35.3960 -35.3843   9.3974  11.5414  12.0789  12.1156  12.7273
    13.1890  28.8130  31.0290  33.9823

          k = 0.1667-0.0000 0.1667 (   425 PWs)   bands (ev):

   -35.4059 -35.3865 -35.3796   8.7423  11.6508  11.9669  11.9970  12.8020
    13.0061  31.0691  31.7699  33.9116

          k = 0.0000 0.3333 0.0000 (   435 PWs)   bands (ev):

   -35.4215 -35.3947 -35.3947   9.2485  11.3676  12.2448  12.2448  12.5535
    13.1462  31.6323  32.1979  32.1979

          k =-0.0833 0.4167-0.0833 (   432 PWs)   bands (ev):

   -35.4513 -35.4029 -35.4016   9.8259  11.1988  12.2008  12.4135  12.8040
    13.2776  29.1864  31.2535  31.6989

          k =-0.1667 0.5000-0.1667 (   439 PWs)   bands (ev):

   -35.4892 -35.4107 -35.4105  10.3422  11.2601  11.9648  12.4252  13.5228
    13.6242  26.0890  30.6151  30.9898

          k =-0.2500 0.5833-0.2500 (   433 PWs)   bands (ev):

   -35.5223 -35.4215 -35.4149  10.4354  11.5603  11.9636  12.3308  13.7602
    14.9285  23.1151  29.9155  30.3764

          k = 0.6667-0.3333 0.6667 (   428 PWs)   bands (ev):

   -35.5421 -35.4314 -35.4152  10.4203  11.5120  12.2305  12.3739  13.8200
    16.5954  20.5699  28.8958  30.6694

          k = 0.5833-0.2500 0.5833 (   434 PWs)   bands (ev):

   -35.5439 -35.4375 -35.4115  10.4555  11.5133  12.1831  12.5318  13.6393
    17.1081  20.0288  28.1597  31.5516

          k = 0.5000-0.1667 0.5000 (   431 PWs)   bands (ev):

   -35.5275 -35.4372 -35.4047  10.5471  11.6122  12.2152  12.2485  13.2697
    15.6921  22.3072  27.8268  31.9383

          k = 0.4167-0.0833 0.4167 (   428 PWs)   bands (ev):

   -35.4988 -35.4294 -35.3963  10.5651  11.5257  11.9114  12.3265  12.8269
    14.5182  25.1672  27.9005  32.8277

          k = 0.3333 0.0000 0.3333 (   441 PWs)   bands (ev):

   -35.4674 -35.4145 -35.3890  10.0726  11.3763  12.0372  12.3755  12.5456
    13.7104  27.9699  28.5016  34.1874

          k = 0.0000 0.5000 0.0000 (   431 PWs)   bands (ev):

   -35.4656 -35.4122 -35.4122  10.1332  10.9523  12.5894  12.7348  12.7348
    13.3487  29.9592  29.9592  30.8622

          k =-0.0833 0.5833-0.0833 (   435 PWs)   bands (ev):

   -35.4920 -35.4222 -35.4206  10.4103  10.8077  12.4765  12.8812  13.5415
    13.6507  27.5042  29.0745  29.5554

          k =-0.1667 0.6667-0.1667 (   429 PWs)   bands (ev):

   -35.5163 -35.4357 -35.4256  10.5015  10.9202  12.3060  12.8226  13.7858
    15.1423  24.5465  28.0460  28.7009

          k = 0.7500-0.2500 0.7500 (   431 PWs)   bands (ev):

   -35.5299 -35.4520 -35.4261  10.5407  11.1430  12.1912  12.7082  13.8517
    17.0403  21.8108  26.7318  28.9399

          k = 0.6667-0.1667 0.6667 (   428 PWs)   bands (ev):

   -35.5295 -35.4659 -35.4218  10.6744  11.3049  12.0943  12.6107  13.6698
    18.7585  19.9810  25.7051  29.8199

          k = 0.5833-0.0833 0.5833 (   427 PWs)   bands (ev):

   -35.5191 -35.4699 -35.4140  10.8891  11.4376  11.8622  12.5576  13.3083
    17.2590  22.1060  25.0748  31.2524

          k = 0.5000 0.0000 0.5000 (   423 PWs)   bands (ev):

   -35.5087 -35.4557 -35.4045  11.0357  11.3973  11.7146  12.5198  12.9327
    15.7318  24.8721  24.9572  32.3041

          k = 0.0000 0.6667 0.0000 (   432 PWs)   bands (ev):

   -35.5089 -35.4297 -35.4297  10.3162  10.5656  13.3078  13.3078  13.5571
    13.8263  27.7558  27.9340  27.9340

          k =-0.0833 0.7500-0.0833 (   438 PWs)   bands (ev):

   -35.5260 -35.4406 -35.4359  10.2956  10.4818  13.1843  13.3511  13.7847
    15.2913  25.7875  26.2981  27.3428

          k = 0.8333-0.1667 0.8333 (   431 PWs)   bands (ev):

   -35.5325 -35.4578 -35.4367  10.3475  10.6228  12.8533  13.2379  13.8908
    17.2221  23.3395  24.8087  27.4253

          k = 0.7500-0.0833 0.7500 (   433 PWs)   bands (ev):

   -35.5241 -35.4799 -35.4325  10.4982  10.9270  12.4339  13.0879  13.7425
    19.4232  21.0462  23.6678  28.1994

          k = 0.6667-0.0000 0.6667 (   431 PWs)   bands (ev):

   -35.5019 -35.5016 -35.4242  10.7423  11.2926  11.9668  12.8789  13.4781
    19.0186  21.5887  23.2195  29.5446

          k = 0.0000 0.8333 0.0000 (   440 PWs)   bands (ev):

   -35.5397 -35.4428 -35.4428  10.1086  10.2971  13.7120  13.8033  13.8033
    15.8719  24.3883  26.5082  26.5082

          k = 0.9167-0.0833 0.9167 (   439 PWs)   bands (ev):

   -35.5452 -35.4512 -35.4446  10.1082  10.2994  13.6400  13.6472  13.9462
    17.2436  23.1271  25.1838  26.3700

          k = 0.8333 0.0000 0.8333 (   432 PWs)   bands (ev):

   -35.5375 -35.4667 -35.4408  10.2600  10.5205  13.0879  13.4607  13.8668
    18.7247  22.4522  23.3402  26.9755

          k = 0.0000-1.0000 0.0000 (   444 PWs)   bands (ev):

   -35.5513 -35.4476 -35.4476  10.0029  10.2018  13.7703  14.0057  14.0057
    17.2180  22.6001  25.9866  25.9866

          k =-0.1667 0.3333 0.0000 (   431 PWs)   bands (ev):

   -35.4382 -35.3999 -35.3885   9.4746  11.3947  12.1224  12.2491  12.6669
    13.2263  29.9529  30.2001  33.6127

          k =-0.2500 0.4167-0.0833 (   432 PWs)   bands (ev):

   -35.4742 -35.4122 -35.3946  10.1445  11.3560  11.9775  12.3555  12.8728
    13.6708  27.0322  29.6209  32.8486

          k =-0.3333 0.5000-0.1667 (   430 PWs)   bands (ev):

   -35.5114 -35.4215 -35.4022  10.4144  11.7631  11.8165  12.2820  13.3128
    14.4940  24.0128  29.3183  31.5841

          k = 0.5833-0.4167 0.7500 (   430 PWs)   bands (ev):

   -35.5388 -35.4269 -35.4089  10.3787  11.6067  12.1297  12.4730  13.6379
    15.8234  21.2855  29.3095  30.5797

          k = 0.5000-0.3333 0.6667 (   430 PWs)   bands (ev):

   -35.5488 -35.4284 -35.4116  10.3474  11.5479  12.1054  12.7014  13.7402
    16.9348  19.7149  29.5061  30.0341

          k =-0.1667 0.5000 0.0000 (   432 PWs)   bands (ev):

   -35.4762 -35.4180 -35.4065  10.3247  11.0266  12.0785  12.7311  12.9958
    13.6615  28.2997  28.6697  31.3178

          k =-0.2500 0.5833-0.0833 (   432 PWs)   bands (ev):

   -35.5039 -35.4320 -35.4134  10.6374  11.1013  11.8847  12.7581  13.3812
    14.6266  25.4174  28.0792  29.8323

          k = 0.6667-0.3333 0.8333 (   435 PWs)   bands (ev):

   -35.5257 -35.4435 -35.4196  10.6379  11.3373  11.8771  12.6316  13.6842
    16.1467  22.5476  28.0478  28.5039

          k = 0.5833-0.2500 0.7500 (   429 PWs)   bands (ev):

   -35.5352 -35.4521 -35.4209  10.6690  11.3188  12.1027  12.5007  13.7339
    17.9529  20.1840  27.4107  28.5150

          k = 0.5000-0.1667 0.6667 (   426 PWs)   bands (ev):

   -35.5307 -35.4554 -35.4168  10.7611  11.3455  12.0451  12.4840  13.5584
    17.4199  20.9606  26.6937  29.3709

          k = 0.4167-0.0833 0.5833 (   425 PWs)   bands (ev):

   -35.5153 -35.4499 -35.4090  10.8779  11.4961  11.6109  12.5945  13.2038
    15.7999  23.6088  26.4224  30.4769

          k = 0.3333 0.0000 0.5000 (   426 PWs)   bands (ev):

   -35.4949 -35.4339 -35.4007  10.7670  11.2128  11.7551  12.7247  12.7590
    14.5584  26.3507  26.7912  31.7307

          k =-0.1667 0.6667-0.0000 (   436 PWs)   bands (ev):

   -35.5113 -35.4363 -35.4264  10.5005  10.6754  12.5031  13.3029  13.4524
    14.7455  26.7175  26.9988  27.9236

          k = 0.7500-0.2500 0.9167 (   431 PWs)   bands (ev):

   -35.5241 -35.4516 -35.4320  10.5452  10.7831  12.3298  13.1942  13.7225
    16.3795  24.0582  26.3313  26.8534

          k = 0.6667-0.1667 0.8333 (   432 PWs)   bands (ev):

   -35.5253 -35.4697 -35.4325  10.6312  11.0223  12.1272  12.9766  13.7931
    18.4164  21.5021  25.1525  27.2016

          k = 0.5833-0.0833 0.7500 (   427 PWs)   bands (ev):

   -35.5155 -35.4847 -35.4272  10.8348  11.2428  11.8572  12.8200  13.6216
    19.1947  20.8759  24.2240  28.0934

          k = 0.5000 0.0000 0.6667 (   423 PWs)   bands (ev):

   -35.5121 -35.4774 -35.4184  11.1076  11.4122  11.4690  12.7699  13.3300
    17.3592  23.3256  23.8816  29.2604

          k = 0.8333-0.1667 1.0000 (   435 PWs)   bands (ev):

   -35.5355 -35.4496 -35.4417  10.2741  10.4303  13.0920  13.6304  13.8010
    16.6587  24.3915  25.7293  25.7843

          k = 0.7500-0.0833 0.9167 (   434 PWs)   bands (ev):

   -35.5334 -35.4652 -35.4427  10.3759  10.5955  12.7692  13.3786  13.9156
    18.4784  22.9387  23.7738  26.0315

          k = 0.6667 0.0000 0.8333 (   431 PWs)   bands (ev):

   -35.5190 -35.4857 -35.4369  10.5759  10.9339  12.2810  13.1094  13.8000
    20.2589  21.1089  22.9499  26.8893

          k =-0.1667-1.0000-0.0000 (   436 PWs)   bands (ev):

   -35.5443 -35.4544 -35.4475  10.1627  10.3430  13.4014  13.6012  14.0063
    18.0452  22.5899  25.2515  25.3164

          k = 0.6667-0.3333 1.0000 (   431 PWs)   bands (ev):

   -35.5143 -35.4537 -35.4205  10.9735  10.9937  11.6960  13.1025  13.2985
    15.9864  25.0587  25.2151  28.3944

          k = 0.5833-0.2500 0.9167 (   428 PWs)   bands (ev):

   -35.5195 -35.4698 -35.4278  10.9693  11.1631  11.6473  12.9087  13.6168
    17.7162  22.3826  25.2923  27.1502

          k = 0.5000-0.1667 0.8333 (   428 PWs)   bands (ev):

   -35.5208 -35.4758 -35.4310  11.0506  11.0649  11.7553  12.7845  13.7371
    19.5186  20.2267  25.6768  26.3987

          k = 0.6667-0.1667 1.0000 (   427 PWs)   bands (ev):

   -35.5233 -35.4680 -35.4396  10.6804  10.8248  12.1264  13.2285  13.7966
    18.0579  23.9769  24.0455  25.3294

          k = 0.5833-0.0833 0.9167 (   428 PWs)   bands (ev):

   -35.5134 -35.4858 -35.4423  10.7790  11.0952  11.8394  12.9902  13.9044
    20.0727  21.6519  23.7071  25.0575

          k = 0.5000 0.0000 0.8333 (   432 PWs)   bands (ev):

   -35.5057 -35.4936 -35.4373  10.9289  11.3766  11.4601  12.9130  13.7922
    19.5465  22.1218  23.2889  25.9408

          k =-0.3333-1.0000 0.0000 (   430 PWs)   bands (ev):

   -35.5253 -35.4734 -35.4480  10.5496  10.7622  12.3687  13.1879  14.0068
    19.7262  22.5769  23.6016  24.3552

          k =-0.5000-1.0000 0.0000 (   444 PWs)   bands (ev):

   -35.4996 -35.4996 -35.4484  10.8015  11.4475  11.4475  12.9186  14.0066
    21.6598  21.6598  22.5769  23.9708

     the Fermi energy is    13.8240 ev

!    total energy              =    -198.68645717 Ry
     Harris-Foulkes estimate   =    -198.68645710 Ry
     estimated scf accuracy    <       0.00000008 Ry

     The total energy is the sum of the following terms:

     one-electron contribution =     -60.30127881 Ry
     hartree contribution      =      41.43112203 Ry
     xc contribution           =     -31.24336773 Ry
     ewald contribution        =    -148.57274574 Ry
     smearing contrib. (-TS)   =      -0.00018691 Ry

     convergence has been achieved in   5 iterations

     Writing output data file Pd-kp-conv.save/
 
     init_run     :      0.61s CPU      0.66s WALL (       1 calls)
     electrons    :      3.74s CPU      4.22s WALL (       1 calls)

     Called by init_run:
     wfcinit      :      0.26s CPU      0.28s WALL (       1 calls)
     potinit      :      0.01s CPU      0.02s WALL (       1 calls)
     hinit0       :      0.33s CPU      0.33s WALL (       1 calls)

     Called by electrons:
     c_bands      :      3.10s CPU      3.53s WALL (       5 calls)
     sum_band     :      0.58s CPU      0.61s WALL (       5 calls)
     v_of_rho     :      0.03s CPU      0.03s WALL (       6 calls)
     newd         :      0.04s CPU      0.05s WALL (       6 calls)
     mix_rho      :      0.00s CPU      0.00s WALL (       5 calls)

     Called by c_bands:
     init_us_2    :      0.08s CPU      0.09s WALL (     792 calls)
     cegterg      :      2.88s CPU      3.04s WALL (     360 calls)

     Called by sum_band:
     sum_band:bec :      0.00s CPU      0.00s WALL (     360 calls)
     addusdens    :      0.04s CPU      0.04s WALL (       5 calls)

     Called by *egterg:
     h_psi        :      2.51s CPU      2.66s WALL (    1309 calls)
     s_psi        :      0.03s CPU      0.04s WALL (    1309 calls)
     g_psi        :      0.02s CPU      0.03s WALL (     877 calls)
     cdiaghg      :      0.32s CPU      0.34s WALL (    1237 calls)

     Called by h_psi:
     h_psi:pot    :      2.50s CPU      2.65s WALL (    1309 calls)
     h_psi:calbec :      0.05s CPU      0.05s WALL (    1309 calls)
     vloc_psi     :      2.40s CPU      2.55s WALL (    1309 calls)
     add_vuspsi   :      0.04s CPU      0.04s WALL (    1309 calls)

     General routines
     calbec       :      0.06s CPU      0.06s WALL (    1669 calls)
     fft          :      0.01s CPU      0.01s WALL (      67 calls)
     ffts         :      0.00s CPU      0.00s WALL (       5 calls)
     fftw         :      2.46s CPU      2.60s WALL (   27842 calls)
 
     Parallel routines
     fft_scatt_xy :      0.45s CPU      0.48s WALL (   27914 calls)
     fft_scatt_yz :      0.54s CPU      0.57s WALL (   27914 calls)
 
     PWSCF        :     4.46s CPU         5.29s WALL

 
   This run was terminated on:  21:18:50   2Dec2021            

=------------------------------------------------------------------------------=
   JOB DONE.
=------------------------------------------------------------------------------=
