   5
  -5282.52363273064     
 C     -0.1379593      0.9440903      0.0001933
 H     -1.0148771      1.5708021      0.0000529
 F      1.0055512      1.6097829      0.0000144
Br     -0.1032007     -0.3070274      1.6071518
Br     -0.1032023     -0.3070537     -1.6071853
