   5
  -5282.64435418366     
 C     -0.0968245      1.5248114      1.1515452
 H     -0.7143812      2.2868378      1.6050390
 F      1.1188325      1.9673281      0.7801103
Br     -0.0675092     -0.1687898      2.0536902
Br     -0.1762568     -0.6288111     -2.4370864
