   5
  -5282.64458521649     
 C     -0.0812593      1.5783004      1.3649405
 H     -0.7032344      2.3384059      1.8140040
 F      1.1357143      2.0226854      1.0012554
Br     -0.0516753     -0.1155368      2.2677384
Br     -0.1986639     -0.7041824     -2.7394885
