   5
  -5282.64222881288     
 C     -0.1142761      1.4812803      0.9211743
 H     -0.6219315      2.2613711      1.4688125
 F      1.0732144      1.8610803      0.4164458
Br     -0.0918390     -0.2442053      1.7590210
Br     -0.1394722     -0.5208737     -2.0181015
