INTEL Compilers version 18.2.199
load intel/2018 (LD_LIBRARY_PATH)
ModuleCmd_Load.c(213):ERROR:105: Unable to locate a modulefile for 'openmolcas/openmolcas'
cp: no se puede efectuar `stat' sobre «/temporal/master99/slurm_tmp_2897983/caspt2.158.in.ScfOrb»: No existe el fichero o el directorio
cp: no se puede efectuar `stat' sobre «/temporal/master99/slurm_tmp_2897983/caspt2.158.in.scf.molden»: No existe el fichero o el directorio
