 *******************************************************************************
 ** Site#: 22750        For non-commercial use only    Version 18.151L 64BITS **
 *******************************************************************************
 ** Cite this program as: MOPAC2016, Version: 18.151L, James J. P. Stewart,   **
 ** Stewart Computational Chemistry, web-site: HTTP://OpenMOPAC.net.          **
 *******************************************************************************
 **                                                                           **
 **                                MOPAC2016                                  **
 **                                                                           **
 *******************************************************************************

                              PM6 CALCULATION RESULTS

 *******************************************************************************
 *  CALCULATION DONE:                                Tue Nov  2 12:50:27 2021  *
 *  PM6        - The PM6 Hamiltonian to be used
 *
 *
 *
 *                 CHARGE ON SYSTEM = 0
 *
 *
 *
 *  PRECISE    - CRITERIA TO BE INCREASED BY 100 TIMES
 *  XYZ        - CARTESIAN COORDINATE SYSTEM TO BE USED
 *  T=         - A TIME OF 172800.0 SECONDS REQUESTED
 *  DUMP=N     - RESTART FILE WRITTEN EVERY  7200.000 SECONDS
 *******************************************************************************
CHARGE=0 PM6 PRECISE XYZ
 CF
 Se parte de MP2
   ATOM   CHEMICAL          X               Y               Z
  NUMBER   SYMBOL      (ANGSTROMS)     (ANGSTROMS)     (ANGSTROMS)
 
     1       C          0.00000000  *   0.00000000  *  -0.76527400  *
     2       F          0.00000000  *   0.00000000  *   0.51018300  *
 


          CARTESIAN COORDINATES 

    NO.       ATOM           X           Y           Z

     1         C          0.0000      0.0000     -0.7653
     2         F          0.0000      0.0000      0.5102

 General Reference for PM6:
 "Optimization of Parameters for Semiempirical Methods V: Modification of NDDO Approximations
 and Application to 70 Elements", J. J. P. Stewart, J. Mol. Mod., 13, 1173-1213 (2007)
 URL: http://www.springerlink.com/content/ar33482301010477/fulltext.pdf

           Empirical Formula: C F  =     2 atoms



      MOLECULAR POINT GROUP   :   C*v 


          UHF CALCULATION, NO. OF ALPHA ELECTRONS =    6
                           NO. OF BETA  ELECTRONS =    5

          Geometry optimization using EF

          DIAGONAL MATRIX USED AS START HESSIAN

 CYCLE:     1 TIME:   0.008 TIME LEFT:  2.00D  GRAD.:    29.884 HEAT:  48.27896
 CYCLE:     2 TIME:   0.008 TIME LEFT:  2.00D  GRAD.:    10.884 HEAT:  48.09084
 CYCLE:     3 TIME:   0.004 TIME LEFT:  2.00D  GRAD.:     0.699 HEAT:  48.06566
 CYCLE:     4 TIME:   0.004 TIME LEFT:  2.00D  GRAD.:     0.009 HEAT:  48.06556

     GRADIENT =  0.00887  IS LESS THAN CUTOFF =  0.05000



 -------------------------------------------------------------------------------
 CHARGE=0 PM6 PRECISE XYZ
 CF
 Se parte de MP2


     GEOMETRY OPTIMISED USING EIGENVECTOR FOLLOWING (EF).     
     SCF FIELD WAS ACHIEVED                                   


                              PM6 CALCULATION
                                                       MOPAC2016 (Version: 18.151L)
                                                       Tue Nov  2 12:50:27 2021




          FINAL HEAT OF FORMATION =         48.06556 KCAL/MOL =     201.10629 KJ/MOL


          TOTAL ENERGY            =       -589.50449 EV
          ELECTRONIC ENERGY       =       -838.10661 EV  POINT GROUP:     C*v 
          CORE-CORE REPULSION     =        248.60212 EV
          COSMO AREA              =         58.90 SQUARE ANGSTROMS
          COSMO VOLUME            =         41.29 CUBIC ANGSTROMS

          GRADIENT NORM           =          0.00887 = 0.00627 PER ATOM
          IONIZATION POTENTIAL    =          8.672305 EV
          ALPHA SOMO LUMO (EV)    =         -8.672  0.098
          BETA  SOMO LUMO (EV)    =        -12.998  0.705
          NO. OF ALPHA ELECTRONS  =          6
          NO. OF BETA  ELECTRONS  =          5
          MOLECULAR WEIGHT        =         31.0094

          MOLECULAR DIMENSIONS (Angstroms)

            Atom       Atom       Distance
            F     2    C     1     1.25567
            F     2    C     1     0.00000
            C     1    F     2     0.00000


          SCF CALCULATIONS        =          8
 
          WALL-CLOCK TIME         =          0.047 SECONDS
          COMPUTATION TIME        =          0.027 SECONDS




   ATOM   CHEMICAL          X               Y               Z
  NUMBER   SYMBOL      (ANGSTROMS)     (ANGSTROMS)     (ANGSTROMS)
 
     1       C          0.00000000  *   0.00000000  *  -0.75538015  *
     2       F          0.00000000  *  -0.00000000  *   0.50028915  *

                             CARTESIAN COORDINATES

   1    C        0.000000000     0.000000000    -0.755380149
   2    F        0.000000000    -0.000000000     0.500289149


           Empirical Formula: C F  =     2 atoms



      MOLECULAR POINT GROUP   :   C*v 


          ALPHA EIGENVALUES  
 -42.60946 -21.26162 -17.53674 -17.02904 -13.50081  -8.67231   0.09821   3.95325


           BETA EIGENVALUES 
 -42.55165 -20.94130 -17.29406 -17.03559 -12.99797   0.70483   1.82722   4.41800


              NET ATOMIC CHARGES AND DIPOLE CONTRIBUTIONS

  ATOM NO.   TYPE          CHARGE      No. of ELECS.   s-Pop       p-Pop       
    1          C           0.213615        3.7864     1.86487     1.92151
    2          F          -0.213615        7.2136     1.95275     5.26086
 DIPOLE           X         Y         Z       TOTAL
 POINT-CHG.     0.000     0.000    -1.288     1.288
 HYBRID         0.000    -0.000     1.396     1.396
 SUM            0.000    -0.000     0.108     0.108


          ATOMIC ORBITAL ELECTRON POPULATIONS

     Atom    s        px        py        pz   
    1  C   1.86487   1.04962   0.14136   0.73053
    2  F   1.95275   1.95038   1.85864   1.45184


                    (SZ)    =    0.500000
                    (S**2)  =    0.751031


          ATOMIC ORBITAL SPIN POPULATIONS

    Atom   Total    s     px     py     pz   
         Atomic
    1  C  0.9820 -0.001  0.950  0.010  0.023
    2  F  0.0180  0.000  0.050 -0.010 -0.022
 *******************************************************************************
 ** Site#: 22750        For non-commercial use only    Version 18.151L 64BITS **
 *******************************************************************************
 ** Cite this program as: MOPAC2016, Version: 18.151L, James J. P. Stewart,   **
 ** Stewart Computational Chemistry, web-site: HTTP://OpenMOPAC.net.          **
 *******************************************************************************
 **                                                                           **
 **                                MOPAC2016                                  **
 **                                                                           **
 *******************************************************************************

                              PM6 CALCULATION RESULTS

 *******************************************************************************
 *  CALCULATION DONE:                                Tue Nov  2 12:50:27 2021  *
 *  PM6        - The PM6 Hamiltonian to be used
 *
 *
 *
 *                 CHARGE ON SYSTEM = 0
 *
 *
 *
 *  OLDGEO     - PREVIOUS GEOMETRY TO BE USED
 *  FORCE      - FORCE CALCULATION SPECIFIED
 *  T=         - A TIME OF 172800.0 SECONDS REQUESTED
 *  DUMP=N     - RESTART FILE WRITTEN EVERY  7200.000 SECONDS
 *******************************************************************************
FORCE OLDGEO CHARGE=0 PM6
 CF
 Se parte de MP2
   ATOM   CHEMICAL          X               Y               Z
  NUMBER   SYMBOL      (ANGSTROMS)     (ANGSTROMS)     (ANGSTROMS)
 
     1       C          0.00000000  *   0.00000000  *  -0.75538015  *
     2       F          0.00000000  *  -0.00000000  *   0.50028915  *
 


          CARTESIAN COORDINATES 

    NO.       ATOM           X           Y           Z

     1         C          0.0000      0.0000     -0.7554
     2         F          0.0000     -0.0000      0.5003

 General Reference for PM6:
 "Optimization of Parameters for Semiempirical Methods V: Modification of NDDO Approximations
 and Application to 70 Elements", J. J. P. Stewart, J. Mol. Mod., 13, 1173-1213 (2007)
 URL: http://www.springerlink.com/content/ar33482301010477/fulltext.pdf

           Empirical Formula: C F  =     2 atoms



      MOLECULAR POINT GROUP   :   C*v 


          UHF CALCULATION, NO. OF ALPHA ELECTRONS =    6
                           NO. OF BETA  ELECTRONS =    5


          HEAT OF FORMATION =      48.065557 KCALS/MOLE


          CARTESIAN COORDINATE DERIVATIVES

   NUMBER  ATOM         X            Y            Z

     1       C      0.005354     0.000000     0.000000
     2       F     -0.005354     0.000000     0.000000
 


          GRADIENT NORM =   0.00757


          TIME FOR SCF CALCULATION =    0.00

          TIME FOR DERIVATIVES     =    0.00

          MOLECULAR WEIGHT =   31.01



          ROTATIONAL CONSTANTS IN CM(-1)

          A =    0.00000000   B =    1.45292492   C =    1.45292492



           PRINCIPAL MOMENTS OF INERTIA IN UNITS OF 10**(-40)*GRAM-CM**2

          A =        0.0000   B =       19.2665   C =       19.2665


          ORIENTATION OF MOLECULE IN FORCE CALCULATION

    NO.       ATOM         X         Y         Z

     1          C      -0.7693    0.0000    0.0000
     2          F       0.4864    0.0000    0.0000


    FIRST DERIVATIVES WILL BE USED IN THE CALCULATION OF SECOND DERIVATIVES

          ESTIMATED TIME TO COMPLETE CALCULATION =        0.05 SECONDS

    FOR POINT-GROUP C*v  THERE ARE  84 UNIQUE SYMMETRY FUNCTIONS.

 STEP:   1 TIME =     0.00 SECS, INTEGRAL =      0.00 TIME LEFT: 172800.00
 STEP:   2 TIME =     0.00 SECS, INTEGRAL =      0.00 TIME LEFT: 172799.99
 STEP:   3 TIME =     0.00 SECS, INTEGRAL =      0.01 TIME LEFT: 172799.99
 STEP:   4 TIME =     0.00 SECS, INTEGRAL =      0.01 TIME LEFT: 172799.98
 STEP:   5 TIME =     0.00 SECS, INTEGRAL =      0.02 TIME LEFT: 172799.98
 STEP:   6 TIME =     0.00 SECS, INTEGRAL =      0.02 TIME LEFT: 172799.98

(To convert to Hartree/Bohr^2, multiply by (10^(-21) x N x a0^2)/(4.184 x 627.51) =  0.0642)


           FORCE MATRIX IN MILLIDYNES/ANGSTROM


                  C  1       F  2
 ------------------------------
     C    1   7.893029
     F    2   7.891654   7.890279


          HEAT OF FORMATION =      48.065557 KCALS/MOLE

          ZERO POINT ENERGY       1.929 KCAL/MOL


           NORMAL COORDINATE ANALYSIS (Total motion = 1 Angstrom)


   Root No.       1

                 1 Sig 

                1349.1
  
           1    0.6127
           2   -0.0000
           3   -0.0000
           4   -0.3873
           5    0.0000
           6    0.0000


           MASS-WEIGHTED COORDINATE ANALYSIS (NORMAL COORDINATES)


   Root No.       1

                 1 Sig 

                1349.1
  
           1    0.7827
           2   -0.0000
           3   -0.0000
           4   -0.6224
           5    0.0000
           6    0.0000


          DESCRIPTION OF VIBRATIONS


 VIBRATION    1    1Sig      ATOM PAIR     ENERGY CONTRIBUTION    RADIAL
 FREQ.      1349.14         C 1 -- F 2        +100.0% (100.0%)    100.0%
 T-DIPOLE    4.9590
 TRAVEL      0.0587
 RED. MASS   7.3587
 EFF. MASS  14.5282

           FORCE CONSTANT IN CARTESIAN COORDINATES (Millidynes/A)

    ATOM   CHEMICAL       X               Y               Z
   NUMBER   SYMBOL  FORCE CONSTANT  FORCE CONSTANT  FORCE CONSTANT

      1       C        7.891646        0.006680        0.006680
      2       F        7.891646        0.006680        0.006680

 **********************
 *                    *
 * JOB ENDED NORMALLY *
 *                    *
 **********************



 TOTAL JOB TIME:             0.16 SECONDS

 == MOPAC DONE ==
