 *******************************************************************************
 ** Site#: 22750        For non-commercial use only    Version 18.151L 64BITS **
 *******************************************************************************
 ** Cite this program as: MOPAC2016, Version: 18.151L, James J. P. Stewart,   **
 ** Stewart Computational Chemistry, web-site: HTTP://OpenMOPAC.net.          **
 *******************************************************************************
 **                                                                           **
 **                                MOPAC2016                                  **
 **                                                                           **
 *******************************************************************************

                              PM6 CALCULATION RESULTS

 *******************************************************************************
 *  CALCULATION DONE:                                Thu Nov  4 11:10:49 2021  *
 *  PM6        - The PM6 Hamiltonian to be used
 *
 *
 *
 *                 CHARGE ON SYSTEM = 0
 *
 *
 *
 *  PRECISE    - CRITERIA TO BE INCREASED BY 100 TIMES
 *  XYZ        - CARTESIAN COORDINATE SYSTEM TO BE USED
 *  T=         - A TIME OF 172800.0 SECONDS REQUESTED
 *  DUMP=N     - RESTART FILE WRITTEN EVERY  7200.000 SECONDS
 *******************************************************************************
CHARGE=0 PM6 PRECISE XYZ
 Molecula CH SemiEmp Opt

   ATOM   CHEMICAL          X               Y               Z
  NUMBER   SYMBOL      (ANGSTROMS)     (ANGSTROMS)     (ANGSTROMS)
 
     1       C          0.00000000  *   0.00000000  *   0.15904000  *
     2       H          0.00000000  *   0.00000000  *  -0.95424100  *
 


          CARTESIAN COORDINATES 

    NO.       ATOM           X           Y           Z

     1         C          0.0000      0.0000      0.1590
     2         H          0.0000      0.0000     -0.9542

 General Reference for PM6:
 "Optimization of Parameters for Semiempirical Methods V: Modification of NDDO Approximations
 and Application to 70 Elements", J. J. P. Stewart, J. Mol. Mod., 13, 1173-1213 (2007)
 URL: http://www.springerlink.com/content/ar33482301010477/fulltext.pdf

           Empirical Formula: C H  =     2 atoms



      MOLECULAR POINT GROUP   :   C*v 


          UHF CALCULATION, NO. OF ALPHA ELECTRONS =    3
                           NO. OF BETA  ELECTRONS =    2

          Geometry optimization using EF

          DIAGONAL MATRIX USED AS START HESSIAN

 CYCLE:     1 TIME:   0.004 TIME LEFT:  2.00D  GRAD.:    28.051 HEAT:  141.6849
 CYCLE:     2 TIME:   0.004 TIME LEFT:  2.00D  GRAD.:     9.115 HEAT:  141.3410
 CYCLE:     3 TIME:   0.004 TIME LEFT:  2.00D  GRAD.:     0.377 HEAT:  141.3035
 CYCLE:     4 TIME:   0.004 TIME LEFT:  2.00D  GRAD.:     0.014 HEAT:  141.3034

     GRADIENT =  0.01370  IS LESS THAN CUTOFF =  0.05000



 -------------------------------------------------------------------------------
 CHARGE=0 PM6 PRECISE XYZ
 Molecula CH SemiEmp Opt



     GEOMETRY OPTIMISED USING EIGENVECTOR FOLLOWING (EF).     
     SCF FIELD WAS ACHIEVED                                   


                              PM6 CALCULATION
                                                       MOPAC2016 (Version: 18.151L)
                                                       Thu Nov  4 11:10:49 2021




          FINAL HEAT OF FORMATION =        141.30339 KCAL/MOL =     591.21340 KJ/MOL


          TOTAL ENERGY            =       -129.99089 EV
          ELECTRONIC ENERGY       =       -173.77801 EV  POINT GROUP:     C*v 
          CORE-CORE REPULSION     =         43.78711 EV
          COSMO AREA              =         51.26 SQUARE ANGSTROMS
          COSMO VOLUME            =         34.32 CUBIC ANGSTROMS

          GRADIENT NORM           =          0.01370 = 0.00969 PER ATOM
          IONIZATION POTENTIAL    =          8.895389 EV
          ALPHA SOMO LUMO (EV)    =         -8.895 -0.055
          BETA  SOMO LUMO (EV)    =        -10.352  0.617
          NO. OF ALPHA ELECTRONS  =          3
          NO. OF BETA  ELECTRONS  =          2
          MOLECULAR WEIGHT        =         13.0189

          MOLECULAR DIMENSIONS (Angstroms)

            Atom       Atom       Distance
            H     2    C     1     1.07537
            H     2    C     1     0.00000
            C     1    H     2     0.00000


          SCF CALCULATIONS        =          7
 
          WALL-CLOCK TIME         =          0.039 SECONDS
          COMPUTATION TIME        =          0.021 SECONDS




   ATOM   CHEMICAL          X               Y               Z
  NUMBER   SYMBOL      (ANGSTROMS)     (ANGSTROMS)     (ANGSTROMS)
 
     1       C          0.00000000  *   0.00000000  *   0.14008530  *
     2       H          0.00000000  *   0.00000000  *  -0.93528630  *

                             CARTESIAN COORDINATES

   1    C        0.000000000     0.000000000     0.140085298
   2    H        0.000000000     0.000000000    -0.935286298


           Empirical Formula: C H  =     2 atoms



      MOLECULAR POINT GROUP   :   C*v 


          ALPHA EIGENVALUES  
 -19.96228 -10.87905  -8.89539  -0.05523   6.07820


           BETA EIGENVALUES 
 -19.51752 -10.35243   0.61664   1.90875   6.35391


              NET ATOMIC CHARGES AND DIPOLE CONTRIBUTIONS

  ATOM NO.   TYPE          CHARGE      No. of ELECS.   s-Pop       p-Pop       
    1          C           0.037520        3.9625     1.78016     2.18232
    2          H          -0.037520        1.0375     1.03752
 DIPOLE           X         Y         Z       TOTAL
 POINT-CHG.     0.000     0.000     0.194     0.194
 HYBRID        -0.000     0.000    -1.624     1.624
 SUM           -0.000     0.000    -1.430     1.430


          ATOMIC ORBITAL ELECTRON POPULATIONS

     Atom    s        px        py        pz   
    1  C   1.78016   1.00000   0.00000   1.18232
    2  H   1.03752


                    (SZ)    =    0.500000
                    (S**2)  =    0.751772


          ATOMIC ORBITAL SPIN POPULATIONS

    Atom   Total    s     px     py     pz   
         Atomic
    1  C  1.0399  0.001  1.000  0.000  0.039
    2  H -0.0399 -0.040
 *******************************************************************************
 ** Site#: 22750        For non-commercial use only    Version 18.151L 64BITS **
 *******************************************************************************
 ** Cite this program as: MOPAC2016, Version: 18.151L, James J. P. Stewart,   **
 ** Stewart Computational Chemistry, web-site: HTTP://OpenMOPAC.net.          **
 *******************************************************************************
 **                                                                           **
 **                                MOPAC2016                                  **
 **                                                                           **
 *******************************************************************************

                              PM6 CALCULATION RESULTS

 *******************************************************************************
 *  CALCULATION DONE:                                Thu Nov  4 11:10:49 2021  *
 *  PM6        - The PM6 Hamiltonian to be used
 *
 *
 *
 *                 CHARGE ON SYSTEM = 0
 *
 *
 *
 *  OLDGEO     - PREVIOUS GEOMETRY TO BE USED
 *  FORCE      - FORCE CALCULATION SPECIFIED
 *  T=         - A TIME OF 172800.0 SECONDS REQUESTED
 *  DUMP=N     - RESTART FILE WRITTEN EVERY  7200.000 SECONDS
 *******************************************************************************
FORCE OLDGEO CHARGE=0 PM6
 Molecula CH SemiEmp Opt

   ATOM   CHEMICAL          X               Y               Z
  NUMBER   SYMBOL      (ANGSTROMS)     (ANGSTROMS)     (ANGSTROMS)
 
     1       C          0.00000000  *   0.00000000  *   0.14008530  *
     2       H          0.00000000  *   0.00000000  *  -0.93528630  *
 


          CARTESIAN COORDINATES 

    NO.       ATOM           X           Y           Z

     1         C          0.0000      0.0000      0.1401
     2         H          0.0000      0.0000     -0.9353

 General Reference for PM6:
 "Optimization of Parameters for Semiempirical Methods V: Modification of NDDO Approximations
 and Application to 70 Elements", J. J. P. Stewart, J. Mol. Mod., 13, 1173-1213 (2007)
 URL: http://www.springerlink.com/content/ar33482301010477/fulltext.pdf

           Empirical Formula: C H  =     2 atoms



      MOLECULAR POINT GROUP   :   C*v 


          UHF CALCULATION, NO. OF ALPHA ELECTRONS =    3
                           NO. OF BETA  ELECTRONS =    2


          HEAT OF FORMATION =     141.303394 KCALS/MOLE


          CARTESIAN COORDINATE DERIVATIVES

   NUMBER  ATOM         X            Y            Z

     1       C      0.002431     0.000000     0.000000
     2       H     -0.002431     0.000000     0.000000
 


          GRADIENT NORM =   0.00344

          MOLECULAR WEIGHT =   13.02



          ROTATIONAL CONSTANTS IN CM(-1)

          A =    0.00000000   B =   15.67678892   C =   15.67678890



           PRINCIPAL MOMENTS OF INERTIA IN UNITS OF 10**(-40)*GRAM-CM**2

          A =        0.0000   B =        1.7856   C =        1.7856


          ORIENTATION OF MOLECULE IN FORCE CALCULATION

    NO.       ATOM         X         Y         Z

     1          C      -0.0833    0.0000    0.0000
     2          H       0.9921    0.0000    0.0000


    FIRST DERIVATIVES WILL BE USED IN THE CALCULATION OF SECOND DERIVATIVES

    FOR POINT-GROUP C*v  THERE ARE  84 UNIQUE SYMMETRY FUNCTIONS.

 STEP:   1 TIME =     0.00 SECS, INTEGRAL =      0.00 TIME LEFT: 172800.00
 STEP:   2 TIME =     0.00 SECS, INTEGRAL =      0.00 TIME LEFT: 172800.00


 ALL CONVERGERS ARE NOW FORCED ON
 SHIFT=10, PULAY ON, CAMP-KING ON
 AND ITERATION COUNTER RESET


 STEP:   3 TIME =     0.02 SECS, INTEGRAL =      0.02 TIME LEFT: 172799.98
 STEP:   4 TIME =     0.00 SECS, INTEGRAL =      0.03 TIME LEFT: 172799.97
 STEP:   5 TIME =     0.00 SECS, INTEGRAL =      0.03 TIME LEFT: 172799.97
 STEP:   6 TIME =     0.00 SECS, INTEGRAL =      0.03 TIME LEFT: 172799.97

(To convert to Hartree/Bohr^2, multiply by (10^(-21) x N x a0^2)/(4.184 x 627.51) =  0.0642)


           FORCE MATRIX IN MILLIDYNES/ANGSTROM


                  C  1       H  2
 ------------------------------
     C    1   3.298780
     H    2   3.545081   3.796129


          HEAT OF FORMATION =     141.303394 KCALS/MOLE

          ZERO POINT ENERGY       3.635 KCAL/MOL


           NORMAL COORDINATE ANALYSIS (Total motion = 1 Angstrom)


   Root No.       1

                 1 Sig 

                2542.9
  
           1   -0.0774
           2    0.0000
           3    0.0000
           4    0.9226
           5   -0.0000
           6   -0.0000


           MASS-WEIGHTED COORDINATE ANALYSIS (NORMAL COORDINATES)


   Root No.       1

                 1 Sig 

                2542.9
  
           1   -0.2782
           2    0.0000
           3    0.0000
           4    0.9605
           5   -0.0000
           6   -0.0000


          DESCRIPTION OF VIBRATIONS


 VIBRATION    1    1Sig      ATOM PAIR     ENERGY CONTRIBUTION    RADIAL
 FREQ.      2542.89         C 1 -- H 2        +100.0% (100.0%)    100.0%
 T-DIPOLE    0.7341
 TRAVEL      0.1363
 RED. MASS   0.9299
 EFF. MASS   1.4269

           FORCE CONSTANT IN CARTESIAN COORDINATES (Millidynes/A)

    ATOM   CHEMICAL       X               Y               Z
   NUMBER   SYMBOL  FORCE CONSTANT  FORCE CONSTANT  FORCE CONSTANT

      1       C        3.542660        0.070625        0.070625
      2       H        3.542660        0.070625        0.070625

 **********************
 *                    *
 * JOB ENDED NORMALLY *
 *                    *
 **********************



 TOTAL JOB TIME:             0.16 SECONDS

 == MOPAC DONE ==
