
     Program PWSCF v.6.3 starts on  2Dec2021 at 21:47:48 

     This program is part of the open-source Quantum ESPRESSO suite
     for quantum simulation of materials; please cite
         "P. Giannozzi et al., J. Phys.:Condens. Matter 21 395502 (2009);
         "P. Giannozzi et al., J. Phys.:Condens. Matter 29 465901 (2017);
          URL http://www.quantum-espresso.org", 
     in publications or presentations arising from this work. More details at
     http://www.quantum-espresso.org/quote

     Parallel version (MPI & OpenMP), running on       2 processor cores
     Number of MPI processes:                 2
     Threads/MPI process:                     1

     MPI processes distributed on     1 nodes
     R & G space division:  proc/nbgrp/npool/nimage =       2
     Reading input from pw-input.in

     Current dimensions of program PWSCF are:
     Max number of different atomic species (ntypx) = 10
     Max number of k-points (npk) =  40000
     Max angular momentum in pseudopotentials (lmaxx) =  3

     Subspace diagonalization in iterative solution of the eigenvalue problem:
     a serial algorithm will be used

 
     Parallelization info
     --------------------
     sticks:   dense  smooth     PW     G-vecs:    dense   smooth      PW
     Min         156     156     54                 1917     1917     373
     Max         157     157     55                 1922     1922     376
     Sum         313     313    109                 3839     3839     749
 

     Title: 
     Pd-kp-conv                                                                 


     bravais-lattice index     =            2
     lattice parameter (alat)  =       8.2000  a.u.
     unit-cell volume          =     137.8420 (a.u.)^3
     number of atoms/cell      =            1
     number of atomic types    =            1
     number of electrons       =        16.00
     number of Kohn-Sham states=           12
     kinetic-energy cutoff     =      35.0000  Ry
     charge density cutoff     =     140.0000  Ry
     convergence threshold     =      1.0E-07
     mixing beta               =       0.7000
     number of iterations used =            8  plain     mixing
     Exchange-correlation      =  SLA  PW   PBX  PBC ( 1  4  3  4 0 0)

     celldm(1)=   8.200000  celldm(2)=   0.000000  celldm(3)=   0.000000
     celldm(4)=   0.000000  celldm(5)=   0.000000  celldm(6)=   0.000000

     crystal axes: (cart. coord. in units of alat)
               a(1) = (  -0.500000   0.000000   0.500000 )  
               a(2) = (   0.000000   0.500000   0.500000 )  
               a(3) = (  -0.500000   0.500000   0.000000 )  

     reciprocal axes: (cart. coord. in units 2 pi/alat)
               b(1) = ( -1.000000 -1.000000  1.000000 )  
               b(2) = (  1.000000  1.000000  1.000000 )  
               b(3) = ( -1.000000  1.000000 -1.000000 )  


     PseudoPot. # 1 for Pd read from file:
     ./pd_pbe_v1.4.uspp.F.UPF
     MD5 check sum: 2d733d2bc2cbfd217af676df1668a4bc
     Pseudo is Ultrasoft + core correction, Zval = 16.0
     Generated by new atomic code, or converted to UPF format
     Using radial grid of  887 points,  6 beta functions with: 
                l(1) =   0
                l(2) =   0
                l(3) =   1
                l(4) =   1
                l(5) =   2
                l(6) =   2
     Q(r) pseudized with  8 coefficients,  rinner =    1.130   1.130   1.130
                                                       1.130   1.130

     atomic species   valence    mass     pseudopotential
        Pd            16.00   106.40000     Pd( 1.00)

     48 Sym. Ops., with inversion, found



   Cartesian axes

     site n.     atom                  positions (alat units)
         1           Pd  tau(   1) = (   0.0000000   0.0000000   0.0000000  )

     number of k points=   195  Marzari-Vanderbilt smearing, width (Ry)=  0.0200

     Number of k-points >= 100: set verbosity='high' to print them.

     Dense  grid:     3839 G-vectors     FFT dimensions: (  24,  24,  24)

     Estimated max dynamical RAM per process >      16.71 MB

     Estimated total dynamical RAM >      33.43 MB

     Initial potential from superposition of free atoms
     Check: negative starting charge=   -0.082129

     starting charge   15.49999, renormalised to   16.00000

     negative rho (up, down):  8.478E-02 0.000E+00
     Starting wfcs are   12 randomized atomic wfcs

     total cpu time spent up to now is        1.6 secs

     Self-consistent Calculation

     iteration #  1     ecut=    35.00 Ry     beta= 0.70
     Davidson diagonalization with overlap
     ethr =  1.00E-02,  avg # of iterations =  3.4

     negative rho (up, down):  8.198E-02 0.000E+00

     total cpu time spent up to now is        3.9 secs

     total energy              =    -197.86987069 Ry
     Harris-Foulkes estimate   =    -199.06871949 Ry
     estimated scf accuracy    <       1.62405065 Ry

     iteration #  2     ecut=    35.00 Ry     beta= 0.70
     Davidson diagonalization with overlap
     ethr =  1.00E-02,  avg # of iterations =  2.0

     negative rho (up, down):  8.426E-02 0.000E+00

     total cpu time spent up to now is        6.1 secs

     total energy              =    -198.24122466 Ry
     Harris-Foulkes estimate   =    -199.35059814 Ry
     estimated scf accuracy    <       2.39594783 Ry

     iteration #  3     ecut=    35.00 Ry     beta= 0.70
     Davidson diagonalization with overlap
     ethr =  1.00E-02,  avg # of iterations =  2.0

     negative rho (up, down):  8.429E-02 0.000E+00

     total cpu time spent up to now is        8.0 secs

     total energy              =    -198.66624064 Ry
     Harris-Foulkes estimate   =    -198.66624368 Ry
     estimated scf accuracy    <       0.00007260 Ry

     iteration #  4     ecut=    35.00 Ry     beta= 0.70
     Davidson diagonalization with overlap
     ethr =  4.54E-07,  avg # of iterations =  3.2

     negative rho (up, down):  8.439E-02 0.000E+00

     total cpu time spent up to now is       10.6 secs

     total energy              =    -198.66642475 Ry
     Harris-Foulkes estimate   =    -198.66642557 Ry
     estimated scf accuracy    <       0.00000829 Ry

     iteration #  5     ecut=    35.00 Ry     beta= 0.70
     Davidson diagonalization with overlap
     ethr =  5.18E-08,  avg # of iterations =  1.0

     negative rho (up, down):  8.439E-02 0.000E+00

     total cpu time spent up to now is       12.3 secs

     End of self-consistent calculation

     Number of k-points >= 100: set verbosity='high' to print the bands.

     the Fermi energy is    11.7285 ev

!    total energy              =    -198.66642500 Ry
     Harris-Foulkes estimate   =    -198.66642500 Ry
     estimated scf accuracy    <       0.00000007 Ry

     The total energy is the sum of the following terms:

     one-electron contribution =     -68.99309138 Ry
     hartree contribution      =      44.66925765 Ry
     xc contribution           =     -31.20588702 Ry
     ewald contribution        =    -143.13715749 Ry
     smearing contrib. (-TS)   =       0.00045324 Ry

     convergence has been achieved in   5 iterations

     Writing output data file Pd-kp-conv.save/
 
     init_run     :      1.02s CPU      1.10s WALL (       1 calls)
     electrons    :     10.01s CPU     10.75s WALL (       1 calls)

     Called by init_run:
     wfcinit      :      0.66s CPU      0.72s WALL (       1 calls)
     potinit      :      0.01s CPU      0.02s WALL (       1 calls)
     hinit0       :      0.34s CPU      0.34s WALL (       1 calls)

     Called by electrons:
     c_bands      :      8.44s CPU      9.08s WALL (       5 calls)
     sum_band     :      1.51s CPU      1.60s WALL (       5 calls)
     v_of_rho     :      0.03s CPU      0.03s WALL (       6 calls)
     newd         :      0.05s CPU      0.05s WALL (       6 calls)
     mix_rho      :      0.00s CPU      0.00s WALL (       5 calls)

     Called by c_bands:
     init_us_2    :      0.23s CPU      0.25s WALL (    2145 calls)
     cegterg      :      7.81s CPU      8.41s WALL (     975 calls)

     Called by sum_band:
     sum_band:bec :      0.01s CPU      0.01s WALL (     975 calls)
     addusdens    :      0.04s CPU      0.05s WALL (       5 calls)

     Called by *egterg:
     h_psi        :      6.76s CPU      7.28s WALL (    3430 calls)
     s_psi        :      0.10s CPU      0.11s WALL (    3430 calls)
     g_psi        :      0.07s CPU      0.08s WALL (    2260 calls)
     cdiaghg      :      0.85s CPU      0.91s WALL (    3235 calls)

     Called by h_psi:
     h_psi:pot    :      6.72s CPU      7.24s WALL (    3430 calls)
     h_psi:calbec :      0.14s CPU      0.15s WALL (    3430 calls)
     vloc_psi     :      6.46s CPU      6.96s WALL (    3430 calls)
     add_vuspsi   :      0.10s CPU      0.11s WALL (    3430 calls)

     General routines
     calbec       :      0.16s CPU      0.17s WALL (    4405 calls)
     fft          :      0.01s CPU      0.01s WALL (      67 calls)
     ffts         :      0.00s CPU      0.00s WALL (       5 calls)
     fftw         :      6.61s CPU      7.09s WALL (   76796 calls)
 
     Parallel routines
     fft_scatt_xy :      1.20s CPU      1.30s WALL (   76868 calls)
     fft_scatt_yz :      1.43s CPU      1.55s WALL (   76868 calls)
 
     PWSCF        :    11.19s CPU        13.13s WALL

 
   This run was terminated on:  21:48: 1   2Dec2021            

=------------------------------------------------------------------------------=
   JOB DONE.
=------------------------------------------------------------------------------=
