
     Program PWSCF v.6.3 starts on  2Dec2021 at 21:15:18 

     This program is part of the open-source Quantum ESPRESSO suite
     for quantum simulation of materials; please cite
         "P. Giannozzi et al., J. Phys.:Condens. Matter 21 395502 (2009);
         "P. Giannozzi et al., J. Phys.:Condens. Matter 29 465901 (2017);
          URL http://www.quantum-espresso.org", 
     in publications or presentations arising from this work. More details at
     http://www.quantum-espresso.org/quote

     Parallel version (MPI & OpenMP), running on       2 processor cores
     Number of MPI processes:                 2
     Threads/MPI process:                     1

     MPI processes distributed on     1 nodes
     R & G space division:  proc/nbgrp/npool/nimage =       2
     Reading input from pw-input.in

     Current dimensions of program PWSCF are:
     Max number of different atomic species (ntypx) = 10
     Max number of k-points (npk) =  40000
     Max angular momentum in pseudopotentials (lmaxx) =  3

     Subspace diagonalization in iterative solution of the eigenvalue problem:
     a serial algorithm will be used

 
     Parallelization info
     --------------------
     sticks:   dense  smooth     PW     G-vecs:    dense   smooth      PW
     Min          99      99     36                  957      957     205
     Max         100     100     37                  960      960     206
     Sum         199     199     73                 1917     1917     411
 

     Title: 
     Pd-kp-conv                                                                 


     bravais-lattice index     =            2
     lattice parameter (alat)  =       6.5000  a.u.
     unit-cell volume          =      68.6562 (a.u.)^3
     number of atoms/cell      =            1
     number of atomic types    =            1
     number of electrons       =        16.00
     number of Kohn-Sham states=           12
     kinetic-energy cutoff     =      35.0000  Ry
     charge density cutoff     =     140.0000  Ry
     convergence threshold     =      1.0E-07
     mixing beta               =       0.7000
     number of iterations used =            8  plain     mixing
     Exchange-correlation      =  SLA  PW   PBX  PBC ( 1  4  3  4 0 0)

     celldm(1)=   6.500000  celldm(2)=   0.000000  celldm(3)=   0.000000
     celldm(4)=   0.000000  celldm(5)=   0.000000  celldm(6)=   0.000000

     crystal axes: (cart. coord. in units of alat)
               a(1) = (  -0.500000   0.000000   0.500000 )  
               a(2) = (   0.000000   0.500000   0.500000 )  
               a(3) = (  -0.500000   0.500000   0.000000 )  

     reciprocal axes: (cart. coord. in units 2 pi/alat)
               b(1) = ( -1.000000 -1.000000  1.000000 )  
               b(2) = (  1.000000  1.000000  1.000000 )  
               b(3) = ( -1.000000  1.000000 -1.000000 )  


     PseudoPot. # 1 for Pd read from file:
     ./pd_pbe_v1.4.uspp.F.UPF
     MD5 check sum: 2d733d2bc2cbfd217af676df1668a4bc
     Pseudo is Ultrasoft + core correction, Zval = 16.0
     Generated by new atomic code, or converted to UPF format
     Using radial grid of  887 points,  6 beta functions with: 
                l(1) =   0
                l(2) =   0
                l(3) =   1
                l(4) =   1
                l(5) =   2
                l(6) =   2
     Q(r) pseudized with  8 coefficients,  rinner =    1.130   1.130   1.130
                                                       1.130   1.130

     atomic species   valence    mass     pseudopotential
        Pd            16.00   106.40000     Pd( 1.00)

     48 Sym. Ops., with inversion, found



   Cartesian axes

     site n.     atom                  positions (alat units)
         1           Pd  tau(   1) = (   0.0000000   0.0000000   0.0000000  )

     number of k points=    16  Marzari-Vanderbilt smearing, width (Ry)=  0.0150
                       cart. coord. in units 2pi/alat
        k(    1) = (   0.0000000   0.0000000   0.0000000), wk =   0.0092593
        k(    2) = (  -0.1666667   0.1666667  -0.1666667), wk =   0.0740741
        k(    3) = (  -0.3333333   0.3333333  -0.3333333), wk =   0.0740741
        k(    4) = (   0.5000000  -0.5000000   0.5000000), wk =   0.0370370
        k(    5) = (   0.0000000   0.3333333   0.0000000), wk =   0.0555556
        k(    6) = (  -0.1666667   0.5000000  -0.1666667), wk =   0.2222222
        k(    7) = (   0.6666667  -0.3333333   0.6666667), wk =   0.2222222
        k(    8) = (   0.5000000  -0.1666667   0.5000000), wk =   0.2222222
        k(    9) = (   0.3333333   0.0000000   0.3333333), wk =   0.1111111
        k(   10) = (   0.0000000   0.6666667   0.0000000), wk =   0.0555556
        k(   11) = (   0.8333333  -0.1666667   0.8333333), wk =   0.2222222
        k(   12) = (   0.6666667  -0.0000000   0.6666667), wk =   0.1111111
        k(   13) = (   0.0000000  -1.0000000   0.0000000), wk =   0.0277778
        k(   14) = (   0.6666667  -0.3333333   1.0000000), wk =   0.2222222
        k(   15) = (   0.5000000  -0.1666667   0.8333333), wk =   0.2222222
        k(   16) = (  -0.3333333  -1.0000000   0.0000000), wk =   0.1111111

     Dense  grid:     1917 G-vectors     FFT dimensions: (  18,  18,  18)

     Estimated max dynamical RAM per process >       4.72 MB

     Estimated total dynamical RAM >       9.44 MB

     Initial potential from superposition of free atoms
     Check: negative starting charge=   -0.084237

     starting charge   15.49999, renormalised to   16.00000

     negative rho (up, down):  8.695E-02 0.000E+00
     Starting wfcs are   12 randomized atomic wfcs

     total cpu time spent up to now is        0.5 secs

     Self-consistent Calculation

     iteration #  1     ecut=    35.00 Ry     beta= 0.70
     Davidson diagonalization with overlap
     ethr =  1.00E-02,  avg # of iterations =  3.7

     negative rho (up, down):  8.928E-02 0.000E+00

     total cpu time spent up to now is        0.6 secs

     total energy              =    -198.34906241 Ry
     Harris-Foulkes estimate   =    -198.73148805 Ry
     estimated scf accuracy    <       0.54773805 Ry

     iteration #  2     ecut=    35.00 Ry     beta= 0.70
     Davidson diagonalization with overlap
     ethr =  3.42E-03,  avg # of iterations =  2.0

     negative rho (up, down):  9.030E-02 0.000E+00

     total cpu time spent up to now is        0.8 secs

     total energy              =    -198.50086303 Ry
     Harris-Foulkes estimate   =    -198.60117162 Ry
     estimated scf accuracy    <       0.16749912 Ry

     iteration #  3     ecut=    35.00 Ry     beta= 0.70
     Davidson diagonalization with overlap
     ethr =  1.05E-03,  avg # of iterations =  2.0

     negative rho (up, down):  9.114E-02 0.000E+00

     total cpu time spent up to now is        0.9 secs

     total energy              =    -198.54010855 Ry
     Harris-Foulkes estimate   =    -198.54036009 Ry
     estimated scf accuracy    <       0.00071484 Ry

     iteration #  4     ecut=    35.00 Ry     beta= 0.70
     Davidson diagonalization with overlap
     ethr =  4.47E-06,  avg # of iterations =  2.2

     negative rho (up, down):  9.127E-02 0.000E+00

     total cpu time spent up to now is        1.0 secs

     total energy              =    -198.54022917 Ry
     Harris-Foulkes estimate   =    -198.54023178 Ry
     estimated scf accuracy    <       0.00000538 Ry

     iteration #  5     ecut=    35.00 Ry     beta= 0.70
     Davidson diagonalization with overlap
     ethr =  3.36E-08,  avg # of iterations =  2.1

     negative rho (up, down):  9.130E-02 0.000E+00

     total cpu time spent up to now is        1.1 secs

     End of self-consistent calculation

          k = 0.0000 0.0000 0.0000 (   259 PWs)   bands (ev):

   -20.4235 -20.4235 -20.4235  20.0182  25.1986  25.1986  25.1986  28.1130
    28.1130  48.4123  55.5978  55.5978

          k =-0.1667 0.1667-0.1667 (   250 PWs)   bands (ev):

   -20.8089 -20.4731 -20.4731  21.2645  24.8138  25.6423  25.6423  27.9545
    27.9545  50.2237  50.7894  57.6232

          k =-0.3333 0.3333-0.3333 (   238 PWs)   bands (ev):

   -21.5465 -20.5712 -20.5712  21.7820  25.4317  25.4317  27.3024  29.1784
    29.1784  45.3904  49.5938  59.3703

          k = 0.5000-0.5000 0.5000 (   242 PWs)   bands (ev):

   -21.9001 -20.6202 -20.6202  21.3768  25.0624  25.0624  30.3338  30.3338
    30.7020  41.5134  47.7006  56.4205

          k = 0.0000 0.3333 0.0000 (   246 PWs)   bands (ev):

   -20.7961 -20.5589 -20.5589  21.7005  24.0026  26.2562  26.2562  26.9612
    28.6105  51.1566  52.4327  55.4014

          k =-0.1667 0.5000-0.1667 (   237 PWs)   bands (ev):

   -21.3367 -20.6804 -20.6746  22.5626  23.9810  25.5414  26.6767  29.5054
    29.5986  48.0232  51.6546  54.4063

          k = 0.6667-0.3333 0.6667 (   241 PWs)   bands (ev):

   -21.7514 -20.8437 -20.7054  22.2241  24.2598  26.1333  26.5341  30.4173
    34.4029  41.9133  49.2592  54.1318

          k = 0.5000-0.1667 0.5000 (   244 PWs)   bands (ev):

   -21.6386 -20.8932 -20.6213  22.6361  24.5348  26.0728  26.2423  28.8459
    33.5837  44.0597  49.3259  53.0567

          k = 0.3333 0.0000 0.3333 (   236 PWs)   bands (ev):

   -21.1654 -20.7158 -20.5045  22.8675  24.0786  25.6541  26.5484  26.9095
    29.9828  48.9841  51.2978  55.9856

          k = 0.0000 0.6667 0.0000 (   238 PWs)   bands (ev):

   -21.4859 -20.8251 -20.8251  21.8994  22.0829  28.9693  28.9693  29.4663
    29.6960  50.0133  50.0133  50.2682

          k = 0.8333-0.1667 0.8333 (   237 PWs)   bands (ev):

   -21.6626 -21.0531 -20.8733  21.6260  22.3044  27.7317  28.7465  30.6185
    35.6077  44.0919  47.4804  49.0953

          k = 0.6667-0.0000 0.6667 (   236 PWs)   bands (ev):

   -21.4232 -21.4114 -20.7727  22.5091  23.9920  25.6276  27.7413  29.4319
    38.4354  42.6146  45.2214  53.0360

          k = 0.0000-1.0000 0.0000 (   230 PWs)   bands (ev):

   -21.8054 -20.9559 -20.9559  20.8155  21.2784  30.2913  30.9420  30.9420
    34.0601  45.8581  46.2768  46.2768

          k = 0.6667-0.3333 1.0000 (   237 PWs)   bands (ev):

   -21.5274 -21.0241 -20.7507  23.2051  23.2336  25.0364  28.3383  28.9409
    34.1734  46.6611  47.6533  50.7882

          k = 0.5000-0.1667 0.8333 (   238 PWs)   bands (ev):

   -21.5707 -21.2024 -20.8344  23.1180  23.5648  25.1069  27.4963  30.1509
    38.9360  41.1375  48.2287  48.4142

          k =-0.3333-1.0000 0.0000 (   244 PWs)   bands (ev):

   -21.5999 -21.1755 -20.9718  22.0116  22.6868  26.5604  28.5495  30.9450
    39.1893  44.4600  44.8387  45.7145

     the Fermi energy is    30.3511 ev

!    total energy              =    -198.54023046 Ry
     Harris-Foulkes estimate   =    -198.54023045 Ry
     estimated scf accuracy    <       0.00000002 Ry

     The total energy is the sum of the following terms:

     one-electron contribution =     -12.11483023 Ry
     hartree contribution      =      25.94901791 Ry
     xc contribution           =     -31.80118162 Ry
     ewald contribution        =    -180.57302943 Ry
     smearing contrib. (-TS)   =      -0.00020708 Ry

     convergence has been achieved in   5 iterations

     Writing output data file Pd-kp-conv.save/
 
     init_run     :      0.34s CPU      0.37s WALL (       1 calls)
     electrons    :      0.57s CPU      0.67s WALL (       1 calls)

     Called by init_run:
     wfcinit      :      0.03s CPU      0.05s WALL (       1 calls)
     potinit      :      0.00s CPU      0.01s WALL (       1 calls)
     hinit0       :      0.29s CPU      0.29s WALL (       1 calls)

     Called by electrons:
     c_bands      :      0.44s CPU      0.49s WALL (       5 calls)
     sum_band     :      0.09s CPU      0.10s WALL (       5 calls)
     v_of_rho     :      0.01s CPU      0.01s WALL (       6 calls)
     newd         :      0.02s CPU      0.03s WALL (       6 calls)
     mix_rho      :      0.00s CPU      0.00s WALL (       5 calls)

     Called by c_bands:
     init_us_2    :      0.01s CPU      0.01s WALL (     176 calls)
     cegterg      :      0.41s CPU      0.46s WALL (      80 calls)

     Called by sum_band:
     sum_band:bec :      0.00s CPU      0.00s WALL (      80 calls)
     addusdens    :      0.02s CPU      0.02s WALL (       5 calls)

     Called by *egterg:
     h_psi        :      0.32s CPU      0.36s WALL (     287 calls)
     s_psi        :      0.01s CPU      0.01s WALL (     287 calls)
     g_psi        :      0.00s CPU      0.00s WALL (     191 calls)
     cdiaghg      :      0.08s CPU      0.08s WALL (     271 calls)

     Called by h_psi:
     h_psi:pot    :      0.32s CPU      0.36s WALL (     287 calls)
     h_psi:calbec :      0.01s CPU      0.01s WALL (     287 calls)
     vloc_psi     :      0.30s CPU      0.34s WALL (     287 calls)
     add_vuspsi   :      0.01s CPU      0.01s WALL (     287 calls)

     General routines
     calbec       :      0.01s CPU      0.01s WALL (     367 calls)
     fft          :      0.01s CPU      0.01s WALL (      67 calls)
     ffts         :      0.00s CPU      0.00s WALL (       5 calls)
     fftw         :      0.31s CPU      0.35s WALL (    6100 calls)
 
     Parallel routines
     fft_scatt_xy :      0.06s CPU      0.06s WALL (    6172 calls)
     fft_scatt_yz :      0.08s CPU      0.09s WALL (    6172 calls)
 
     PWSCF        :     0.99s CPU         1.57s WALL

 
   This run was terminated on:  21:15:20   2Dec2021            

=------------------------------------------------------------------------------=
   JOB DONE.
=------------------------------------------------------------------------------=
