
     Program PWSCF v.6.3 starts on  2Dec2021 at 21:15:27 

     This program is part of the open-source Quantum ESPRESSO suite
     for quantum simulation of materials; please cite
         "P. Giannozzi et al., J. Phys.:Condens. Matter 21 395502 (2009);
         "P. Giannozzi et al., J. Phys.:Condens. Matter 29 465901 (2017);
          URL http://www.quantum-espresso.org", 
     in publications or presentations arising from this work. More details at
     http://www.quantum-espresso.org/quote

     Parallel version (MPI & OpenMP), running on       2 processor cores
     Number of MPI processes:                 2
     Threads/MPI process:                     1

     MPI processes distributed on     1 nodes
     R & G space division:  proc/nbgrp/npool/nimage =       2
     Reading input from pw-input.in

     Current dimensions of program PWSCF are:
     Max number of different atomic species (ntypx) = 10
     Max number of k-points (npk) =  40000
     Max angular momentum in pseudopotentials (lmaxx) =  3

     Subspace diagonalization in iterative solution of the eigenvalue problem:
     a serial algorithm will be used

 
     Parallelization info
     --------------------
     sticks:   dense  smooth     PW     G-vecs:    dense   smooth      PW
     Min         117     117     42                 1138     1138     264
     Max         118     118     43                 1139     1139     267
     Sum         235     235     85                 2277     2277     531
 

     Title: 
     Pd-kp-conv                                                                 


     bravais-lattice index     =            2
     lattice parameter (alat)  =       6.9000  a.u.
     unit-cell volume          =      82.1273 (a.u.)^3
     number of atoms/cell      =            1
     number of atomic types    =            1
     number of electrons       =        16.00
     number of Kohn-Sham states=           12
     kinetic-energy cutoff     =      35.0000  Ry
     charge density cutoff     =     140.0000  Ry
     convergence threshold     =      1.0E-07
     mixing beta               =       0.7000
     number of iterations used =            8  plain     mixing
     Exchange-correlation      =  SLA  PW   PBX  PBC ( 1  4  3  4 0 0)

     celldm(1)=   6.900000  celldm(2)=   0.000000  celldm(3)=   0.000000
     celldm(4)=   0.000000  celldm(5)=   0.000000  celldm(6)=   0.000000

     crystal axes: (cart. coord. in units of alat)
               a(1) = (  -0.500000   0.000000   0.500000 )  
               a(2) = (   0.000000   0.500000   0.500000 )  
               a(3) = (  -0.500000   0.500000   0.000000 )  

     reciprocal axes: (cart. coord. in units 2 pi/alat)
               b(1) = ( -1.000000 -1.000000  1.000000 )  
               b(2) = (  1.000000  1.000000  1.000000 )  
               b(3) = ( -1.000000  1.000000 -1.000000 )  


     PseudoPot. # 1 for Pd read from file:
     ./pd_pbe_v1.4.uspp.F.UPF
     MD5 check sum: 2d733d2bc2cbfd217af676df1668a4bc
     Pseudo is Ultrasoft + core correction, Zval = 16.0
     Generated by new atomic code, or converted to UPF format
     Using radial grid of  887 points,  6 beta functions with: 
                l(1) =   0
                l(2) =   0
                l(3) =   1
                l(4) =   1
                l(5) =   2
                l(6) =   2
     Q(r) pseudized with  8 coefficients,  rinner =    1.130   1.130   1.130
                                                       1.130   1.130

     atomic species   valence    mass     pseudopotential
        Pd            16.00   106.40000     Pd( 1.00)

     48 Sym. Ops., with inversion, found



   Cartesian axes

     site n.     atom                  positions (alat units)
         1           Pd  tau(   1) = (   0.0000000   0.0000000   0.0000000  )

     number of k points=    16  Marzari-Vanderbilt smearing, width (Ry)=  0.0150
                       cart. coord. in units 2pi/alat
        k(    1) = (   0.0000000   0.0000000   0.0000000), wk =   0.0092593
        k(    2) = (  -0.1666667   0.1666667  -0.1666667), wk =   0.0740741
        k(    3) = (  -0.3333333   0.3333333  -0.3333333), wk =   0.0740741
        k(    4) = (   0.5000000  -0.5000000   0.5000000), wk =   0.0370370
        k(    5) = (   0.0000000   0.3333333   0.0000000), wk =   0.0555556
        k(    6) = (  -0.1666667   0.5000000  -0.1666667), wk =   0.2222222
        k(    7) = (   0.6666667  -0.3333333   0.6666667), wk =   0.2222222
        k(    8) = (   0.5000000  -0.1666667   0.5000000), wk =   0.2222222
        k(    9) = (   0.3333333   0.0000000   0.3333333), wk =   0.1111111
        k(   10) = (   0.0000000   0.6666667   0.0000000), wk =   0.0555556
        k(   11) = (   0.8333333  -0.1666667   0.8333333), wk =   0.2222222
        k(   12) = (   0.6666667  -0.0000000   0.6666667), wk =   0.1111111
        k(   13) = (   0.0000000  -1.0000000   0.0000000), wk =   0.0277778
        k(   14) = (   0.6666667  -0.3333333   1.0000000), wk =   0.2222222
        k(   15) = (   0.5000000  -0.1666667   0.8333333), wk =   0.2222222
        k(   16) = (  -0.3333333  -1.0000000   0.0000000), wk =   0.1111111

     Dense  grid:     2277 G-vectors     FFT dimensions: (  20,  20,  20)

     Estimated max dynamical RAM per process >       5.53 MB

     Estimated total dynamical RAM >      11.05 MB

     Initial potential from superposition of free atoms
     Check: negative starting charge=   -0.082546

     starting charge   15.49999, renormalised to   16.00000

     negative rho (up, down):  8.521E-02 0.000E+00
     Starting wfcs are   12 randomized atomic wfcs

     total cpu time spent up to now is        0.5 secs

     Self-consistent Calculation

     iteration #  1     ecut=    35.00 Ry     beta= 0.70
     Davidson diagonalization with overlap
     ethr =  1.00E-02,  avg # of iterations =  3.6

     negative rho (up, down):  8.544E-02 0.000E+00

     total cpu time spent up to now is        0.7 secs

     total energy              =    -198.35256868 Ry
     Harris-Foulkes estimate   =    -198.92022895 Ry
     estimated scf accuracy    <       0.79726163 Ry

     iteration #  2     ecut=    35.00 Ry     beta= 0.70
     Davidson diagonalization with overlap
     ethr =  4.98E-03,  avg # of iterations =  2.0

     negative rho (up, down):  8.669E-02 0.000E+00

     total cpu time spent up to now is        0.8 secs

     total energy              =    -198.55660528 Ry
     Harris-Foulkes estimate   =    -198.79699224 Ry
     estimated scf accuracy    <       0.43640148 Ry

     iteration #  3     ecut=    35.00 Ry     beta= 0.70
     Davidson diagonalization with overlap
     ethr =  2.73E-03,  avg # of iterations =  2.0

     negative rho (up, down):  8.735E-02 0.000E+00

     total cpu time spent up to now is        0.9 secs

     total energy              =    -198.66053156 Ry
     Harris-Foulkes estimate   =    -198.66190514 Ry
     estimated scf accuracy    <       0.00276411 Ry

     iteration #  4     ecut=    35.00 Ry     beta= 0.70
     Davidson diagonalization with overlap
     ethr =  1.73E-05,  avg # of iterations =  2.0

     negative rho (up, down):  8.750E-02 0.000E+00

     total cpu time spent up to now is        1.0 secs

     total energy              =    -198.66117730 Ry
     Harris-Foulkes estimate   =    -198.66121092 Ry
     estimated scf accuracy    <       0.00006394 Ry

     iteration #  5     ecut=    35.00 Ry     beta= 0.70
     Davidson diagonalization with overlap
     ethr =  4.00E-07,  avg # of iterations =  2.1

     negative rho (up, down):  8.753E-02 0.000E+00

     total cpu time spent up to now is        1.2 secs

     total energy              =    -198.66118972 Ry
     Harris-Foulkes estimate   =    -198.66118974 Ry
     estimated scf accuracy    <       0.00000012 Ry

     iteration #  6     ecut=    35.00 Ry     beta= 0.70
     Davidson diagonalization with overlap
     ethr =  7.41E-10,  avg # of iterations =  2.4

     negative rho (up, down):  8.753E-02 0.000E+00

     total cpu time spent up to now is        1.3 secs

     End of self-consistent calculation

          k = 0.0000 0.0000 0.0000 (   283 PWs)   bands (ev):

   -26.0703 -26.0703 -26.0703  15.4525  20.2787  20.2787  20.2787  22.4701
    22.4701  42.3371  48.3012  48.3012

          k =-0.1667 0.1667-0.1667 (   295 PWs)   bands (ev):

   -26.2785 -26.0988 -26.0988  16.5368  19.9660  20.6190  20.6190  22.3678
    22.3678  43.2224  43.9629  49.7329

          k =-0.3333 0.3333-0.3333 (   287 PWs)   bands (ev):

   -26.6823 -26.1546 -26.1546  17.4044  20.4713  20.4713  21.7689  23.2834
    23.2834  37.4872  42.8290  50.2970

          k = 0.5000-0.5000 0.5000 (   272 PWs)   bands (ev):

   -26.8782 -26.1821 -26.1821  17.1694  20.1946  20.1946  24.1263  24.1263
    24.8079  33.2513  41.5824  48.1298

          k = 0.0000 0.3333 0.0000 (   295 PWs)   bands (ev):

   -26.2717 -26.1455 -26.1455  16.9039  19.3858  21.0786  21.0786  21.6285
    22.8450  44.2474  45.2940  47.2071

          k =-0.1667 0.5000-0.1667 (   291 PWs)   bands (ev):

   -26.5676 -26.2130 -26.2107  18.0190  19.2534  20.5200  21.4065  23.5398
    23.5815  40.1102  44.1268  45.7217

          k = 0.6667-0.3333 0.6667 (   283 PWs)   bands (ev):

   -26.7970 -26.3026 -26.2289  17.8634  19.5910  21.0093  21.2319  24.1861
    27.6554  33.8899  42.1642  45.6195

          k = 0.5000-0.1667 0.5000 (   284 PWs)   bands (ev):

   -26.7341 -26.3292 -26.1828  18.1494  19.8045  20.9717  20.9789  23.0456
    26.8034  35.9344  41.7155  45.2671

          k = 0.3333 0.0000 0.3333 (   295 PWs)   bands (ev):

   -26.4733 -26.2315 -26.1177  17.9684  19.4129  20.6321  21.3159  21.6050
    23.8735  41.6003  43.0658  48.4387

          k = 0.0000 0.6667 0.0000 (   302 PWs)   bands (ev):

   -26.6515 -26.2939 -26.2939  17.6385  17.8994  23.1244  23.1244  23.5132
    23.6506  41.9094  41.9094  42.1574

          k = 0.8333-0.1667 0.8333 (   290 PWs)   bands (ev):

   -26.7507 -26.4178 -26.3215  17.5211  18.0277  22.1567  22.9697  24.3294
    28.6202  36.4577  39.0674  41.1383

          k = 0.6667-0.0000 0.6667 (   284 PWs)   bands (ev):

   -26.6178 -26.6130 -26.2665  18.2279  19.2629  20.5327  22.2325  23.4737
    31.1570  34.6363  37.0808  44.3890

          k = 0.0000-1.0000 0.0000 (   302 PWs)   bands (ev):

   -26.8313 -26.3675 -26.3675  16.8895  17.2595  24.0861  24.5648  24.5648
    27.6232  37.1725  38.8502  38.8502

          k = 0.6667-0.3333 1.0000 (   288 PWs)   bands (ev):

   -26.6743 -26.4013 -26.2530  18.7158  18.7209  20.0726  22.6593  23.1071
    27.2732  38.7628  39.2646  42.6879

          k = 0.5000-0.1667 0.8333 (   282 PWs)   bands (ev):

   -26.6993 -26.4986 -26.2989  18.7085  18.9343  20.1356  22.0478  23.9993
    31.5884  33.2990  40.0161  40.1998

          k =-0.3333-1.0000 0.0000 (   282 PWs)   bands (ev):

   -26.7170 -26.4851 -26.3736  17.8283  18.3115  21.2621  22.8406  24.5696
    31.7956  36.6818  36.7069  37.7041

     the Fermi energy is    24.1450 ev

!    total energy              =    -198.66118976 Ry
     Harris-Foulkes estimate   =    -198.66118979 Ry
     estimated scf accuracy    <       0.00000003 Ry

     The total energy is the sum of the following terms:

     one-electron contribution =     -27.34345913 Ry
     hartree contribution      =      30.33286168 Ry
     xc contribution           =     -31.54501217 Ry
     ewald contribution        =    -170.10502774 Ry
     smearing contrib. (-TS)   =      -0.00055240 Ry

     convergence has been achieved in   6 iterations

     Writing output data file Pd-kp-conv.save/
 
     init_run     :      0.36s CPU      0.38s WALL (       1 calls)
     electrons    :      0.76s CPU      1.17s WALL (       1 calls)

     Called by init_run:
     wfcinit      :      0.04s CPU      0.05s WALL (       1 calls)
     potinit      :      0.00s CPU      0.01s WALL (       1 calls)
     hinit0       :      0.30s CPU      0.30s WALL (       1 calls)

     Called by electrons:
     c_bands      :      0.59s CPU      0.64s WALL (       6 calls)
     sum_band     :      0.12s CPU      0.13s WALL (       6 calls)
     v_of_rho     :      0.02s CPU      0.02s WALL (       7 calls)
     newd         :      0.03s CPU      0.03s WALL (       7 calls)
     mix_rho      :      0.00s CPU      0.00s WALL (       6 calls)

     Called by c_bands:
     init_us_2    :      0.01s CPU      0.02s WALL (     208 calls)
     cegterg      :      0.55s CPU      0.59s WALL (      96 calls)

     Called by sum_band:
     sum_band:bec :      0.00s CPU      0.00s WALL (      96 calls)
     addusdens    :      0.03s CPU      0.03s WALL (       6 calls)

     Called by *egterg:
     h_psi        :      0.44s CPU      0.48s WALL (     337 calls)
     s_psi        :      0.01s CPU      0.01s WALL (     337 calls)
     g_psi        :      0.00s CPU      0.00s WALL (     225 calls)
     cdiaghg      :      0.09s CPU      0.09s WALL (     321 calls)

     Called by h_psi:
     h_psi:pot    :      0.44s CPU      0.48s WALL (     337 calls)
     h_psi:calbec :      0.01s CPU      0.01s WALL (     337 calls)
     vloc_psi     :      0.42s CPU      0.45s WALL (     337 calls)
     add_vuspsi   :      0.01s CPU      0.01s WALL (     337 calls)

     General routines
     calbec       :      0.01s CPU      0.01s WALL (     433 calls)
     fft          :      0.01s CPU      0.01s WALL (      78 calls)
     ffts         :      0.00s CPU      0.00s WALL (       6 calls)
     fftw         :      0.43s CPU      0.46s WALL (    7364 calls)
 
     Parallel routines
     fft_scatt_xy :      0.08s CPU      0.08s WALL (    7448 calls)
     fft_scatt_yz :      0.11s CPU      0.12s WALL (    7448 calls)
 
     PWSCF        :     1.20s CPU         1.73s WALL

 
   This run was terminated on:  21:15:29   2Dec2021            

=------------------------------------------------------------------------------=
   JOB DONE.
=------------------------------------------------------------------------------=
