
     Program PWSCF v.6.3 starts on  2Dec2021 at 21:15:39 

     This program is part of the open-source Quantum ESPRESSO suite
     for quantum simulation of materials; please cite
         "P. Giannozzi et al., J. Phys.:Condens. Matter 21 395502 (2009);
         "P. Giannozzi et al., J. Phys.:Condens. Matter 29 465901 (2017);
          URL http://www.quantum-espresso.org", 
     in publications or presentations arising from this work. More details at
     http://www.quantum-espresso.org/quote

     Parallel version (MPI & OpenMP), running on       2 processor cores
     Number of MPI processes:                 2
     Threads/MPI process:                     1

     MPI processes distributed on     1 nodes
     R & G space division:  proc/nbgrp/npool/nimage =       2
     Reading input from pw-input.in

     Current dimensions of program PWSCF are:
     Max number of different atomic species (ntypx) = 10
     Max number of k-points (npk) =  40000
     Max angular momentum in pseudopotentials (lmaxx) =  3

     Subspace diagonalization in iterative solution of the eigenvalue problem:
     a serial algorithm will be used

 
     Parallelization info
     --------------------
     sticks:   dense  smooth     PW     G-vecs:    dense   smooth      PW
     Min         126     126     45                 1369     1369     280
     Max         127     127     46                 1372     1372     281
     Sum         253     253     91                 2741     2741     561
 

     Title: 
     Pd-kp-conv                                                                 


     bravais-lattice index     =            2
     lattice parameter (alat)  =       7.4000  a.u.
     unit-cell volume          =     101.3060 (a.u.)^3
     number of atoms/cell      =            1
     number of atomic types    =            1
     number of electrons       =        16.00
     number of Kohn-Sham states=           12
     kinetic-energy cutoff     =      35.0000  Ry
     charge density cutoff     =     140.0000  Ry
     convergence threshold     =      1.0E-07
     mixing beta               =       0.7000
     number of iterations used =            8  plain     mixing
     Exchange-correlation      =  SLA  PW   PBX  PBC ( 1  4  3  4 0 0)

     celldm(1)=   7.400000  celldm(2)=   0.000000  celldm(3)=   0.000000
     celldm(4)=   0.000000  celldm(5)=   0.000000  celldm(6)=   0.000000

     crystal axes: (cart. coord. in units of alat)
               a(1) = (  -0.500000   0.000000   0.500000 )  
               a(2) = (   0.000000   0.500000   0.500000 )  
               a(3) = (  -0.500000   0.500000   0.000000 )  

     reciprocal axes: (cart. coord. in units 2 pi/alat)
               b(1) = ( -1.000000 -1.000000  1.000000 )  
               b(2) = (  1.000000  1.000000  1.000000 )  
               b(3) = ( -1.000000  1.000000 -1.000000 )  


     PseudoPot. # 1 for Pd read from file:
     ./pd_pbe_v1.4.uspp.F.UPF
     MD5 check sum: 2d733d2bc2cbfd217af676df1668a4bc
     Pseudo is Ultrasoft + core correction, Zval = 16.0
     Generated by new atomic code, or converted to UPF format
     Using radial grid of  887 points,  6 beta functions with: 
                l(1) =   0
                l(2) =   0
                l(3) =   1
                l(4) =   1
                l(5) =   2
                l(6) =   2
     Q(r) pseudized with  8 coefficients,  rinner =    1.130   1.130   1.130
                                                       1.130   1.130

     atomic species   valence    mass     pseudopotential
        Pd            16.00   106.40000     Pd( 1.00)

     48 Sym. Ops., with inversion, found



   Cartesian axes

     site n.     atom                  positions (alat units)
         1           Pd  tau(   1) = (   0.0000000   0.0000000   0.0000000  )

     number of k points=    16  Marzari-Vanderbilt smearing, width (Ry)=  0.0150
                       cart. coord. in units 2pi/alat
        k(    1) = (   0.0000000   0.0000000   0.0000000), wk =   0.0092593
        k(    2) = (  -0.1666667   0.1666667  -0.1666667), wk =   0.0740741
        k(    3) = (  -0.3333333   0.3333333  -0.3333333), wk =   0.0740741
        k(    4) = (   0.5000000  -0.5000000   0.5000000), wk =   0.0370370
        k(    5) = (   0.0000000   0.3333333   0.0000000), wk =   0.0555556
        k(    6) = (  -0.1666667   0.5000000  -0.1666667), wk =   0.2222222
        k(    7) = (   0.6666667  -0.3333333   0.6666667), wk =   0.2222222
        k(    8) = (   0.5000000  -0.1666667   0.5000000), wk =   0.2222222
        k(    9) = (   0.3333333   0.0000000   0.3333333), wk =   0.1111111
        k(   10) = (   0.0000000   0.6666667   0.0000000), wk =   0.0555556
        k(   11) = (   0.8333333  -0.1666667   0.8333333), wk =   0.2222222
        k(   12) = (   0.6666667  -0.0000000   0.6666667), wk =   0.1111111
        k(   13) = (   0.0000000  -1.0000000   0.0000000), wk =   0.0277778
        k(   14) = (   0.6666667  -0.3333333   1.0000000), wk =   0.2222222
        k(   15) = (   0.5000000  -0.1666667   0.8333333), wk =   0.2222222
        k(   16) = (  -0.3333333  -1.0000000   0.0000000), wk =   0.1111111

     Dense  grid:     2741 G-vectors     FFT dimensions: (  20,  20,  20)

     Estimated max dynamical RAM per process >       6.47 MB

     Estimated total dynamical RAM >      12.94 MB

     Initial potential from superposition of free atoms
     Check: negative starting charge=   -0.084791

     starting charge   15.49999, renormalised to   16.00000

     negative rho (up, down):  8.753E-02 0.000E+00
     Starting wfcs are   12 randomized atomic wfcs

     total cpu time spent up to now is        0.5 secs

     Self-consistent Calculation

     iteration #  1     ecut=    35.00 Ry     beta= 0.70
     Davidson diagonalization with overlap
     ethr =  1.00E-02,  avg # of iterations =  3.6

     negative rho (up, down):  8.692E-02 0.000E+00

     total cpu time spent up to now is        0.7 secs

     total energy              =    -198.21876306 Ry
     Harris-Foulkes estimate   =    -199.03231328 Ry
     estimated scf accuracy    <       1.12333851 Ry

     iteration #  2     ecut=    35.00 Ry     beta= 0.70
     Davidson diagonalization with overlap
     ethr =  7.02E-03,  avg # of iterations =  2.0

     negative rho (up, down):  8.812E-02 0.000E+00

     total cpu time spent up to now is        0.8 secs

     total energy              =    -198.47775526 Ry
     Harris-Foulkes estimate   =    -199.00171971 Ry
     estimated scf accuracy    <       1.03901468 Ry

     iteration #  3     ecut=    35.00 Ry     beta= 0.70
     Davidson diagonalization with overlap
     ethr =  6.49E-03,  avg # of iterations =  2.0

     negative rho (up, down):  8.857E-02 0.000E+00

     total cpu time spent up to now is        1.0 secs

     total energy              =    -198.70041022 Ry
     Harris-Foulkes estimate   =    -198.70309438 Ry
     estimated scf accuracy    <       0.00535202 Ry

     iteration #  4     ecut=    35.00 Ry     beta= 0.70
     Davidson diagonalization with overlap
     ethr =  3.35E-05,  avg # of iterations =  2.2

     negative rho (up, down):  8.878E-02 0.000E+00

     total cpu time spent up to now is        1.1 secs

     total energy              =    -198.70173063 Ry
     Harris-Foulkes estimate   =    -198.70174740 Ry
     estimated scf accuracy    <       0.00004525 Ry

     iteration #  5     ecut=    35.00 Ry     beta= 0.70
     Davidson diagonalization with overlap
     ethr =  2.83E-07,  avg # of iterations =  2.0

     negative rho (up, down):  8.883E-02 0.000E+00

     total cpu time spent up to now is        1.2 secs

     total energy              =    -198.70173720 Ry
     Harris-Foulkes estimate   =    -198.70173765 Ry
     estimated scf accuracy    <       0.00000117 Ry

     iteration #  6     ecut=    35.00 Ry     beta= 0.70
     Davidson diagonalization with overlap
     ethr =  7.29E-09,  avg # of iterations =  2.0

     negative rho (up, down):  8.883E-02 0.000E+00

     total cpu time spent up to now is        1.3 secs

     End of self-consistent calculation

          k = 0.0000 0.0000 0.0000 (   339 PWs)   bands (ev):

   -31.4833 -31.4833 -31.4833  11.2482  15.4332  15.4332  15.4332  16.9927
    16.9927  36.1500  40.8158  40.8158

          k =-0.1667 0.1667-0.1667 (   344 PWs)   bands (ev):

   -31.5800 -31.4969 -31.4969  12.1650  15.2154  15.6840  15.6840  16.9344
    16.9344  35.7003  37.3403  41.5987

          k =-0.3333 0.3333-0.3333 (   359 PWs)   bands (ev):

   -31.7709 -31.5248 -31.5248  13.1658  15.5876  15.5876  16.5779  17.5806
    17.5806  29.6129  36.2895  41.2269

          k = 0.5000-0.5000 0.5000 (   344 PWs)   bands (ev):

   -31.8642 -31.5381 -31.5381  13.0627  15.3923  15.3923  18.1591  18.1591
    19.3217  25.4151  35.3792  39.7433

          k = 0.0000 0.3333 0.0000 (   351 PWs)   bands (ev):

   -31.5770 -31.5193 -31.5193  12.4726  14.8096  16.0129  16.0129  16.4228
    17.2607  37.2342  38.0840  38.8392

          k =-0.1667 0.5000-0.1667 (   351 PWs)   bands (ev):

   -31.7167 -31.5516 -31.5510  13.6168  14.6772  15.6216  16.2555  17.7812
    17.8292  32.1843  36.7687  37.1903

          k = 0.6667-0.3333 0.6667 (   355 PWs)   bands (ev):

   -31.8265 -31.5944 -31.5603  13.6068  14.9822  15.9813  16.1429  18.1988
    21.2764  26.2357  34.8476  37.1978

          k = 0.5000-0.1667 0.5000 (   357 PWs)   bands (ev):

   -31.7963 -31.6068 -31.5385  13.7949  15.1290  15.9577  15.9613  17.4186
    20.3831  28.1259  33.9449  37.7642

          k = 0.3333 0.0000 0.3333 (   349 PWs)   bands (ev):

   -31.6716 -31.5598 -31.5068  13.4057  14.8227  15.7130  16.1899  16.4111
    18.0128  34.0233  34.8367  40.4437

          k = 0.0000 0.6667 0.0000 (   355 PWs)   bands (ev):

   -31.7573 -31.5909 -31.5909  13.4615  13.7272  17.4713  17.4713  17.8280
    17.9311  34.0012  34.0012  34.0703

          k = 0.8333-0.1667 0.8333 (   352 PWs)   bands (ev):

   -31.8055 -31.6491 -31.6045  13.4430  13.8067  16.8070  17.3693  18.2978
    22.0424  29.0242  30.9220  33.3789

          k = 0.6667-0.0000 0.6667 (   353 PWs)   bands (ev):

   -31.7423 -31.7405 -31.5783  13.9695  14.6960  15.6160  16.8636  17.7138
    24.1951  27.1168  29.1862  35.9779

          k = 0.0000-1.0000 0.0000 (   342 PWs)   bands (ev):

   -31.8442 -31.6261 -31.6261  12.9816  13.2491  18.1319  18.4610  18.4610
    21.6271  28.8348  31.5857  31.5857

          k = 0.6667-0.3333 1.0000 (   351 PWs)   bands (ev):

   -31.7683 -31.6408 -31.5715  14.2939  14.3094  15.2700  17.1650  17.4597
    20.7523  31.0135  31.2294  34.6335

          k = 0.5000-0.1667 0.8333 (   366 PWs)   bands (ev):

   -31.7814 -31.6870 -31.5935  14.3486  14.4276  15.3276  16.7309  18.0756
    24.6352  25.8054  31.8677  32.3633

          k =-0.3333-1.0000 0.0000 (   360 PWs)   bands (ev):

   -31.7904 -31.6813 -31.6284  13.6884  14.0021  16.1522  17.2929  18.4602
    24.8357  28.6622  29.2315  30.0862

     the Fermi energy is    18.1701 ev

!    total energy              =    -198.70173752 Ry
     Harris-Foulkes estimate   =    -198.70173756 Ry
     estimated scf accuracy    <       0.00000004 Ry

     The total energy is the sum of the following terms:

     one-electron contribution =     -44.59117460 Ry
     hartree contribution      =      35.83913446 Ry
     xc contribution           =     -31.33811566 Ry
     ewald contribution        =    -158.61144480 Ry
     smearing contrib. (-TS)   =      -0.00013693 Ry

     convergence has been achieved in   6 iterations

     Writing output data file Pd-kp-conv.save/
 
     init_run     :      0.38s CPU      0.40s WALL (       1 calls)
     electrons    :      0.79s CPU      1.20s WALL (       1 calls)

     Called by init_run:
     wfcinit      :      0.04s CPU      0.05s WALL (       1 calls)
     potinit      :      0.01s CPU      0.01s WALL (       1 calls)
     hinit0       :      0.31s CPU      0.32s WALL (       1 calls)

     Called by electrons:
     c_bands      :      0.61s CPU      0.65s WALL (       6 calls)
     sum_band     :      0.14s CPU      0.14s WALL (       6 calls)
     v_of_rho     :      0.02s CPU      0.02s WALL (       7 calls)
     newd         :      0.04s CPU      0.04s WALL (       7 calls)
     mix_rho      :      0.00s CPU      0.00s WALL (       6 calls)

     Called by c_bands:
     init_us_2    :      0.02s CPU      0.02s WALL (     208 calls)
     cegterg      :      0.56s CPU      0.60s WALL (      96 calls)

     Called by sum_band:
     sum_band:bec :      0.00s CPU      0.00s WALL (      96 calls)
     addusdens    :      0.03s CPU      0.04s WALL (       6 calls)

     Called by *egterg:
     h_psi        :      0.45s CPU      0.48s WALL (     333 calls)
     s_psi        :      0.01s CPU      0.01s WALL (     333 calls)
     g_psi        :      0.01s CPU      0.01s WALL (     221 calls)
     cdiaghg      :      0.09s CPU      0.09s WALL (     317 calls)

     Called by h_psi:
     h_psi:pot    :      0.45s CPU      0.48s WALL (     333 calls)
     h_psi:calbec :      0.01s CPU      0.01s WALL (     333 calls)
     vloc_psi     :      0.42s CPU      0.45s WALL (     333 calls)
     add_vuspsi   :      0.01s CPU      0.01s WALL (     333 calls)

     General routines
     calbec       :      0.01s CPU      0.02s WALL (     429 calls)
     fft          :      0.01s CPU      0.01s WALL (      78 calls)
     ffts         :      0.00s CPU      0.00s WALL (       6 calls)
     fftw         :      0.44s CPU      0.46s WALL (    7214 calls)
 
     Parallel routines
     fft_scatt_xy :      0.08s CPU      0.08s WALL (    7298 calls)
     fft_scatt_yz :      0.12s CPU      0.13s WALL (    7298 calls)
 
     PWSCF        :     1.26s CPU         1.79s WALL

 
   This run was terminated on:  21:15:41   2Dec2021            

=------------------------------------------------------------------------------=
   JOB DONE.
=------------------------------------------------------------------------------=
