
     Program PWSCF v.6.3 starts on  2Dec2021 at 21:14:10 

     This program is part of the open-source Quantum ESPRESSO suite
     for quantum simulation of materials; please cite
         "P. Giannozzi et al., J. Phys.:Condens. Matter 21 395502 (2009);
         "P. Giannozzi et al., J. Phys.:Condens. Matter 29 465901 (2017);
          URL http://www.quantum-espresso.org", 
     in publications or presentations arising from this work. More details at
     http://www.quantum-espresso.org/quote

     Parallel version (MPI & OpenMP), running on       2 processor cores
     Number of MPI processes:                 2
     Threads/MPI process:                     1

     MPI processes distributed on     1 nodes
     R & G space division:  proc/nbgrp/npool/nimage =       2
     Reading input from pw-input.in

     Current dimensions of program PWSCF are:
     Max number of different atomic species (ntypx) = 10
     Max number of k-points (npk) =  40000
     Max angular momentum in pseudopotentials (lmaxx) =  3

     Subspace diagonalization in iterative solution of the eigenvalue problem:
     a serial algorithm will be used

 
     Parallelization info
     --------------------
     sticks:   dense  smooth     PW     G-vecs:    dense   smooth      PW
     Min         132     132     42                 1445     1445     267
     Max         133     133     43                 1446     1446     270
     Sum         265     265     85                 2891     2891     537
 

     Title: 
     Pd-kp-conv                                                                 


     bravais-lattice index     =            2
     lattice parameter (alat)  =       7.5000  a.u.
     unit-cell volume          =     105.4688 (a.u.)^3
     number of atoms/cell      =            1
     number of atomic types    =            1
     number of electrons       =        16.00
     number of Kohn-Sham states=           12
     kinetic-energy cutoff     =      35.0000  Ry
     charge density cutoff     =     140.0000  Ry
     convergence threshold     =      1.0E-07
     mixing beta               =       0.7000
     number of iterations used =            8  plain     mixing
     Exchange-correlation      =  SLA  PW   PBX  PBC ( 1  4  3  4 0 0)

     celldm(1)=   7.500000  celldm(2)=   0.000000  celldm(3)=   0.000000
     celldm(4)=   0.000000  celldm(5)=   0.000000  celldm(6)=   0.000000

     crystal axes: (cart. coord. in units of alat)
               a(1) = (  -0.500000   0.000000   0.500000 )  
               a(2) = (   0.000000   0.500000   0.500000 )  
               a(3) = (  -0.500000   0.500000   0.000000 )  

     reciprocal axes: (cart. coord. in units 2 pi/alat)
               b(1) = ( -1.000000 -1.000000  1.000000 )  
               b(2) = (  1.000000  1.000000  1.000000 )  
               b(3) = ( -1.000000  1.000000 -1.000000 )  


     PseudoPot. # 1 for Pd read from file:
     ./pd_pbe_v1.4.uspp.F.UPF
     MD5 check sum: 2d733d2bc2cbfd217af676df1668a4bc
     Pseudo is Ultrasoft + core correction, Zval = 16.0
     Generated by new atomic code, or converted to UPF format
     Using radial grid of  887 points,  6 beta functions with: 
                l(1) =   0
                l(2) =   0
                l(3) =   1
                l(4) =   1
                l(5) =   2
                l(6) =   2
     Q(r) pseudized with  8 coefficients,  rinner =    1.130   1.130   1.130
                                                       1.130   1.130

     atomic species   valence    mass     pseudopotential
        Pd            16.00   106.40000     Pd( 1.00)

     48 Sym. Ops., with inversion, found



   Cartesian axes

     site n.     atom                  positions (alat units)
         1           Pd  tau(   1) = (   0.0000000   0.0000000   0.0000000  )

     number of k points=     4  Marzari-Vanderbilt smearing, width (Ry)=  0.0150
                       cart. coord. in units 2pi/alat
        k(    1) = (   0.0000000   0.0000000   0.0000000), wk =   0.0740741
        k(    2) = (  -0.3333333   0.3333333  -0.3333333), wk =   0.5925926
        k(    3) = (   0.0000000   0.6666667   0.0000000), wk =   0.4444444
        k(    4) = (   0.6666667  -0.0000000   0.6666667), wk =   0.8888889

     Dense  grid:     2891 G-vectors     FFT dimensions: (  20,  20,  20)

     Estimated max dynamical RAM per process >       6.36 MB

     Estimated total dynamical RAM >      12.71 MB

     Initial potential from superposition of free atoms
     Check: negative starting charge=   -0.084664

     starting charge   15.49999, renormalised to   16.00000

     negative rho (up, down):  8.740E-02 0.000E+00
     Starting wfcs are   12 randomized atomic wfcs

     total cpu time spent up to now is        0.5 secs

     Self-consistent Calculation

     iteration #  1     ecut=    35.00 Ry     beta= 0.70
     Davidson diagonalization with overlap
     ethr =  1.00E-02,  avg # of iterations =  4.0

     negative rho (up, down):  8.695E-02 0.000E+00

     total cpu time spent up to now is        0.5 secs

     total energy              =    -198.12482580 Ry
     Harris-Foulkes estimate   =    -199.00840885 Ry
     estimated scf accuracy    <       1.21920087 Ry

     iteration #  2     ecut=    35.00 Ry     beta= 0.70
     Davidson diagonalization with overlap
     ethr =  7.62E-03,  avg # of iterations =  2.0

     negative rho (up, down):  8.802E-02 0.000E+00

     total cpu time spent up to now is        0.6 secs

     total energy              =    -198.36108602 Ry
     Harris-Foulkes estimate   =    -199.03718549 Ry
     estimated scf accuracy    <       1.40330120 Ry

     iteration #  3     ecut=    35.00 Ry     beta= 0.70
     Davidson diagonalization with overlap
     ethr =  7.62E-03,  avg # of iterations =  2.0

     negative rho (up, down):  8.853E-02 0.000E+00

     total cpu time spent up to now is        0.7 secs

     total energy              =    -198.63773402 Ry
     Harris-Foulkes estimate   =    -198.64436307 Ry
     estimated scf accuracy    <       0.01279944 Ry

     iteration #  4     ecut=    35.00 Ry     beta= 0.70
     Davidson diagonalization with overlap
     ethr =  8.00E-05,  avg # of iterations =  2.0

     negative rho (up, down):  8.851E-02 0.000E+00

     total cpu time spent up to now is        0.7 secs

     total energy              =    -198.64179249 Ry
     Harris-Foulkes estimate   =    -198.64377335 Ry
     estimated scf accuracy    <       0.00427989 Ry

     iteration #  5     ecut=    35.00 Ry     beta= 0.70
     Davidson diagonalization with overlap
     ethr =  2.67E-05,  avg # of iterations =  2.0

     negative rho (up, down):  8.853E-02 0.000E+00

     total cpu time spent up to now is        0.8 secs

     total energy              =    -198.64260635 Ry
     Harris-Foulkes estimate   =    -198.64261438 Ry
     estimated scf accuracy    <       0.00004560 Ry

     iteration #  6     ecut=    35.00 Ry     beta= 0.70
     Davidson diagonalization with overlap
     ethr =  2.85E-07,  avg # of iterations =  2.0

     negative rho (up, down):  8.855E-02 0.000E+00

     total cpu time spent up to now is        0.8 secs

     total energy              =    -198.64260499 Ry
     Harris-Foulkes estimate   =    -198.64261040 Ry
     estimated scf accuracy    <       0.00000922 Ry

     iteration #  7     ecut=    35.00 Ry     beta= 0.70
     Davidson diagonalization with overlap
     ethr =  5.77E-08,  avg # of iterations =  2.0

     negative rho (up, down):  8.855E-02 0.000E+00

     total cpu time spent up to now is        0.8 secs

     total energy              =    -198.64260714 Ry
     Harris-Foulkes estimate   =    -198.64260968 Ry
     estimated scf accuracy    <       0.00000563 Ry

     iteration #  8     ecut=    35.00 Ry     beta= 0.70
     Davidson diagonalization with overlap
     ethr =  3.52E-08,  avg # of iterations =  2.0

     negative rho (up, down):  8.855E-02 0.000E+00

     total cpu time spent up to now is        0.9 secs

     total energy              =    -198.64260838 Ry
     Harris-Foulkes estimate   =    -198.64260848 Ry
     estimated scf accuracy    <       0.00000027 Ry

     iteration #  9     ecut=    35.00 Ry     beta= 0.70
     Davidson diagonalization with overlap
     ethr =  1.72E-09,  avg # of iterations =  1.2

     negative rho (up, down):  8.855E-02 0.000E+00

     total cpu time spent up to now is        0.9 secs

     End of self-consistent calculation

          k = 0.0000 0.0000 0.0000 (   339 PWs)   bands (ev):

   -32.2483 -32.2483 -32.2483  10.5597  14.7111  14.7111  14.7111  16.1442
    16.1442  35.0848  39.4728  39.4728

          k =-0.3333 0.3333-0.3333 (   359 PWs)   bands (ev):

   -32.4979 -32.2847 -32.2847  12.5038  14.8402  14.8402  15.7490  16.7161
    16.7161  28.3157  35.1470  39.6893

          k = 0.0000 0.6667 0.0000 (   355 PWs)   bands (ev):

   -32.4861 -32.3420 -32.3420  12.7819  13.0993  16.6334  16.6334  16.9283
    17.0342  32.6717  32.6717  32.6902

          k = 0.6667-0.0000 0.6667 (   375 PWs)   bands (ev):

   -32.4739 -32.4725 -32.3316  13.3070  13.9776  14.8736  16.0222  16.8602
    23.0676  25.9184  27.8703  34.5675

     the Fermi energy is    16.8930 ev

!    total energy              =    -198.64260841 Ry
     Harris-Foulkes estimate   =    -198.64260842 Ry
     estimated scf accuracy    <          3.3E-09 Ry

     The total energy is the sum of the following terms:

     one-electron contribution =     -47.87299131 Ry
     hartree contribution      =      37.05994636 Ry
     xc contribution           =     -31.33246549 Ry
     ewald contribution        =    -156.49662553 Ry
     smearing contrib. (-TS)   =      -0.00047244 Ry

     convergence has been achieved in   9 iterations

     Writing output data file Pd-kp-conv.save/
 
     init_run     :      0.34s CPU      0.36s WALL (       1 calls)
     electrons    :      0.42s CPU      0.50s WALL (       1 calls)

     Called by init_run:
     wfcinit      :      0.01s CPU      0.01s WALL (       1 calls)
     potinit      :      0.00s CPU      0.02s WALL (       1 calls)
     hinit0       :      0.31s CPU      0.32s WALL (       1 calls)

     Called by electrons:
     c_bands      :      0.23s CPU      0.25s WALL (       9 calls)
     sum_band     :      0.10s CPU      0.11s WALL (       9 calls)
     v_of_rho     :      0.03s CPU      0.03s WALL (      10 calls)
     newd         :      0.06s CPU      0.06s WALL (      10 calls)
     mix_rho      :      0.00s CPU      0.00s WALL (       9 calls)

     Called by c_bands:
     init_us_2    :      0.01s CPU      0.01s WALL (      76 calls)
     cegterg      :      0.21s CPU      0.23s WALL (      36 calls)

     Called by sum_band:
     sum_band:bec :      0.00s CPU      0.00s WALL (      36 calls)
     addusdens    :      0.06s CPU      0.06s WALL (       9 calls)

     Called by *egterg:
     h_psi        :      0.17s CPU      0.18s WALL (     117 calls)
     s_psi        :      0.00s CPU      0.00s WALL (     117 calls)
     g_psi        :      0.00s CPU      0.00s WALL (      77 calls)
     cdiaghg      :      0.03s CPU      0.03s WALL (     113 calls)

     Called by h_psi:
     h_psi:pot    :      0.16s CPU      0.18s WALL (     117 calls)
     h_psi:calbec :      0.00s CPU      0.01s WALL (     117 calls)
     vloc_psi     :      0.15s CPU      0.17s WALL (     117 calls)
     add_vuspsi   :      0.00s CPU      0.00s WALL (     117 calls)

     General routines
     calbec       :      0.01s CPU      0.01s WALL (     153 calls)
     fft          :      0.01s CPU      0.01s WALL (     111 calls)
     ffts         :      0.00s CPU      0.00s WALL (       9 calls)
     fftw         :      0.16s CPU      0.18s WALL (    2570 calls)
 
     Parallel routines
     fft_scatt_xy :      0.03s CPU      0.03s WALL (    2690 calls)
     fft_scatt_yz :      0.05s CPU      0.05s WALL (    2690 calls)
 
     PWSCF        :     0.85s CPU         1.33s WALL

 
   This run was terminated on:  21:14:12   2Dec2021            

=------------------------------------------------------------------------------=
   JOB DONE.
=------------------------------------------------------------------------------=
