
     Program PWSCF v.6.3 starts on  2Dec2021 at 21:14:14 

     This program is part of the open-source Quantum ESPRESSO suite
     for quantum simulation of materials; please cite
         "P. Giannozzi et al., J. Phys.:Condens. Matter 21 395502 (2009);
         "P. Giannozzi et al., J. Phys.:Condens. Matter 29 465901 (2017);
          URL http://www.quantum-espresso.org", 
     in publications or presentations arising from this work. More details at
     http://www.quantum-espresso.org/quote

     Parallel version (MPI & OpenMP), running on       2 processor cores
     Number of MPI processes:                 2
     Threads/MPI process:                     1

     MPI processes distributed on     1 nodes
     R & G space division:  proc/nbgrp/npool/nimage =       2
     Reading input from pw-input.in

     Current dimensions of program PWSCF are:
     Max number of different atomic species (ntypx) = 10
     Max number of k-points (npk) =  40000
     Max angular momentum in pseudopotentials (lmaxx) =  3

     Subspace diagonalization in iterative solution of the eigenvalue problem:
     a serial algorithm will be used

 
     Parallelization info
     --------------------
     sticks:   dense  smooth     PW     G-vecs:    dense   smooth      PW
     Min         141     141     45                 1570     1570     280
     Max         142     142     46                 1573     1573     281
     Sum         283     283     91                 3143     3143     561
 

     Title: 
     Pd-kp-conv                                                                 


     bravais-lattice index     =            2
     lattice parameter (alat)  =       7.7000  a.u.
     unit-cell volume          =     114.1333 (a.u.)^3
     number of atoms/cell      =            1
     number of atomic types    =            1
     number of electrons       =        16.00
     number of Kohn-Sham states=           12
     kinetic-energy cutoff     =      35.0000  Ry
     charge density cutoff     =     140.0000  Ry
     convergence threshold     =      1.0E-07
     mixing beta               =       0.7000
     number of iterations used =            8  plain     mixing
     Exchange-correlation      =  SLA  PW   PBX  PBC ( 1  4  3  4 0 0)

     celldm(1)=   7.700000  celldm(2)=   0.000000  celldm(3)=   0.000000
     celldm(4)=   0.000000  celldm(5)=   0.000000  celldm(6)=   0.000000

     crystal axes: (cart. coord. in units of alat)
               a(1) = (  -0.500000   0.000000   0.500000 )  
               a(2) = (   0.000000   0.500000   0.500000 )  
               a(3) = (  -0.500000   0.500000   0.000000 )  

     reciprocal axes: (cart. coord. in units 2 pi/alat)
               b(1) = ( -1.000000 -1.000000  1.000000 )  
               b(2) = (  1.000000  1.000000  1.000000 )  
               b(3) = ( -1.000000  1.000000 -1.000000 )  


     PseudoPot. # 1 for Pd read from file:
     ./pd_pbe_v1.4.uspp.F.UPF
     MD5 check sum: 2d733d2bc2cbfd217af676df1668a4bc
     Pseudo is Ultrasoft + core correction, Zval = 16.0
     Generated by new atomic code, or converted to UPF format
     Using radial grid of  887 points,  6 beta functions with: 
                l(1) =   0
                l(2) =   0
                l(3) =   1
                l(4) =   1
                l(5) =   2
                l(6) =   2
     Q(r) pseudized with  8 coefficients,  rinner =    1.130   1.130   1.130
                                                       1.130   1.130

     atomic species   valence    mass     pseudopotential
        Pd            16.00   106.40000     Pd( 1.00)

     48 Sym. Ops., with inversion, found



   Cartesian axes

     site n.     atom                  positions (alat units)
         1           Pd  tau(   1) = (   0.0000000   0.0000000   0.0000000  )

     number of k points=     4  Marzari-Vanderbilt smearing, width (Ry)=  0.0150
                       cart. coord. in units 2pi/alat
        k(    1) = (   0.0000000   0.0000000   0.0000000), wk =   0.0740741
        k(    2) = (  -0.3333333   0.3333333  -0.3333333), wk =   0.5925926
        k(    3) = (   0.0000000   0.6666667   0.0000000), wk =   0.4444444
        k(    4) = (   0.6666667  -0.0000000   0.6666667), wk =   0.8888889

     Dense  grid:     3143 G-vectors     FFT dimensions: (  24,  24,  24)

     Estimated max dynamical RAM per process >       7.02 MB

     Estimated total dynamical RAM >      14.04 MB

     Initial potential from superposition of free atoms
     Check: negative starting charge=   -0.079204

     starting charge   15.49999, renormalised to   16.00000

     negative rho (up, down):  8.176E-02 0.000E+00
     Starting wfcs are   12 randomized atomic wfcs

     total cpu time spent up to now is        0.5 secs

     Self-consistent Calculation

     iteration #  1     ecut=    35.00 Ry     beta= 0.70
     Davidson diagonalization with overlap
     ethr =  1.00E-02,  avg # of iterations =  3.8

     negative rho (up, down):  8.075E-02 0.000E+00

     total cpu time spent up to now is        0.6 secs

     total energy              =    -198.05354214 Ry
     Harris-Foulkes estimate   =    -199.03044312 Ry
     estimated scf accuracy    <       1.34024044 Ry

     iteration #  2     ecut=    35.00 Ry     beta= 0.70
     Davidson diagonalization with overlap
     ethr =  8.38E-03,  avg # of iterations =  2.0

     negative rho (up, down):  8.201E-02 0.000E+00

     total cpu time spent up to now is        0.6 secs

     total energy              =    -198.33532246 Ry
     Harris-Foulkes estimate   =    -199.12855104 Ry
     estimated scf accuracy    <       1.66568171 Ry

     iteration #  3     ecut=    35.00 Ry     beta= 0.70
     Davidson diagonalization with overlap
     ethr =  8.38E-03,  avg # of iterations =  2.0

     negative rho (up, down):  8.229E-02 0.000E+00

     total cpu time spent up to now is        0.7 secs

     total energy              =    -198.64226403 Ry
     Harris-Foulkes estimate   =    -198.64431184 Ry
     estimated scf accuracy    <       0.00460188 Ry

     iteration #  4     ecut=    35.00 Ry     beta= 0.70
     Davidson diagonalization with overlap
     ethr =  2.88E-05,  avg # of iterations =  2.5

     negative rho (up, down):  8.244E-02 0.000E+00

     total cpu time spent up to now is        0.8 secs

     total energy              =    -198.64384221 Ry
     Harris-Foulkes estimate   =    -198.64392252 Ry
     estimated scf accuracy    <       0.00020346 Ry

     iteration #  5     ecut=    35.00 Ry     beta= 0.70
     Davidson diagonalization with overlap
     ethr =  1.27E-06,  avg # of iterations =  2.0

     negative rho (up, down):  8.248E-02 0.000E+00

     total cpu time spent up to now is        0.8 secs

     total energy              =    -198.64388171 Ry
     Harris-Foulkes estimate   =    -198.64388186 Ry
     estimated scf accuracy    <       0.00000314 Ry

     iteration #  6     ecut=    35.00 Ry     beta= 0.70
     Davidson diagonalization with overlap
     ethr =  1.96E-08,  avg # of iterations =  2.2

     negative rho (up, down):  8.248E-02 0.000E+00

     total cpu time spent up to now is        0.9 secs

     End of self-consistent calculation

          k = 0.0000 0.0000 0.0000 (   411 PWs)   bands (ev):

   -33.8926 -33.8926 -33.8926   9.3029  13.1971  13.1971  13.1971  14.4510
    14.4510  33.0529  36.9833  36.9833

          k =-0.3333 0.3333-0.3333 (   401 PWs)   bands (ev):

   -34.0777 -33.9196 -33.9196  11.1916  13.3150  13.3150  14.1686  14.9606
    14.9606  25.8596  33.0354  36.7779

          k = 0.0000 0.6667 0.0000 (   399 PWs)   bands (ev):

   -34.0692 -33.9622 -33.9622  11.4761  11.7802  14.8916  14.8916  15.1415
    15.3372  30.0997  30.1820  30.1820

          k = 0.6667-0.0000 0.6667 (   403 PWs)   bands (ev):

   -34.0601 -34.0592 -33.9549  11.9627  12.5620  13.3523  14.3581  15.0879
    20.9304  23.6343  25.4129  31.9263

     the Fermi energy is    15.1289 ev

!    total energy              =    -198.64388224 Ry
     Harris-Foulkes estimate   =    -198.64388225 Ry
     estimated scf accuracy    <          8.2E-09 Ry

     The total energy is the sum of the following terms:

     one-electron contribution =     -54.18779264 Ry
     hartree contribution      =      39.26116792 Ry
     xc contribution           =     -31.28482808 Ry
     ewald contribution        =    -152.43177811 Ry
     smearing contrib. (-TS)   =      -0.00065133 Ry

     convergence has been achieved in   6 iterations

     Writing output data file Pd-kp-conv.save/
 
     init_run     :      0.35s CPU      0.38s WALL (       1 calls)
     electrons    :      0.37s CPU      0.42s WALL (       1 calls)

     Called by init_run:
     wfcinit      :      0.02s CPU      0.02s WALL (       1 calls)
     potinit      :      0.01s CPU      0.02s WALL (       1 calls)
     hinit0       :      0.32s CPU      0.32s WALL (       1 calls)

     Called by electrons:
     c_bands      :      0.22s CPU      0.23s WALL (       6 calls)
     sum_band     :      0.08s CPU      0.09s WALL (       6 calls)
     v_of_rho     :      0.03s CPU      0.03s WALL (       7 calls)
     newd         :      0.04s CPU      0.05s WALL (       7 calls)
     mix_rho      :      0.00s CPU      0.00s WALL (       6 calls)

     Called by c_bands:
     init_us_2    :      0.01s CPU      0.01s WALL (      52 calls)
     cegterg      :      0.20s CPU      0.22s WALL (      24 calls)

     Called by sum_band:
     sum_band:bec :      0.00s CPU      0.00s WALL (      24 calls)
     addusdens    :      0.04s CPU      0.04s WALL (       6 calls)

     Called by *egterg:
     h_psi        :      0.18s CPU      0.19s WALL (      86 calls)
     s_psi        :      0.00s CPU      0.00s WALL (      86 calls)
     g_psi        :      0.00s CPU      0.00s WALL (      58 calls)
     cdiaghg      :      0.02s CPU      0.03s WALL (      82 calls)

     Called by h_psi:
     h_psi:pot    :      0.17s CPU      0.19s WALL (      86 calls)
     h_psi:calbec :      0.00s CPU      0.00s WALL (      86 calls)
     vloc_psi     :      0.17s CPU      0.18s WALL (      86 calls)
     add_vuspsi   :      0.00s CPU      0.00s WALL (      86 calls)

     General routines
     calbec       :      0.00s CPU      0.00s WALL (     110 calls)
     fft          :      0.01s CPU      0.01s WALL (      78 calls)
     ffts         :      0.00s CPU      0.00s WALL (       6 calls)
     fftw         :      0.17s CPU      0.18s WALL (    1808 calls)
 
     Parallel routines
     fft_scatt_xy :      0.03s CPU      0.04s WALL (    1892 calls)
     fft_scatt_yz :      0.04s CPU      0.04s WALL (    1892 calls)
 
     PWSCF        :     0.81s CPU         0.99s WALL

 
   This run was terminated on:  21:14:15   2Dec2021            

=------------------------------------------------------------------------------=
   JOB DONE.
=------------------------------------------------------------------------------=
