
     Program PWSCF v.6.3 starts on  2Dec2021 at 23:17: 2 

     This program is part of the open-source Quantum ESPRESSO suite
     for quantum simulation of materials; please cite
         "P. Giannozzi et al., J. Phys.:Condens. Matter 21 395502 (2009);
         "P. Giannozzi et al., J. Phys.:Condens. Matter 29 465901 (2017);
          URL http://www.quantum-espresso.org", 
     in publications or presentations arising from this work. More details at
     http://www.quantum-espresso.org/quote

     Parallel version (MPI & OpenMP), running on       2 processor cores
     Number of MPI processes:                 2
     Threads/MPI process:                     1

     MPI processes distributed on     1 nodes
     R & G space division:  proc/nbgrp/npool/nimage =       2
     Reading input from pw-input.in

     Current dimensions of program PWSCF are:
     Max number of different atomic species (ntypx) = 10
     Max number of k-points (npk) =  40000
     Max angular momentum in pseudopotentials (lmaxx) =  3

     Subspace diagonalization in iterative solution of the eigenvalue problem:
     a serial algorithm will be used

 
     Parallelization info
     --------------------
     sticks:   dense  smooth     PW     G-vecs:    dense   smooth      PW
     Min         141     141     48                 1570     1570     322
     Max         142     142     49                 1573     1573     323
     Sum         283     283     97                 3143     3143     645
 

     Title: 
     Pd-kp-conv                                                                 


     bravais-lattice index     =            2
     lattice parameter (alat)  =       7.7000  a.u.
     unit-cell volume          =     114.1333 (a.u.)^3
     number of atoms/cell      =            1
     number of atomic types    =            1
     number of electrons       =        16.00
     number of Kohn-Sham states=           12
     kinetic-energy cutoff     =      35.0000  Ry
     charge density cutoff     =     140.0000  Ry
     convergence threshold     =      1.0E-07
     mixing beta               =       0.7000
     number of iterations used =            8  plain     mixing
     Exchange-correlation      =  SLA  PW   PBX  PBC ( 1  4  3  4 0 0)

     celldm(1)=   7.700000  celldm(2)=   0.000000  celldm(3)=   0.000000
     celldm(4)=   0.000000  celldm(5)=   0.000000  celldm(6)=   0.000000

     crystal axes: (cart. coord. in units of alat)
               a(1) = (  -0.500000   0.000000   0.500000 )  
               a(2) = (   0.000000   0.500000   0.500000 )  
               a(3) = (  -0.500000   0.500000   0.000000 )  

     reciprocal axes: (cart. coord. in units 2 pi/alat)
               b(1) = ( -1.000000 -1.000000  1.000000 )  
               b(2) = (  1.000000  1.000000  1.000000 )  
               b(3) = ( -1.000000  1.000000 -1.000000 )  


     PseudoPot. # 1 for Pd read from file:
     ./pd_pbe_v1.4.uspp.F.UPF
     MD5 check sum: 2d733d2bc2cbfd217af676df1668a4bc
     Pseudo is Ultrasoft + core correction, Zval = 16.0
     Generated by new atomic code, or converted to UPF format
     Using radial grid of  887 points,  6 beta functions with: 
                l(1) =   0
                l(2) =   0
                l(3) =   1
                l(4) =   1
                l(5) =   2
                l(6) =   2
     Q(r) pseudized with  8 coefficients,  rinner =    1.130   1.130   1.130
                                                       1.130   1.130

     atomic species   valence    mass     pseudopotential
        Pd            16.00   106.40000     Pd( 1.00)

     48 Sym. Ops., with inversion, found



   Cartesian axes

     site n.     atom                  positions (alat units)
         1           Pd  tau(   1) = (   0.0000000   0.0000000   0.0000000  )

     number of k points=   120  Marzari-Vanderbilt smearing, width (Ry)=  0.0400

     Number of k-points >= 100: set verbosity='high' to print them.

     Dense  grid:     3143 G-vectors     FFT dimensions: (  24,  24,  24)

     Estimated max dynamical RAM per process >      11.25 MB

     Estimated total dynamical RAM >      22.49 MB

     Initial potential from superposition of free atoms
     Check: negative starting charge=   -0.079204

     starting charge   15.49999, renormalised to   16.00000

     negative rho (up, down):  8.176E-02 0.000E+00
     Starting wfcs are   12 randomized atomic wfcs

     total cpu time spent up to now is        0.9 secs

     Self-consistent Calculation

     iteration #  1     ecut=    35.00 Ry     beta= 0.70
     Davidson diagonalization with overlap
     ethr =  1.00E-02,  avg # of iterations =  3.5

     negative rho (up, down):  8.048E-02 0.000E+00

     total cpu time spent up to now is        2.3 secs

     total energy              =    -198.09309568 Ry
     Harris-Foulkes estimate   =    -199.05607430 Ry
     estimated scf accuracy    <       1.31951865 Ry

     iteration #  2     ecut=    35.00 Ry     beta= 0.70
     Davidson diagonalization with overlap
     ethr =  8.25E-03,  avg # of iterations =  2.0

     negative rho (up, down):  8.178E-02 0.000E+00

     total cpu time spent up to now is        3.6 secs

     total energy              =    -198.40172973 Ry
     Harris-Foulkes estimate   =    -199.12080387 Ry
     estimated scf accuracy    <       1.47331860 Ry

     iteration #  3     ecut=    35.00 Ry     beta= 0.70
     Davidson diagonalization with overlap
     ethr =  8.25E-03,  avg # of iterations =  2.0

     negative rho (up, down):  8.191E-02 0.000E+00

     total cpu time spent up to now is        4.8 secs

     total energy              =    -198.69523798 Ry
     Harris-Foulkes estimate   =    -198.69586426 Ry
     estimated scf accuracy    <       0.00138652 Ry

     iteration #  4     ecut=    35.00 Ry     beta= 0.70
     Davidson diagonalization with overlap
     ethr =  8.67E-06,  avg # of iterations =  2.6

     negative rho (up, down):  8.205E-02 0.000E+00

     total cpu time spent up to now is        6.1 secs

     total energy              =    -198.69577887 Ry
     Harris-Foulkes estimate   =    -198.69577759 Ry
     estimated scf accuracy    <       0.00000383 Ry

     iteration #  5     ecut=    35.00 Ry     beta= 0.70
     Davidson diagonalization with overlap
     ethr =  2.39E-08,  avg # of iterations =  2.0

     negative rho (up, down):  8.209E-02 0.000E+00

     total cpu time spent up to now is        7.3 secs

     total energy              =    -198.69577976 Ry
     Harris-Foulkes estimate   =    -198.69577953 Ry
     estimated scf accuracy    <       0.00000015 Ry

     iteration #  6     ecut=    35.00 Ry     beta= 0.70
     Davidson diagonalization with overlap
     ethr =  9.59E-10,  avg # of iterations =  2.0

     negative rho (up, down):  8.209E-02 0.000E+00

     total cpu time spent up to now is        8.5 secs

     End of self-consistent calculation

     Number of k-points >= 100: set verbosity='high' to print the bands.

     the Fermi energy is    15.5379 ev

!    total energy              =    -198.69577977 Ry
     Harris-Foulkes estimate   =    -198.69577977 Ry
     estimated scf accuracy    <          9.7E-10 Ry

     The total energy is the sum of the following terms:

     one-electron contribution =     -54.23482349 Ry
     hartree contribution      =      39.24854789 Ry
     xc contribution           =     -31.28022486 Ry
     ewald contribution        =    -152.43177811 Ry
     smearing contrib. (-TS)   =       0.00249881 Ry

     convergence has been achieved in   6 iterations

     Writing output data file Pd-kp-conv.save/
 
     init_run     :      0.74s CPU      0.79s WALL (       1 calls)
     electrons    :      7.00s CPU      7.65s WALL (       1 calls)

     Called by init_run:
     wfcinit      :      0.40s CPU      0.42s WALL (       1 calls)
     potinit      :      0.01s CPU      0.02s WALL (       1 calls)
     hinit0       :      0.32s CPU      0.33s WALL (       1 calls)

     Called by electrons:
     c_bands      :      5.84s CPU      6.39s WALL (       6 calls)
     sum_band     :      1.09s CPU      1.16s WALL (       6 calls)
     v_of_rho     :      0.03s CPU      0.03s WALL (       7 calls)
     newd         :      0.04s CPU      0.05s WALL (       7 calls)
     mix_rho      :      0.00s CPU      0.00s WALL (       6 calls)

     Called by c_bands:
     init_us_2    :      0.14s CPU      0.16s WALL (    1560 calls)
     cegterg      :      5.44s CPU      5.77s WALL (     720 calls)

     Called by sum_band:
     sum_band:bec :      0.01s CPU      0.01s WALL (     720 calls)
     addusdens    :      0.04s CPU      0.05s WALL (       6 calls)

     Called by *egterg:
     h_psi        :      4.70s CPU      4.99s WALL (    2532 calls)
     s_psi        :      0.06s CPU      0.07s WALL (    2532 calls)
     g_psi        :      0.04s CPU      0.04s WALL (    1692 calls)
     cdiaghg      :      0.61s CPU      0.64s WALL (    2412 calls)

     Called by h_psi:
     h_psi:pot    :      4.68s CPU      4.97s WALL (    2532 calls)
     h_psi:calbec :      0.09s CPU      0.09s WALL (    2532 calls)
     vloc_psi     :      4.51s CPU      4.78s WALL (    2532 calls)
     add_vuspsi   :      0.06s CPU      0.07s WALL (    2532 calls)

     General routines
     calbec       :      0.10s CPU      0.11s WALL (    3252 calls)
     fft          :      0.01s CPU      0.01s WALL (      78 calls)
     ffts         :      0.00s CPU      0.00s WALL (       6 calls)
     fftw         :      4.63s CPU      4.91s WALL (   53982 calls)
 
     Parallel routines
     fft_scatt_xy :      0.87s CPU      0.93s WALL (   54066 calls)
     fft_scatt_yz :      0.98s CPU      1.05s WALL (   54066 calls)
 
     PWSCF        :     7.86s CPU         9.09s WALL

 
   This run was terminated on:  23:17:11   2Dec2021            

=------------------------------------------------------------------------------=
   JOB DONE.
=------------------------------------------------------------------------------=
