
     Program PWSCF v.6.3 starts on  2Dec2021 at 23:17:21 

     This program is part of the open-source Quantum ESPRESSO suite
     for quantum simulation of materials; please cite
         "P. Giannozzi et al., J. Phys.:Condens. Matter 21 395502 (2009);
         "P. Giannozzi et al., J. Phys.:Condens. Matter 29 465901 (2017);
          URL http://www.quantum-espresso.org", 
     in publications or presentations arising from this work. More details at
     http://www.quantum-espresso.org/quote

     Parallel version (MPI & OpenMP), running on       2 processor cores
     Number of MPI processes:                 2
     Threads/MPI process:                     1

     MPI processes distributed on     1 nodes
     R & G space division:  proc/nbgrp/npool/nimage =       2
     Reading input from pw-input.in

     Current dimensions of program PWSCF are:
     Max number of different atomic species (ntypx) = 10
     Max number of k-points (npk) =  40000
     Max angular momentum in pseudopotentials (lmaxx) =  3

     Subspace diagonalization in iterative solution of the eigenvalue problem:
     a serial algorithm will be used

 
     Parallelization info
     --------------------
     sticks:   dense  smooth     PW     G-vecs:    dense   smooth      PW
     Min         150     150     54                 1738     1738     362
     Max         151     151     55                 1741     1741     363
     Sum         301     301    109                 3479     3479     725
 

     Title: 
     Pd-kp-conv                                                                 


     bravais-lattice index     =            2
     lattice parameter (alat)  =       7.9000  a.u.
     unit-cell volume          =     123.2598 (a.u.)^3
     number of atoms/cell      =            1
     number of atomic types    =            1
     number of electrons       =        16.00
     number of Kohn-Sham states=           12
     kinetic-energy cutoff     =      35.0000  Ry
     charge density cutoff     =     140.0000  Ry
     convergence threshold     =      1.0E-07
     mixing beta               =       0.7000
     number of iterations used =            8  plain     mixing
     Exchange-correlation      =  SLA  PW   PBX  PBC ( 1  4  3  4 0 0)

     celldm(1)=   7.900000  celldm(2)=   0.000000  celldm(3)=   0.000000
     celldm(4)=   0.000000  celldm(5)=   0.000000  celldm(6)=   0.000000

     crystal axes: (cart. coord. in units of alat)
               a(1) = (  -0.500000   0.000000   0.500000 )  
               a(2) = (   0.000000   0.500000   0.500000 )  
               a(3) = (  -0.500000   0.500000   0.000000 )  

     reciprocal axes: (cart. coord. in units 2 pi/alat)
               b(1) = ( -1.000000 -1.000000  1.000000 )  
               b(2) = (  1.000000  1.000000  1.000000 )  
               b(3) = ( -1.000000  1.000000 -1.000000 )  


     PseudoPot. # 1 for Pd read from file:
     ./pd_pbe_v1.4.uspp.F.UPF
     MD5 check sum: 2d733d2bc2cbfd217af676df1668a4bc
     Pseudo is Ultrasoft + core correction, Zval = 16.0
     Generated by new atomic code, or converted to UPF format
     Using radial grid of  887 points,  6 beta functions with: 
                l(1) =   0
                l(2) =   0
                l(3) =   1
                l(4) =   1
                l(5) =   2
                l(6) =   2
     Q(r) pseudized with  8 coefficients,  rinner =    1.130   1.130   1.130
                                                       1.130   1.130

     atomic species   valence    mass     pseudopotential
        Pd            16.00   106.40000     Pd( 1.00)

     48 Sym. Ops., with inversion, found



   Cartesian axes

     site n.     atom                  positions (alat units)
         1           Pd  tau(   1) = (   0.0000000   0.0000000   0.0000000  )

     number of k points=   120  Marzari-Vanderbilt smearing, width (Ry)=  0.0400

     Number of k-points >= 100: set verbosity='high' to print them.

     Dense  grid:     3479 G-vectors     FFT dimensions: (  24,  24,  24)

     Estimated max dynamical RAM per process >      12.18 MB

     Estimated total dynamical RAM >      24.37 MB

     Initial potential from superposition of free atoms
     Check: negative starting charge=   -0.079301

     starting charge   15.49999, renormalised to   16.00000

     negative rho (up, down):  8.186E-02 0.000E+00
     Starting wfcs are   12 randomized atomic wfcs

     total cpu time spent up to now is        1.0 secs

     Self-consistent Calculation

     iteration #  1     ecut=    35.00 Ry     beta= 0.70
     Davidson diagonalization with overlap
     ethr =  1.00E-02,  avg # of iterations =  3.5

     negative rho (up, down):  7.989E-02 0.000E+00

     total cpu time spent up to now is        2.4 secs

     total energy              =    -198.00572731 Ry
     Harris-Foulkes estimate   =    -199.06570176 Ry
     estimated scf accuracy    <       1.44549942 Ry

     iteration #  2     ecut=    35.00 Ry     beta= 0.70
     Davidson diagonalization with overlap
     ethr =  9.03E-03,  avg # of iterations =  2.0

     negative rho (up, down):  8.154E-02 0.000E+00

     total cpu time spent up to now is        3.7 secs

     total energy              =    -198.33135651 Ry
     Harris-Foulkes estimate   =    -199.20705569 Ry
     estimated scf accuracy    <       1.83909564 Ry

     iteration #  3     ecut=    35.00 Ry     beta= 0.70
     Davidson diagonalization with overlap
     ethr =  9.03E-03,  avg # of iterations =  2.0

     negative rho (up, down):  8.164E-02 0.000E+00

     total cpu time spent up to now is        4.9 secs

     total energy              =    -198.68525678 Ry
     Harris-Foulkes estimate   =    -198.68564067 Ry
     estimated scf accuracy    <       0.00087375 Ry

     iteration #  4     ecut=    35.00 Ry     beta= 0.70
     Davidson diagonalization with overlap
     ethr =  5.46E-06,  avg # of iterations =  2.6

     negative rho (up, down):  8.176E-02 0.000E+00

     total cpu time spent up to now is        6.3 secs

     total energy              =    -198.68565462 Ry
     Harris-Foulkes estimate   =    -198.68565339 Ry
     estimated scf accuracy    <       0.00000158 Ry

     iteration #  5     ecut=    35.00 Ry     beta= 0.70
     Davidson diagonalization with overlap
     ethr =  9.90E-09,  avg # of iterations =  2.0

     negative rho (up, down):  8.178E-02 0.000E+00

     total cpu time spent up to now is        7.5 secs

     End of self-consistent calculation

     Number of k-points >= 100: set verbosity='high' to print the bands.

     the Fermi energy is    13.9082 ev

!    total energy              =    -198.68565492 Ry
     Harris-Foulkes estimate   =    -198.68565484 Ry
     estimated scf accuracy    <       0.00000007 Ry

     The total energy is the sum of the following terms:

     one-electron contribution =     -60.29933803 Ry
     hartree contribution      =      41.42500792 Ry
     xc contribution           =     -31.24228814 Ry
     ewald contribution        =    -148.57274574 Ry
     smearing contrib. (-TS)   =       0.00370908 Ry

     convergence has been achieved in   5 iterations

     Writing output data file Pd-kp-conv.save/
 
     init_run     :      0.77s CPU      0.81s WALL (       1 calls)
     electrons    :      6.15s CPU      6.55s WALL (       1 calls)

     Called by init_run:
     wfcinit      :      0.42s CPU      0.44s WALL (       1 calls)
     potinit      :      0.01s CPU      0.02s WALL (       1 calls)
     hinit0       :      0.33s CPU      0.33s WALL (       1 calls)

     Called by electrons:
     c_bands      :      5.17s CPU      5.49s WALL (       5 calls)
     sum_band     :      0.93s CPU      0.99s WALL (       5 calls)
     v_of_rho     :      0.03s CPU      0.03s WALL (       6 calls)
     newd         :      0.04s CPU      0.04s WALL (       6 calls)
     mix_rho      :      0.00s CPU      0.00s WALL (       5 calls)

     Called by c_bands:
     init_us_2    :      0.13s CPU      0.14s WALL (    1320 calls)
     cegterg      :      4.82s CPU      5.11s WALL (     600 calls)

     Called by sum_band:
     sum_band:bec :      0.01s CPU      0.01s WALL (     600 calls)
     addusdens    :      0.04s CPU      0.04s WALL (       5 calls)

     Called by *egterg:
     h_psi        :      4.21s CPU      4.46s WALL (    2176 calls)
     s_psi        :      0.06s CPU      0.06s WALL (    2176 calls)
     g_psi        :      0.04s CPU      0.04s WALL (    1456 calls)
     cdiaghg      :      0.53s CPU      0.56s WALL (    2056 calls)

     Called by h_psi:
     h_psi:pot    :      4.19s CPU      4.44s WALL (    2176 calls)
     h_psi:calbec :      0.08s CPU      0.09s WALL (    2176 calls)
     vloc_psi     :      4.04s CPU      4.27s WALL (    2176 calls)
     add_vuspsi   :      0.06s CPU      0.06s WALL (    2176 calls)

     General routines
     calbec       :      0.09s CPU      0.10s WALL (    2776 calls)
     fft          :      0.01s CPU      0.01s WALL (      67 calls)
     ffts         :      0.00s CPU      0.00s WALL (       5 calls)
     fftw         :      4.12s CPU      4.36s WALL (   46818 calls)
 
     Parallel routines
     fft_scatt_xy :      0.75s CPU      0.80s WALL (   46890 calls)
     fft_scatt_yz :      0.89s CPU      0.96s WALL (   46890 calls)
 
     PWSCF        :     7.05s CPU         7.98s WALL

 
   This run was terminated on:  23:17:29   2Dec2021            

=------------------------------------------------------------------------------=
   JOB DONE.
=------------------------------------------------------------------------------=
