
     Program PWSCF v.6.3 starts on  2Dec2021 at 23: 0: 0 

     This program is part of the open-source Quantum ESPRESSO suite
     for quantum simulation of materials; please cite
         "P. Giannozzi et al., J. Phys.:Condens. Matter 21 395502 (2009);
         "P. Giannozzi et al., J. Phys.:Condens. Matter 29 465901 (2017);
          URL http://www.quantum-espresso.org", 
     in publications or presentations arising from this work. More details at
     http://www.quantum-espresso.org/quote

     Parallel version (MPI & OpenMP), running on       2 processor cores
     Number of MPI processes:                 2
     Threads/MPI process:                     1

     MPI processes distributed on     1 nodes
     R & G space division:  proc/nbgrp/npool/nimage =       2
     Reading input from pw-input.in

     Current dimensions of program PWSCF are:
     Max number of different atomic species (ntypx) = 10
     Max number of k-points (npk) =  40000
     Max angular momentum in pseudopotentials (lmaxx) =  3

     Subspace diagonalization in iterative solution of the eigenvalue problem:
     a serial algorithm will be used

 
     Parallelization info
     --------------------
     sticks:   dense  smooth     PW     G-vecs:    dense   smooth      PW
     Min         117     117     42                 1138     1138     264
     Max         118     118     43                 1139     1139     267
     Sum         235     235     85                 2277     2277     531
 

     Title: 
     Pd-kp-conv                                                                 


     bravais-lattice index     =            2
     lattice parameter (alat)  =       6.9000  a.u.
     unit-cell volume          =      82.1273 (a.u.)^3
     number of atoms/cell      =            1
     number of atomic types    =            1
     number of electrons       =        16.00
     number of Kohn-Sham states=           12
     kinetic-energy cutoff     =      35.0000  Ry
     charge density cutoff     =     140.0000  Ry
     convergence threshold     =      1.0E-07
     mixing beta               =       0.7000
     number of iterations used =            8  plain     mixing
     Exchange-correlation      =  SLA  PW   PBX  PBC ( 1  4  3  4 0 0)

     celldm(1)=   6.900000  celldm(2)=   0.000000  celldm(3)=   0.000000
     celldm(4)=   0.000000  celldm(5)=   0.000000  celldm(6)=   0.000000

     crystal axes: (cart. coord. in units of alat)
               a(1) = (  -0.500000   0.000000   0.500000 )  
               a(2) = (   0.000000   0.500000   0.500000 )  
               a(3) = (  -0.500000   0.500000   0.000000 )  

     reciprocal axes: (cart. coord. in units 2 pi/alat)
               b(1) = ( -1.000000 -1.000000  1.000000 )  
               b(2) = (  1.000000  1.000000  1.000000 )  
               b(3) = ( -1.000000  1.000000 -1.000000 )  


     PseudoPot. # 1 for Pd read from file:
     ./pd_pbe_v1.4.uspp.F.UPF
     MD5 check sum: 2d733d2bc2cbfd217af676df1668a4bc
     Pseudo is Ultrasoft + core correction, Zval = 16.0
     Generated by new atomic code, or converted to UPF format
     Using radial grid of  887 points,  6 beta functions with: 
                l(1) =   0
                l(2) =   0
                l(3) =   1
                l(4) =   1
                l(5) =   2
                l(6) =   2
     Q(r) pseudized with  8 coefficients,  rinner =    1.130   1.130   1.130
                                                       1.130   1.130

     atomic species   valence    mass     pseudopotential
        Pd            16.00   106.40000     Pd( 1.00)

     48 Sym. Ops., with inversion, found



   Cartesian axes

     site n.     atom                  positions (alat units)
         1           Pd  tau(   1) = (   0.0000000   0.0000000   0.0000000  )

     number of k points=   413  Marzari-Vanderbilt smearing, width (Ry)=  0.0350

     Number of k-points >= 100: set verbosity='high' to print them.

     Dense  grid:     2277 G-vectors     FFT dimensions: (  20,  20,  20)

     Estimated max dynamical RAM per process >      15.92 MB

     Estimated total dynamical RAM >      31.84 MB

     Initial potential from superposition of free atoms
     Check: negative starting charge=   -0.082546

     starting charge   15.49999, renormalised to   16.00000

     negative rho (up, down):  8.521E-02 0.000E+00
     Starting wfcs are   12 randomized atomic wfcs

     total cpu time spent up to now is        1.3 secs

     Self-consistent Calculation

     iteration #  1     ecut=    35.00 Ry     beta= 0.70
     Davidson diagonalization with overlap
     ethr =  1.00E-02,  avg # of iterations =  3.5

     negative rho (up, down):  8.548E-02 0.000E+00

     total cpu time spent up to now is        5.2 secs

     total energy              =    -198.34536550 Ry
     Harris-Foulkes estimate   =    -198.91110434 Ry
     estimated scf accuracy    <       0.79513071 Ry

     iteration #  2     ecut=    35.00 Ry     beta= 0.70
     Davidson diagonalization with overlap
     ethr =  4.97E-03,  avg # of iterations =  2.0

     negative rho (up, down):  8.671E-02 0.000E+00

     total cpu time spent up to now is        8.4 secs

     total energy              =    -198.56377606 Ry
     Harris-Foulkes estimate   =    -198.80052468 Ry
     estimated scf accuracy    <       0.42867146 Ry

     iteration #  3     ecut=    35.00 Ry     beta= 0.70
     Davidson diagonalization with overlap
     ethr =  2.68E-03,  avg # of iterations =  2.0

     negative rho (up, down):  8.725E-02 0.000E+00

     total cpu time spent up to now is       11.4 secs

     total energy              =    -198.65837565 Ry
     Harris-Foulkes estimate   =    -198.65893239 Ry
     estimated scf accuracy    <       0.00124821 Ry

     iteration #  4     ecut=    35.00 Ry     beta= 0.70
     Davidson diagonalization with overlap
     ethr =  7.80E-06,  avg # of iterations =  2.2

     negative rho (up, down):  8.738E-02 0.000E+00

     total cpu time spent up to now is       14.3 secs

     total energy              =    -198.65870013 Ry
     Harris-Foulkes estimate   =    -198.65871163 Ry
     estimated scf accuracy    <       0.00002363 Ry

     iteration #  5     ecut=    35.00 Ry     beta= 0.70
     Davidson diagonalization with overlap
     ethr =  1.48E-07,  avg # of iterations =  2.0

     negative rho (up, down):  8.742E-02 0.000E+00

     total cpu time spent up to now is       17.1 secs

     End of self-consistent calculation

     Number of k-points >= 100: set verbosity='high' to print the bands.

     the Fermi energy is    24.2714 ev

!    total energy              =    -198.65870522 Ry
     Harris-Foulkes estimate   =    -198.65870514 Ry
     estimated scf accuracy    <       0.00000007 Ry

     The total energy is the sum of the following terms:

     one-electron contribution =     -27.40909777 Ry
     hartree contribution      =      30.41687264 Ry
     xc contribution           =     -31.56111884 Ry
     ewald contribution        =    -170.10502774 Ry
     smearing contrib. (-TS)   =      -0.00033351 Ry

     convergence has been achieved in   5 iterations

     Writing output data file Pd-kp-conv.save/
 
     init_run     :      1.09s CPU      1.20s WALL (       1 calls)
     electrons    :     13.92s CPU     15.81s WALL (       1 calls)

     Called by init_run:
     wfcinit      :      0.79s CPU      0.88s WALL (       1 calls)
     potinit      :      0.00s CPU      0.02s WALL (       1 calls)
     hinit0       :      0.28s CPU      0.28s WALL (       1 calls)

     Called by electrons:
     c_bands      :     11.94s CPU     13.32s WALL (       5 calls)
     sum_band     :      1.94s CPU      2.11s WALL (       5 calls)
     v_of_rho     :      0.01s CPU      0.02s WALL (       6 calls)
     newd         :      0.02s CPU      0.03s WALL (       6 calls)
     mix_rho      :      0.00s CPU      0.00s WALL (       5 calls)

     Called by c_bands:
     init_us_2    :      0.30s CPU      0.33s WALL (    4543 calls)
     cegterg      :     11.05s CPU     11.88s WALL (    2065 calls)

     Called by sum_band:
     sum_band:bec :      0.02s CPU      0.02s WALL (    2065 calls)
     addusdens    :      0.03s CPU      0.03s WALL (       5 calls)

     Called by *egterg:
     h_psi        :      8.86s CPU      9.57s WALL (    7318 calls)
     s_psi        :      0.14s CPU      0.16s WALL (    7318 calls)
     g_psi        :      0.09s CPU      0.10s WALL (    4840 calls)
     cdiaghg      :      1.73s CPU      1.84s WALL (    6905 calls)

     Called by h_psi:
     h_psi:pot    :      8.81s CPU      9.52s WALL (    7318 calls)
     h_psi:calbec :      0.21s CPU      0.23s WALL (    7318 calls)
     vloc_psi     :      8.40s CPU      9.07s WALL (    7318 calls)
     add_vuspsi   :      0.15s CPU      0.17s WALL (    7318 calls)

     General routines
     calbec       :      0.24s CPU      0.26s WALL (    9383 calls)
     fft          :      0.01s CPU      0.01s WALL (      67 calls)
     ffts         :      0.00s CPU      0.00s WALL (       5 calls)
     fftw         :      8.63s CPU      9.33s WALL (  159362 calls)
 
     Parallel routines
     fft_scatt_xy :      1.56s CPU      1.68s WALL (  159434 calls)
     fft_scatt_yz :      2.19s CPU      2.40s WALL (  159434 calls)
 
     PWSCF        :    15.24s CPU        18.54s WALL

 
   This run was terminated on:  23: 0:19   2Dec2021            

=------------------------------------------------------------------------------=
   JOB DONE.
=------------------------------------------------------------------------------=
