# equation of state: birch 3rd order.  chisq =   0.1488D-09
# a0 =  7.4552 a.u., k0 = 1707 kbar, dk0 =  5.56 d2k0 = -0.005 emin = -198.70149
# a0 =  3.94515 Ang, k0 = 170.7 GPa,  V0 =   103.59 (a.u.)^3,  V0 =   15.35 A^3 

#########################################################################
# Lat.Par       E_calc        E_fit       E_diff    Pressure      Enthalpy
# a.u.            Ry           Ry            Ry        GPa           Ry
#########################################################################
  6.50000    -198.53687    -198.53687    -0.00000     212.09     -197.54702
  6.60000    -198.57817    -198.57818     0.00001     167.26     -197.76093
  6.70000    -198.61156    -198.61156     0.00000     130.24     -197.94588
  6.80000    -198.63815    -198.63814    -0.00001      99.72     -198.10526
  6.90000    -198.65890    -198.65888    -0.00001      74.65     -198.24211
  7.00000    -198.67465    -198.67464    -0.00000      54.12     -198.35915
  7.10000    -198.68614    -198.68615     0.00002      37.38     -198.45877
  7.20000    -198.69403    -198.69406     0.00003      23.79     -198.54310
  7.30000    -198.69890    -198.69890    -0.00000      12.83     -198.61407
  7.40000    -198.70118    -198.70118    -0.00001       4.05     -198.67328
  7.50000    -198.70131    -198.70130    -0.00001      -2.92     -198.72221
  7.60000    -198.69963    -198.69962    -0.00001      -8.38     -198.76216
  7.70000    -198.69647    -198.69645    -0.00002     -12.61     -198.79430
  7.80000    -198.69209    -198.69208    -0.00001     -15.81     -198.81960
  7.90000    -198.68670    -198.68672     0.00001     -18.17     -198.83897
  8.00000    -198.68055    -198.68057     0.00002     -19.84     -198.85323
  8.10000    -198.67381    -198.67382     0.00001     -20.95     -198.86306
  8.20000    -198.66660    -198.66660    -0.00000     -21.61     -198.86907
  8.30000    -198.65906    -198.65904    -0.00001     -21.89     -198.87179
  8.40000    -198.65126    -198.65126    -0.00001     -21.88     -198.87167
  8.50000    -198.64332    -198.64333     0.00001     -21.64     -198.86916
