<?xml version="1.0"?>
<?iotk version="1.2.0"?>
<?iotk file_version="1.0"?>
<?iotk binary="F"?>
<?iotk qe_syntax="F"?>
<Root>
  <EQUATIONS_OF_STATE>
    <EQUATION_TYPE type="character" size="1" len="15">
Birch 2nd order
    </EQUATION_TYPE>
    <CHI_SQUARE type="real" size="1">
 1.488450995101269E-010
    </CHI_SQUARE>
  </EQUATIONS_OF_STATE>
  <EQUATIONS_PARAMETERS>
    <EQUILIBRIUM_VOLUME_AU_A type="real" size="2" columns="2">
 1.035918447907986E+002  1.535072742990239E+001
    </EQUILIBRIUM_VOLUME_AU_A>
    <BULK_MODULUS_KBAR type="real" size="1">
 1.707015661636497E+003
    </BULK_MODULUS_KBAR>
    <DERIVATIVE_BULK_MODULUS type="real" size="1">
 5.558308004621688E+000
    </DERIVATIVE_BULK_MODULUS>
    <SECOND_DERIVATIVE_BULK_MODULUS type="real" size="1">
-5.338300325618862E-003
    </SECOND_DERIVATIVE_BULK_MODULUS>
    <MINIMUM_ENERGY_RY type="real" size="1">
-1.987014852633426E+002
    </MINIMUM_ENERGY_RY>
    <CELL_FACTOR type="real" size="1">
 2.500000000000000E-001
    </CELL_FACTOR>
    <CELL_PARAMETER_AU_A type="real" size="2" columns="2">
 7.455243844516409E+000  3.945145126998973E+000
    </CELL_PARAMETER_AU_A>
  </EQUATIONS_PARAMETERS>
  <FIT_CHECK>
    <NUMBER_OF_DATA type="integer" size="1">
        21
    </NUMBER_OF_DATA>
    <VOL_ENE_EFIT_DELTA_P_GIBBS type="real" size="126" columns="6">
 6.865625000000000E+001 -1.985368703400000E+002 -1.985368683239303E+002 -2.016069743149274E-006  2.120882286616274E+003 -1.975470211097207E+002 
 7.187400000000000E+001 -1.985781687100000E+002 -1.985781776584505E+002  8.948450471280012E-006  1.672639575423284E+003 -1.977609344032251E+002 
 7.519075000000001E+001 -1.986115611700000E+002 -1.986115614879174E+002  3.179173688749870E-007  1.302363568480960E+003 -1.979458757240439E+002 
 7.860799999999999E+001 -1.986381496800000E+002 -1.986381388531371E+002 -1.082686293329971E-005  9.972419112245028E+002 -1.981052570973453E+002 
 8.212725000000002E+001 -1.986588965400000E+002 -1.986588838456668E+002 -1.269433315087554E-005  7.465335887949691E+002 -1.982421144580424E+002 
 8.575000000000000E+001 -1.986746476700000E+002 -1.986746437088890E+002 -3.961111019634700E-006  5.412368221218945E+002 -1.983591516606577E+002 
 8.947774999999999E+001 -1.986861387600000E+002 -1.986861547892389E+002  1.602923885002383E-005  3.738091785829373E+002 -1.984587665296433E+002 
 9.331200000000001E+001 -1.986940280100000E+002 -1.986940565595637E+002  2.854956369446882E-005  2.379321387310463E+002 -1.985431023747294E+002 
 9.725425000000000E+001 -1.986989039500000E+002 -1.986989039244555E+002 -2.554452294134535E-008  1.283133376814842E+002 -1.986140732995206E+002 
 1.013060000000000E+002 -1.987011832000000E+002 -1.987011780020134E+002 -5.197986638449947E-006  4.052062161483379E+001 -1.986732780942190E+002 
 1.054687500000000E+002 -1.987013070200000E+002 -1.987012955596520E+002 -1.146034799148765E-005 -2.915710060694495E+001 -1.987222115563883E+002 
 1.097440000000000E+002 -1.986996276600000E+002 -1.986996172644562E+002 -1.039554385329211E-005 -8.382648396456355E+001 -1.987621642853905E+002 
 1.141332500000000E+002 -1.986964723100000E+002 -1.986964548919388E+002 -1.741806119071043E-005 -1.260874718729545E+002 -1.987942988125981E+002 
 1.186380000000000E+002 -1.986920869300000E+002 -1.986920776213275E+002 -9.308672531460616E-006 -1.581151739844569E+002 -1.988196044251419E+002 
 1.232597500000000E+002 -1.986867033800000E+002 -1.986867175309321E+002  1.415093208834151E-005 -1.817284684266618E+002 -1.988389741890187E+002 
 1.280000000000000E+002 -1.986805548800000E+002 -1.986805743938424E+002  1.951384240328480E-005 -1.984474878276176E+002 -1.988532292902125E+002 
 1.328602500000000E+002 -1.986738069000000E+002 -1.986738198621846E+002  1.296218459856391E-005 -2.095417997146303E+002 -1.988630578817645E+002 
 1.378420000000000E+002 -1.986666035600000E+002 -1.986666011174015E+002 -2.442598542984342E-006 -2.160707976886147E+002 -1.988690686016921E+002 
 1.429467500000000E+002 -1.986590567500000E+002 -1.986590440544369E+002 -1.269556307192943E-005 -2.189175723681133E+002 -1.988717860521758E+002 
 1.481760000000000E+002 -1.986512641700000E+002 -1.986512560592190E+002 -8.110780981951393E-006 -2.188173234972042E+002 -1.988716745151294E+002 
 1.535312500000000E+002 -1.986433223500000E+002 -1.986433284313467E+002  6.081346668906917E-006 -2.163812007089905E+002 -1.988691560335739E+002
    </VOL_ENE_EFIT_DELTA_P_GIBBS>
  </FIT_CHECK>
</Root>
 
