
     Program PWSCF v.6.3 starts on  2Dec2021 at 22:46:50 

     This program is part of the open-source Quantum ESPRESSO suite
     for quantum simulation of materials; please cite
         "P. Giannozzi et al., J. Phys.:Condens. Matter 21 395502 (2009);
         "P. Giannozzi et al., J. Phys.:Condens. Matter 29 465901 (2017);
          URL http://www.quantum-espresso.org", 
     in publications or presentations arising from this work. More details at
     http://www.quantum-espresso.org/quote

     Parallel version (MPI & OpenMP), running on       2 processor cores
     Number of MPI processes:                 2
     Threads/MPI process:                     1

     MPI processes distributed on     1 nodes
     R & G space division:  proc/nbgrp/npool/nimage =       2
     Reading input from pw-input.in

     Current dimensions of program PWSCF are:
     Max number of different atomic species (ntypx) = 10
     Max number of k-points (npk) =  40000
     Max angular momentum in pseudopotentials (lmaxx) =  3

     Subspace diagonalization in iterative solution of the eigenvalue problem:
     a serial algorithm will be used

 
     Parallelization info
     --------------------
     sticks:   dense  smooth     PW     G-vecs:    dense   smooth      PW
     Min         147     147     45                 1643     1643     304
     Max         148     148     46                 1644     1644     305
     Sum         295     295     91                 3287     3287     609
 

     Title: 
     Pd-kp-conv                                                                 


     bravais-lattice index     =            2
     lattice parameter (alat)  =       7.8000  a.u.
     unit-cell volume          =     118.6380 (a.u.)^3
     number of atoms/cell      =            1
     number of atomic types    =            1
     number of electrons       =        16.00
     number of Kohn-Sham states=           12
     kinetic-energy cutoff     =      35.0000  Ry
     charge density cutoff     =     140.0000  Ry
     convergence threshold     =      1.0E-07
     mixing beta               =       0.7000
     number of iterations used =            8  plain     mixing
     Exchange-correlation      =  SLA  PW   PBX  PBC ( 1  4  3  4 0 0)

     celldm(1)=   7.800000  celldm(2)=   0.000000  celldm(3)=   0.000000
     celldm(4)=   0.000000  celldm(5)=   0.000000  celldm(6)=   0.000000

     crystal axes: (cart. coord. in units of alat)
               a(1) = (  -0.500000   0.000000   0.500000 )  
               a(2) = (   0.000000   0.500000   0.500000 )  
               a(3) = (  -0.500000   0.500000   0.000000 )  

     reciprocal axes: (cart. coord. in units 2 pi/alat)
               b(1) = ( -1.000000 -1.000000  1.000000 )  
               b(2) = (  1.000000  1.000000  1.000000 )  
               b(3) = ( -1.000000  1.000000 -1.000000 )  


     PseudoPot. # 1 for Pd read from file:
     ./pd_pbe_v1.4.uspp.F.UPF
     MD5 check sum: 2d733d2bc2cbfd217af676df1668a4bc
     Pseudo is Ultrasoft + core correction, Zval = 16.0
     Generated by new atomic code, or converted to UPF format
     Using radial grid of  887 points,  6 beta functions with: 
                l(1) =   0
                l(2) =   0
                l(3) =   1
                l(4) =   1
                l(5) =   2
                l(6) =   2
     Q(r) pseudized with  8 coefficients,  rinner =    1.130   1.130   1.130
                                                       1.130   1.130

     atomic species   valence    mass     pseudopotential
        Pd            16.00   106.40000     Pd( 1.00)

     48 Sym. Ops., with inversion, found



   Cartesian axes

     site n.     atom                  positions (alat units)
         1           Pd  tau(   1) = (   0.0000000   0.0000000   0.0000000  )

     number of k points=     8  Marzari-Vanderbilt smearing, width (Ry)=  0.0350
                       cart. coord. in units 2pi/alat
        k(    1) = (   0.0000000   0.0000000   0.0000000), wk =   0.0312500
        k(    2) = (  -0.2500000   0.2500000  -0.2500000), wk =   0.2500000
        k(    3) = (   0.5000000  -0.5000000   0.5000000), wk =   0.1250000
        k(    4) = (   0.0000000   0.5000000   0.0000000), wk =   0.1875000
        k(    5) = (   0.7500000  -0.2500000   0.7500000), wk =   0.7500000
        k(    6) = (   0.5000000   0.0000000   0.5000000), wk =   0.3750000
        k(    7) = (   0.0000000  -1.0000000   0.0000000), wk =   0.0937500
        k(    8) = (  -0.5000000  -1.0000000   0.0000000), wk =   0.1875000

     Dense  grid:     3287 G-vectors     FFT dimensions: (  24,  24,  24)

     Estimated max dynamical RAM per process >       7.43 MB

     Estimated total dynamical RAM >      14.85 MB

     Initial potential from superposition of free atoms
     Check: negative starting charge=   -0.079046

     starting charge   15.49999, renormalised to   16.00000

     negative rho (up, down):  8.160E-02 0.000E+00
     Starting wfcs are   12 randomized atomic wfcs

     total cpu time spent up to now is        0.5 secs

     Self-consistent Calculation

     iteration #  1     ecut=    35.00 Ry     beta= 0.70
     Davidson diagonalization with overlap
     ethr =  1.00E-02,  avg # of iterations =  3.4

     negative rho (up, down):  8.027E-02 0.000E+00

     total cpu time spent up to now is        0.7 secs

     total energy              =    -198.04971136 Ry
     Harris-Foulkes estimate   =    -199.06754199 Ry
     estimated scf accuracy    <       1.39159908 Ry

     iteration #  2     ecut=    35.00 Ry     beta= 0.70
     Davidson diagonalization with overlap
     ethr =  8.70E-03,  avg # of iterations =  2.0

     negative rho (up, down):  8.153E-02 0.000E+00

     total cpu time spent up to now is        0.8 secs

     total energy              =    -198.33023465 Ry
     Harris-Foulkes estimate   =    -199.16924017 Ry
     estimated scf accuracy    <       1.76538567 Ry

     iteration #  3     ecut=    35.00 Ry     beta= 0.70
     Davidson diagonalization with overlap
     ethr =  8.70E-03,  avg # of iterations =  2.0

     negative rho (up, down):  8.156E-02 0.000E+00

     total cpu time spent up to now is        0.9 secs

     total energy              =    -198.70406831 Ry
     Harris-Foulkes estimate   =    -198.70448515 Ry
     estimated scf accuracy    <       0.00097124 Ry

     iteration #  4     ecut=    35.00 Ry     beta= 0.70
     Davidson diagonalization with overlap
     ethr =  6.07E-06,  avg # of iterations =  3.4

     negative rho (up, down):  8.167E-02 0.000E+00

     total cpu time spent up to now is        1.0 secs

     total energy              =    -198.70445867 Ry
     Harris-Foulkes estimate   =    -198.70446190 Ry
     estimated scf accuracy    <       0.00001146 Ry

     iteration #  5     ecut=    35.00 Ry     beta= 0.70
     Davidson diagonalization with overlap
     ethr =  7.16E-08,  avg # of iterations =  2.0

     negative rho (up, down):  8.169E-02 0.000E+00

     total cpu time spent up to now is        1.1 secs

     total energy              =    -198.70446106 Ry
     Harris-Foulkes estimate   =    -198.70446113 Ry
     estimated scf accuracy    <       0.00000028 Ry

     iteration #  6     ecut=    35.00 Ry     beta= 0.70
     Davidson diagonalization with overlap
     ethr =  1.76E-09,  avg # of iterations =  1.9

     negative rho (up, down):  8.169E-02 0.000E+00

     total cpu time spent up to now is        1.2 secs

     End of self-consistent calculation

          k = 0.0000 0.0000 0.0000 (   411 PWs)   bands (ev):

   -34.5944 -34.5944 -34.5944   8.7447  12.5282  12.5282  12.5282  13.7402
    13.7402  32.0899  35.8358  35.8358

          k =-0.2500 0.2500-0.2500 (   410 PWs)   bands (ev):

   -34.7014 -34.6100 -34.6100  10.2764  12.5173  12.7569  12.7569  13.8667
    13.8667  27.7818  32.7179  36.1251

          k = 0.5000-0.5000 0.5000 (   410 PWs)   bands (ev):

   -34.8070 -34.6260 -34.6260  10.5826  12.5029  12.5029  14.6406  14.6406
    16.0140  20.7137  31.3096  34.3033

          k = 0.0000 0.5000 0.0000 (   415 PWs)   bands (ev):

   -34.6973 -34.6349 -34.6349  10.7365  11.6044  13.3297  13.5075  13.5075
    14.1655  31.1415  31.1415  31.9474

          k = 0.7500-0.2500 0.7500 (   416 PWs)   bands (ev):

   -34.7719 -34.6813 -34.6509  11.1635  11.7949  12.9133  13.4766  14.7064
    17.9397  22.8409  27.8700  30.0866

          k = 0.5000 0.0000 0.5000 (   413 PWs)   bands (ev):

   -34.7475 -34.6857 -34.6260  11.6879  12.0726  12.3971  13.2725  13.7201
    16.6275  25.9690  26.0696  33.3972

          k = 0.0000-1.0000 0.0000 (   412 PWs)   bands (ev):

   -34.7963 -34.6751 -34.6751  10.5865  10.8069  14.6222  14.8741  14.8741
    18.0128  23.7510  27.0090  27.0090

          k =-0.5000-1.0000 0.0000 (   412 PWs)   bands (ev):

   -34.7362 -34.7362 -34.6766  11.4304  12.1270  12.1270  13.6994  14.8738
    22.6541  22.6541  23.6806  25.0377

     the Fermi energy is    14.8982 ev

!    total energy              =    -198.70446110 Ry
     Harris-Foulkes estimate   =    -198.70446110 Ry
     estimated scf accuracy    <          6.6E-09 Ry

     The total energy is the sum of the following terms:

     one-electron contribution =     -57.36458150 Ry
     hartree contribution      =      40.41164130 Ry
     xc contribution           =     -31.27133072 Ry
     ewald contribution        =    -150.47752455 Ry
     smearing contrib. (-TS)   =      -0.00266564 Ry

     convergence has been achieved in   6 iterations

     Writing output data file Pd-kp-conv.save/
 
     init_run     :      0.38s CPU      0.41s WALL (       1 calls)
     electrons    :      0.63s CPU      1.03s WALL (       1 calls)

     Called by init_run:
     wfcinit      :      0.03s CPU      0.04s WALL (       1 calls)
     potinit      :      0.01s CPU      0.02s WALL (       1 calls)
     hinit0       :      0.32s CPU      0.33s WALL (       1 calls)

     Called by electrons:
     c_bands      :      0.43s CPU      0.46s WALL (       6 calls)
     sum_band     :      0.13s CPU      0.13s WALL (       6 calls)
     v_of_rho     :      0.03s CPU      0.03s WALL (       7 calls)
     newd         :      0.05s CPU      0.05s WALL (       7 calls)
     mix_rho      :      0.00s CPU      0.00s WALL (       6 calls)

     Called by c_bands:
     init_us_2    :      0.01s CPU      0.01s WALL (     104 calls)
     cegterg      :      0.40s CPU      0.43s WALL (      48 calls)

     Called by sum_band:
     sum_band:bec :      0.00s CPU      0.00s WALL (      48 calls)
     addusdens    :      0.04s CPU      0.05s WALL (       6 calls)

     Called by *egterg:
     h_psi        :      0.35s CPU      0.37s WALL (     173 calls)
     s_psi        :      0.00s CPU      0.01s WALL (     173 calls)
     g_psi        :      0.00s CPU      0.00s WALL (     117 calls)
     cdiaghg      :      0.05s CPU      0.05s WALL (     165 calls)

     Called by h_psi:
     h_psi:pot    :      0.35s CPU      0.37s WALL (     173 calls)
     h_psi:calbec :      0.01s CPU      0.01s WALL (     173 calls)
     vloc_psi     :      0.33s CPU      0.35s WALL (     173 calls)
     add_vuspsi   :      0.01s CPU      0.01s WALL (     173 calls)

     General routines
     calbec       :      0.01s CPU      0.01s WALL (     221 calls)
     fft          :      0.01s CPU      0.01s WALL (      78 calls)
     ffts         :      0.00s CPU      0.00s WALL (       6 calls)
     fftw         :      0.34s CPU      0.36s WALL (    3628 calls)
 
     Parallel routines
     fft_scatt_xy :      0.07s CPU      0.07s WALL (    3712 calls)
     fft_scatt_yz :      0.07s CPU      0.08s WALL (    3712 calls)
 
     PWSCF        :     1.10s CPU         1.60s WALL

 
   This run was terminated on:  22:46:51   2Dec2021            

=------------------------------------------------------------------------------=
   JOB DONE.
=------------------------------------------------------------------------------=
