
     Program PWSCF v.6.3 starts on  2Dec2021 at 22:46:37 

     This program is part of the open-source Quantum ESPRESSO suite
     for quantum simulation of materials; please cite
         "P. Giannozzi et al., J. Phys.:Condens. Matter 21 395502 (2009);
         "P. Giannozzi et al., J. Phys.:Condens. Matter 29 465901 (2017);
          URL http://www.quantum-espresso.org", 
     in publications or presentations arising from this work. More details at
     http://www.quantum-espresso.org/quote

     Parallel version (MPI & OpenMP), running on       2 processor cores
     Number of MPI processes:                 2
     Threads/MPI process:                     1

     MPI processes distributed on     1 nodes
     R & G space division:  proc/nbgrp/npool/nimage =       2
     Reading input from pw-input.in

     Current dimensions of program PWSCF are:
     Max number of different atomic species (ntypx) = 10
     Max number of k-points (npk) =  40000
     Max angular momentum in pseudopotentials (lmaxx) =  3

     Subspace diagonalization in iterative solution of the eigenvalue problem:
     a serial algorithm will be used

 
     Parallelization info
     --------------------
     sticks:   dense  smooth     PW     G-vecs:    dense   smooth      PW
     Min         120     120     42                 1221     1221     264
     Max         121     121     43                 1224     1224     267
     Sum         241     241     85                 2445     2445     531
 

     Title: 
     Pd-kp-conv                                                                 


     bravais-lattice index     =            2
     lattice parameter (alat)  =       7.1000  a.u.
     unit-cell volume          =      89.4777 (a.u.)^3
     number of atoms/cell      =            1
     number of atomic types    =            1
     number of electrons       =        16.00
     number of Kohn-Sham states=           12
     kinetic-energy cutoff     =      35.0000  Ry
     charge density cutoff     =     140.0000  Ry
     convergence threshold     =      1.0E-07
     mixing beta               =       0.7000
     number of iterations used =            8  plain     mixing
     Exchange-correlation      =  SLA  PW   PBX  PBC ( 1  4  3  4 0 0)

     celldm(1)=   7.100000  celldm(2)=   0.000000  celldm(3)=   0.000000
     celldm(4)=   0.000000  celldm(5)=   0.000000  celldm(6)=   0.000000

     crystal axes: (cart. coord. in units of alat)
               a(1) = (  -0.500000   0.000000   0.500000 )  
               a(2) = (   0.000000   0.500000   0.500000 )  
               a(3) = (  -0.500000   0.500000   0.000000 )  

     reciprocal axes: (cart. coord. in units 2 pi/alat)
               b(1) = ( -1.000000 -1.000000  1.000000 )  
               b(2) = (  1.000000  1.000000  1.000000 )  
               b(3) = ( -1.000000  1.000000 -1.000000 )  


     PseudoPot. # 1 for Pd read from file:
     ./pd_pbe_v1.4.uspp.F.UPF
     MD5 check sum: 2d733d2bc2cbfd217af676df1668a4bc
     Pseudo is Ultrasoft + core correction, Zval = 16.0
     Generated by new atomic code, or converted to UPF format
     Using radial grid of  887 points,  6 beta functions with: 
                l(1) =   0
                l(2) =   0
                l(3) =   1
                l(4) =   1
                l(5) =   2
                l(6) =   2
     Q(r) pseudized with  8 coefficients,  rinner =    1.130   1.130   1.130
                                                       1.130   1.130

     atomic species   valence    mass     pseudopotential
        Pd            16.00   106.40000     Pd( 1.00)

     48 Sym. Ops., with inversion, found



   Cartesian axes

     site n.     atom                  positions (alat units)
         1           Pd  tau(   1) = (   0.0000000   0.0000000   0.0000000  )

     number of k points=     8  Marzari-Vanderbilt smearing, width (Ry)=  0.0350
                       cart. coord. in units 2pi/alat
        k(    1) = (   0.0000000   0.0000000   0.0000000), wk =   0.0312500
        k(    2) = (  -0.2500000   0.2500000  -0.2500000), wk =   0.2500000
        k(    3) = (   0.5000000  -0.5000000   0.5000000), wk =   0.1250000
        k(    4) = (   0.0000000   0.5000000   0.0000000), wk =   0.1875000
        k(    5) = (   0.7500000  -0.2500000   0.7500000), wk =   0.7500000
        k(    6) = (   0.5000000   0.0000000   0.5000000), wk =   0.3750000
        k(    7) = (   0.0000000  -1.0000000   0.0000000), wk =   0.0937500
        k(    8) = (  -0.5000000  -1.0000000   0.0000000), wk =   0.1875000

     Dense  grid:     2445 G-vectors     FFT dimensions: (  20,  20,  20)

     Estimated max dynamical RAM per process >       5.65 MB

     Estimated total dynamical RAM >      11.30 MB

     Initial potential from superposition of free atoms
     Check: negative starting charge=   -0.083979

     starting charge   15.49999, renormalised to   16.00000

     negative rho (up, down):  8.669E-02 0.000E+00
     Starting wfcs are   12 randomized atomic wfcs

     total cpu time spent up to now is        0.5 secs

     Self-consistent Calculation

     iteration #  1     ecut=    35.00 Ry     beta= 0.70
     Davidson diagonalization with overlap
     ethr =  1.00E-02,  avg # of iterations =  3.8

     negative rho (up, down):  8.645E-02 0.000E+00

     total cpu time spent up to now is        0.6 secs

     total energy              =    -198.32782753 Ry
     Harris-Foulkes estimate   =    -198.97730019 Ry
     estimated scf accuracy    <       0.90547104 Ry

     iteration #  2     ecut=    35.00 Ry     beta= 0.70
     Davidson diagonalization with overlap
     ethr =  5.66E-03,  avg # of iterations =  2.0

     negative rho (up, down):  8.779E-02 0.000E+00

     total cpu time spent up to now is        0.7 secs

     total energy              =    -198.59176459 Ry
     Harris-Foulkes estimate   =    -198.88356976 Ry
     estimated scf accuracy    <       0.53340199 Ry

     iteration #  3     ecut=    35.00 Ry     beta= 0.70
     Davidson diagonalization with overlap
     ethr =  3.33E-03,  avg # of iterations =  2.0

     negative rho (up, down):  8.802E-02 0.000E+00

     total cpu time spent up to now is        0.7 secs

     total energy              =    -198.69827954 Ry
     Harris-Foulkes estimate   =    -198.69830350 Ry
     estimated scf accuracy    <       0.00009205 Ry

     iteration #  4     ecut=    35.00 Ry     beta= 0.70
     Davidson diagonalization with overlap
     ethr =  5.75E-07,  avg # of iterations =  2.5

     negative rho (up, down):  8.817E-02 0.000E+00

     total cpu time spent up to now is        0.8 secs

     total energy              =    -198.69841201 Ry
     Harris-Foulkes estimate   =    -198.69841347 Ry
     estimated scf accuracy    <       0.00000967 Ry

     iteration #  5     ecut=    35.00 Ry     beta= 0.70
     Davidson diagonalization with overlap
     ethr =  6.04E-08,  avg # of iterations =  2.0

     negative rho (up, down):  8.819E-02 0.000E+00

     total cpu time spent up to now is        0.9 secs

     total energy              =    -198.69841361 Ry
     Harris-Foulkes estimate   =    -198.69841364 Ry
     estimated scf accuracy    <       0.00000017 Ry

     iteration #  6     ecut=    35.00 Ry     beta= 0.70
     Davidson diagonalization with overlap
     ethr =  1.07E-09,  avg # of iterations =  2.0

     negative rho (up, down):  8.819E-02 0.000E+00

     total cpu time spent up to now is        1.0 secs

     End of self-consistent calculation

          k = 0.0000 0.0000 0.0000 (   331 PWs)   bands (ev):

   -28.1941 -28.1941 -28.1941  13.6202  18.3333  18.3333  18.3333  20.2630
    20.2630  39.6984  45.1182  45.1182

          k =-0.2500 0.2500-0.2500 (   311 PWs)   bands (ev):

   -28.5008 -28.2365 -28.2365  15.4237  18.2886  18.6772  18.6772  20.4366
    20.4366  37.2847  40.8754  47.1386

          k = 0.5000-0.5000 0.5000 (   302 PWs)   bands (ev):

   -28.7979 -28.2784 -28.2784  15.4911  18.2688  18.2688  21.7126  21.7126
    22.4199  29.9422  38.9253  44.5714

          k = 0.0000 0.5000 0.0000 (   311 PWs)   bands (ev):

   -28.4881 -28.3064 -28.3064  15.9537  16.8575  19.5240  19.8603  19.8603
    20.9394  40.9879  41.1923  41.1923

          k = 0.7500-0.2500 0.7500 (   315 PWs)   bands (ev):

   -28.6963 -28.4370 -28.3487  16.2347  17.1273  18.8957  19.7933  21.8201
    25.7143  31.7387  37.5093  39.8674

          k = 0.5000 0.0000 0.5000 (   315 PWs)   bands (ev):

   -28.6287 -28.4505 -28.2791  17.1395  17.6024  18.0352  19.4567  20.1978
    24.3046  35.3059  35.7165  42.4939

          k = 0.0000-1.0000 0.0000 (   302 PWs)   bands (ev):

   -28.7635 -28.4175 -28.4175  15.3072  15.6544  21.6808  22.0977  22.0977
    25.0226  33.6463  35.7347  35.7347

          k =-0.5000-1.0000 0.0000 (   308 PWs)   bands (ev):

   -28.5924 -28.5924 -28.4230  16.5418  17.6889  17.6889  20.1227  22.0986
    31.2934  31.2934  33.1238  34.2234

     the Fermi energy is    22.0425 ev

!    total energy              =    -198.69841365 Ry
     Harris-Foulkes estimate   =    -198.69841365 Ry
     estimated scf accuracy    <          4.2E-09 Ry

     The total energy is the sum of the following terms:

     one-electron contribution =     -34.64165430 Ry
     hartree contribution      =      32.74816858 Ry
     xc contribution           =     -31.48710441 Ry
     ewald contribution        =    -165.31333683 Ry
     smearing contrib. (-TS)   =      -0.00448669 Ry

     convergence has been achieved in   6 iterations

     Writing output data file Pd-kp-conv.save/
 
     init_run     :      0.34s CPU      0.37s WALL (       1 calls)
     electrons    :      0.45s CPU      0.88s WALL (       1 calls)

     Called by init_run:
     wfcinit      :      0.02s CPU      0.03s WALL (       1 calls)
     potinit      :      0.00s CPU      0.02s WALL (       1 calls)
     hinit0       :      0.30s CPU      0.31s WALL (       1 calls)

     Called by electrons:
     c_bands      :      0.31s CPU      0.35s WALL (       6 calls)
     sum_band     :      0.09s CPU      0.09s WALL (       6 calls)
     v_of_rho     :      0.02s CPU      0.02s WALL (       7 calls)
     newd         :      0.03s CPU      0.04s WALL (       7 calls)
     mix_rho      :      0.00s CPU      0.00s WALL (       6 calls)

     Called by c_bands:
     init_us_2    :      0.01s CPU      0.01s WALL (     104 calls)
     cegterg      :      0.29s CPU      0.32s WALL (      48 calls)

     Called by sum_band:
     sum_band:bec :      0.00s CPU      0.00s WALL (      48 calls)
     addusdens    :      0.03s CPU      0.04s WALL (       6 calls)

     Called by *egterg:
     h_psi        :      0.23s CPU      0.26s WALL (     170 calls)
     s_psi        :      0.00s CPU      0.00s WALL (     170 calls)
     g_psi        :      0.00s CPU      0.00s WALL (     114 calls)
     cdiaghg      :      0.05s CPU      0.05s WALL (     162 calls)

     Called by h_psi:
     h_psi:pot    :      0.23s CPU      0.26s WALL (     170 calls)
     h_psi:calbec :      0.01s CPU      0.01s WALL (     170 calls)
     vloc_psi     :      0.22s CPU      0.24s WALL (     170 calls)
     add_vuspsi   :      0.00s CPU      0.00s WALL (     170 calls)

     General routines
     calbec       :      0.01s CPU      0.01s WALL (     218 calls)
     fft          :      0.01s CPU      0.01s WALL (      78 calls)
     ffts         :      0.00s CPU      0.00s WALL (       6 calls)
     fftw         :      0.22s CPU      0.25s WALL (    3684 calls)
 
     Parallel routines
     fft_scatt_xy :      0.04s CPU      0.05s WALL (    3768 calls)
     fft_scatt_yz :      0.06s CPU      0.07s WALL (    3768 calls)
 
     PWSCF        :     0.87s CPU         1.40s WALL

 
   This run was terminated on:  22:46:39   2Dec2021            

=------------------------------------------------------------------------------=
   JOB DONE.
=------------------------------------------------------------------------------=
