
     Program PWSCF v.6.3 starts on  2Dec2021 at 22:46:39 

     This program is part of the open-source Quantum ESPRESSO suite
     for quantum simulation of materials; please cite
         "P. Giannozzi et al., J. Phys.:Condens. Matter 21 395502 (2009);
         "P. Giannozzi et al., J. Phys.:Condens. Matter 29 465901 (2017);
          URL http://www.quantum-espresso.org", 
     in publications or presentations arising from this work. More details at
     http://www.quantum-espresso.org/quote

     Parallel version (MPI & OpenMP), running on       2 processor cores
     Number of MPI processes:                 2
     Threads/MPI process:                     1

     MPI processes distributed on     1 nodes
     R & G space division:  proc/nbgrp/npool/nimage =       2
     Reading input from pw-input.in

     Current dimensions of program PWSCF are:
     Max number of different atomic species (ntypx) = 10
     Max number of k-points (npk) =  40000
     Max angular momentum in pseudopotentials (lmaxx) =  3

     Subspace diagonalization in iterative solution of the eigenvalue problem:
     a serial algorithm will be used

 
     Parallelization info
     --------------------
     sticks:   dense  smooth     PW     G-vecs:    dense   smooth      PW
     Min         126     126     42                 1318     1318     264
     Max         127     127     43                 1319     1319     267
     Sum         253     253     85                 2637     2637     531
 

     Title: 
     Pd-kp-conv                                                                 


     bravais-lattice index     =            2
     lattice parameter (alat)  =       7.2000  a.u.
     unit-cell volume          =      93.3120 (a.u.)^3
     number of atoms/cell      =            1
     number of atomic types    =            1
     number of electrons       =        16.00
     number of Kohn-Sham states=           12
     kinetic-energy cutoff     =      35.0000  Ry
     charge density cutoff     =     140.0000  Ry
     convergence threshold     =      1.0E-07
     mixing beta               =       0.7000
     number of iterations used =            8  plain     mixing
     Exchange-correlation      =  SLA  PW   PBX  PBC ( 1  4  3  4 0 0)

     celldm(1)=   7.200000  celldm(2)=   0.000000  celldm(3)=   0.000000
     celldm(4)=   0.000000  celldm(5)=   0.000000  celldm(6)=   0.000000

     crystal axes: (cart. coord. in units of alat)
               a(1) = (  -0.500000   0.000000   0.500000 )  
               a(2) = (   0.000000   0.500000   0.500000 )  
               a(3) = (  -0.500000   0.500000   0.000000 )  

     reciprocal axes: (cart. coord. in units 2 pi/alat)
               b(1) = ( -1.000000 -1.000000  1.000000 )  
               b(2) = (  1.000000  1.000000  1.000000 )  
               b(3) = ( -1.000000  1.000000 -1.000000 )  


     PseudoPot. # 1 for Pd read from file:
     ./pd_pbe_v1.4.uspp.F.UPF
     MD5 check sum: 2d733d2bc2cbfd217af676df1668a4bc
     Pseudo is Ultrasoft + core correction, Zval = 16.0
     Generated by new atomic code, or converted to UPF format
     Using radial grid of  887 points,  6 beta functions with: 
                l(1) =   0
                l(2) =   0
                l(3) =   1
                l(4) =   1
                l(5) =   2
                l(6) =   2
     Q(r) pseudized with  8 coefficients,  rinner =    1.130   1.130   1.130
                                                       1.130   1.130

     atomic species   valence    mass     pseudopotential
        Pd            16.00   106.40000     Pd( 1.00)

     48 Sym. Ops., with inversion, found



   Cartesian axes

     site n.     atom                  positions (alat units)
         1           Pd  tau(   1) = (   0.0000000   0.0000000   0.0000000  )

     number of k points=     8  Marzari-Vanderbilt smearing, width (Ry)=  0.0350
                       cart. coord. in units 2pi/alat
        k(    1) = (   0.0000000   0.0000000   0.0000000), wk =   0.0312500
        k(    2) = (  -0.2500000   0.2500000  -0.2500000), wk =   0.2500000
        k(    3) = (   0.5000000  -0.5000000   0.5000000), wk =   0.1250000
        k(    4) = (   0.0000000   0.5000000   0.0000000), wk =   0.1875000
        k(    5) = (   0.7500000  -0.2500000   0.7500000), wk =   0.7500000
        k(    6) = (   0.5000000   0.0000000   0.5000000), wk =   0.3750000
        k(    7) = (   0.0000000  -1.0000000   0.0000000), wk =   0.0937500
        k(    8) = (  -0.5000000  -1.0000000   0.0000000), wk =   0.1875000

     Dense  grid:     2637 G-vectors     FFT dimensions: (  20,  20,  20)

     Estimated max dynamical RAM per process >       5.99 MB

     Estimated total dynamical RAM >      11.98 MB

     Initial potential from superposition of free atoms
     Check: negative starting charge=   -0.084445

     starting charge   15.49999, renormalised to   16.00000

     negative rho (up, down):  8.717E-02 0.000E+00
     Starting wfcs are   12 randomized atomic wfcs

     total cpu time spent up to now is        0.4 secs

     Self-consistent Calculation

     iteration #  1     ecut=    35.00 Ry     beta= 0.70
     Davidson diagonalization with overlap
     ethr =  1.00E-02,  avg # of iterations =  3.5

     negative rho (up, down):  8.678E-02 0.000E+00

     total cpu time spent up to now is        0.4 secs

     total energy              =    -198.29580619 Ry
     Harris-Foulkes estimate   =    -198.99922438 Ry
     estimated scf accuracy    <       0.97761137 Ry

     iteration #  2     ecut=    35.00 Ry     beta= 0.70
     Davidson diagonalization with overlap
     ethr =  6.11E-03,  avg # of iterations =  2.0

     negative rho (up, down):  8.813E-02 0.000E+00

     total cpu time spent up to now is        0.5 secs

     total energy              =    -198.58384897 Ry
     Harris-Foulkes estimate   =    -198.92197787 Ry
     estimated scf accuracy    <       0.62586786 Ry

     iteration #  3     ecut=    35.00 Ry     beta= 0.70
     Davidson diagonalization with overlap
     ethr =  3.91E-03,  avg # of iterations =  2.1

     negative rho (up, down):  8.831E-02 0.000E+00

     total cpu time spent up to now is        0.6 secs

     total energy              =    -198.70612363 Ry
     Harris-Foulkes estimate   =    -198.70621207 Ry
     estimated scf accuracy    <       0.00018957 Ry

     iteration #  4     ecut=    35.00 Ry     beta= 0.70
     Davidson diagonalization with overlap
     ethr =  1.18E-06,  avg # of iterations =  2.5

     negative rho (up, down):  8.845E-02 0.000E+00

     total cpu time spent up to now is        0.7 secs

     total energy              =    -198.70630946 Ry
     Harris-Foulkes estimate   =    -198.70631006 Ry
     estimated scf accuracy    <       0.00000758 Ry

     iteration #  5     ecut=    35.00 Ry     beta= 0.70
     Davidson diagonalization with overlap
     ethr =  4.74E-08,  avg # of iterations =  2.0

     negative rho (up, down):  8.847E-02 0.000E+00

     total cpu time spent up to now is        0.7 secs

     total energy              =    -198.70631078 Ry
     Harris-Foulkes estimate   =    -198.70631077 Ry
     estimated scf accuracy    <       0.00000014 Ry

     iteration #  6     ecut=    35.00 Ry     beta= 0.70
     Davidson diagonalization with overlap
     ethr =  8.47E-10,  avg # of iterations =  2.1

     negative rho (up, down):  8.847E-02 0.000E+00

     total cpu time spent up to now is        0.8 secs

     End of self-consistent calculation

          k = 0.0000 0.0000 0.0000 (   331 PWs)   bands (ev):

   -29.2672 -29.2672 -29.2672  12.7849  17.3730  17.3730  17.3730  19.1753
    19.1753  38.4663  43.6260  43.6260

          k =-0.2500 0.2500-0.2500 (   323 PWs)   bands (ev):

   -29.5307 -29.3039 -29.3039  14.5521  17.3247  17.6968  17.6968  19.3423
    19.3423  35.7267  39.5360  45.3483

          k = 0.5000-0.5000 0.5000 (   332 PWs)   bands (ev):

   -29.7875 -29.3409 -29.3409  14.6756  17.3142  17.3142  20.5257  20.5257
    21.3282  28.3816  37.6891  42.9000

          k = 0.0000 0.5000 0.0000 (   311 PWs)   bands (ev):

   -29.5193 -29.3638 -29.3638  15.0724  15.9946  18.4884  18.8058  18.8058
    19.8089  39.5082  39.5294  39.5294

          k = 0.7500-0.2500 0.7500 (   327 PWs)   bands (ev):

   -29.6997 -29.4766 -29.4009  15.3977  16.2451  17.8977  18.7439  20.6288
    24.3989  30.2450  35.9166  38.2448

          k = 0.5000 0.0000 0.5000 (   327 PWs)   bands (ev):

   -29.6410 -29.4882 -29.3410  16.2288  16.6863  17.0972  18.4309  19.1203
    23.0078  33.7572  34.0909  41.0095

          k = 0.0000-1.0000 0.0000 (   326 PWs)   bands (ev):

   -29.7579 -29.4607 -29.4607  14.5323  14.8592  20.4955  20.8834  20.8834
    23.8300  31.9859  34.2877  34.2877

          k =-0.5000-1.0000 0.0000 (   328 PWs)   bands (ev):

   -29.6107 -29.6107 -29.4647  15.6986  16.7653  16.7653  19.0553  20.8856
    29.8351  29.8351  31.5509  32.6803

     the Fermi energy is    20.8477 ev

!    total energy              =    -198.70631081 Ry
     Harris-Foulkes estimate   =    -198.70631081 Ry
     estimated scf accuracy    <          3.0E-09 Ry

     The total energy is the sum of the following terms:

     one-electron contribution =     -38.09451855 Ry
     hartree contribution      =      33.85654014 Ry
     xc contribution           =     -31.44661877 Ry
     ewald contribution        =    -163.01731824 Ry
     smearing contrib. (-TS)   =      -0.00439539 Ry

     convergence has been achieved in   6 iterations

     Writing output data file Pd-kp-conv.save/
 
     init_run     :      0.26s CPU      0.27s WALL (       1 calls)
     electrons    :      0.41s CPU      0.47s WALL (       1 calls)

     Called by init_run:
     wfcinit      :      0.02s CPU      0.02s WALL (       1 calls)
     potinit      :      0.00s CPU      0.00s WALL (       1 calls)
     hinit0       :      0.23s CPU      0.23s WALL (       1 calls)

     Called by electrons:
     c_bands      :      0.29s CPU      0.31s WALL (       6 calls)
     sum_band     :      0.08s CPU      0.09s WALL (       6 calls)
     v_of_rho     :      0.02s CPU      0.02s WALL (       7 calls)
     newd         :      0.03s CPU      0.03s WALL (       7 calls)
     mix_rho      :      0.00s CPU      0.00s WALL (       6 calls)

     Called by c_bands:
     init_us_2    :      0.01s CPU      0.01s WALL (     104 calls)
     cegterg      :      0.27s CPU      0.29s WALL (      48 calls)

     Called by sum_band:
     sum_band:bec :      0.00s CPU      0.00s WALL (      48 calls)
     addusdens    :      0.03s CPU      0.03s WALL (       6 calls)

     Called by *egterg:
     h_psi        :      0.21s CPU      0.23s WALL (     170 calls)
     s_psi        :      0.00s CPU      0.00s WALL (     170 calls)
     g_psi        :      0.00s CPU      0.00s WALL (     114 calls)
     cdiaghg      :      0.04s CPU      0.04s WALL (     162 calls)

     Called by h_psi:
     h_psi:pot    :      0.21s CPU      0.23s WALL (     170 calls)
     h_psi:calbec :      0.01s CPU      0.01s WALL (     170 calls)
     vloc_psi     :      0.20s CPU      0.22s WALL (     170 calls)
     add_vuspsi   :      0.00s CPU      0.00s WALL (     170 calls)

     General routines
     calbec       :      0.01s CPU      0.01s WALL (     218 calls)
     fft          :      0.01s CPU      0.01s WALL (      78 calls)
     ffts         :      0.00s CPU      0.00s WALL (       6 calls)
     fftw         :      0.21s CPU      0.22s WALL (    3710 calls)
 
     Parallel routines
     fft_scatt_xy :      0.04s CPU      0.04s WALL (    3794 calls)
     fft_scatt_yz :      0.06s CPU      0.06s WALL (    3794 calls)
 
     PWSCF        :     0.76s CPU         0.89s WALL

 
   This run was terminated on:  22:46:40   2Dec2021            

=------------------------------------------------------------------------------=
   JOB DONE.
=------------------------------------------------------------------------------=
