
     Program PWSCF v.6.3 starts on  2Dec2021 at 22:46:54 

     This program is part of the open-source Quantum ESPRESSO suite
     for quantum simulation of materials; please cite
         "P. Giannozzi et al., J. Phys.:Condens. Matter 21 395502 (2009);
         "P. Giannozzi et al., J. Phys.:Condens. Matter 29 465901 (2017);
          URL http://www.quantum-espresso.org", 
     in publications or presentations arising from this work. More details at
     http://www.quantum-espresso.org/quote

     Parallel version (MPI & OpenMP), running on       2 processor cores
     Number of MPI processes:                 2
     Threads/MPI process:                     1

     MPI processes distributed on     1 nodes
     R & G space division:  proc/nbgrp/npool/nimage =       2
     Reading input from pw-input.in

     Current dimensions of program PWSCF are:
     Max number of different atomic species (ntypx) = 10
     Max number of k-points (npk) =  40000
     Max angular momentum in pseudopotentials (lmaxx) =  3

     Subspace diagonalization in iterative solution of the eigenvalue problem:
     a serial algorithm will be used

 
     Parallelization info
     --------------------
     sticks:   dense  smooth     PW     G-vecs:    dense   smooth      PW
     Min         156     156     48                 1763     1763     322
     Max         157     157     49                 1764     1764     323
     Sum         313     313     97                 3527     3527     645
 

     Title: 
     Pd-kp-conv                                                                 


     bravais-lattice index     =            2
     lattice parameter (alat)  =       8.0000  a.u.
     unit-cell volume          =     128.0000 (a.u.)^3
     number of atoms/cell      =            1
     number of atomic types    =            1
     number of electrons       =        16.00
     number of Kohn-Sham states=           12
     kinetic-energy cutoff     =      35.0000  Ry
     charge density cutoff     =     140.0000  Ry
     convergence threshold     =      1.0E-07
     mixing beta               =       0.7000
     number of iterations used =            8  plain     mixing
     Exchange-correlation      =  SLA  PW   PBX  PBC ( 1  4  3  4 0 0)

     celldm(1)=   8.000000  celldm(2)=   0.000000  celldm(3)=   0.000000
     celldm(4)=   0.000000  celldm(5)=   0.000000  celldm(6)=   0.000000

     crystal axes: (cart. coord. in units of alat)
               a(1) = (  -0.500000   0.000000   0.500000 )  
               a(2) = (   0.000000   0.500000   0.500000 )  
               a(3) = (  -0.500000   0.500000   0.000000 )  

     reciprocal axes: (cart. coord. in units 2 pi/alat)
               b(1) = ( -1.000000 -1.000000  1.000000 )  
               b(2) = (  1.000000  1.000000  1.000000 )  
               b(3) = ( -1.000000  1.000000 -1.000000 )  


     PseudoPot. # 1 for Pd read from file:
     ./pd_pbe_v1.4.uspp.F.UPF
     MD5 check sum: 2d733d2bc2cbfd217af676df1668a4bc
     Pseudo is Ultrasoft + core correction, Zval = 16.0
     Generated by new atomic code, or converted to UPF format
     Using radial grid of  887 points,  6 beta functions with: 
                l(1) =   0
                l(2) =   0
                l(3) =   1
                l(4) =   1
                l(5) =   2
                l(6) =   2
     Q(r) pseudized with  8 coefficients,  rinner =    1.130   1.130   1.130
                                                       1.130   1.130

     atomic species   valence    mass     pseudopotential
        Pd            16.00   106.40000     Pd( 1.00)

     48 Sym. Ops., with inversion, found



   Cartesian axes

     site n.     atom                  positions (alat units)
         1           Pd  tau(   1) = (   0.0000000   0.0000000   0.0000000  )

     number of k points=     8  Marzari-Vanderbilt smearing, width (Ry)=  0.0350
                       cart. coord. in units 2pi/alat
        k(    1) = (   0.0000000   0.0000000   0.0000000), wk =   0.0312500
        k(    2) = (  -0.2500000   0.2500000  -0.2500000), wk =   0.2500000
        k(    3) = (   0.5000000  -0.5000000   0.5000000), wk =   0.1250000
        k(    4) = (   0.0000000   0.5000000   0.0000000), wk =   0.1875000
        k(    5) = (   0.7500000  -0.2500000   0.7500000), wk =   0.7500000
        k(    6) = (   0.5000000   0.0000000   0.5000000), wk =   0.3750000
        k(    7) = (   0.0000000  -1.0000000   0.0000000), wk =   0.0937500
        k(    8) = (  -0.5000000  -1.0000000   0.0000000), wk =   0.1875000

     Dense  grid:     3527 G-vectors     FFT dimensions: (  24,  24,  24)

     Estimated max dynamical RAM per process >       7.88 MB

     Estimated total dynamical RAM >      15.76 MB

     Check: negative/imaginary core charge=   -0.000001    0.000000

     Initial potential from superposition of free atoms
     Check: negative starting charge=   -0.080332

     starting charge   15.49999, renormalised to   16.00000

     negative rho (up, down):  8.292E-02 0.000E+00
     Starting wfcs are   12 randomized atomic wfcs

     total cpu time spent up to now is        0.5 secs

     Self-consistent Calculation

     iteration #  1     ecut=    35.00 Ry     beta= 0.70
     Davidson diagonalization with overlap
     ethr =  1.00E-02,  avg # of iterations =  3.2

     negative rho (up, down):  8.037E-02 0.000E+00

     total cpu time spent up to now is        0.7 secs

     total energy              =    -197.95729254 Ry
     Harris-Foulkes estimate   =    -199.07374596 Ry
     estimated scf accuracy    <       1.51935570 Ry

     iteration #  2     ecut=    35.00 Ry     beta= 0.70
     Davidson diagonalization with overlap
     ethr =  9.50E-03,  avg # of iterations =  2.0

     negative rho (up, down):  8.254E-02 0.000E+00

     total cpu time spent up to now is        0.8 secs

     total energy              =    -198.28772569 Ry
     Harris-Foulkes estimate   =    -199.26466777 Ry
     estimated scf accuracy    <       2.08255177 Ry

     iteration #  3     ecut=    35.00 Ry     beta= 0.70
     Davidson diagonalization with overlap
     ethr =  9.50E-03,  avg # of iterations =  2.0

     negative rho (up, down):  8.259E-02 0.000E+00

     total cpu time spent up to now is        0.9 secs

     total energy              =    -198.69214648 Ry
     Harris-Foulkes estimate   =    -198.69221830 Ry
     estimated scf accuracy    <       0.00021821 Ry

     iteration #  4     ecut=    35.00 Ry     beta= 0.70
     Davidson diagonalization with overlap
     ethr =  1.36E-06,  avg # of iterations =  3.9

     negative rho (up, down):  8.267E-02 0.000E+00

     total cpu time spent up to now is        1.0 secs

     total energy              =    -198.69250822 Ry
     Harris-Foulkes estimate   =    -198.69250859 Ry
     estimated scf accuracy    <       0.00000552 Ry

     iteration #  5     ecut=    35.00 Ry     beta= 0.70
     Davidson diagonalization with overlap
     ethr =  3.45E-08,  avg # of iterations =  2.0

     negative rho (up, down):  8.268E-02 0.000E+00

     total cpu time spent up to now is        1.1 secs

     total energy              =    -198.69250890 Ry
     Harris-Foulkes estimate   =    -198.69250890 Ry
     estimated scf accuracy    <       0.00000017 Ry

     iteration #  6     ecut=    35.00 Ry     beta= 0.70
     Davidson diagonalization with overlap
     ethr =  1.04E-09,  avg # of iterations =  1.8

     negative rho (up, down):  8.268E-02 0.000E+00

     total cpu time spent up to now is        1.2 secs

     End of self-consistent calculation

          k = 0.0000 0.0000 0.0000 (   459 PWs)   bands (ev):

   -36.0103 -36.0103 -36.0103   7.6933  11.2139  11.2139  11.2139  12.2823
    12.2823  30.2947  33.6102  33.6102

          k =-0.2500 0.2500-0.2500 (   459 PWs)   bands (ev):

   -36.0901 -36.0224 -36.0224   9.1492  11.2229  11.4180  11.4180  12.3956
    12.3956  25.6086  30.8181  33.5603

          k = 0.5000-0.5000 0.5000 (   434 PWs)   bands (ev):

   -36.1688 -36.0338 -36.0338   9.4726  11.1982  11.1982  13.0729  13.0729
    14.6188  18.6848  29.5182  31.9056

          k = 0.0000 0.5000 0.0000 (   456 PWs)   bands (ev):

   -36.0870 -36.0410 -36.0410   9.5898  10.4023  11.9472  12.0804  12.0804
    12.6558  28.8546  28.8546  29.8475

          k = 0.7500-0.2500 0.7500 (   447 PWs)   bands (ev):

   -36.1426 -36.0754 -36.0530  10.0088  10.5852  11.5715  12.0571  13.1298
    16.2336  20.8660  25.6797  27.8683

          k = 0.5000 0.0000 0.5000 (   443 PWs)   bands (ev):

   -36.1241 -36.0786 -36.0343  10.4692  10.8220  11.1249  11.8808  12.2677
    14.9444  23.8551  23.9398  31.2753

          k = 0.0000-1.0000 0.0000 (   444 PWs)   bands (ev):

   -36.1609 -36.0714 -36.0714   9.5035   9.6927  13.0534  13.2751  13.2751
    16.4827  21.5534  25.0267  25.0267

          k =-0.5000-1.0000 0.0000 (   444 PWs)   bands (ev):

   -36.1163 -36.1163 -36.0719  10.2639  10.8708  10.8708  12.2570  13.2757
    20.7513  20.7513  21.5549  23.0001

     the Fermi energy is    13.3052 ev

!    total energy              =    -198.69250891 Ry
     Harris-Foulkes estimate   =    -198.69250892 Ry
     estimated scf accuracy    <          2.9E-09 Ry

     The total energy is the sum of the following terms:

     one-electron contribution =     -63.29628072 Ry
     hartree contribution      =      42.55444311 Ry
     xc contribution           =     -31.23423505 Ry
     ewald contribution        =    -146.71558644 Ry
     smearing contrib. (-TS)   =      -0.00084982 Ry

     convergence has been achieved in   6 iterations

     Writing output data file Pd-kp-conv.save/
 
     init_run     :      0.38s CPU      0.41s WALL (       1 calls)
     electrons    :      0.66s CPU      1.06s WALL (       1 calls)

     Called by init_run:
     wfcinit      :      0.03s CPU      0.04s WALL (       1 calls)
     potinit      :      0.01s CPU      0.02s WALL (       1 calls)
     hinit0       :      0.33s CPU      0.33s WALL (       1 calls)

     Called by electrons:
     c_bands      :      0.46s CPU      0.48s WALL (       6 calls)
     sum_band     :      0.12s CPU      0.13s WALL (       6 calls)
     v_of_rho     :      0.03s CPU      0.03s WALL (       7 calls)
     newd         :      0.05s CPU      0.05s WALL (       7 calls)
     mix_rho      :      0.00s CPU      0.00s WALL (       6 calls)

     Called by c_bands:
     init_us_2    :      0.01s CPU      0.01s WALL (     104 calls)
     cegterg      :      0.43s CPU      0.45s WALL (      48 calls)

     Called by sum_band:
     sum_band:bec :      0.00s CPU      0.00s WALL (      48 calls)
     addusdens    :      0.04s CPU      0.05s WALL (       6 calls)

     Called by *egterg:
     h_psi        :      0.36s CPU      0.38s WALL (     175 calls)
     s_psi        :      0.01s CPU      0.01s WALL (     175 calls)
     g_psi        :      0.00s CPU      0.00s WALL (     119 calls)
     cdiaghg      :      0.05s CPU      0.05s WALL (     167 calls)

     Called by h_psi:
     h_psi:pot    :      0.36s CPU      0.38s WALL (     175 calls)
     h_psi:calbec :      0.01s CPU      0.01s WALL (     175 calls)
     vloc_psi     :      0.35s CPU      0.37s WALL (     175 calls)
     add_vuspsi   :      0.01s CPU      0.01s WALL (     175 calls)

     General routines
     calbec       :      0.01s CPU      0.01s WALL (     223 calls)
     fft          :      0.01s CPU      0.01s WALL (      78 calls)
     ffts         :      0.00s CPU      0.00s WALL (       6 calls)
     fftw         :      0.35s CPU      0.37s WALL (    3674 calls)
 
     Parallel routines
     fft_scatt_xy :      0.07s CPU      0.07s WALL (    3758 calls)
     fft_scatt_yz :      0.08s CPU      0.08s WALL (    3758 calls)
 
     PWSCF        :     1.13s CPU         1.64s WALL

 
   This run was terminated on:  22:46:56   2Dec2021            

=------------------------------------------------------------------------------=
   JOB DONE.
=------------------------------------------------------------------------------=
