
     Program PWSCF v.6.3 starts on  2Dec2021 at 22:47: 6 

     This program is part of the open-source Quantum ESPRESSO suite
     for quantum simulation of materials; please cite
         "P. Giannozzi et al., J. Phys.:Condens. Matter 21 395502 (2009);
         "P. Giannozzi et al., J. Phys.:Condens. Matter 29 465901 (2017);
          URL http://www.quantum-espresso.org", 
     in publications or presentations arising from this work. More details at
     http://www.quantum-espresso.org/quote

     Parallel version (MPI & OpenMP), running on       2 processor cores
     Number of MPI processes:                 2
     Threads/MPI process:                     1

     MPI processes distributed on     1 nodes
     R & G space division:  proc/nbgrp/npool/nimage =       2
     Reading input from pw-input.in

     Current dimensions of program PWSCF are:
     Max number of different atomic species (ntypx) = 10
     Max number of k-points (npk) =  40000
     Max angular momentum in pseudopotentials (lmaxx) =  3

     Subspace diagonalization in iterative solution of the eigenvalue problem:
     a serial algorithm will be used

 
     Parallelization info
     --------------------
     sticks:   dense  smooth     PW     G-vecs:    dense   smooth      PW
     Min         174     174     60                 2142     2142     410
     Max         175     175     61                 2143     2143     411
     Sum         349     349    121                 4285     4285     821
 

     Title: 
     Pd-kp-conv                                                                 


     bravais-lattice index     =            2
     lattice parameter (alat)  =       8.5000  a.u.
     unit-cell volume          =     153.5312 (a.u.)^3
     number of atoms/cell      =            1
     number of atomic types    =            1
     number of electrons       =        16.00
     number of Kohn-Sham states=           12
     kinetic-energy cutoff     =      35.0000  Ry
     charge density cutoff     =     140.0000  Ry
     convergence threshold     =      1.0E-07
     mixing beta               =       0.7000
     number of iterations used =            8  plain     mixing
     Exchange-correlation      =  SLA  PW   PBX  PBC ( 1  4  3  4 0 0)

     celldm(1)=   8.500000  celldm(2)=   0.000000  celldm(3)=   0.000000
     celldm(4)=   0.000000  celldm(5)=   0.000000  celldm(6)=   0.000000

     crystal axes: (cart. coord. in units of alat)
               a(1) = (  -0.500000   0.000000   0.500000 )  
               a(2) = (   0.000000   0.500000   0.500000 )  
               a(3) = (  -0.500000   0.500000   0.000000 )  

     reciprocal axes: (cart. coord. in units 2 pi/alat)
               b(1) = ( -1.000000 -1.000000  1.000000 )  
               b(2) = (  1.000000  1.000000  1.000000 )  
               b(3) = ( -1.000000  1.000000 -1.000000 )  


     PseudoPot. # 1 for Pd read from file:
     ./pd_pbe_v1.4.uspp.F.UPF
     MD5 check sum: 2d733d2bc2cbfd217af676df1668a4bc
     Pseudo is Ultrasoft + core correction, Zval = 16.0
     Generated by new atomic code, or converted to UPF format
     Using radial grid of  887 points,  6 beta functions with: 
                l(1) =   0
                l(2) =   0
                l(3) =   1
                l(4) =   1
                l(5) =   2
                l(6) =   2
     Q(r) pseudized with  8 coefficients,  rinner =    1.130   1.130   1.130
                                                       1.130   1.130

     atomic species   valence    mass     pseudopotential
        Pd            16.00   106.40000     Pd( 1.00)

     48 Sym. Ops., with inversion, found



   Cartesian axes

     site n.     atom                  positions (alat units)
         1           Pd  tau(   1) = (   0.0000000   0.0000000   0.0000000  )

     number of k points=     8  Marzari-Vanderbilt smearing, width (Ry)=  0.0350
                       cart. coord. in units 2pi/alat
        k(    1) = (   0.0000000   0.0000000   0.0000000), wk =   0.0312500
        k(    2) = (  -0.2500000   0.2500000  -0.2500000), wk =   0.2500000
        k(    3) = (   0.5000000  -0.5000000   0.5000000), wk =   0.1250000
        k(    4) = (   0.0000000   0.5000000   0.0000000), wk =   0.1875000
        k(    5) = (   0.7500000  -0.2500000   0.7500000), wk =   0.7500000
        k(    6) = (   0.5000000   0.0000000   0.5000000), wk =   0.3750000
        k(    7) = (   0.0000000  -1.0000000   0.0000000), wk =   0.0937500
        k(    8) = (  -0.5000000  -1.0000000   0.0000000), wk =   0.1875000

     Dense  grid:     4285 G-vectors     FFT dimensions: (  24,  24,  24)

     Estimated max dynamical RAM per process >       9.28 MB

     Estimated total dynamical RAM >      18.55 MB

     Check: negative/imaginary core charge=   -0.000001    0.000000

     Initial potential from superposition of free atoms
     Check: negative starting charge=   -0.084050

     starting charge   15.49999, renormalised to   16.00000

     negative rho (up, down):  8.676E-02 0.000E+00
     Starting wfcs are   12 randomized atomic wfcs

     total cpu time spent up to now is        0.5 secs

     Self-consistent Calculation

     iteration #  1     ecut=    35.00 Ry     beta= 0.70
     Davidson diagonalization with overlap
     ethr =  1.00E-02,  avg # of iterations =  2.9

     negative rho (up, down):  8.377E-02 0.000E+00

     total cpu time spent up to now is        0.7 secs

     total energy              =    -197.71561462 Ry
     Harris-Foulkes estimate   =    -199.06976885 Ry
     estimated scf accuracy    <       1.82346105 Ry

     iteration #  2     ecut=    35.00 Ry     beta= 0.70
     Davidson diagonalization with overlap
     ethr =  1.00E-02,  avg # of iterations =  2.0

     negative rho (up, down):  8.605E-02 0.000E+00

     total cpu time spent up to now is        0.8 secs

     total energy              =    -198.19952787 Ry
     Harris-Foulkes estimate   =    -199.50327977 Ry
     estimated scf accuracy    <       2.83285483 Ry

     iteration #  3     ecut=    35.00 Ry     beta= 0.70
     Davidson diagonalization with overlap
     ethr =  1.00E-02,  avg # of iterations =  2.0

     negative rho (up, down):  8.612E-02 0.000E+00

     total cpu time spent up to now is        0.9 secs

     total energy              =    -198.65181937 Ry
     Harris-Foulkes estimate   =    -198.65289460 Ry
     estimated scf accuracy    <       0.00342672 Ry

     iteration #  4     ecut=    35.00 Ry     beta= 0.70
     Davidson diagonalization with overlap
     ethr =  2.14E-05,  avg # of iterations =  2.5

     negative rho (up, down):  8.613E-02 0.000E+00

     total cpu time spent up to now is        1.0 secs

     total energy              =    -198.65232361 Ry
     Harris-Foulkes estimate   =    -198.65239788 Ry
     estimated scf accuracy    <       0.00021045 Ry

     iteration #  5     ecut=    35.00 Ry     beta= 0.70
     Davidson diagonalization with overlap
     ethr =  1.32E-06,  avg # of iterations =  2.8

     negative rho (up, down):  8.612E-02 0.000E+00

     total cpu time spent up to now is        1.1 secs

     total energy              =    -198.65235458 Ry
     Harris-Foulkes estimate   =    -198.65235465 Ry
     estimated scf accuracy    <       0.00000029 Ry

     iteration #  6     ecut=    35.00 Ry     beta= 0.70
     Davidson diagonalization with overlap
     ethr =  1.80E-09,  avg # of iterations =  2.2

     negative rho (up, down):  8.612E-02 0.000E+00

     total cpu time spent up to now is        1.2 secs

     End of self-consistent calculation

          k = 0.0000 0.0000 0.0000 (   537 PWs)   bands (ev):

   -38.9586 -38.9586 -38.9586   5.5358   8.4386   8.4386   8.4386   9.2247
     9.2247  26.3829  28.6838  28.6838

          k =-0.2500 0.2500-0.2500 (   543 PWs)   bands (ev):

   -38.9964 -38.9644 -38.9644   6.8149   8.4982   8.5943   8.5943   9.3143
     9.3143  21.0082  26.6911  28.0542

          k = 0.5000-0.5000 0.5000 (   544 PWs)   bands (ev):

   -39.0343 -38.9703 -38.9703   7.1259   8.4346   8.4346   9.8031   9.8031
    11.7335  14.4773  25.6219  26.7342

          k = 0.0000 0.5000 0.0000 (   528 PWs)   bands (ev):

   -38.9947 -38.9730 -38.9730   7.2073   7.8502   9.0472   9.0861   9.0861
     9.5020  24.0019  24.0019  25.2604

          k = 0.7500-0.2500 0.7500 (   538 PWs)   bands (ev):

   -39.0219 -38.9901 -38.9792   7.5588   8.0171   8.7470   9.0727   9.8443
    12.7006  16.7465  21.0469  23.1656

          k = 0.5000 0.0000 0.5000 (   540 PWs)   bands (ev):

   -39.0130 -38.9915 -38.9705   7.9070   8.1747   8.4375   8.9466   9.2176
    11.4638  19.3896  19.5055  26.5150

          k = 0.0000-1.0000 0.0000 (   524 PWs)   bands (ev):

   -39.0306 -38.9880 -38.9880   7.1944   7.3179   9.7917   9.9480   9.9480
    13.3124  16.9634  20.8181  20.8181

          k =-0.5000-1.0000 0.0000 (   524 PWs)   bands (ev):

   -39.0094 -39.0094 -38.9885   7.7833   8.2143   8.2143   9.2265   9.9480
    16.7990  16.7990  17.0756  18.7516

     the Fermi energy is     9.9616 ev

!    total energy              =    -198.65235466 Ry
     Harris-Foulkes estimate   =    -198.65235467 Ry
     estimated scf accuracy    <       0.00000001 Ry

     The total energy is the sum of the following terms:

     one-electron contribution =     -77.17675571 Ry
     hartree contribution      =      47.77528098 Ry
     xc contribution           =     -31.17254050 Ry
     ewald contribution        =    -138.08525782 Ry
     smearing contrib. (-TS)   =       0.00691839 Ry

     convergence has been achieved in   6 iterations

     Writing output data file Pd-kp-conv.save/
 
     init_run     :      0.40s CPU      0.42s WALL (       1 calls)
     electrons    :      0.64s CPU      0.75s WALL (       1 calls)

     Called by init_run:
     wfcinit      :      0.04s CPU      0.04s WALL (       1 calls)
     potinit      :      0.01s CPU      0.02s WALL (       1 calls)
     hinit0       :      0.34s CPU      0.34s WALL (       1 calls)

     Called by electrons:
     c_bands      :      0.44s CPU      0.46s WALL (       6 calls)
     sum_band     :      0.13s CPU      0.14s WALL (       6 calls)
     v_of_rho     :      0.03s CPU      0.03s WALL (       7 calls)
     newd         :      0.05s CPU      0.06s WALL (       7 calls)
     mix_rho      :      0.00s CPU      0.00s WALL (       6 calls)

     Called by c_bands:
     init_us_2    :      0.01s CPU      0.01s WALL (     104 calls)
     cegterg      :      0.40s CPU      0.42s WALL (      48 calls)

     Called by sum_band:
     sum_band:bec :      0.00s CPU      0.00s WALL (      48 calls)
     addusdens    :      0.05s CPU      0.05s WALL (       6 calls)

     Called by *egterg:
     h_psi        :      0.35s CPU      0.37s WALL (     171 calls)
     s_psi        :      0.01s CPU      0.01s WALL (     171 calls)
     g_psi        :      0.00s CPU      0.00s WALL (     115 calls)
     cdiaghg      :      0.04s CPU      0.04s WALL (     163 calls)

     Called by h_psi:
     h_psi:pot    :      0.35s CPU      0.37s WALL (     171 calls)
     h_psi:calbec :      0.01s CPU      0.01s WALL (     171 calls)
     vloc_psi     :      0.33s CPU      0.35s WALL (     171 calls)
     add_vuspsi   :      0.01s CPU      0.01s WALL (     171 calls)

     General routines
     calbec       :      0.01s CPU      0.01s WALL (     219 calls)
     fft          :      0.01s CPU      0.01s WALL (      78 calls)
     ffts         :      0.00s CPU      0.00s WALL (       6 calls)
     fftw         :      0.34s CPU      0.36s WALL (    3620 calls)
 
     Parallel routines
     fft_scatt_xy :      0.06s CPU      0.07s WALL (    3704 calls)
     fft_scatt_yz :      0.08s CPU      0.09s WALL (    3704 calls)
 
     PWSCF        :     1.12s CPU         1.64s WALL

 
   This run was terminated on:  22:47: 7   2Dec2021            

=------------------------------------------------------------------------------=
   JOB DONE.
=------------------------------------------------------------------------------=
