
     Program PWSCF v.6.3 starts on  2Dec2021 at 23: 9:58 

     This program is part of the open-source Quantum ESPRESSO suite
     for quantum simulation of materials; please cite
         "P. Giannozzi et al., J. Phys.:Condens. Matter 21 395502 (2009);
         "P. Giannozzi et al., J. Phys.:Condens. Matter 29 465901 (2017);
          URL http://www.quantum-espresso.org", 
     in publications or presentations arising from this work. More details at
     http://www.quantum-espresso.org/quote

     Parallel version (MPI & OpenMP), running on       2 processor cores
     Number of MPI processes:                 2
     Threads/MPI process:                     1

     MPI processes distributed on     1 nodes
     R & G space division:  proc/nbgrp/npool/nimage =       2
     Reading input from pw-input.in

     Current dimensions of program PWSCF are:
     Max number of different atomic species (ntypx) = 10
     Max number of k-points (npk) =  40000
     Max angular momentum in pseudopotentials (lmaxx) =  3

     Subspace diagonalization in iterative solution of the eigenvalue problem:
     a serial algorithm will be used

 
     Parallelization info
     --------------------
     sticks:   dense  smooth     PW     G-vecs:    dense   smooth      PW
     Min          99      99     30                  957      957     168
     Max         100     100     31                  960      960     171
     Sum         199     199     61                 1917     1917     339
 

     Title: 
     Pd-kp-conv                                                                 


     bravais-lattice index     =            2
     lattice parameter (alat)  =       6.5000  a.u.
     unit-cell volume          =      68.6562 (a.u.)^3
     number of atoms/cell      =            1
     number of atomic types    =            1
     number of electrons       =        16.00
     number of Kohn-Sham states=           12
     kinetic-energy cutoff     =      35.0000  Ry
     charge density cutoff     =     140.0000  Ry
     convergence threshold     =      1.0E-07
     mixing beta               =       0.7000
     number of iterations used =            8  plain     mixing
     Exchange-correlation      =  SLA  PW   PBX  PBC ( 1  4  3  4 0 0)

     celldm(1)=   6.500000  celldm(2)=   0.000000  celldm(3)=   0.000000
     celldm(4)=   0.000000  celldm(5)=   0.000000  celldm(6)=   0.000000

     crystal axes: (cart. coord. in units of alat)
               a(1) = (  -0.500000   0.000000   0.500000 )  
               a(2) = (   0.000000   0.500000   0.500000 )  
               a(3) = (  -0.500000   0.500000   0.000000 )  

     reciprocal axes: (cart. coord. in units 2 pi/alat)
               b(1) = ( -1.000000 -1.000000  1.000000 )  
               b(2) = (  1.000000  1.000000  1.000000 )  
               b(3) = ( -1.000000  1.000000 -1.000000 )  


     PseudoPot. # 1 for Pd read from file:
     ./pd_pbe_v1.4.uspp.F.UPF
     MD5 check sum: 2d733d2bc2cbfd217af676df1668a4bc
     Pseudo is Ultrasoft + core correction, Zval = 16.0
     Generated by new atomic code, or converted to UPF format
     Using radial grid of  887 points,  6 beta functions with: 
                l(1) =   0
                l(2) =   0
                l(3) =   1
                l(4) =   1
                l(5) =   2
                l(6) =   2
     Q(r) pseudized with  8 coefficients,  rinner =    1.130   1.130   1.130
                                                       1.130   1.130

     atomic species   valence    mass     pseudopotential
        Pd            16.00   106.40000     Pd( 1.00)

     48 Sym. Ops., with inversion, found



   Cartesian axes

     site n.     atom                  positions (alat units)
         1           Pd  tau(   1) = (   0.0000000   0.0000000   0.0000000  )

     number of k points=     4  Marzari-Vanderbilt smearing, width (Ry)=  0.0400
                       cart. coord. in units 2pi/alat
        k(    1) = (   0.0000000   0.0000000   0.0000000), wk =   0.0740741
        k(    2) = (  -0.3333333   0.3333333  -0.3333333), wk =   0.5925926
        k(    3) = (   0.0000000   0.6666667   0.0000000), wk =   0.4444444
        k(    4) = (   0.6666667  -0.0000000   0.6666667), wk =   0.8888889

     Dense  grid:     1917 G-vectors     FFT dimensions: (  18,  18,  18)

     Estimated max dynamical RAM per process >       4.46 MB

     Estimated total dynamical RAM >       8.91 MB

     Initial potential from superposition of free atoms
     Check: negative starting charge=   -0.084237

     starting charge   15.49999, renormalised to   16.00000

     negative rho (up, down):  8.695E-02 0.000E+00
     Starting wfcs are   12 randomized atomic wfcs

     total cpu time spent up to now is        0.4 secs

     Self-consistent Calculation

     iteration #  1     ecut=    35.00 Ry     beta= 0.70
     Davidson diagonalization with overlap
     ethr =  1.00E-02,  avg # of iterations =  3.8

     negative rho (up, down):  9.001E-02 0.000E+00

     total cpu time spent up to now is        0.5 secs

     total energy              =    -198.23750961 Ry
     Harris-Foulkes estimate   =    -198.64514761 Ry
     estimated scf accuracy    <       0.58941598 Ry

     iteration #  2     ecut=    35.00 Ry     beta= 0.70
     Davidson diagonalization with overlap
     ethr =  3.68E-03,  avg # of iterations =  2.0

     negative rho (up, down):  9.087E-02 0.000E+00

     total cpu time spent up to now is        0.5 secs

     total energy              =    -198.39376731 Ry
     Harris-Foulkes estimate   =    -198.51593464 Ry
     estimated scf accuracy    <       0.20910651 Ry

     iteration #  3     ecut=    35.00 Ry     beta= 0.70
     Davidson diagonalization with overlap
     ethr =  1.31E-03,  avg # of iterations =  2.0

     negative rho (up, down):  9.190E-02 0.000E+00

     total cpu time spent up to now is        0.6 secs

     total energy              =    -198.43518525 Ry
     Harris-Foulkes estimate   =    -198.43586315 Ry
     estimated scf accuracy    <       0.00154108 Ry

     iteration #  4     ecut=    35.00 Ry     beta= 0.70
     Davidson diagonalization with overlap
     ethr =  9.63E-06,  avg # of iterations =  2.0

     negative rho (up, down):  9.189E-02 0.000E+00

     total cpu time spent up to now is        0.6 secs

     total energy              =    -198.43554345 Ry
     Harris-Foulkes estimate   =    -198.43568809 Ry
     estimated scf accuracy    <       0.00032381 Ry

     iteration #  5     ecut=    35.00 Ry     beta= 0.70
     Davidson diagonalization with overlap
     ethr =  2.02E-06,  avg # of iterations =  1.8

     negative rho (up, down):  9.195E-02 0.000E+00

     total cpu time spent up to now is        0.7 secs

     total energy              =    -198.43560324 Ry
     Harris-Foulkes estimate   =    -198.43560355 Ry
     estimated scf accuracy    <       0.00000086 Ry

     iteration #  6     ecut=    35.00 Ry     beta= 0.70
     Davidson diagonalization with overlap
     ethr =  5.38E-09,  avg # of iterations =  3.0

     negative rho (up, down):  9.196E-02 0.000E+00

     total cpu time spent up to now is        0.7 secs

     total energy              =    -198.43560363 Ry
     Harris-Foulkes estimate   =    -198.43560378 Ry
     estimated scf accuracy    <       0.00000038 Ry

     iteration #  7     ecut=    35.00 Ry     beta= 0.70
     Davidson diagonalization with overlap
     ethr =  2.40E-09,  avg # of iterations =  1.5

     negative rho (up, down):  9.196E-02 0.000E+00

     total cpu time spent up to now is        0.7 secs

     End of self-consistent calculation

          k = 0.0000 0.0000 0.0000 (   259 PWs)   bands (ev):

   -20.4634 -20.4634 -20.4634  20.0078  25.1791  25.1791  25.1791  28.0582
    28.0582  48.4187  55.5754  55.5754

          k =-0.3333 0.3333-0.3333 (   238 PWs)   bands (ev):

   -21.5851 -20.6109 -20.6109  21.7690  25.3972  25.3972  27.2868  29.1388
    29.1388  45.3703  49.5878  59.3631

          k = 0.0000 0.6667 0.0000 (   238 PWs)   bands (ev):

   -21.5244 -20.8645 -20.8645  21.8618  22.0674  28.9476  28.9476  29.4491
    29.6373  49.9990  49.9990  50.2307

          k = 0.6667-0.0000 0.6667 (   236 PWs)   bands (ev):

   -21.4619 -21.4501 -20.8121  22.4791  23.9640  25.6115  27.6883  29.4098
    38.4146  42.6033  45.1895  53.0163

     the Fermi energy is    29.5022 ev

!    total energy              =    -198.43560369 Ry
     Harris-Foulkes estimate   =    -198.43560369 Ry
     estimated scf accuracy    <          4.2E-10 Ry

     The total energy is the sum of the following terms:

     one-electron contribution =     -11.96518839 Ry
     hartree contribution      =      25.90745906 Ry
     xc contribution           =     -31.79684440 Ry
     ewald contribution        =    -180.57302943 Ry
     smearing contrib. (-TS)   =      -0.00800053 Ry

     convergence has been achieved in   7 iterations

     Writing output data file Pd-kp-conv.save/
 
     init_run     :      0.31s CPU      0.32s WALL (       1 calls)
     electrons    :      0.29s CPU      0.35s WALL (       1 calls)

     Called by init_run:
     wfcinit      :      0.01s CPU      0.01s WALL (       1 calls)
     potinit      :      0.00s CPU      0.01s WALL (       1 calls)
     hinit0       :      0.29s CPU      0.29s WALL (       1 calls)

     Called by electrons:
     c_bands      :      0.17s CPU      0.19s WALL (       7 calls)
     sum_band     :      0.07s CPU      0.07s WALL (       7 calls)
     v_of_rho     :      0.02s CPU      0.02s WALL (       8 calls)
     newd         :      0.04s CPU      0.04s WALL (       8 calls)
     mix_rho      :      0.00s CPU      0.00s WALL (       7 calls)

     Called by c_bands:
     init_us_2    :      0.00s CPU      0.00s WALL (      60 calls)
     cegterg      :      0.16s CPU      0.17s WALL (      28 calls)

     Called by sum_band:
     sum_band:bec :      0.00s CPU      0.00s WALL (      28 calls)
     addusdens    :      0.04s CPU      0.04s WALL (       7 calls)

     Called by *egterg:
     h_psi        :      0.12s CPU      0.13s WALL (      96 calls)
     s_psi        :      0.00s CPU      0.00s WALL (      96 calls)
     g_psi        :      0.00s CPU      0.00s WALL (      64 calls)
     cdiaghg      :      0.03s CPU      0.03s WALL (      92 calls)

     Called by h_psi:
     h_psi:pot    :      0.12s CPU      0.13s WALL (      96 calls)
     h_psi:calbec :      0.00s CPU      0.00s WALL (      96 calls)
     vloc_psi     :      0.11s CPU      0.12s WALL (      96 calls)
     add_vuspsi   :      0.00s CPU      0.00s WALL (      96 calls)

     General routines
     calbec       :      0.00s CPU      0.01s WALL (     124 calls)
     fft          :      0.01s CPU      0.01s WALL (      89 calls)
     ffts         :      0.00s CPU      0.00s WALL (       7 calls)
     fftw         :      0.11s CPU      0.12s WALL (    2068 calls)
 
     Parallel routines
     fft_scatt_xy :      0.02s CPU      0.02s WALL (    2164 calls)
     fft_scatt_yz :      0.03s CPU      0.04s WALL (    2164 calls)
 
     PWSCF        :     0.68s CPU         0.83s WALL

 
   This run was terminated on:  23: 9:58   2Dec2021            

=------------------------------------------------------------------------------=
   JOB DONE.
=------------------------------------------------------------------------------=
