
     Program PWSCF v.6.3 starts on  2Dec2021 at 22:47:24 

     This program is part of the open-source Quantum ESPRESSO suite
     for quantum simulation of materials; please cite
         "P. Giannozzi et al., J. Phys.:Condens. Matter 21 395502 (2009);
         "P. Giannozzi et al., J. Phys.:Condens. Matter 29 465901 (2017);
          URL http://www.quantum-espresso.org", 
     in publications or presentations arising from this work. More details at
     http://www.quantum-espresso.org/quote

     Parallel version (MPI & OpenMP), running on       2 processor cores
     Number of MPI processes:                 2
     Threads/MPI process:                     1

     MPI processes distributed on     1 nodes
     R & G space division:  proc/nbgrp/npool/nimage =       2
     Reading input from pw-input.in

     Current dimensions of program PWSCF are:
     Max number of different atomic species (ntypx) = 10
     Max number of k-points (npk) =  40000
     Max angular momentum in pseudopotentials (lmaxx) =  3

     Subspace diagonalization in iterative solution of the eigenvalue problem:
     a serial algorithm will be used

 
     Parallelization info
     --------------------
     sticks:   dense  smooth     PW     G-vecs:    dense   smooth      PW
     Min         126     126     42                 1318     1318     267
     Max         127     127     43                 1319     1319     270
     Sum         253     253     85                 2637     2637     537
 

     Title: 
     Pd-kp-conv                                                                 


     bravais-lattice index     =            2
     lattice parameter (alat)  =       7.2000  a.u.
     unit-cell volume          =      93.3120 (a.u.)^3
     number of atoms/cell      =            1
     number of atomic types    =            1
     number of electrons       =        16.00
     number of Kohn-Sham states=           12
     kinetic-energy cutoff     =      35.0000  Ry
     charge density cutoff     =     140.0000  Ry
     convergence threshold     =      1.0E-07
     mixing beta               =       0.7000
     number of iterations used =            8  plain     mixing
     Exchange-correlation      =  SLA  PW   PBX  PBC ( 1  4  3  4 0 0)

     celldm(1)=   7.200000  celldm(2)=   0.000000  celldm(3)=   0.000000
     celldm(4)=   0.000000  celldm(5)=   0.000000  celldm(6)=   0.000000

     crystal axes: (cart. coord. in units of alat)
               a(1) = (  -0.500000   0.000000   0.500000 )  
               a(2) = (   0.000000   0.500000   0.500000 )  
               a(3) = (  -0.500000   0.500000   0.000000 )  

     reciprocal axes: (cart. coord. in units 2 pi/alat)
               b(1) = ( -1.000000 -1.000000  1.000000 )  
               b(2) = (  1.000000  1.000000  1.000000 )  
               b(3) = ( -1.000000  1.000000 -1.000000 )  


     PseudoPot. # 1 for Pd read from file:
     ./pd_pbe_v1.4.uspp.F.UPF
     MD5 check sum: 2d733d2bc2cbfd217af676df1668a4bc
     Pseudo is Ultrasoft + core correction, Zval = 16.0
     Generated by new atomic code, or converted to UPF format
     Using radial grid of  887 points,  6 beta functions with: 
                l(1) =   0
                l(2) =   0
                l(3) =   1
                l(4) =   1
                l(5) =   2
                l(6) =   2
     Q(r) pseudized with  8 coefficients,  rinner =    1.130   1.130   1.130
                                                       1.130   1.130

     atomic species   valence    mass     pseudopotential
        Pd            16.00   106.40000     Pd( 1.00)

     48 Sym. Ops., with inversion, found



   Cartesian axes

     site n.     atom                  positions (alat units)
         1           Pd  tau(   1) = (   0.0000000   0.0000000   0.0000000  )

     number of k points=    16  Marzari-Vanderbilt smearing, width (Ry)=  0.0350
                       cart. coord. in units 2pi/alat
        k(    1) = (   0.0000000   0.0000000   0.0000000), wk =   0.0092593
        k(    2) = (  -0.1666667   0.1666667  -0.1666667), wk =   0.0740741
        k(    3) = (  -0.3333333   0.3333333  -0.3333333), wk =   0.0740741
        k(    4) = (   0.5000000  -0.5000000   0.5000000), wk =   0.0370370
        k(    5) = (   0.0000000   0.3333333   0.0000000), wk =   0.0555556
        k(    6) = (  -0.1666667   0.5000000  -0.1666667), wk =   0.2222222
        k(    7) = (   0.6666667  -0.3333333   0.6666667), wk =   0.2222222
        k(    8) = (   0.5000000  -0.1666667   0.5000000), wk =   0.2222222
        k(    9) = (   0.3333333   0.0000000   0.3333333), wk =   0.1111111
        k(   10) = (   0.0000000   0.6666667   0.0000000), wk =   0.0555556
        k(   11) = (   0.8333333  -0.1666667   0.8333333), wk =   0.2222222
        k(   12) = (   0.6666667  -0.0000000   0.6666667), wk =   0.1111111
        k(   13) = (   0.0000000  -1.0000000   0.0000000), wk =   0.0277778
        k(   14) = (   0.6666667  -0.3333333   1.0000000), wk =   0.2222222
        k(   15) = (   0.5000000  -0.1666667   0.8333333), wk =   0.2222222
        k(   16) = (  -0.3333333  -1.0000000   0.0000000), wk =   0.1111111

     Dense  grid:     2637 G-vectors     FFT dimensions: (  20,  20,  20)

     Estimated max dynamical RAM per process >       6.23 MB

     Estimated total dynamical RAM >      12.46 MB

     Initial potential from superposition of free atoms
     Check: negative starting charge=   -0.084445

     starting charge   15.49999, renormalised to   16.00000

     negative rho (up, down):  8.717E-02 0.000E+00
     Starting wfcs are   12 randomized atomic wfcs

     total cpu time spent up to now is        0.5 secs

     Self-consistent Calculation

     iteration #  1     ecut=    35.00 Ry     beta= 0.70
     Davidson diagonalization with overlap
     ethr =  1.00E-02,  avg # of iterations =  3.5

     negative rho (up, down):  8.680E-02 0.000E+00

     total cpu time spent up to now is        0.7 secs

     total energy              =    -198.28451599 Ry
     Harris-Foulkes estimate   =    -198.99965985 Ry
     estimated scf accuracy    <       0.99361566 Ry

     iteration #  2     ecut=    35.00 Ry     beta= 0.70
     Davidson diagonalization with overlap
     ethr =  6.21E-03,  avg # of iterations =  2.0

     negative rho (up, down):  8.804E-02 0.000E+00

     total cpu time spent up to now is        0.9 secs

     total energy              =    -198.52084472 Ry
     Harris-Foulkes estimate   =    -198.91994156 Ry
     estimated scf accuracy    <       0.76682536 Ry

     iteration #  3     ecut=    35.00 Ry     beta= 0.70
     Davidson diagonalization with overlap
     ethr =  4.79E-03,  avg # of iterations =  2.1

     negative rho (up, down):  8.858E-02 0.000E+00

     total cpu time spent up to now is        1.0 secs

     total energy              =    -198.69371596 Ry
     Harris-Foulkes estimate   =    -198.69616585 Ry
     estimated scf accuracy    <       0.00477618 Ry

     iteration #  4     ecut=    35.00 Ry     beta= 0.70
     Davidson diagonalization with overlap
     ethr =  2.99E-05,  avg # of iterations =  2.0

     negative rho (up, down):  8.874E-02 0.000E+00

     total cpu time spent up to now is        1.1 secs

     total energy              =    -198.69492846 Ry
     Harris-Foulkes estimate   =    -198.69501637 Ry
     estimated scf accuracy    <       0.00018170 Ry

     iteration #  5     ecut=    35.00 Ry     beta= 0.70
     Davidson diagonalization with overlap
     ethr =  1.14E-06,  avg # of iterations =  2.2

     negative rho (up, down):  8.879E-02 0.000E+00

     total cpu time spent up to now is        1.2 secs

     total energy              =    -198.69496234 Ry
     Harris-Foulkes estimate   =    -198.69496228 Ry
     estimated scf accuracy    <       0.00000022 Ry

     iteration #  6     ecut=    35.00 Ry     beta= 0.70
     Davidson diagonalization with overlap
     ethr =  1.39E-09,  avg # of iterations =  2.8

     negative rho (up, down):  8.879E-02 0.000E+00

     total cpu time spent up to now is        1.4 secs

     End of self-consistent calculation

          k = 0.0000 0.0000 0.0000 (   331 PWs)   bands (ev):

   -29.4918 -29.4918 -29.4918  12.7681  17.2280  17.2280  17.2280  19.0104
    19.0104  38.4630  43.6223  43.6223

          k =-0.1667 0.1667-0.1667 (   320 PWs)   bands (ev):

   -29.6227 -29.5099 -29.5099  13.7474  16.9753  17.5118  17.5118  18.9394
    18.9394  38.5261  39.8069  44.6554

          k =-0.3333 0.3333-0.3333 (   332 PWs)   bands (ev):

   -29.8804 -29.5465 -29.5465  14.7255  17.3972  17.3972  18.4701  19.6826
    19.6826  32.5138  38.7109  44.5941

          k = 0.5000-0.5000 0.5000 (   332 PWs)   bands (ev):

   -30.0065 -29.5648 -29.5648  14.5809  17.1718  17.1718  20.3493  20.3493
    21.3111  28.2773  37.6937  42.8713

          k = 0.0000 0.3333 0.0000 (   327 PWs)   bands (ev):

   -29.6182 -29.5399 -29.5399  14.0764  16.5090  17.8881  17.8881  18.3471
    19.3169  39.8535  40.7713  41.9627

          k =-0.1667 0.5000-0.1667 (   326 PWs)   bands (ev):

   -29.8074 -29.5833 -29.5821  15.2332  16.3652  17.4332  18.1602  19.9163
    19.9252  35.1164  39.4932  40.3400

          k = 0.6667-0.3333 0.6667 (   321 PWs)   bands (ev):

   -29.9545 -29.6406 -29.5944  15.1810  16.6916  17.8432  18.0149  20.3993
    23.6034  29.0348  37.5977  40.3137

          k = 0.5000-0.1667 0.5000 (   329 PWs)   bands (ev):

   -29.9143 -29.6574 -29.5649  15.4007  16.8638  17.8023  17.8140  19.4939
    22.7269  30.9850  36.8430  40.5272

          k = 0.3333 0.0000 0.3333 (   325 PWs)   bands (ev):

   -29.7469 -29.5947 -29.5225  15.0616  16.5252  17.5335  18.0869  18.3321
    20.1647  36.8574  37.8835  43.4352

          k = 0.0000 0.6667 0.0000 (   323 PWs)   bands (ev):

   -29.8616 -29.6356 -29.6356  15.0044  15.2808  19.5557  19.5557  19.9647
    19.9701  36.9151  36.9151  37.0713

          k = 0.8333-0.1667 0.8333 (   326 PWs)   bands (ev):

   -29.9260 -29.7144 -29.6537  14.9581  15.3728  18.7747  19.4343  20.5146
    24.4388  31.7615  33.9114  36.2376

          k = 0.6667-0.0000 0.6667 (   323 PWs)   bands (ev):

   -29.8404 -29.8383 -29.6184  15.5526  16.3800  17.4283  18.8467  19.8369
    26.7436  29.8568  32.0874  39.0747

          k = 0.0000-1.0000 0.0000 (   326 PWs)   bands (ev):

   -29.9773 -29.6834 -29.6834  14.4358  14.7423  20.3179  20.7040  20.7040
    23.8041  31.8922  34.2646  34.2646

          k = 0.6667-0.3333 1.0000 (   332 PWs)   bands (ev):

   -29.8766 -29.7038 -29.6096  15.9264  15.9446  17.0411  19.1888  19.5407
    23.1315  33.8726  34.1717  37.6162

          k = 0.5000-0.1667 0.8333 (   324 PWs)   bands (ev):

   -29.8929 -29.7656 -29.6389  15.9664  16.0934  17.1013  18.6956  20.2563
    27.1715  28.5489  34.8648  35.2488

          k =-0.3333-1.0000 0.0000 (   330 PWs)   bands (ev):

   -29.9049 -29.7577 -29.6864  15.2244  15.6005  18.0351  19.3378  20.7059
    27.3705  31.6155  31.9742  32.8761

     the Fermi energy is    20.3572 ev

!    total energy              =    -198.69496253 Ry
     Harris-Foulkes estimate   =    -198.69496254 Ry
     estimated scf accuracy    <       0.00000001 Ry

     The total energy is the sum of the following terms:

     one-electron contribution =     -37.92227751 Ry
     hartree contribution      =      33.65342373 Ry
     xc contribution           =     -31.41082876 Ry
     ewald contribution        =    -163.01731824 Ry
     smearing contrib. (-TS)   =       0.00203825 Ry

     convergence has been achieved in   6 iterations

     Writing output data file Pd-kp-conv.save/
 
     init_run     :      0.37s CPU      0.40s WALL (       1 calls)
     electrons    :      0.79s CPU      1.23s WALL (       1 calls)

     Called by init_run:
     wfcinit      :      0.05s CPU      0.05s WALL (       1 calls)
     potinit      :      0.00s CPU      0.02s WALL (       1 calls)
     hinit0       :      0.31s CPU      0.31s WALL (       1 calls)

     Called by electrons:
     c_bands      :      0.61s CPU      0.66s WALL (       6 calls)
     sum_band     :      0.13s CPU      0.14s WALL (       6 calls)
     v_of_rho     :      0.02s CPU      0.02s WALL (       7 calls)
     newd         :      0.04s CPU      0.04s WALL (       7 calls)
     mix_rho      :      0.00s CPU      0.00s WALL (       6 calls)

     Called by c_bands:
     init_us_2    :      0.02s CPU      0.02s WALL (     208 calls)
     cegterg      :      0.56s CPU      0.61s WALL (      96 calls)

     Called by sum_band:
     sum_band:bec :      0.00s CPU      0.00s WALL (      96 calls)
     addusdens    :      0.03s CPU      0.04s WALL (       6 calls)

     Called by *egterg:
     h_psi        :      0.45s CPU      0.49s WALL (     344 calls)
     s_psi        :      0.01s CPU      0.01s WALL (     344 calls)
     g_psi        :      0.01s CPU      0.01s WALL (     232 calls)
     cdiaghg      :      0.09s CPU      0.10s WALL (     328 calls)

     Called by h_psi:
     h_psi:pot    :      0.45s CPU      0.49s WALL (     344 calls)
     h_psi:calbec :      0.01s CPU      0.01s WALL (     344 calls)
     vloc_psi     :      0.42s CPU      0.46s WALL (     344 calls)
     add_vuspsi   :      0.01s CPU      0.01s WALL (     344 calls)

     General routines
     calbec       :      0.01s CPU      0.02s WALL (     440 calls)
     fft          :      0.01s CPU      0.01s WALL (      78 calls)
     ffts         :      0.00s CPU      0.00s WALL (       6 calls)
     fftw         :      0.43s CPU      0.47s WALL (    7354 calls)
 
     Parallel routines
     fft_scatt_xy :      0.08s CPU      0.09s WALL (    7438 calls)
     fft_scatt_yz :      0.11s CPU      0.12s WALL (    7438 calls)
 
     PWSCF        :     1.26s CPU         1.84s WALL

 
   This run was terminated on:  22:47:26   2Dec2021            

=------------------------------------------------------------------------------=
   JOB DONE.
=------------------------------------------------------------------------------=
