
     Program PWSCF v.6.3 starts on  2Dec2021 at 22:48: 0 

     This program is part of the open-source Quantum ESPRESSO suite
     for quantum simulation of materials; please cite
         "P. Giannozzi et al., J. Phys.:Condens. Matter 21 395502 (2009);
         "P. Giannozzi et al., J. Phys.:Condens. Matter 29 465901 (2017);
          URL http://www.quantum-espresso.org", 
     in publications or presentations arising from this work. More details at
     http://www.quantum-espresso.org/quote

     Parallel version (MPI & OpenMP), running on       2 processor cores
     Number of MPI processes:                 2
     Threads/MPI process:                     1

     MPI processes distributed on     1 nodes
     R & G space division:  proc/nbgrp/npool/nimage =       2
     Reading input from pw-input.in

     Current dimensions of program PWSCF are:
     Max number of different atomic species (ntypx) = 10
     Max number of k-points (npk) =  40000
     Max angular momentum in pseudopotentials (lmaxx) =  3

     Subspace diagonalization in iterative solution of the eigenvalue problem:
     a serial algorithm will be used

 
     Parallelization info
     --------------------
     sticks:   dense  smooth     PW     G-vecs:    dense   smooth      PW
     Min         174     174     60                 2142     2142     434
     Max         175     175     61                 2143     2143     435
     Sum         349     349    121                 4285     4285     869
 

     Title: 
     Pd-kp-conv                                                                 


     bravais-lattice index     =            2
     lattice parameter (alat)  =       8.5000  a.u.
     unit-cell volume          =     153.5312 (a.u.)^3
     number of atoms/cell      =            1
     number of atomic types    =            1
     number of electrons       =        16.00
     number of Kohn-Sham states=           12
     kinetic-energy cutoff     =      35.0000  Ry
     charge density cutoff     =     140.0000  Ry
     convergence threshold     =      1.0E-07
     mixing beta               =       0.7000
     number of iterations used =            8  plain     mixing
     Exchange-correlation      =  SLA  PW   PBX  PBC ( 1  4  3  4 0 0)

     celldm(1)=   8.500000  celldm(2)=   0.000000  celldm(3)=   0.000000
     celldm(4)=   0.000000  celldm(5)=   0.000000  celldm(6)=   0.000000

     crystal axes: (cart. coord. in units of alat)
               a(1) = (  -0.500000   0.000000   0.500000 )  
               a(2) = (   0.000000   0.500000   0.500000 )  
               a(3) = (  -0.500000   0.500000   0.000000 )  

     reciprocal axes: (cart. coord. in units 2 pi/alat)
               b(1) = ( -1.000000 -1.000000  1.000000 )  
               b(2) = (  1.000000  1.000000  1.000000 )  
               b(3) = ( -1.000000  1.000000 -1.000000 )  


     PseudoPot. # 1 for Pd read from file:
     ./pd_pbe_v1.4.uspp.F.UPF
     MD5 check sum: 2d733d2bc2cbfd217af676df1668a4bc
     Pseudo is Ultrasoft + core correction, Zval = 16.0
     Generated by new atomic code, or converted to UPF format
     Using radial grid of  887 points,  6 beta functions with: 
                l(1) =   0
                l(2) =   0
                l(3) =   1
                l(4) =   1
                l(5) =   2
                l(6) =   2
     Q(r) pseudized with  8 coefficients,  rinner =    1.130   1.130   1.130
                                                       1.130   1.130

     atomic species   valence    mass     pseudopotential
        Pd            16.00   106.40000     Pd( 1.00)

     48 Sym. Ops., with inversion, found



   Cartesian axes

     site n.     atom                  positions (alat units)
         1           Pd  tau(   1) = (   0.0000000   0.0000000   0.0000000  )

     number of k points=    16  Marzari-Vanderbilt smearing, width (Ry)=  0.0350
                       cart. coord. in units 2pi/alat
        k(    1) = (   0.0000000   0.0000000   0.0000000), wk =   0.0092593
        k(    2) = (  -0.1666667   0.1666667  -0.1666667), wk =   0.0740741
        k(    3) = (  -0.3333333   0.3333333  -0.3333333), wk =   0.0740741
        k(    4) = (   0.5000000  -0.5000000   0.5000000), wk =   0.0370370
        k(    5) = (   0.0000000   0.3333333   0.0000000), wk =   0.0555556
        k(    6) = (  -0.1666667   0.5000000  -0.1666667), wk =   0.2222222
        k(    7) = (   0.6666667  -0.3333333   0.6666667), wk =   0.2222222
        k(    8) = (   0.5000000  -0.1666667   0.5000000), wk =   0.2222222
        k(    9) = (   0.3333333   0.0000000   0.3333333), wk =   0.1111111
        k(   10) = (   0.0000000   0.6666667   0.0000000), wk =   0.0555556
        k(   11) = (   0.8333333  -0.1666667   0.8333333), wk =   0.2222222
        k(   12) = (   0.6666667  -0.0000000   0.6666667), wk =   0.1111111
        k(   13) = (   0.0000000  -1.0000000   0.0000000), wk =   0.0277778
        k(   14) = (   0.6666667  -0.3333333   1.0000000), wk =   0.2222222
        k(   15) = (   0.5000000  -0.1666667   0.8333333), wk =   0.2222222
        k(   16) = (  -0.3333333  -1.0000000   0.0000000), wk =   0.1111111

     Dense  grid:     4285 G-vectors     FFT dimensions: (  24,  24,  24)

     Estimated max dynamical RAM per process >       9.67 MB

     Estimated total dynamical RAM >      19.34 MB

     Check: negative/imaginary core charge=   -0.000001    0.000000

     Initial potential from superposition of free atoms
     Check: negative starting charge=   -0.084050

     starting charge   15.49999, renormalised to   16.00000

     negative rho (up, down):  8.676E-02 0.000E+00
     Starting wfcs are   12 randomized atomic wfcs

     total cpu time spent up to now is        0.6 secs

     Self-consistent Calculation

     iteration #  1     ecut=    35.00 Ry     beta= 0.70
     Davidson diagonalization with overlap
     ethr =  1.00E-02,  avg # of iterations =  3.1

     negative rho (up, down):  8.375E-02 0.000E+00

     total cpu time spent up to now is        0.8 secs

     total energy              =    -197.72808934 Ry
     Harris-Foulkes estimate   =    -199.06620040 Ry
     estimated scf accuracy    <       1.80151431 Ry

     iteration #  2     ecut=    35.00 Ry     beta= 0.70
     Davidson diagonalization with overlap
     ethr =  1.00E-02,  avg # of iterations =  2.0

     negative rho (up, down):  8.603E-02 0.000E+00

     total cpu time spent up to now is        1.0 secs

     total energy              =    -198.19899760 Ry
     Harris-Foulkes estimate   =    -199.48624793 Ry
     estimated scf accuracy    <       2.79708563 Ry

     iteration #  3     ecut=    35.00 Ry     beta= 0.70
     Davidson diagonalization with overlap
     ethr =  1.00E-02,  avg # of iterations =  2.0

     negative rho (up, down):  8.612E-02 0.000E+00

     total cpu time spent up to now is        1.2 secs

     total energy              =    -198.63958181 Ry
     Harris-Foulkes estimate   =    -198.64045716 Ry
     estimated scf accuracy    <       0.00270221 Ry

     iteration #  4     ecut=    35.00 Ry     beta= 0.70
     Davidson diagonalization with overlap
     ethr =  1.69E-05,  avg # of iterations =  3.1

     negative rho (up, down):  8.618E-02 0.000E+00

     total cpu time spent up to now is        1.4 secs

     total energy              =    -198.64004578 Ry
     Harris-Foulkes estimate   =    -198.64005899 Ry
     estimated scf accuracy    <       0.00005823 Ry

     iteration #  5     ecut=    35.00 Ry     beta= 0.70
     Davidson diagonalization with overlap
     ethr =  3.64E-07,  avg # of iterations =  2.1

     negative rho (up, down):  8.618E-02 0.000E+00

     total cpu time spent up to now is        1.6 secs

     total energy              =    -198.64005167 Ry
     Harris-Foulkes estimate   =    -198.64005189 Ry
     estimated scf accuracy    <       0.00000043 Ry

     iteration #  6     ecut=    35.00 Ry     beta= 0.70
     Davidson diagonalization with overlap
     ethr =  2.69E-09,  avg # of iterations =  2.1

     negative rho (up, down):  8.617E-02 0.000E+00

     total cpu time spent up to now is        1.8 secs

     total energy              =    -198.64005182 Ry
     Harris-Foulkes estimate   =    -198.64005188 Ry
     estimated scf accuracy    <       0.00000013 Ry

     iteration #  7     ecut=    35.00 Ry     beta= 0.70
     Davidson diagonalization with overlap
     ethr =  8.17E-10,  avg # of iterations =  1.9

     negative rho (up, down):  8.617E-02 0.000E+00

     total cpu time spent up to now is        2.3 secs

     End of self-consistent calculation

          k = 0.0000 0.0000 0.0000 (   537 PWs)   bands (ev):

   -38.9809 -38.9809 -38.9809   5.5298   8.4225   8.4225   8.4225   9.2041
     9.2041  26.3766  28.6763  28.6763

          k =-0.1667 0.1667-0.1667 (   540 PWs)   bands (ev):

   -38.9999 -38.9838 -38.9838   6.1956   8.3306   8.5548   8.5548   9.1856
     9.1856  23.8448  26.9257  28.4479

          k =-0.3333 0.3333-0.3333 (   531 PWs)   bands (ev):

   -39.0373 -38.9896 -38.9896   7.1086   8.5146   8.5146   9.3006   9.5107
     9.5107  18.2626  26.1833  27.4628

          k = 0.5000-0.5000 0.5000 (   544 PWs)   bands (ev):

   -39.0565 -38.9926 -38.9926   7.1134   8.4167   8.4167   9.7835   9.7835
    11.7264  14.4670  25.6108  26.7308

          k = 0.0000 0.3333 0.0000 (   540 PWs)   bands (ev):

   -38.9992 -38.9881 -38.9881   6.4198   8.1205   8.7259   8.7259   8.9477
     9.3412  25.9397  25.9397  26.2706

          k =-0.1667 0.5000-0.1667 (   537 PWs)   bands (ev):

   -39.0269 -38.9950 -38.9949   7.3692   8.0683   8.5457   8.8545   9.6020
     9.7811  20.4926  24.5310  25.4415

          k = 0.6667-0.3333 0.6667 (   540 PWs)   bands (ev):

   -39.0492 -39.0037 -38.9971   7.4437   8.2417   8.7224   8.8806   9.8028
    12.4072  15.5025  23.1576  24.6044

          k = 0.5000-0.1667 0.5000 (   541 PWs)   bands (ev):

   -39.0430 -39.0061 -38.9927   7.5339   8.3012   8.7122   8.8193   9.4332
    11.4877  17.0786  22.1113  26.5569

          k = 0.3333 0.0000 0.3333 (   537 PWs)   bands (ev):

   -39.0179 -38.9965 -38.9859   7.1211   8.1359   8.5995   8.8158   8.9402
     9.7661  22.2422  22.6665  28.3642

          k = 0.0000 0.6667 0.0000 (   540 PWs)   bands (ev):

   -39.0352 -39.0031 -39.0031   7.3893   7.5618   9.4628   9.4628   9.6228
    10.1385  21.8267  22.3418  22.3418

          k = 0.8333-0.1667 0.8333 (   528 PWs)   bands (ev):

   -39.0451 -39.0146 -39.0059   7.4175   7.6161   9.1974   9.4153   9.8511
    12.9201  18.0900  19.3171  21.9377

          k = 0.6667-0.0000 0.6667 (   528 PWs)   bands (ev):

   -39.0328 -39.0325 -39.0008   7.6909   8.1168   8.5728   9.1750   9.5732
    14.3518  16.6652  17.7981  23.6217

          k = 0.0000-1.0000 0.0000 (   524 PWs)   bands (ev):

   -39.0529 -39.0103 -39.0103   7.1776   7.3033   9.7701   9.9297   9.9297
    13.3079  16.9518  20.8136  20.8136

          k = 0.6667-0.3333 1.0000 (   535 PWs)   bands (ev):

   -39.0376 -39.0128 -38.9993   7.8699   7.8817   8.3683   9.3415   9.4551
    11.7170  19.5650  19.7812  22.6163

          k = 0.5000-0.1667 0.8333 (   534 PWs)   bands (ev):

   -39.0404 -39.0221 -39.0037   7.9213   7.9335   8.4273   9.1120   9.7498
    14.9611  15.1879  20.0258  20.9372

          k =-0.3333-1.0000 0.0000 (   530 PWs)   bands (ev):

   -39.0424 -39.0210 -39.0107   7.5797   7.7054   8.8544   9.3869   9.9294
    15.1855  17.0245  18.4992  19.1419

     the Fermi energy is     9.8858 ev

!    total energy              =    -198.64005185 Ry
     Harris-Foulkes estimate   =    -198.64005185 Ry
     estimated scf accuracy    <          2.4E-09 Ry

     The total energy is the sum of the following terms:

     one-electron contribution =     -77.14407672 Ry
     hartree contribution      =      47.75439202 Ry
     xc contribution           =     -31.17012527 Ry
     ewald contribution        =    -138.08525782 Ry
     smearing contrib. (-TS)   =       0.00501594 Ry

     convergence has been achieved in   7 iterations

     Writing output data file Pd-kp-conv.save/
 
     init_run     :      0.43s CPU      0.46s WALL (       1 calls)
     electrons    :      1.33s CPU      1.75s WALL (       1 calls)

     Called by init_run:
     wfcinit      :      0.07s CPU      0.07s WALL (       1 calls)
     potinit      :      0.01s CPU      0.02s WALL (       1 calls)
     hinit0       :      0.34s CPU      0.34s WALL (       1 calls)

     Called by electrons:
     c_bands      :      0.99s CPU      1.04s WALL (       7 calls)
     sum_band     :      0.25s CPU      0.25s WALL (       7 calls)
     v_of_rho     :      0.03s CPU      0.04s WALL (       8 calls)
     newd         :      0.06s CPU      0.07s WALL (       8 calls)
     mix_rho      :      0.00s CPU      0.00s WALL (       7 calls)

     Called by c_bands:
     init_us_2    :      0.03s CPU      0.03s WALL (     240 calls)
     cegterg      :      0.91s CPU      0.95s WALL (     112 calls)

     Called by sum_band:
     sum_band:bec :      0.00s CPU      0.00s WALL (     112 calls)
     addusdens    :      0.06s CPU      0.06s WALL (       7 calls)

     Called by *egterg:
     h_psi        :      0.78s CPU      0.82s WALL (     388 calls)
     s_psi        :      0.01s CPU      0.01s WALL (     388 calls)
     g_psi        :      0.01s CPU      0.01s WALL (     260 calls)
     cdiaghg      :      0.09s CPU      0.10s WALL (     372 calls)

     Called by h_psi:
     h_psi:pot    :      0.78s CPU      0.81s WALL (     388 calls)
     h_psi:calbec :      0.02s CPU      0.02s WALL (     388 calls)
     vloc_psi     :      0.74s CPU      0.78s WALL (     388 calls)
     add_vuspsi   :      0.01s CPU      0.01s WALL (     388 calls)

     General routines
     calbec       :      0.02s CPU      0.02s WALL (     500 calls)
     fft          :      0.02s CPU      0.02s WALL (      89 calls)
     ffts         :      0.00s CPU      0.00s WALL (       7 calls)
     fftw         :      0.77s CPU      0.80s WALL (    8234 calls)
 
     Parallel routines
     fft_scatt_xy :      0.14s CPU      0.15s WALL (    8330 calls)
     fft_scatt_yz :      0.18s CPU      0.19s WALL (    8330 calls)
 
     PWSCF        :     1.85s CPU         2.42s WALL

 
   This run was terminated on:  22:48: 3   2Dec2021            

=------------------------------------------------------------------------------=
   JOB DONE.
=------------------------------------------------------------------------------=
