
     Program PWSCF v.6.3 starts on  2Dec2021 at 20:47:54 

     This program is part of the open-source Quantum ESPRESSO suite
     for quantum simulation of materials; please cite
         "P. Giannozzi et al., J. Phys.:Condens. Matter 21 395502 (2009);
         "P. Giannozzi et al., J. Phys.:Condens. Matter 29 465901 (2017);
          URL http://www.quantum-espresso.org", 
     in publications or presentations arising from this work. More details at
     http://www.quantum-espresso.org/quote

     Parallel version (MPI & OpenMP), running on       2 processor cores
     Number of MPI processes:                 2
     Threads/MPI process:                     1

     MPI processes distributed on     1 nodes
     R & G space division:  proc/nbgrp/npool/nimage =       2
     Reading input from pw-input.in

     Current dimensions of program PWSCF are:
     Max number of different atomic species (ntypx) = 10
     Max number of k-points (npk) =  40000
     Max angular momentum in pseudopotentials (lmaxx) =  3

     Subspace diagonalization in iterative solution of the eigenvalue problem:
     a serial algorithm will be used

 
     Parallelization info
     --------------------
     sticks:   dense  smooth     PW     G-vecs:    dense   smooth      PW
     Min         168     168     60                 2007     2007     434
     Max         169     169     61                 2008     2008     435
     Sum         337     337    121                 4015     4015     869
 

     Title: 
     Pd-kp-conv                                                                 


     bravais-lattice index     =            2
     lattice parameter (alat)  =       8.3000  a.u.
     unit-cell volume          =     142.9468 (a.u.)^3
     number of atoms/cell      =            1
     number of atomic types    =            1
     number of electrons       =        16.00
     number of Kohn-Sham states=           12
     kinetic-energy cutoff     =      35.0000  Ry
     charge density cutoff     =     140.0000  Ry
     convergence threshold     =      1.0E-07
     mixing beta               =       0.7000
     number of iterations used =            8  plain     mixing
     Exchange-correlation      =  SLA  PW   PBX  PBC ( 1  4  3  4 0 0)

     celldm(1)=   8.300000  celldm(2)=   0.000000  celldm(3)=   0.000000
     celldm(4)=   0.000000  celldm(5)=   0.000000  celldm(6)=   0.000000

     crystal axes: (cart. coord. in units of alat)
               a(1) = (  -0.500000   0.000000   0.500000 )  
               a(2) = (   0.000000   0.500000   0.500000 )  
               a(3) = (  -0.500000   0.500000   0.000000 )  

     reciprocal axes: (cart. coord. in units 2 pi/alat)
               b(1) = ( -1.000000 -1.000000  1.000000 )  
               b(2) = (  1.000000  1.000000  1.000000 )  
               b(3) = ( -1.000000  1.000000 -1.000000 )  


     PseudoPot. # 1 for Pd read from file:
     ./pd_pbe_v1.4.uspp.F.UPF
     MD5 check sum: 2d733d2bc2cbfd217af676df1668a4bc
     Pseudo is Ultrasoft + core correction, Zval = 16.0
     Generated by new atomic code, or converted to UPF format
     Using radial grid of  887 points,  6 beta functions with: 
                l(1) =   0
                l(2) =   0
                l(3) =   1
                l(4) =   1
                l(5) =   2
                l(6) =   2
     Q(r) pseudized with  8 coefficients,  rinner =    1.130   1.130   1.130
                                                       1.130   1.130

     atomic species   valence    mass     pseudopotential
        Pd            16.00   106.40000     Pd( 1.00)

     48 Sym. Ops., with inversion, found



   Cartesian axes

     site n.     atom                  positions (alat units)
         1           Pd  tau(   1) = (   0.0000000   0.0000000   0.0000000  )

     number of k points=   413  Marzari-Vanderbilt smearing, width (Ry)=  0.0050

     Number of k-points >= 100: set verbosity='high' to print them.

     Dense  grid:     4015 G-vectors     FFT dimensions: (  24,  24,  24)

     Estimated max dynamical RAM per process >      27.31 MB

     Estimated total dynamical RAM >      54.63 MB

     Initial potential from superposition of free atoms
     Check: negative starting charge=   -0.082880

     starting charge   15.49999, renormalised to   16.00000

     negative rho (up, down):  8.555E-02 0.000E+00
     Starting wfcs are   12 randomized atomic wfcs

     total cpu time spent up to now is        2.3 secs

     Self-consistent Calculation

     iteration #  1     ecut=    35.00 Ry     beta= 0.70
     Davidson diagonalization with overlap
     ethr =  1.00E-02,  avg # of iterations =  3.3

     negative rho (up, down):  8.267E-02 0.000E+00

     total cpu time spent up to now is        7.4 secs

     total energy              =    -197.82469513 Ry
     Harris-Foulkes estimate   =    -199.06737770 Ry
     estimated scf accuracy    <       1.68006809 Ry

     iteration #  2     ecut=    35.00 Ry     beta= 0.70
     Davidson diagonalization with overlap
     ethr =  1.00E-02,  avg # of iterations =  2.0

     negative rho (up, down):  8.496E-02 0.000E+00

     total cpu time spent up to now is       12.1 secs

     total energy              =    -198.22731064 Ry
     Harris-Foulkes estimate   =    -199.39921120 Ry
     estimated scf accuracy    <       2.54080433 Ry

     iteration #  3     ecut=    35.00 Ry     beta= 0.70
     Davidson diagonalization with overlap
     ethr =  1.00E-02,  avg # of iterations =  2.0

     negative rho (up, down):  8.500E-02 0.000E+00

     total cpu time spent up to now is       16.5 secs

     total energy              =    -198.65884387 Ry
     Harris-Foulkes estimate   =    -198.65896175 Ry
     estimated scf accuracy    <       0.00046859 Ry

     iteration #  4     ecut=    35.00 Ry     beta= 0.70
     Davidson diagonalization with overlap
     ethr =  2.93E-06,  avg # of iterations =  2.9

     negative rho (up, down):  8.508E-02 0.000E+00

     total cpu time spent up to now is       21.4 secs

     total energy              =    -198.65904929 Ry
     Harris-Foulkes estimate   =    -198.65905289 Ry
     estimated scf accuracy    <       0.00002025 Ry

     iteration #  5     ecut=    35.00 Ry     beta= 0.70
     Davidson diagonalization with overlap
     ethr =  1.27E-07,  avg # of iterations =  1.1

     negative rho (up, down):  8.508E-02 0.000E+00

     total cpu time spent up to now is       25.0 secs

     total energy              =    -198.65905023 Ry
     Harris-Foulkes estimate   =    -198.65905031 Ry
     estimated scf accuracy    <       0.00000023 Ry

     iteration #  6     ecut=    35.00 Ry     beta= 0.70
     Davidson diagonalization with overlap
     ethr =  1.44E-09,  avg # of iterations =  2.1

     negative rho (up, down):  8.508E-02 0.000E+00

     total cpu time spent up to now is       29.4 secs

     End of self-consistent calculation

     Number of k-points >= 100: set verbosity='high' to print the bands.

     the Fermi energy is    11.0475 ev

!    total energy              =    -198.65905030 Ry
     Harris-Foulkes estimate   =    -198.65905030 Ry
     estimated scf accuracy    <       0.00000001 Ry

     The total energy is the sum of the following terms:

     one-electron contribution =     -71.78102987 Ry
     hartree contribution      =      45.73096122 Ry
     xc contribution           =     -31.19645297 Ry
     ewald contribution        =    -141.41261342 Ry
     smearing contrib. (-TS)   =       0.00008474 Ry

     convergence has been achieved in   6 iterations

     Writing output data file Pd-kp-conv.save/
 
     init_run     :      1.71s CPU      1.83s WALL (       1 calls)
     electrons    :     25.34s CPU     27.09s WALL (       1 calls)

     Called by init_run:
     wfcinit      :      1.34s CPU      1.44s WALL (       1 calls)
     potinit      :      0.01s CPU      0.02s WALL (       1 calls)
     hinit0       :      0.34s CPU      0.35s WALL (       1 calls)

     Called by electrons:
     c_bands      :     21.44s CPU     22.92s WALL (       6 calls)
     sum_band     :      3.84s CPU      4.06s WALL (       6 calls)
     v_of_rho     :      0.03s CPU      0.03s WALL (       7 calls)
     newd         :      0.05s CPU      0.06s WALL (       7 calls)
     mix_rho      :      0.00s CPU      0.00s WALL (       6 calls)

     Called by c_bands:
     init_us_2    :      0.59s CPU      0.63s WALL (    5369 calls)
     cegterg      :     19.78s CPU     21.00s WALL (    2478 calls)

     Called by sum_band:
     sum_band:bec :      0.02s CPU      0.03s WALL (    2478 calls)
     addusdens    :      0.05s CPU      0.06s WALL (       6 calls)

     Called by *egterg:
     h_psi        :     16.98s CPU     18.07s WALL (    8443 calls)
     s_psi        :      0.25s CPU      0.26s WALL (    8443 calls)
     g_psi        :      0.18s CPU      0.19s WALL (    5552 calls)
     cdiaghg      :      2.01s CPU      2.12s WALL (    8030 calls)

     Called by h_psi:
     h_psi:pot    :     16.90s CPU     17.98s WALL (    8443 calls)
     h_psi:calbec :      0.34s CPU      0.36s WALL (    8443 calls)
     vloc_psi     :     16.25s CPU     17.28s WALL (    8443 calls)
     add_vuspsi   :      0.25s CPU      0.27s WALL (    8443 calls)

     General routines
     calbec       :      0.40s CPU      0.43s WALL (   10921 calls)
     fft          :      0.01s CPU      0.01s WALL (      78 calls)
     ffts         :      0.00s CPU      0.00s WALL (       6 calls)
     fftw         :     16.76s CPU     17.78s WALL (  187716 calls)
 
     Parallel routines
     fft_scatt_xy :      2.99s CPU      3.19s WALL (  187800 calls)
     fft_scatt_yz :      3.82s CPU      4.09s WALL (  187800 calls)
 
     PWSCF        :    27.29s CPU        30.83s WALL

 
   This run was terminated on:  20:48:25   2Dec2021            

=------------------------------------------------------------------------------=
   JOB DONE.
=------------------------------------------------------------------------------=
