
     Program PWSCF v.6.3 starts on  2Dec2021 at 23:13:36 

     This program is part of the open-source Quantum ESPRESSO suite
     for quantum simulation of materials; please cite
         "P. Giannozzi et al., J. Phys.:Condens. Matter 21 395502 (2009);
         "P. Giannozzi et al., J. Phys.:Condens. Matter 29 465901 (2017);
          URL http://www.quantum-espresso.org", 
     in publications or presentations arising from this work. More details at
     http://www.quantum-espresso.org/quote

     Parallel version (MPI & OpenMP), running on       2 processor cores
     Number of MPI processes:                 2
     Threads/MPI process:                     1

     MPI processes distributed on     1 nodes
     R & G space division:  proc/nbgrp/npool/nimage =       2
     Reading input from pw-input.in

     Current dimensions of program PWSCF are:
     Max number of different atomic species (ntypx) = 10
     Max number of k-points (npk) =  40000
     Max angular momentum in pseudopotentials (lmaxx) =  3

     Subspace diagonalization in iterative solution of the eigenvalue problem:
     a serial algorithm will be used

 
     Parallelization info
     --------------------
     sticks:   dense  smooth     PW     G-vecs:    dense   smooth      PW
     Min          99      99     36                  957      957     205
     Max         100     100     37                  960      960     206
     Sum         199     199     73                 1917     1917     411
 

     Title: 
     Pd-kp-conv                                                                 


     bravais-lattice index     =            2
     lattice parameter (alat)  =       6.5000  a.u.
     unit-cell volume          =      68.6562 (a.u.)^3
     number of atoms/cell      =            1
     number of atomic types    =            1
     number of electrons       =        16.00
     number of Kohn-Sham states=           12
     kinetic-energy cutoff     =      35.0000  Ry
     charge density cutoff     =     140.0000  Ry
     convergence threshold     =      1.0E-07
     mixing beta               =       0.7000
     number of iterations used =            8  plain     mixing
     Exchange-correlation      =  SLA  PW   PBX  PBC ( 1  4  3  4 0 0)

     celldm(1)=   6.500000  celldm(2)=   0.000000  celldm(3)=   0.000000
     celldm(4)=   0.000000  celldm(5)=   0.000000  celldm(6)=   0.000000

     crystal axes: (cart. coord. in units of alat)
               a(1) = (  -0.500000   0.000000   0.500000 )  
               a(2) = (   0.000000   0.500000   0.500000 )  
               a(3) = (  -0.500000   0.500000   0.000000 )  

     reciprocal axes: (cart. coord. in units 2 pi/alat)
               b(1) = ( -1.000000 -1.000000  1.000000 )  
               b(2) = (  1.000000  1.000000  1.000000 )  
               b(3) = ( -1.000000  1.000000 -1.000000 )  


     PseudoPot. # 1 for Pd read from file:
     ./pd_pbe_v1.4.uspp.F.UPF
     MD5 check sum: 2d733d2bc2cbfd217af676df1668a4bc
     Pseudo is Ultrasoft + core correction, Zval = 16.0
     Generated by new atomic code, or converted to UPF format
     Using radial grid of  887 points,  6 beta functions with: 
                l(1) =   0
                l(2) =   0
                l(3) =   1
                l(4) =   1
                l(5) =   2
                l(6) =   2
     Q(r) pseudized with  8 coefficients,  rinner =    1.130   1.130   1.130
                                                       1.130   1.130

     atomic species   valence    mass     pseudopotential
        Pd            16.00   106.40000     Pd( 1.00)

     48 Sym. Ops., with inversion, found



   Cartesian axes

     site n.     atom                  positions (alat units)
         1           Pd  tau(   1) = (   0.0000000   0.0000000   0.0000000  )

     number of k points=    72  Marzari-Vanderbilt smearing, width (Ry)=  0.0400
                       cart. coord. in units 2pi/alat
        k(    1) = (   0.0000000   0.0000000   0.0000000), wk =   0.0011574
        k(    2) = (  -0.0833333   0.0833333  -0.0833333), wk =   0.0092593
        k(    3) = (  -0.1666667   0.1666667  -0.1666667), wk =   0.0092593
        k(    4) = (  -0.2500000   0.2500000  -0.2500000), wk =   0.0092593
        k(    5) = (  -0.3333333   0.3333333  -0.3333333), wk =   0.0092593
        k(    6) = (  -0.4166667   0.4166667  -0.4166667), wk =   0.0092593
        k(    7) = (   0.5000000  -0.5000000   0.5000000), wk =   0.0046296
        k(    8) = (   0.0000000   0.1666667   0.0000000), wk =   0.0069444
        k(    9) = (  -0.0833333   0.2500000  -0.0833333), wk =   0.0277778
        k(   10) = (  -0.1666667   0.3333333  -0.1666667), wk =   0.0277778
        k(   11) = (  -0.2500000   0.4166667  -0.2500000), wk =   0.0277778
        k(   12) = (  -0.3333333   0.5000000  -0.3333333), wk =   0.0277778
        k(   13) = (   0.5833333  -0.4166667   0.5833333), wk =   0.0277778
        k(   14) = (   0.5000000  -0.3333333   0.5000000), wk =   0.0277778
        k(   15) = (   0.4166667  -0.2500000   0.4166667), wk =   0.0277778
        k(   16) = (   0.3333333  -0.1666667   0.3333333), wk =   0.0277778
        k(   17) = (   0.2500000  -0.0833333   0.2500000), wk =   0.0277778
        k(   18) = (   0.1666667  -0.0000000   0.1666667), wk =   0.0138889
        k(   19) = (   0.0000000   0.3333333   0.0000000), wk =   0.0069444
        k(   20) = (  -0.0833333   0.4166667  -0.0833333), wk =   0.0277778
        k(   21) = (  -0.1666667   0.5000000  -0.1666667), wk =   0.0277778
        k(   22) = (  -0.2500000   0.5833333  -0.2500000), wk =   0.0277778
        k(   23) = (   0.6666667  -0.3333333   0.6666667), wk =   0.0277778
        k(   24) = (   0.5833333  -0.2500000   0.5833333), wk =   0.0277778
        k(   25) = (   0.5000000  -0.1666667   0.5000000), wk =   0.0277778
        k(   26) = (   0.4166667  -0.0833333   0.4166667), wk =   0.0277778
        k(   27) = (   0.3333333   0.0000000   0.3333333), wk =   0.0138889
        k(   28) = (   0.0000000   0.5000000   0.0000000), wk =   0.0069444
        k(   29) = (  -0.0833333   0.5833333  -0.0833333), wk =   0.0277778
        k(   30) = (  -0.1666667   0.6666667  -0.1666667), wk =   0.0277778
        k(   31) = (   0.7500000  -0.2500000   0.7500000), wk =   0.0277778
        k(   32) = (   0.6666667  -0.1666667   0.6666667), wk =   0.0277778
        k(   33) = (   0.5833333  -0.0833333   0.5833333), wk =   0.0277778
        k(   34) = (   0.5000000   0.0000000   0.5000000), wk =   0.0138889
        k(   35) = (   0.0000000   0.6666667   0.0000000), wk =   0.0069444
        k(   36) = (  -0.0833333   0.7500000  -0.0833333), wk =   0.0277778
        k(   37) = (   0.8333333  -0.1666667   0.8333333), wk =   0.0277778
        k(   38) = (   0.7500000  -0.0833333   0.7500000), wk =   0.0277778
        k(   39) = (   0.6666667  -0.0000000   0.6666667), wk =   0.0138889
        k(   40) = (   0.0000000   0.8333333   0.0000000), wk =   0.0069444
        k(   41) = (   0.9166667  -0.0833333   0.9166667), wk =   0.0277778
        k(   42) = (   0.8333333   0.0000000   0.8333333), wk =   0.0138889
        k(   43) = (   0.0000000  -1.0000000   0.0000000), wk =   0.0034722
        k(   44) = (  -0.1666667   0.3333333   0.0000000), wk =   0.0277778
        k(   45) = (  -0.2500000   0.4166667  -0.0833333), wk =   0.0555556
        k(   46) = (  -0.3333333   0.5000000  -0.1666667), wk =   0.0555556
        k(   47) = (   0.5833333  -0.4166667   0.7500000), wk =   0.0555556
        k(   48) = (   0.5000000  -0.3333333   0.6666667), wk =   0.0277778
        k(   49) = (  -0.1666667   0.5000000   0.0000000), wk =   0.0277778
        k(   50) = (  -0.2500000   0.5833333  -0.0833333), wk =   0.0555556
        k(   51) = (   0.6666667  -0.3333333   0.8333333), wk =   0.0555556
        k(   52) = (   0.5833333  -0.2500000   0.7500000), wk =   0.0555556
        k(   53) = (   0.5000000  -0.1666667   0.6666667), wk =   0.0555556
        k(   54) = (   0.4166667  -0.0833333   0.5833333), wk =   0.0555556
        k(   55) = (   0.3333333   0.0000000   0.5000000), wk =   0.0277778
        k(   56) = (  -0.1666667   0.6666667  -0.0000000), wk =   0.0277778
        k(   57) = (   0.7500000  -0.2500000   0.9166667), wk =   0.0555556
        k(   58) = (   0.6666667  -0.1666667   0.8333333), wk =   0.0555556
        k(   59) = (   0.5833333  -0.0833333   0.7500000), wk =   0.0555556
        k(   60) = (   0.5000000   0.0000000   0.6666667), wk =   0.0277778
        k(   61) = (   0.8333333  -0.1666667   1.0000000), wk =   0.0277778
        k(   62) = (   0.7500000  -0.0833333   0.9166667), wk =   0.0555556
        k(   63) = (   0.6666667   0.0000000   0.8333333), wk =   0.0277778
        k(   64) = (  -0.1666667  -1.0000000  -0.0000000), wk =   0.0138889
        k(   65) = (   0.6666667  -0.3333333   1.0000000), wk =   0.0277778
        k(   66) = (   0.5833333  -0.2500000   0.9166667), wk =   0.0555556
        k(   67) = (   0.5000000  -0.1666667   0.8333333), wk =   0.0277778
        k(   68) = (   0.6666667  -0.1666667   1.0000000), wk =   0.0277778
        k(   69) = (   0.5833333  -0.0833333   0.9166667), wk =   0.0555556
        k(   70) = (   0.5000000   0.0000000   0.8333333), wk =   0.0277778
        k(   71) = (  -0.3333333  -1.0000000   0.0000000), wk =   0.0138889
        k(   72) = (  -0.5000000  -1.0000000   0.0000000), wk =   0.0069444

     Dense  grid:     1917 G-vectors     FFT dimensions: (  18,  18,  18)

     Estimated max dynamical RAM per process >       5.95 MB

     Estimated total dynamical RAM >      11.90 MB

     Initial potential from superposition of free atoms
     Check: negative starting charge=   -0.084237

     starting charge   15.49999, renormalised to   16.00000

     negative rho (up, down):  8.695E-02 0.000E+00
     Starting wfcs are   12 randomized atomic wfcs

     total cpu time spent up to now is        0.6 secs

     Self-consistent Calculation

     iteration #  1     ecut=    35.00 Ry     beta= 0.70
     Davidson diagonalization with overlap
     ethr =  1.00E-02,  avg # of iterations =  3.5

     negative rho (up, down):  8.927E-02 0.000E+00

     total cpu time spent up to now is        1.2 secs

     total energy              =    -198.34733482 Ry
     Harris-Foulkes estimate   =    -198.72011682 Ry
     estimated scf accuracy    <       0.53416510 Ry

     iteration #  2     ecut=    35.00 Ry     beta= 0.70
     Davidson diagonalization with overlap
     ethr =  3.34E-03,  avg # of iterations =  2.0

     negative rho (up, down):  9.021E-02 0.000E+00

     total cpu time spent up to now is        2.0 secs

     total energy              =    -198.49760544 Ry
     Harris-Foulkes estimate   =    -198.59919909 Ry
     estimated scf accuracy    <       0.17093864 Ry

     iteration #  3     ecut=    35.00 Ry     beta= 0.70
     Davidson diagonalization with overlap
     ethr =  1.07E-03,  avg # of iterations =  2.0

     negative rho (up, down):  9.106E-02 0.000E+00

     total cpu time spent up to now is        2.4 secs

     total energy              =    -198.53700820 Ry
     Harris-Foulkes estimate   =    -198.53731950 Ry
     estimated scf accuracy    <       0.00079737 Ry

     iteration #  4     ecut=    35.00 Ry     beta= 0.70
     Davidson diagonalization with overlap
     ethr =  4.98E-06,  avg # of iterations =  2.2

     negative rho (up, down):  9.117E-02 0.000E+00

     total cpu time spent up to now is        2.8 secs

     total energy              =    -198.53715604 Ry
     Harris-Foulkes estimate   =    -198.53716401 Ry
     estimated scf accuracy    <       0.00001355 Ry

     iteration #  5     ecut=    35.00 Ry     beta= 0.70
     Davidson diagonalization with overlap
     ethr =  8.47E-08,  avg # of iterations =  2.0

     negative rho (up, down):  9.120E-02 0.000E+00

     total cpu time spent up to now is        3.3 secs

     total energy              =    -198.53715950 Ry
     Harris-Foulkes estimate   =    -198.53715958 Ry
     estimated scf accuracy    <       0.00000018 Ry

     iteration #  6     ecut=    35.00 Ry     beta= 0.70
     Davidson diagonalization with overlap
     ethr =  1.12E-09,  avg # of iterations =  2.0

     negative rho (up, down):  9.120E-02 0.000E+00

     total cpu time spent up to now is        3.7 secs

     End of self-consistent calculation

          k = 0.0000 0.0000 0.0000 (   259 PWs)   bands (ev):

   -20.3480 -20.3480 -20.3480  20.0218  25.2418  25.2418  25.2418  28.1688
    28.1688  48.4008  55.5978  55.5978

          k =-0.0833 0.0833-0.0833 (   256 PWs)   bands (ev):

   -20.4527 -20.3613 -20.3613  20.3797  25.0827  25.3894  25.3894  28.0841
    28.0841  48.9559  53.6920  56.1375

          k =-0.1667 0.1667-0.1667 (   250 PWs)   bands (ev):

   -20.7348 -20.3977 -20.3977  21.2707  24.8517  25.6865  25.6865  28.0087
    28.0087  50.2189  50.7913  57.6285

          k =-0.2500 0.2500-0.2500 (   244 PWs)   bands (ev):

   -21.1103 -20.4472 -20.4472  21.9221  25.4275  25.7341  25.7341  28.3866
    28.3866  48.0495  50.8194  59.6528

          k =-0.3333 0.3333-0.3333 (   238 PWs)   bands (ev):

   -21.4748 -20.4961 -20.4961  21.8049  25.4766  25.4766  27.3184  29.2335
    29.2335  45.4084  49.5963  59.3841

          k =-0.4167 0.4167-0.4167 (   241 PWs)   bands (ev):

   -21.7355 -20.5321 -20.5321  21.5205  25.2103  25.2103  29.5660  30.0537
    30.0537  42.8349  48.1947  57.2429

          k = 0.5000-0.5000 0.5000 (   242 PWs)   bands (ev):

   -21.8295 -20.5452 -20.5452  21.4020  25.1066  25.1066  30.3923  30.3923
    30.7086  41.5496  47.6928  56.4278

          k = 0.0000 0.1667 0.0000 (   258 PWs)   bands (ev):

   -20.4501 -20.3846 -20.3846  20.5003  24.8983  25.5120  25.5120  27.7964
    28.2998  49.1558  54.0419  55.7285

          k =-0.0833 0.2500-0.0833 (   249 PWs)   bands (ev):

   -20.6597 -20.4292 -20.4098  21.2378  24.5470  25.8256  25.8455  27.5047
    28.4128  50.2580  51.8683  56.2163

          k =-0.1667 0.3333-0.1667 (   240 PWs)   bands (ev):

   -20.9968 -20.4833 -20.4520  22.0808  24.5655  25.8185  26.0343  27.9030
    28.7546  49.2180  51.2306  57.1089

          k =-0.2500 0.4167-0.2500 (   240 PWs)   bands (ev):

   -21.3561 -20.5325 -20.5097  22.1428  25.3945  25.7499  25.8731  29.2437
    29.4767  46.5249  50.4594  57.1538

          k =-0.3333 0.5000-0.3333 (   239 PWs)   bands (ev):

   -21.6429 -20.5671 -20.5633  21.8521  25.0204  25.5828  27.3425  30.1868
    31.0855  43.6933  48.9946  56.1699

          k = 0.5833-0.4167 0.5833 (   242 PWs)   bands (ev):

   -21.7875 -20.6083 -20.5682  21.6765  24.8503  25.3833  28.4019  30.4146
    32.6556  41.6202  48.2396  55.6812

          k = 0.5000-0.3333 0.5000 (   241 PWs)   bands (ev):

   -21.7563 -20.6222 -20.5455  21.7297  24.9274  25.3754  28.3567  29.9590
    32.4744  42.1401  48.3808  55.1681

          k = 0.4167-0.2500 0.4167 (   244 PWs)   bands (ev):

   -21.5572 -20.6048 -20.5015  21.9899  25.2046  25.5718  27.1115  29.0096
    31.1019  44.6686  49.3955  55.9276

          k = 0.3333-0.1667 0.3333 (   243 PWs)   bands (ev):

   -21.2384 -20.5591 -20.4474  22.2571  25.2395  25.7648  25.8830  27.9848
    29.7395  47.4301  50.8252  57.2641

          k = 0.2500-0.0833 0.2500 (   241 PWs)   bands (ev):

   -20.8823 -20.4948 -20.3976  21.8762  24.5486  25.8649  25.9506  27.4723
    28.7365  49.9563  50.9564  56.4470

          k = 0.1667-0.0000 0.1667 (   249 PWs)   bands (ev):

   -20.5920 -20.4226 -20.3661  20.9350  24.7868  25.5973  25.6859  27.7122
    28.2823  49.7808  52.2485  55.8150

          k = 0.0000 0.3333 0.0000 (   246 PWs)   bands (ev):

   -20.7220 -20.4838 -20.4838  21.7069  24.0410  26.3011  26.3011  27.0093
    28.6675  51.1546  52.4344  55.4104

          k =-0.0833 0.4167-0.0833 (   239 PWs)   bands (ev):

   -20.9631 -20.5460 -20.5371  22.4176  23.6448  26.1259  26.7158  27.6882
    29.0001  50.7341  52.2562  54.9467

          k =-0.1667 0.5000-0.1667 (   237 PWs)   bands (ev):

   -21.2643 -20.6057 -20.5998  22.5871  24.0107  25.5807  26.7237  29.5455
    29.6563  48.0386  51.6641  54.4227

          k =-0.2500 0.5833-0.2500 (   236 PWs)   bands (ev):

   -21.5259 -20.6903 -20.6305  22.3518  24.4401  25.7344  26.4559  30.3153
    31.9765  44.8284  50.1956  53.9304

          k = 0.6667-0.3333 0.6667 (   241 PWs)   bands (ev):

   -21.6804 -20.7695 -20.6307  22.2521  24.2985  26.1798  26.5681  30.4759
    34.4341  41.9429  49.2641  54.1455

          k = 0.5833-0.2500 0.5833 (   242 PWs)   bands (ev):

   -21.6933 -20.8188 -20.5998  22.3621  24.3090  26.0465  26.8936  29.9405
    35.1488  41.5323  48.9940  53.2071

          k = 0.5000-0.1667 0.5000 (   244 PWs)   bands (ev):

   -21.5672 -20.8192 -20.5464  22.6634  24.5751  26.1195  26.2715  28.8988
    33.6248  44.0863  49.3369  53.0631

          k = 0.4167-0.0833 0.4167 (   244 PWs)   bands (ev):

   -21.3433 -20.7598 -20.4840  23.0686  24.6591  25.3739  26.4046  27.7147
    31.7578  47.0633  50.2542  54.2893

          k = 0.3333 0.0000 0.3333 (   236 PWs)   bands (ev):

   -21.0924 -20.6412 -20.4291  22.8787  24.1153  25.6960  26.5944  26.9599
    30.0350  48.9915  51.3139  55.9862

          k = 0.0000 0.5000 0.0000 (   234 PWs)   bands (ev):

   -21.0767 -20.6179 -20.6179  22.5111  23.0169  27.1856  27.5297  27.5297
    29.1957  51.5812  53.2320  53.2321

          k =-0.0833 0.5833-0.0833 (   237 PWs)   bands (ev):

   -21.2838 -20.6955 -20.6797  22.4364  22.7461  26.9228  27.8946  29.5562
    29.7149  49.6137  51.7817  51.9604

          k =-0.1667 0.6667-0.1667 (   237 PWs)   bands (ev):

   -21.4729 -20.8061 -20.7151  22.2258  23.0449  26.5222  27.7160  30.3929
    32.3790  46.1963  50.2808  51.3181

          k = 0.7500-0.2500 0.7500 (   238 PWs)   bands (ev):

   -21.5765 -20.9386 -20.7153  22.2461  23.5094  26.2294  27.3923  30.5678
    35.5240  42.7567  48.9474  51.6831

          k = 0.6667-0.1667 0.6667 (   239 PWs)   bands (ev):

   -21.5729 -21.0530 -20.6800  22.5613  23.9215  25.9550  27.1183  30.0241
    37.6634  41.0616  47.8376  53.2569

          k = 0.5833-0.0833 0.5833 (   240 PWs)   bands (ev):

   -21.4941 -21.0869 -20.6184  23.1328  24.2574  25.4035  26.9651  29.0087
    36.1186  43.7306  47.1530  53.0401

          k = 0.5000 0.0000 0.5000 (   238 PWs)   bands (ev):

   -21.4169 -20.9731 -20.5464  23.7651  24.2492  24.9418  26.8581  28.0107
    33.9601  46.5246  47.7896  53.1013

          k = 0.0000 0.6667 0.0000 (   238 PWs)   bands (ev):

   -21.4140 -20.7508 -20.7508  21.9269  22.1156  29.0202  29.0202  29.4843
    29.7559  50.0276  50.0276  50.2900

          k =-0.0833 0.7500-0.0833 (   236 PWs)   bands (ev):

   -21.5444 -20.8356 -20.7944  21.6554  21.9608  28.5786  29.1334  30.3865
    32.2886  47.3973  48.9481  49.0387

          k = 0.8333-0.1667 0.8333 (   237 PWs)   bands (ev):

   -21.5912 -20.9796 -20.7991  21.6564  22.3362  27.7696  28.8004  30.6772
    35.6365  44.1072  47.5097  49.1085

          k = 0.7500-0.0833 0.7500 (   237 PWs)   bands (ev):

   -21.5214 -21.1640 -20.7641  21.9622  23.1048  26.7724  28.3688  30.2340
    39.1018  41.1972  46.0788  50.6082

          k = 0.6667-0.0000 0.6667 (   236 PWs)   bands (ev):

   -21.3510 -21.3392 -20.6982  22.5424  24.0234  25.6632  27.7929  29.4853
    38.4615  42.6434  45.2480  53.0547

          k = 0.0000 0.8333 0.0000 (   242 PWs)   bands (ev):

   -21.6505 -20.8473 -20.8473  21.1489  21.5165  30.1878  30.3955  30.3955
    32.4703  47.3524  47.3524  47.5863

          k = 0.9167-0.0833 0.9167 (   236 PWs)   bands (ev):

   -21.6884 -20.9172 -20.8599  21.0873  21.5497  29.7825  29.9713  30.8295
    34.8546  45.5449  46.3608  47.0813

          k = 0.8333 0.0000 0.8333 (   236 PWs)   bands (ev):

   -21.6261 -21.0499 -20.8299  21.3956  22.1171  28.3347  29.4105  30.5914
    37.5540  43.1845  45.6373  48.3161

          k = 0.0000-1.0000 0.0000 (   230 PWs)   bands (ev):

   -21.7345 -20.8820 -20.8820  20.8442  21.3092  30.3530  31.0000  31.0000
    34.0675  45.8949  46.2846  46.2846

          k =-0.1667 0.3333 0.0000 (   238 PWs)   bands (ev):

   -20.8572 -20.5260 -20.4335  22.0452  24.1238  25.9441  26.2977  27.3217
    28.8513  50.7007  51.3251  55.5285

          k =-0.2500 0.4167-0.0833 (   239 PWs)   bands (ev):

   -21.1477 -20.6217 -20.4760  22.7257  24.1962  25.5095  26.5428  27.8357
    29.9265  48.6802  51.4924  55.6755

          k =-0.3333 0.5000-0.1667 (   241 PWs)   bands (ev):

   -21.4426 -20.6916 -20.5322  22.5297  24.9477  25.3730  26.3384  28.9759
    31.5428  45.9089  50.2978  54.3136

          k = 0.5833-0.4167 0.7500 (   242 PWs)   bands (ev):

   -21.6570 -20.7315 -20.5814  22.2501  24.5404  25.9292  26.7691  29.9136
    33.4499  42.8961  49.2665  53.6018

          k = 0.5000-0.3333 0.6667 (   240 PWs)   bands (ev):

   -21.7350 -20.7435 -20.6011  22.1448  24.3929  25.8633  27.2674  30.2351
    34.6107  41.2942  48.9127  53.5922

          k =-0.1667 0.5000 0.0000 (   237 PWs)   bands (ev):

   -21.1606 -20.6662 -20.5708  22.8823  23.2228  25.8678  27.5121  28.1474
    29.9032  49.8067  51.8758  54.0507

          k =-0.2500 0.5833-0.0833 (   240 PWs)   bands (ev):

   -21.3781 -20.7768 -20.6217  22.7694  23.5783  25.4695  27.5539  29.1653
    31.7795  47.3626  50.5449  52.3337

          k = 0.6667-0.3333 0.8333 (   242 PWs)   bands (ev):

   -21.5470 -20.8684 -20.6668  22.6213  23.9061  25.5019  27.2058  30.0508
    34.2430  43.9890  49.7586  51.3840

          k = 0.5833-0.2500 0.7500 (   243 PWs)   bands (ev):

   -21.6211 -20.9388 -20.6757  22.7126  23.8378  25.9505  26.8504  30.2051
    36.6052  41.3165  49.1215  51.4084

          k = 0.5000-0.1667 0.6667 (   242 PWs)   bands (ev):

   -21.5873 -20.9668 -20.6430  22.9927  23.8733  25.8109  26.7980  29.6974
    36.1080  42.3049  48.6914  51.6923

          k = 0.4167-0.0833 0.5833 (   239 PWs)   bands (ev):

   -21.4681 -20.9236 -20.5836  23.3367  24.2583  24.8799  27.0852  28.7110
    33.9692  45.4658  48.7803  52.2803

          k = 0.3333 0.0000 0.5000 (   239 PWs)   bands (ev):

   -21.3100 -20.7971 -20.5207  23.7253  23.7404  24.8966  27.4170  27.5667
    31.8348  47.8881  50.0333  53.6875

          k =-0.1667 0.6667-0.0000 (   233 PWs)   bands (ev):

   -21.4318 -20.8045 -20.7244  22.3034  22.4089  26.9637  29.0076  29.3418
    31.7875  48.4811  49.3905  50.6269

          k = 0.7500-0.2500 0.9167 (   239 PWs)   bands (ev):

   -21.5289 -20.9306 -20.7662  22.1859  22.7040  26.5383  28.6686  30.1661
    34.5543  45.3893  48.7155  49.1261

          k = 0.6667-0.1667 0.8333 (   238 PWs)   bands (ev):

   -21.5344 -21.0798 -20.7681  22.3257  23.2933  26.0463  28.0719  30.3757
    37.7162  42.1342  47.6164  49.4696

          k = 0.5833-0.0833 0.7500 (   238 PWs)   bands (ev):

   -21.4573 -21.2052 -20.7260  22.7631  23.9008  25.3905  27.6386  29.8811
    38.6705  41.8589  46.3128  50.8084

          k = 0.5000 0.0000 0.6667 (   240 PWs)   bands (ev):

   -21.4369 -21.1468 -20.6565  23.4280  24.3961  24.4449  27.5030  29.0736
    36.3635  45.2904  45.5936  51.7659

          k = 0.8333-0.1667 1.0000 (   238 PWs)   bands (ev):

   -21.6155 -20.9052 -20.8431  21.5035  21.8593  28.3581  29.8742  30.3914
    34.5062  46.5856  46.8881  47.5580

          k = 0.7500-0.0833 0.9167 (   236 PWs)   bands (ev):

   -21.5939 -21.0372 -20.8496  21.6729  22.2939  27.5597  29.1613  30.7320
    37.4188  43.8489  46.1524  47.4025

          k = 0.6667 0.0000 0.8333 (   236 PWs)   bands (ev):

   -21.4779 -21.2103 -20.8032  22.1088  23.1468  26.3983  28.4036  30.3929
    40.2823  41.1819  45.3103  49.0460

          k =-0.1667-1.0000-0.0000 (   236 PWs)   bands (ev):

   -21.6796 -20.9418 -20.8875  21.1924  21.6668  29.1374  29.8238  31.0004
    36.1278  45.4975  45.8602  46.0609

          k = 0.6667-0.3333 1.0000 (   237 PWs)   bands (ev):

   -21.4557 -20.9506 -20.6762  23.2389  23.2649  25.0700  28.3880  28.9920
    34.2125  46.6787  47.6775  50.8039

          k = 0.5833-0.2500 0.9167 (   239 PWs)   bands (ev):

   -21.4914 -21.0805 -20.7349  23.1411  23.6075  24.9532  27.8776  29.8626
    36.8243  43.6690  47.3860  49.5843

          k = 0.5000-0.1667 0.8333 (   238 PWs)   bands (ev):

   -21.4991 -21.1294 -20.7601  23.1524  23.5965  25.1415  27.5460  30.2064
    38.9644  41.1645  48.2518  48.4340

          k = 0.6667-0.1667 1.0000 (   237 PWs)   bands (ev):

   -21.5178 -21.0617 -20.8298  22.3756  22.8587  26.0388  28.7254  30.3804
    37.1959  45.4308  45.5348  47.6359

          k = 0.5833-0.0833 0.9167 (   239 PWs)   bands (ev):

   -21.4343 -21.2080 -20.8536  22.5577  23.5507  25.3460  28.0603  30.6962
    40.1115  42.2993  45.9716  46.7907

          k = 0.5000 0.0000 0.8333 (   241 PWs)   bands (ev):

   -21.3752 -21.2720 -20.8117  22.8778  24.2963  24.4276  27.8565  30.3688
    39.4224  43.0935  45.1394  48.2249

          k =-0.3333-1.0000 0.0000 (   244 PWs)   bands (ev):

   -21.5283 -21.1024 -20.8980  22.0427  22.7193  26.5980  28.6028  31.0030
    39.2137  44.4772  44.8571  45.7472

          k =-0.5000-1.0000 0.0000 (   252 PWs)   bands (ev):

   -21.3178 -21.3178 -20.9033  22.6060  24.3975  24.3975  27.8530  31.0037
    42.1468  42.1468  44.6289  45.5935

     the Fermi energy is    30.4340 ev

!    total energy              =    -198.53715954 Ry
     Harris-Foulkes estimate   =    -198.53715954 Ry
     estimated scf accuracy    <          2.9E-10 Ry

     The total energy is the sum of the following terms:

     one-electron contribution =     -12.16305122 Ry
     hartree contribution      =      26.01369597 Ry
     xc contribution           =     -31.81466167 Ry
     ewald contribution        =    -180.57302943 Ry
     smearing contrib. (-TS)   =      -0.00011319 Ry

     convergence has been achieved in   6 iterations

     Writing output data file Pd-kp-conv.save/
 
     init_run     :      0.47s CPU      0.49s WALL (       1 calls)
     electrons    :      2.55s CPU      3.14s WALL (       1 calls)

     Called by init_run:
     wfcinit      :      0.16s CPU      0.17s WALL (       1 calls)
     potinit      :      0.00s CPU      0.01s WALL (       1 calls)
     hinit0       :      0.29s CPU      0.30s WALL (       1 calls)

     Called by electrons:
     c_bands      :      2.13s CPU      2.64s WALL (       6 calls)
     sum_band     :      0.39s CPU      0.44s WALL (       6 calls)
     v_of_rho     :      0.01s CPU      0.02s WALL (       7 calls)
     newd         :      0.02s CPU      0.03s WALL (       7 calls)
     mix_rho      :      0.00s CPU      0.00s WALL (       6 calls)

     Called by c_bands:
     init_us_2    :      0.05s CPU      0.06s WALL (     936 calls)
     cegterg      :      1.98s CPU      2.16s WALL (     432 calls)

     Called by sum_band:
     sum_band:bec :      0.00s CPU      0.00s WALL (     432 calls)
     addusdens    :      0.02s CPU      0.02s WALL (       6 calls)

     Called by *egterg:
     h_psi        :      1.56s CPU      1.69s WALL (    1490 calls)
     s_psi        :      0.03s CPU      0.03s WALL (    1490 calls)
     g_psi        :      0.02s CPU      0.02s WALL (     986 calls)
     cdiaghg      :      0.35s CPU      0.38s WALL (    1418 calls)

     Called by h_psi:
     h_psi:pot    :      1.55s CPU      1.68s WALL (    1490 calls)
     h_psi:calbec :      0.04s CPU      0.04s WALL (    1490 calls)
     vloc_psi     :      1.47s CPU      1.60s WALL (    1490 calls)
     add_vuspsi   :      0.03s CPU      0.03s WALL (    1490 calls)

     General routines
     calbec       :      0.04s CPU      0.05s WALL (    1922 calls)
     fft          :      0.01s CPU      0.01s WALL (      78 calls)
     ffts         :      0.00s CPU      0.00s WALL (       6 calls)
     fftw         :      1.55s CPU      1.70s WALL (   32622 calls)
 
     Parallel routines
     fft_scatt_xy :      0.27s CPU      0.30s WALL (   32706 calls)
     fft_scatt_yz :      0.43s CPU      0.48s WALL (   32706 calls)
 
     PWSCF        :     3.13s CPU         4.13s WALL

 
   This run was terminated on:  23:13:41   2Dec2021            

=------------------------------------------------------------------------------=
   JOB DONE.
=------------------------------------------------------------------------------=
