
     Program PWSCF v.6.3 starts on  2Dec2021 at 23:14:25 

     This program is part of the open-source Quantum ESPRESSO suite
     for quantum simulation of materials; please cite
         "P. Giannozzi et al., J. Phys.:Condens. Matter 21 395502 (2009);
         "P. Giannozzi et al., J. Phys.:Condens. Matter 29 465901 (2017);
          URL http://www.quantum-espresso.org", 
     in publications or presentations arising from this work. More details at
     http://www.quantum-espresso.org/quote

     Parallel version (MPI & OpenMP), running on       2 processor cores
     Number of MPI processes:                 2
     Threads/MPI process:                     1

     MPI processes distributed on     1 nodes
     R & G space division:  proc/nbgrp/npool/nimage =       2
     Reading input from pw-input.in

     Current dimensions of program PWSCF are:
     Max number of different atomic species (ntypx) = 10
     Max number of k-points (npk) =  40000
     Max angular momentum in pseudopotentials (lmaxx) =  3

     Subspace diagonalization in iterative solution of the eigenvalue problem:
     a serial algorithm will be used

 
     Parallelization info
     --------------------
     sticks:   dense  smooth     PW     G-vecs:    dense   smooth      PW
     Min         132     132     45                 1445     1445     304
     Max         133     133     46                 1446     1446     305
     Sum         265     265     91                 2891     2891     609
 

     Title: 
     Pd-kp-conv                                                                 


     bravais-lattice index     =            2
     lattice parameter (alat)  =       7.5000  a.u.
     unit-cell volume          =     105.4688 (a.u.)^3
     number of atoms/cell      =            1
     number of atomic types    =            1
     number of electrons       =        16.00
     number of Kohn-Sham states=           12
     kinetic-energy cutoff     =      35.0000  Ry
     charge density cutoff     =     140.0000  Ry
     convergence threshold     =      1.0E-07
     mixing beta               =       0.7000
     number of iterations used =            8  plain     mixing
     Exchange-correlation      =  SLA  PW   PBX  PBC ( 1  4  3  4 0 0)

     celldm(1)=   7.500000  celldm(2)=   0.000000  celldm(3)=   0.000000
     celldm(4)=   0.000000  celldm(5)=   0.000000  celldm(6)=   0.000000

     crystal axes: (cart. coord. in units of alat)
               a(1) = (  -0.500000   0.000000   0.500000 )  
               a(2) = (   0.000000   0.500000   0.500000 )  
               a(3) = (  -0.500000   0.500000   0.000000 )  

     reciprocal axes: (cart. coord. in units 2 pi/alat)
               b(1) = ( -1.000000 -1.000000  1.000000 )  
               b(2) = (  1.000000  1.000000  1.000000 )  
               b(3) = ( -1.000000  1.000000 -1.000000 )  


     PseudoPot. # 1 for Pd read from file:
     ./pd_pbe_v1.4.uspp.F.UPF
     MD5 check sum: 2d733d2bc2cbfd217af676df1668a4bc
     Pseudo is Ultrasoft + core correction, Zval = 16.0
     Generated by new atomic code, or converted to UPF format
     Using radial grid of  887 points,  6 beta functions with: 
                l(1) =   0
                l(2) =   0
                l(3) =   1
                l(4) =   1
                l(5) =   2
                l(6) =   2
     Q(r) pseudized with  8 coefficients,  rinner =    1.130   1.130   1.130
                                                       1.130   1.130

     atomic species   valence    mass     pseudopotential
        Pd            16.00   106.40000     Pd( 1.00)

     48 Sym. Ops., with inversion, found



   Cartesian axes

     site n.     atom                  positions (alat units)
         1           Pd  tau(   1) = (   0.0000000   0.0000000   0.0000000  )

     number of k points=    72  Marzari-Vanderbilt smearing, width (Ry)=  0.0400
                       cart. coord. in units 2pi/alat
        k(    1) = (   0.0000000   0.0000000   0.0000000), wk =   0.0011574
        k(    2) = (  -0.0833333   0.0833333  -0.0833333), wk =   0.0092593
        k(    3) = (  -0.1666667   0.1666667  -0.1666667), wk =   0.0092593
        k(    4) = (  -0.2500000   0.2500000  -0.2500000), wk =   0.0092593
        k(    5) = (  -0.3333333   0.3333333  -0.3333333), wk =   0.0092593
        k(    6) = (  -0.4166667   0.4166667  -0.4166667), wk =   0.0092593
        k(    7) = (   0.5000000  -0.5000000   0.5000000), wk =   0.0046296
        k(    8) = (   0.0000000   0.1666667   0.0000000), wk =   0.0069444
        k(    9) = (  -0.0833333   0.2500000  -0.0833333), wk =   0.0277778
        k(   10) = (  -0.1666667   0.3333333  -0.1666667), wk =   0.0277778
        k(   11) = (  -0.2500000   0.4166667  -0.2500000), wk =   0.0277778
        k(   12) = (  -0.3333333   0.5000000  -0.3333333), wk =   0.0277778
        k(   13) = (   0.5833333  -0.4166667   0.5833333), wk =   0.0277778
        k(   14) = (   0.5000000  -0.3333333   0.5000000), wk =   0.0277778
        k(   15) = (   0.4166667  -0.2500000   0.4166667), wk =   0.0277778
        k(   16) = (   0.3333333  -0.1666667   0.3333333), wk =   0.0277778
        k(   17) = (   0.2500000  -0.0833333   0.2500000), wk =   0.0277778
        k(   18) = (   0.1666667  -0.0000000   0.1666667), wk =   0.0138889
        k(   19) = (   0.0000000   0.3333333   0.0000000), wk =   0.0069444
        k(   20) = (  -0.0833333   0.4166667  -0.0833333), wk =   0.0277778
        k(   21) = (  -0.1666667   0.5000000  -0.1666667), wk =   0.0277778
        k(   22) = (  -0.2500000   0.5833333  -0.2500000), wk =   0.0277778
        k(   23) = (   0.6666667  -0.3333333   0.6666667), wk =   0.0277778
        k(   24) = (   0.5833333  -0.2500000   0.5833333), wk =   0.0277778
        k(   25) = (   0.5000000  -0.1666667   0.5000000), wk =   0.0277778
        k(   26) = (   0.4166667  -0.0833333   0.4166667), wk =   0.0277778
        k(   27) = (   0.3333333   0.0000000   0.3333333), wk =   0.0138889
        k(   28) = (   0.0000000   0.5000000   0.0000000), wk =   0.0069444
        k(   29) = (  -0.0833333   0.5833333  -0.0833333), wk =   0.0277778
        k(   30) = (  -0.1666667   0.6666667  -0.1666667), wk =   0.0277778
        k(   31) = (   0.7500000  -0.2500000   0.7500000), wk =   0.0277778
        k(   32) = (   0.6666667  -0.1666667   0.6666667), wk =   0.0277778
        k(   33) = (   0.5833333  -0.0833333   0.5833333), wk =   0.0277778
        k(   34) = (   0.5000000   0.0000000   0.5000000), wk =   0.0138889
        k(   35) = (   0.0000000   0.6666667   0.0000000), wk =   0.0069444
        k(   36) = (  -0.0833333   0.7500000  -0.0833333), wk =   0.0277778
        k(   37) = (   0.8333333  -0.1666667   0.8333333), wk =   0.0277778
        k(   38) = (   0.7500000  -0.0833333   0.7500000), wk =   0.0277778
        k(   39) = (   0.6666667  -0.0000000   0.6666667), wk =   0.0138889
        k(   40) = (   0.0000000   0.8333333   0.0000000), wk =   0.0069444
        k(   41) = (   0.9166667  -0.0833333   0.9166667), wk =   0.0277778
        k(   42) = (   0.8333333   0.0000000   0.8333333), wk =   0.0138889
        k(   43) = (   0.0000000  -1.0000000   0.0000000), wk =   0.0034722
        k(   44) = (  -0.1666667   0.3333333   0.0000000), wk =   0.0277778
        k(   45) = (  -0.2500000   0.4166667  -0.0833333), wk =   0.0555556
        k(   46) = (  -0.3333333   0.5000000  -0.1666667), wk =   0.0555556
        k(   47) = (   0.5833333  -0.4166667   0.7500000), wk =   0.0555556
        k(   48) = (   0.5000000  -0.3333333   0.6666667), wk =   0.0277778
        k(   49) = (  -0.1666667   0.5000000   0.0000000), wk =   0.0277778
        k(   50) = (  -0.2500000   0.5833333  -0.0833333), wk =   0.0555556
        k(   51) = (   0.6666667  -0.3333333   0.8333333), wk =   0.0555556
        k(   52) = (   0.5833333  -0.2500000   0.7500000), wk =   0.0555556
        k(   53) = (   0.5000000  -0.1666667   0.6666667), wk =   0.0555556
        k(   54) = (   0.4166667  -0.0833333   0.5833333), wk =   0.0555556
        k(   55) = (   0.3333333   0.0000000   0.5000000), wk =   0.0277778
        k(   56) = (  -0.1666667   0.6666667  -0.0000000), wk =   0.0277778
        k(   57) = (   0.7500000  -0.2500000   0.9166667), wk =   0.0555556
        k(   58) = (   0.6666667  -0.1666667   0.8333333), wk =   0.0555556
        k(   59) = (   0.5833333  -0.0833333   0.7500000), wk =   0.0555556
        k(   60) = (   0.5000000   0.0000000   0.6666667), wk =   0.0277778
        k(   61) = (   0.8333333  -0.1666667   1.0000000), wk =   0.0277778
        k(   62) = (   0.7500000  -0.0833333   0.9166667), wk =   0.0555556
        k(   63) = (   0.6666667   0.0000000   0.8333333), wk =   0.0277778
        k(   64) = (  -0.1666667  -1.0000000  -0.0000000), wk =   0.0138889
        k(   65) = (   0.6666667  -0.3333333   1.0000000), wk =   0.0277778
        k(   66) = (   0.5833333  -0.2500000   0.9166667), wk =   0.0555556
        k(   67) = (   0.5000000  -0.1666667   0.8333333), wk =   0.0277778
        k(   68) = (   0.6666667  -0.1666667   1.0000000), wk =   0.0277778
        k(   69) = (   0.5833333  -0.0833333   0.9166667), wk =   0.0555556
        k(   70) = (   0.5000000   0.0000000   0.8333333), wk =   0.0277778
        k(   71) = (  -0.3333333  -1.0000000   0.0000000), wk =   0.0138889
        k(   72) = (  -0.5000000  -1.0000000   0.0000000), wk =   0.0069444

     Dense  grid:     2891 G-vectors     FFT dimensions: (  20,  20,  20)

     Estimated max dynamical RAM per process >       8.65 MB

     Estimated total dynamical RAM >      17.29 MB

     Initial potential from superposition of free atoms
     Check: negative starting charge=   -0.084664

     starting charge   15.49999, renormalised to   16.00000

     negative rho (up, down):  8.740E-02 0.000E+00
     Starting wfcs are   12 randomized atomic wfcs

     total cpu time spent up to now is        0.6 secs

     Self-consistent Calculation

     iteration #  1     ecut=    35.00 Ry     beta= 0.70
     Davidson diagonalization with overlap
     ethr =  1.00E-02,  avg # of iterations =  3.6

     negative rho (up, down):  8.675E-02 0.000E+00

     total cpu time spent up to now is        1.3 secs

     total energy              =    -198.17559485 Ry
     Harris-Foulkes estimate   =    -199.03851520 Ry
     estimated scf accuracy    <       1.18872726 Ry

     iteration #  2     ecut=    35.00 Ry     beta= 0.70
     Davidson diagonalization with overlap
     ethr =  7.43E-03,  avg # of iterations =  2.0

     negative rho (up, down):  8.793E-02 0.000E+00

     total cpu time spent up to now is        1.9 secs

     total energy              =    -198.46778634 Ry
     Harris-Foulkes estimate   =    -199.03803869 Ry
     estimated scf accuracy    <       1.13514493 Ry

     iteration #  3     ecut=    35.00 Ry     beta= 0.70
     Davidson diagonalization with overlap
     ethr =  7.09E-03,  avg # of iterations =  2.0

     negative rho (up, down):  8.818E-02 0.000E+00

     total cpu time spent up to now is        2.4 secs

     total energy              =    -198.70037261 Ry
     Harris-Foulkes estimate   =    -198.70114702 Ry
     estimated scf accuracy    <       0.00167950 Ry

     iteration #  4     ecut=    35.00 Ry     beta= 0.70
     Davidson diagonalization with overlap
     ethr =  1.05E-05,  avg # of iterations =  2.4

     negative rho (up, down):  8.833E-02 0.000E+00

     total cpu time spent up to now is        3.1 secs

     total energy              =    -198.70097212 Ry
     Harris-Foulkes estimate   =    -198.70097362 Ry
     estimated scf accuracy    <       0.00001078 Ry

     iteration #  5     ecut=    35.00 Ry     beta= 0.70
     Davidson diagonalization with overlap
     ethr =  6.74E-08,  avg # of iterations =  1.9

     negative rho (up, down):  8.839E-02 0.000E+00

     total cpu time spent up to now is        3.6 secs

     total energy              =    -198.70097424 Ry
     Harris-Foulkes estimate   =    -198.70097394 Ry
     estimated scf accuracy    <       0.00000024 Ry

     iteration #  6     ecut=    35.00 Ry     beta= 0.70
     Davidson diagonalization with overlap
     ethr =  1.47E-09,  avg # of iterations =  2.0

     negative rho (up, down):  8.839E-02 0.000E+00

     total cpu time spent up to now is        4.2 secs

     End of self-consistent calculation

          k = 0.0000 0.0000 0.0000 (   339 PWs)   bands (ev):

   -32.2665 -32.2665 -32.2665  10.5664  14.6907  14.6907  14.6907  16.1586
    16.1586  35.0673  39.4964  39.4964

          k =-0.0833 0.0833-0.0833 (   353 PWs)   bands (ev):

   -32.2894 -32.2700 -32.2700  10.8054  14.6145  14.7684  14.7684  16.1231
    16.1231  35.2339  37.8449  39.6979

          k =-0.1667 0.1667-0.1667 (   362 PWs)   bands (ev):

   -32.3509 -32.2790 -32.2790  11.4565  14.4827  14.9263  14.9263  16.1017
    16.1017  34.3950  36.1849  40.1703

          k =-0.2500 0.2500-0.2500 (   359 PWs)   bands (ev):

   -32.4337 -32.2909 -32.2909  12.2042  14.6716  14.9608  14.9608  16.3002
    16.3002  31.4389  35.8834  40.4061

          k =-0.3333 0.3333-0.3333 (   359 PWs)   bands (ev):

   -32.5158 -32.3029 -32.3029  12.4948  14.8371  14.8371  15.7483  16.7121
    16.7121  28.3154  35.1597  39.6861

          k =-0.4167 0.4167-0.4167 (   368 PWs)   bands (ev):

   -32.5757 -32.3117 -32.3117  12.4584  14.7044  14.7044  17.0957  17.0957
    17.4097  25.5369  34.5243  38.7006

          k = 0.5000-0.5000 0.5000 (   368 PWs)   bands (ev):

   -32.5976 -32.3149 -32.3149  12.4189  14.6521  14.6521  17.2501  17.2501
    18.4218  24.1640  34.2900  38.3002

          k = 0.0000 0.1667 0.0000 (   351 PWs)   bands (ev):

   -32.2888 -32.2750 -32.2750  10.8854  14.5275  14.8297  14.8297  15.9911
    16.2250  35.3396  38.3222  39.0421

          k =-0.0833 0.2500-0.0833 (   359 PWs)   bands (ev):

   -32.3345 -32.2856 -32.2814  11.4050  14.3521  14.9953  15.0030  15.8613
    16.2872  35.2745  36.3868  38.6358

          k =-0.1667 0.3333-0.1667 (   366 PWs)   bands (ev):

   -32.4087 -32.2988 -32.2919  12.1692  14.2961  15.0150  15.1060  16.0597
    16.4663  32.6245  36.0416  38.2580

          k =-0.2500 0.4167-0.2500 (   366 PWs)   bands (ev):

   -32.4892 -32.3107 -32.3056  12.6274  14.7910  14.8619  15.0341  16.7711
    16.8203  29.4627  35.4342  37.7750

          k =-0.3333 0.5000-0.3333 (   371 PWs)   bands (ev):

   -32.5548 -32.3191 -32.3186  12.6343  14.6244  14.8931  15.7958  17.1539
    17.9572  26.4664  34.7372  37.3936

          k = 0.5833-0.4167 0.5833 (   372 PWs)   bands (ev):

   -32.5882 -32.3286 -32.3201  12.5775  14.5361  14.7952  16.3950  17.2601
    19.2636  24.3524  34.3364  37.3403

          k = 0.5000-0.3333 0.5000 (   368 PWs)   bands (ev):

   -32.5809 -32.3316 -32.3148  12.5978  14.5729  14.7940  16.3824  17.0559
    18.9686  24.8808  34.3335  36.9468

          k = 0.4167-0.2500 0.4167 (   364 PWs)   bands (ev):

   -32.5349 -32.3270 -32.3045  12.6710  14.7070  14.8956  15.6494  16.6112
    17.7856  27.4377  34.6844  37.3235

          k = 0.3333-0.1667 0.3333 (   366 PWs)   bands (ev):

   -32.4627 -32.3159 -32.2917  12.5596  14.5932  14.9598  15.0483  16.1127
    16.9713  30.5284  35.2088  38.2920

          k = 0.2500-0.0833 0.2500 (   362 PWs)   bands (ev):

   -32.3834 -32.3006 -32.2796  11.9175  14.3252  15.0188  15.0694  15.8527
    16.4569  33.6236  35.5985  38.9102

          k = 0.1667-0.0000 0.1667 (   357 PWs)   bands (ev):

   -32.3197 -32.2837 -32.2717  11.1870  14.4708  14.8805  14.9182  15.9550
    16.2246  35.3675  36.5000  38.8445

          k = 0.0000 0.3333 0.0000 (   355 PWs)   bands (ev):

   -32.3480 -32.2979 -32.2979  11.7544  14.1045  15.2364  15.2364  15.6223
    16.4099  36.0252  36.8288  37.4009

          k =-0.0833 0.4167-0.0833 (   360 PWs)   bands (ev):

   -32.4014 -32.3127 -32.3106  12.3858  13.8861  15.1689  15.4522  15.9400
    16.5770  34.0623  36.2224  36.4407

          k =-0.1667 0.5000-0.1667 (   366 PWs)   bands (ev):

   -32.4692 -32.3265 -32.3257  12.9128  13.9636  14.8647  15.4657  16.8980
    16.9422  30.8574  35.5150  35.7572

          k =-0.2500 0.5833-0.2500 (   372 PWs)   bands (ev):

   -32.5290 -32.3459 -32.3336  12.9709  14.3200  14.8577  15.3396  17.2099
    18.4486  27.6899  34.5009  35.4697

          k = 0.6667-0.3333 0.6667 (   368 PWs)   bands (ev):

   -32.5645 -32.3636 -32.3341  12.9415  14.2656  15.2075  15.3510  17.2899
    20.2596  25.0007  33.5720  35.7766

          k = 0.5833-0.2500 0.5833 (   370 PWs)   bands (ev):

   -32.5674 -32.3746 -32.3273  12.9882  14.2710  15.1445  15.5407  17.0490
    20.7990  24.4773  32.9001  36.1721

          k = 0.5000-0.1667 0.5000 (   373 PWs)   bands (ev):

   -32.5383 -32.3743 -32.3151  13.1126  14.4049  15.1749  15.1853  16.5594
    19.3757  26.8557  32.6211  36.4899

          k = 0.4167-0.0833 0.4167 (   364 PWs)   bands (ev):

   -32.4868 -32.3603 -32.3005  13.1787  14.3064  14.7711  15.3301  15.9807
    18.0819  29.8936  32.7573  37.4663

          k = 0.3333 0.0000 0.3333 (   369 PWs)   bands (ev):

   -32.4304 -32.3335 -32.2876  12.6698  14.1121  14.9536  15.4031  15.6120
    17.1131  32.7144  33.4623  39.0706

          k = 0.0000 0.5000 0.0000 (   351 PWs)   bands (ev):

   -32.4267 -32.3291 -32.3291  12.6922  13.5712  15.6407  15.8659  15.8659
    16.6717  34.9982  34.9982  35.4469

          k =-0.0833 0.5833-0.0833 (   361 PWs)   bands (ev):

   -32.4741 -32.3470 -32.3439  12.9546  13.3876  15.5074  16.0533  16.9235
    16.9565  32.3174  33.9969  34.4227

          k =-0.1667 0.6667-0.1667 (   368 PWs)   bands (ev):

   -32.5178 -32.3717 -32.3527  13.0217  13.5228  15.2900  15.9746  17.2445
    18.6939  29.1536  32.9281  33.5615

          k = 0.7500-0.2500 0.7500 (   370 PWs)   bands (ev):

   -32.5421 -32.4010 -32.3533  13.0644  13.7910  15.1415  15.8228  17.3309
    20.8422  26.2035  31.5598  33.8337

          k = 0.6667-0.1667 0.6667 (   371 PWs)   bands (ev):

   -32.5415 -32.4262 -32.3455  13.2351  13.9938  15.0114  15.6931  17.0883
    22.6441  24.3631  30.4580  34.8611

          k = 0.5833-0.0833 0.5833 (   374 PWs)   bands (ev):

   -32.5229 -32.4336 -32.3317  13.5149  14.1668  14.7081  15.6222  16.6104
    21.1439  26.5967  29.7741  36.5252

          k = 0.5000 0.0000 0.5000 (   373 PWs)   bands (ev):

   -32.5045 -32.4081 -32.3152  13.7243  14.1363  14.5062  15.5721  16.1215
    19.4778  29.5387  29.7012  36.9342

          k = 0.0000 0.6667 0.0000 (   355 PWs)   bands (ev):

   -32.5040 -32.3601 -32.3601  12.7989  13.0807  16.6100  16.6100  16.9437
    17.0373  32.6754  32.6754  32.7079

          k =-0.0833 0.7500-0.0833 (   368 PWs)   bands (ev):

   -32.5350 -32.3796 -32.3707  12.7467  12.9762  16.4088  16.6656  17.2433
    18.7726  30.5248  31.0675  31.9794

          k = 0.8333-0.1667 0.8333 (   368 PWs)   bands (ev):

   -32.5465 -32.4110 -32.3724  12.8022  13.1490  15.9791  16.5137  17.3818
    20.9923  27.7851  29.5870  32.0771

          k = 0.7500-0.0833 0.7500 (   372 PWs)   bands (ev):

   -32.5312 -32.4513 -32.3646  12.9910  13.5272  15.4449  16.3136  17.1851
    23.4656  25.2904  28.3820  32.9966

          k = 0.6667-0.0000 0.6667 (   375 PWs)   bands (ev):

   -32.4918 -32.4904 -32.3498  13.3042  13.9824  14.8546  16.0376  16.8358
    23.0679  25.9063  27.8859  34.5730

          k = 0.0000 0.8333 0.0000 (   359 PWs)   bands (ev):

   -32.5599 -32.3828 -32.3828  12.5032  12.7446  17.1500  17.2632  17.2632
    19.2662  29.2901  30.9881  30.9881

          k = 0.9167-0.0833 0.9167 (   368 PWs)   bands (ev):

   -32.5693 -32.3986 -32.3863  12.4956  12.7478  17.0153  17.0572  17.4555
    20.8252  27.9834  29.5761  30.8228

          k = 0.8333 0.0000 0.8333 (   369 PWs)   bands (ev):

   -32.5554 -32.4271 -32.3795  12.6841  13.0229  16.2809  16.8061  17.3501
    22.5529  27.0939  27.7992  31.5506

          k = 0.0000-1.0000 0.0000 (   360 PWs)   bands (ev):

   -32.5800 -32.3910 -32.3910  12.3636  12.6263  17.2262  17.5360  17.5360
    20.6478  27.4802  30.3597  30.3597

          k =-0.1667 0.3333 0.0000 (   362 PWs)   bands (ev):

   -32.3779 -32.3075 -32.2876  12.0070  14.1372  15.0719  15.2412  15.7699
    16.5079  34.7143  35.0362  38.3653

          k =-0.2500 0.4167-0.0833 (   367 PWs)   bands (ev):

   -32.4427 -32.3295 -32.2980  12.7309  14.0873  14.8772  15.3745  16.0308
    17.0609  31.8384  34.4838  37.7041

          k =-0.3333 0.5000-0.1667 (   368 PWs)   bands (ev):

   -32.5093 -32.3459 -32.3113  12.9715  14.6026  14.6517  15.2722  16.6040
    18.0166  28.6708  34.1049  36.3870

          k = 0.5833-0.4167 0.7500 (   372 PWs)   bands (ev):

   -32.5588 -32.3552 -32.3230  12.8997  14.3946  15.0754  15.4669  17.0415
    19.4405  25.7737  33.9386  35.5040

          k = 0.5000-0.3333 0.6667 (   374 PWs)   bands (ev):

   -32.5768 -32.3582 -32.3277  12.8562  14.3182  15.0452  15.7544  17.1818
    20.5353  24.1834  33.9343  35.1816

          k =-0.1667 0.5000 0.0000 (   360 PWs)   bands (ev):

   -32.4459 -32.3397 -32.3189  12.9154  13.6652  15.0097  15.8602  16.1794
    17.0479  33.1062  33.6466  36.2252

          k =-0.2500 0.5833-0.0833 (   366 PWs)   bands (ev):

   -32.4954 -32.3649 -32.3311  13.2191  13.7597  14.7636  15.8876  16.6920
    18.1657  30.1266  32.9484  34.7365

          k = 0.6667-0.3333 0.8333 (   367 PWs)   bands (ev):

   -32.5345 -32.3854 -32.3418  13.2000  14.0350  14.7503  15.7206  17.1041
    19.8662  27.0458  32.8863  33.3808

          k = 0.5833-0.2500 0.7500 (   373 PWs)   bands (ev):

   -32.5519 -32.4011 -32.3443  13.2398  14.0128  15.0169  15.5498  17.1725
    21.7851  24.5695  32.2301  33.3864

          k = 0.5000-0.1667 0.6667 (   375 PWs)   bands (ev):

   -32.5440 -32.4072 -32.3370  13.3601  14.0483  14.9382  15.5269  16.9387
    21.2641  25.3843  31.4735  34.2641

          k = 0.4167-0.0833 0.5833 (   369 PWs)   bands (ev):

   -32.5161 -32.3972 -32.3233  13.5142  14.2541  14.3933  15.6675  16.4697
    19.5327  28.2185  31.2044  35.3485

          k = 0.3333 0.0000 0.5000 (   370 PWs)   bands (ev):

   -32.4795 -32.3688 -32.3088  13.4309  13.9024  14.5813  15.8321  15.8953
    18.1274  31.0741  31.6850  36.5895

          k =-0.1667 0.6667-0.0000 (   369 PWs)   bands (ev):

   -32.5086 -32.3720 -32.3544  13.0206  13.2207  15.5410  16.6033  16.7792
    18.2495  31.4505  31.7625  32.8290

          k = 0.7500-0.2500 0.9167 (   369 PWs)   bands (ev):

   -32.5314 -32.4000 -32.3641  13.0569  13.3499  15.3195  16.4493  17.1554
    20.1061  28.5968  31.2170  31.5213

          k = 0.6667-0.1667 0.8333 (   374 PWs)   bands (ev):

   -32.5336 -32.4328 -32.3650  13.1620  13.6446  15.0598  16.1655  17.2511
    22.3857  25.8324  29.9330  31.9485

          k = 0.5833-0.0833 0.7500 (   374 PWs)   bands (ev):

   -32.5161 -32.4602 -32.3556  13.4185  13.9232  14.7148  15.9606  17.0233
    23.2392  25.2081  28.9039  32.9641

          k = 0.5000 0.0000 0.6667 (   371 PWs)   bands (ev):

   -32.5102 -32.4471 -32.3398  13.7734  14.1339  14.2271  15.8923  16.6397
    21.2720  27.8639  28.5177  34.1981

          k = 0.8333-0.1667 1.0000 (   367 PWs)   bands (ev):

   -32.5520 -32.3956 -32.3817  12.7056  12.9129  16.2964  17.0248  17.2605
    20.3035  29.2587  30.2506  30.2791

          k = 0.7500-0.0833 0.9167 (   368 PWs)   bands (ev):

   -32.5479 -32.4242 -32.3833  12.8283  13.1189  15.8747  16.6942  17.4143
    22.3501  27.5175  28.3464  30.5939

          k = 0.6667 0.0000 0.8333 (   378 PWs)   bands (ev):

   -32.5219 -32.4619 -32.3732  13.0806  13.5405  15.2515  16.3382  17.2595
    24.3553  25.3515  27.6442  31.6082

          k =-0.1667-1.0000-0.0000 (   370 PWs)   bands (ev):

   -32.5677 -32.4042 -32.3920  12.5595  12.8035  16.6957  16.9945  17.5347
    21.7170  27.4361  29.6692  29.7274

          k = 0.6667-0.3333 1.0000 (   367 PWs)   bands (ev):

   -32.5140 -32.4037 -32.3436  13.5947  13.6254  14.5249  16.3204  16.5983
    19.7267  29.7158  29.9156  33.2782

          k = 0.5833-0.2500 0.9167 (   371 PWs)   bands (ev):

   -32.5232 -32.4327 -32.3571  13.5871  13.8241  14.4575  16.0726  17.0159
    21.6462  26.8358  29.9998  31.9604

          k = 0.5000-0.1667 0.8333 (   370 PWs)   bands (ev):

   -32.5254 -32.4436 -32.3628  13.6657  13.7279  14.5831  15.9142  17.1766
    23.5169  24.5914  30.5164  31.0644

          k = 0.6667-0.1667 1.0000 (   371 PWs)   bands (ev):

   -32.5300 -32.4295 -32.3781  13.2043  13.4123  15.0599  16.4911  17.2545
    21.9859  28.5370  28.6314  30.0009

          k = 0.5833-0.0833 0.9167 (   377 PWs)   bands (ev):

   -32.5120 -32.4618 -32.3834  13.3244  13.7527  14.6941  16.1789  17.3985
    24.2089  25.9796  28.4028  29.6457

          k = 0.5000 0.0000 0.8333 (   376 PWs)   bands (ev):

   -32.4981 -32.4758 -32.3741  13.5102  14.1130  14.2160  16.0783  17.2488
    23.6682  26.4573  27.9280  30.6615

          k =-0.3333-1.0000 0.0000 (   374 PWs)   bands (ev):

   -32.5334 -32.4388 -32.3933  13.0364  13.3341  15.3632  16.4406  17.5361
    23.7152  27.3371  28.0003  28.8348

          k =-0.5000-1.0000 0.0000 (   380 PWs)   bands (ev):

   -32.4864 -32.4864 -32.3940  13.3488  14.2000  14.2000  16.0858  17.5361
    25.9033  25.9033  27.2789  28.4998

     the Fermi energy is    17.3540 ev

!    total energy              =    -198.70097427 Ry
     Harris-Foulkes estimate   =    -198.70097427 Ry
     estimated scf accuracy    <          3.0E-09 Ry

     The total energy is the sum of the following terms:

     one-electron contribution =     -47.92740575 Ry
     hartree contribution      =      37.04965896 Ry
     xc contribution           =     -31.32818381 Ry
     ewald contribution        =    -156.49662553 Ry
     smearing contrib. (-TS)   =       0.00158186 Ry

     convergence has been achieved in   6 iterations

     Writing output data file Pd-kp-conv.save/
 
     init_run     :      0.52s CPU      0.55s WALL (       1 calls)
     electrons    :      3.10s CPU      3.58s WALL (       1 calls)

     Called by init_run:
     wfcinit      :      0.18s CPU      0.20s WALL (       1 calls)
     potinit      :      0.01s CPU      0.01s WALL (       1 calls)
     hinit0       :      0.32s CPU      0.32s WALL (       1 calls)

     Called by electrons:
     c_bands      :      2.58s CPU      2.98s WALL (       6 calls)
     sum_band     :      0.47s CPU      0.50s WALL (       6 calls)
     v_of_rho     :      0.02s CPU      0.02s WALL (       7 calls)
     newd         :      0.04s CPU      0.04s WALL (       7 calls)
     mix_rho      :      0.00s CPU      0.00s WALL (       6 calls)

     Called by c_bands:
     init_us_2    :      0.08s CPU      0.09s WALL (     936 calls)
     cegterg      :      2.35s CPU      2.53s WALL (     432 calls)

     Called by sum_band:
     sum_band:bec :      0.00s CPU      0.00s WALL (     432 calls)
     addusdens    :      0.04s CPU      0.04s WALL (       6 calls)

     Called by *egterg:
     h_psi        :      1.87s CPU      2.02s WALL (    1512 calls)
     s_psi        :      0.03s CPU      0.04s WALL (    1512 calls)
     g_psi        :      0.02s CPU      0.02s WALL (    1008 calls)
     cdiaghg      :      0.36s CPU      0.38s WALL (    1440 calls)

     Called by h_psi:
     h_psi:pot    :      1.86s CPU      2.01s WALL (    1512 calls)
     h_psi:calbec :      0.05s CPU      0.05s WALL (    1512 calls)
     vloc_psi     :      1.76s CPU      1.91s WALL (    1512 calls)
     add_vuspsi   :      0.04s CPU      0.04s WALL (    1512 calls)

     General routines
     calbec       :      0.06s CPU      0.06s WALL (    1944 calls)
     fft          :      0.01s CPU      0.01s WALL (      78 calls)
     ffts         :      0.00s CPU      0.00s WALL (       6 calls)
     fftw         :      1.82s CPU      1.97s WALL (   32328 calls)
 
     Parallel routines
     fft_scatt_xy :      0.33s CPU      0.35s WALL (   32412 calls)
     fft_scatt_yz :      0.48s CPU      0.53s WALL (   32412 calls)
 
     PWSCF        :     3.73s CPU         4.49s WALL

 
   This run was terminated on:  23:14:29   2Dec2021            

=------------------------------------------------------------------------------=
   JOB DONE.
=------------------------------------------------------------------------------=
