
     Program PWSCF v.6.3 starts on  2Dec2021 at 23:14:20 

     This program is part of the open-source Quantum ESPRESSO suite
     for quantum simulation of materials; please cite
         "P. Giannozzi et al., J. Phys.:Condens. Matter 21 395502 (2009);
         "P. Giannozzi et al., J. Phys.:Condens. Matter 29 465901 (2017);
          URL http://www.quantum-espresso.org", 
     in publications or presentations arising from this work. More details at
     http://www.quantum-espresso.org/quote

     Parallel version (MPI & OpenMP), running on       2 processor cores
     Number of MPI processes:                 2
     Threads/MPI process:                     1

     MPI processes distributed on     1 nodes
     R & G space division:  proc/nbgrp/npool/nimage =       2
     Reading input from pw-input.in

     Current dimensions of program PWSCF are:
     Max number of different atomic species (ntypx) = 10
     Max number of k-points (npk) =  40000
     Max angular momentum in pseudopotentials (lmaxx) =  3

     Subspace diagonalization in iterative solution of the eigenvalue problem:
     a serial algorithm will be used

 
     Parallelization info
     --------------------
     sticks:   dense  smooth     PW     G-vecs:    dense   smooth      PW
     Min         126     126     45                 1369     1369     304
     Max         127     127     46                 1372     1372     305
     Sum         253     253     91                 2741     2741     609
 

     Title: 
     Pd-kp-conv                                                                 


     bravais-lattice index     =            2
     lattice parameter (alat)  =       7.4000  a.u.
     unit-cell volume          =     101.3060 (a.u.)^3
     number of atoms/cell      =            1
     number of atomic types    =            1
     number of electrons       =        16.00
     number of Kohn-Sham states=           12
     kinetic-energy cutoff     =      35.0000  Ry
     charge density cutoff     =     140.0000  Ry
     convergence threshold     =      1.0E-07
     mixing beta               =       0.7000
     number of iterations used =            8  plain     mixing
     Exchange-correlation      =  SLA  PW   PBX  PBC ( 1  4  3  4 0 0)

     celldm(1)=   7.400000  celldm(2)=   0.000000  celldm(3)=   0.000000
     celldm(4)=   0.000000  celldm(5)=   0.000000  celldm(6)=   0.000000

     crystal axes: (cart. coord. in units of alat)
               a(1) = (  -0.500000   0.000000   0.500000 )  
               a(2) = (   0.000000   0.500000   0.500000 )  
               a(3) = (  -0.500000   0.500000   0.000000 )  

     reciprocal axes: (cart. coord. in units 2 pi/alat)
               b(1) = ( -1.000000 -1.000000  1.000000 )  
               b(2) = (  1.000000  1.000000  1.000000 )  
               b(3) = ( -1.000000  1.000000 -1.000000 )  


     PseudoPot. # 1 for Pd read from file:
     ./pd_pbe_v1.4.uspp.F.UPF
     MD5 check sum: 2d733d2bc2cbfd217af676df1668a4bc
     Pseudo is Ultrasoft + core correction, Zval = 16.0
     Generated by new atomic code, or converted to UPF format
     Using radial grid of  887 points,  6 beta functions with: 
                l(1) =   0
                l(2) =   0
                l(3) =   1
                l(4) =   1
                l(5) =   2
                l(6) =   2
     Q(r) pseudized with  8 coefficients,  rinner =    1.130   1.130   1.130
                                                       1.130   1.130

     atomic species   valence    mass     pseudopotential
        Pd            16.00   106.40000     Pd( 1.00)

     48 Sym. Ops., with inversion, found



   Cartesian axes

     site n.     atom                  positions (alat units)
         1           Pd  tau(   1) = (   0.0000000   0.0000000   0.0000000  )

     number of k points=    72  Marzari-Vanderbilt smearing, width (Ry)=  0.0400
                       cart. coord. in units 2pi/alat
        k(    1) = (   0.0000000   0.0000000   0.0000000), wk =   0.0011574
        k(    2) = (  -0.0833333   0.0833333  -0.0833333), wk =   0.0092593
        k(    3) = (  -0.1666667   0.1666667  -0.1666667), wk =   0.0092593
        k(    4) = (  -0.2500000   0.2500000  -0.2500000), wk =   0.0092593
        k(    5) = (  -0.3333333   0.3333333  -0.3333333), wk =   0.0092593
        k(    6) = (  -0.4166667   0.4166667  -0.4166667), wk =   0.0092593
        k(    7) = (   0.5000000  -0.5000000   0.5000000), wk =   0.0046296
        k(    8) = (   0.0000000   0.1666667   0.0000000), wk =   0.0069444
        k(    9) = (  -0.0833333   0.2500000  -0.0833333), wk =   0.0277778
        k(   10) = (  -0.1666667   0.3333333  -0.1666667), wk =   0.0277778
        k(   11) = (  -0.2500000   0.4166667  -0.2500000), wk =   0.0277778
        k(   12) = (  -0.3333333   0.5000000  -0.3333333), wk =   0.0277778
        k(   13) = (   0.5833333  -0.4166667   0.5833333), wk =   0.0277778
        k(   14) = (   0.5000000  -0.3333333   0.5000000), wk =   0.0277778
        k(   15) = (   0.4166667  -0.2500000   0.4166667), wk =   0.0277778
        k(   16) = (   0.3333333  -0.1666667   0.3333333), wk =   0.0277778
        k(   17) = (   0.2500000  -0.0833333   0.2500000), wk =   0.0277778
        k(   18) = (   0.1666667  -0.0000000   0.1666667), wk =   0.0138889
        k(   19) = (   0.0000000   0.3333333   0.0000000), wk =   0.0069444
        k(   20) = (  -0.0833333   0.4166667  -0.0833333), wk =   0.0277778
        k(   21) = (  -0.1666667   0.5000000  -0.1666667), wk =   0.0277778
        k(   22) = (  -0.2500000   0.5833333  -0.2500000), wk =   0.0277778
        k(   23) = (   0.6666667  -0.3333333   0.6666667), wk =   0.0277778
        k(   24) = (   0.5833333  -0.2500000   0.5833333), wk =   0.0277778
        k(   25) = (   0.5000000  -0.1666667   0.5000000), wk =   0.0277778
        k(   26) = (   0.4166667  -0.0833333   0.4166667), wk =   0.0277778
        k(   27) = (   0.3333333   0.0000000   0.3333333), wk =   0.0138889
        k(   28) = (   0.0000000   0.5000000   0.0000000), wk =   0.0069444
        k(   29) = (  -0.0833333   0.5833333  -0.0833333), wk =   0.0277778
        k(   30) = (  -0.1666667   0.6666667  -0.1666667), wk =   0.0277778
        k(   31) = (   0.7500000  -0.2500000   0.7500000), wk =   0.0277778
        k(   32) = (   0.6666667  -0.1666667   0.6666667), wk =   0.0277778
        k(   33) = (   0.5833333  -0.0833333   0.5833333), wk =   0.0277778
        k(   34) = (   0.5000000   0.0000000   0.5000000), wk =   0.0138889
        k(   35) = (   0.0000000   0.6666667   0.0000000), wk =   0.0069444
        k(   36) = (  -0.0833333   0.7500000  -0.0833333), wk =   0.0277778
        k(   37) = (   0.8333333  -0.1666667   0.8333333), wk =   0.0277778
        k(   38) = (   0.7500000  -0.0833333   0.7500000), wk =   0.0277778
        k(   39) = (   0.6666667  -0.0000000   0.6666667), wk =   0.0138889
        k(   40) = (   0.0000000   0.8333333   0.0000000), wk =   0.0069444
        k(   41) = (   0.9166667  -0.0833333   0.9166667), wk =   0.0277778
        k(   42) = (   0.8333333   0.0000000   0.8333333), wk =   0.0138889
        k(   43) = (   0.0000000  -1.0000000   0.0000000), wk =   0.0034722
        k(   44) = (  -0.1666667   0.3333333   0.0000000), wk =   0.0277778
        k(   45) = (  -0.2500000   0.4166667  -0.0833333), wk =   0.0555556
        k(   46) = (  -0.3333333   0.5000000  -0.1666667), wk =   0.0555556
        k(   47) = (   0.5833333  -0.4166667   0.7500000), wk =   0.0555556
        k(   48) = (   0.5000000  -0.3333333   0.6666667), wk =   0.0277778
        k(   49) = (  -0.1666667   0.5000000   0.0000000), wk =   0.0277778
        k(   50) = (  -0.2500000   0.5833333  -0.0833333), wk =   0.0555556
        k(   51) = (   0.6666667  -0.3333333   0.8333333), wk =   0.0555556
        k(   52) = (   0.5833333  -0.2500000   0.7500000), wk =   0.0555556
        k(   53) = (   0.5000000  -0.1666667   0.6666667), wk =   0.0555556
        k(   54) = (   0.4166667  -0.0833333   0.5833333), wk =   0.0555556
        k(   55) = (   0.3333333   0.0000000   0.5000000), wk =   0.0277778
        k(   56) = (  -0.1666667   0.6666667  -0.0000000), wk =   0.0277778
        k(   57) = (   0.7500000  -0.2500000   0.9166667), wk =   0.0555556
        k(   58) = (   0.6666667  -0.1666667   0.8333333), wk =   0.0555556
        k(   59) = (   0.5833333  -0.0833333   0.7500000), wk =   0.0555556
        k(   60) = (   0.5000000   0.0000000   0.6666667), wk =   0.0277778
        k(   61) = (   0.8333333  -0.1666667   1.0000000), wk =   0.0277778
        k(   62) = (   0.7500000  -0.0833333   0.9166667), wk =   0.0555556
        k(   63) = (   0.6666667   0.0000000   0.8333333), wk =   0.0277778
        k(   64) = (  -0.1666667  -1.0000000  -0.0000000), wk =   0.0138889
        k(   65) = (   0.6666667  -0.3333333   1.0000000), wk =   0.0277778
        k(   66) = (   0.5833333  -0.2500000   0.9166667), wk =   0.0555556
        k(   67) = (   0.5000000  -0.1666667   0.8333333), wk =   0.0277778
        k(   68) = (   0.6666667  -0.1666667   1.0000000), wk =   0.0277778
        k(   69) = (   0.5833333  -0.0833333   0.9166667), wk =   0.0555556
        k(   70) = (   0.5000000   0.0000000   0.8333333), wk =   0.0277778
        k(   71) = (  -0.3333333  -1.0000000   0.0000000), wk =   0.0138889
        k(   72) = (  -0.5000000  -1.0000000   0.0000000), wk =   0.0069444

     Dense  grid:     2741 G-vectors     FFT dimensions: (  20,  20,  20)

     Estimated max dynamical RAM per process >       8.28 MB

     Estimated total dynamical RAM >      16.57 MB

     Initial potential from superposition of free atoms
     Check: negative starting charge=   -0.084791

     starting charge   15.49999, renormalised to   16.00000

     negative rho (up, down):  8.753E-02 0.000E+00
     Starting wfcs are   12 randomized atomic wfcs

     total cpu time spent up to now is        0.7 secs

     Self-consistent Calculation

     iteration #  1     ecut=    35.00 Ry     beta= 0.70
     Davidson diagonalization with overlap
     ethr =  1.00E-02,  avg # of iterations =  3.6

     negative rho (up, down):  8.695E-02 0.000E+00

     total cpu time spent up to now is        1.4 secs

     total energy              =    -198.21338066 Ry
     Harris-Foulkes estimate   =    -199.02606774 Ry
     estimated scf accuracy    <       1.12272298 Ry

     iteration #  2     ecut=    35.00 Ry     beta= 0.70
     Davidson diagonalization with overlap
     ethr =  7.02E-03,  avg # of iterations =  2.0

     negative rho (up, down):  8.817E-02 0.000E+00

     total cpu time spent up to now is        1.9 secs

     total energy              =    -198.49395369 Ry
     Harris-Foulkes estimate   =    -198.99809193 Ry
     estimated scf accuracy    <       0.98943115 Ry

     iteration #  3     ecut=    35.00 Ry     beta= 0.70
     Davidson diagonalization with overlap
     ethr =  6.18E-03,  avg # of iterations =  2.0

     negative rho (up, down):  8.847E-02 0.000E+00

     total cpu time spent up to now is        2.4 secs

     total energy              =    -198.70036499 Ry
     Harris-Foulkes estimate   =    -198.70123535 Ry
     estimated scf accuracy    <       0.00186533 Ry

     iteration #  4     ecut=    35.00 Ry     beta= 0.70
     Davidson diagonalization with overlap
     ethr =  1.17E-05,  avg # of iterations =  2.3

     negative rho (up, down):  8.863E-02 0.000E+00

     total cpu time spent up to now is        3.0 secs

     total energy              =    -198.70096643 Ry
     Harris-Foulkes estimate   =    -198.70097201 Ry
     estimated scf accuracy    <       0.00001822 Ry

     iteration #  5     ecut=    35.00 Ry     beta= 0.70
     Davidson diagonalization with overlap
     ethr =  1.14E-07,  avg # of iterations =  1.9

     negative rho (up, down):  8.869E-02 0.000E+00

     total cpu time spent up to now is        3.9 secs

     total energy              =    -198.70096997 Ry
     Harris-Foulkes estimate   =    -198.70096972 Ry
     estimated scf accuracy    <       0.00000020 Ry

     iteration #  6     ecut=    35.00 Ry     beta= 0.70
     Davidson diagonalization with overlap
     ethr =  1.26E-09,  avg # of iterations =  2.2

     negative rho (up, down):  8.869E-02 0.000E+00

     total cpu time spent up to now is        4.4 secs

     End of self-consistent calculation

          k = 0.0000 0.0000 0.0000 (   339 PWs)   bands (ev):

   -31.3698 -31.3698 -31.3698  11.2557  15.5078  15.5078  15.5078  17.0747
    17.0747  36.1495  40.8166  40.8166

          k =-0.0833 0.0833-0.0833 (   335 PWs)   bands (ev):

   -31.3958 -31.3733 -31.3733  11.5033  15.4263  15.5916  15.5916  17.0382
    17.0382  36.3503  39.1480  41.0475

          k =-0.1667 0.1667-0.1667 (   344 PWs)   bands (ev):

   -31.4670 -31.3835 -31.3835  12.1746  15.2846  15.7594  15.7594  17.0154
    17.0154  35.7173  37.3384  41.6087

          k =-0.2500 0.2500-0.2500 (   350 PWs)   bands (ev):

   -31.5634 -31.3975 -31.3975  12.9315  15.4865  15.7944  15.7944  17.2250
    17.2250  32.7891  37.0400  41.9716

          k =-0.3333 0.3333-0.3333 (   359 PWs)   bands (ev):

   -31.6590 -31.4115 -31.4115  13.2057  15.6613  15.6613  16.6087  17.6652
    17.6652  29.6464  36.2877  41.2487

          k =-0.4167 0.4167-0.4167 (   353 PWs)   bands (ev):

   -31.7280 -31.4214 -31.4214  13.1562  15.5199  15.5199  18.0789  18.0789
    18.3105  26.8418  35.6197  40.1889

          k = 0.5000-0.5000 0.5000 (   344 PWs)   bands (ev):

   -31.7529 -31.4248 -31.4248  13.1118  15.4646  15.4646  18.2475  18.2475
    19.3280  25.4666  35.3734  39.7590

          k = 0.0000 0.1667 0.0000 (   335 PWs)   bands (ev):

   -31.3949 -31.3793 -31.3793  11.5861  15.3330  15.6574  15.6574  16.8964
    17.1461  36.4600  39.6045  40.4209

          k =-0.0833 0.2500-0.0833 (   345 PWs)   bands (ev):

   -31.4482 -31.3915 -31.3863  12.1227  15.1448  15.8334  15.8412  16.7552
    17.2137  36.5320  37.6189  40.0806

          k =-0.1667 0.3333-0.1667 (   353 PWs)   bands (ev):

   -31.5345 -31.4066 -31.3983  12.9033  15.0860  15.8515  15.9509  16.9665
    17.4039  33.9785  37.2361  39.7660

          k =-0.2500 0.4167-0.2500 (   351 PWs)   bands (ev):

   -31.6278 -31.4203 -31.4142  13.3515  15.6136  15.6838  15.8731  17.7171
    17.7827  30.8044  36.6079  39.2923

          k =-0.3333 0.5000-0.3333 (   355 PWs)   bands (ev):

   -31.7038 -31.4298 -31.4293  13.3428  15.4332  15.7218  16.6682  18.1418
    18.9405  27.7749  35.8762  38.8783

          k = 0.5833-0.4167 0.5833 (   354 PWs)   bands (ev):

   -31.7424 -31.4408 -31.4309  13.2784  15.3391  15.6174  17.3070  18.2568
    20.2540  25.6477  35.4629  38.8011

          k = 0.5000-0.3333 0.5000 (   353 PWs)   bands (ev):

   -31.7340 -31.4442 -31.4251  13.3009  15.3786  15.6159  17.2898  18.0351
    19.9701  26.1770  35.4772  38.3843

          k = 0.4167-0.2500 0.4167 (   352 PWs)   bands (ev):

   -31.6810 -31.4390 -31.4131  13.3848  15.5226  15.7240  16.5101  17.5572
    18.7858  28.7582  35.8747  38.7653

          k = 0.3333-0.1667 0.3333 (   348 PWs)   bands (ev):

   -31.5969 -31.4262 -31.3982  13.2917  15.4041  15.7902  15.8879  17.0237
    17.9400  31.8781  36.4549  39.7459

          k = 0.2500-0.0833 0.2500 (   353 PWs)   bands (ev):

   -31.5051 -31.4087 -31.3843  12.6486  15.1166  15.8558  15.9117  16.7459
    17.3929  34.9671  36.8497  40.3028

          k = 0.1667-0.0000 0.1667 (   343 PWs)   bands (ev):

   -31.4310 -31.3894 -31.3752  11.8978  15.2725  15.7108  15.7505  16.8576
    17.1456  36.5492  37.8003  40.2229

          k = 0.0000 0.3333 0.0000 (   351 PWs)   bands (ev):

   -31.4641 -31.4059 -31.4059  12.4821  14.8796  16.0895  16.0895  16.4976
    17.3439  37.2470  38.0850  38.8565

          k =-0.0833 0.4167-0.0833 (   350 PWs)   bands (ev):

   -31.5260 -31.4228 -31.4203  13.1270  14.6473  16.0146  16.3191  16.8370
    17.5234  35.4253  37.4891  37.9030

          k =-0.1667 0.5000-0.1667 (   351 PWs)   bands (ev):

   -31.6045 -31.4385 -31.4378  13.6502  14.7343  15.6906  16.3325  17.8671
    17.8950  32.2107  36.7805  37.2119

          k =-0.2500 0.5833-0.2500 (   352 PWs)   bands (ev):

   -31.6737 -31.4608 -31.4466  13.6938  15.1047  15.6856  16.1982  18.2026
    19.4638  29.0003  35.7677  36.9101

          k = 0.6667-0.3333 0.6667 (   355 PWs)   bands (ev):

   -31.7150 -31.4815 -31.4472  13.6593  15.0467  16.0560  16.2030  18.2874
    21.3176  26.2767  34.8634  37.2183

          k = 0.5833-0.2500 0.5833 (   359 PWs)   bands (ev):

   -31.7183 -31.4943 -31.4395  13.7094  15.0529  15.9889  16.4014  18.0277
    21.8665  25.7589  34.2213  37.4777

          k = 0.5000-0.1667 0.5000 (   357 PWs)   bands (ev):

   -31.6846 -31.4939 -31.4252  13.8448  15.1973  16.0126  16.0323  17.5025
    20.4397  28.1624  33.9680  37.7695

          k = 0.4167-0.0833 0.4167 (   354 PWs)   bands (ev):

   -31.6251 -31.4779 -31.4084  13.9288  15.0993  15.5849  16.1864  16.8827
    19.1081  31.2381  34.1285  38.7706

          k = 0.3333 0.0000 0.3333 (   349 PWs)   bands (ev):

   -31.5592 -31.4467 -31.3934  13.4221  14.8901  15.7832  16.2681  16.4879
    18.0923  34.0379  34.8687  40.4522

          k = 0.0000 0.5000 0.0000 (   351 PWs)   bands (ev):

   -31.5558 -31.4420 -31.4420  13.4290  14.3111  16.5132  16.7595  16.7595
    17.6230  36.4230  36.4230  36.7292

          k =-0.0833 0.5833-0.0833 (   349 PWs)   bands (ev):

   -31.6103 -31.4625 -31.4587  13.6820  14.1175  16.3737  16.9614  17.8946
    17.9060  33.6783  35.3918  35.7853

          k =-0.1667 0.6667-0.1667 (   351 PWs)   bands (ev):

   -31.6607 -31.4910 -31.4689  13.7375  14.2624  16.1430  16.8756  18.2391
    19.7186  30.4658  34.3021  34.9391

          k = 0.7500-0.2500 0.7500 (   354 PWs)   bands (ev):

   -31.6889 -31.5249 -31.4694  13.7798  14.5437  15.9849  16.7130  18.3326
    21.9390  27.4624  32.9262  35.2202

          k = 0.6667-0.1667 0.6667 (   363 PWs)   bands (ev):

   -31.6882 -31.5543 -31.4606  13.9614  14.7588  15.8443  16.5733  18.0693
    23.7664  25.6220  31.8085  36.2894

          k = 0.5833-0.0833 0.5833 (   359 PWs)   bands (ev):

   -31.6666 -31.5628 -31.4444  14.2617  14.9430  15.5214  16.4974  17.5577
    22.2642  27.8890  31.1123  37.9252

          k = 0.5000 0.0000 0.5000 (   363 PWs)   bands (ev):

   -31.6453 -31.5333 -31.4255  14.4935  14.9159  15.3019  16.4432  17.0333
    20.5597  30.8619  31.0642  38.2265

          k = 0.0000 0.6667 0.0000 (   355 PWs)   bands (ev):

   -31.6453 -31.4779 -31.4779  13.5043  13.7904  17.5549  17.5549  17.9140
    17.9620  34.0194  34.0194  34.0987

          k =-0.0833 0.7500-0.0833 (   348 PWs)   bands (ev):

   -31.6804 -31.4999 -31.4898  13.4423  13.6812  17.3329  17.6158  18.2381
    19.7783  31.8462  32.4471  33.2937

          k = 0.8333-0.1667 0.8333 (   352 PWs)   bands (ev):

   -31.6938 -31.5365 -31.4916  13.4965  13.8650  16.8743  17.4514  18.3872
    22.0816  29.0463  30.9572  33.3959

          k = 0.7500-0.0833 0.7500 (   360 PWs)   bands (ev):

   -31.6762 -31.5831 -31.4827  13.6952  14.2666  16.3065  17.2369  18.1737
    24.6325  26.5036  29.7324  34.3577

          k = 0.6667-0.0000 0.6667 (   353 PWs)   bands (ev):

   -31.6302 -31.6284 -31.4652  14.0293  14.7500  15.6804  16.9416  17.8001
    24.2314  27.1545  29.2185  36.0004

          k = 0.0000 0.8333 0.0000 (   351 PWs)   bands (ev):

   -31.7096 -31.5040 -31.5040  13.1800  13.4351  18.1354  18.2577  18.2577
    20.2446  30.6902  32.2570  32.2570

          k = 0.9167-0.0833 0.9167 (   352 PWs)   bands (ev):

   -31.7203 -31.5220 -31.5076  13.1701  13.4394  17.9831  18.0370  18.4664
    21.8614  29.3729  30.8227  32.0838

          k = 0.8333 0.0000 0.8333 (   359 PWs)   bands (ev):

   -31.7042 -31.5552 -31.5000  13.3688  13.7324  17.1946  17.7645  18.3515
    23.6618  28.3812  29.1105  32.8476

          k = 0.0000-1.0000 0.0000 (   342 PWs)   bands (ev):

   -31.7327 -31.5133 -31.5133  13.0305  13.3098  18.2195  18.5518  18.5518
    21.6389  28.8784  31.5973  31.5973

          k =-0.1667 0.3333 0.0000 (   349 PWs)   bands (ev):

   -31.4987 -31.4168 -31.3934  12.7420  14.9154  15.9128  16.0948  16.6573
    17.4478  36.0300  36.3797  39.7042

          k =-0.2500 0.4167-0.0833 (   347 PWs)   bands (ev):

   -31.5736 -31.4421 -31.4052  13.4780  14.8648  15.7031  16.2355  16.9353
    18.0357  33.1945  35.8408  39.0825

          k =-0.3333 0.5000-0.1667 (   352 PWs)   bands (ev):

   -31.6512 -31.4609 -31.4208  13.7024  15.4087  15.4641  16.1253  17.5470
    19.0321  30.0018  35.4297  37.7507

          k = 0.5833-0.4167 0.7500 (   356 PWs)   bands (ev):

   -31.7082 -31.4718 -31.4342  13.6189  15.1863  15.9148  16.3236  18.0188
    20.4859  27.0660  35.2058  36.9057

          k = 0.5000-0.3333 0.6667 (   358 PWs)   bands (ev):

   -31.7292 -31.4752 -31.4396  13.5709  15.1048  15.8834  16.6269  18.1716
    21.5789  25.4698  35.1583  36.6326

          k =-0.1667 0.5000 0.0000 (   350 PWs)   bands (ev):

   -31.5775 -31.4542 -31.4300  13.6622  14.4127  15.8447  16.7543  17.0901
    18.0202  34.4514  35.0603  37.6076

          k =-0.2500 0.5833-0.0833 (   348 PWs)   bands (ev):

   -31.6350 -31.4829 -31.4438  13.9559  14.5167  15.5841  16.7823  17.6417
    19.1863  31.4661  34.3250  36.1154

          k = 0.6667-0.3333 0.8333 (   352 PWs)   bands (ev):

   -31.6801 -31.5069 -31.4561  13.9291  14.8012  15.5707  16.6029  18.0861
    20.9398  28.3353  34.2375  34.7721

          k = 0.5833-0.2500 0.7500 (   359 PWs)   bands (ev):

   -31.7002 -31.5251 -31.4589  13.9716  14.7771  15.8498  16.4205  18.1608
    22.8914  25.8318  33.5833  34.7726

          k = 0.5000-0.1667 0.6667 (   358 PWs)   bands (ev):

   -31.6911 -31.5321 -31.4503  14.1011  14.8149  15.7658  16.3960  17.9094
    22.3737  26.6583  32.8265  35.6415

          k = 0.4167-0.0833 0.5833 (   354 PWs)   bands (ev):

   -31.6589 -31.5206 -31.4347  14.2673  15.0360  15.1893  16.5452  17.4044
    20.6109  29.5380  32.5628  36.7081

          k = 0.3333 0.0000 0.5000 (   353 PWs)   bands (ev):

   -31.6167 -31.4876 -31.4177  14.1986  14.6663  15.3851  16.7202  16.7926
    19.1559  32.4060  33.0844  37.9463

          k =-0.1667 0.6667-0.0000 (   349 PWs)   bands (ev):

   -31.6499 -31.4914 -31.4708  13.7385  13.9405  16.4104  17.5493  17.7332
    19.2620  32.7841  33.1183  34.2206

          k = 0.7500-0.2500 0.9167 (   350 PWs)   bands (ev):

   -31.6765 -31.5237 -31.4821  13.7690  14.0784  16.1746  17.3818  18.1415
    21.1824  29.8892  32.6056  32.8488

          k = 0.6667-0.1667 0.8333 (   360 PWs)   bands (ev):

   -31.6789 -31.5618 -31.4830  13.8786  14.3904  15.8979  17.0775  18.2454
    23.5304  27.0728  31.2962  33.2979

          k = 0.5833-0.0833 0.7500 (   361 PWs)   bands (ev):

   -31.6586 -31.5937 -31.4721  14.1502  14.6872  15.5308  16.8587  18.0000
    24.4015  26.4569  30.2398  34.3466

          k = 0.5000 0.0000 0.6667 (   355 PWs)   bands (ev):

   -31.6517 -31.5784 -31.4539  14.5293  14.9124  15.0128  16.7854  17.5881
    22.4012  29.1708  29.8369  35.5904

          k = 0.8333-0.1667 1.0000 (   355 PWs)   bands (ev):

   -31.7004 -31.5185 -31.5026  13.3938  13.6146  17.2135  17.9987  18.2548
    21.3570  30.6449  31.5353  31.5581

          k = 0.7500-0.0833 0.9167 (   357 PWs)   bands (ev):

   -31.6955 -31.5519 -31.5043  13.5215  13.8340  16.7629  17.6442  18.4209
    23.4690  28.7994  29.6777  31.8905

          k = 0.6667 0.0000 0.8333 (   364 PWs)   bands (ev):

   -31.6652 -31.5954 -31.4924  13.7888  14.2821  16.1007  17.2632  18.2539
    25.5396  26.5619  28.9905  32.9504

          k =-0.1667-1.0000-0.0000 (   358 PWs)   bands (ev):

   -31.7183 -31.5285 -31.5145  13.2372  13.4989  17.6391  17.9683  18.5511
    22.7807  28.8231  30.9230  30.9792

          k = 0.6667-0.3333 1.0000 (   351 PWs)   bands (ev):

   -31.6564 -31.5281 -31.4584  14.3417  14.3728  15.3314  17.2411  17.5437
    20.8070  31.0352  31.2625  34.6580

          k = 0.5833-0.2500 0.9167 (   358 PWs)   bands (ev):

   -31.6668 -31.5620 -31.4738  14.3299  14.5803  15.2598  16.9776  17.9920
    22.7800  28.1129  31.3386  33.3279

          k = 0.5000-0.1667 0.8333 (   366 PWs)   bands (ev):

   -31.6695 -31.5746 -31.4806  14.4062  14.4864  15.3900  16.8078  18.1634
    24.6709  25.8440  31.8942  32.3917

          k = 0.6667-0.1667 1.0000 (   352 PWs)   bands (ev):

   -31.6747 -31.5579 -31.4981  13.9198  14.1469  15.8982  17.4257  18.2488
    23.1196  29.8228  29.9482  31.3418

          k = 0.5833-0.0833 0.9167 (   361 PWs)   bands (ev):

   -31.6537 -31.5953 -31.5042  14.0452  14.5097  15.5094  17.0912  18.4035
    25.3999  27.2195  29.7462  30.9565

          k = 0.5000 0.0000 0.8333 (   357 PWs)   bands (ev):

   -31.6376 -31.6115 -31.4934  14.2421  14.8938  15.0015  16.9832  18.2436
    24.8535  27.7063  29.2509  32.0091

          k =-0.3333-1.0000 0.0000 (   360 PWs)   bands (ev):

   -31.6786 -31.5689 -31.5156  13.7406  14.0638  16.2193  17.3728  18.5510
    24.8682  28.6945  29.2579  30.1148

          k =-0.5000-1.0000 0.0000 (   360 PWs)   bands (ev):

   -31.6238 -31.6238 -31.5165  14.0714  14.9850  14.9850  16.9905  18.5517
    27.1252  27.1252  28.6163  29.7995

     the Fermi energy is    18.3439 ev

!    total energy              =    -198.70097000 Ry
     Harris-Foulkes estimate   =    -198.70097000 Ry
     estimated scf accuracy    <          4.6E-09 Ry

     The total energy is the sum of the following terms:

     one-electron contribution =     -44.67873011 Ry
     hartree contribution      =      35.94478660 Ry
     xc contribution           =     -31.35677299 Ry
     ewald contribution        =    -158.61144480 Ry
     smearing contrib. (-TS)   =       0.00119130 Ry

     convergence has been achieved in   6 iterations

     Writing output data file Pd-kp-conv.save/
 
     init_run     :      0.52s CPU      0.58s WALL (       1 calls)
     electrons    :      3.19s CPU      3.78s WALL (       1 calls)

     Called by init_run:
     wfcinit      :      0.19s CPU      0.22s WALL (       1 calls)
     potinit      :      0.01s CPU      0.02s WALL (       1 calls)
     hinit0       :      0.31s CPU      0.32s WALL (       1 calls)

     Called by electrons:
     c_bands      :      2.64s CPU      3.16s WALL (       6 calls)
     sum_band     :      0.50s CPU      0.55s WALL (       6 calls)
     v_of_rho     :      0.02s CPU      0.02s WALL (       7 calls)
     newd         :      0.04s CPU      0.04s WALL (       7 calls)
     mix_rho      :      0.00s CPU      0.00s WALL (       6 calls)

     Called by c_bands:
     init_us_2    :      0.08s CPU      0.08s WALL (     936 calls)
     cegterg      :      2.42s CPU      2.61s WALL (     432 calls)

     Called by sum_band:
     sum_band:bec :      0.00s CPU      0.00s WALL (     432 calls)
     addusdens    :      0.04s CPU      0.04s WALL (       6 calls)

     Called by *egterg:
     h_psi        :      1.94s CPU      2.11s WALL (    1517 calls)
     s_psi        :      0.03s CPU      0.04s WALL (    1517 calls)
     g_psi        :      0.02s CPU      0.03s WALL (    1013 calls)
     cdiaghg      :      0.36s CPU      0.39s WALL (    1445 calls)

     Called by h_psi:
     h_psi:pot    :      1.93s CPU      2.10s WALL (    1517 calls)
     h_psi:calbec :      0.05s CPU      0.06s WALL (    1517 calls)
     vloc_psi     :      1.83s CPU      1.99s WALL (    1517 calls)
     add_vuspsi   :      0.04s CPU      0.04s WALL (    1517 calls)

     General routines
     calbec       :      0.06s CPU      0.07s WALL (    1949 calls)
     fft          :      0.01s CPU      0.01s WALL (      78 calls)
     ffts         :      0.00s CPU      0.00s WALL (       6 calls)
     fftw         :      1.91s CPU      2.08s WALL (   32526 calls)
 
     Parallel routines
     fft_scatt_xy :      0.33s CPU      0.36s WALL (   32610 calls)
     fft_scatt_yz :      0.53s CPU      0.58s WALL (   32610 calls)
 
     PWSCF        :     3.82s CPU         4.72s WALL

 
   This run was terminated on:  23:14:24   2Dec2021            

=------------------------------------------------------------------------------=
   JOB DONE.
=------------------------------------------------------------------------------=
