
     Program PWSCF v.6.3 starts on  2Dec2021 at 22:23:25 

     This program is part of the open-source Quantum ESPRESSO suite
     for quantum simulation of materials; please cite
         "P. Giannozzi et al., J. Phys.:Condens. Matter 21 395502 (2009);
         "P. Giannozzi et al., J. Phys.:Condens. Matter 29 465901 (2017);
          URL http://www.quantum-espresso.org", 
     in publications or presentations arising from this work. More details at
     http://www.quantum-espresso.org/quote

     Parallel version (MPI & OpenMP), running on       2 processor cores
     Number of MPI processes:                 2
     Threads/MPI process:                     1

     MPI processes distributed on     1 nodes
     R & G space division:  proc/nbgrp/npool/nimage =       2
     Reading input from pw-input.in

     Current dimensions of program PWSCF are:
     Max number of different atomic species (ntypx) = 10
     Max number of k-points (npk) =  40000
     Max angular momentum in pseudopotentials (lmaxx) =  3

     Subspace diagonalization in iterative solution of the eigenvalue problem:
     a serial algorithm will be used

 
     Parallelization info
     --------------------
     sticks:   dense  smooth     PW     G-vecs:    dense   smooth      PW
     Min         126     126     42                 1318     1318     267
     Max         127     127     43                 1319     1319     270
     Sum         253     253     85                 2637     2637     537
 

     Title: 
     Pd-kp-conv                                                                 


     bravais-lattice index     =            2
     lattice parameter (alat)  =       7.2000  a.u.
     unit-cell volume          =      93.3120 (a.u.)^3
     number of atoms/cell      =            1
     number of atomic types    =            1
     number of electrons       =        16.00
     number of Kohn-Sham states=           12
     kinetic-energy cutoff     =      35.0000  Ry
     charge density cutoff     =     140.0000  Ry
     convergence threshold     =      1.0E-07
     mixing beta               =       0.7000
     number of iterations used =            8  plain     mixing
     Exchange-correlation      =  SLA  PW   PBX  PBC ( 1  4  3  4 0 0)

     celldm(1)=   7.200000  celldm(2)=   0.000000  celldm(3)=   0.000000
     celldm(4)=   0.000000  celldm(5)=   0.000000  celldm(6)=   0.000000

     crystal axes: (cart. coord. in units of alat)
               a(1) = (  -0.500000   0.000000   0.500000 )  
               a(2) = (   0.000000   0.500000   0.500000 )  
               a(3) = (  -0.500000   0.500000   0.000000 )  

     reciprocal axes: (cart. coord. in units 2 pi/alat)
               b(1) = ( -1.000000 -1.000000  1.000000 )  
               b(2) = (  1.000000  1.000000  1.000000 )  
               b(3) = ( -1.000000  1.000000 -1.000000 )  


     PseudoPot. # 1 for Pd read from file:
     ./pd_pbe_v1.4.uspp.F.UPF
     MD5 check sum: 2d733d2bc2cbfd217af676df1668a4bc
     Pseudo is Ultrasoft + core correction, Zval = 16.0
     Generated by new atomic code, or converted to UPF format
     Using radial grid of  887 points,  6 beta functions with: 
                l(1) =   0
                l(2) =   0
                l(3) =   1
                l(4) =   1
                l(5) =   2
                l(6) =   2
     Q(r) pseudized with  8 coefficients,  rinner =    1.130   1.130   1.130
                                                       1.130   1.130

     atomic species   valence    mass     pseudopotential
        Pd            16.00   106.40000     Pd( 1.00)

     48 Sym. Ops., with inversion, found



   Cartesian axes

     site n.     atom                  positions (alat units)
         1           Pd  tau(   1) = (   0.0000000   0.0000000   0.0000000  )

     number of k points=    16  Marzari-Vanderbilt smearing, width (Ry)=  0.0300
                       cart. coord. in units 2pi/alat
        k(    1) = (   0.0000000   0.0000000   0.0000000), wk =   0.0092593
        k(    2) = (  -0.1666667   0.1666667  -0.1666667), wk =   0.0740741
        k(    3) = (  -0.3333333   0.3333333  -0.3333333), wk =   0.0740741
        k(    4) = (   0.5000000  -0.5000000   0.5000000), wk =   0.0370370
        k(    5) = (   0.0000000   0.3333333   0.0000000), wk =   0.0555556
        k(    6) = (  -0.1666667   0.5000000  -0.1666667), wk =   0.2222222
        k(    7) = (   0.6666667  -0.3333333   0.6666667), wk =   0.2222222
        k(    8) = (   0.5000000  -0.1666667   0.5000000), wk =   0.2222222
        k(    9) = (   0.3333333   0.0000000   0.3333333), wk =   0.1111111
        k(   10) = (   0.0000000   0.6666667   0.0000000), wk =   0.0555556
        k(   11) = (   0.8333333  -0.1666667   0.8333333), wk =   0.2222222
        k(   12) = (   0.6666667  -0.0000000   0.6666667), wk =   0.1111111
        k(   13) = (   0.0000000  -1.0000000   0.0000000), wk =   0.0277778
        k(   14) = (   0.6666667  -0.3333333   1.0000000), wk =   0.2222222
        k(   15) = (   0.5000000  -0.1666667   0.8333333), wk =   0.2222222
        k(   16) = (  -0.3333333  -1.0000000   0.0000000), wk =   0.1111111

     Dense  grid:     2637 G-vectors     FFT dimensions: (  20,  20,  20)

     Estimated max dynamical RAM per process >       6.23 MB

     Estimated total dynamical RAM >      12.46 MB

     Initial potential from superposition of free atoms
     Check: negative starting charge=   -0.084445

     starting charge   15.49999, renormalised to   16.00000

     negative rho (up, down):  8.717E-02 0.000E+00
     Starting wfcs are   12 randomized atomic wfcs

     total cpu time spent up to now is        0.5 secs

     Self-consistent Calculation

     iteration #  1     ecut=    35.00 Ry     beta= 0.70
     Davidson diagonalization with overlap
     ethr =  1.00E-02,  avg # of iterations =  3.5

     negative rho (up, down):  8.680E-02 0.000E+00

     total cpu time spent up to now is        0.7 secs

     total energy              =    -198.28522627 Ry
     Harris-Foulkes estimate   =    -198.99968952 Ry
     estimated scf accuracy    <       0.99269293 Ry

     iteration #  2     ecut=    35.00 Ry     beta= 0.70
     Davidson diagonalization with overlap
     ethr =  6.20E-03,  avg # of iterations =  2.0

     negative rho (up, down):  8.804E-02 0.000E+00

     total cpu time spent up to now is        0.8 secs

     total energy              =    -198.51962703 Ry
     Harris-Foulkes estimate   =    -198.91977320 Ry
     estimated scf accuracy    <       0.76956947 Ry

     iteration #  3     ecut=    35.00 Ry     beta= 0.70
     Davidson diagonalization with overlap
     ethr =  4.81E-03,  avg # of iterations =  2.1

     negative rho (up, down):  8.860E-02 0.000E+00

     total cpu time spent up to now is        1.0 secs

     total energy              =    -198.69388769 Ry
     Harris-Foulkes estimate   =    -198.69652961 Ry
     estimated scf accuracy    <       0.00511855 Ry

     iteration #  4     ecut=    35.00 Ry     beta= 0.70
     Davidson diagonalization with overlap
     ethr =  3.20E-05,  avg # of iterations =  2.0

     negative rho (up, down):  8.875E-02 0.000E+00

     total cpu time spent up to now is        1.1 secs

     total energy              =    -198.69517739 Ry
     Harris-Foulkes estimate   =    -198.69526475 Ry
     estimated scf accuracy    <       0.00018003 Ry

     iteration #  5     ecut=    35.00 Ry     beta= 0.70
     Davidson diagonalization with overlap
     ethr =  1.13E-06,  avg # of iterations =  2.2

     negative rho (up, down):  8.880E-02 0.000E+00

     total cpu time spent up to now is        1.2 secs

     total energy              =    -198.69521095 Ry
     Harris-Foulkes estimate   =    -198.69521091 Ry
     estimated scf accuracy    <       0.00000025 Ry

     iteration #  6     ecut=    35.00 Ry     beta= 0.70
     Davidson diagonalization with overlap
     ethr =  1.54E-09,  avg # of iterations =  2.8

     negative rho (up, down):  8.881E-02 0.000E+00

     total cpu time spent up to now is        1.3 secs

     End of self-consistent calculation

          k = 0.0000 0.0000 0.0000 (   331 PWs)   bands (ev):

   -29.5010 -29.5010 -29.5010  12.7675  17.2217  17.2217  17.2217  19.0041
    19.0041  38.4624  43.6227  43.6227

          k =-0.1667 0.1667-0.1667 (   320 PWs)   bands (ev):

   -29.6318 -29.5191 -29.5191  13.7466  16.9695  17.5055  17.5055  18.9331
    18.9331  38.5246  39.8069  44.6550

          k =-0.3333 0.3333-0.3333 (   332 PWs)   bands (ev):

   -29.8894 -29.5557 -29.5557  14.7220  17.3913  17.3913  18.4677  19.6758
    19.6758  32.5110  38.7108  44.5922

          k = 0.5000-0.5000 0.5000 (   332 PWs)   bands (ev):

   -30.0155 -29.5740 -29.5740  14.5767  17.1661  17.1661  20.3421  20.3421
    21.3106  28.2729  37.6941  42.8699

          k = 0.0000 0.3333 0.0000 (   327 PWs)   bands (ev):

   -29.6274 -29.5491 -29.5491  14.0756  16.5031  17.8816  17.8816  18.3414
    19.3106  39.8518  40.7716  41.9615

          k =-0.1667 0.5000-0.1667 (   326 PWs)   bands (ev):

   -29.8165 -29.5925 -29.5913  15.2303  16.3606  17.4277  18.1539  19.9095
    19.9198  35.1143  39.4921  40.3383

          k = 0.6667-0.3333 0.6667 (   321 PWs)   bands (ev):

   -29.9635 -29.6497 -29.6036  15.1765  16.6867  17.8373  18.0099  20.3920
    23.6000  29.0313  37.5966  40.3121

          k = 0.5000-0.1667 0.5000 (   329 PWs)   bands (ev):

   -29.9234 -29.6666 -29.5741  15.3964  16.8585  17.7982  17.8082  19.4870
    22.7222  30.9819  36.8411  40.5267

          k = 0.3333 0.0000 0.3333 (   325 PWs)   bands (ev):

   -29.7560 -29.6038 -29.5317  15.0602  16.5195  17.5279  18.0803  18.3263
    20.1584  36.8565  37.8805  43.4343

          k = 0.0000 0.6667 0.0000 (   323 PWs)   bands (ev):

   -29.8707 -29.6448 -29.6448  15.0013  15.2754  19.5486  19.5486  19.9622
    19.9635  36.9137  36.9137  37.0692

          k = 0.8333-0.1667 0.8333 (   326 PWs)   bands (ev):

   -29.9351 -29.7236 -29.6629  14.9540  15.3680  18.7691  19.4278  20.5072
    24.4353  31.7596  33.9086  36.2363

          k = 0.6667-0.0000 0.6667 (   323 PWs)   bands (ev):

   -29.8495 -29.8473 -29.6276  15.5478  16.3758  17.4229  18.8408  19.8295
    26.7406  29.8534  32.0850  39.0729

          k = 0.0000-1.0000 0.0000 (   326 PWs)   bands (ev):

   -29.9863 -29.6925 -29.6925  14.4323  14.7371  20.3112  20.6962  20.6962
    23.8029  31.8888  34.2637  34.2637

          k = 0.6667-0.3333 1.0000 (   332 PWs)   bands (ev):

   -29.8856 -29.7129 -29.6188  15.9228  15.9392  17.0360  19.1830  19.5336
    23.1269  33.8709  34.1688  37.6143

          k = 0.5000-0.1667 0.8333 (   324 PWs)   bands (ev):

   -29.9019 -29.7747 -29.6480  15.9622  16.0884  17.0960  18.6897  20.2489
    27.1685  28.5456  34.8626  35.2466

          k =-0.3333-1.0000 0.0000 (   330 PWs)   bands (ev):

   -29.9140 -29.7668 -29.6956  15.2206  15.5952  18.0295  19.3318  20.6982
    27.3675  31.6130  31.9719  32.8740

     the Fermi energy is    20.3484 ev

!    total energy              =    -198.69521115 Ry
     Harris-Foulkes estimate   =    -198.69521116 Ry
     estimated scf accuracy    <       0.00000002 Ry

     The total energy is the sum of the following terms:

     one-electron contribution =     -37.91458150 Ry
     hartree contribution      =      33.64479453 Ry
     xc contribution           =     -31.40931759 Ry
     ewald contribution        =    -163.01731824 Ry
     smearing contrib. (-TS)   =       0.00121165 Ry

     convergence has been achieved in   6 iterations

     Writing output data file Pd-kp-conv.save/
 
     init_run     :      0.37s CPU      0.39s WALL (       1 calls)
     electrons    :      0.80s CPU      0.90s WALL (       1 calls)

     Called by init_run:
     wfcinit      :      0.04s CPU      0.05s WALL (       1 calls)
     potinit      :      0.00s CPU      0.02s WALL (       1 calls)
     hinit0       :      0.31s CPU      0.31s WALL (       1 calls)

     Called by electrons:
     c_bands      :      0.61s CPU      0.66s WALL (       6 calls)
     sum_band     :      0.13s CPU      0.14s WALL (       6 calls)
     v_of_rho     :      0.02s CPU      0.02s WALL (       7 calls)
     newd         :      0.04s CPU      0.04s WALL (       7 calls)
     mix_rho      :      0.00s CPU      0.00s WALL (       6 calls)

     Called by c_bands:
     init_us_2    :      0.02s CPU      0.02s WALL (     208 calls)
     cegterg      :      0.57s CPU      0.61s WALL (      96 calls)

     Called by sum_band:
     sum_band:bec :      0.00s CPU      0.00s WALL (      96 calls)
     addusdens    :      0.03s CPU      0.03s WALL (       6 calls)

     Called by *egterg:
     h_psi        :      0.45s CPU      0.48s WALL (     344 calls)
     s_psi        :      0.01s CPU      0.01s WALL (     344 calls)
     g_psi        :      0.01s CPU      0.01s WALL (     232 calls)
     cdiaghg      :      0.09s CPU      0.10s WALL (     328 calls)

     Called by h_psi:
     h_psi:pot    :      0.45s CPU      0.48s WALL (     344 calls)
     h_psi:calbec :      0.01s CPU      0.01s WALL (     344 calls)
     vloc_psi     :      0.43s CPU      0.46s WALL (     344 calls)
     add_vuspsi   :      0.01s CPU      0.01s WALL (     344 calls)

     General routines
     calbec       :      0.01s CPU      0.02s WALL (     440 calls)
     fft          :      0.01s CPU      0.01s WALL (      78 calls)
     ffts         :      0.00s CPU      0.00s WALL (       6 calls)
     fftw         :      0.44s CPU      0.47s WALL (    7366 calls)
 
     Parallel routines
     fft_scatt_xy :      0.08s CPU      0.09s WALL (    7450 calls)
     fft_scatt_yz :      0.11s CPU      0.12s WALL (    7450 calls)
 
     PWSCF        :     1.25s CPU         1.82s WALL

 
   This run was terminated on:  22:23:27   2Dec2021            

=------------------------------------------------------------------------------=
   JOB DONE.
=------------------------------------------------------------------------------=
