
     Program PWSCF v.6.3 starts on  2Dec2021 at 22:23:38 

     This program is part of the open-source Quantum ESPRESSO suite
     for quantum simulation of materials; please cite
         "P. Giannozzi et al., J. Phys.:Condens. Matter 21 395502 (2009);
         "P. Giannozzi et al., J. Phys.:Condens. Matter 29 465901 (2017);
          URL http://www.quantum-espresso.org", 
     in publications or presentations arising from this work. More details at
     http://www.quantum-espresso.org/quote

     Parallel version (MPI & OpenMP), running on       2 processor cores
     Number of MPI processes:                 2
     Threads/MPI process:                     1

     MPI processes distributed on     1 nodes
     R & G space division:  proc/nbgrp/npool/nimage =       2
     Reading input from pw-input.in

     Current dimensions of program PWSCF are:
     Max number of different atomic species (ntypx) = 10
     Max number of k-points (npk) =  40000
     Max angular momentum in pseudopotentials (lmaxx) =  3

     Subspace diagonalization in iterative solution of the eigenvalue problem:
     a serial algorithm will be used

 
     Parallelization info
     --------------------
     sticks:   dense  smooth     PW     G-vecs:    dense   smooth      PW
     Min         141     141     48                 1570     1570     322
     Max         142     142     49                 1573     1573     323
     Sum         283     283     97                 3143     3143     645
 

     Title: 
     Pd-kp-conv                                                                 


     bravais-lattice index     =            2
     lattice parameter (alat)  =       7.7000  a.u.
     unit-cell volume          =     114.1333 (a.u.)^3
     number of atoms/cell      =            1
     number of atomic types    =            1
     number of electrons       =        16.00
     number of Kohn-Sham states=           12
     kinetic-energy cutoff     =      35.0000  Ry
     charge density cutoff     =     140.0000  Ry
     convergence threshold     =      1.0E-07
     mixing beta               =       0.7000
     number of iterations used =            8  plain     mixing
     Exchange-correlation      =  SLA  PW   PBX  PBC ( 1  4  3  4 0 0)

     celldm(1)=   7.700000  celldm(2)=   0.000000  celldm(3)=   0.000000
     celldm(4)=   0.000000  celldm(5)=   0.000000  celldm(6)=   0.000000

     crystal axes: (cart. coord. in units of alat)
               a(1) = (  -0.500000   0.000000   0.500000 )  
               a(2) = (   0.000000   0.500000   0.500000 )  
               a(3) = (  -0.500000   0.500000   0.000000 )  

     reciprocal axes: (cart. coord. in units 2 pi/alat)
               b(1) = ( -1.000000 -1.000000  1.000000 )  
               b(2) = (  1.000000  1.000000  1.000000 )  
               b(3) = ( -1.000000  1.000000 -1.000000 )  


     PseudoPot. # 1 for Pd read from file:
     ./pd_pbe_v1.4.uspp.F.UPF
     MD5 check sum: 2d733d2bc2cbfd217af676df1668a4bc
     Pseudo is Ultrasoft + core correction, Zval = 16.0
     Generated by new atomic code, or converted to UPF format
     Using radial grid of  887 points,  6 beta functions with: 
                l(1) =   0
                l(2) =   0
                l(3) =   1
                l(4) =   1
                l(5) =   2
                l(6) =   2
     Q(r) pseudized with  8 coefficients,  rinner =    1.130   1.130   1.130
                                                       1.130   1.130

     atomic species   valence    mass     pseudopotential
        Pd            16.00   106.40000     Pd( 1.00)

     48 Sym. Ops., with inversion, found



   Cartesian axes

     site n.     atom                  positions (alat units)
         1           Pd  tau(   1) = (   0.0000000   0.0000000   0.0000000  )

     number of k points=    16  Marzari-Vanderbilt smearing, width (Ry)=  0.0300
                       cart. coord. in units 2pi/alat
        k(    1) = (   0.0000000   0.0000000   0.0000000), wk =   0.0092593
        k(    2) = (  -0.1666667   0.1666667  -0.1666667), wk =   0.0740741
        k(    3) = (  -0.3333333   0.3333333  -0.3333333), wk =   0.0740741
        k(    4) = (   0.5000000  -0.5000000   0.5000000), wk =   0.0370370
        k(    5) = (   0.0000000   0.3333333   0.0000000), wk =   0.0555556
        k(    6) = (  -0.1666667   0.5000000  -0.1666667), wk =   0.2222222
        k(    7) = (   0.6666667  -0.3333333   0.6666667), wk =   0.2222222
        k(    8) = (   0.5000000  -0.1666667   0.5000000), wk =   0.2222222
        k(    9) = (   0.3333333   0.0000000   0.3333333), wk =   0.1111111
        k(   10) = (   0.0000000   0.6666667   0.0000000), wk =   0.0555556
        k(   11) = (   0.8333333  -0.1666667   0.8333333), wk =   0.2222222
        k(   12) = (   0.6666667  -0.0000000   0.6666667), wk =   0.1111111
        k(   13) = (   0.0000000  -1.0000000   0.0000000), wk =   0.0277778
        k(   14) = (   0.6666667  -0.3333333   1.0000000), wk =   0.2222222
        k(   15) = (   0.5000000  -0.1666667   0.8333333), wk =   0.2222222
        k(   16) = (  -0.3333333  -1.0000000   0.0000000), wk =   0.1111111

     Dense  grid:     3143 G-vectors     FFT dimensions: (  24,  24,  24)

     Estimated max dynamical RAM per process >       7.46 MB

     Estimated total dynamical RAM >      14.91 MB

     Initial potential from superposition of free atoms
     Check: negative starting charge=   -0.079204

     starting charge   15.49999, renormalised to   16.00000

     negative rho (up, down):  8.176E-02 0.000E+00
     Starting wfcs are   12 randomized atomic wfcs

     total cpu time spent up to now is        0.5 secs

     Self-consistent Calculation

     iteration #  1     ecut=    35.00 Ry     beta= 0.70
     Davidson diagonalization with overlap
     ethr =  1.00E-02,  avg # of iterations =  3.6

     negative rho (up, down):  8.047E-02 0.000E+00

     total cpu time spent up to now is        0.8 secs

     total energy              =    -198.09542662 Ry
     Harris-Foulkes estimate   =    -199.06105102 Ry
     estimated scf accuracy    <       1.32252072 Ry

     iteration #  2     ecut=    35.00 Ry     beta= 0.70
     Davidson diagonalization with overlap
     ethr =  8.27E-03,  avg # of iterations =  2.0

     negative rho (up, down):  8.178E-02 0.000E+00

     total cpu time spent up to now is        1.0 secs

     total energy              =    -198.40733052 Ry
     Harris-Foulkes estimate   =    -199.12767797 Ry
     estimated scf accuracy    <       1.47544528 Ry

     iteration #  3     ecut=    35.00 Ry     beta= 0.70
     Davidson diagonalization with overlap
     ethr =  8.27E-03,  avg # of iterations =  2.0

     negative rho (up, down):  8.196E-02 0.000E+00

     total cpu time spent up to now is        1.2 secs

     total energy              =    -198.69500542 Ry
     Harris-Foulkes estimate   =    -198.69613319 Ry
     estimated scf accuracy    <       0.00244495 Ry

     iteration #  4     ecut=    35.00 Ry     beta= 0.70
     Davidson diagonalization with overlap
     ethr =  1.53E-05,  avg # of iterations =  2.7

     negative rho (up, down):  8.209E-02 0.000E+00

     total cpu time spent up to now is        1.4 secs

     total energy              =    -198.69576815 Ry
     Harris-Foulkes estimate   =    -198.69577883 Ry
     estimated scf accuracy    <       0.00002854 Ry

     iteration #  5     ecut=    35.00 Ry     beta= 0.70
     Davidson diagonalization with overlap
     ethr =  1.78E-07,  avg # of iterations =  1.9

     negative rho (up, down):  8.215E-02 0.000E+00

     total cpu time spent up to now is        1.5 secs

     total energy              =    -198.69577391 Ry
     Harris-Foulkes estimate   =    -198.69577363 Ry
     estimated scf accuracy    <       0.00000018 Ry

     iteration #  6     ecut=    35.00 Ry     beta= 0.70
     Davidson diagonalization with overlap
     ethr =  1.14E-09,  avg # of iterations =  2.4

     negative rho (up, down):  8.215E-02 0.000E+00

     total cpu time spent up to now is        1.7 secs

     End of self-consistent calculation

          k = 0.0000 0.0000 0.0000 (   411 PWs)   bands (ev):

   -33.9731 -33.9731 -33.9731   9.3048  13.1365  13.1365  13.1365  14.4185
    14.4185  33.0372  37.0035  37.0035

          k =-0.1667 0.1667-0.1667 (   387 PWs)   bands (ev):

   -34.0346 -33.9817 -33.9817  10.1406  12.9618  13.3470  13.3470  14.3780
    14.3780  31.9038  34.0213  37.4485

          k =-0.3333 0.3333-0.3333 (   401 PWs)   bands (ev):

   -34.1573 -34.0000 -34.0000  11.1613  13.2706  13.2706  14.1497  14.9100
    14.9100  25.8418  33.0506  36.7630

          k = 0.5000-0.5000 0.5000 (   392 PWs)   bands (ev):

   -34.2178 -34.0088 -34.0088  11.1125  13.1095  13.1095  15.3758  15.3758
    16.7603  21.7497  32.2597  35.5613

          k = 0.0000 0.3333 0.0000 (   399 PWs)   bands (ev):

   -34.0326 -33.9962 -33.9962  10.4206  12.6273  13.6205  13.6205  13.9628
    14.6408  33.7286  34.4703  34.6710

          k =-0.1667 0.5000-0.1667 (   398 PWs)   bands (ev):

   -34.1227 -34.0172 -34.0167  11.5380  12.5094  13.3007  13.8229  15.0703
    15.1544  28.3374  33.0471  33.1445

          k = 0.6667-0.3333 0.6667 (   393 PWs)   bands (ev):

   -34.1933 -34.0447 -34.0231  11.5869  12.7819  13.5991  13.7494  15.4091
    18.3005  22.6388  31.1292  33.0875

          k = 0.5000-0.1667 0.5000 (   404 PWs)   bands (ev):

   -34.1740 -34.0528 -34.0092  11.7344  12.8984  13.5804  13.6028  14.7784
    17.3973  24.4358  30.0978  34.1052

          k = 0.3333 0.0000 0.3333 (   397 PWs)   bands (ev):

   -34.0937 -34.0225 -33.9883  11.2855  12.6382  13.3794  13.7681  13.9543
    15.2723  30.2271  30.8411  36.5056

          k = 0.0000 0.6667 0.0000 (   399 PWs)   bands (ev):

   -34.1489 -34.0423 -34.0423  11.4669  11.7271  14.8239  14.8239  15.1079
    15.3228  30.0989  30.1754  30.1754

          k = 0.8333-0.1667 0.8333 (   402 PWs)   bands (ev):

   -34.1805 -34.0802 -34.0516  11.4832  11.7891  14.2949  14.7402  15.4897
    18.9781  25.4381  27.0465  29.6249

          k = 0.6667-0.0000 0.6667 (   403 PWs)   bands (ev):

   -34.1398 -34.1389 -34.0351  11.9253  12.5356  13.2982  14.3283  15.0180
    20.9114  23.6042  25.4103  31.9191

          k = 0.0000-1.0000 0.0000 (   388 PWs)   bands (ev):

   -34.2050 -34.0655 -34.0655  11.0975  11.3228  15.3533  15.6230  15.6230
    18.8281  24.8845  28.0579  28.0579

          k = 0.6667-0.3333 1.0000 (   407 PWs)   bands (ev):

   -34.1564 -34.0750 -34.0304  12.1870  12.2070  13.0009  14.5802  14.8120
    17.7190  27.2579  27.4196  30.7016

          k = 0.5000-0.1667 0.8333 (   400 PWs)   bands (ev):

   -34.1646 -34.1044 -34.0446  12.2581  12.2946  13.0601  14.2214  15.3139
    21.3840  22.2685  27.9562  28.5938

          k =-0.3333-1.0000 0.0000 (   398 PWs)   bands (ev):

   -34.1706 -34.1009 -34.0670  11.6998  11.9486  13.7493  14.6816  15.6237
    21.5893  24.8140  25.6686  26.4594

     the Fermi energy is    15.4098 ev

!    total energy              =    -198.69577393 Ry
     Harris-Foulkes estimate   =    -198.69577395 Ry
     estimated scf accuracy    <       0.00000003 Ry

     The total energy is the sum of the following terms:

     one-electron contribution =     -54.19018686 Ry
     hartree contribution      =      39.19572199 Ry
     xc contribution           =     -31.27117553 Ry
     ewald contribution        =    -152.43177811 Ry
     smearing contrib. (-TS)   =       0.00164459 Ry

     convergence has been achieved in   6 iterations

     Writing output data file Pd-kp-conv.save/
 
     init_run     :      0.40s CPU      0.43s WALL (       1 calls)
     electrons    :      1.07s CPU      1.19s WALL (       1 calls)

     Called by init_run:
     wfcinit      :      0.06s CPU      0.08s WALL (       1 calls)
     potinit      :      0.01s CPU      0.01s WALL (       1 calls)
     hinit0       :      0.32s CPU      0.32s WALL (       1 calls)

     Called by electrons:
     c_bands      :      0.83s CPU      0.92s WALL (       6 calls)
     sum_band     :      0.18s CPU      0.19s WALL (       6 calls)
     v_of_rho     :      0.03s CPU      0.03s WALL (       7 calls)
     newd         :      0.04s CPU      0.04s WALL (       7 calls)
     mix_rho      :      0.00s CPU      0.00s WALL (       6 calls)

     Called by c_bands:
     init_us_2    :      0.02s CPU      0.02s WALL (     208 calls)
     cegterg      :      0.77s CPU      0.82s WALL (      96 calls)

     Called by sum_band:
     sum_band:bec :      0.00s CPU      0.00s WALL (      96 calls)
     addusdens    :      0.04s CPU      0.04s WALL (       6 calls)

     Called by *egterg:
     h_psi        :      0.67s CPU      0.71s WALL (     345 calls)
     s_psi        :      0.01s CPU      0.01s WALL (     345 calls)
     g_psi        :      0.01s CPU      0.01s WALL (     233 calls)
     cdiaghg      :      0.09s CPU      0.09s WALL (     329 calls)

     Called by h_psi:
     h_psi:pot    :      0.66s CPU      0.71s WALL (     345 calls)
     h_psi:calbec :      0.01s CPU      0.01s WALL (     345 calls)
     vloc_psi     :      0.64s CPU      0.68s WALL (     345 calls)
     add_vuspsi   :      0.01s CPU      0.01s WALL (     345 calls)

     General routines
     calbec       :      0.01s CPU      0.02s WALL (     441 calls)
     fft          :      0.01s CPU      0.01s WALL (      78 calls)
     ffts         :      0.00s CPU      0.00s WALL (       6 calls)
     fftw         :      0.65s CPU      0.69s WALL (    7314 calls)
 
     Parallel routines
     fft_scatt_xy :      0.12s CPU      0.13s WALL (    7398 calls)
     fft_scatt_yz :      0.14s CPU      0.15s WALL (    7398 calls)
 
     PWSCF        :     1.55s CPU         2.14s WALL

 
   This run was terminated on:  22:23:40   2Dec2021            

=------------------------------------------------------------------------------=
   JOB DONE.
=------------------------------------------------------------------------------=
