
     Program PWSCF v.6.3 starts on  2Dec2021 at 22:23:54 

     This program is part of the open-source Quantum ESPRESSO suite
     for quantum simulation of materials; please cite
         "P. Giannozzi et al., J. Phys.:Condens. Matter 21 395502 (2009);
         "P. Giannozzi et al., J. Phys.:Condens. Matter 29 465901 (2017);
          URL http://www.quantum-espresso.org", 
     in publications or presentations arising from this work. More details at
     http://www.quantum-espresso.org/quote

     Parallel version (MPI & OpenMP), running on       2 processor cores
     Number of MPI processes:                 2
     Threads/MPI process:                     1

     MPI processes distributed on     1 nodes
     R & G space division:  proc/nbgrp/npool/nimage =       2
     Reading input from pw-input.in

     Current dimensions of program PWSCF are:
     Max number of different atomic species (ntypx) = 10
     Max number of k-points (npk) =  40000
     Max angular momentum in pseudopotentials (lmaxx) =  3

     Subspace diagonalization in iterative solution of the eigenvalue problem:
     a serial algorithm will be used

 
     Parallelization info
     --------------------
     sticks:   dense  smooth     PW     G-vecs:    dense   smooth      PW
     Min         156     156     54                 1917     1917     373
     Max         157     157     55                 1922     1922     376
     Sum         313     313    109                 3839     3839     749
 

     Title: 
     Pd-kp-conv                                                                 


     bravais-lattice index     =            2
     lattice parameter (alat)  =       8.2000  a.u.
     unit-cell volume          =     137.8420 (a.u.)^3
     number of atoms/cell      =            1
     number of atomic types    =            1
     number of electrons       =        16.00
     number of Kohn-Sham states=           12
     kinetic-energy cutoff     =      35.0000  Ry
     charge density cutoff     =     140.0000  Ry
     convergence threshold     =      1.0E-07
     mixing beta               =       0.7000
     number of iterations used =            8  plain     mixing
     Exchange-correlation      =  SLA  PW   PBX  PBC ( 1  4  3  4 0 0)

     celldm(1)=   8.200000  celldm(2)=   0.000000  celldm(3)=   0.000000
     celldm(4)=   0.000000  celldm(5)=   0.000000  celldm(6)=   0.000000

     crystal axes: (cart. coord. in units of alat)
               a(1) = (  -0.500000   0.000000   0.500000 )  
               a(2) = (   0.000000   0.500000   0.500000 )  
               a(3) = (  -0.500000   0.500000   0.000000 )  

     reciprocal axes: (cart. coord. in units 2 pi/alat)
               b(1) = ( -1.000000 -1.000000  1.000000 )  
               b(2) = (  1.000000  1.000000  1.000000 )  
               b(3) = ( -1.000000  1.000000 -1.000000 )  


     PseudoPot. # 1 for Pd read from file:
     ./pd_pbe_v1.4.uspp.F.UPF
     MD5 check sum: 2d733d2bc2cbfd217af676df1668a4bc
     Pseudo is Ultrasoft + core correction, Zval = 16.0
     Generated by new atomic code, or converted to UPF format
     Using radial grid of  887 points,  6 beta functions with: 
                l(1) =   0
                l(2) =   0
                l(3) =   1
                l(4) =   1
                l(5) =   2
                l(6) =   2
     Q(r) pseudized with  8 coefficients,  rinner =    1.130   1.130   1.130
                                                       1.130   1.130

     atomic species   valence    mass     pseudopotential
        Pd            16.00   106.40000     Pd( 1.00)

     48 Sym. Ops., with inversion, found



   Cartesian axes

     site n.     atom                  positions (alat units)
         1           Pd  tau(   1) = (   0.0000000   0.0000000   0.0000000  )

     number of k points=    16  Marzari-Vanderbilt smearing, width (Ry)=  0.0300
                       cart. coord. in units 2pi/alat
        k(    1) = (   0.0000000   0.0000000   0.0000000), wk =   0.0092593
        k(    2) = (  -0.1666667   0.1666667  -0.1666667), wk =   0.0740741
        k(    3) = (  -0.3333333   0.3333333  -0.3333333), wk =   0.0740741
        k(    4) = (   0.5000000  -0.5000000   0.5000000), wk =   0.0370370
        k(    5) = (   0.0000000   0.3333333   0.0000000), wk =   0.0555556
        k(    6) = (  -0.1666667   0.5000000  -0.1666667), wk =   0.2222222
        k(    7) = (   0.6666667  -0.3333333   0.6666667), wk =   0.2222222
        k(    8) = (   0.5000000  -0.1666667   0.5000000), wk =   0.2222222
        k(    9) = (   0.3333333   0.0000000   0.3333333), wk =   0.1111111
        k(   10) = (   0.0000000   0.6666667   0.0000000), wk =   0.0555556
        k(   11) = (   0.8333333  -0.1666667   0.8333333), wk =   0.2222222
        k(   12) = (   0.6666667  -0.0000000   0.6666667), wk =   0.1111111
        k(   13) = (   0.0000000  -1.0000000   0.0000000), wk =   0.0277778
        k(   14) = (   0.6666667  -0.3333333   1.0000000), wk =   0.2222222
        k(   15) = (   0.5000000  -0.1666667   0.8333333), wk =   0.2222222
        k(   16) = (  -0.3333333  -1.0000000   0.0000000), wk =   0.1111111

     Dense  grid:     3839 G-vectors     FFT dimensions: (  24,  24,  24)

     Estimated max dynamical RAM per process >       8.81 MB

     Estimated total dynamical RAM >      17.63 MB

     Initial potential from superposition of free atoms
     Check: negative starting charge=   -0.082129

     starting charge   15.49999, renormalised to   16.00000

     negative rho (up, down):  8.478E-02 0.000E+00
     Starting wfcs are   12 randomized atomic wfcs

     total cpu time spent up to now is        0.5 secs

     Self-consistent Calculation

     iteration #  1     ecut=    35.00 Ry     beta= 0.70
     Davidson diagonalization with overlap
     ethr =  1.00E-02,  avg # of iterations =  3.2

     negative rho (up, down):  8.197E-02 0.000E+00

     total cpu time spent up to now is        0.8 secs

     total energy              =    -197.86772543 Ry
     Harris-Foulkes estimate   =    -199.07240494 Ry
     estimated scf accuracy    <       1.63162151 Ry

     iteration #  2     ecut=    35.00 Ry     beta= 0.70
     Davidson diagonalization with overlap
     ethr =  1.00E-02,  avg # of iterations =  2.0

     negative rho (up, down):  8.424E-02 0.000E+00

     total cpu time spent up to now is        1.0 secs

     total energy              =    -198.24035514 Ry
     Harris-Foulkes estimate   =    -199.35246341 Ry
     estimated scf accuracy    <       2.39978980 Ry

     iteration #  3     ecut=    35.00 Ry     beta= 0.70
     Davidson diagonalization with overlap
     ethr =  1.00E-02,  avg # of iterations =  2.0

     negative rho (up, down):  8.432E-02 0.000E+00

     total cpu time spent up to now is        1.2 secs

     total energy              =    -198.66442549 Ry
     Harris-Foulkes estimate   =    -198.66446535 Ry
     estimated scf accuracy    <       0.00012600 Ry

     iteration #  4     ecut=    35.00 Ry     beta= 0.70
     Davidson diagonalization with overlap
     ethr =  7.88E-07,  avg # of iterations =  3.9

     negative rho (up, down):  8.443E-02 0.000E+00

     total cpu time spent up to now is        1.4 secs

     total energy              =    -198.66468151 Ry
     Harris-Foulkes estimate   =    -198.66468116 Ry
     estimated scf accuracy    <       0.00000422 Ry

     iteration #  5     ecut=    35.00 Ry     beta= 0.70
     Davidson diagonalization with overlap
     ethr =  2.64E-08,  avg # of iterations =  1.0

     negative rho (up, down):  8.444E-02 0.000E+00

     total cpu time spent up to now is        1.6 secs

     End of self-consistent calculation

          k = 0.0000 0.0000 0.0000 (   531 PWs)   bands (ev):

   -37.3416 -37.3416 -37.3416   6.7479   9.9802   9.9802   9.9802  10.9183
    10.9183  28.6310  31.5288  31.5288

          k =-0.1667 0.1667-0.1667 (   489 PWs)   bands (ev):

   -37.3707 -37.3457 -37.3457   7.4708   9.8641  10.1382  10.1382  10.8941
    10.8941  26.5536  29.3286  31.5060

          k =-0.3333 0.3333-0.3333 (   492 PWs)   bands (ev):

   -37.4298 -37.3549 -37.3549   8.4401  10.0868  10.0868  10.8873  11.2828
    11.2828  20.7447  28.5015  30.5662

          k = 0.5000-0.5000 0.5000 (   476 PWs)   bands (ev):

   -37.4587 -37.3593 -37.3593   8.4366   9.9694   9.9694  11.6156  11.6156
    13.3618  16.8402  27.8584  29.6953

          k = 0.0000 0.3333 0.0000 (   488 PWs)   bands (ev):

   -37.3697 -37.3526 -37.3526   7.7135   9.6151  10.3416  10.3416  10.6021
    11.0826  28.7858  28.8573  28.8573

          k =-0.1667 0.5000-0.1667 (   481 PWs)   bands (ev):

   -37.4129 -37.3629 -37.3628   8.7347   9.5378  10.1176  10.4938  11.3954
    11.5412  23.0817  27.3555  28.0591

          k = 0.6667-0.3333 0.6667 (   478 PWs)   bands (ev):

   -37.4472 -37.3764 -37.3661   8.8143   9.7480  10.3334  10.4873  11.6395
    14.3260  17.8239  25.8453  27.4229

          k = 0.5000-0.1667 0.5000 (   483 PWs)   bands (ev):

   -37.4378 -37.3801 -37.3593   8.9203   9.8254  10.3208  10.3978  11.1903
    13.4090  19.4796  24.7674  29.0181

          k = 0.3333 0.0000 0.3333 (   487 PWs)   bands (ev):

   -37.3990 -37.3653 -37.3492   8.4729   9.6285  10.1788  10.4494  10.5941
    11.5697  24.9144  25.3679  31.0812

          k = 0.0000 0.6667 0.0000 (   480 PWs)   bands (ev):

   -37.4257 -37.3755 -37.3755   8.7381   8.9478  11.2234  11.2234  11.4207
    11.8308  24.5867  24.9358  24.9358

          k = 0.8333-0.1667 0.8333 (   480 PWs)   bands (ev):

   -37.4414 -37.3936 -37.3800   8.7698   9.0017  10.8760  11.1651  11.6964
    14.8907  20.5256  21.8367  24.4834

          k = 0.6667-0.0000 0.6667 (   480 PWs)   bands (ev):

   -37.4216 -37.4215 -37.3718   9.0980   9.5794  10.1331  10.8736  11.3598
    16.4968  18.9211  20.2957  26.3676

          k = 0.0000-1.0000 0.0000 (   468 PWs)   bands (ev):

   -37.4534 -37.3868 -37.3868   8.4821   8.6422  11.5977  11.7918  11.7918
    15.1038  19.5504  23.2162  23.2162

          k = 0.6667-0.3333 1.0000 (   481 PWs)   bands (ev):

   -37.4294 -37.3908 -37.3695   9.3063   9.3086   9.8988  11.0651  11.2148
    13.6685  22.1117  22.2834  25.2958

          k = 0.5000-0.1667 0.8333 (   478 PWs)   bands (ev):

   -37.4337 -37.4049 -37.3764   9.3682   9.3709   9.9580  10.7967  11.5733
    17.0476  17.5054  22.6363  23.4615

          k =-0.3333-1.0000 0.0000 (   478 PWs)   bands (ev):

   -37.4368 -37.4035 -37.3872   8.9494   9.1136  10.4692  11.1285  11.7925
    17.2654  19.5868  20.8513  21.5465

     the Fermi energy is    11.6819 ev

!    total energy              =    -198.66468168 Ry
     Harris-Foulkes estimate   =    -198.66468165 Ry
     estimated scf accuracy    <       0.00000005 Ry

     The total energy is the sum of the following terms:

     one-electron contribution =     -68.94561481 Ry
     hartree contribution      =      44.61231860 Ry
     xc contribution           =     -31.19674243 Ry
     ewald contribution        =    -143.13715749 Ry
     smearing contrib. (-TS)   =       0.00251443 Ry

     convergence has been achieved in   5 iterations

     Writing output data file Pd-kp-conv.save/
 
     init_run     :      0.42s CPU      0.45s WALL (       1 calls)
     electrons    :      0.96s CPU      1.39s WALL (       1 calls)

     Called by init_run:
     wfcinit      :      0.07s CPU      0.07s WALL (       1 calls)
     potinit      :      0.01s CPU      0.02s WALL (       1 calls)
     hinit0       :      0.33s CPU      0.33s WALL (       1 calls)

     Called by electrons:
     c_bands      :      0.74s CPU      0.79s WALL (       5 calls)
     sum_band     :      0.16s CPU      0.17s WALL (       5 calls)
     v_of_rho     :      0.03s CPU      0.03s WALL (       6 calls)
     newd         :      0.04s CPU      0.05s WALL (       6 calls)
     mix_rho      :      0.00s CPU      0.00s WALL (       5 calls)

     Called by c_bands:
     init_us_2    :      0.02s CPU      0.02s WALL (     176 calls)
     cegterg      :      0.68s CPU      0.73s WALL (      80 calls)

     Called by sum_band:
     sum_band:bec :      0.00s CPU      0.00s WALL (      80 calls)
     addusdens    :      0.04s CPU      0.04s WALL (       5 calls)

     Called by *egterg:
     h_psi        :      0.59s CPU      0.64s WALL (     289 calls)
     s_psi        :      0.01s CPU      0.01s WALL (     289 calls)
     g_psi        :      0.01s CPU      0.01s WALL (     193 calls)
     cdiaghg      :      0.08s CPU      0.08s WALL (     273 calls)

     Called by h_psi:
     h_psi:pot    :      0.59s CPU      0.63s WALL (     289 calls)
     h_psi:calbec :      0.01s CPU      0.01s WALL (     289 calls)
     vloc_psi     :      0.57s CPU      0.61s WALL (     289 calls)
     add_vuspsi   :      0.01s CPU      0.01s WALL (     289 calls)

     General routines
     calbec       :      0.01s CPU      0.02s WALL (     369 calls)
     fft          :      0.01s CPU      0.01s WALL (      67 calls)
     ffts         :      0.00s CPU      0.00s WALL (       5 calls)
     fftw         :      0.58s CPU      0.61s WALL (    6318 calls)
 
     Parallel routines
     fft_scatt_xy :      0.11s CPU      0.11s WALL (    6390 calls)
     fft_scatt_yz :      0.13s CPU      0.14s WALL (    6390 calls)
 
     PWSCF        :     1.47s CPU         2.04s WALL

 
   This run was terminated on:  22:23:56   2Dec2021            

=------------------------------------------------------------------------------=
   JOB DONE.
=------------------------------------------------------------------------------=
