
     Program PWSCF v.6.3 starts on  2Dec2021 at 21:15:29 

     This program is part of the open-source Quantum ESPRESSO suite
     for quantum simulation of materials; please cite
         "P. Giannozzi et al., J. Phys.:Condens. Matter 21 395502 (2009);
         "P. Giannozzi et al., J. Phys.:Condens. Matter 29 465901 (2017);
          URL http://www.quantum-espresso.org", 
     in publications or presentations arising from this work. More details at
     http://www.quantum-espresso.org/quote

     Parallel version (MPI & OpenMP), running on       2 processor cores
     Number of MPI processes:                 2
     Threads/MPI process:                     1

     MPI processes distributed on     1 nodes
     R & G space division:  proc/nbgrp/npool/nimage =       2
     Reading input from pw-input.in

     Current dimensions of program PWSCF are:
     Max number of different atomic species (ntypx) = 10
     Max number of k-points (npk) =  40000
     Max angular momentum in pseudopotentials (lmaxx) =  3

     Subspace diagonalization in iterative solution of the eigenvalue problem:
     a serial algorithm will be used

 
     Parallelization info
     --------------------
     sticks:   dense  smooth     PW     G-vecs:    dense   smooth      PW
     Min         120     120     42                 1210     1210     264
     Max         121     121     43                 1211     1211     267
     Sum         241     241     85                 2421     2421     531
 

     Title: 
     Pd-kp-conv                                                                 


     bravais-lattice index     =            2
     lattice parameter (alat)  =       7.0000  a.u.
     unit-cell volume          =      85.7500 (a.u.)^3
     number of atoms/cell      =            1
     number of atomic types    =            1
     number of electrons       =        16.00
     number of Kohn-Sham states=           12
     kinetic-energy cutoff     =      35.0000  Ry
     charge density cutoff     =     140.0000  Ry
     convergence threshold     =      1.0E-07
     mixing beta               =       0.7000
     number of iterations used =            8  plain     mixing
     Exchange-correlation      =  SLA  PW   PBX  PBC ( 1  4  3  4 0 0)

     celldm(1)=   7.000000  celldm(2)=   0.000000  celldm(3)=   0.000000
     celldm(4)=   0.000000  celldm(5)=   0.000000  celldm(6)=   0.000000

     crystal axes: (cart. coord. in units of alat)
               a(1) = (  -0.500000   0.000000   0.500000 )  
               a(2) = (   0.000000   0.500000   0.500000 )  
               a(3) = (  -0.500000   0.500000   0.000000 )  

     reciprocal axes: (cart. coord. in units 2 pi/alat)
               b(1) = ( -1.000000 -1.000000  1.000000 )  
               b(2) = (  1.000000  1.000000  1.000000 )  
               b(3) = ( -1.000000  1.000000 -1.000000 )  


     PseudoPot. # 1 for Pd read from file:
     ./pd_pbe_v1.4.uspp.F.UPF
     MD5 check sum: 2d733d2bc2cbfd217af676df1668a4bc
     Pseudo is Ultrasoft + core correction, Zval = 16.0
     Generated by new atomic code, or converted to UPF format
     Using radial grid of  887 points,  6 beta functions with: 
                l(1) =   0
                l(2) =   0
                l(3) =   1
                l(4) =   1
                l(5) =   2
                l(6) =   2
     Q(r) pseudized with  8 coefficients,  rinner =    1.130   1.130   1.130
                                                       1.130   1.130

     atomic species   valence    mass     pseudopotential
        Pd            16.00   106.40000     Pd( 1.00)

     48 Sym. Ops., with inversion, found



   Cartesian axes

     site n.     atom                  positions (alat units)
         1           Pd  tau(   1) = (   0.0000000   0.0000000   0.0000000  )

     number of k points=    16  Marzari-Vanderbilt smearing, width (Ry)=  0.0150
                       cart. coord. in units 2pi/alat
        k(    1) = (   0.0000000   0.0000000   0.0000000), wk =   0.0092593
        k(    2) = (  -0.1666667   0.1666667  -0.1666667), wk =   0.0740741
        k(    3) = (  -0.3333333   0.3333333  -0.3333333), wk =   0.0740741
        k(    4) = (   0.5000000  -0.5000000   0.5000000), wk =   0.0370370
        k(    5) = (   0.0000000   0.3333333   0.0000000), wk =   0.0555556
        k(    6) = (  -0.1666667   0.5000000  -0.1666667), wk =   0.2222222
        k(    7) = (   0.6666667  -0.3333333   0.6666667), wk =   0.2222222
        k(    8) = (   0.5000000  -0.1666667   0.5000000), wk =   0.2222222
        k(    9) = (   0.3333333   0.0000000   0.3333333), wk =   0.1111111
        k(   10) = (   0.0000000   0.6666667   0.0000000), wk =   0.0555556
        k(   11) = (   0.8333333  -0.1666667   0.8333333), wk =   0.2222222
        k(   12) = (   0.6666667  -0.0000000   0.6666667), wk =   0.1111111
        k(   13) = (   0.0000000  -1.0000000   0.0000000), wk =   0.0277778
        k(   14) = (   0.6666667  -0.3333333   1.0000000), wk =   0.2222222
        k(   15) = (   0.5000000  -0.1666667   0.8333333), wk =   0.2222222
        k(   16) = (  -0.3333333  -1.0000000   0.0000000), wk =   0.1111111

     Dense  grid:     2421 G-vectors     FFT dimensions: (  20,  20,  20)

     Estimated max dynamical RAM per process >       5.80 MB

     Estimated total dynamical RAM >      11.60 MB

     Initial potential from superposition of free atoms
     Check: negative starting charge=   -0.083349

     starting charge   15.49999, renormalised to   16.00000

     negative rho (up, down):  8.604E-02 0.000E+00
     Starting wfcs are   12 randomized atomic wfcs

     total cpu time spent up to now is        0.5 secs

     Self-consistent Calculation

     iteration #  1     ecut=    35.00 Ry     beta= 0.70
     Davidson diagonalization with overlap
     ethr =  1.00E-02,  avg # of iterations =  3.7

     negative rho (up, down):  8.604E-02 0.000E+00

     total cpu time spent up to now is        0.7 secs

     total energy              =    -198.33534499 Ry
     Harris-Foulkes estimate   =    -198.95129969 Ry
     estimated scf accuracy    <       0.86166492 Ry

     iteration #  2     ecut=    35.00 Ry     beta= 0.70
     Davidson diagonalization with overlap
     ethr =  5.39E-03,  avg # of iterations =  2.0

     negative rho (up, down):  8.731E-02 0.000E+00

     total cpu time spent up to now is        0.8 secs

     total energy              =    -198.55390950 Ry
     Harris-Foulkes estimate   =    -198.83864316 Ry
     estimated scf accuracy    <       0.52568111 Ry

     iteration #  3     ecut=    35.00 Ry     beta= 0.70
     Davidson diagonalization with overlap
     ethr =  3.29E-03,  avg # of iterations =  2.0

     negative rho (up, down):  8.792E-02 0.000E+00

     total cpu time spent up to now is        0.9 secs

     total energy              =    -198.67584926 Ry
     Harris-Foulkes estimate   =    -198.67740666 Ry
     estimated scf accuracy    <       0.00311669 Ry

     iteration #  4     ecut=    35.00 Ry     beta= 0.70
     Davidson diagonalization with overlap
     ethr =  1.95E-05,  avg # of iterations =  2.0

     negative rho (up, down):  8.808E-02 0.000E+00

     total cpu time spent up to now is        1.0 secs

     total energy              =    -198.67659389 Ry
     Harris-Foulkes estimate   =    -198.67662640 Ry
     estimated scf accuracy    <       0.00006359 Ry

     iteration #  5     ecut=    35.00 Ry     beta= 0.70
     Davidson diagonalization with overlap
     ethr =  3.97E-07,  avg # of iterations =  2.1

     negative rho (up, down):  8.811E-02 0.000E+00

     total cpu time spent up to now is        1.2 secs

     total energy              =    -198.67660593 Ry
     Harris-Foulkes estimate   =    -198.67660597 Ry
     estimated scf accuracy    <       0.00000019 Ry

     iteration #  6     ecut=    35.00 Ry     beta= 0.70
     Davidson diagonalization with overlap
     ethr =  1.19E-09,  avg # of iterations =  2.2

     negative rho (up, down):  8.812E-02 0.000E+00

     total cpu time spent up to now is        1.3 secs

     End of self-consistent calculation

          k = 0.0000 0.0000 0.0000 (   307 PWs)   bands (ev):

   -27.2825 -27.2825 -27.2825  14.4969  19.2040  19.2040  19.2040  21.2503
    21.2503  40.9866  46.6742  46.6742

          k =-0.1667 0.1667-0.1667 (   310 PWs)   bands (ev):

   -27.4611 -27.3072 -27.3072  15.5445  18.9120  19.5242  19.5242  21.1574
    21.1574  41.5929  42.5094  47.9689

          k =-0.3333 0.3333-0.3333 (   302 PWs)   bands (ev):

   -27.8084 -27.3557 -27.3557  16.4588  19.3888  19.3888  20.5985  22.0119
    22.0119  35.7391  41.3830  48.3004

          k = 0.5000-0.5000 0.5000 (   302 PWs)   bands (ev):

   -27.9777 -27.3797 -27.3797  16.2572  19.1307  19.1307  22.7881  22.7881
    23.5659  31.4894  40.2264  46.2942

          k = 0.0000 0.3333 0.0000 (   303 PWs)   bands (ev):

   -27.4550 -27.3474 -27.3474  15.8979  18.3746  19.9543  19.9543  20.4721
    21.5986  42.7141  43.7156  45.3791

          k =-0.1667 0.5000-0.1667 (   298 PWs)   bands (ev):

   -27.7098 -27.4055 -27.4035  17.0359  18.2343  19.4325  20.2631  22.2613
    22.2866  38.3595  42.5006  43.8314

          k = 0.6667-0.3333 0.6667 (   301 PWs)   bands (ev):

   -27.9077 -27.4830 -27.4200  16.9180  18.5710  19.8940  20.0939  22.8444
    26.2192  32.1721  40.5774  43.7581

          k = 0.5000-0.1667 0.5000 (   299 PWs)   bands (ev):

   -27.8533 -27.5058 -27.3800  17.1798  18.7702  19.8549  19.8599  21.7913
    25.3579  34.1861  40.0158  43.5975

          k = 0.3333 0.0000 0.3333 (   303 PWs)   bands (ev):

   -27.6284 -27.4214 -27.3236  16.9356  18.3962  19.5407  20.1779  20.4525
    22.5625  39.9491  41.2482  46.7941

          k = 0.0000 0.6667 0.0000 (   310 PWs)   bands (ev):

   -27.7822 -27.4757 -27.4757  16.7116  16.9796  21.8635  21.8635  22.2543
    22.3492  40.1526  40.1526  40.3760

          k = 0.8333-0.1667 0.8333 (   303 PWs)   bands (ev):

   -27.8683 -27.5821 -27.4996  16.6210  17.0937  20.9607  21.7213  22.9792
    27.1374  34.8045  37.2488  39.4142

          k = 0.6667-0.0000 0.6667 (   284 PWs)   bands (ev):

   -27.7531 -27.7492 -27.4519  17.2892  18.2464  19.4377  21.0400  22.1903
    29.5973  32.9423  35.3218  42.5189

          k = 0.0000-1.0000 0.0000 (   302 PWs)   bands (ev):

   -27.9376 -27.5392 -27.5392  16.0286  16.3760  22.7539  23.1988  23.1988
    26.2667  35.3073  37.2383  37.2383

          k = 0.6667-0.3333 1.0000 (   305 PWs)   bands (ev):

   -27.8021 -27.5679 -27.4404  17.7334  17.7434  19.0022  21.4339  21.8475
    25.8046  37.0440  37.4649  40.9096

          k = 0.5000-0.1667 0.8333 (   294 PWs)   bands (ev):

   -27.8237 -27.6513 -27.4800  17.7448  17.9325  19.0647  20.8661  22.6758
    30.0238  31.6195  38.2014  38.4571

          k =-0.3333-1.0000 0.0000 (   294 PWs)   bands (ev):

   -27.8393 -27.6402 -27.5439  16.9139  17.3574  20.1225  21.6052  23.2018
    30.2263  34.8999  35.0370  35.9979

     the Fermi energy is    22.8092 ev

!    total energy              =    -198.67660599 Ry
     Harris-Foulkes estimate   =    -198.67660601 Ry
     estimated scf accuracy    <       0.00000003 Ry

     The total energy is the sum of the following terms:

     one-electron contribution =     -30.94192646 Ry
     hartree contribution      =      31.43593060 Ry
     xc contribution           =     -31.49506111 Ry
     ewald contribution        =    -167.67495590 Ry
     smearing contrib. (-TS)   =      -0.00059311 Ry

     convergence has been achieved in   6 iterations

     Writing output data file Pd-kp-conv.save/
 
     init_run     :      0.36s CPU      0.38s WALL (       1 calls)
     electrons    :      0.76s CPU      1.20s WALL (       1 calls)

     Called by init_run:
     wfcinit      :      0.05s CPU      0.05s WALL (       1 calls)
     potinit      :      0.00s CPU      0.01s WALL (       1 calls)
     hinit0       :      0.30s CPU      0.30s WALL (       1 calls)

     Called by electrons:
     c_bands      :      0.59s CPU      0.64s WALL (       6 calls)
     sum_band     :      0.13s CPU      0.13s WALL (       6 calls)
     v_of_rho     :      0.02s CPU      0.02s WALL (       7 calls)
     newd         :      0.03s CPU      0.03s WALL (       7 calls)
     mix_rho      :      0.00s CPU      0.00s WALL (       6 calls)

     Called by c_bands:
     init_us_2    :      0.02s CPU      0.02s WALL (     208 calls)
     cegterg      :      0.55s CPU      0.60s WALL (      96 calls)

     Called by sum_band:
     sum_band:bec :      0.00s CPU      0.00s WALL (      96 calls)
     addusdens    :      0.03s CPU      0.03s WALL (       6 calls)

     Called by *egterg:
     h_psi        :      0.44s CPU      0.48s WALL (     335 calls)
     s_psi        :      0.01s CPU      0.01s WALL (     335 calls)
     g_psi        :      0.00s CPU      0.01s WALL (     223 calls)
     cdiaghg      :      0.08s CPU      0.09s WALL (     319 calls)

     Called by h_psi:
     h_psi:pot    :      0.44s CPU      0.48s WALL (     335 calls)
     h_psi:calbec :      0.01s CPU      0.01s WALL (     335 calls)
     vloc_psi     :      0.42s CPU      0.46s WALL (     335 calls)
     add_vuspsi   :      0.01s CPU      0.01s WALL (     335 calls)

     General routines
     calbec       :      0.01s CPU      0.01s WALL (     431 calls)
     fft          :      0.01s CPU      0.01s WALL (      78 calls)
     ffts         :      0.00s CPU      0.00s WALL (       6 calls)
     fftw         :      0.43s CPU      0.46s WALL (    7340 calls)
 
     Parallel routines
     fft_scatt_xy :      0.08s CPU      0.08s WALL (    7424 calls)
     fft_scatt_yz :      0.11s CPU      0.12s WALL (    7424 calls)
 
     PWSCF        :     1.22s CPU         1.75s WALL

 
   This run was terminated on:  21:15:31   2Dec2021            

=------------------------------------------------------------------------------=
   JOB DONE.
=------------------------------------------------------------------------------=
