
     Program PWSCF v.6.3 starts on  2Dec2021 at 21:15:47 

     This program is part of the open-source Quantum ESPRESSO suite
     for quantum simulation of materials; please cite
         "P. Giannozzi et al., J. Phys.:Condens. Matter 21 395502 (2009);
         "P. Giannozzi et al., J. Phys.:Condens. Matter 29 465901 (2017);
          URL http://www.quantum-espresso.org", 
     in publications or presentations arising from this work. More details at
     http://www.quantum-espresso.org/quote

     Parallel version (MPI & OpenMP), running on       2 processor cores
     Number of MPI processes:                 2
     Threads/MPI process:                     1

     MPI processes distributed on     1 nodes
     R & G space division:  proc/nbgrp/npool/nimage =       2
     Reading input from pw-input.in

     Current dimensions of program PWSCF are:
     Max number of different atomic species (ntypx) = 10
     Max number of k-points (npk) =  40000
     Max angular momentum in pseudopotentials (lmaxx) =  3

     Subspace diagonalization in iterative solution of the eigenvalue problem:
     a serial algorithm will be used

 
     Parallelization info
     --------------------
     sticks:   dense  smooth     PW     G-vecs:    dense   smooth      PW
     Min         141     141     48                 1570     1570     322
     Max         142     142     49                 1573     1573     323
     Sum         283     283     97                 3143     3143     645
 

     Title: 
     Pd-kp-conv                                                                 


     bravais-lattice index     =            2
     lattice parameter (alat)  =       7.7000  a.u.
     unit-cell volume          =     114.1333 (a.u.)^3
     number of atoms/cell      =            1
     number of atomic types    =            1
     number of electrons       =        16.00
     number of Kohn-Sham states=           12
     kinetic-energy cutoff     =      35.0000  Ry
     charge density cutoff     =     140.0000  Ry
     convergence threshold     =      1.0E-07
     mixing beta               =       0.7000
     number of iterations used =            8  plain     mixing
     Exchange-correlation      =  SLA  PW   PBX  PBC ( 1  4  3  4 0 0)

     celldm(1)=   7.700000  celldm(2)=   0.000000  celldm(3)=   0.000000
     celldm(4)=   0.000000  celldm(5)=   0.000000  celldm(6)=   0.000000

     crystal axes: (cart. coord. in units of alat)
               a(1) = (  -0.500000   0.000000   0.500000 )  
               a(2) = (   0.000000   0.500000   0.500000 )  
               a(3) = (  -0.500000   0.500000   0.000000 )  

     reciprocal axes: (cart. coord. in units 2 pi/alat)
               b(1) = ( -1.000000 -1.000000  1.000000 )  
               b(2) = (  1.000000  1.000000  1.000000 )  
               b(3) = ( -1.000000  1.000000 -1.000000 )  


     PseudoPot. # 1 for Pd read from file:
     ./pd_pbe_v1.4.uspp.F.UPF
     MD5 check sum: 2d733d2bc2cbfd217af676df1668a4bc
     Pseudo is Ultrasoft + core correction, Zval = 16.0
     Generated by new atomic code, or converted to UPF format
     Using radial grid of  887 points,  6 beta functions with: 
                l(1) =   0
                l(2) =   0
                l(3) =   1
                l(4) =   1
                l(5) =   2
                l(6) =   2
     Q(r) pseudized with  8 coefficients,  rinner =    1.130   1.130   1.130
                                                       1.130   1.130

     atomic species   valence    mass     pseudopotential
        Pd            16.00   106.40000     Pd( 1.00)

     48 Sym. Ops., with inversion, found



   Cartesian axes

     site n.     atom                  positions (alat units)
         1           Pd  tau(   1) = (   0.0000000   0.0000000   0.0000000  )

     number of k points=    16  Marzari-Vanderbilt smearing, width (Ry)=  0.0150
                       cart. coord. in units 2pi/alat
        k(    1) = (   0.0000000   0.0000000   0.0000000), wk =   0.0092593
        k(    2) = (  -0.1666667   0.1666667  -0.1666667), wk =   0.0740741
        k(    3) = (  -0.3333333   0.3333333  -0.3333333), wk =   0.0740741
        k(    4) = (   0.5000000  -0.5000000   0.5000000), wk =   0.0370370
        k(    5) = (   0.0000000   0.3333333   0.0000000), wk =   0.0555556
        k(    6) = (  -0.1666667   0.5000000  -0.1666667), wk =   0.2222222
        k(    7) = (   0.6666667  -0.3333333   0.6666667), wk =   0.2222222
        k(    8) = (   0.5000000  -0.1666667   0.5000000), wk =   0.2222222
        k(    9) = (   0.3333333   0.0000000   0.3333333), wk =   0.1111111
        k(   10) = (   0.0000000   0.6666667   0.0000000), wk =   0.0555556
        k(   11) = (   0.8333333  -0.1666667   0.8333333), wk =   0.2222222
        k(   12) = (   0.6666667  -0.0000000   0.6666667), wk =   0.1111111
        k(   13) = (   0.0000000  -1.0000000   0.0000000), wk =   0.0277778
        k(   14) = (   0.6666667  -0.3333333   1.0000000), wk =   0.2222222
        k(   15) = (   0.5000000  -0.1666667   0.8333333), wk =   0.2222222
        k(   16) = (  -0.3333333  -1.0000000   0.0000000), wk =   0.1111111

     Dense  grid:     3143 G-vectors     FFT dimensions: (  24,  24,  24)

     Estimated max dynamical RAM per process >       7.46 MB

     Estimated total dynamical RAM >      14.91 MB

     Initial potential from superposition of free atoms
     Check: negative starting charge=   -0.079204

     starting charge   15.49999, renormalised to   16.00000

     negative rho (up, down):  8.176E-02 0.000E+00
     Starting wfcs are   12 randomized atomic wfcs

     total cpu time spent up to now is        0.5 secs

     Self-consistent Calculation

     iteration #  1     ecut=    35.00 Ry     beta= 0.70
     Davidson diagonalization with overlap
     ethr =  1.00E-02,  avg # of iterations =  3.6

     negative rho (up, down):  8.047E-02 0.000E+00

     total cpu time spent up to now is        0.8 secs

     total energy              =    -198.09345443 Ry
     Harris-Foulkes estimate   =    -199.06106213 Ry
     estimated scf accuracy    <       1.32540374 Ry

     iteration #  2     ecut=    35.00 Ry     beta= 0.70
     Davidson diagonalization with overlap
     ethr =  8.28E-03,  avg # of iterations =  2.0

     negative rho (up, down):  8.179E-02 0.000E+00

     total cpu time spent up to now is        1.0 secs

     total energy              =    -198.40436950 Ry
     Harris-Foulkes estimate   =    -199.13181597 Ry
     estimated scf accuracy    <       1.49326772 Ry

     iteration #  3     ecut=    35.00 Ry     beta= 0.70
     Davidson diagonalization with overlap
     ethr =  8.28E-03,  avg # of iterations =  2.0

     negative rho (up, down):  8.198E-02 0.000E+00

     total cpu time spent up to now is        1.2 secs

     total energy              =    -198.69497426 Ry
     Harris-Foulkes estimate   =    -198.69665412 Ry
     estimated scf accuracy    <       0.00358985 Ry

     iteration #  4     ecut=    35.00 Ry     beta= 0.70
     Davidson diagonalization with overlap
     ethr =  2.24E-05,  avg # of iterations =  2.6

     negative rho (up, down):  8.212E-02 0.000E+00

     total cpu time spent up to now is        1.3 secs

     total energy              =    -198.69600022 Ry
     Harris-Foulkes estimate   =    -198.69604074 Ry
     estimated scf accuracy    <       0.00009414 Ry

     iteration #  5     ecut=    35.00 Ry     beta= 0.70
     Davidson diagonalization with overlap
     ethr =  5.88E-07,  avg # of iterations =  1.9

     negative rho (up, down):  8.218E-02 0.000E+00

     total cpu time spent up to now is        1.5 secs

     total energy              =    -198.69601906 Ry
     Harris-Foulkes estimate   =    -198.69601893 Ry
     estimated scf accuracy    <       0.00000050 Ry

     iteration #  6     ecut=    35.00 Ry     beta= 0.70
     Davidson diagonalization with overlap
     ethr =  3.13E-09,  avg # of iterations =  2.5

     negative rho (up, down):  8.218E-02 0.000E+00

     total cpu time spent up to now is        1.7 secs

     total energy              =    -198.69601921 Ry
     Harris-Foulkes estimate   =    -198.69601934 Ry
     estimated scf accuracy    <       0.00000032 Ry

     iteration #  7     ecut=    35.00 Ry     beta= 0.70
     Davidson diagonalization with overlap
     ethr =  1.98E-09,  avg # of iterations =  1.8

     negative rho (up, down):  8.218E-02 0.000E+00

     total cpu time spent up to now is        2.2 secs

     End of self-consistent calculation

          k = 0.0000 0.0000 0.0000 (   411 PWs)   bands (ev):

   -34.0031 -34.0031 -34.0031   9.3024  13.1156  13.1156  13.1156  14.3975
    14.3975  33.0353  37.0034  37.0034

          k =-0.1667 0.1667-0.1667 (   387 PWs)   bands (ev):

   -34.0645 -34.0117 -34.0117  10.1377  12.9421  13.3259  13.3259  14.3571
    14.3571  31.8987  34.0206  37.4456

          k =-0.3333 0.3333-0.3333 (   401 PWs)   bands (ev):

   -34.1871 -34.0300 -34.0300  11.1498  13.2507  13.2507  14.1406  14.8875
    14.8875  25.8330  33.0505  36.7571

          k = 0.5000-0.5000 0.5000 (   392 PWs)   bands (ev):

   -34.2474 -34.0388 -34.0388  11.0981  13.0901  13.0901  15.3523  15.3523
    16.7585  21.7360  32.2606  35.5566

          k = 0.0000 0.3333 0.0000 (   399 PWs)   bands (ev):

   -34.0625 -34.0262 -34.0262  10.4177  12.6074  13.5991  13.5991  13.9434
    14.6195  33.7234  34.4703  34.6663

          k =-0.1667 0.5000-0.1667 (   398 PWs)   bands (ev):

   -34.1525 -34.0472 -34.0467  11.5288  12.4930  13.2818  13.8019  15.0477
    15.1367  28.3304  33.0415  33.1412

          k = 0.6667-0.3333 0.6667 (   393 PWs)   bands (ev):

   -34.2230 -34.0747 -34.0531  11.5717  12.7645  13.5790  13.7321  15.3855
    18.2901  22.6281  31.1244  33.0821

          k = 0.5000-0.1667 0.5000 (   404 PWs)   bands (ev):

   -34.2038 -34.0827 -34.0392  11.7200  12.8798  13.5605  13.5882  14.7558
    17.3828  24.4264  30.0915  34.1034

          k = 0.3333 0.0000 0.3333 (   397 PWs)   bands (ev):

   -34.1235 -34.0524 -34.0184  11.2807  12.6189  13.3603  13.7462  13.9344
    15.2513  30.2231  30.8322  36.5033

          k = 0.0000 0.6667 0.0000 (   399 PWs)   bands (ev):

   -34.1786 -34.0723 -34.0723  11.4555  11.7089  14.8008  14.8008  15.0859
    15.3143  30.0916  30.1707  30.1707

          k = 0.8333-0.1667 0.8333 (   402 PWs)   bands (ev):

   -34.2102 -34.1101 -34.0815  11.4684  11.7727  14.2756  14.7186  15.4657
    18.9680  25.4321  27.0379  29.6205

          k = 0.6667-0.0000 0.6667 (   403 PWs)   bands (ev):

   -34.1696 -34.1687 -34.0650  11.9085  12.5206  13.2797  14.3081  14.9942
    20.9020  23.5943  25.4024  31.9134

          k = 0.0000-1.0000 0.0000 (   388 PWs)   bands (ev):

   -34.2347 -34.0954 -34.0954  11.0844  11.3052  15.3310  15.5982  15.5982
    18.8245  24.8739  28.0547  28.0547

          k = 0.6667-0.3333 1.0000 (   407 PWs)   bands (ev):

   -34.1861 -34.1049 -34.0604  12.1742  12.1888  12.9835  14.5604  14.7887
    17.7049  27.2524  27.4108  30.6952

          k = 0.5000-0.1667 0.8333 (   400 PWs)   bands (ev):

   -34.1943 -34.1342 -34.0745  12.2426  12.2776  13.0422  14.2012  15.2900
    21.3751  22.2583  27.9491  28.5869

          k =-0.3333-1.0000 0.0000 (   398 PWs)   bands (ev):

   -34.2003 -34.1308 -34.0968  11.6859  11.9307  13.7301  14.6610  15.5989
    21.5807  24.8056  25.6613  26.4529

     the Fermi energy is    15.3746 ev

!    total energy              =    -198.69601926 Ry
     Harris-Foulkes estimate   =    -198.69601927 Ry
     estimated scf accuracy    <          7.5E-10 Ry

     The total energy is the sum of the following terms:

     one-electron contribution =     -54.16343756 Ry
     hartree contribution      =      39.16566548 Ry
     xc contribution           =     -31.26616354 Ry
     ewald contribution        =    -152.43177811 Ry
     smearing contrib. (-TS)   =      -0.00030553 Ry

     convergence has been achieved in   7 iterations

     Writing output data file Pd-kp-conv.save/
 
     init_run     :      0.40s CPU      0.44s WALL (       1 calls)
     electrons    :      1.23s CPU      1.67s WALL (       1 calls)

     Called by init_run:
     wfcinit      :      0.06s CPU      0.07s WALL (       1 calls)
     potinit      :      0.01s CPU      0.02s WALL (       1 calls)
     hinit0       :      0.32s CPU      0.32s WALL (       1 calls)

     Called by electrons:
     c_bands      :      0.94s CPU      1.00s WALL (       7 calls)
     sum_band     :      0.21s CPU      0.23s WALL (       7 calls)
     v_of_rho     :      0.03s CPU      0.04s WALL (       8 calls)
     newd         :      0.05s CPU      0.05s WALL (       8 calls)
     mix_rho      :      0.00s CPU      0.00s WALL (       7 calls)

     Called by c_bands:
     init_us_2    :      0.02s CPU      0.02s WALL (     240 calls)
     cegterg      :      0.88s CPU      0.94s WALL (     112 calls)

     Called by sum_band:
     sum_band:bec :      0.00s CPU      0.00s WALL (     112 calls)
     addusdens    :      0.05s CPU      0.05s WALL (       7 calls)

     Called by *egterg:
     h_psi        :      0.76s CPU      0.81s WALL (     390 calls)
     s_psi        :      0.01s CPU      0.01s WALL (     390 calls)
     g_psi        :      0.01s CPU      0.01s WALL (     262 calls)
     cdiaghg      :      0.10s CPU      0.10s WALL (     374 calls)

     Called by h_psi:
     h_psi:pot    :      0.75s CPU      0.80s WALL (     390 calls)
     h_psi:calbec :      0.01s CPU      0.02s WALL (     390 calls)
     vloc_psi     :      0.72s CPU      0.77s WALL (     390 calls)
     add_vuspsi   :      0.01s CPU      0.01s WALL (     390 calls)

     General routines
     calbec       :      0.02s CPU      0.02s WALL (     502 calls)
     fft          :      0.01s CPU      0.01s WALL (      89 calls)
     ffts         :      0.00s CPU      0.00s WALL (       7 calls)
     fftw         :      0.74s CPU      0.79s WALL (    8284 calls)
 
     Parallel routines
     fft_scatt_xy :      0.14s CPU      0.15s WALL (    8380 calls)
     fft_scatt_yz :      0.16s CPU      0.17s WALL (    8380 calls)
 
     PWSCF        :     1.73s CPU         2.30s WALL

 
   This run was terminated on:  21:15:49   2Dec2021            

=------------------------------------------------------------------------------=
   JOB DONE.
=------------------------------------------------------------------------------=
