
     Program PWSCF v.6.3 starts on  2Dec2021 at 20:28:46 

     This program is part of the open-source Quantum ESPRESSO suite
     for quantum simulation of materials; please cite
         "P. Giannozzi et al., J. Phys.:Condens. Matter 21 395502 (2009);
         "P. Giannozzi et al., J. Phys.:Condens. Matter 29 465901 (2017);
          URL http://www.quantum-espresso.org", 
     in publications or presentations arising from this work. More details at
     http://www.quantum-espresso.org/quote

     Parallel version (MPI & OpenMP), running on       2 processor cores
     Number of MPI processes:                 2
     Threads/MPI process:                     1

     MPI processes distributed on     1 nodes
     R & G space division:  proc/nbgrp/npool/nimage =       2
     Reading input from pw-input.in

     Current dimensions of program PWSCF are:
     Max number of different atomic species (ntypx) = 10
     Max number of k-points (npk) =  40000
     Max angular momentum in pseudopotentials (lmaxx) =  3

     Subspace diagonalization in iterative solution of the eigenvalue problem:
     a serial algorithm will be used

 
     Parallelization info
     --------------------
     sticks:   dense  smooth     PW     G-vecs:    dense   smooth      PW
     Min         120     120     42                 1221     1221     264
     Max         121     121     43                 1224     1224     267
     Sum         241     241     85                 2445     2445     531
 

     Title: 
     Pd-kp-conv                                                                 


     bravais-lattice index     =            2
     lattice parameter (alat)  =       7.1000  a.u.
     unit-cell volume          =      89.4777 (a.u.)^3
     number of atoms/cell      =            1
     number of atomic types    =            1
     number of electrons       =        16.00
     number of Kohn-Sham states=           12
     kinetic-energy cutoff     =      35.0000  Ry
     charge density cutoff     =     140.0000  Ry
     convergence threshold     =      1.0E-07
     mixing beta               =       0.7000
     number of iterations used =            8  plain     mixing
     Exchange-correlation      =  SLA  PW   PBX  PBC ( 1  4  3  4 0 0)

     celldm(1)=   7.100000  celldm(2)=   0.000000  celldm(3)=   0.000000
     celldm(4)=   0.000000  celldm(5)=   0.000000  celldm(6)=   0.000000

     crystal axes: (cart. coord. in units of alat)
               a(1) = (  -0.500000   0.000000   0.500000 )  
               a(2) = (   0.000000   0.500000   0.500000 )  
               a(3) = (  -0.500000   0.500000   0.000000 )  

     reciprocal axes: (cart. coord. in units 2 pi/alat)
               b(1) = ( -1.000000 -1.000000  1.000000 )  
               b(2) = (  1.000000  1.000000  1.000000 )  
               b(3) = ( -1.000000  1.000000 -1.000000 )  


     PseudoPot. # 1 for Pd read from file:
     ./pd_pbe_v1.4.uspp.F.UPF
     MD5 check sum: 2d733d2bc2cbfd217af676df1668a4bc
     Pseudo is Ultrasoft + core correction, Zval = 16.0
     Generated by new atomic code, or converted to UPF format
     Using radial grid of  887 points,  6 beta functions with: 
                l(1) =   0
                l(2) =   0
                l(3) =   1
                l(4) =   1
                l(5) =   2
                l(6) =   2
     Q(r) pseudized with  8 coefficients,  rinner =    1.130   1.130   1.130
                                                       1.130   1.130

     atomic species   valence    mass     pseudopotential
        Pd            16.00   106.40000     Pd( 1.00)

     48 Sym. Ops., with inversion, found



   Cartesian axes

     site n.     atom                  positions (alat units)
         1           Pd  tau(   1) = (   0.0000000   0.0000000   0.0000000  )

     number of k points=     8  Marzari-Vanderbilt smearing, width (Ry)=  0.0050
                       cart. coord. in units 2pi/alat
        k(    1) = (   0.0000000   0.0000000   0.0000000), wk =   0.0312500
        k(    2) = (  -0.2500000   0.2500000  -0.2500000), wk =   0.2500000
        k(    3) = (   0.5000000  -0.5000000   0.5000000), wk =   0.1250000
        k(    4) = (   0.0000000   0.5000000   0.0000000), wk =   0.1875000
        k(    5) = (   0.7500000  -0.2500000   0.7500000), wk =   0.7500000
        k(    6) = (   0.5000000   0.0000000   0.5000000), wk =   0.3750000
        k(    7) = (   0.0000000  -1.0000000   0.0000000), wk =   0.0937500
        k(    8) = (  -0.5000000  -1.0000000   0.0000000), wk =   0.1875000

     Dense  grid:     2445 G-vectors     FFT dimensions: (  20,  20,  20)

     Estimated max dynamical RAM per process >       5.65 MB

     Estimated total dynamical RAM >      11.30 MB

     Initial potential from superposition of free atoms
     Check: negative starting charge=   -0.083979

     starting charge   15.49999, renormalised to   16.00000

     negative rho (up, down):  8.669E-02 0.000E+00
     Starting wfcs are   12 randomized atomic wfcs

     total cpu time spent up to now is        0.5 secs

     Self-consistent Calculation

     iteration #  1     ecut=    35.00 Ry     beta= 0.70
     Davidson diagonalization with overlap
     ethr =  1.00E-02,  avg # of iterations =  3.8

     negative rho (up, down):  8.637E-02 0.000E+00

     total cpu time spent up to now is        0.6 secs

     total energy              =    -198.34304841 Ry
     Harris-Foulkes estimate   =    -198.97438587 Ry
     estimated scf accuracy    <       0.87953829 Ry

     iteration #  2     ecut=    35.00 Ry     beta= 0.70
     Davidson diagonalization with overlap
     ethr =  5.50E-03,  avg # of iterations =  2.0

     negative rho (up, down):  8.772E-02 0.000E+00

     total cpu time spent up to now is        0.7 secs

     total energy              =    -198.59421839 Ry
     Harris-Foulkes estimate   =    -198.87036519 Ry
     estimated scf accuracy    <       0.50193665 Ry

     iteration #  3     ecut=    35.00 Ry     beta= 0.70
     Davidson diagonalization with overlap
     ethr =  3.14E-03,  avg # of iterations =  2.0

     negative rho (up, down):  8.800E-02 0.000E+00

     total cpu time spent up to now is        0.8 secs

     total energy              =    -198.69669712 Ry
     Harris-Foulkes estimate   =    -198.69669923 Ry
     estimated scf accuracy    <       0.00010570 Ry

     iteration #  4     ecut=    35.00 Ry     beta= 0.70
     Davidson diagonalization with overlap
     ethr =  6.61E-07,  avg # of iterations =  2.5

     negative rho (up, down):  8.816E-02 0.000E+00

     total cpu time spent up to now is        0.8 secs

     total energy              =    -198.69681390 Ry
     Harris-Foulkes estimate   =    -198.69681394 Ry
     estimated scf accuracy    <       0.00000864 Ry

     iteration #  5     ecut=    35.00 Ry     beta= 0.70
     Davidson diagonalization with overlap
     ethr =  5.40E-08,  avg # of iterations =  1.9

     negative rho (up, down):  8.818E-02 0.000E+00

     total cpu time spent up to now is        0.9 secs

     End of self-consistent calculation

          k = 0.0000 0.0000 0.0000 (   331 PWs)   bands (ev):

   -28.1831 -28.1831 -28.1831  13.6219  18.3362  18.3362  18.3362  20.2777
    20.2777  39.6910  45.1247  45.1247

          k =-0.2500 0.2500-0.2500 (   311 PWs)   bands (ev):

   -28.4900 -28.2255 -28.2255  15.4252  18.2912  18.6834  18.6834  20.4480
    20.4480  37.2898  40.8736  47.1440

          k = 0.5000-0.5000 0.5000 (   302 PWs)   bands (ev):

   -28.7872 -28.2674 -28.2674  15.4920  18.2778  18.2778  21.7215  21.7215
    22.4238  29.9451  38.9274  44.5711

          k = 0.0000 0.5000 0.0000 (   311 PWs)   bands (ev):

   -28.4772 -28.2954 -28.2954  15.9592  16.8593  19.5333  19.8637  19.8637
    20.9547  40.9976  41.1963  41.1963

          k = 0.7500-0.2500 0.7500 (   315 PWs)   bands (ev):

   -28.6856 -28.4262 -28.3378  16.2392  17.1359  18.8979  19.8036  21.8285
    25.7190  31.7419  37.5162  39.8706

          k = 0.5000 0.0000 0.5000 (   315 PWs)   bands (ev):

   -28.6179 -28.4396 -28.2681  17.1413  17.6042  18.0464  19.4706  20.2013
    24.3115  35.3124  35.7177  42.4961

          k = 0.0000-1.0000 0.0000 (   302 PWs)   bands (ev):

   -28.7528 -28.4066 -28.4066  15.3185  15.6556  21.6968  22.1018  22.1018
    25.0215  33.6565  35.7372  35.7372

          k =-0.5000-1.0000 0.0000 (   308 PWs)   bands (ev):

   -28.5816 -28.5816 -28.4121  16.5539  17.6906  17.6906  20.1368  22.1027
    31.2946  31.2946  33.1271  34.2367

     the Fermi energy is    21.8728 ev

!    total energy              =    -198.69681487 Ry
     Harris-Foulkes estimate   =    -198.69681485 Ry
     estimated scf accuracy    <       0.00000005 Ry

     The total energy is the sum of the following terms:

     one-electron contribution =     -34.65474519 Ry
     hartree contribution      =      32.76096796 Ry
     xc contribution           =     -31.48970305 Ry
     ewald contribution        =    -165.31333683 Ry
     smearing contrib. (-TS)   =       0.00000225 Ry

     convergence has been achieved in   5 iterations

     Writing output data file Pd-kp-conv.save/
 
     init_run     :      0.34s CPU      0.37s WALL (       1 calls)
     electrons    :      0.40s CPU      0.48s WALL (       1 calls)

     Called by init_run:
     wfcinit      :      0.02s CPU      0.03s WALL (       1 calls)
     potinit      :      0.01s CPU      0.02s WALL (       1 calls)
     hinit0       :      0.31s CPU      0.31s WALL (       1 calls)

     Called by electrons:
     c_bands      :      0.29s CPU      0.31s WALL (       5 calls)
     sum_band     :      0.08s CPU      0.08s WALL (       5 calls)
     v_of_rho     :      0.02s CPU      0.02s WALL (       6 calls)
     newd         :      0.03s CPU      0.03s WALL (       6 calls)
     mix_rho      :      0.00s CPU      0.00s WALL (       5 calls)

     Called by c_bands:
     init_us_2    :      0.01s CPU      0.01s WALL (      88 calls)
     cegterg      :      0.27s CPU      0.28s WALL (      40 calls)

     Called by sum_band:
     sum_band:bec :      0.00s CPU      0.00s WALL (      40 calls)
     addusdens    :      0.03s CPU      0.03s WALL (       5 calls)

     Called by *egterg:
     h_psi        :      0.21s CPU      0.23s WALL (     145 calls)
     s_psi        :      0.00s CPU      0.00s WALL (     145 calls)
     g_psi        :      0.00s CPU      0.00s WALL (      97 calls)
     cdiaghg      :      0.04s CPU      0.04s WALL (     137 calls)

     Called by h_psi:
     h_psi:pot    :      0.21s CPU      0.23s WALL (     145 calls)
     h_psi:calbec :      0.01s CPU      0.01s WALL (     145 calls)
     vloc_psi     :      0.20s CPU      0.22s WALL (     145 calls)
     add_vuspsi   :      0.00s CPU      0.00s WALL (     145 calls)

     General routines
     calbec       :      0.01s CPU      0.01s WALL (     185 calls)
     fft          :      0.01s CPU      0.01s WALL (      67 calls)
     ffts         :      0.00s CPU      0.00s WALL (       5 calls)
     fftw         :      0.20s CPU      0.22s WALL (    3072 calls)
 
     Parallel routines
     fft_scatt_xy :      0.04s CPU      0.04s WALL (    3144 calls)
     fft_scatt_yz :      0.05s CPU      0.06s WALL (    3144 calls)
 
     PWSCF        :     0.82s CPU         1.32s WALL

 
   This run was terminated on:  20:28:48   2Dec2021            

=------------------------------------------------------------------------------=
   JOB DONE.
=------------------------------------------------------------------------------=
