
     Program PWSCF v.6.3 starts on  2Dec2021 at 21:15:11 

     This program is part of the open-source Quantum ESPRESSO suite
     for quantum simulation of materials; please cite
         "P. Giannozzi et al., J. Phys.:Condens. Matter 21 395502 (2009);
         "P. Giannozzi et al., J. Phys.:Condens. Matter 29 465901 (2017);
          URL http://www.quantum-espresso.org", 
     in publications or presentations arising from this work. More details at
     http://www.quantum-espresso.org/quote

     Parallel version (MPI & OpenMP), running on       2 processor cores
     Number of MPI processes:                 2
     Threads/MPI process:                     1

     MPI processes distributed on     1 nodes
     R & G space division:  proc/nbgrp/npool/nimage =       2
     Reading input from pw-input.in

     Current dimensions of program PWSCF are:
     Max number of different atomic species (ntypx) = 10
     Max number of k-points (npk) =  40000
     Max angular momentum in pseudopotentials (lmaxx) =  3

     Subspace diagonalization in iterative solution of the eigenvalue problem:
     a serial algorithm will be used

 
     Parallelization info
     --------------------
     sticks:   dense  smooth     PW     G-vecs:    dense   smooth      PW
     Min         168     168     54                 2007     2007     362
     Max         169     169     55                 2008     2008     363
     Sum         337     337    109                 4015     4015     725
 

     Title: 
     Pd-kp-conv                                                                 


     bravais-lattice index     =            2
     lattice parameter (alat)  =       8.3000  a.u.
     unit-cell volume          =     142.9468 (a.u.)^3
     number of atoms/cell      =            1
     number of atomic types    =            1
     number of electrons       =        16.00
     number of Kohn-Sham states=           12
     kinetic-energy cutoff     =      35.0000  Ry
     charge density cutoff     =     140.0000  Ry
     convergence threshold     =      1.0E-07
     mixing beta               =       0.7000
     number of iterations used =            8  plain     mixing
     Exchange-correlation      =  SLA  PW   PBX  PBC ( 1  4  3  4 0 0)

     celldm(1)=   8.300000  celldm(2)=   0.000000  celldm(3)=   0.000000
     celldm(4)=   0.000000  celldm(5)=   0.000000  celldm(6)=   0.000000

     crystal axes: (cart. coord. in units of alat)
               a(1) = (  -0.500000   0.000000   0.500000 )  
               a(2) = (   0.000000   0.500000   0.500000 )  
               a(3) = (  -0.500000   0.500000   0.000000 )  

     reciprocal axes: (cart. coord. in units 2 pi/alat)
               b(1) = ( -1.000000 -1.000000  1.000000 )  
               b(2) = (  1.000000  1.000000  1.000000 )  
               b(3) = ( -1.000000  1.000000 -1.000000 )  


     PseudoPot. # 1 for Pd read from file:
     ./pd_pbe_v1.4.uspp.F.UPF
     MD5 check sum: 2d733d2bc2cbfd217af676df1668a4bc
     Pseudo is Ultrasoft + core correction, Zval = 16.0
     Generated by new atomic code, or converted to UPF format
     Using radial grid of  887 points,  6 beta functions with: 
                l(1) =   0
                l(2) =   0
                l(3) =   1
                l(4) =   1
                l(5) =   2
                l(6) =   2
     Q(r) pseudized with  8 coefficients,  rinner =    1.130   1.130   1.130
                                                       1.130   1.130

     atomic species   valence    mass     pseudopotential
        Pd            16.00   106.40000     Pd( 1.00)

     48 Sym. Ops., with inversion, found



   Cartesian axes

     site n.     atom                  positions (alat units)
         1           Pd  tau(   1) = (   0.0000000   0.0000000   0.0000000  )

     number of k points=     8  Marzari-Vanderbilt smearing, width (Ry)=  0.0150
                       cart. coord. in units 2pi/alat
        k(    1) = (   0.0000000   0.0000000   0.0000000), wk =   0.0312500
        k(    2) = (  -0.2500000   0.2500000  -0.2500000), wk =   0.2500000
        k(    3) = (   0.5000000  -0.5000000   0.5000000), wk =   0.1250000
        k(    4) = (   0.0000000   0.5000000   0.0000000), wk =   0.1875000
        k(    5) = (   0.7500000  -0.2500000   0.7500000), wk =   0.7500000
        k(    6) = (   0.5000000   0.0000000   0.5000000), wk =   0.3750000
        k(    7) = (   0.0000000  -1.0000000   0.0000000), wk =   0.0937500
        k(    8) = (  -0.5000000  -1.0000000   0.0000000), wk =   0.1875000

     Dense  grid:     4015 G-vectors     FFT dimensions: (  24,  24,  24)

     Estimated max dynamical RAM per process >       8.78 MB

     Estimated total dynamical RAM >      17.55 MB

     Initial potential from superposition of free atoms
     Check: negative starting charge=   -0.082880

     starting charge   15.49999, renormalised to   16.00000

     negative rho (up, down):  8.555E-02 0.000E+00
     Starting wfcs are   12 randomized atomic wfcs

     total cpu time spent up to now is        0.5 secs

     Self-consistent Calculation

     iteration #  1     ecut=    35.00 Ry     beta= 0.70
     Davidson diagonalization with overlap
     ethr =  1.00E-02,  avg # of iterations =  3.0

     negative rho (up, down):  8.271E-02 0.000E+00

     total cpu time spent up to now is        0.7 secs

     total energy              =    -197.80172502 Ry
     Harris-Foulkes estimate   =    -199.07093380 Ry
     estimated scf accuracy    <       1.71666085 Ry

     iteration #  2     ecut=    35.00 Ry     beta= 0.70
     Davidson diagonalization with overlap
     ethr =  1.00E-02,  avg # of iterations =  2.0

     negative rho (up, down):  8.500E-02 0.000E+00

     total cpu time spent up to now is        0.8 secs

     total energy              =    -198.21986877 Ry
     Harris-Foulkes estimate   =    -199.42369965 Ry
     estimated scf accuracy    <       2.61336839 Ry

     iteration #  3     ecut=    35.00 Ry     beta= 0.70
     Davidson diagonalization with overlap
     ethr =  1.00E-02,  avg # of iterations =  2.0

     negative rho (up, down):  8.503E-02 0.000E+00

     total cpu time spent up to now is        0.9 secs

     total energy              =    -198.66807348 Ry
     Harris-Foulkes estimate   =    -198.66832320 Ry
     estimated scf accuracy    <       0.00094325 Ry

     iteration #  4     ecut=    35.00 Ry     beta= 0.70
     Davidson diagonalization with overlap
     ethr =  5.90E-06,  avg # of iterations =  3.5

     negative rho (up, down):  8.507E-02 0.000E+00

     total cpu time spent up to now is        1.0 secs

     total energy              =    -198.66847455 Ry
     Harris-Foulkes estimate   =    -198.66849092 Ry
     estimated scf accuracy    <       0.00005671 Ry

     iteration #  5     ecut=    35.00 Ry     beta= 0.70
     Davidson diagonalization with overlap
     ethr =  3.54E-07,  avg # of iterations =  1.9

     negative rho (up, down):  8.506E-02 0.000E+00

     total cpu time spent up to now is        1.1 secs

     total energy              =    -198.66848068 Ry
     Harris-Foulkes estimate   =    -198.66848067 Ry
     estimated scf accuracy    <       0.00000015 Ry

     iteration #  6     ecut=    35.00 Ry     beta= 0.70
     Davidson diagonalization with overlap
     ethr =  9.50E-10,  avg # of iterations =  2.4

     negative rho (up, down):  8.506E-02 0.000E+00

     total cpu time spent up to now is        1.2 secs

     End of self-consistent calculation

          k = 0.0000 0.0000 0.0000 (   531 PWs)   bands (ev):

   -37.8480 -37.8480 -37.8480   6.3283   9.4825   9.4825   9.4825  10.3724
    10.3724  27.8540  30.5551  30.5551

          k =-0.2500 0.2500-0.2500 (   507 PWs)   bands (ev):

   -37.8987 -37.8557 -37.8557   7.6782   9.5204   9.6570   9.6570  10.4719
    10.4719  22.7226  28.2433  30.1181

          k = 0.5000-0.5000 0.5000 (   502 PWs)   bands (ev):

   -37.9496 -37.8635 -37.8635   8.0082   9.4754   9.4754  11.0277  11.0277
    12.7966  16.0364  27.0866  28.6762

          k = 0.0000 0.5000 0.0000 (   504 PWs)   bands (ev):

   -37.8969 -37.8676 -37.8676   8.0904   8.8131  10.1326  10.2109  10.2109
    10.6849  25.8125  25.8125  27.0026

          k = 0.7500-0.2500 0.7500 (   497 PWs)   bands (ev):

   -37.9328 -37.8900 -37.8754   8.4829   8.9855   9.8082  10.1944  11.0752
    14.0094  18.2727  22.7730  24.9194

          k = 0.5000 0.0000 0.5000 (   500 PWs)   bands (ev):

   -37.9210 -37.8918 -37.8635   8.8674   9.1717   9.4490  10.0507  10.3624
    12.7548  21.0526  21.1474  28.5051

          k = 0.0000-1.0000 0.0000 (   492 PWs)   bands (ev):

   -37.9449 -37.8873 -37.8873   8.0671   8.2160  11.0142  11.1923  11.1923
    14.4818  18.6674  22.3880  22.3880

          k =-0.5000-1.0000 0.0000 (   488 PWs)   bands (ev):

   -37.9161 -37.9161 -37.8876   8.7197   9.2141   9.2141  10.3668  11.1947
    18.2608  18.2608  18.7429  20.3264

     the Fermi energy is    11.1718 ev

!    total energy              =    -198.66848071 Ry
     Harris-Foulkes estimate   =    -198.66848071 Ry
     estimated scf accuracy    <          6.4E-09 Ry

     The total energy is the sum of the following terms:

     one-electron contribution =     -71.79064820 Ry
     hartree contribution      =      45.73281379 Ry
     xc contribution           =     -31.19624890 Ry
     ewald contribution        =    -141.41261342 Ry
     smearing contrib. (-TS)   =      -0.00178396 Ry

     convergence has been achieved in   6 iterations

     Writing output data file Pd-kp-conv.save/
 
     init_run     :      0.39s CPU      0.42s WALL (       1 calls)
     electrons    :      0.66s CPU      0.74s WALL (       1 calls)

     Called by init_run:
     wfcinit      :      0.03s CPU      0.04s WALL (       1 calls)
     potinit      :      0.01s CPU      0.02s WALL (       1 calls)
     hinit0       :      0.33s CPU      0.33s WALL (       1 calls)

     Called by electrons:
     c_bands      :      0.44s CPU      0.48s WALL (       6 calls)
     sum_band     :      0.13s CPU      0.14s WALL (       6 calls)
     v_of_rho     :      0.03s CPU      0.03s WALL (       7 calls)
     newd         :      0.06s CPU      0.06s WALL (       7 calls)
     mix_rho      :      0.00s CPU      0.00s WALL (       6 calls)

     Called by c_bands:
     init_us_2    :      0.01s CPU      0.01s WALL (     104 calls)
     cegterg      :      0.41s CPU      0.44s WALL (      48 calls)

     Called by sum_band:
     sum_band:bec :      0.00s CPU      0.00s WALL (      48 calls)
     addusdens    :      0.05s CPU      0.05s WALL (       6 calls)

     Called by *egterg:
     h_psi        :      0.35s CPU      0.38s WALL (     174 calls)
     s_psi        :      0.01s CPU      0.01s WALL (     174 calls)
     g_psi        :      0.00s CPU      0.00s WALL (     118 calls)
     cdiaghg      :      0.05s CPU      0.05s WALL (     166 calls)

     Called by h_psi:
     h_psi:pot    :      0.35s CPU      0.38s WALL (     174 calls)
     h_psi:calbec :      0.01s CPU      0.01s WALL (     174 calls)
     vloc_psi     :      0.34s CPU      0.36s WALL (     174 calls)
     add_vuspsi   :      0.01s CPU      0.01s WALL (     174 calls)

     General routines
     calbec       :      0.01s CPU      0.01s WALL (     222 calls)
     fft          :      0.01s CPU      0.01s WALL (      78 calls)
     ffts         :      0.00s CPU      0.00s WALL (       6 calls)
     fftw         :      0.34s CPU      0.37s WALL (    3580 calls)
 
     Parallel routines
     fft_scatt_xy :      0.06s CPU      0.07s WALL (    3664 calls)
     fft_scatt_yz :      0.08s CPU      0.08s WALL (    3664 calls)
 
     PWSCF        :     1.13s CPU         1.64s WALL

 
   This run was terminated on:  21:15:13   2Dec2021            

=------------------------------------------------------------------------------=
   JOB DONE.
=------------------------------------------------------------------------------=
