
     Program PWSCF v.6.3 starts on  2Dec2021 at 23:13:51 

     This program is part of the open-source Quantum ESPRESSO suite
     for quantum simulation of materials; please cite
         "P. Giannozzi et al., J. Phys.:Condens. Matter 21 395502 (2009);
         "P. Giannozzi et al., J. Phys.:Condens. Matter 29 465901 (2017);
          URL http://www.quantum-espresso.org", 
     in publications or presentations arising from this work. More details at
     http://www.quantum-espresso.org/quote

     Parallel version (MPI & OpenMP), running on       2 processor cores
     Number of MPI processes:                 2
     Threads/MPI process:                     1

     MPI processes distributed on     1 nodes
     R & G space division:  proc/nbgrp/npool/nimage =       2
     Reading input from pw-input.in

     Current dimensions of program PWSCF are:
     Max number of different atomic species (ntypx) = 10
     Max number of k-points (npk) =  40000
     Max angular momentum in pseudopotentials (lmaxx) =  3

     Subspace diagonalization in iterative solution of the eigenvalue problem:
     a serial algorithm will be used

 
     Parallelization info
     --------------------
     sticks:   dense  smooth     PW     G-vecs:    dense   smooth      PW
     Min         111     111     42                 1066     1066     264
     Max         112     112     43                 1067     1067     267
     Sum         223     223     85                 2133     2133     531
 

     Title: 
     Pd-kp-conv                                                                 


     bravais-lattice index     =            2
     lattice parameter (alat)  =       6.8000  a.u.
     unit-cell volume          =      78.6080 (a.u.)^3
     number of atoms/cell      =            1
     number of atomic types    =            1
     number of electrons       =        16.00
     number of Kohn-Sham states=           12
     kinetic-energy cutoff     =      35.0000  Ry
     charge density cutoff     =     140.0000  Ry
     convergence threshold     =      1.0E-07
     mixing beta               =       0.7000
     number of iterations used =            8  plain     mixing
     Exchange-correlation      =  SLA  PW   PBX  PBC ( 1  4  3  4 0 0)

     celldm(1)=   6.800000  celldm(2)=   0.000000  celldm(3)=   0.000000
     celldm(4)=   0.000000  celldm(5)=   0.000000  celldm(6)=   0.000000

     crystal axes: (cart. coord. in units of alat)
               a(1) = (  -0.500000   0.000000   0.500000 )  
               a(2) = (   0.000000   0.500000   0.500000 )  
               a(3) = (  -0.500000   0.500000   0.000000 )  

     reciprocal axes: (cart. coord. in units 2 pi/alat)
               b(1) = ( -1.000000 -1.000000  1.000000 )  
               b(2) = (  1.000000  1.000000  1.000000 )  
               b(3) = ( -1.000000  1.000000 -1.000000 )  


     PseudoPot. # 1 for Pd read from file:
     ./pd_pbe_v1.4.uspp.F.UPF
     MD5 check sum: 2d733d2bc2cbfd217af676df1668a4bc
     Pseudo is Ultrasoft + core correction, Zval = 16.0
     Generated by new atomic code, or converted to UPF format
     Using radial grid of  887 points,  6 beta functions with: 
                l(1) =   0
                l(2) =   0
                l(3) =   1
                l(4) =   1
                l(5) =   2
                l(6) =   2
     Q(r) pseudized with  8 coefficients,  rinner =    1.130   1.130   1.130
                                                       1.130   1.130

     atomic species   valence    mass     pseudopotential
        Pd            16.00   106.40000     Pd( 1.00)

     48 Sym. Ops., with inversion, found



   Cartesian axes

     site n.     atom                  positions (alat units)
         1           Pd  tau(   1) = (   0.0000000   0.0000000   0.0000000  )

     number of k points=    72  Marzari-Vanderbilt smearing, width (Ry)=  0.0400
                       cart. coord. in units 2pi/alat
        k(    1) = (   0.0000000   0.0000000   0.0000000), wk =   0.0011574
        k(    2) = (  -0.0833333   0.0833333  -0.0833333), wk =   0.0092593
        k(    3) = (  -0.1666667   0.1666667  -0.1666667), wk =   0.0092593
        k(    4) = (  -0.2500000   0.2500000  -0.2500000), wk =   0.0092593
        k(    5) = (  -0.3333333   0.3333333  -0.3333333), wk =   0.0092593
        k(    6) = (  -0.4166667   0.4166667  -0.4166667), wk =   0.0092593
        k(    7) = (   0.5000000  -0.5000000   0.5000000), wk =   0.0046296
        k(    8) = (   0.0000000   0.1666667   0.0000000), wk =   0.0069444
        k(    9) = (  -0.0833333   0.2500000  -0.0833333), wk =   0.0277778
        k(   10) = (  -0.1666667   0.3333333  -0.1666667), wk =   0.0277778
        k(   11) = (  -0.2500000   0.4166667  -0.2500000), wk =   0.0277778
        k(   12) = (  -0.3333333   0.5000000  -0.3333333), wk =   0.0277778
        k(   13) = (   0.5833333  -0.4166667   0.5833333), wk =   0.0277778
        k(   14) = (   0.5000000  -0.3333333   0.5000000), wk =   0.0277778
        k(   15) = (   0.4166667  -0.2500000   0.4166667), wk =   0.0277778
        k(   16) = (   0.3333333  -0.1666667   0.3333333), wk =   0.0277778
        k(   17) = (   0.2500000  -0.0833333   0.2500000), wk =   0.0277778
        k(   18) = (   0.1666667  -0.0000000   0.1666667), wk =   0.0138889
        k(   19) = (   0.0000000   0.3333333   0.0000000), wk =   0.0069444
        k(   20) = (  -0.0833333   0.4166667  -0.0833333), wk =   0.0277778
        k(   21) = (  -0.1666667   0.5000000  -0.1666667), wk =   0.0277778
        k(   22) = (  -0.2500000   0.5833333  -0.2500000), wk =   0.0277778
        k(   23) = (   0.6666667  -0.3333333   0.6666667), wk =   0.0277778
        k(   24) = (   0.5833333  -0.2500000   0.5833333), wk =   0.0277778
        k(   25) = (   0.5000000  -0.1666667   0.5000000), wk =   0.0277778
        k(   26) = (   0.4166667  -0.0833333   0.4166667), wk =   0.0277778
        k(   27) = (   0.3333333   0.0000000   0.3333333), wk =   0.0138889
        k(   28) = (   0.0000000   0.5000000   0.0000000), wk =   0.0069444
        k(   29) = (  -0.0833333   0.5833333  -0.0833333), wk =   0.0277778
        k(   30) = (  -0.1666667   0.6666667  -0.1666667), wk =   0.0277778
        k(   31) = (   0.7500000  -0.2500000   0.7500000), wk =   0.0277778
        k(   32) = (   0.6666667  -0.1666667   0.6666667), wk =   0.0277778
        k(   33) = (   0.5833333  -0.0833333   0.5833333), wk =   0.0277778
        k(   34) = (   0.5000000   0.0000000   0.5000000), wk =   0.0138889
        k(   35) = (   0.0000000   0.6666667   0.0000000), wk =   0.0069444
        k(   36) = (  -0.0833333   0.7500000  -0.0833333), wk =   0.0277778
        k(   37) = (   0.8333333  -0.1666667   0.8333333), wk =   0.0277778
        k(   38) = (   0.7500000  -0.0833333   0.7500000), wk =   0.0277778
        k(   39) = (   0.6666667  -0.0000000   0.6666667), wk =   0.0138889
        k(   40) = (   0.0000000   0.8333333   0.0000000), wk =   0.0069444
        k(   41) = (   0.9166667  -0.0833333   0.9166667), wk =   0.0277778
        k(   42) = (   0.8333333   0.0000000   0.8333333), wk =   0.0138889
        k(   43) = (   0.0000000  -1.0000000   0.0000000), wk =   0.0034722
        k(   44) = (  -0.1666667   0.3333333   0.0000000), wk =   0.0277778
        k(   45) = (  -0.2500000   0.4166667  -0.0833333), wk =   0.0555556
        k(   46) = (  -0.3333333   0.5000000  -0.1666667), wk =   0.0555556
        k(   47) = (   0.5833333  -0.4166667   0.7500000), wk =   0.0555556
        k(   48) = (   0.5000000  -0.3333333   0.6666667), wk =   0.0277778
        k(   49) = (  -0.1666667   0.5000000   0.0000000), wk =   0.0277778
        k(   50) = (  -0.2500000   0.5833333  -0.0833333), wk =   0.0555556
        k(   51) = (   0.6666667  -0.3333333   0.8333333), wk =   0.0555556
        k(   52) = (   0.5833333  -0.2500000   0.7500000), wk =   0.0555556
        k(   53) = (   0.5000000  -0.1666667   0.6666667), wk =   0.0555556
        k(   54) = (   0.4166667  -0.0833333   0.5833333), wk =   0.0555556
        k(   55) = (   0.3333333   0.0000000   0.5000000), wk =   0.0277778
        k(   56) = (  -0.1666667   0.6666667  -0.0000000), wk =   0.0277778
        k(   57) = (   0.7500000  -0.2500000   0.9166667), wk =   0.0555556
        k(   58) = (   0.6666667  -0.1666667   0.8333333), wk =   0.0555556
        k(   59) = (   0.5833333  -0.0833333   0.7500000), wk =   0.0555556
        k(   60) = (   0.5000000   0.0000000   0.6666667), wk =   0.0277778
        k(   61) = (   0.8333333  -0.1666667   1.0000000), wk =   0.0277778
        k(   62) = (   0.7500000  -0.0833333   0.9166667), wk =   0.0555556
        k(   63) = (   0.6666667   0.0000000   0.8333333), wk =   0.0277778
        k(   64) = (  -0.1666667  -1.0000000  -0.0000000), wk =   0.0138889
        k(   65) = (   0.6666667  -0.3333333   1.0000000), wk =   0.0277778
        k(   66) = (   0.5833333  -0.2500000   0.9166667), wk =   0.0555556
        k(   67) = (   0.5000000  -0.1666667   0.8333333), wk =   0.0277778
        k(   68) = (   0.6666667  -0.1666667   1.0000000), wk =   0.0277778
        k(   69) = (   0.5833333  -0.0833333   0.9166667), wk =   0.0555556
        k(   70) = (   0.5000000   0.0000000   0.8333333), wk =   0.0277778
        k(   71) = (  -0.3333333  -1.0000000   0.0000000), wk =   0.0138889
        k(   72) = (  -0.5000000  -1.0000000   0.0000000), wk =   0.0069444

     Dense  grid:     2133 G-vectors     FFT dimensions: (  20,  20,  20)

     Estimated max dynamical RAM per process >       6.66 MB

     Estimated total dynamical RAM >      13.32 MB

     Initial potential from superposition of free atoms
     Check: negative starting charge=   -0.081587

     starting charge   15.49999, renormalised to   16.00000

     negative rho (up, down):  8.422E-02 0.000E+00
     Starting wfcs are   12 randomized atomic wfcs

     total cpu time spent up to now is        0.6 secs

     Self-consistent Calculation

     iteration #  1     ecut=    35.00 Ry     beta= 0.70
     Davidson diagonalization with overlap
     ethr =  1.00E-02,  avg # of iterations =  3.5

     negative rho (up, down):  8.473E-02 0.000E+00

     total cpu time spent up to now is        1.3 secs

     total energy              =    -198.35912367 Ry
     Harris-Foulkes estimate   =    -198.87396876 Ry
     estimated scf accuracy    <       0.72655587 Ry

     iteration #  2     ecut=    35.00 Ry     beta= 0.70
     Davidson diagonalization with overlap
     ethr =  4.54E-03,  avg # of iterations =  2.0

     negative rho (up, down):  8.596E-02 0.000E+00

     total cpu time spent up to now is        1.8 secs

     total energy              =    -198.56063016 Ry
     Harris-Foulkes estimate   =    -198.75481169 Ry
     estimated scf accuracy    <       0.34485673 Ry

     iteration #  3     ecut=    35.00 Ry     beta= 0.70
     Davidson diagonalization with overlap
     ethr =  2.16E-03,  avg # of iterations =  2.0

     negative rho (up, down):  8.657E-02 0.000E+00

     total cpu time spent up to now is        2.7 secs

     total energy              =    -198.63813116 Ry
     Harris-Foulkes estimate   =    -198.63869805 Ry
     estimated scf accuracy    <       0.00127224 Ry

     iteration #  4     ecut=    35.00 Ry     beta= 0.70
     Davidson diagonalization with overlap
     ethr =  7.95E-06,  avg # of iterations =  2.2

     negative rho (up, down):  8.669E-02 0.000E+00

     total cpu time spent up to now is        3.2 secs

     total energy              =    -198.63843774 Ry
     Harris-Foulkes estimate   =    -198.63845142 Ry
     estimated scf accuracy    <       0.00002623 Ry

     iteration #  5     ecut=    35.00 Ry     beta= 0.70
     Davidson diagonalization with overlap
     ethr =  1.64E-07,  avg # of iterations =  2.0

     negative rho (up, down):  8.672E-02 0.000E+00

     total cpu time spent up to now is        3.7 secs

     End of self-consistent calculation

          k = 0.0000 0.0000 0.0000 (   283 PWs)   bands (ev):

   -24.7083 -24.7083 -24.7083  16.4796  21.4556  21.4556  21.4556  23.8161
    23.8161  43.7438  50.0017  50.0017

          k =-0.0833 0.0833-0.0833 (   277 PWs)   bands (ev):

   -24.7736 -24.7169 -24.7169  16.7924  21.3277  21.5770  21.5770  23.7538
    23.7538  44.1675  48.2007  50.4269

          k =-0.1667 0.1667-0.1667 (   277 PWs)   bands (ev):

   -24.9516 -24.7405 -24.7405  17.6044  21.1195  21.8216  21.8216  23.7026
    23.7026  44.9184  45.4929  51.5800

          k =-0.2500 0.2500-0.2500 (   280 PWs)   bands (ev):

   -25.1894 -24.7731 -24.7731  18.3540  21.4871  21.8647  21.8647  24.0113
    24.0113  42.3613  45.3563  52.9790

          k =-0.3333 0.3333-0.3333 (   281 PWs)   bands (ev):

   -25.4225 -24.8055 -24.8055  18.4300  21.6583  21.6583  23.0342  24.6864
    24.6864  39.3492  44.3584  52.4102

          k =-0.4167 0.4167-0.4167 (   269 PWs)   bands (ev):

   -25.5899 -24.8288 -24.8288  18.2482  21.4444  21.4444  25.0559  25.3351
    25.3351  36.5229  43.3607  50.7230

          k = 0.5000-0.5000 0.5000 (   272 PWs)   bands (ev):

   -25.6510 -24.8375 -24.8375  18.1611  21.3602  21.3602  25.5983  25.5983
    26.1397  35.1605  42.9969  50.0630

          k = 0.0000 0.1667 0.0000 (   279 PWs)   bands (ev):

   -24.7720 -24.7316 -24.7316  16.8972  21.1833  21.6755  21.6755  23.5280
    23.9223  44.3273  48.5615  49.9630

          k =-0.0833 0.2500-0.0833 (   281 PWs)   bands (ev):

   -24.9042 -24.7604 -24.7481  17.5569  20.8962  21.9315  21.9459  23.3004
    24.0180  45.1150  46.4173  50.1396

          k =-0.1667 0.3333-0.1667 (   285 PWs)   bands (ev):

   -25.1178 -24.7958 -24.7759  18.4138  20.8492  21.9381  22.1018  23.6126
    24.2973  43.5281  45.7553  50.4882

          k =-0.2500 0.4167-0.2500 (   280 PWs)   bands (ev):

   -25.3467 -24.8280 -24.8132  18.6858  21.5982  21.7495  21.9773  24.6981
    24.8745  40.5130  45.0127  50.2273

          k =-0.3333 0.5000-0.3333 (   270 PWs)   bands (ev):

   -25.5307 -24.8502 -24.8484  18.5200  21.2982  21.7459  23.1117  25.4371
    26.2651  37.4399  43.9381  49.5080

          k = 0.5833-0.4167 0.5833 (   271 PWs)   bands (ev):

   -25.6240 -24.8768 -24.8520  18.3913  21.1588  21.5858  24.0163  25.6158
    27.7010  35.2829  43.3707  49.2038

          k = 0.5000-0.3333 0.5000 (   274 PWs)   bands (ev):

   -25.6039 -24.8858 -24.8376  18.4311  21.2196  21.5810  23.9735  25.2624
    27.4853  35.8144  43.4650  48.7054

          k = 0.4167-0.2500 0.4167 (   275 PWs)   bands (ev):

   -25.4755 -24.8738 -24.8091  18.6160  21.4421  21.7426  22.8929  24.5131
    26.2211  38.4639  44.1846  49.2661

          k = 0.3333-0.1667 0.3333 (   285 PWs)   bands (ev):

   -25.2715 -24.8441 -24.7739  18.7160  21.3633  21.8536  21.9926  23.6940
    25.0851  41.5479  45.2109  50.4236

          k = 0.2500-0.0833 0.2500 (   283 PWs)   bands (ev):

   -25.0452 -24.8025 -24.7413  18.1656  20.8695  21.9607  22.0404  23.2792
    24.2792  44.3716  45.5432  50.2574

          k = 0.1667-0.0000 0.1667 (   279 PWs)   bands (ev):

   -24.8616 -24.7560 -24.7204  17.2834  21.0896  21.7494  21.8135  23.4645
    23.9132  44.7706  46.8033  49.9088

          k = 0.0000 0.3333 0.0000 (   283 PWs)   bands (ev):

   -24.9436 -24.7951 -24.7951  17.9863  20.4935  22.3150  22.3150  22.8998
    24.2207  45.8564  46.9507  49.1298

          k =-0.0833 0.4167-0.0833 (   286 PWs)   bands (ev):

   -25.0966 -24.8356 -24.8297  18.6975  20.1558  22.1796  22.6525  23.4232
    24.4885  44.9807  46.5520  48.3870

          k =-0.1667 0.5000-0.1667 (   286 PWs)   bands (ev):

   -25.2888 -24.8739 -24.8708  19.0836  20.3643  21.7119  22.6640  24.9384
    25.0121  41.9672  45.8536  47.7326

          k =-0.2500 0.5833-0.2500 (   278 PWs)   bands (ev):

   -25.4565 -24.9280 -24.8912  18.9684  20.8049  21.7698  22.4536  25.5345
    27.0083  38.6262  44.6685  47.3183

          k = 0.6667-0.3333 0.6667 (   269 PWs)   bands (ev):

   -25.5558 -24.9780 -24.8916  18.8934  20.7060  22.2354  22.4748  25.6653
    29.2148  35.7443  43.8273  47.5952

          k = 0.5833-0.2500 0.5833 (   266 PWs)   bands (ev):

   -25.5639 -25.0090 -24.8721  18.9755  20.7173  22.1310  22.7455  25.2499
    29.8575  35.2812  43.4417  47.0134

          k = 0.5000-0.1667 0.5000 (   273 PWs)   bands (ev):

   -25.4827 -25.0092 -24.8379  19.2053  20.9366  22.1924  22.2043  24.4265
    28.3806  37.8158  43.5064  47.0421

          k = 0.4167-0.0833 0.4167 (   274 PWs)   bands (ev):

   -25.3388 -24.9710 -24.7975  19.4694  20.9082  21.5306  22.4241  23.4791
    26.7411  40.9725  44.0001  48.2024

          k = 0.3333 0.0000 0.3333 (   279 PWs)   bands (ev):

   -25.1789 -24.8953 -24.7622  19.0822  20.5259  21.8302  22.5666  22.8735
    25.3188  43.3341  44.9966  50.1706

          k = 0.0000 0.5000 0.0000 (   290 PWs)   bands (ev):

   -25.1693 -24.8818 -24.8818  18.9114  19.6525  22.9592  23.3102  23.3102
    24.6434  45.8701  46.7131  46.7131

          k =-0.0833 0.5833-0.0833 (   278 PWs)   bands (ev):

   -25.3017 -24.9313 -24.9215  19.0183  19.3938  22.7581  23.6093  24.9427
    25.0592  43.4762  45.5044  45.5588

          k =-0.1667 0.6667-0.1667 (   274 PWs)   bands (ev):

   -25.4233 -25.0015 -24.9450  18.9296  19.6263  22.4260  23.4725  25.5951
    27.3452  40.0475  44.1285  44.9315

          k = 0.7500-0.2500 0.7500 (   271 PWs)   bands (ev):

   -25.4902 -25.0853 -24.9457  18.9610  20.0127  22.1900  23.2165  25.7371
    30.1190  36.7351  42.7670  45.2690

          k = 0.6667-0.1667 0.6667 (   275 PWs)   bands (ev):

   -25.4882 -25.1577 -24.9235  19.2240  20.3340  21.9703  23.0000  25.3144
    32.1403  34.9505  41.6103  46.6450

          k = 0.5833-0.0833 0.5833 (   273 PWs)   bands (ev):

   -25.4368 -25.1790 -24.8842  19.6857  20.6057  21.5042  22.8799  24.5134
    30.6150  37.4645  40.8780  47.2340

          k = 0.5000 0.0000 0.5000 (   273 PWs)   bands (ev):

   -25.3866 -25.1068 -24.8380  20.1404  20.5992  21.1338  22.7959  23.7147
    28.6308  40.4430  41.1665  47.3914

          k = 0.0000 0.6667 0.0000 (   274 PWs)   bands (ev):

   -25.3855 -24.9674 -24.9674  18.6460  18.9035  24.5146  24.5146  24.8758
    25.0901  43.7800  43.7800  44.0541

          k =-0.0833 0.7500-0.0833 (   273 PWs)   bands (ev):

   -25.4700 -25.0215 -24.9957  18.4711  18.7605  24.1365  24.6063  25.5910
    27.2984  41.3427  42.5676  42.8369

          k = 0.8333-0.1667 0.8333 (   272 PWs)   bands (ev):

   -25.5009 -25.1122 -24.9993  18.5007  19.0464  23.4668  24.3453  25.8229
    30.2293  38.2210  41.0196  42.9733

          k = 0.7500-0.0833 0.7500 (   274 PWs)   bands (ev):

   -25.4567 -25.2285 -24.9772  18.7682  19.6505  22.6432  24.0055  25.4792
    33.3422  35.4162  39.6579  44.2556

          k = 0.6667-0.0000 0.6667 (   268 PWs)   bands (ev):

   -25.3462 -25.3402 -24.9348  19.2527  20.3741  21.7339  23.5485  24.8918
    32.8396  36.4702  38.9680  46.3857

          k = 0.0000 0.8333 0.0000 (   278 PWs)   bands (ev):

   -25.5392 -25.0297 -25.0297  18.0659  18.4003  25.4336  25.6064  25.6064
    27.5721  40.9610  41.4625  41.4625

          k = 0.9167-0.0833 0.9167 (   274 PWs)   bands (ev):

   -25.5641 -25.0741 -25.0382  18.0276  18.4177  25.1231  25.2673  25.9445
    29.6486  39.5203  39.9569  41.2302

          k = 0.8333 0.0000 0.8333 (   276 PWs)   bands (ev):

   -25.5243 -25.1574 -25.0190  18.2956  18.8620  23.9337  24.8299  25.7604
    31.9943  37.4526  39.0770  42.2722

          k = 0.0000-1.0000 0.0000 (   254 PWs)   bands (ev):

   -25.5937 -25.0515 -25.0515  17.8269  18.2262  25.5676  26.0813  26.0813
    29.0800  39.1874  40.5609  40.5609

          k =-0.1667 0.3333 0.0000 (   288 PWs)   bands (ev):

   -25.0294 -24.8222 -24.7644  18.2960  20.5507  22.0333  22.3167  23.1465
    24.3687  45.1684  45.7181  49.3813

          k =-0.2500 0.4167-0.0833 (   282 PWs)   bands (ev):

   -25.2139 -24.8835 -24.7919  19.0537  20.5321  21.6956  22.5188  23.5604
    25.2325  42.8290  45.4523  49.1772

          k =-0.3333 0.5000-0.1667 (   278 PWs)   bands (ev):

   -25.4026 -24.9284 -24.8283  19.0668  21.2433  21.4566  22.3483  24.4827
    26.5809  39.7266  44.6351  47.7918

          k = 0.5833-0.4167 0.7500 (   273 PWs)   bands (ev):

   -25.5404 -24.9542 -24.8601  18.8697  20.9127  22.0267  22.6386  25.2282
    28.2907  36.6418  43.9498  47.1072

          k = 0.5000-0.3333 0.6667 (   274 PWs)   bands (ev):

   -25.5908 -24.9620 -24.8732  18.7877  20.7916  21.9775  23.0601  25.4780
    29.4115  35.0218  43.6987  47.0435

          k =-0.1667 0.5000 0.0000 (   283 PWs)   bands (ev):

   -25.2226 -24.9121 -24.8521  19.2222  19.8114  21.9434  23.3000  23.7941
    25.2124  43.9618  45.3317  47.6215

          k =-0.2500 0.5833-0.0833 (   275 PWs)   bands (ev):

   -25.3619 -24.9825 -24.8849  19.3351  20.0327  21.5883  23.3335  24.6290
    26.7798  41.1959  44.2547  46.0257

          k = 0.6667-0.3333 0.8333 (   272 PWs)   bands (ev):

   -25.4706 -25.0408 -24.9141  19.2323  20.3620  21.5938  23.0557  25.3349
    28.9493  37.8304  43.8163  44.9078

          k = 0.5833-0.2500 0.7500 (   274 PWs)   bands (ev):

   -25.5186 -25.0855 -24.9201  19.3001  20.3143  21.9708  22.7751  25.4579
    31.1480  35.1899  43.1900  44.8955

          k = 0.5000-0.1667 0.6667 (   271 PWs)   bands (ev):

   -25.4966 -25.1030 -24.8992  19.5119  20.3580  21.8489  22.7357  25.0596
    30.6464  36.1114  42.5729  45.4969

          k = 0.4167-0.0833 0.5833 (   271 PWs)   bands (ev):

   -25.4196 -25.0753 -24.8614  19.7812  20.6844  21.0522  22.9616  24.2738
    28.6549  39.2250  42.4478  46.3169

          k = 0.3333 0.0000 0.5000 (   272 PWs)   bands (ev):

   -25.3176 -24.9945 -24.8210  19.9277  20.2099  21.2043  23.2252  23.3520
    26.8050  41.9416  43.3717  47.6070

          k =-0.1667 0.6667-0.0000 (   270 PWs)   bands (ev):

   -25.3970 -25.0010 -24.9504  18.9648  19.1336  22.8039  24.5046  24.7654
    26.8063  42.3916  43.0190  44.2706

          k = 0.7500-0.2500 0.9167 (   274 PWs)   bands (ev):

   -25.4601 -25.0811 -24.9774  18.9210  19.3522  22.4562  24.2327  25.4243
    29.2253  39.3230  42.5026  42.7087

          k = 0.6667-0.1667 0.8333 (   272 PWs)   bands (ev):

   -25.4642 -25.1754 -24.9789  19.0541  19.8158  22.0513  23.7624  25.5917
    32.0703  36.2043  41.2443  43.1382

          k = 0.5833-0.0833 0.7500 (   274 PWs)   bands (ev):

   -25.4148 -25.2548 -24.9523  19.4298  20.2803  21.5128  23.4225  25.2032
    33.0209  35.7443  40.0156  44.3899

          k = 0.5000 0.0000 0.6667 (   273 PWs)   bands (ev):

   -25.4005 -25.2176 -24.9080  19.9854  20.6464  20.7499  23.3104  24.5623
    30.8149  38.8885  39.4425  45.5530

          k = 0.8333-0.1667 1.0000 (   274 PWs)   bands (ev):

   -25.5166 -25.0660 -25.0267  18.3626  18.6723  23.9643  25.1919  25.6037
    29.2526  40.5686  40.8879  41.0811

          k = 0.7500-0.0833 0.9167 (   274 PWs)   bands (ev):

   -25.5034 -25.1493 -25.0310  18.5191  19.0090  23.3012  24.6341  25.8702
    31.8481  37.9931  39.6393  41.3346

          k = 0.6667 0.0000 0.8333 (   270 PWs)   bands (ev):

   -25.4292 -25.2580 -25.0015  18.8913  19.6820  22.3414  24.0387  25.6049
    34.4007  35.4385  38.8933  42.7424

          k =-0.1667-1.0000-0.0000 (   272 PWs)   bands (ev):

   -25.5587 -25.0895 -25.0553  18.1160  18.5101  24.5970  25.1552  26.0808
    30.7805  39.0100  40.0316  40.0933

          k = 0.6667-0.3333 1.0000 (   274 PWs)   bands (ev):

   -25.4125 -25.0932 -24.9200  19.7846  19.7892  21.2423  24.0065  24.4939
    28.8750  40.5934  41.1985  44.5755

          k = 0.5833-0.2500 0.9167 (   274 PWs)   bands (ev):

   -25.4361 -25.1758 -24.9573  19.7179  20.0814  21.1416  23.6060  25.1878
    31.2368  37.5352  41.1055  43.2601

          k = 0.5000-0.1667 0.8333 (   274 PWs)   bands (ev):

   -25.4414 -25.2070 -24.9735  19.7599  20.0279  21.3071  23.3463  25.4596
    33.2808  35.1091  41.9555  42.0640

          k = 0.6667-0.1667 1.0000 (   276 PWs)   bands (ev):

   -25.4541 -25.1648 -25.0178  19.0928  19.4698  22.0486  24.2871  25.5939
    31.5869  39.2839  39.4672  41.2288

          k = 0.5833-0.0833 0.9167 (   269 PWs)   bands (ev):

   -25.4011 -25.2572 -25.0324  19.2544  20.0177  21.4809  23.7674  25.8432
    34.2637  36.3533  39.6011  40.5711

          k = 0.5000 0.0000 0.8333 (   270 PWs)   bands (ev):

   -25.3627 -25.2979 -25.0058  19.5268  20.6052  20.7347  23.6032  25.5858
    33.6486  36.9853  38.9164  41.8699

          k =-0.3333-1.0000 0.0000 (   266 PWs)   bands (ev):

   -25.4614 -25.1906 -25.0603  18.8237  19.3536  22.5101  24.2028  26.0827
    33.4920  38.4944  38.5838  39.5433

          k =-0.5000-1.0000 0.0000 (   264 PWs)   bands (ev):

   -25.3268 -25.3268 -25.0632  19.2905  20.7116  20.7116  23.6078  26.0841
    36.1908  36.1908  38.3654  39.3717

     the Fermi energy is    25.6634 ev

!    total energy              =    -198.63844355 Ry
     Harris-Foulkes estimate   =    -198.63844352 Ry
     estimated scf accuracy    <       0.00000007 Ry

     The total energy is the sum of the following terms:

     one-electron contribution =     -23.71614090 Ry
     hartree contribution      =      29.29750134 Ry
     xc contribution           =     -31.61311808 Ry
     ewald contribution        =    -172.60657228 Ry
     smearing contrib. (-TS)   =      -0.00011364 Ry

     convergence has been achieved in   5 iterations

     Writing output data file Pd-kp-conv.save/
 
     init_run     :      0.49s CPU      0.54s WALL (       1 calls)
     electrons    :      2.54s CPU      3.10s WALL (       1 calls)

     Called by init_run:
     wfcinit      :      0.18s CPU      0.21s WALL (       1 calls)
     potinit      :      0.00s CPU      0.02s WALL (       1 calls)
     hinit0       :      0.30s CPU      0.30s WALL (       1 calls)

     Called by electrons:
     c_bands      :      2.13s CPU      2.63s WALL (       5 calls)
     sum_band     :      0.37s CPU      0.40s WALL (       5 calls)
     v_of_rho     :      0.01s CPU      0.02s WALL (       6 calls)
     newd         :      0.03s CPU      0.03s WALL (       6 calls)
     mix_rho      :      0.00s CPU      0.00s WALL (       5 calls)

     Called by c_bands:
     init_us_2    :      0.05s CPU      0.06s WALL (     792 calls)
     cegterg      :      1.99s CPU      2.16s WALL (     360 calls)

     Called by sum_band:
     sum_band:bec :      0.00s CPU      0.00s WALL (     360 calls)
     addusdens    :      0.02s CPU      0.02s WALL (       5 calls)

     Called by *egterg:
     h_psi        :      1.61s CPU      1.76s WALL (    1270 calls)
     s_psi        :      0.02s CPU      0.03s WALL (    1270 calls)
     g_psi        :      0.02s CPU      0.02s WALL (     838 calls)
     cdiaghg      :      0.34s CPU      0.37s WALL (    1198 calls)

     Called by h_psi:
     h_psi:pot    :      1.60s CPU      1.75s WALL (    1270 calls)
     h_psi:calbec :      0.04s CPU      0.04s WALL (    1270 calls)
     vloc_psi     :      1.53s CPU      1.67s WALL (    1270 calls)
     add_vuspsi   :      0.03s CPU      0.03s WALL (    1270 calls)

     General routines
     calbec       :      0.04s CPU      0.05s WALL (    1630 calls)
     fft          :      0.01s CPU      0.01s WALL (      67 calls)
     ffts         :      0.00s CPU      0.00s WALL (       5 calls)
     fftw         :      1.57s CPU      1.71s WALL (   27760 calls)
 
     Parallel routines
     fft_scatt_xy :      0.29s CPU      0.31s WALL (   27832 calls)
     fft_scatt_yz :      0.40s CPU      0.44s WALL (   27832 calls)
 
     PWSCF        :     3.14s CPU         4.06s WALL

 
   This run was terminated on:  23:13:55   2Dec2021            

=------------------------------------------------------------------------------=
   JOB DONE.
=------------------------------------------------------------------------------=
