
     Program PWSCF v.6.3 starts on  2Dec2021 at 23:13:41 

     This program is part of the open-source Quantum ESPRESSO suite
     for quantum simulation of materials; please cite
         "P. Giannozzi et al., J. Phys.:Condens. Matter 21 395502 (2009);
         "P. Giannozzi et al., J. Phys.:Condens. Matter 29 465901 (2017);
          URL http://www.quantum-espresso.org", 
     in publications or presentations arising from this work. More details at
     http://www.quantum-espresso.org/quote

     Parallel version (MPI & OpenMP), running on       2 processor cores
     Number of MPI processes:                 2
     Threads/MPI process:                     1

     MPI processes distributed on     1 nodes
     R & G space division:  proc/nbgrp/npool/nimage =       2
     Reading input from pw-input.in

     Current dimensions of program PWSCF are:
     Max number of different atomic species (ntypx) = 10
     Max number of k-points (npk) =  40000
     Max angular momentum in pseudopotentials (lmaxx) =  3

     Subspace diagonalization in iterative solution of the eigenvalue problem:
     a serial algorithm will be used

 
     Parallelization info
     --------------------
     sticks:   dense  smooth     PW     G-vecs:    dense   smooth      PW
     Min         105     105     42                  994      994     229
     Max         106     106     43                  995      995     230
     Sum         211     211     85                 1989     1989     459
 

     Title: 
     Pd-kp-conv                                                                 


     bravais-lattice index     =            2
     lattice parameter (alat)  =       6.6000  a.u.
     unit-cell volume          =      71.8740 (a.u.)^3
     number of atoms/cell      =            1
     number of atomic types    =            1
     number of electrons       =        16.00
     number of Kohn-Sham states=           12
     kinetic-energy cutoff     =      35.0000  Ry
     charge density cutoff     =     140.0000  Ry
     convergence threshold     =      1.0E-07
     mixing beta               =       0.7000
     number of iterations used =            8  plain     mixing
     Exchange-correlation      =  SLA  PW   PBX  PBC ( 1  4  3  4 0 0)

     celldm(1)=   6.600000  celldm(2)=   0.000000  celldm(3)=   0.000000
     celldm(4)=   0.000000  celldm(5)=   0.000000  celldm(6)=   0.000000

     crystal axes: (cart. coord. in units of alat)
               a(1) = (  -0.500000   0.000000   0.500000 )  
               a(2) = (   0.000000   0.500000   0.500000 )  
               a(3) = (  -0.500000   0.500000   0.000000 )  

     reciprocal axes: (cart. coord. in units 2 pi/alat)
               b(1) = ( -1.000000 -1.000000  1.000000 )  
               b(2) = (  1.000000  1.000000  1.000000 )  
               b(3) = ( -1.000000  1.000000 -1.000000 )  


     PseudoPot. # 1 for Pd read from file:
     ./pd_pbe_v1.4.uspp.F.UPF
     MD5 check sum: 2d733d2bc2cbfd217af676df1668a4bc
     Pseudo is Ultrasoft + core correction, Zval = 16.0
     Generated by new atomic code, or converted to UPF format
     Using radial grid of  887 points,  6 beta functions with: 
                l(1) =   0
                l(2) =   0
                l(3) =   1
                l(4) =   1
                l(5) =   2
                l(6) =   2
     Q(r) pseudized with  8 coefficients,  rinner =    1.130   1.130   1.130
                                                       1.130   1.130

     atomic species   valence    mass     pseudopotential
        Pd            16.00   106.40000     Pd( 1.00)

     48 Sym. Ops., with inversion, found



   Cartesian axes

     site n.     atom                  positions (alat units)
         1           Pd  tau(   1) = (   0.0000000   0.0000000   0.0000000  )

     number of k points=    72  Marzari-Vanderbilt smearing, width (Ry)=  0.0400
                       cart. coord. in units 2pi/alat
        k(    1) = (   0.0000000   0.0000000   0.0000000), wk =   0.0011574
        k(    2) = (  -0.0833333   0.0833333  -0.0833333), wk =   0.0092593
        k(    3) = (  -0.1666667   0.1666667  -0.1666667), wk =   0.0092593
        k(    4) = (  -0.2500000   0.2500000  -0.2500000), wk =   0.0092593
        k(    5) = (  -0.3333333   0.3333333  -0.3333333), wk =   0.0092593
        k(    6) = (  -0.4166667   0.4166667  -0.4166667), wk =   0.0092593
        k(    7) = (   0.5000000  -0.5000000   0.5000000), wk =   0.0046296
        k(    8) = (   0.0000000   0.1666667   0.0000000), wk =   0.0069444
        k(    9) = (  -0.0833333   0.2500000  -0.0833333), wk =   0.0277778
        k(   10) = (  -0.1666667   0.3333333  -0.1666667), wk =   0.0277778
        k(   11) = (  -0.2500000   0.4166667  -0.2500000), wk =   0.0277778
        k(   12) = (  -0.3333333   0.5000000  -0.3333333), wk =   0.0277778
        k(   13) = (   0.5833333  -0.4166667   0.5833333), wk =   0.0277778
        k(   14) = (   0.5000000  -0.3333333   0.5000000), wk =   0.0277778
        k(   15) = (   0.4166667  -0.2500000   0.4166667), wk =   0.0277778
        k(   16) = (   0.3333333  -0.1666667   0.3333333), wk =   0.0277778
        k(   17) = (   0.2500000  -0.0833333   0.2500000), wk =   0.0277778
        k(   18) = (   0.1666667  -0.0000000   0.1666667), wk =   0.0138889
        k(   19) = (   0.0000000   0.3333333   0.0000000), wk =   0.0069444
        k(   20) = (  -0.0833333   0.4166667  -0.0833333), wk =   0.0277778
        k(   21) = (  -0.1666667   0.5000000  -0.1666667), wk =   0.0277778
        k(   22) = (  -0.2500000   0.5833333  -0.2500000), wk =   0.0277778
        k(   23) = (   0.6666667  -0.3333333   0.6666667), wk =   0.0277778
        k(   24) = (   0.5833333  -0.2500000   0.5833333), wk =   0.0277778
        k(   25) = (   0.5000000  -0.1666667   0.5000000), wk =   0.0277778
        k(   26) = (   0.4166667  -0.0833333   0.4166667), wk =   0.0277778
        k(   27) = (   0.3333333   0.0000000   0.3333333), wk =   0.0138889
        k(   28) = (   0.0000000   0.5000000   0.0000000), wk =   0.0069444
        k(   29) = (  -0.0833333   0.5833333  -0.0833333), wk =   0.0277778
        k(   30) = (  -0.1666667   0.6666667  -0.1666667), wk =   0.0277778
        k(   31) = (   0.7500000  -0.2500000   0.7500000), wk =   0.0277778
        k(   32) = (   0.6666667  -0.1666667   0.6666667), wk =   0.0277778
        k(   33) = (   0.5833333  -0.0833333   0.5833333), wk =   0.0277778
        k(   34) = (   0.5000000   0.0000000   0.5000000), wk =   0.0138889
        k(   35) = (   0.0000000   0.6666667   0.0000000), wk =   0.0069444
        k(   36) = (  -0.0833333   0.7500000  -0.0833333), wk =   0.0277778
        k(   37) = (   0.8333333  -0.1666667   0.8333333), wk =   0.0277778
        k(   38) = (   0.7500000  -0.0833333   0.7500000), wk =   0.0277778
        k(   39) = (   0.6666667  -0.0000000   0.6666667), wk =   0.0138889
        k(   40) = (   0.0000000   0.8333333   0.0000000), wk =   0.0069444
        k(   41) = (   0.9166667  -0.0833333   0.9166667), wk =   0.0277778
        k(   42) = (   0.8333333   0.0000000   0.8333333), wk =   0.0138889
        k(   43) = (   0.0000000  -1.0000000   0.0000000), wk =   0.0034722
        k(   44) = (  -0.1666667   0.3333333   0.0000000), wk =   0.0277778
        k(   45) = (  -0.2500000   0.4166667  -0.0833333), wk =   0.0555556
        k(   46) = (  -0.3333333   0.5000000  -0.1666667), wk =   0.0555556
        k(   47) = (   0.5833333  -0.4166667   0.7500000), wk =   0.0555556
        k(   48) = (   0.5000000  -0.3333333   0.6666667), wk =   0.0277778
        k(   49) = (  -0.1666667   0.5000000   0.0000000), wk =   0.0277778
        k(   50) = (  -0.2500000   0.5833333  -0.0833333), wk =   0.0555556
        k(   51) = (   0.6666667  -0.3333333   0.8333333), wk =   0.0555556
        k(   52) = (   0.5833333  -0.2500000   0.7500000), wk =   0.0555556
        k(   53) = (   0.5000000  -0.1666667   0.6666667), wk =   0.0555556
        k(   54) = (   0.4166667  -0.0833333   0.5833333), wk =   0.0555556
        k(   55) = (   0.3333333   0.0000000   0.5000000), wk =   0.0277778
        k(   56) = (  -0.1666667   0.6666667  -0.0000000), wk =   0.0277778
        k(   57) = (   0.7500000  -0.2500000   0.9166667), wk =   0.0555556
        k(   58) = (   0.6666667  -0.1666667   0.8333333), wk =   0.0555556
        k(   59) = (   0.5833333  -0.0833333   0.7500000), wk =   0.0555556
        k(   60) = (   0.5000000   0.0000000   0.6666667), wk =   0.0277778
        k(   61) = (   0.8333333  -0.1666667   1.0000000), wk =   0.0277778
        k(   62) = (   0.7500000  -0.0833333   0.9166667), wk =   0.0555556
        k(   63) = (   0.6666667   0.0000000   0.8333333), wk =   0.0277778
        k(   64) = (  -0.1666667  -1.0000000  -0.0000000), wk =   0.0138889
        k(   65) = (   0.6666667  -0.3333333   1.0000000), wk =   0.0277778
        k(   66) = (   0.5833333  -0.2500000   0.9166667), wk =   0.0555556
        k(   67) = (   0.5000000  -0.1666667   0.8333333), wk =   0.0277778
        k(   68) = (   0.6666667  -0.1666667   1.0000000), wk =   0.0277778
        k(   69) = (   0.5833333  -0.0833333   0.9166667), wk =   0.0555556
        k(   70) = (   0.5000000   0.0000000   0.8333333), wk =   0.0277778
        k(   71) = (  -0.3333333  -1.0000000   0.0000000), wk =   0.0138889
        k(   72) = (  -0.5000000  -1.0000000   0.0000000), wk =   0.0069444

     Dense  grid:     1989 G-vectors     FFT dimensions: (  18,  18,  18)

     Estimated max dynamical RAM per process >       6.15 MB

     Estimated total dynamical RAM >      12.31 MB

     Initial potential from superposition of free atoms
     Check: negative starting charge=   -0.084505

     starting charge   15.49999, renormalised to   16.00000

     negative rho (up, down):  8.723E-02 0.000E+00
     Starting wfcs are   12 randomized atomic wfcs

     total cpu time spent up to now is        0.6 secs

     Self-consistent Calculation

     iteration #  1     ecut=    35.00 Ry     beta= 0.70
     Davidson diagonalization with overlap
     ethr =  1.00E-02,  avg # of iterations =  3.6

     negative rho (up, down):  8.927E-02 0.000E+00

     total cpu time spent up to now is        1.2 secs

     total energy              =    -198.36018523 Ry
     Harris-Foulkes estimate   =    -198.77938445 Ry
     estimated scf accuracy    <       0.59729876 Ry

     iteration #  2     ecut=    35.00 Ry     beta= 0.70
     Davidson diagonalization with overlap
     ethr =  3.73E-03,  avg # of iterations =  2.0

     negative rho (up, down):  9.015E-02 0.000E+00

     total cpu time spent up to now is        1.7 secs

     total energy              =    -198.52806295 Ry
     Harris-Foulkes estimate   =    -198.65624518 Ry
     estimated scf accuracy    <       0.21963929 Ry

     iteration #  3     ecut=    35.00 Ry     beta= 0.70
     Davidson diagonalization with overlap
     ethr =  1.37E-03,  avg # of iterations =  2.0

     negative rho (up, down):  9.094E-02 0.000E+00

     total cpu time spent up to now is        2.1 secs

     total energy              =    -198.57831158 Ry
     Harris-Foulkes estimate   =    -198.57869928 Ry
     estimated scf accuracy    <       0.00094112 Ry

     iteration #  4     ecut=    35.00 Ry     beta= 0.70
     Davidson diagonalization with overlap
     ethr =  5.88E-06,  avg # of iterations =  2.2

     negative rho (up, down):  9.106E-02 0.000E+00

     total cpu time spent up to now is        2.6 secs

     total energy              =    -198.57850814 Ry
     Harris-Foulkes estimate   =    -198.57851794 Ry
     estimated scf accuracy    <       0.00001748 Ry

     iteration #  5     ecut=    35.00 Ry     beta= 0.70
     Davidson diagonalization with overlap
     ethr =  1.09E-07,  avg # of iterations =  2.0

     negative rho (up, down):  9.109E-02 0.000E+00

     total cpu time spent up to now is        3.0 secs

     total energy              =    -198.57851231 Ry
     Harris-Foulkes estimate   =    -198.57851233 Ry
     estimated scf accuracy    <       0.00000011 Ry

     iteration #  6     ecut=    35.00 Ry     beta= 0.70
     Davidson diagonalization with overlap
     ethr =  6.57E-10,  avg # of iterations =  2.1

     negative rho (up, down):  9.110E-02 0.000E+00

     total cpu time spent up to now is        3.4 secs

     End of self-consistent calculation

          k = 0.0000 0.0000 0.0000 (   259 PWs)   bands (ev):

   -21.8921 -21.8921 -21.8921  18.7547  23.9095  23.9095  23.9095  26.6337
    26.6337  46.7740  53.6446  53.6446

          k =-0.0833 0.0833-0.0833 (   259 PWs)   bands (ev):

   -21.9817 -21.9037 -21.9037  19.0964  23.7606  24.0477  24.0477  26.5571
    26.5571  47.2832  51.7775  54.1444

          k =-0.1667 0.1667-0.1667 (   262 PWs)   bands (ev):

   -22.2235 -21.9353 -21.9353  19.9612  23.5364  24.3256  24.3256  26.4889
    26.4889  48.4212  48.8917  55.5187

          k =-0.2500 0.2500-0.2500 (   253 PWs)   bands (ev):

   -22.5455 -21.9782 -21.9782  20.6574  24.0269  24.3721  24.3721  26.8443
    26.8443  46.0983  48.8646  57.3314

          k =-0.3333 0.3333-0.3333 (   256 PWs)   bands (ev):

   -22.8601 -22.0211 -22.0211  20.6125  24.1323  24.1323  25.7906  27.6270
    27.6270  43.3021  47.7241  56.9396

          k =-0.4167 0.4167-0.4167 (   254 PWs)   bands (ev):

   -23.0850 -22.0521 -22.0521  20.3656  23.8854  23.8854  27.9579  28.3844
    28.3844  40.6049  46.4935  54.9609

          k = 0.5000-0.5000 0.5000 (   242 PWs)   bands (ev):

   -23.1662 -22.0628 -22.0628  20.2588  23.7907  23.7907  28.6980  28.6980
    29.0789  39.2826  46.0502  54.2009

          k = 0.0000 0.1667 0.0000 (   263 PWs)   bands (ev):

   -21.9798 -21.9236 -21.9236  19.2112  23.5918  24.1610  24.1610  26.2896
    26.7558  47.4686  52.1274  53.7198

          k =-0.0833 0.2500-0.0833 (   262 PWs)   bands (ev):

   -22.1592 -21.9624 -21.9456  19.9216  23.2631  24.4538  24.4712  26.0223
    26.8610  48.4665  49.9633  54.1015

          k =-0.1667 0.3333-0.1667 (   258 PWs)   bands (ev):

   -22.4484 -22.0092 -21.9825  20.7773  23.2510  24.4521  24.6492  26.3885
    27.1805  47.2594  49.2862  54.7973

          k =-0.2500 0.4167-0.2500 (   252 PWs)   bands (ev):

   -22.7575 -22.0517 -22.0322  20.9216  24.0591  24.3285  24.5023  27.6343
    27.8515  44.4387  48.5165  54.7175

          k =-0.3333 0.5000-0.3333 (   254 PWs)   bands (ev):

   -23.0051 -22.0819 -22.0789  20.6758  23.7108  24.2321  25.8406  28.5062
    29.3749  41.4896  47.2122  53.8328

          k = 0.5833-0.4167 0.5833 (   254 PWs)   bands (ev):

   -23.1302 -22.1175 -22.0832  20.5170  23.5521  24.0468  26.8460  28.7158
    30.8942  39.3724  46.5359  53.4125

          k = 0.5000-0.3333 0.5000 (   254 PWs)   bands (ev):

   -23.1032 -22.1295 -22.0638  20.5651  23.6235  24.0400  26.8002  28.2981
    30.7016  39.8983  46.6591  52.9020

          k = 0.4167-0.2500 0.4167 (   251 PWs)   bands (ev):

   -22.9311 -22.1137 -22.0256  20.7985  23.8816  24.2252  25.6113  27.4219
    29.3717  42.4919  47.5533  53.5869

          k = 0.3333-0.1667 0.3333 (   254 PWs)   bands (ev):

   -22.6563 -22.0742 -21.9788  21.0043  23.8697  24.3806  24.5138  26.4724
    28.0929  45.3976  48.8262  54.8567

          k = 0.2500-0.0833 0.2500 (   257 PWs)   bands (ev):

   -22.3498 -22.0189 -21.9358  20.5528  23.2519  24.4890  24.5730  25.9941
    27.1628  48.0331  49.0472  54.2806

          k = 0.1667-0.0000 0.1667 (   263 PWs)   bands (ev):

   -22.1014 -21.9564 -21.9083  19.6288  23.4858  24.2426  24.3219  26.2125
    26.7403  48.0319  50.3510  53.7559

          k = 0.0000 0.3333 0.0000 (   254 PWs)   bands (ev):

   -22.2123 -22.0089 -22.0089  20.3774  22.7951  24.8974  24.8974  25.5606
    27.0985  49.3026  50.5149  53.2221

          k =-0.0833 0.4167-0.0833 (   249 PWs)   bands (ev):

   -22.4192 -22.0629 -22.0550  21.0936  22.4184  24.7362  25.2851  26.1811
    27.4067  48.7372  50.2534  52.6491

          k =-0.1667 0.5000-0.1667 (   253 PWs)   bands (ev):

   -22.6790 -22.1144 -22.1096  21.3524  22.7207  24.2156  25.2932  27.9118
    28.0143  45.9217  49.6058  52.0676

          k =-0.2500 0.5833-0.2500 (   251 PWs)   bands (ev):

   -22.9046 -22.1874 -22.1365  21.1590  23.1602  24.3298  25.0459  28.6235
    30.2127  42.6429  48.2544  51.6028

          k = 0.6667-0.3333 0.6667 (   251 PWs)   bands (ev):

   -23.0380 -22.2553 -22.1370  21.0669  23.0345  24.7910  25.1173  28.7729
    32.5803  39.7470  47.3671  51.8436

          k = 0.5833-0.2500 0.5833 (   250 PWs)   bands (ev):

   -23.0490 -22.2976 -22.1105  21.1665  23.0456  24.6679  25.4223  28.2815
    33.2690  39.3161  47.0634  51.0150

          k = 0.5000-0.1667 0.5000 (   254 PWs)   bands (ev):

   -22.9402 -22.2979 -22.0644  21.4417  23.2956  24.7366  24.8270  27.3200
    31.7625  41.8710  47.3054  50.9271

          k = 0.4167-0.0833 0.4167 (   255 PWs)   bands (ev):

   -22.7469 -22.2467 -22.0105  21.7965  23.3351  24.0124  25.0024  26.2219
    29.9777  44.9357  48.0511  52.1335

          k = 0.3333 0.0000 0.3333 (   255 PWs)   bands (ev):

   -22.5308 -22.1445 -21.9634  21.5250  22.8515  24.3331  25.1745  25.5206
    28.3657  47.0207  49.1077  53.9342

          k = 0.0000 0.5000 0.0000 (   258 PWs)   bands (ev):

   -22.5177 -22.1252 -22.1252  21.2353  21.8361  25.6852  26.0402  26.0402
    27.5861  49.5780  50.9397  50.9397

          k =-0.0833 0.5833-0.0833 (   251 PWs)   bands (ev):

   -22.6962 -22.1919 -22.1783  21.2348  21.5643  25.4472  26.3820  27.9189
    28.0690  47.4646  49.5845  49.6850

          k =-0.1667 0.6667-0.1667 (   248 PWs)   bands (ev):

   -22.8593 -22.2869 -22.2092  21.0672  21.8410  25.0713  26.2184  28.6951
    30.5909  44.0289  48.1220  49.0663

          k = 0.7500-0.2500 0.7500 (   250 PWs)   bands (ev):

   -22.9489 -22.4006 -22.2097  21.0913  22.2758  24.7987  25.9202  28.8569
    33.6042  40.6274  46.7802  49.4226

          k = 0.6667-0.1667 0.6667 (   248 PWs)   bands (ev):

   -22.9456 -22.4987 -22.1794  21.3883  22.6543  24.5447  25.6667  28.3592
    35.7036  38.8956  45.6484  50.9265

          k = 0.5833-0.0833 0.5833 (   250 PWs)   bands (ev):

   -22.8774 -22.5277 -22.1265  21.9208  22.9664  24.0219  25.5253  27.4218
    34.1655  41.5120  44.9385  51.0026

          k = 0.5000 0.0000 0.5000 (   256 PWs)   bands (ev):

   -22.8106 -22.4302 -22.0647  22.4886  22.9608  23.5889  25.4267  26.4943
    32.0666  44.3853  45.4416  51.0981

          k = 0.0000 0.6667 0.0000 (   246 PWs)   bands (ev):

   -22.8086 -22.2397 -22.2397  20.7714  20.9899  27.4283  27.4283  27.8417
    28.1058  47.8241  47.8241  48.1018

          k =-0.0833 0.7500-0.0833 (   247 PWs)   bands (ev):

   -22.9214 -22.3129 -22.2774  20.5361  20.8372  27.0039  27.5342  28.6892
    30.5141  45.2623  46.7603  46.7922

          k = 0.8333-0.1667 0.8333 (   245 PWs)   bands (ev):

   -22.9621 -22.4360 -22.2818  20.5486  21.1789  26.2446  27.2285  28.9584
    33.7138  42.0306  45.2205  46.9441

          k = 0.7500-0.0833 0.7500 (   249 PWs)   bands (ev):

   -22.9020 -22.5944 -22.2516  20.8415  21.8855  25.3090  26.8296  28.5527
    37.0559  39.1523  43.8112  48.3661

          k = 0.6667-0.0000 0.6667 (   256 PWs)   bands (ev):

   -22.7547 -22.7452 -22.1951  21.3872  22.7314  24.2713  26.2951  27.8617
    36.4709  40.4486  43.0309  50.7001

          k = 0.0000 0.8333 0.0000 (   242 PWs)   bands (ev):

   -23.0131 -22.3230 -22.3230  20.0664  20.4246  28.5065  28.7019  28.7019
    30.7240  45.2488  45.2749  45.2749

          k = 0.9167-0.0833 0.9167 (   244 PWs)   bands (ev):

   -23.0461 -22.3831 -22.3344  20.0135  20.4510  28.1321  28.3077  29.0991
    33.0002  43.4775  44.0410  45.0173

          k = 0.8333 0.0000 0.8333 (   246 PWs)   bands (ev):

   -22.9925 -22.4967 -22.3081  20.3079  20.9720  26.7752  27.7930  28.8822
    35.5750  41.1647  43.3155  46.1832

          k = 0.0000-1.0000 0.0000 (   254 PWs)   bands (ev):

   -23.0866 -22.3537 -22.3537  19.7835  20.2261  28.6571  29.2554  29.2554
    32.2882  43.5189  44.2663  44.2663

          k =-0.1667 0.3333 0.0000 (   253 PWs)   bands (ev):

   -22.3282 -22.0454 -21.9668  20.7060  22.8684  24.5667  24.8949  25.8492
    27.2689  48.7730  49.3774  53.3678

          k =-0.2500 0.4167-0.0833 (   256 PWs)   bands (ev):

   -22.5784 -22.1280 -22.0033  21.4248  22.8988  24.1673  25.1246  26.3263
    28.2644  46.6507  49.3652  53.3874

          k =-0.3333 0.5000-0.1667 (   252 PWs)   bands (ev):

   -22.8325 -22.1882 -22.0518  21.3072  23.6455  23.9848  24.9315  27.3882
    29.7826  43.7414  48.3071  52.0095

          k = 0.5833-0.4167 0.7500 (   251 PWs)   bands (ev):

   -23.0176 -22.2227 -22.0944  21.0564  23.2656  24.5551  25.3042  28.2568
    31.6174  40.6828  47.4082  51.3167

          k = 0.5000-0.3333 0.6667 (   250 PWs)   bands (ev):

   -23.0850 -22.2332 -22.1118  20.9595  23.1276  24.4944  25.7753  28.5514
    32.7630  39.0702  47.0919  51.2922

          k =-0.1667 0.5000 0.0000 (   253 PWs)   bands (ev):

   -22.5897 -22.1664 -22.0845  21.5843  22.0244  24.4835  26.0265  26.6067
    28.2418  47.7667  49.5735  51.7799

          k =-0.2500 0.5833-0.0833 (   250 PWs)   bands (ev):

   -22.7772 -22.2614 -22.1285  21.5609  22.3271  24.0981  26.0641  27.5613
    30.0051  45.1983  48.3317  50.1078

          k = 0.6667-0.3333 0.8333 (   253 PWs)   bands (ev):

   -22.9231 -22.3403 -22.1677  21.4273  22.6578  24.1191  25.7413  28.3821
    32.3623  41.8128  47.6784  49.1017

          k = 0.5833-0.2500 0.7500 (   249 PWs)   bands (ev):

   -22.9871 -22.4005 -22.1755  21.5097  22.5973  24.5421  25.4141  28.5259
    34.6675  39.1459  47.0489  49.1099

          k = 0.5000-0.1667 0.6667 (   249 PWs)   bands (ev):

   -22.9578 -22.4246 -22.1472  21.7641  22.6369  24.4078  25.3662  28.0586
    34.1690  40.1104  46.5478  49.5137

          k = 0.4167-0.0833 0.5833 (   251 PWs)   bands (ev):

   -22.8548 -22.3875 -22.0963  22.0812  23.0023  23.5227  25.6301  27.1443
    32.0813  43.2659  46.5468  50.1885

          k = 0.3333 0.0000 0.5000 (   256 PWs)   bands (ev):

   -22.7183 -22.2787 -22.0422  22.3749  22.4964  23.5977  25.9364  26.0805
    30.0498  45.8063  47.6787  51.5474

          k =-0.1667 0.6667-0.0000 (   254 PWs)   bands (ev):

   -22.8241 -22.2861 -22.2174  21.1270  21.2577  25.4898  27.4155  27.7211
    30.0178  46.3382  47.1405  48.3916

          k = 0.7500-0.2500 0.9167 (   249 PWs)   bands (ev):

   -22.9080 -22.3940 -22.2532  21.0380  21.5244  25.0930  27.1014  28.4884
    32.6601  43.2488  46.5235  46.8673

          k = 0.6667-0.1667 0.8333 (   252 PWs)   bands (ev):

   -22.9130 -22.5223 -22.2550  21.1762  22.0657  24.6324  26.5499  28.6829
    35.7105  40.0365  45.3713  47.2335

          k = 0.5833-0.0833 0.7500 (   251 PWs)   bands (ev):

   -22.8464 -22.6296 -22.2188  21.5921  22.6204  24.0191  26.1516  28.2271
    36.6684  39.6889  44.0904  48.5461

          k = 0.5000 0.0000 0.6667 (   248 PWs)   bands (ev):

   -22.8282 -22.5793 -22.1589  22.2196  23.0667  23.1401  26.0242  27.4807
    34.3942  43.0189  43.4258  49.5908

          k = 0.8333-0.1667 1.0000 (   243 PWs)   bands (ev):

   -22.9831 -22.3727 -22.3190  20.4002  20.7408  26.8028  28.2188  28.6976
    32.6371  44.4788  44.7710  45.2576

          k = 0.7500-0.0833 0.9167 (   248 PWs)   bands (ev):

   -22.9646 -22.4859 -22.3251  20.5651  21.1383  26.0518  27.5613  29.0108
    35.4371  41.7842  43.8492  45.2603

          k = 0.6667 0.0000 0.8333 (   254 PWs)   bands (ev):

   -22.8648 -22.6343 -22.2854  20.9783  21.9235  24.9615  26.8624  28.6985
    38.1908  39.1519  43.0417  46.8194

          k =-0.1667-1.0000-0.0000 (   244 PWs)   bands (ev):

   -23.0391 -22.4043 -22.3573  20.1112  20.5595  27.5295  28.1746  29.2574
    34.2233  43.2378  43.8050  43.9196

          k = 0.6667-0.3333 1.0000 (   249 PWs)   bands (ev):

   -22.8446 -22.4109 -22.1756  22.0241  22.0387  23.7166  26.8387  27.4033
    32.3161  44.5364  45.3833  48.6184

          k = 0.5833-0.2500 0.9167 (   249 PWs)   bands (ev):

   -22.8755 -22.5227 -22.2261  21.9371  22.3636  23.6055  26.3694  28.2096
    34.8400  41.4993  45.1689  47.3587

          k = 0.5000-0.1667 0.8333 (   250 PWs)   bands (ev):

   -22.8823 -22.5646 -22.2480  21.9597  22.3360  23.7859  26.0645  28.5269
    36.9468  39.0193  46.0720  46.1459

          k = 0.6667-0.1667 1.0000 (   249 PWs)   bands (ev):

   -22.8988 -22.5070 -22.3081  21.2209  21.6652  24.6268  27.1566  28.6862
    35.2022  43.2565  43.3962  45.3734

          k = 0.5833-0.0833 0.9167 (   253 PWs)   bands (ev):

   -22.8272 -22.6325 -22.3280  21.3953  22.3037  23.9791  26.5456  28.9775
    38.0347  40.1948  43.7206  44.5927

          k = 0.5000 0.0000 0.8333 (   252 PWs)   bands (ev):

   -22.7758 -22.6874 -22.2921  21.6992  22.9914  23.1230  26.3564  28.6761
    37.3750  40.9259  42.9428  45.9813

          k =-0.3333-1.0000 0.0000 (   250 PWs)   bands (ev):

   -22.9080 -22.5420 -22.3660  20.9113  21.5343  25.1511  27.0499  29.2593
    37.1798  42.3623  42.6561  43.5417

          k =-0.5000-1.0000 0.0000 (   252 PWs)   bands (ev):

   -22.7268 -22.7268 -22.3703  21.4394  23.0957  23.0957  26.3567  29.2602
    40.0345  40.0345  42.4185  43.3944

     the Fermi energy is    28.7460 ev

!    total energy              =    -198.57851233 Ry
     Harris-Foulkes estimate   =    -198.57851233 Ry
     estimated scf accuracy    <          3.6E-10 Ry

     The total energy is the sum of the following terms:

     one-electron contribution =     -16.10343412 Ry
     hartree contribution      =      27.10314647 Ry
     xc contribution           =     -31.74097021 Ry
     ewald contribution        =    -177.83707445 Ry
     smearing contrib. (-TS)   =      -0.00018002 Ry

     convergence has been achieved in   6 iterations

     Writing output data file Pd-kp-conv.save/
 
     init_run     :      0.48s CPU      0.51s WALL (       1 calls)
     electrons    :      2.60s CPU      3.20s WALL (       1 calls)

     Called by init_run:
     wfcinit      :      0.17s CPU      0.18s WALL (       1 calls)
     potinit      :      0.00s CPU      0.01s WALL (       1 calls)
     hinit0       :      0.29s CPU      0.30s WALL (       1 calls)

     Called by electrons:
     c_bands      :      2.19s CPU      2.38s WALL (       6 calls)
     sum_band     :      0.37s CPU      0.40s WALL (       6 calls)
     v_of_rho     :      0.01s CPU      0.01s WALL (       7 calls)
     newd         :      0.03s CPU      0.03s WALL (       7 calls)
     mix_rho      :      0.00s CPU      0.00s WALL (       6 calls)

     Called by c_bands:
     init_us_2    :      0.06s CPU      0.06s WALL (     936 calls)
     cegterg      :      2.04s CPU      2.21s WALL (     432 calls)

     Called by sum_band:
     sum_band:bec :      0.00s CPU      0.00s WALL (     432 calls)
     addusdens    :      0.02s CPU      0.02s WALL (       6 calls)

     Called by *egterg:
     h_psi        :      1.60s CPU      1.74s WALL (    1504 calls)
     s_psi        :      0.03s CPU      0.03s WALL (    1504 calls)
     g_psi        :      0.02s CPU      0.02s WALL (    1000 calls)
     cdiaghg      :      0.35s CPU      0.38s WALL (    1432 calls)

     Called by h_psi:
     h_psi:pot    :      1.59s CPU      1.73s WALL (    1504 calls)
     h_psi:calbec :      0.04s CPU      0.05s WALL (    1504 calls)
     vloc_psi     :      1.51s CPU      1.64s WALL (    1504 calls)
     add_vuspsi   :      0.03s CPU      0.03s WALL (    1504 calls)

     General routines
     calbec       :      0.05s CPU      0.05s WALL (    1936 calls)
     fft          :      0.01s CPU      0.01s WALL (      78 calls)
     ffts         :      0.00s CPU      0.00s WALL (       6 calls)
     fftw         :      1.57s CPU      1.71s WALL (   32768 calls)
 
     Parallel routines
     fft_scatt_xy :      0.27s CPU      0.30s WALL (   32852 calls)
     fft_scatt_yz :      0.44s CPU      0.48s WALL (   32852 calls)
 
     PWSCF        :     3.19s CPU         4.09s WALL

 
   This run was terminated on:  23:13:45   2Dec2021            

=------------------------------------------------------------------------------=
   JOB DONE.
=------------------------------------------------------------------------------=
