
     Program PWSCF v.6.3 starts on  2Dec2021 at 23:11:58 

     This program is part of the open-source Quantum ESPRESSO suite
     for quantum simulation of materials; please cite
         "P. Giannozzi et al., J. Phys.:Condens. Matter 21 395502 (2009);
         "P. Giannozzi et al., J. Phys.:Condens. Matter 29 465901 (2017);
          URL http://www.quantum-espresso.org", 
     in publications or presentations arising from this work. More details at
     http://www.quantum-espresso.org/quote

     Parallel version (MPI & OpenMP), running on       2 processor cores
     Number of MPI processes:                 2
     Threads/MPI process:                     1

     MPI processes distributed on     1 nodes
     R & G space division:  proc/nbgrp/npool/nimage =       2
     Reading input from pw-input.in

     Current dimensions of program PWSCF are:
     Max number of different atomic species (ntypx) = 10
     Max number of k-points (npk) =  40000
     Max angular momentum in pseudopotentials (lmaxx) =  3

     Subspace diagonalization in iterative solution of the eigenvalue problem:
     a serial algorithm will be used

 
     Parallelization info
     --------------------
     sticks:   dense  smooth     PW     G-vecs:    dense   smooth      PW
     Min         150     150     54                 1738     1738     350
     Max         151     151     55                 1741     1741     351
     Sum         301     301    109                 3479     3479     701
 

     Title: 
     Pd-kp-conv                                                                 


     bravais-lattice index     =            2
     lattice parameter (alat)  =       7.9000  a.u.
     unit-cell volume          =     123.2598 (a.u.)^3
     number of atoms/cell      =            1
     number of atomic types    =            1
     number of electrons       =        16.00
     number of Kohn-Sham states=           12
     kinetic-energy cutoff     =      35.0000  Ry
     charge density cutoff     =     140.0000  Ry
     convergence threshold     =      1.0E-07
     mixing beta               =       0.7000
     number of iterations used =            8  plain     mixing
     Exchange-correlation      =  SLA  PW   PBX  PBC ( 1  4  3  4 0 0)

     celldm(1)=   7.900000  celldm(2)=   0.000000  celldm(3)=   0.000000
     celldm(4)=   0.000000  celldm(5)=   0.000000  celldm(6)=   0.000000

     crystal axes: (cart. coord. in units of alat)
               a(1) = (  -0.500000   0.000000   0.500000 )  
               a(2) = (   0.000000   0.500000   0.500000 )  
               a(3) = (  -0.500000   0.500000   0.000000 )  

     reciprocal axes: (cart. coord. in units 2 pi/alat)
               b(1) = ( -1.000000 -1.000000  1.000000 )  
               b(2) = (  1.000000  1.000000  1.000000 )  
               b(3) = ( -1.000000  1.000000 -1.000000 )  


     PseudoPot. # 1 for Pd read from file:
     ./pd_pbe_v1.4.uspp.F.UPF
     MD5 check sum: 2d733d2bc2cbfd217af676df1668a4bc
     Pseudo is Ultrasoft + core correction, Zval = 16.0
     Generated by new atomic code, or converted to UPF format
     Using radial grid of  887 points,  6 beta functions with: 
                l(1) =   0
                l(2) =   0
                l(3) =   1
                l(4) =   1
                l(5) =   2
                l(6) =   2
     Q(r) pseudized with  8 coefficients,  rinner =    1.130   1.130   1.130
                                                       1.130   1.130

     atomic species   valence    mass     pseudopotential
        Pd            16.00   106.40000     Pd( 1.00)

     48 Sym. Ops., with inversion, found



   Cartesian axes

     site n.     atom                  positions (alat units)
         1           Pd  tau(   1) = (   0.0000000   0.0000000   0.0000000  )

     number of k points=    16  Marzari-Vanderbilt smearing, width (Ry)=  0.0400
                       cart. coord. in units 2pi/alat
        k(    1) = (   0.0000000   0.0000000   0.0000000), wk =   0.0092593
        k(    2) = (  -0.1666667   0.1666667  -0.1666667), wk =   0.0740741
        k(    3) = (  -0.3333333   0.3333333  -0.3333333), wk =   0.0740741
        k(    4) = (   0.5000000  -0.5000000   0.5000000), wk =   0.0370370
        k(    5) = (   0.0000000   0.3333333   0.0000000), wk =   0.0555556
        k(    6) = (  -0.1666667   0.5000000  -0.1666667), wk =   0.2222222
        k(    7) = (   0.6666667  -0.3333333   0.6666667), wk =   0.2222222
        k(    8) = (   0.5000000  -0.1666667   0.5000000), wk =   0.2222222
        k(    9) = (   0.3333333   0.0000000   0.3333333), wk =   0.1111111
        k(   10) = (   0.0000000   0.6666667   0.0000000), wk =   0.0555556
        k(   11) = (   0.8333333  -0.1666667   0.8333333), wk =   0.2222222
        k(   12) = (   0.6666667  -0.0000000   0.6666667), wk =   0.1111111
        k(   13) = (   0.0000000  -1.0000000   0.0000000), wk =   0.0277778
        k(   14) = (   0.6666667  -0.3333333   1.0000000), wk =   0.2222222
        k(   15) = (   0.5000000  -0.1666667   0.8333333), wk =   0.2222222
        k(   16) = (  -0.3333333  -1.0000000   0.0000000), wk =   0.1111111

     Dense  grid:     3479 G-vectors     FFT dimensions: (  24,  24,  24)

     Estimated max dynamical RAM per process >       8.09 MB

     Estimated total dynamical RAM >      16.18 MB

     Initial potential from superposition of free atoms
     Check: negative starting charge=   -0.079301

     starting charge   15.49999, renormalised to   16.00000

     negative rho (up, down):  8.186E-02 0.000E+00
     Starting wfcs are   12 randomized atomic wfcs

     total cpu time spent up to now is        0.6 secs

     Self-consistent Calculation

     iteration #  1     ecut=    35.00 Ry     beta= 0.70
     Davidson diagonalization with overlap
     ethr =  1.00E-02,  avg # of iterations =  3.6

     negative rho (up, down):  7.989E-02 0.000E+00

     total cpu time spent up to now is        0.8 secs

     total energy              =    -198.00475598 Ry
     Harris-Foulkes estimate   =    -199.06905379 Ry
     estimated scf accuracy    <       1.45074329 Ry

     iteration #  2     ecut=    35.00 Ry     beta= 0.70
     Davidson diagonalization with overlap
     ethr =  9.07E-03,  avg # of iterations =  2.0

     negative rho (up, down):  8.153E-02 0.000E+00

     total cpu time spent up to now is        1.0 secs

     total energy              =    -198.33624802 Ry
     Harris-Foulkes estimate   =    -199.21093102 Ry
     estimated scf accuracy    <       1.83389467 Ry

     iteration #  3     ecut=    35.00 Ry     beta= 0.70
     Davidson diagonalization with overlap
     ethr =  9.07E-03,  avg # of iterations =  2.0

     negative rho (up, down):  8.167E-02 0.000E+00

     total cpu time spent up to now is        1.2 secs

     total energy              =    -198.68425725 Ry
     Harris-Foulkes estimate   =    -198.68483037 Ry
     estimated scf accuracy    <       0.00129128 Ry

     iteration #  4     ecut=    35.00 Ry     beta= 0.70
     Davidson diagonalization with overlap
     ethr =  8.07E-06,  avg # of iterations =  2.8

     negative rho (up, down):  8.179E-02 0.000E+00

     total cpu time spent up to now is        1.4 secs

     total energy              =    -198.68475513 Ry
     Harris-Foulkes estimate   =    -198.68475432 Ry
     estimated scf accuracy    <       0.00000280 Ry

     iteration #  5     ecut=    35.00 Ry     beta= 0.70
     Davidson diagonalization with overlap
     ethr =  1.75E-08,  avg # of iterations =  1.9

     negative rho (up, down):  8.183E-02 0.000E+00

     total cpu time spent up to now is        1.6 secs

     total energy              =    -198.68475585 Ry
     Harris-Foulkes estimate   =    -198.68475573 Ry
     estimated scf accuracy    <       0.00000010 Ry

     iteration #  6     ecut=    35.00 Ry     beta= 0.70
     Davidson diagonalization with overlap
     ethr =  6.32E-10,  avg # of iterations =  2.0

     negative rho (up, down):  8.183E-02 0.000E+00

     total cpu time spent up to now is        1.7 secs

     End of self-consistent calculation

          k = 0.0000 0.0000 0.0000 (   411 PWs)   bands (ev):

   -35.4355 -35.4355 -35.4355   8.1910  11.7784  11.7784  11.7784  12.9073
    12.9073  31.1657  34.6940  34.6940

          k =-0.1667 0.1667-0.1667 (   426 PWs)   bands (ev):

   -35.4817 -35.4426 -35.4426   8.9784  11.6264  11.9632  11.9632  12.8722
    12.8722  29.6256  32.0289  34.9345

          k =-0.3333 0.3333-0.3333 (   425 PWs)   bands (ev):

   -35.5733 -35.4564 -35.4564   9.9856  11.8987  11.8987  12.7378  13.3400
    13.3400  23.6394  31.1159  34.1126

          k = 0.5000-0.5000 0.5000 (   434 PWs)   bands (ev):

   -35.6187 -35.4634 -35.4634   9.9582  11.7561  11.7561  13.7443  13.7443
    15.2850  19.6195  30.3902  33.0614

          k = 0.0000 0.3333 0.0000 (   435 PWs)   bands (ev):

   -35.4803 -35.4535 -35.4535   9.2424  11.3303  12.2047  12.2047  12.5124
    13.1015  31.6251  32.1874  32.1874

          k =-0.1667 0.5000-0.1667 (   439 PWs)   bands (ev):

   -35.5477 -35.4695 -35.4693  10.3244  11.2282  11.9271  12.3843  13.4774
    13.5895  26.0752  30.6038  30.9817

          k = 0.6667-0.3333 0.6667 (   428 PWs)   bands (ev):

   -35.6004 -35.4901 -35.4740  10.3917  11.4756  12.1901  12.3405  13.7740
    16.5751  20.5502  28.8847  30.6587

          k = 0.5000-0.1667 0.5000 (   431 PWs)   bands (ev):

   -35.5859 -35.4959 -35.4635  10.5200  11.5745  12.1747  12.2188  13.2258
    15.6643  22.2895  27.8141  31.9342

          k = 0.3333 0.0000 0.3333 (   441 PWs)   bands (ev):

   -35.5260 -35.4733 -35.4479  10.0631  11.3402  11.9990  12.3346  12.5036
    13.6685  27.9599  28.4861  34.1829

          k = 0.0000 0.6667 0.0000 (   432 PWs)   bands (ev):

   -35.5673 -35.4885 -35.4885  10.2910  10.5314  13.2646  13.2646  13.5111
    13.8091  27.7404  27.9244  27.9244

          k = 0.8333-0.1667 0.8333 (   431 PWs)   bands (ev):

   -35.5909 -35.5164 -35.4954  10.3166  10.5905  12.8168  13.1940  13.8447
    17.2034  23.3279  24.7907  27.4163

          k = 0.6667-0.0000 0.6667 (   431 PWs)   bands (ev):

   -35.5604 -35.5601 -35.4829  10.7090  11.2615  11.9320  12.8363  13.4337
    19.0005  21.5713  23.2026  29.5331

          k = 0.0000-1.0000 0.0000 (   444 PWs)   bands (ev):

   -35.6096 -35.5062 -35.5062   9.9736  10.1688  13.7236  13.9596  13.9596
    17.2120  22.5779  25.9798  25.9798

          k = 0.6667-0.3333 1.0000 (   431 PWs)   bands (ev):

   -35.5728 -35.5123 -35.4793  10.9457  10.9594  11.6623  13.0607  13.2552
    15.9595  25.0469  25.1994  28.3807

          k = 0.5000-0.1667 0.8333 (   428 PWs)   bands (ev):

   -35.5792 -35.5344 -35.4897  11.0171  11.0330  11.7214  12.7426  13.6920
    19.5012  20.2080  25.6635  26.3835

          k =-0.3333-1.0000 0.0000 (   430 PWs)   bands (ev):

   -35.5837 -35.5319 -35.5066  10.5185  10.7288  12.3326  13.1444  13.9607
    19.7113  22.5601  23.5883  24.3399

     the Fermi energy is    13.8234 ev

!    total energy              =    -198.68475586 Ry
     Harris-Foulkes estimate   =    -198.68475586 Ry
     estimated scf accuracy    <          1.1E-09 Ry

     The total energy is the sum of the following terms:

     one-electron contribution =     -60.25934392 Ry
     hartree contribution      =      41.37854676 Ry
     xc contribution           =     -31.23462989 Ry
     ewald contribution        =    -148.57274574 Ry
     smearing contrib. (-TS)   =       0.00341693 Ry

     convergence has been achieved in   6 iterations

     Writing output data file Pd-kp-conv.save/
 
     init_run     :      0.42s CPU      0.45s WALL (       1 calls)
     electrons    :      1.12s CPU      1.23s WALL (       1 calls)

     Called by init_run:
     wfcinit      :      0.07s CPU      0.08s WALL (       1 calls)
     potinit      :      0.01s CPU      0.02s WALL (       1 calls)
     hinit0       :      0.33s CPU      0.33s WALL (       1 calls)

     Called by electrons:
     c_bands      :      0.86s CPU      0.90s WALL (       6 calls)
     sum_band     :      0.19s CPU      0.20s WALL (       6 calls)
     v_of_rho     :      0.03s CPU      0.03s WALL (       7 calls)
     newd         :      0.05s CPU      0.05s WALL (       7 calls)
     mix_rho      :      0.00s CPU      0.00s WALL (       6 calls)

     Called by c_bands:
     init_us_2    :      0.02s CPU      0.02s WALL (     208 calls)
     cegterg      :      0.80s CPU      0.84s WALL (      96 calls)

     Called by sum_band:
     sum_band:bec :      0.00s CPU      0.00s WALL (      96 calls)
     addusdens    :      0.04s CPU      0.05s WALL (       6 calls)

     Called by *egterg:
     h_psi        :      0.69s CPU      0.73s WALL (     342 calls)
     s_psi        :      0.01s CPU      0.01s WALL (     342 calls)
     g_psi        :      0.01s CPU      0.01s WALL (     230 calls)
     cdiaghg      :      0.09s CPU      0.09s WALL (     326 calls)

     Called by h_psi:
     h_psi:pot    :      0.69s CPU      0.73s WALL (     342 calls)
     h_psi:calbec :      0.01s CPU      0.01s WALL (     342 calls)
     vloc_psi     :      0.66s CPU      0.70s WALL (     342 calls)
     add_vuspsi   :      0.01s CPU      0.01s WALL (     342 calls)

     General routines
     calbec       :      0.02s CPU      0.02s WALL (     438 calls)
     fft          :      0.01s CPU      0.01s WALL (      78 calls)
     ffts         :      0.00s CPU      0.00s WALL (       6 calls)
     fftw         :      0.68s CPU      0.71s WALL (    7284 calls)
 
     Parallel routines
     fft_scatt_xy :      0.12s CPU      0.13s WALL (    7368 calls)
     fft_scatt_yz :      0.15s CPU      0.16s WALL (    7368 calls)
 
     PWSCF        :     1.63s CPU         2.22s WALL

 
   This run was terminated on:  23:12: 0   2Dec2021            

=------------------------------------------------------------------------------=
   JOB DONE.
=------------------------------------------------------------------------------=
