
     Program PWSCF v.6.3 starts on  2Dec2021 at 23:11:35 

     This program is part of the open-source Quantum ESPRESSO suite
     for quantum simulation of materials; please cite
         "P. Giannozzi et al., J. Phys.:Condens. Matter 21 395502 (2009);
         "P. Giannozzi et al., J. Phys.:Condens. Matter 29 465901 (2017);
          URL http://www.quantum-espresso.org", 
     in publications or presentations arising from this work. More details at
     http://www.quantum-espresso.org/quote

     Parallel version (MPI & OpenMP), running on       2 processor cores
     Number of MPI processes:                 2
     Threads/MPI process:                     1

     MPI processes distributed on     1 nodes
     R & G space division:  proc/nbgrp/npool/nimage =       2
     Reading input from pw-input.in

     Current dimensions of program PWSCF are:
     Max number of different atomic species (ntypx) = 10
     Max number of k-points (npk) =  40000
     Max angular momentum in pseudopotentials (lmaxx) =  3

     Subspace diagonalization in iterative solution of the eigenvalue problem:
     a serial algorithm will be used

 
     Parallelization info
     --------------------
     sticks:   dense  smooth     PW     G-vecs:    dense   smooth      PW
     Min         120     120     42                 1210     1210     264
     Max         121     121     43                 1211     1211     267
     Sum         241     241     85                 2421     2421     531
 

     Title: 
     Pd-kp-conv                                                                 


     bravais-lattice index     =            2
     lattice parameter (alat)  =       7.0000  a.u.
     unit-cell volume          =      85.7500 (a.u.)^3
     number of atoms/cell      =            1
     number of atomic types    =            1
     number of electrons       =        16.00
     number of Kohn-Sham states=           12
     kinetic-energy cutoff     =      35.0000  Ry
     charge density cutoff     =     140.0000  Ry
     convergence threshold     =      1.0E-07
     mixing beta               =       0.7000
     number of iterations used =            8  plain     mixing
     Exchange-correlation      =  SLA  PW   PBX  PBC ( 1  4  3  4 0 0)

     celldm(1)=   7.000000  celldm(2)=   0.000000  celldm(3)=   0.000000
     celldm(4)=   0.000000  celldm(5)=   0.000000  celldm(6)=   0.000000

     crystal axes: (cart. coord. in units of alat)
               a(1) = (  -0.500000   0.000000   0.500000 )  
               a(2) = (   0.000000   0.500000   0.500000 )  
               a(3) = (  -0.500000   0.500000   0.000000 )  

     reciprocal axes: (cart. coord. in units 2 pi/alat)
               b(1) = ( -1.000000 -1.000000  1.000000 )  
               b(2) = (  1.000000  1.000000  1.000000 )  
               b(3) = ( -1.000000  1.000000 -1.000000 )  


     PseudoPot. # 1 for Pd read from file:
     ./pd_pbe_v1.4.uspp.F.UPF
     MD5 check sum: 2d733d2bc2cbfd217af676df1668a4bc
     Pseudo is Ultrasoft + core correction, Zval = 16.0
     Generated by new atomic code, or converted to UPF format
     Using radial grid of  887 points,  6 beta functions with: 
                l(1) =   0
                l(2) =   0
                l(3) =   1
                l(4) =   1
                l(5) =   2
                l(6) =   2
     Q(r) pseudized with  8 coefficients,  rinner =    1.130   1.130   1.130
                                                       1.130   1.130

     atomic species   valence    mass     pseudopotential
        Pd            16.00   106.40000     Pd( 1.00)

     48 Sym. Ops., with inversion, found



   Cartesian axes

     site n.     atom                  positions (alat units)
         1           Pd  tau(   1) = (   0.0000000   0.0000000   0.0000000  )

     number of k points=    16  Marzari-Vanderbilt smearing, width (Ry)=  0.0400
                       cart. coord. in units 2pi/alat
        k(    1) = (   0.0000000   0.0000000   0.0000000), wk =   0.0092593
        k(    2) = (  -0.1666667   0.1666667  -0.1666667), wk =   0.0740741
        k(    3) = (  -0.3333333   0.3333333  -0.3333333), wk =   0.0740741
        k(    4) = (   0.5000000  -0.5000000   0.5000000), wk =   0.0370370
        k(    5) = (   0.0000000   0.3333333   0.0000000), wk =   0.0555556
        k(    6) = (  -0.1666667   0.5000000  -0.1666667), wk =   0.2222222
        k(    7) = (   0.6666667  -0.3333333   0.6666667), wk =   0.2222222
        k(    8) = (   0.5000000  -0.1666667   0.5000000), wk =   0.2222222
        k(    9) = (   0.3333333   0.0000000   0.3333333), wk =   0.1111111
        k(   10) = (   0.0000000   0.6666667   0.0000000), wk =   0.0555556
        k(   11) = (   0.8333333  -0.1666667   0.8333333), wk =   0.2222222
        k(   12) = (   0.6666667  -0.0000000   0.6666667), wk =   0.1111111
        k(   13) = (   0.0000000  -1.0000000   0.0000000), wk =   0.0277778
        k(   14) = (   0.6666667  -0.3333333   1.0000000), wk =   0.2222222
        k(   15) = (   0.5000000  -0.1666667   0.8333333), wk =   0.2222222
        k(   16) = (  -0.3333333  -1.0000000   0.0000000), wk =   0.1111111

     Dense  grid:     2421 G-vectors     FFT dimensions: (  20,  20,  20)

     Estimated max dynamical RAM per process >       5.80 MB

     Estimated total dynamical RAM >      11.60 MB

     Initial potential from superposition of free atoms
     Check: negative starting charge=   -0.083349

     starting charge   15.49999, renormalised to   16.00000

     negative rho (up, down):  8.604E-02 0.000E+00
     Starting wfcs are   12 randomized atomic wfcs

     total cpu time spent up to now is        0.5 secs

     Self-consistent Calculation

     iteration #  1     ecut=    35.00 Ry     beta= 0.70
     Davidson diagonalization with overlap
     ethr =  1.00E-02,  avg # of iterations =  3.7

     negative rho (up, down):  8.605E-02 0.000E+00

     total cpu time spent up to now is        0.7 secs

     total energy              =    -198.33449792 Ry
     Harris-Foulkes estimate   =    -198.95170995 Ry
     estimated scf accuracy    <       0.86349653 Ry

     iteration #  2     ecut=    35.00 Ry     beta= 0.70
     Davidson diagonalization with overlap
     ethr =  5.40E-03,  avg # of iterations =  2.0

     negative rho (up, down):  8.732E-02 0.000E+00

     total cpu time spent up to now is        0.8 secs

     total energy              =    -198.55736975 Ry
     Harris-Foulkes estimate   =    -198.83973799 Ry
     estimated scf accuracy    <       0.52003085 Ry

     iteration #  3     ecut=    35.00 Ry     beta= 0.70
     Davidson diagonalization with overlap
     ethr =  3.25E-03,  avg # of iterations =  2.0

     negative rho (up, down):  8.792E-02 0.000E+00

     total cpu time spent up to now is        0.9 secs

     total energy              =    -198.67544858 Ry
     Harris-Foulkes estimate   =    -198.67693016 Ry
     estimated scf accuracy    <       0.00297424 Ry

     iteration #  4     ecut=    35.00 Ry     beta= 0.70
     Davidson diagonalization with overlap
     ethr =  1.86E-05,  avg # of iterations =  2.0

     negative rho (up, down):  8.806E-02 0.000E+00

     total cpu time spent up to now is        1.1 secs

     total energy              =    -198.67617736 Ry
     Harris-Foulkes estimate   =    -198.67623124 Ry
     estimated scf accuracy    <       0.00010374 Ry

     iteration #  5     ecut=    35.00 Ry     beta= 0.70
     Davidson diagonalization with overlap
     ethr =  6.48E-07,  avg # of iterations =  2.0

     negative rho (up, down):  8.810E-02 0.000E+00

     total cpu time spent up to now is        1.2 secs

     End of self-consistent calculation

          k = 0.0000 0.0000 0.0000 (   307 PWs)   bands (ev):

   -27.2829 -27.2829 -27.2829  14.4973  19.2042  19.2042  19.2042  21.2498
    21.2498  40.9878  46.6741  46.6741

          k =-0.1667 0.1667-0.1667 (   310 PWs)   bands (ev):

   -27.4615 -27.3076 -27.3076  15.5448  18.9122  19.5243  19.5243  21.1569
    21.1569  41.5935  42.5099  47.9688

          k =-0.3333 0.3333-0.3333 (   302 PWs)   bands (ev):

   -27.8088 -27.3561 -27.3561  16.4592  19.3886  19.3886  20.5987  22.0117
    22.0117  35.7392  41.3838  48.3006

          k = 0.5000-0.5000 0.5000 (   302 PWs)   bands (ev):

   -27.9781 -27.3801 -27.3801  16.2575  19.1306  19.1306  22.7879  22.7879
    23.5662  31.4894  40.2270  46.2945

          k = 0.0000 0.3333 0.0000 (   303 PWs)   bands (ev):

   -27.4554 -27.3478 -27.3478  15.8982  18.3748  19.9544  19.9544  20.4717
    21.5981  42.7153  43.7158  45.3790

          k =-0.1667 0.5000-0.1667 (   298 PWs)   bands (ev):

   -27.7101 -27.4059 -27.4039  17.0361  18.2345  19.4325  20.2630  22.2613
    22.2862  38.3597  42.5011  43.8314

          k = 0.6667-0.3333 0.6667 (   301 PWs)   bands (ev):

   -27.9081 -27.4834 -27.4204  16.9183  18.5708  19.8938  20.0941  22.8442
    26.2193  32.1721  40.5778  43.7582

          k = 0.5000-0.1667 0.5000 (   299 PWs)   bands (ev):

   -27.8537 -27.5061 -27.3804  17.1801  18.7700  19.8550  19.8597  21.7912
    25.3579  34.1862  40.0161  43.5980

          k = 0.3333 0.0000 0.3333 (   303 PWs)   bands (ev):

   -27.6288 -27.4217 -27.3240  16.9360  18.3964  19.5406  20.1781  20.4521
    22.5623  39.9492  41.2488  46.7945

          k = 0.0000 0.6667 0.0000 (   310 PWs)   bands (ev):

   -27.7826 -27.4761 -27.4761  16.7114  16.9799  21.8636  21.8636  22.2545
    22.3486  40.1527  40.1527  40.3761

          k = 0.8333-0.1667 0.8333 (   303 PWs)   bands (ev):

   -27.8687 -27.5825 -27.5000  16.6209  17.0939  20.9610  21.7209  22.9791
    27.1376  34.8046  37.2487  39.4144

          k = 0.6667-0.0000 0.6667 (   284 PWs)   bands (ev):

   -27.7535 -27.7496 -27.4523  17.2892  18.2464  19.4380  21.0395  22.1904
    29.5974  32.9427  35.3216  42.5190

          k = 0.0000-1.0000 0.0000 (   302 PWs)   bands (ev):

   -27.9380 -27.5396 -27.5396  16.0283  16.3764  22.7533  23.1989  23.1989
    26.2673  35.3070  37.2385  37.2385

          k = 0.6667-0.3333 1.0000 (   305 PWs)   bands (ev):

   -27.8025 -27.5682 -27.4408  17.7332  17.7437  19.0024  21.4335  21.8477
    25.8046  37.0440  37.4652  40.9098

          k = 0.5000-0.1667 0.8333 (   294 PWs)   bands (ev):

   -27.8241 -27.6517 -27.4804  17.7445  17.9328  19.0650  20.8657  22.6758
    30.0239  31.6197  38.2016  38.4572

          k =-0.3333-1.0000 0.0000 (   294 PWs)   bands (ev):

   -27.8396 -27.6406 -27.5443  16.9136  17.3577  20.1227  21.6047  23.2019
    30.2267  34.8998  35.0373  35.9977

     the Fermi energy is    22.7882 ev

!    total energy              =    -198.67619881 Ry
     Harris-Foulkes estimate   =    -198.67619874 Ry
     estimated scf accuracy    <       0.00000008 Ry

     The total energy is the sum of the following terms:

     one-electron contribution =     -30.94479138 Ry
     hartree contribution      =      31.43601822 Ry
     xc contribution           =     -31.49500033 Ry
     ewald contribution        =    -167.67495590 Ry
     smearing contrib. (-TS)   =       0.00253057 Ry

     convergence has been achieved in   5 iterations

     Writing output data file Pd-kp-conv.save/
 
     init_run     :      0.36s CPU      0.38s WALL (       1 calls)
     electrons    :      0.63s CPU      1.08s WALL (       1 calls)

     Called by init_run:
     wfcinit      :      0.04s CPU      0.05s WALL (       1 calls)
     potinit      :      0.00s CPU      0.01s WALL (       1 calls)
     hinit0       :      0.30s CPU      0.31s WALL (       1 calls)

     Called by electrons:
     c_bands      :      0.49s CPU      0.54s WALL (       5 calls)
     sum_band     :      0.10s CPU      0.11s WALL (       5 calls)
     v_of_rho     :      0.02s CPU      0.02s WALL (       6 calls)
     newd         :      0.03s CPU      0.03s WALL (       6 calls)
     mix_rho      :      0.00s CPU      0.00s WALL (       5 calls)

     Called by c_bands:
     init_us_2    :      0.01s CPU      0.01s WALL (     176 calls)
     cegterg      :      0.46s CPU      0.50s WALL (      80 calls)

     Called by sum_band:
     sum_band:bec :      0.00s CPU      0.00s WALL (      80 calls)
     addusdens    :      0.02s CPU      0.03s WALL (       5 calls)

     Called by *egterg:
     h_psi        :      0.37s CPU      0.41s WALL (     283 calls)
     s_psi        :      0.01s CPU      0.01s WALL (     283 calls)
     g_psi        :      0.00s CPU      0.00s WALL (     187 calls)
     cdiaghg      :      0.07s CPU      0.08s WALL (     267 calls)

     Called by h_psi:
     h_psi:pot    :      0.37s CPU      0.41s WALL (     283 calls)
     h_psi:calbec :      0.01s CPU      0.01s WALL (     283 calls)
     vloc_psi     :      0.35s CPU      0.39s WALL (     283 calls)
     add_vuspsi   :      0.01s CPU      0.01s WALL (     283 calls)

     General routines
     calbec       :      0.01s CPU      0.01s WALL (     363 calls)
     fft          :      0.01s CPU      0.01s WALL (      67 calls)
     ffts         :      0.00s CPU      0.00s WALL (       5 calls)
     fftw         :      0.35s CPU      0.39s WALL (    6166 calls)
 
     Parallel routines
     fft_scatt_xy :      0.06s CPU      0.07s WALL (    6238 calls)
     fft_scatt_yz :      0.09s CPU      0.10s WALL (    6238 calls)
 
     PWSCF        :     1.07s CPU         1.65s WALL

 
   This run was terminated on:  23:11:37   2Dec2021            

=------------------------------------------------------------------------------=
   JOB DONE.
=------------------------------------------------------------------------------=
