
     Program PWSCF v.6.3 starts on  2Dec2021 at 21:43:51 

     This program is part of the open-source Quantum ESPRESSO suite
     for quantum simulation of materials; please cite
         "P. Giannozzi et al., J. Phys.:Condens. Matter 21 395502 (2009);
         "P. Giannozzi et al., J. Phys.:Condens. Matter 29 465901 (2017);
          URL http://www.quantum-espresso.org", 
     in publications or presentations arising from this work. More details at
     http://www.quantum-espresso.org/quote

     Parallel version (MPI & OpenMP), running on       2 processor cores
     Number of MPI processes:                 2
     Threads/MPI process:                     1

     MPI processes distributed on     1 nodes
     R & G space division:  proc/nbgrp/npool/nimage =       2
     Reading input from pw-input.in

     Current dimensions of program PWSCF are:
     Max number of different atomic species (ntypx) = 10
     Max number of k-points (npk) =  40000
     Max angular momentum in pseudopotentials (lmaxx) =  3

     Subspace diagonalization in iterative solution of the eigenvalue problem:
     a serial algorithm will be used

 
     Parallelization info
     --------------------
     sticks:   dense  smooth     PW     G-vecs:    dense   smooth      PW
     Min         168     168     60                 2007     2007     410
     Max         169     169     61                 2008     2008     411
     Sum         337     337    121                 4015     4015     821
 

     Title: 
     Pd-kp-conv                                                                 


     bravais-lattice index     =            2
     lattice parameter (alat)  =       8.3000  a.u.
     unit-cell volume          =     142.9468 (a.u.)^3
     number of atoms/cell      =            1
     number of atomic types    =            1
     number of electrons       =        16.00
     number of Kohn-Sham states=           12
     kinetic-energy cutoff     =      35.0000  Ry
     charge density cutoff     =     140.0000  Ry
     convergence threshold     =      1.0E-07
     mixing beta               =       0.7000
     number of iterations used =            8  plain     mixing
     Exchange-correlation      =  SLA  PW   PBX  PBC ( 1  4  3  4 0 0)

     celldm(1)=   8.300000  celldm(2)=   0.000000  celldm(3)=   0.000000
     celldm(4)=   0.000000  celldm(5)=   0.000000  celldm(6)=   0.000000

     crystal axes: (cart. coord. in units of alat)
               a(1) = (  -0.500000   0.000000   0.500000 )  
               a(2) = (   0.000000   0.500000   0.500000 )  
               a(3) = (  -0.500000   0.500000   0.000000 )  

     reciprocal axes: (cart. coord. in units 2 pi/alat)
               b(1) = ( -1.000000 -1.000000  1.000000 )  
               b(2) = (  1.000000  1.000000  1.000000 )  
               b(3) = ( -1.000000  1.000000 -1.000000 )  


     PseudoPot. # 1 for Pd read from file:
     ./pd_pbe_v1.4.uspp.F.UPF
     MD5 check sum: 2d733d2bc2cbfd217af676df1668a4bc
     Pseudo is Ultrasoft + core correction, Zval = 16.0
     Generated by new atomic code, or converted to UPF format
     Using radial grid of  887 points,  6 beta functions with: 
                l(1) =   0
                l(2) =   0
                l(3) =   1
                l(4) =   1
                l(5) =   2
                l(6) =   2
     Q(r) pseudized with  8 coefficients,  rinner =    1.130   1.130   1.130
                                                       1.130   1.130

     atomic species   valence    mass     pseudopotential
        Pd            16.00   106.40000     Pd( 1.00)

     48 Sym. Ops., with inversion, found



   Cartesian axes

     site n.     atom                  positions (alat units)
         1           Pd  tau(   1) = (   0.0000000   0.0000000   0.0000000  )

     number of k points=   120  Marzari-Vanderbilt smearing, width (Ry)=  0.0200

     Number of k-points >= 100: set verbosity='high' to print them.

     Dense  grid:     4015 G-vectors     FFT dimensions: (  24,  24,  24)

     Estimated max dynamical RAM per process >      13.90 MB

     Estimated total dynamical RAM >      27.80 MB

     Initial potential from superposition of free atoms
     Check: negative starting charge=   -0.082880

     starting charge   15.49999, renormalised to   16.00000

     negative rho (up, down):  8.555E-02 0.000E+00
     Starting wfcs are   12 randomized atomic wfcs

     total cpu time spent up to now is        0.9 secs

     Self-consistent Calculation

     iteration #  1     ecut=    35.00 Ry     beta= 0.70
     Davidson diagonalization with overlap
     ethr =  1.00E-02,  avg # of iterations =  3.4

     negative rho (up, down):  8.267E-02 0.000E+00

     total cpu time spent up to now is        2.5 secs

     total energy              =    -197.82378405 Ry
     Harris-Foulkes estimate   =    -199.06779880 Ry
     estimated scf accuracy    <       1.68187621 Ry

     iteration #  2     ecut=    35.00 Ry     beta= 0.70
     Davidson diagonalization with overlap
     ethr =  1.00E-02,  avg # of iterations =  2.0

     negative rho (up, down):  8.496E-02 0.000E+00

     total cpu time spent up to now is        3.8 secs

     total energy              =    -198.22641752 Ry
     Harris-Foulkes estimate   =    -199.39717683 Ry
     estimated scf accuracy    <       2.53638356 Ry

     iteration #  3     ecut=    35.00 Ry     beta= 0.70
     Davidson diagonalization with overlap
     ethr =  1.00E-02,  avg # of iterations =  2.0

     negative rho (up, down):  8.500E-02 0.000E+00

     total cpu time spent up to now is        5.1 secs

     total energy              =    -198.65866077 Ry
     Harris-Foulkes estimate   =    -198.65877582 Ry
     estimated scf accuracy    <       0.00045692 Ry

     iteration #  4     ecut=    35.00 Ry     beta= 0.70
     Davidson diagonalization with overlap
     ethr =  2.86E-06,  avg # of iterations =  3.1

     negative rho (up, down):  8.508E-02 0.000E+00

     total cpu time spent up to now is        6.6 secs

     total energy              =    -198.65887155 Ry
     Harris-Foulkes estimate   =    -198.65887535 Ry
     estimated scf accuracy    <       0.00002043 Ry

     iteration #  5     ecut=    35.00 Ry     beta= 0.70
     Davidson diagonalization with overlap
     ethr =  1.28E-07,  avg # of iterations =  1.1

     negative rho (up, down):  8.508E-02 0.000E+00

     total cpu time spent up to now is        7.7 secs

     total energy              =    -198.65887269 Ry
     Harris-Foulkes estimate   =    -198.65887275 Ry
     estimated scf accuracy    <       0.00000016 Ry

     iteration #  6     ecut=    35.00 Ry     beta= 0.70
     Davidson diagonalization with overlap
     ethr =  1.01E-09,  avg # of iterations =  2.1

     negative rho (up, down):  8.508E-02 0.000E+00

     total cpu time spent up to now is        9.1 secs

     End of self-consistent calculation

     Number of k-points >= 100: set verbosity='high' to print the bands.

     the Fermi energy is    11.0890 ev

!    total energy              =    -198.65887274 Ry
     Harris-Foulkes estimate   =    -198.65887276 Ry
     estimated scf accuracy    <       0.00000003 Ry

     The total energy is the sum of the following terms:

     one-electron contribution =     -71.77602483 Ry
     hartree contribution      =      45.72458665 Ry
     xc contribution           =     -31.19537540 Ry
     ewald contribution        =    -141.41261342 Ry
     smearing contrib. (-TS)   =       0.00055426 Ry

     convergence has been achieved in   6 iterations

     Writing output data file Pd-kp-conv.save/
 
     init_run     :      0.78s CPU      0.83s WALL (       1 calls)
     electrons    :      7.53s CPU      8.15s WALL (       1 calls)

     Called by init_run:
     wfcinit      :      0.42s CPU      0.45s WALL (       1 calls)
     potinit      :      0.01s CPU      0.02s WALL (       1 calls)
     hinit0       :      0.34s CPU      0.34s WALL (       1 calls)

     Called by electrons:
     c_bands      :      6.30s CPU      6.78s WALL (       6 calls)
     sum_band     :      1.16s CPU      1.23s WALL (       6 calls)
     v_of_rho     :      0.03s CPU      0.03s WALL (       7 calls)
     newd         :      0.05s CPU      0.06s WALL (       7 calls)
     mix_rho      :      0.00s CPU      0.00s WALL (       6 calls)

     Called by c_bands:
     init_us_2    :      0.17s CPU      0.19s WALL (    1560 calls)
     cegterg      :      5.81s CPU      6.16s WALL (     720 calls)

     Called by sum_band:
     sum_band:bec :      0.01s CPU      0.01s WALL (     720 calls)
     addusdens    :      0.05s CPU      0.06s WALL (       6 calls)

     Called by *egterg:
     h_psi        :      5.01s CPU      5.32s WALL (    2481 calls)
     s_psi        :      0.07s CPU      0.08s WALL (    2481 calls)
     g_psi        :      0.05s CPU      0.06s WALL (    1641 calls)
     cdiaghg      :      0.60s CPU      0.63s WALL (    2361 calls)

     Called by h_psi:
     h_psi:pot    :      4.99s CPU      5.30s WALL (    2481 calls)
     h_psi:calbec :      0.10s CPU      0.11s WALL (    2481 calls)
     vloc_psi     :      4.80s CPU      5.09s WALL (    2481 calls)
     add_vuspsi   :      0.07s CPU      0.08s WALL (    2481 calls)

     General routines
     calbec       :      0.12s CPU      0.13s WALL (    3201 calls)
     fft          :      0.01s CPU      0.01s WALL (      78 calls)
     ffts         :      0.00s CPU      0.00s WALL (       6 calls)
     fftw         :      4.94s CPU      5.24s WALL (   54766 calls)
 
     Parallel routines
     fft_scatt_xy :      0.88s CPU      0.94s WALL (   54850 calls)
     fft_scatt_yz :      1.14s CPU      1.22s WALL (   54850 calls)
 
     PWSCF        :     8.43s CPU         9.55s WALL

 
   This run was terminated on:  21:44: 1   2Dec2021            

=------------------------------------------------------------------------------=
   JOB DONE.
=------------------------------------------------------------------------------=
