
     Program PWSCF v.6.3 starts on  2Dec2021 at 22:48: 4 

     This program is part of the open-source Quantum ESPRESSO suite
     for quantum simulation of materials; please cite
         "P. Giannozzi et al., J. Phys.:Condens. Matter 21 395502 (2009);
         "P. Giannozzi et al., J. Phys.:Condens. Matter 29 465901 (2017);
          URL http://www.quantum-espresso.org", 
     in publications or presentations arising from this work. More details at
     http://www.quantum-espresso.org/quote

     Parallel version (MPI & OpenMP), running on       2 processor cores
     Number of MPI processes:                 2
     Threads/MPI process:                     1

     MPI processes distributed on     1 nodes
     R & G space division:  proc/nbgrp/npool/nimage =       2
     Reading input from pw-input.in

     Current dimensions of program PWSCF are:
     Max number of different atomic species (ntypx) = 10
     Max number of k-points (npk) =  40000
     Max angular momentum in pseudopotentials (lmaxx) =  3

     Subspace diagonalization in iterative solution of the eigenvalue problem:
     a serial algorithm will be used

 
     Parallelization info
     --------------------
     sticks:   dense  smooth     PW     G-vecs:    dense   smooth      PW
     Min          99      99     36                  957      957     205
     Max         100     100     37                  960      960     206
     Sum         199     199     73                 1917     1917     411
 

     Title: 
     Pd-kp-conv                                                                 


     bravais-lattice index     =            2
     lattice parameter (alat)  =       6.5000  a.u.
     unit-cell volume          =      68.6562 (a.u.)^3
     number of atoms/cell      =            1
     number of atomic types    =            1
     number of electrons       =        16.00
     number of Kohn-Sham states=           12
     kinetic-energy cutoff     =      35.0000  Ry
     charge density cutoff     =     140.0000  Ry
     convergence threshold     =      1.0E-07
     mixing beta               =       0.7000
     number of iterations used =            8  plain     mixing
     Exchange-correlation      =  SLA  PW   PBX  PBC ( 1  4  3  4 0 0)

     celldm(1)=   6.500000  celldm(2)=   0.000000  celldm(3)=   0.000000
     celldm(4)=   0.000000  celldm(5)=   0.000000  celldm(6)=   0.000000

     crystal axes: (cart. coord. in units of alat)
               a(1) = (  -0.500000   0.000000   0.500000 )  
               a(2) = (   0.000000   0.500000   0.500000 )  
               a(3) = (  -0.500000   0.500000   0.000000 )  

     reciprocal axes: (cart. coord. in units 2 pi/alat)
               b(1) = ( -1.000000 -1.000000  1.000000 )  
               b(2) = (  1.000000  1.000000  1.000000 )  
               b(3) = ( -1.000000  1.000000 -1.000000 )  


     PseudoPot. # 1 for Pd read from file:
     ./pd_pbe_v1.4.uspp.F.UPF
     MD5 check sum: 2d733d2bc2cbfd217af676df1668a4bc
     Pseudo is Ultrasoft + core correction, Zval = 16.0
     Generated by new atomic code, or converted to UPF format
     Using radial grid of  887 points,  6 beta functions with: 
                l(1) =   0
                l(2) =   0
                l(3) =   1
                l(4) =   1
                l(5) =   2
                l(6) =   2
     Q(r) pseudized with  8 coefficients,  rinner =    1.130   1.130   1.130
                                                       1.130   1.130

     atomic species   valence    mass     pseudopotential
        Pd            16.00   106.40000     Pd( 1.00)

     48 Sym. Ops., with inversion, found



   Cartesian axes

     site n.     atom                  positions (alat units)
         1           Pd  tau(   1) = (   0.0000000   0.0000000   0.0000000  )

     number of k points=    35  Marzari-Vanderbilt smearing, width (Ry)=  0.0350
                       cart. coord. in units 2pi/alat
        k(    1) = (   0.0000000   0.0000000   0.0000000), wk =   0.0027435
        k(    2) = (  -0.1111111   0.1111111  -0.1111111), wk =   0.0219479
        k(    3) = (  -0.2222222   0.2222222  -0.2222222), wk =   0.0219479
        k(    4) = (  -0.3333333   0.3333333  -0.3333333), wk =   0.0219479
        k(    5) = (  -0.4444444   0.4444444  -0.4444444), wk =   0.0219479
        k(    6) = (   0.0000000   0.2222222   0.0000000), wk =   0.0164609
        k(    7) = (  -0.1111111   0.3333333  -0.1111111), wk =   0.0658436
        k(    8) = (  -0.2222222   0.4444444  -0.2222222), wk =   0.0658436
        k(    9) = (  -0.3333333   0.5555556  -0.3333333), wk =   0.0658436
        k(   10) = (   0.5555556  -0.3333333   0.5555556), wk =   0.0658436
        k(   11) = (   0.4444444  -0.2222222   0.4444444), wk =   0.0658436
        k(   12) = (   0.3333333  -0.1111111   0.3333333), wk =   0.0658436
        k(   13) = (   0.2222222  -0.0000000   0.2222222), wk =   0.0329218
        k(   14) = (   0.0000000   0.4444444   0.0000000), wk =   0.0164609
        k(   15) = (  -0.1111111   0.5555556  -0.1111111), wk =   0.0658436
        k(   16) = (  -0.2222222   0.6666667  -0.2222222), wk =   0.0658436
        k(   17) = (   0.6666667  -0.2222222   0.6666667), wk =   0.0658436
        k(   18) = (   0.5555556  -0.1111111   0.5555556), wk =   0.0658436
        k(   19) = (   0.4444444   0.0000000   0.4444444), wk =   0.0329218
        k(   20) = (   0.0000000   0.6666667   0.0000000), wk =   0.0164609
        k(   21) = (  -0.1111111   0.7777778  -0.1111111), wk =   0.0658436
        k(   22) = (   0.7777778  -0.1111111   0.7777778), wk =   0.0658436
        k(   23) = (   0.6666667  -0.0000000   0.6666667), wk =   0.0329218
        k(   24) = (   0.0000000   0.8888889   0.0000000), wk =   0.0164609
        k(   25) = (   0.8888889   0.0000000   0.8888889), wk =   0.0329218
        k(   26) = (  -0.2222222   0.4444444   0.0000000), wk =   0.0658436
        k(   27) = (  -0.3333333   0.5555556  -0.1111111), wk =   0.1316872
        k(   28) = (   0.5555556  -0.3333333   0.7777778), wk =   0.1316872
        k(   29) = (  -0.2222222   0.6666667   0.0000000), wk =   0.0658436
        k(   30) = (   0.6666667  -0.2222222   0.8888889), wk =   0.1316872
        k(   31) = (   0.5555556  -0.1111111   0.7777778), wk =   0.1316872
        k(   32) = (   0.4444444   0.0000000   0.6666667), wk =   0.0658436
        k(   33) = (   0.7777778  -0.1111111   1.0000000), wk =   0.0658436
        k(   34) = (   0.6666667  -0.0000000   0.8888889), wk =   0.0658436
        k(   35) = (   0.5555556  -0.1111111   1.0000000), wk =   0.0658436

     Dense  grid:     1917 G-vectors     FFT dimensions: (  18,  18,  18)

     Estimated max dynamical RAM per process >       5.14 MB

     Estimated total dynamical RAM >      10.27 MB

     Initial potential from superposition of free atoms
     Check: negative starting charge=   -0.084237

     starting charge   15.49999, renormalised to   16.00000

     negative rho (up, down):  8.695E-02 0.000E+00
     Starting wfcs are   12 randomized atomic wfcs

     total cpu time spent up to now is        0.5 secs

     Self-consistent Calculation

     iteration #  1     ecut=    35.00 Ry     beta= 0.70
     Davidson diagonalization with overlap
     ethr =  1.00E-02,  avg # of iterations =  3.6

     negative rho (up, down):  8.924E-02 0.000E+00

     total cpu time spent up to now is        0.8 secs

     total energy              =    -198.35074111 Ry
     Harris-Foulkes estimate   =    -198.72221325 Ry
     estimated scf accuracy    <       0.53214650 Ry

     iteration #  2     ecut=    35.00 Ry     beta= 0.70
     Davidson diagonalization with overlap
     ethr =  3.33E-03,  avg # of iterations =  2.0

     negative rho (up, down):  9.022E-02 0.000E+00

     total cpu time spent up to now is        1.1 secs

     total energy              =    -198.49883761 Ry
     Harris-Foulkes estimate   =    -198.59781962 Ry
     estimated scf accuracy    <       0.16584825 Ry

     iteration #  3     ecut=    35.00 Ry     beta= 0.70
     Davidson diagonalization with overlap
     ethr =  1.04E-03,  avg # of iterations =  2.0

     negative rho (up, down):  9.116E-02 0.000E+00

     total cpu time spent up to now is        1.3 secs

     total energy              =    -198.53738774 Ry
     Harris-Foulkes estimate   =    -198.53785149 Ry
     estimated scf accuracy    <       0.00108833 Ry

     iteration #  4     ecut=    35.00 Ry     beta= 0.70
     Davidson diagonalization with overlap
     ethr =  6.80E-06,  avg # of iterations =  2.1

     negative rho (up, down):  9.124E-02 0.000E+00

     total cpu time spent up to now is        1.5 secs

     total energy              =    -198.53759654 Ry
     Harris-Foulkes estimate   =    -198.53762722 Ry
     estimated scf accuracy    <       0.00004789 Ry

     iteration #  5     ecut=    35.00 Ry     beta= 0.70
     Davidson diagonalization with overlap
     ethr =  2.99E-07,  avg # of iterations =  2.0

     negative rho (up, down):  9.127E-02 0.000E+00

     total cpu time spent up to now is        1.7 secs

     total energy              =    -198.53760979 Ry
     Harris-Foulkes estimate   =    -198.53761235 Ry
     estimated scf accuracy    <       0.00000451 Ry

     iteration #  6     ecut=    35.00 Ry     beta= 0.70
     Davidson diagonalization with overlap
     ethr =  2.82E-08,  avg # of iterations =  2.0

     negative rho (up, down):  9.127E-02 0.000E+00

     total cpu time spent up to now is        1.9 secs

     End of self-consistent calculation

          k = 0.0000 0.0000 0.0000 (   259 PWs)   bands (ev):

   -20.3836 -20.3836 -20.3836  20.0200  25.2186  25.2186  25.2186  28.1453
    28.1453  48.3986  55.6011  55.6011

          k =-0.1111 0.1111-0.1111 (   256 PWs)   bands (ev):

   -20.5658 -20.4069 -20.4069  20.6375  24.9627  25.4650  25.4650  28.0152
    28.0152  49.3410  52.7245  56.5446

          k =-0.2222 0.2222-0.2222 (   244 PWs)   bands (ev):

   -21.0158 -20.4656 -20.4656  21.7932  25.0580  25.7418  25.7418  28.1681
    28.1681  48.9361  50.8187  58.9657

          k =-0.3333 0.3333-0.3333 (   238 PWs)   bands (ev):

   -21.5087 -20.5315 -20.5315  21.7915  25.4554  25.4554  27.3107  29.2077
    29.2077  45.4013  49.5916  59.3766

          k =-0.4444 0.4444-0.4444 (   241 PWs)   bands (ev):

   -21.8207 -20.5747 -20.5747  21.4412  25.1332  25.1332  30.1583  30.2096
    30.2096  42.1474  47.9179  56.7908

          k = 0.0000 0.2222 0.0000 (   254 PWs)   bands (ev):

   -20.5608 -20.4472 -20.4472  20.8476  24.6314  25.6972  25.6972  27.5178
    28.3753  49.7064  53.4075  55.7532

          k =-0.1111 0.3333-0.1111 (   235 PWs)   bands (ev):

   -20.8941 -20.5183 -20.4944  21.9479  24.1799  25.9592  26.1577  27.4948
    28.6730  50.5727  51.2684  56.1956

          k =-0.2222 0.4444-0.2222 (   240 PWs)   bands (ev):

   -21.3525 -20.5877 -20.5717  22.3069  25.1134  25.3628  26.0882  29.3443
    29.5211  46.9895  50.8508  56.2294

          k =-0.3333 0.5556-0.3333 (   239 PWs)   bands (ev):

   -21.7051 -20.6570 -20.6220  21.9451  24.7701  25.7104  27.0599  30.3428
    32.1214  43.0897  49.0445  55.3484

          k = 0.5556-0.3333 0.5556 (   246 PWs)   bands (ev):

   -21.8011 -20.7095 -20.6065  21.8557  24.6695  25.5177  27.9323  30.1492
    33.5952  41.4670  48.5244  54.5276

          k = 0.4444-0.2222 0.4444 (   242 PWs)   bands (ev):

   -21.6033 -20.7017 -20.5478  22.1567  25.0015  25.6889  26.8409  28.9297
    31.9045  44.4505  49.4445  54.7921

          k = 0.3333-0.1111 0.3333 (   241 PWs)   bands (ev):

   -21.2006 -20.6315 -20.4730  22.4951  24.7153  25.6922  26.0994  27.5500
    29.8759  48.1486  51.1264  56.5552

          k = 0.2222-0.0000 0.2222 (   249 PWs)   bands (ev):

   -20.7876 -20.5158 -20.4172  21.5451  24.5061  25.8328  25.8418  27.4177
    28.5340  50.5894  50.9980  55.8096

          k = 0.0000 0.4444 0.0000 (   234 PWs)   bands (ev):

   -20.9903 -20.6067 -20.6067  22.4032  23.3365  26.8673  27.0553  27.0553
    28.9850  51.8296  52.8595  54.1600

          k =-0.1111 0.5556-0.1111 (   235 PWs)   bands (ev):

   -21.2957 -20.7063 -20.6881  22.5423  23.0873  26.3192  27.4589  29.5710
    29.6840  49.1174  51.9912  52.7281

          k =-0.2222 0.6667-0.2222 (   239 PWs)   bands (ev):

   -21.5650 -20.8494 -20.7255  22.3048  23.6420  25.9972  27.1361  30.4762
    33.2748  44.5478  50.0152  52.1786

          k = 0.6667-0.2222 0.6667 (   240 PWs)   bands (ev):

   -21.6578 -20.9886 -20.7017  22.4910  23.9492  26.1182  26.7651  30.2113
    36.7209  41.0965  48.6690  53.4440

          k = 0.5556-0.1111 0.5556 (   240 PWs)   bands (ev):

   -21.5613 -21.0305 -20.6277  23.0999  24.2124  25.6546  26.6457  28.9125
    35.2878  43.8039  48.0875  52.7679

          k = 0.4444 0.0000 0.4444 (   246 PWs)   bands (ev):

   -21.3833 -20.8890 -20.5376  23.7676  24.0533  25.1075  26.7604  27.4850
    32.5024  47.3286  49.3100  53.7429

          k = 0.0000 0.6667 0.0000 (   238 PWs)   bands (ev):

   -21.4480 -20.7859 -20.7859  21.9168  22.0967  28.9934  28.9934  29.4751
    29.7308  50.0217  50.0217  50.2825

          k =-0.1111 0.7778-0.1111 (   236 PWs)   bands (ev):

   -21.6056 -20.9122 -20.8355  21.6124  22.0128  28.3102  29.0136  30.5388
    33.3554  46.3024  48.5181  48.8433

          k = 0.7778-0.1111 0.7778 (   235 PWs)   bands (ev):

   -21.5918 -21.1347 -20.8149  21.8122  22.8025  27.1042  28.4996  30.4178
    37.9588  42.0668  46.5192  49.9691

          k = 0.6667-0.0000 0.6667 (   236 PWs)   bands (ev):

   -21.3851 -21.3734 -20.7334  22.5267  24.0087  25.6432  27.7716  29.4572
    38.4496  42.6275  45.2378  53.0467

          k = 0.0000 0.8889 0.0000 (   234 PWs)   bands (ev):

   -21.7306 -20.9012 -20.9012  20.9713  21.3843  30.2529  30.6897  30.6897
    33.2856  46.7092  46.7694  46.7694

          k = 0.8889 0.0000 0.8889 (   230 PWs)   bands (ev):

   -21.7191 -20.9965 -20.8930  21.1121  21.6380  29.3947  29.8707  30.7864
    36.0019  44.6430  45.7969  47.2257

          k =-0.2222 0.4444 0.0000 (   233 PWs)   bands (ev):

   -21.1543 -20.6872 -20.5351  22.9797  23.6224  25.5073  27.0451  27.6118
    29.9529  49.3909  51.6526  55.4993

          k =-0.3333 0.5556-0.1111 (   241 PWs)   bands (ev):

   -21.4643 -20.8309 -20.6070  22.8971  24.4347  24.9168  26.9510  28.8866
    32.4248  46.1956  50.1147  52.8076

          k = 0.5556-0.3333 0.7778 (   238 PWs)   bands (ev):

   -21.6718 -20.8981 -20.6698  22.6324  24.0276  26.0570  26.5855  29.9810
    35.3039  42.0800  49.3460  51.9659

          k =-0.2222 0.6667 0.0000 (   239 PWs)   bands (ev):

   -21.4759 -20.8797 -20.7435  22.5682  22.6113  26.2604  28.9724  29.0502
    32.5960  47.8210  48.9096  50.6445

          k = 0.6667-0.2222 0.8889 (   242 PWs)   bands (ev):

   -21.5610 -21.0561 -20.7986  22.4881  23.2023  25.7575  28.2002  30.1763
    36.3286  43.6507  48.4547  48.7459

          k = 0.5556-0.1111 0.7778 (   242 PWs)   bands (ev):

   -21.5143 -21.2009 -20.7773  22.8991  23.7781  25.2425  27.5658  30.0210
    38.7892  41.4994  46.9176  49.9409

          k = 0.4444 0.0000 0.6667 (   239 PWs)   bands (ev):

   -21.4841 -21.1137 -20.6925  23.6754  23.9987  24.3205  27.6902  28.9976
    35.6602  45.8575  46.1210  51.3117

          k = 0.7778-0.1111 1.0000 (   240 PWs)   bands (ev):

   -21.6506 -21.0038 -20.9026  21.5744  22.0048  27.8870  29.5061  30.6861
    36.2645  45.7518  45.9667  46.6766

          k = 0.6667-0.0000 0.8889 (   237 PWs)   bands (ev):

   -21.5395 -21.1952 -20.8803  22.0482  22.9062  26.4930  28.4952  30.6714
    39.7023  42.2784  45.3260  47.6509

          k = 0.5556-0.1111 1.0000 (   243 PWs)   bands (ev):

   -21.4438 -21.2581 -20.8966  22.6645  23.7893  24.9149  27.9772  30.6772
    39.8236  43.4336  45.0292  46.7868

     the Fermi energy is    30.3833 ev

!    total energy              =    -198.53761082 Ry
     Harris-Foulkes estimate   =    -198.53761089 Ry
     estimated scf accuracy    <       0.00000009 Ry

     The total energy is the sum of the following terms:

     one-electron contribution =     -12.14044677 Ry
     hartree contribution      =      25.98573449 Ry
     xc contribution           =     -31.80930316 Ry
     ewald contribution        =    -180.57302943 Ry
     smearing contrib. (-TS)   =      -0.00056595 Ry

     convergence has been achieved in   6 iterations

     Writing output data file Pd-kp-conv.save/
 
     init_run     :      0.38s CPU      0.42s WALL (       1 calls)
     electrons    :      1.28s CPU      1.75s WALL (       1 calls)

     Called by init_run:
     wfcinit      :      0.08s CPU      0.09s WALL (       1 calls)
     potinit      :      0.00s CPU      0.01s WALL (       1 calls)
     hinit0       :      0.29s CPU      0.30s WALL (       1 calls)

     Called by electrons:
     c_bands      :      1.06s CPU      1.16s WALL (       6 calls)
     sum_band     :      0.19s CPU      0.21s WALL (       6 calls)
     v_of_rho     :      0.01s CPU      0.02s WALL (       7 calls)
     newd         :      0.02s CPU      0.03s WALL (       7 calls)
     mix_rho      :      0.00s CPU      0.00s WALL (       6 calls)

     Called by c_bands:
     init_us_2    :      0.03s CPU      0.03s WALL (     455 calls)
     cegterg      :      0.99s CPU      1.08s WALL (     210 calls)

     Called by sum_band:
     sum_band:bec :      0.00s CPU      0.00s WALL (     210 calls)
     addusdens    :      0.02s CPU      0.02s WALL (       6 calls)

     Called by *egterg:
     h_psi        :      0.77s CPU      0.85s WALL (     725 calls)
     s_psi        :      0.01s CPU      0.02s WALL (     725 calls)
     g_psi        :      0.01s CPU      0.01s WALL (     480 calls)
     cdiaghg      :      0.18s CPU      0.19s WALL (     690 calls)

     Called by h_psi:
     h_psi:pot    :      0.76s CPU      0.84s WALL (     725 calls)
     h_psi:calbec :      0.02s CPU      0.02s WALL (     725 calls)
     vloc_psi     :      0.73s CPU      0.80s WALL (     725 calls)
     add_vuspsi   :      0.01s CPU      0.02s WALL (     725 calls)

     General routines
     calbec       :      0.02s CPU      0.03s WALL (     935 calls)
     fft          :      0.01s CPU      0.01s WALL (      78 calls)
     ffts         :      0.00s CPU      0.00s WALL (       6 calls)
     fftw         :      0.75s CPU      0.82s WALL (   15916 calls)
 
     Parallel routines
     fft_scatt_xy :      0.13s CPU      0.15s WALL (   16000 calls)
     fft_scatt_yz :      0.20s CPU      0.22s WALL (   16000 calls)
 
     PWSCF        :     1.74s CPU         2.49s WALL

 
   This run was terminated on:  22:48: 6   2Dec2021            

=------------------------------------------------------------------------------=
   JOB DONE.
=------------------------------------------------------------------------------=
