
     Program PWSCF v.6.3 starts on  2Dec2021 at 22:48:17 

     This program is part of the open-source Quantum ESPRESSO suite
     for quantum simulation of materials; please cite
         "P. Giannozzi et al., J. Phys.:Condens. Matter 21 395502 (2009);
         "P. Giannozzi et al., J. Phys.:Condens. Matter 29 465901 (2017);
          URL http://www.quantum-espresso.org", 
     in publications or presentations arising from this work. More details at
     http://www.quantum-espresso.org/quote

     Parallel version (MPI & OpenMP), running on       2 processor cores
     Number of MPI processes:                 2
     Threads/MPI process:                     1

     MPI processes distributed on     1 nodes
     R & G space division:  proc/nbgrp/npool/nimage =       2
     Reading input from pw-input.in

     Current dimensions of program PWSCF are:
     Max number of different atomic species (ntypx) = 10
     Max number of k-points (npk) =  40000
     Max angular momentum in pseudopotentials (lmaxx) =  3

     Subspace diagonalization in iterative solution of the eigenvalue problem:
     a serial algorithm will be used

 
     Parallelization info
     --------------------
     sticks:   dense  smooth     PW     G-vecs:    dense   smooth      PW
     Min         117     117     42                 1138     1138     264
     Max         118     118     43                 1139     1139     267
     Sum         235     235     85                 2277     2277     531
 

     Title: 
     Pd-kp-conv                                                                 


     bravais-lattice index     =            2
     lattice parameter (alat)  =       6.9000  a.u.
     unit-cell volume          =      82.1273 (a.u.)^3
     number of atoms/cell      =            1
     number of atomic types    =            1
     number of electrons       =        16.00
     number of Kohn-Sham states=           12
     kinetic-energy cutoff     =      35.0000  Ry
     charge density cutoff     =     140.0000  Ry
     convergence threshold     =      1.0E-07
     mixing beta               =       0.7000
     number of iterations used =            8  plain     mixing
     Exchange-correlation      =  SLA  PW   PBX  PBC ( 1  4  3  4 0 0)

     celldm(1)=   6.900000  celldm(2)=   0.000000  celldm(3)=   0.000000
     celldm(4)=   0.000000  celldm(5)=   0.000000  celldm(6)=   0.000000

     crystal axes: (cart. coord. in units of alat)
               a(1) = (  -0.500000   0.000000   0.500000 )  
               a(2) = (   0.000000   0.500000   0.500000 )  
               a(3) = (  -0.500000   0.500000   0.000000 )  

     reciprocal axes: (cart. coord. in units 2 pi/alat)
               b(1) = ( -1.000000 -1.000000  1.000000 )  
               b(2) = (  1.000000  1.000000  1.000000 )  
               b(3) = ( -1.000000  1.000000 -1.000000 )  


     PseudoPot. # 1 for Pd read from file:
     ./pd_pbe_v1.4.uspp.F.UPF
     MD5 check sum: 2d733d2bc2cbfd217af676df1668a4bc
     Pseudo is Ultrasoft + core correction, Zval = 16.0
     Generated by new atomic code, or converted to UPF format
     Using radial grid of  887 points,  6 beta functions with: 
                l(1) =   0
                l(2) =   0
                l(3) =   1
                l(4) =   1
                l(5) =   2
                l(6) =   2
     Q(r) pseudized with  8 coefficients,  rinner =    1.130   1.130   1.130
                                                       1.130   1.130

     atomic species   valence    mass     pseudopotential
        Pd            16.00   106.40000     Pd( 1.00)

     48 Sym. Ops., with inversion, found



   Cartesian axes

     site n.     atom                  positions (alat units)
         1           Pd  tau(   1) = (   0.0000000   0.0000000   0.0000000  )

     number of k points=    35  Marzari-Vanderbilt smearing, width (Ry)=  0.0350
                       cart. coord. in units 2pi/alat
        k(    1) = (   0.0000000   0.0000000   0.0000000), wk =   0.0027435
        k(    2) = (  -0.1111111   0.1111111  -0.1111111), wk =   0.0219479
        k(    3) = (  -0.2222222   0.2222222  -0.2222222), wk =   0.0219479
        k(    4) = (  -0.3333333   0.3333333  -0.3333333), wk =   0.0219479
        k(    5) = (  -0.4444444   0.4444444  -0.4444444), wk =   0.0219479
        k(    6) = (   0.0000000   0.2222222   0.0000000), wk =   0.0164609
        k(    7) = (  -0.1111111   0.3333333  -0.1111111), wk =   0.0658436
        k(    8) = (  -0.2222222   0.4444444  -0.2222222), wk =   0.0658436
        k(    9) = (  -0.3333333   0.5555556  -0.3333333), wk =   0.0658436
        k(   10) = (   0.5555556  -0.3333333   0.5555556), wk =   0.0658436
        k(   11) = (   0.4444444  -0.2222222   0.4444444), wk =   0.0658436
        k(   12) = (   0.3333333  -0.1111111   0.3333333), wk =   0.0658436
        k(   13) = (   0.2222222  -0.0000000   0.2222222), wk =   0.0329218
        k(   14) = (   0.0000000   0.4444444   0.0000000), wk =   0.0164609
        k(   15) = (  -0.1111111   0.5555556  -0.1111111), wk =   0.0658436
        k(   16) = (  -0.2222222   0.6666667  -0.2222222), wk =   0.0658436
        k(   17) = (   0.6666667  -0.2222222   0.6666667), wk =   0.0658436
        k(   18) = (   0.5555556  -0.1111111   0.5555556), wk =   0.0658436
        k(   19) = (   0.4444444   0.0000000   0.4444444), wk =   0.0329218
        k(   20) = (   0.0000000   0.6666667   0.0000000), wk =   0.0164609
        k(   21) = (  -0.1111111   0.7777778  -0.1111111), wk =   0.0658436
        k(   22) = (   0.7777778  -0.1111111   0.7777778), wk =   0.0658436
        k(   23) = (   0.6666667  -0.0000000   0.6666667), wk =   0.0329218
        k(   24) = (   0.0000000   0.8888889   0.0000000), wk =   0.0164609
        k(   25) = (   0.8888889   0.0000000   0.8888889), wk =   0.0329218
        k(   26) = (  -0.2222222   0.4444444   0.0000000), wk =   0.0658436
        k(   27) = (  -0.3333333   0.5555556  -0.1111111), wk =   0.1316872
        k(   28) = (   0.5555556  -0.3333333   0.7777778), wk =   0.1316872
        k(   29) = (  -0.2222222   0.6666667   0.0000000), wk =   0.0658436
        k(   30) = (   0.6666667  -0.2222222   0.8888889), wk =   0.1316872
        k(   31) = (   0.5555556  -0.1111111   0.7777778), wk =   0.1316872
        k(   32) = (   0.4444444   0.0000000   0.6666667), wk =   0.0658436
        k(   33) = (   0.7777778  -0.1111111   1.0000000), wk =   0.0658436
        k(   34) = (   0.6666667  -0.0000000   0.8888889), wk =   0.0658436
        k(   35) = (   0.5555556  -0.1111111   1.0000000), wk =   0.0658436

     Dense  grid:     2277 G-vectors     FFT dimensions: (  20,  20,  20)

     Estimated max dynamical RAM per process >       6.02 MB

     Estimated total dynamical RAM >      12.05 MB

     Initial potential from superposition of free atoms
     Check: negative starting charge=   -0.082546

     starting charge   15.49999, renormalised to   16.00000

     negative rho (up, down):  8.521E-02 0.000E+00
     Starting wfcs are   12 randomized atomic wfcs

     total cpu time spent up to now is        0.5 secs

     Self-consistent Calculation

     iteration #  1     ecut=    35.00 Ry     beta= 0.70
     Davidson diagonalization with overlap
     ethr =  1.00E-02,  avg # of iterations =  3.6

     negative rho (up, down):  8.545E-02 0.000E+00

     total cpu time spent up to now is        0.9 secs

     total energy              =    -198.35077897 Ry
     Harris-Foulkes estimate   =    -198.91257533 Ry
     estimated scf accuracy    <       0.78945151 Ry

     iteration #  2     ecut=    35.00 Ry     beta= 0.70
     Davidson diagonalization with overlap
     ethr =  4.93E-03,  avg # of iterations =  2.0

     negative rho (up, down):  8.670E-02 0.000E+00

     total cpu time spent up to now is        1.2 secs

     total energy              =    -198.56456146 Ry
     Harris-Foulkes estimate   =    -198.79669102 Ry
     estimated scf accuracy    <       0.41912436 Ry

     iteration #  3     ecut=    35.00 Ry     beta= 0.70
     Davidson diagonalization with overlap
     ethr =  2.62E-03,  avg # of iterations =  2.0

     negative rho (up, down):  8.731E-02 0.000E+00

     total cpu time spent up to now is        1.4 secs

     total energy              =    -198.65900824 Ry
     Harris-Foulkes estimate   =    -198.65988038 Ry
     estimated scf accuracy    <       0.00183982 Ry

     iteration #  4     ecut=    35.00 Ry     beta= 0.70
     Davidson diagonalization with overlap
     ethr =  1.15E-05,  avg # of iterations =  2.2

     negative rho (up, down):  8.744E-02 0.000E+00

     total cpu time spent up to now is        1.7 secs

     total energy              =    -198.65946246 Ry
     Harris-Foulkes estimate   =    -198.65950198 Ry
     estimated scf accuracy    <       0.00006993 Ry

     iteration #  5     ecut=    35.00 Ry     beta= 0.70
     Davidson diagonalization with overlap
     ethr =  4.37E-07,  avg # of iterations =  2.0

     negative rho (up, down):  8.747E-02 0.000E+00

     total cpu time spent up to now is        2.0 secs

     total energy              =    -198.65947980 Ry
     Harris-Foulkes estimate   =    -198.65948063 Ry
     estimated scf accuracy    <       0.00000159 Ry

     iteration #  6     ecut=    35.00 Ry     beta= 0.70
     Davidson diagonalization with overlap
     ethr =  9.96E-09,  avg # of iterations =  2.0

     negative rho (up, down):  8.747E-02 0.000E+00

     total cpu time spent up to now is        2.3 secs

     End of self-consistent calculation

          k = 0.0000 0.0000 0.0000 (   283 PWs)   bands (ev):

   -26.0124 -26.0124 -26.0124  15.4555  20.3133  20.3133  20.3133  22.5136
    22.5136  42.3302  48.3022  48.3022

          k =-0.1111 0.1111-0.1111 (   295 PWs)   bands (ev):

   -26.1109 -26.0258 -26.0258  15.9769  20.1175  20.5019  20.5019  22.4247
    22.4247  42.9648  45.6083  48.9813

          k =-0.2222 0.2222-0.2222 (   295 PWs)   bands (ev):

   -26.3551 -26.0593 -26.0593  17.1056  20.0984  20.7176  20.7176  22.5522
    22.5522  41.5751  43.8822  50.5907

          k =-0.3333 0.3333-0.3333 (   287 PWs)   bands (ev):

   -26.6261 -26.0969 -26.0969  17.4225  20.5074  20.5074  21.7823  23.3263
    23.3263  37.5043  42.8274  50.3077

          k =-0.4444 0.4444-0.4444 (   284 PWs)   bands (ev):

   -26.7994 -26.1214 -26.1214  17.2264  20.2652  20.2652  24.0570  24.0570
    24.2915  33.9332  41.7279  48.4142

          k = 0.0000 0.2222 0.0000 (   295 PWs)   bands (ev):

   -26.1080 -26.0480 -26.0480  16.1522  19.8774  20.6741  20.6741  22.0638
    22.6871  43.2495  46.2936  48.0378

          k =-0.1111 0.3333-0.1111 (   295 PWs)   bands (ev):

   -26.2892 -26.0880 -26.0748  17.1472  19.5149  20.8871  21.0253  22.0379
    22.9146  43.1487  44.3290  47.8049

          k =-0.2222 0.4444-0.2222 (   292 PWs)   bands (ev):

   -26.5403 -26.1272 -26.1179  17.7939  20.1079  20.4326  20.9818  23.4361
    23.5494  39.1317  43.6814  47.3356

          k =-0.3333 0.5556-0.3333 (   284 PWs)   bands (ev):

   -26.7354 -26.1653 -26.1471  17.6239  20.0019  20.7028  21.6554  24.1526
    25.7220  34.9838  42.4144  46.7698

          k = 0.5556-0.3333 0.5556 (   287 PWs)   bands (ev):

   -26.7891 -26.1941 -26.1391  17.5630  19.9236  20.5611  22.3531  24.0156
    27.0289  33.3032  41.9937  46.1678

          k = 0.4444-0.2222 0.4444 (   290 PWs)   bands (ev):

   -26.6790 -26.1893 -26.1065  17.7620  20.1712  20.6930  21.4529  23.1269
    25.4348  36.3560  42.5337  46.3475

          k = 0.3333-0.1111 0.3333 (   293 PWs)   bands (ev):

   -26.4567 -26.1498 -26.0643  17.8008  19.8289  20.6707  21.0008  22.1000
    23.8156  40.5236  43.5535  48.0233

          k = 0.2222-0.0000 0.2222 (   287 PWs)   bands (ev):

   -26.2309 -26.0854 -26.0319  16.7619  19.7738  20.7763  20.7963  21.9946
    22.8124  43.6479  43.8747  47.9323

          k = 0.0000 0.4444 0.0000 (   295 PWs)   bands (ev):

   -26.3419 -26.1365 -26.1365  17.6408  18.8943  21.5229  21.7039  21.7039
    23.1446  44.5365  45.4023  45.6879

          k =-0.1111 0.5556-0.1111 (   297 PWs)   bands (ev):

   -26.5102 -26.1917 -26.1824  18.0684  18.6273  21.0830  22.0145  23.6021
    23.6631  41.1558  44.0486  44.2531

          k =-0.2222 0.6667-0.2222 (   281 PWs)   bands (ev):

   -26.6591 -26.2696 -26.2037  17.9953  19.0838  20.8172  21.7824  24.2485
    26.6258  36.5960  42.2653  43.7971

          k = 0.6667-0.2222 0.6667 (   283 PWs)   bands (ev):

   -26.7110 -26.3454 -26.1914  18.1393  19.3273  20.9247  21.5101  24.0627
    29.6866  33.1834  40.7933  44.9030

          k = 0.5556-0.1111 0.5556 (   285 PWs)   bands (ev):

   -26.6570 -26.3681 -26.1507  18.5764  19.5434  20.5431  21.4260  23.1160
    28.2699  35.6961  39.9881  45.2944

          k = 0.4444 0.0000 0.4444 (   291 PWs)   bands (ev):

   -26.5575 -26.2904 -26.1007  18.9182  19.3836  20.2061  21.5163  22.0484
    25.8650  39.5434  40.6691  46.1772

          k = 0.0000 0.6667 0.0000 (   302 PWs)   bands (ev):

   -26.5952 -26.2366 -26.2366  17.6607  17.9269  23.1642  23.1642  23.5278
    23.6969  41.9196  41.9196  42.1739

          k =-0.1111 0.7778-0.1111 (   283 PWs)   bands (ev):

   -26.6831 -26.3055 -26.2643  17.5021  17.8349  22.6240  23.1854  24.2936
    26.7324  38.5196  40.1028  40.9372

          k = 0.7778-0.1111 0.7778 (   286 PWs)   bands (ev):

   -26.6767 -26.4261 -26.2538  17.6911  18.4056  21.6868  22.8105  24.2123
    30.6477  34.5609  38.1603  41.8507

          k = 0.6667-0.0000 0.6667 (   284 PWs)   bands (ev):

   -26.5614 -26.5565 -26.2091  18.2557  19.2886  20.5614  22.2735  23.5151
    31.1765  34.6563  37.1001  44.4021

          k = 0.0000 0.8889 0.0000 (   294 PWs)   bands (ev):

   -26.7538 -26.3014 -26.3014  17.0148  17.3601  24.0803  24.4104  24.4104
    26.8978  38.0713  39.2443  39.2443

          k = 0.8889 0.0000 0.8889 (   288 PWs)   bands (ev):

   -26.7480 -26.3523 -26.2971  17.1368  17.5409  23.4599  23.8106  24.4790
    29.1153  36.9356  37.4656  39.6034

          k =-0.2222 0.4444 0.0000 (   294 PWs)   bands (ev):

   -26.4318 -26.1804 -26.0981  18.1176  19.0927  20.5534  21.7042  22.1185
    23.8700  41.8968  43.2744  46.9669

          k =-0.3333 0.5556-0.1111 (   281 PWs)   bands (ev):

   -26.6025 -26.2591 -26.1382  18.3770  19.6711  20.0201  21.6333  23.0909
    25.8328  38.1438  42.1298  44.7516

          k = 0.5556-0.3333 0.7778 (   288 PWs)   bands (ev):

   -26.7183 -26.2966 -26.1735  18.1894  19.4375  20.8950  21.3493  23.8967
    28.3811  34.0693  41.9058  43.5785

          k =-0.2222 0.6667 0.0000 (   289 PWs)   bands (ev):

   -26.6102 -26.2870 -26.2131  18.1847  18.3023  21.0369  23.1509  23.2033
    25.9982  39.9301  40.5876  42.4314

          k = 0.6667-0.2222 0.8889 (   289 PWs)   bands (ev):

   -26.6586 -26.3832 -26.2436  18.1879  18.7306  20.6512  22.5798  24.0391
    29.1855  35.8311  40.3489  40.4528

          k = 0.5556-0.1111 0.7778 (   282 PWs)   bands (ev):

   -26.6328 -26.4618 -26.2320  18.5376  19.1242  20.2577  22.1191  23.9281
    31.4661  33.6331  38.7452  41.6665

          k = 0.4444 0.0000 0.6667 (   284 PWs)   bands (ev):

   -26.6150 -26.4138 -26.1857  19.1658  19.3259  19.4599  22.2021  23.1740
    28.5592  37.7873  37.9173  43.2631

          k = 0.7778-0.1111 1.0000 (   290 PWs)   bands (ev):

   -26.7094 -26.3563 -26.3009  17.4901  17.8213  22.3071  23.5488  24.4084
    29.2387  37.7734  38.2289  38.4961

          k = 0.6667-0.0000 0.8889 (   286 PWs)   bands (ev):

   -26.6484 -26.4596 -26.2887  17.8761  18.4822  21.2238  22.8159  24.3977
    32.2145  34.7396  36.9840  39.6187

          k = 0.5556-0.1111 1.0000 (   274 PWs)   bands (ev):

   -26.5950 -26.4937 -26.2960  18.3504  19.1608  20.0084  22.4370  24.4038
    32.2993  35.5917  37.0101  38.5952

     the Fermi energy is    24.2151 ev

!    total energy              =    -198.65948019 Ry
     Harris-Foulkes estimate   =    -198.65948024 Ry
     estimated scf accuracy    <       0.00000007 Ry

     The total energy is the sum of the following terms:

     one-electron contribution =     -27.38648713 Ry
     hartree contribution      =      30.38828967 Ry
     xc contribution           =     -31.55582149 Ry
     ewald contribution        =    -170.10502774 Ry
     smearing contrib. (-TS)   =      -0.00043350 Ry

     convergence has been achieved in   6 iterations

     Writing output data file Pd-kp-conv.save/
 
     init_run     :      0.40s CPU      0.44s WALL (       1 calls)
     electrons    :      1.55s CPU      2.05s WALL (       1 calls)

     Called by init_run:
     wfcinit      :      0.09s CPU      0.10s WALL (       1 calls)
     potinit      :      0.00s CPU      0.02s WALL (       1 calls)
     hinit0       :      0.30s CPU      0.30s WALL (       1 calls)

     Called by electrons:
     c_bands      :      1.28s CPU      1.38s WALL (       6 calls)
     sum_band     :      0.23s CPU      0.25s WALL (       6 calls)
     v_of_rho     :      0.02s CPU      0.02s WALL (       7 calls)
     newd         :      0.03s CPU      0.03s WALL (       7 calls)
     mix_rho      :      0.00s CPU      0.00s WALL (       6 calls)

     Called by c_bands:
     init_us_2    :      0.03s CPU      0.03s WALL (     455 calls)
     cegterg      :      1.19s CPU      1.29s WALL (     210 calls)

     Called by sum_band:
     sum_band:bec :      0.00s CPU      0.00s WALL (     210 calls)
     addusdens    :      0.03s CPU      0.03s WALL (       6 calls)

     Called by *egterg:
     h_psi        :      0.96s CPU      1.04s WALL (     726 calls)
     s_psi        :      0.02s CPU      0.02s WALL (     726 calls)
     g_psi        :      0.01s CPU      0.01s WALL (     481 calls)
     cdiaghg      :      0.18s CPU      0.20s WALL (     691 calls)

     Called by h_psi:
     h_psi:pot    :      0.95s CPU      1.04s WALL (     726 calls)
     h_psi:calbec :      0.02s CPU      0.03s WALL (     726 calls)
     vloc_psi     :      0.91s CPU      0.99s WALL (     726 calls)
     add_vuspsi   :      0.02s CPU      0.02s WALL (     726 calls)

     General routines
     calbec       :      0.03s CPU      0.03s WALL (     936 calls)
     fft          :      0.01s CPU      0.01s WALL (      78 calls)
     ffts         :      0.00s CPU      0.00s WALL (       6 calls)
     fftw         :      0.92s CPU      1.01s WALL (   16008 calls)
 
     Parallel routines
     fft_scatt_xy :      0.17s CPU      0.18s WALL (   16092 calls)
     fft_scatt_yz :      0.24s CPU      0.27s WALL (   16092 calls)
 
     PWSCF        :     2.03s CPU         2.74s WALL

 
   This run was terminated on:  22:48:20   2Dec2021            

=------------------------------------------------------------------------------=
   JOB DONE.
=------------------------------------------------------------------------------=
