
     Program PWSCF v.6.3 starts on  2Dec2021 at 22:49:13 

     This program is part of the open-source Quantum ESPRESSO suite
     for quantum simulation of materials; please cite
         "P. Giannozzi et al., J. Phys.:Condens. Matter 21 395502 (2009);
         "P. Giannozzi et al., J. Phys.:Condens. Matter 29 465901 (2017);
          URL http://www.quantum-espresso.org", 
     in publications or presentations arising from this work. More details at
     http://www.quantum-espresso.org/quote

     Parallel version (MPI & OpenMP), running on       2 processor cores
     Number of MPI processes:                 2
     Threads/MPI process:                     1

     MPI processes distributed on     1 nodes
     R & G space division:  proc/nbgrp/npool/nimage =       2
     Reading input from pw-input.in

     Current dimensions of program PWSCF are:
     Max number of different atomic species (ntypx) = 10
     Max number of k-points (npk) =  40000
     Max angular momentum in pseudopotentials (lmaxx) =  3

     Subspace diagonalization in iterative solution of the eigenvalue problem:
     a serial algorithm will be used

 
     Parallelization info
     --------------------
     sticks:   dense  smooth     PW     G-vecs:    dense   smooth      PW
     Min         174     174     60                 2055     2055     434
     Max         175     175     61                 2056     2056     435
     Sum         349     349    121                 4111     4111     869
 

     Title: 
     Pd-kp-conv                                                                 


     bravais-lattice index     =            2
     lattice parameter (alat)  =       8.4000  a.u.
     unit-cell volume          =     148.1760 (a.u.)^3
     number of atoms/cell      =            1
     number of atomic types    =            1
     number of electrons       =        16.00
     number of Kohn-Sham states=           12
     kinetic-energy cutoff     =      35.0000  Ry
     charge density cutoff     =     140.0000  Ry
     convergence threshold     =      1.0E-07
     mixing beta               =       0.7000
     number of iterations used =            8  plain     mixing
     Exchange-correlation      =  SLA  PW   PBX  PBC ( 1  4  3  4 0 0)

     celldm(1)=   8.400000  celldm(2)=   0.000000  celldm(3)=   0.000000
     celldm(4)=   0.000000  celldm(5)=   0.000000  celldm(6)=   0.000000

     crystal axes: (cart. coord. in units of alat)
               a(1) = (  -0.500000   0.000000   0.500000 )  
               a(2) = (   0.000000   0.500000   0.500000 )  
               a(3) = (  -0.500000   0.500000   0.000000 )  

     reciprocal axes: (cart. coord. in units 2 pi/alat)
               b(1) = ( -1.000000 -1.000000  1.000000 )  
               b(2) = (  1.000000  1.000000  1.000000 )  
               b(3) = ( -1.000000  1.000000 -1.000000 )  


     PseudoPot. # 1 for Pd read from file:
     ./pd_pbe_v1.4.uspp.F.UPF
     MD5 check sum: 2d733d2bc2cbfd217af676df1668a4bc
     Pseudo is Ultrasoft + core correction, Zval = 16.0
     Generated by new atomic code, or converted to UPF format
     Using radial grid of  887 points,  6 beta functions with: 
                l(1) =   0
                l(2) =   0
                l(3) =   1
                l(4) =   1
                l(5) =   2
                l(6) =   2
     Q(r) pseudized with  8 coefficients,  rinner =    1.130   1.130   1.130
                                                       1.130   1.130

     atomic species   valence    mass     pseudopotential
        Pd            16.00   106.40000     Pd( 1.00)

     48 Sym. Ops., with inversion, found



   Cartesian axes

     site n.     atom                  positions (alat units)
         1           Pd  tau(   1) = (   0.0000000   0.0000000   0.0000000  )

     number of k points=    35  Marzari-Vanderbilt smearing, width (Ry)=  0.0350
                       cart. coord. in units 2pi/alat
        k(    1) = (   0.0000000   0.0000000   0.0000000), wk =   0.0027435
        k(    2) = (  -0.1111111   0.1111111  -0.1111111), wk =   0.0219479
        k(    3) = (  -0.2222222   0.2222222  -0.2222222), wk =   0.0219479
        k(    4) = (  -0.3333333   0.3333333  -0.3333333), wk =   0.0219479
        k(    5) = (  -0.4444444   0.4444444  -0.4444444), wk =   0.0219479
        k(    6) = (   0.0000000   0.2222222   0.0000000), wk =   0.0164609
        k(    7) = (  -0.1111111   0.3333333  -0.1111111), wk =   0.0658436
        k(    8) = (  -0.2222222   0.4444444  -0.2222222), wk =   0.0658436
        k(    9) = (  -0.3333333   0.5555556  -0.3333333), wk =   0.0658436
        k(   10) = (   0.5555556  -0.3333333   0.5555556), wk =   0.0658436
        k(   11) = (   0.4444444  -0.2222222   0.4444444), wk =   0.0658436
        k(   12) = (   0.3333333  -0.1111111   0.3333333), wk =   0.0658436
        k(   13) = (   0.2222222  -0.0000000   0.2222222), wk =   0.0329218
        k(   14) = (   0.0000000   0.4444444   0.0000000), wk =   0.0164609
        k(   15) = (  -0.1111111   0.5555556  -0.1111111), wk =   0.0658436
        k(   16) = (  -0.2222222   0.6666667  -0.2222222), wk =   0.0658436
        k(   17) = (   0.6666667  -0.2222222   0.6666667), wk =   0.0658436
        k(   18) = (   0.5555556  -0.1111111   0.5555556), wk =   0.0658436
        k(   19) = (   0.4444444   0.0000000   0.4444444), wk =   0.0329218
        k(   20) = (   0.0000000   0.6666667   0.0000000), wk =   0.0164609
        k(   21) = (  -0.1111111   0.7777778  -0.1111111), wk =   0.0658436
        k(   22) = (   0.7777778  -0.1111111   0.7777778), wk =   0.0658436
        k(   23) = (   0.6666667  -0.0000000   0.6666667), wk =   0.0329218
        k(   24) = (   0.0000000   0.8888889   0.0000000), wk =   0.0164609
        k(   25) = (   0.8888889   0.0000000   0.8888889), wk =   0.0329218
        k(   26) = (  -0.2222222   0.4444444   0.0000000), wk =   0.0658436
        k(   27) = (  -0.3333333   0.5555556  -0.1111111), wk =   0.1316872
        k(   28) = (   0.5555556  -0.3333333   0.7777778), wk =   0.1316872
        k(   29) = (  -0.2222222   0.6666667   0.0000000), wk =   0.0658436
        k(   30) = (   0.6666667  -0.2222222   0.8888889), wk =   0.1316872
        k(   31) = (   0.5555556  -0.1111111   0.7777778), wk =   0.1316872
        k(   32) = (   0.4444444   0.0000000   0.6666667), wk =   0.0658436
        k(   33) = (   0.7777778  -0.1111111   1.0000000), wk =   0.0658436
        k(   34) = (   0.6666667  -0.0000000   0.8888889), wk =   0.0658436
        k(   35) = (   0.5555556  -0.1111111   1.0000000), wk =   0.0658436

     Dense  grid:     4111 G-vectors     FFT dimensions: (  24,  24,  24)

     Estimated max dynamical RAM per process >      10.24 MB

     Estimated total dynamical RAM >      20.49 MB

     Check: negative/imaginary core charge=   -0.000001    0.000000

     Initial potential from superposition of free atoms
     Check: negative starting charge=   -0.083520

     starting charge   15.49999, renormalised to   16.00000

     negative rho (up, down):  8.621E-02 0.000E+00
     Starting wfcs are   12 randomized atomic wfcs

     total cpu time spent up to now is        0.7 secs

     Self-consistent Calculation

     iteration #  1     ecut=    35.00 Ry     beta= 0.70
     Davidson diagonalization with overlap
     ethr =  1.00E-02,  avg # of iterations =  3.3

     negative rho (up, down):  8.326E-02 0.000E+00

     total cpu time spent up to now is        1.2 secs

     total energy              =    -197.77514789 Ry
     Harris-Foulkes estimate   =    -199.06711368 Ry
     estimated scf accuracy    <       1.74317694 Ry

     iteration #  2     ecut=    35.00 Ry     beta= 0.70
     Davidson diagonalization with overlap
     ethr =  1.00E-02,  avg # of iterations =  2.0

     negative rho (up, down):  8.555E-02 0.000E+00

     total cpu time spent up to now is        1.6 secs

     total energy              =    -198.21084793 Ry
     Harris-Foulkes estimate   =    -199.43919489 Ry
     estimated scf accuracy    <       2.66421599 Ry

     iteration #  3     ecut=    35.00 Ry     beta= 0.70
     Davidson diagonalization with overlap
     ethr =  1.00E-02,  avg # of iterations =  2.0

     negative rho (up, down):  8.561E-02 0.000E+00

     total cpu time spent up to now is        2.0 secs

     total energy              =    -198.64930782 Ry
     Harris-Foulkes estimate   =    -198.64972230 Ry
     estimated scf accuracy    <       0.00134996 Ry

     iteration #  4     ecut=    35.00 Ry     beta= 0.70
     Davidson diagonalization with overlap
     ethr =  8.44E-06,  avg # of iterations =  2.8

     negative rho (up, down):  8.568E-02 0.000E+00

     total cpu time spent up to now is        2.4 secs

     total energy              =    -198.64961613 Ry
     Harris-Foulkes estimate   =    -198.64962582 Ry
     estimated scf accuracy    <       0.00004094 Ry

     iteration #  5     ecut=    35.00 Ry     beta= 0.70
     Davidson diagonalization with overlap
     ethr =  2.56E-07,  avg # of iterations =  1.7

     negative rho (up, down):  8.568E-02 0.000E+00

     total cpu time spent up to now is        2.8 secs

     total energy              =    -198.64962001 Ry
     Harris-Foulkes estimate   =    -198.64962006 Ry
     estimated scf accuracy    <       0.00000012 Ry

     iteration #  6     ecut=    35.00 Ry     beta= 0.70
     Davidson diagonalization with overlap
     ethr =  7.69E-10,  avg # of iterations =  2.2

     negative rho (up, down):  8.567E-02 0.000E+00

     total cpu time spent up to now is        3.1 secs

     End of self-consistent calculation

          k = 0.0000 0.0000 0.0000 (   531 PWs)   bands (ev):

   -38.4307 -38.4307 -38.4307   5.9173   8.9386   8.9386   8.9386   9.7722
     9.7722  27.1001  29.5988  29.5988

          k =-0.1111 0.1111-0.1111 (   534 PWs)   bands (ev):

   -38.4410 -38.4323 -38.4323   6.2346   8.8756   9.0158   9.0158   9.7479
     9.7479  26.4313  27.8229  29.5445

          k =-0.2222 0.2222-0.2222 (   525 PWs)   bands (ev):

   -38.4668 -38.4362 -38.4362   7.0332   8.8864   9.1080   9.1080   9.8112
     9.8112  22.7997  27.5731  29.2165

          k =-0.3333 0.3333-0.3333 (   516 PWs)   bands (ev):

   -38.4964 -38.4406 -38.4406   7.5431   9.0363   9.0363   9.8136  10.0967
    10.0967  19.0571  26.9279  28.4585

          k =-0.4444 0.4444-0.4444 (   523 PWs)   bands (ev):

   -38.5157 -38.4437 -38.4437   7.5572   8.9457   8.9457  10.3506  10.3506
    11.7012  15.9247  26.4048  27.7830

          k = 0.0000 0.2222 0.0000 (   532 PWs)   bands (ev):

   -38.4406 -38.4347 -38.4347   6.3410   8.7850   9.0845   9.0845   9.6252
     9.8394  27.0866  28.1738  28.1738

          k =-0.1111 0.3333-0.1111 (   525 PWs)   bands (ev):

   -38.4597 -38.4393 -38.4378   7.0006   8.6543   9.1857   9.2267   9.6336
     9.9326  24.3033  27.1297  27.2761

          k =-0.2222 0.4444-0.2222 (   519 PWs)   bands (ev):

   -38.4871 -38.4438 -38.4428   7.6736   8.9040   9.0247   9.2185  10.1705
    10.2799  20.4676  26.4437  26.7897

          k =-0.3333 0.5556-0.3333 (   519 PWs)   bands (ev):

   -38.5088 -38.4483 -38.4464   7.7417   8.8682   9.1175   9.6014  10.3819
    11.7864  17.0121  25.8888  26.2922

          k = 0.5556-0.3333 0.5556 (   520 PWs)   bands (ev):

   -38.5147 -38.4515 -38.4457   7.7292   8.8348   9.0665   9.8899  10.3377
    12.9595  15.4016  25.0228  26.8029

          k = 0.4444-0.2222 0.4444 (   519 PWs)   bands (ev):

   -38.5025 -38.4508 -38.4420   7.7729   8.9208   9.1175   9.5574  10.0285
    11.3067  18.1176  24.7279  27.3839

          k = 0.3333-0.1111 0.3333 (   526 PWs)   bands (ev):

   -38.4780 -38.4462 -38.4370   7.5376   8.7719   9.1247   9.2275   9.6525
    10.3228  21.7401  24.9801  28.6615

          k = 0.2222-0.0000 0.2222 (   519 PWs)   bands (ev):

   -38.4532 -38.4387 -38.4331   6.7309   8.7543   9.1334   9.1348   9.6051
     9.8994  25.5067  25.6440  29.1231

          k = 0.0000 0.4444 0.0000 (   524 PWs)   bands (ev):

   -38.4655 -38.4447 -38.4447   7.3968   8.4153   9.4639   9.4926   9.4926
    10.0133  25.5307  25.5307  26.8243

          k =-0.1111 0.5556-0.1111 (   521 PWs)   bands (ev):

   -38.4841 -38.4510 -38.4500   7.8897   8.2982   9.2796   9.6155  10.2067
    10.3938  22.2258  24.5299  25.1571

          k =-0.2222 0.6667-0.2222 (   519 PWs)   bands (ev):

   -38.5009 -38.4595 -38.4528   7.9848   8.5263   9.1755   9.5358  10.4134
    12.1203  18.6371  23.3294  24.2870

          k = 0.6667-0.2222 0.6667 (   521 PWs)   bands (ev):

   -38.5067 -38.4679 -38.4516   8.0446   8.6331   9.2528   9.4393  10.3544
    14.3972  15.7087  21.9662  24.9467

          k = 0.5556-0.1111 0.5556 (   523 PWs)   bands (ev):

   -38.5006 -38.4702 -38.4472   8.2025   8.7066   9.1226   9.4113  10.0229
    12.9951  17.7209  21.2282  26.4733

          k = 0.4444 0.0000 0.4444 (   518 PWs)   bands (ev):

   -38.4893 -38.4615 -38.4412   8.2289   8.6057   8.9868   9.4495   9.6245
    11.3526  21.0364  21.3544  27.9522

          k = 0.0000 0.6667 0.0000 (   512 PWs)   bands (ev):

   -38.4937 -38.4560 -38.4560   7.8330   8.0234  10.0445  10.0445  10.2183
    10.6834  22.7146  23.1722  23.1722

          k =-0.1111 0.7778-0.1111 (   516 PWs)   bands (ev):

   -38.5038 -38.4639 -38.4595   7.8351   7.9798   9.9176  10.0520  10.4301
    12.4173  20.2644  21.0886  22.6432

          k = 0.7778-0.1111 0.7778 (   516 PWs)   bands (ev):

   -38.5034 -38.4767 -38.4585   7.9313   8.2257   9.5502   9.9257  10.4061
    14.8107  17.4987  19.3476  23.1154

          k = 0.6667-0.0000 0.6667 (   528 PWs)   bands (ev):

   -38.4910 -38.4907 -38.4538   8.1570   8.5995   9.0872   9.7366  10.1620
    15.0399  17.3858  18.5984  24.5009

          k = 0.0000 0.8889 0.0000 (   516 PWs)   bands (ev):

   -38.5118 -38.4638 -38.4638   7.6464   7.7802  10.3544  10.4776  10.4776
    13.1765  18.6763  21.7714  21.7714

          k = 0.8889 0.0000 0.8889 (   504 PWs)   bands (ev):

   -38.5113 -38.4689 -38.4632   7.7104   7.8526  10.2188  10.2710  10.4987
    14.4344  17.7918  20.1424  21.9441

          k =-0.2222 0.4444 0.0000 (   527 PWs)   bands (ev):

   -38.4754 -38.4495 -38.4408   7.6854   8.4923   9.0757   9.4928   9.6804
    10.3461  23.2424  23.6227  27.4755

          k =-0.3333 0.5556-0.1111 (   519 PWs)   bands (ev):

   -38.4943 -38.4583 -38.4455   8.0791   8.7455   8.8526   9.4863  10.0361
    11.4352  19.6823  23.0455  25.6563

          k = 0.5556-0.3333 0.7778 (   525 PWs)   bands (ev):

   -38.5074 -38.4626 -38.4496   8.0314   8.6725   9.2450   9.3960  10.3019
    13.3378  16.4181  23.2443  24.2256

          k =-0.2222 0.6667 0.0000 (   519 PWs)   bands (ev):

   -38.4955 -38.4616 -38.4537   8.0856   8.1694   9.2652  10.0386  10.0937
    11.6531  21.3712  21.7203  23.1328

          k = 0.6667-0.2222 0.8889 (   510 PWs)   bands (ev):

   -38.5010 -38.4719 -38.4571   8.1244   8.3702   9.1145   9.8537  10.3519
    13.6779  18.2092  21.1390  21.9455

          k = 0.5556-0.1111 0.7778 (   516 PWs)   bands (ev):

   -38.4986 -38.4804 -38.4560   8.2805   8.5189   8.9678   9.6810  10.3114
    15.3536  16.3468  20.0820  22.6156

          k = 0.4444 0.0000 0.6667 (   513 PWs)   bands (ev):

   -38.4960 -38.4751 -38.4509   8.5571   8.5793   8.6120   9.7227  10.0443
    13.1190  19.4388  19.5811  23.9779

          k = 0.7778-0.1111 1.0000 (   507 PWs)   bands (ev):

   -38.5069 -38.4694 -38.4635   7.8632   7.9652   9.7867  10.1955  10.4771
    14.1015  18.7452  20.5151  20.7208

          k = 0.6667-0.0000 0.8889 (   515 PWs)   bands (ev):

   -38.5007 -38.4804 -38.4622   8.0321   8.2424   9.3597   9.9380  10.4719
    16.0454  17.4489  18.4413  21.2969

          k = 0.5556-0.1111 1.0000 (   515 PWs)   bands (ev):

   -38.4948 -38.4841 -38.4630   8.2520   8.5094   8.8546   9.8057  10.4737
    15.7922  18.2531  18.6116  20.2221

     the Fermi energy is    10.5022 ev

!    total energy              =    -198.64962006 Ry
     Harris-Foulkes estimate   =    -198.64962009 Ry
     estimated scf accuracy    <       0.00000004 Ry

     The total energy is the sum of the following terms:

     one-electron contribution =     -74.48682834 Ry
     hartree contribution      =      46.74333764 Ry
     xc contribution           =     -31.18188524 Ry
     ewald contribution        =    -139.72912994 Ry
     smearing contrib. (-TS)   =       0.00488582 Ry

     convergence has been achieved in   6 iterations

     Writing output data file Pd-kp-conv.save/
 
     init_run     :      0.51s CPU      0.56s WALL (       1 calls)
     electrons    :      2.29s CPU      2.83s WALL (       1 calls)

     Called by init_run:
     wfcinit      :      0.14s CPU      0.17s WALL (       1 calls)
     potinit      :      0.01s CPU      0.02s WALL (       1 calls)
     hinit0       :      0.34s CPU      0.34s WALL (       1 calls)

     Called by electrons:
     c_bands      :      1.84s CPU      2.00s WALL (       6 calls)
     sum_band     :      0.38s CPU      0.41s WALL (       6 calls)
     v_of_rho     :      0.03s CPU      0.03s WALL (       7 calls)
     newd         :      0.06s CPU      0.06s WALL (       7 calls)
     mix_rho      :      0.00s CPU      0.00s WALL (       6 calls)

     Called by c_bands:
     init_us_2    :      0.06s CPU      0.06s WALL (     455 calls)
     cegterg      :      1.69s CPU      1.81s WALL (     210 calls)

     Called by sum_band:
     sum_band:bec :      0.00s CPU      0.00s WALL (     210 calls)
     addusdens    :      0.05s CPU      0.06s WALL (       6 calls)

     Called by *egterg:
     h_psi        :      1.46s CPU      1.57s WALL (     737 calls)
     s_psi        :      0.02s CPU      0.02s WALL (     737 calls)
     g_psi        :      0.02s CPU      0.02s WALL (     492 calls)
     cdiaghg      :      0.18s CPU      0.19s WALL (     702 calls)

     Called by h_psi:
     h_psi:pot    :      1.45s CPU      1.56s WALL (     737 calls)
     h_psi:calbec :      0.03s CPU      0.03s WALL (     737 calls)
     vloc_psi     :      1.39s CPU      1.50s WALL (     737 calls)
     add_vuspsi   :      0.02s CPU      0.03s WALL (     737 calls)

     General routines
     calbec       :      0.04s CPU      0.04s WALL (     947 calls)
     fft          :      0.01s CPU      0.01s WALL (      78 calls)
     ffts         :      0.00s CPU      0.00s WALL (       6 calls)
     fftw         :      1.43s CPU      1.54s WALL (   15868 calls)
 
     Parallel routines
     fft_scatt_xy :      0.26s CPU      0.28s WALL (   15952 calls)
     fft_scatt_yz :      0.33s CPU      0.36s WALL (   15952 calls)
 
     PWSCF        :     2.90s CPU         3.67s WALL

 
   This run was terminated on:  22:49:16   2Dec2021            

=------------------------------------------------------------------------------=
   JOB DONE.
=------------------------------------------------------------------------------=
