   5
  -5282.49969158371     
 C     0.72770783     1.17600416     0.30516208
Br    -3.39287945    -1.65174012     0.45377453
 H    -0.34049286     0.93107422     0.35296864
 F     1.05737570     2.37206652     0.30409472
Br     1.94861878    -0.10491478     0.23081003
