
     Program PWSCF v.6.3 starts on  2Dec2021 at 21: 7:30 

     This program is part of the open-source Quantum ESPRESSO suite
     for quantum simulation of materials; please cite
         "P. Giannozzi et al., J. Phys.:Condens. Matter 21 395502 (2009);
         "P. Giannozzi et al., J. Phys.:Condens. Matter 29 465901 (2017);
          URL http://www.quantum-espresso.org", 
     in publications or presentations arising from this work. More details at
     http://www.quantum-espresso.org/quote

     Parallel version (MPI & OpenMP), running on       2 processor cores
     Number of MPI processes:                 2
     Threads/MPI process:                     1

     MPI processes distributed on     1 nodes
     R & G space division:  proc/nbgrp/npool/nimage =       2
     Reading input from pw-input.in

     Current dimensions of program PWSCF are:
     Max number of different atomic species (ntypx) = 10
     Max number of k-points (npk) =  40000
     Max angular momentum in pseudopotentials (lmaxx) =  3

     Subspace diagonalization in iterative solution of the eigenvalue problem:
     a serial algorithm will be used

 
     Parallelization info
     --------------------
     sticks:   dense  smooth     PW     G-vecs:    dense   smooth      PW
     Min         141     141     48                 1559     1559     322
     Max         142     142     49                 1560     1560     323
     Sum         283     283     97                 3119     3119     645
 

     Title: 
     Pd-kp-conv                                                                 


     bravais-lattice index     =            2
     lattice parameter (alat)  =       7.6000  a.u.
     unit-cell volume          =     109.7440 (a.u.)^3
     number of atoms/cell      =            1
     number of atomic types    =            1
     number of electrons       =        16.00
     number of Kohn-Sham states=           12
     kinetic-energy cutoff     =      35.0000  Ry
     charge density cutoff     =     140.0000  Ry
     convergence threshold     =      1.0E-07
     mixing beta               =       0.7000
     number of iterations used =            8  plain     mixing
     Exchange-correlation      =  SLA  PW   PBX  PBC ( 1  4  3  4 0 0)

     celldm(1)=   7.600000  celldm(2)=   0.000000  celldm(3)=   0.000000
     celldm(4)=   0.000000  celldm(5)=   0.000000  celldm(6)=   0.000000

     crystal axes: (cart. coord. in units of alat)
               a(1) = (  -0.500000   0.000000   0.500000 )  
               a(2) = (   0.000000   0.500000   0.500000 )  
               a(3) = (  -0.500000   0.500000   0.000000 )  

     reciprocal axes: (cart. coord. in units 2 pi/alat)
               b(1) = ( -1.000000 -1.000000  1.000000 )  
               b(2) = (  1.000000  1.000000  1.000000 )  
               b(3) = ( -1.000000  1.000000 -1.000000 )  


     PseudoPot. # 1 for Pd read from file:
     ./pd_pbe_v1.4.uspp.F.UPF
     MD5 check sum: 2d733d2bc2cbfd217af676df1668a4bc
     Pseudo is Ultrasoft + core correction, Zval = 16.0
     Generated by new atomic code, or converted to UPF format
     Using radial grid of  887 points,  6 beta functions with: 
                l(1) =   0
                l(2) =   0
                l(3) =   1
                l(4) =   1
                l(5) =   2
                l(6) =   2
     Q(r) pseudized with  8 coefficients,  rinner =    1.130   1.130   1.130
                                                       1.130   1.130

     atomic species   valence    mass     pseudopotential
        Pd            16.00   106.40000     Pd( 1.00)

     48 Sym. Ops., with inversion, found



   Cartesian axes

     site n.     atom                  positions (alat units)
         1           Pd  tau(   1) = (   0.0000000   0.0000000   0.0000000  )

     number of k points=   413  Marzari-Vanderbilt smearing, width (Ry)=  0.0100

     Number of k-points >= 100: set verbosity='high' to print them.

     Dense  grid:     3119 G-vectors     FFT dimensions: (  24,  24,  24)

     Estimated max dynamical RAM per process >      21.33 MB

     Estimated total dynamical RAM >      42.66 MB

     Initial potential from superposition of free atoms
     Check: negative starting charge=   -0.079189

     starting charge   15.49999, renormalised to   16.00000

     negative rho (up, down):  8.174E-02 0.000E+00
     Starting wfcs are   12 randomized atomic wfcs

     total cpu time spent up to now is        1.8 secs

     Self-consistent Calculation

     iteration #  1     ecut=    35.00 Ry     beta= 0.70
     Davidson diagonalization with overlap
     ethr =  1.00E-02,  avg # of iterations =  3.6

     negative rho (up, down):  8.052E-02 0.000E+00

     total cpu time spent up to now is        7.3 secs

     total energy              =    -198.13508930 Ry
     Harris-Foulkes estimate   =    -199.04734615 Ry
     estimated scf accuracy    <       1.25320329 Ry

     iteration #  2     ecut=    35.00 Ry     beta= 0.70
     Davidson diagonalization with overlap
     ethr =  7.83E-03,  avg # of iterations =  2.0

     negative rho (up, down):  8.185E-02 0.000E+00

     total cpu time spent up to now is       11.7 secs

     total energy              =    -198.43297301 Ry
     Harris-Foulkes estimate   =    -199.08242360 Ry
     estimated scf accuracy    <       1.31623808 Ry

     iteration #  3     ecut=    35.00 Ry     beta= 0.70
     Davidson diagonalization with overlap
     ethr =  7.83E-03,  avg # of iterations =  2.0

     negative rho (up, down):  8.201E-02 0.000E+00

     total cpu time spent up to now is       15.5 secs

     total energy              =    -198.69888694 Ry
     Harris-Foulkes estimate   =    -198.69957850 Ry
     estimated scf accuracy    <       0.00151873 Ry

     iteration #  4     ecut=    35.00 Ry     beta= 0.70
     Davidson diagonalization with overlap
     ethr =  9.49E-06,  avg # of iterations =  2.4

     negative rho (up, down):  8.214E-02 0.000E+00

     total cpu time spent up to now is       19.9 secs

     total energy              =    -198.69946126 Ry
     Harris-Foulkes estimate   =    -198.69945952 Ry
     estimated scf accuracy    <       0.00000450 Ry

     iteration #  5     ecut=    35.00 Ry     beta= 0.70
     Davidson diagonalization with overlap
     ethr =  2.81E-08,  avg # of iterations =  1.9

     negative rho (up, down):  8.218E-02 0.000E+00

     total cpu time spent up to now is       23.5 secs

     total energy              =    -198.69946214 Ry
     Harris-Foulkes estimate   =    -198.69946189 Ry
     estimated scf accuracy    <       0.00000020 Ry

     iteration #  6     ecut=    35.00 Ry     beta= 0.70
     Davidson diagonalization with overlap
     ethr =  1.27E-09,  avg # of iterations =  2.0

     negative rho (up, down):  8.219E-02 0.000E+00

     total cpu time spent up to now is       27.3 secs

     End of self-consistent calculation

     Number of k-points >= 100: set verbosity='high' to print the bands.

     the Fermi energy is    16.3579 ev

!    total energy              =    -198.69946216 Ry
     Harris-Foulkes estimate   =    -198.69946216 Ry
     estimated scf accuracy    <          1.4E-09 Ry

     The total energy is the sum of the following terms:

     one-electron contribution =     -51.12744545 Ry
     hartree contribution      =      38.17166462 Ry
     xc contribution           =     -31.30632096 Ry
     ewald contribution        =    -154.43745938 Ry
     smearing contrib. (-TS)   =       0.00009902 Ry

     convergence has been achieved in   6 iterations

     Writing output data file Pd-kp-conv.save/
 
     init_run     :      1.61s CPU      1.72s WALL (       1 calls)
     electrons    :     23.31s CPU     25.46s WALL (       1 calls)

     Called by init_run:
     wfcinit      :      1.26s CPU      1.36s WALL (       1 calls)
     potinit      :      0.01s CPU      0.02s WALL (       1 calls)
     hinit0       :      0.33s CPU      0.33s WALL (       1 calls)

     Called by electrons:
     c_bands      :     19.67s CPU     21.20s WALL (       6 calls)
     sum_band     :      3.57s CPU      3.81s WALL (       6 calls)
     v_of_rho     :      0.03s CPU      0.03s WALL (       7 calls)
     newd         :      0.04s CPU      0.05s WALL (       7 calls)
     mix_rho      :      0.00s CPU      0.00s WALL (       6 calls)

     Called by c_bands:
     init_us_2    :      0.47s CPU      0.50s WALL (    5369 calls)
     cegterg      :     18.36s CPU     19.40s WALL (    2478 calls)

     Called by sum_band:
     sum_band:bec :      0.02s CPU      0.02s WALL (    2478 calls)
     addusdens    :      0.04s CPU      0.05s WALL (       6 calls)

     Called by *egterg:
     h_psi        :     15.80s CPU     16.76s WALL (    8649 calls)
     s_psi        :      0.20s CPU      0.21s WALL (    8649 calls)
     g_psi        :      0.14s CPU      0.15s WALL (    5758 calls)
     cdiaghg      :      2.06s CPU      2.16s WALL (    8236 calls)

     Called by h_psi:
     h_psi:pot    :     15.74s CPU     16.69s WALL (    8649 calls)
     h_psi:calbec :      0.29s CPU      0.31s WALL (    8649 calls)
     vloc_psi     :     15.17s CPU     16.09s WALL (    8649 calls)
     add_vuspsi   :      0.21s CPU      0.23s WALL (    8649 calls)

     General routines
     calbec       :      0.34s CPU      0.36s WALL (   11127 calls)
     fft          :      0.01s CPU      0.01s WALL (      78 calls)
     ffts         :      0.00s CPU      0.00s WALL (       6 calls)
     fftw         :     15.60s CPU     16.55s WALL (  184476 calls)
 
     Parallel routines
     fft_scatt_xy :      2.94s CPU      3.13s WALL (  184560 calls)
     fft_scatt_yz :      3.22s CPU      3.46s WALL (  184560 calls)
 
     PWSCF        :    25.16s CPU        28.87s WALL

 
   This run was terminated on:  21: 7:59   2Dec2021            

=------------------------------------------------------------------------------=
   JOB DONE.
=------------------------------------------------------------------------------=
