<?xml version="1.0"?>
<?iotk version="1.2.0"?>
<?iotk file_version="1.0"?>
<?iotk binary="F"?>
<?iotk qe_syntax="F"?>
<Root>
  <EQUATIONS_OF_STATE>
    <EQUATION_TYPE type="character" size="1" len="15">
Birch 2nd order
    </EQUATION_TYPE>
    <CHI_SQUARE type="real" size="1">
 1.395865031128565E-010
    </CHI_SQUARE>
  </EQUATIONS_OF_STATE>
  <EQUATIONS_PARAMETERS>
    <EQUILIBRIUM_VOLUME_AU_A type="real" size="2" columns="2">
 1.035052088004622E+002  1.533788930083963E+001
    </EQUILIBRIUM_VOLUME_AU_A>
    <BULK_MODULUS_KBAR type="real" size="1">
 1.713170890094884E+003
    </BULK_MODULUS_KBAR>
    <DERIVATIVE_BULK_MODULUS type="real" size="1">
 5.568846165050242E+000
    </DERIVATIVE_BULK_MODULUS>
    <SECOND_DERIVATIVE_BULK_MODULUS type="real" size="1">
-5.373332320296916E-003
    </SECOND_DERIVATIVE_BULK_MODULUS>
    <MINIMUM_ENERGY_RY type="real" size="1">
-1.987016393904235E+002
    </MINIMUM_ENERGY_RY>
    <CELL_FACTOR type="real" size="1">
 2.500000000000000E-001
    </CELL_FACTOR>
    <CELL_PARAMETER_AU_A type="real" size="2" columns="2">
 7.453164940279663E+000  3.944045018258046E+000
    </CELL_PARAMETER_AU_A>
  </EQUATIONS_PARAMETERS>
  <FIT_CHECK>
    <NUMBER_OF_DATA type="integer" size="1">
        21
    </NUMBER_OF_DATA>
    <VOL_ENE_EFIT_DELTA_P_GIBBS type="real" size="126" columns="6">
 6.865625000000000E+001 -1.985373034000000E+002 -1.985372965163685E+002 -6.883631556320324E-006  2.120638208304726E+003 -1.975475680849202E+002 
 7.187400000000000E+001 -1.985785875700000E+002 -1.985785981224882E+002  1.055248824854971E-005  1.672169140815874E+003 -1.977615831126833E+002 
 7.519075000000001E+001 -1.986119639700000E+002 -1.986119684771330E+002  4.507133041897760E-006  1.301639370174626E+003 -1.979466486881703E+002 
 7.860799999999999E+001 -1.986385257200000E+002 -1.986385261513871E+002  4.313871215799736E-007  9.962764219288073E+002 -1.981061490623966E+002 
 8.212725000000002E+001 -1.986592621500000E+002 -1.986592454877331E+002 -1.666226688712413E-005  7.453624130586278E+002 -1.982431339235005E+002 
 8.575000000000000E+001 -1.986749650800000E+002 -1.986749744460441E+002  9.366044110947769E-006  5.399073497608847E+002 -1.983602440423656E+002 
 8.947774999999999E+001 -1.986864426200000E+002 -1.986864503690850E+002  7.749085028763147E-006  3.723730657928809E+002 -1.984599439159953E+002 
 9.331200000000001E+001 -1.986943223200000E+002 -1.986943138722719E+002 -8.447728106375507E-006  2.364404830693154E+002 -1.985443428750152E+002 
 9.725425000000000E+001 -1.986991153600000E+002 -1.986991210544620E+002  5.694461947314267E-006  1.268137317415215E+002 -1.986152761305969E+002 
 1.013060000000000E+002 -1.987013672900000E+002 -1.987013542143146E+002 -1.307568544461901E-005  3.905550093773027E+001 -1.986744711605339E+002 
 1.054687500000000E+002 -1.987014515700000E+002 -1.987014312423212E+002 -2.032767878290542E-005 -3.055123279581596E+001 -1.987233556463448E+002 
 1.097440000000000E+002 -1.986997015800000E+002 -1.986997138433133E+002  1.226331326620311E-005 -8.511925174753087E+001 -1.987632026420546E+002 
 1.141332500000000E+002 -1.986964965600000E+002 -1.986965147289997E+002  1.816899964524055E-005 -1.272544505833369E+002 -1.987952284772610E+002 
 1.186380000000000E+002 -1.986920978400000E+002 -1.986921039054135E+002  6.065413458600233E-006 -1.591374893464124E+002 -1.988204398170112E+002 
 1.232597500000000E+002 -1.986867088000000E+002 -1.986867141663809E+002  5.366380861460129E-006 -1.825922718523113E+002 -1.988397033924061E+002 
 1.280000000000000E+002 -1.986805392800000E+002 -1.986805458914321E+002  6.611432070258161E-006 -1.991433763981078E+002 -1.988538192012713E+002 
 1.328602500000000E+002 -1.986737697200000E+002 -1.986737712350254E+002  1.515025417120341E-006 -2.100642262640376E+002 -1.988634925395434E+002 
 1.378420000000000E+002 -1.986665553100000E+002 -1.986665377835419E+002 -1.752645809460773E-005 -2.164175000607238E+002 -1.988693452225723E+002 
 1.429467500000000E+002 -1.986589898400000E+002 -1.986589717471959E+002 -1.809280414022396E-005 -2.190890394557540E+002 -1.988718857623037E+002 
 1.481760000000000E+002 -1.986511872500000E+002 -1.986511807457221E+002 -6.504277848762285E-006 -2.188163077385098E+002 -1.988715965719759E+002 
 1.535312500000000E+002 -1.986432370100000E+002 -1.986432562393672E+002  1.922936723985913E-005 -2.162122813117545E+002 -1.988688943950342E+002
    </VOL_ENE_EFIT_DELTA_P_GIBBS>
  </FIT_CHECK>
</Root>
 
