
     Program PWSCF v.6.3 starts on  2Dec2021 at 22:24:58 

     This program is part of the open-source Quantum ESPRESSO suite
     for quantum simulation of materials; please cite
         "P. Giannozzi et al., J. Phys.:Condens. Matter 21 395502 (2009);
         "P. Giannozzi et al., J. Phys.:Condens. Matter 29 465901 (2017);
          URL http://www.quantum-espresso.org", 
     in publications or presentations arising from this work. More details at
     http://www.quantum-espresso.org/quote

     Parallel version (MPI & OpenMP), running on       2 processor cores
     Number of MPI processes:                 2
     Threads/MPI process:                     1

     MPI processes distributed on     1 nodes
     R & G space division:  proc/nbgrp/npool/nimage =       2
     Reading input from pw-input.in

     Current dimensions of program PWSCF are:
     Max number of different atomic species (ntypx) = 10
     Max number of k-points (npk) =  40000
     Max angular momentum in pseudopotentials (lmaxx) =  3

     Subspace diagonalization in iterative solution of the eigenvalue problem:
     a serial algorithm will be used

 
     Parallelization info
     --------------------
     sticks:   dense  smooth     PW     G-vecs:    dense   smooth      PW
     Min         156     156     54                 1763     1763     362
     Max         157     157     55                 1764     1764     363
     Sum         313     313    109                 3527     3527     725
 

     Title: 
     Pd-kp-conv                                                                 


     bravais-lattice index     =            2
     lattice parameter (alat)  =       8.0000  a.u.
     unit-cell volume          =     128.0000 (a.u.)^3
     number of atoms/cell      =            1
     number of atomic types    =            1
     number of electrons       =        16.00
     number of Kohn-Sham states=           12
     kinetic-energy cutoff     =      35.0000  Ry
     charge density cutoff     =     140.0000  Ry
     convergence threshold     =      1.0E-07
     mixing beta               =       0.7000
     number of iterations used =            8  plain     mixing
     Exchange-correlation      =  SLA  PW   PBX  PBC ( 1  4  3  4 0 0)

     celldm(1)=   8.000000  celldm(2)=   0.000000  celldm(3)=   0.000000
     celldm(4)=   0.000000  celldm(5)=   0.000000  celldm(6)=   0.000000

     crystal axes: (cart. coord. in units of alat)
               a(1) = (  -0.500000   0.000000   0.500000 )  
               a(2) = (   0.000000   0.500000   0.500000 )  
               a(3) = (  -0.500000   0.500000   0.000000 )  

     reciprocal axes: (cart. coord. in units 2 pi/alat)
               b(1) = ( -1.000000 -1.000000  1.000000 )  
               b(2) = (  1.000000  1.000000  1.000000 )  
               b(3) = ( -1.000000  1.000000 -1.000000 )  


     PseudoPot. # 1 for Pd read from file:
     ./pd_pbe_v1.4.uspp.F.UPF
     MD5 check sum: 2d733d2bc2cbfd217af676df1668a4bc
     Pseudo is Ultrasoft + core correction, Zval = 16.0
     Generated by new atomic code, or converted to UPF format
     Using radial grid of  887 points,  6 beta functions with: 
                l(1) =   0
                l(2) =   0
                l(3) =   1
                l(4) =   1
                l(5) =   2
                l(6) =   2
     Q(r) pseudized with  8 coefficients,  rinner =    1.130   1.130   1.130
                                                       1.130   1.130

     atomic species   valence    mass     pseudopotential
        Pd            16.00   106.40000     Pd( 1.00)

     48 Sym. Ops., with inversion, found



   Cartesian axes

     site n.     atom                  positions (alat units)
         1           Pd  tau(   1) = (   0.0000000   0.0000000   0.0000000  )

     number of k points=    35  Marzari-Vanderbilt smearing, width (Ry)=  0.0300
                       cart. coord. in units 2pi/alat
        k(    1) = (   0.0000000   0.0000000   0.0000000), wk =   0.0027435
        k(    2) = (  -0.1111111   0.1111111  -0.1111111), wk =   0.0219479
        k(    3) = (  -0.2222222   0.2222222  -0.2222222), wk =   0.0219479
        k(    4) = (  -0.3333333   0.3333333  -0.3333333), wk =   0.0219479
        k(    5) = (  -0.4444444   0.4444444  -0.4444444), wk =   0.0219479
        k(    6) = (   0.0000000   0.2222222   0.0000000), wk =   0.0164609
        k(    7) = (  -0.1111111   0.3333333  -0.1111111), wk =   0.0658436
        k(    8) = (  -0.2222222   0.4444444  -0.2222222), wk =   0.0658436
        k(    9) = (  -0.3333333   0.5555556  -0.3333333), wk =   0.0658436
        k(   10) = (   0.5555556  -0.3333333   0.5555556), wk =   0.0658436
        k(   11) = (   0.4444444  -0.2222222   0.4444444), wk =   0.0658436
        k(   12) = (   0.3333333  -0.1111111   0.3333333), wk =   0.0658436
        k(   13) = (   0.2222222  -0.0000000   0.2222222), wk =   0.0329218
        k(   14) = (   0.0000000   0.4444444   0.0000000), wk =   0.0164609
        k(   15) = (  -0.1111111   0.5555556  -0.1111111), wk =   0.0658436
        k(   16) = (  -0.2222222   0.6666667  -0.2222222), wk =   0.0658436
        k(   17) = (   0.6666667  -0.2222222   0.6666667), wk =   0.0658436
        k(   18) = (   0.5555556  -0.1111111   0.5555556), wk =   0.0658436
        k(   19) = (   0.4444444   0.0000000   0.4444444), wk =   0.0329218
        k(   20) = (   0.0000000   0.6666667   0.0000000), wk =   0.0164609
        k(   21) = (  -0.1111111   0.7777778  -0.1111111), wk =   0.0658436
        k(   22) = (   0.7777778  -0.1111111   0.7777778), wk =   0.0658436
        k(   23) = (   0.6666667  -0.0000000   0.6666667), wk =   0.0329218
        k(   24) = (   0.0000000   0.8888889   0.0000000), wk =   0.0164609
        k(   25) = (   0.8888889   0.0000000   0.8888889), wk =   0.0329218
        k(   26) = (  -0.2222222   0.4444444   0.0000000), wk =   0.0658436
        k(   27) = (  -0.3333333   0.5555556  -0.1111111), wk =   0.1316872
        k(   28) = (   0.5555556  -0.3333333   0.7777778), wk =   0.1316872
        k(   29) = (  -0.2222222   0.6666667   0.0000000), wk =   0.0658436
        k(   30) = (   0.6666667  -0.2222222   0.8888889), wk =   0.1316872
        k(   31) = (   0.5555556  -0.1111111   0.7777778), wk =   0.1316872
        k(   32) = (   0.4444444   0.0000000   0.6666667), wk =   0.0658436
        k(   33) = (   0.7777778  -0.1111111   1.0000000), wk =   0.0658436
        k(   34) = (   0.6666667  -0.0000000   0.8888889), wk =   0.0658436
        k(   35) = (   0.5555556  -0.1111111   1.0000000), wk =   0.0658436

     Dense  grid:     3527 G-vectors     FFT dimensions: (  24,  24,  24)

     Estimated max dynamical RAM per process >       8.99 MB

     Estimated total dynamical RAM >      17.98 MB

     Check: negative/imaginary core charge=   -0.000001    0.000000

     Initial potential from superposition of free atoms
     Check: negative starting charge=   -0.080332

     starting charge   15.49999, renormalised to   16.00000

     negative rho (up, down):  8.292E-02 0.000E+00
     Starting wfcs are   12 randomized atomic wfcs

     total cpu time spent up to now is        0.6 secs

     Self-consistent Calculation

     iteration #  1     ecut=    35.00 Ry     beta= 0.70
     Davidson diagonalization with overlap
     ethr =  1.00E-02,  avg # of iterations =  3.5

     negative rho (up, down):  8.035E-02 0.000E+00

     total cpu time spent up to now is        1.1 secs

     total energy              =    -197.96300559 Ry
     Harris-Foulkes estimate   =    -199.06833388 Ry
     estimated scf accuracy    <       1.50386118 Ry

     iteration #  2     ecut=    35.00 Ry     beta= 0.70
     Davidson diagonalization with overlap
     ethr =  9.40E-03,  avg # of iterations =  2.0

     negative rho (up, down):  8.254E-02 0.000E+00

     total cpu time spent up to now is        1.5 secs

     total energy              =    -198.29674285 Ry
     Harris-Foulkes estimate   =    -199.25378262 Ry
     estimated scf accuracy    <       2.03398097 Ry

     iteration #  3     ecut=    35.00 Ry     beta= 0.70
     Davidson diagonalization with overlap
     ethr =  9.40E-03,  avg # of iterations =  2.0

     negative rho (up, down):  8.261E-02 0.000E+00

     total cpu time spent up to now is        2.2 secs

     total energy              =    -198.67968784 Ry
     Harris-Foulkes estimate   =    -198.68001559 Ry
     estimated scf accuracy    <       0.00075414 Ry

     iteration #  4     ecut=    35.00 Ry     beta= 0.70
     Davidson diagonalization with overlap
     ethr =  4.71E-06,  avg # of iterations =  2.8

     negative rho (up, down):  8.273E-02 0.000E+00

     total cpu time spent up to now is        2.7 secs

     total energy              =    -198.68005651 Ry
     Harris-Foulkes estimate   =    -198.68005556 Ry
     estimated scf accuracy    <       0.00000165 Ry

     iteration #  5     ecut=    35.00 Ry     beta= 0.70
     Davidson diagonalization with overlap
     ethr =  1.03E-08,  avg # of iterations =  2.0

     negative rho (up, down):  8.276E-02 0.000E+00

     total cpu time spent up to now is        3.1 secs

     End of self-consistent calculation

          k = 0.0000 0.0000 0.0000 (   459 PWs)   bands (ev):

   -36.0655 -36.0655 -36.0655   7.6857  11.1753  11.1753  11.1753  12.2398
    12.2398  30.2874  33.6037  33.6037

          k =-0.1111 0.1111-0.1111 (   450 PWs)   bands (ev):

   -36.0841 -36.0681 -36.0681   8.0421  11.0896  11.2734  11.2734  12.2068
    12.2068  30.0527  31.4422  33.7070

          k =-0.2222 0.2222-0.2222 (   459 PWs)   bands (ev):

   -36.1314 -36.0753 -36.0753   8.9242  11.0795  11.3869  11.3869  12.2813
    12.2813  26.6009  30.9530  33.6706

          k =-0.3333 0.3333-0.3333 (   450 PWs)   bands (ev):

   -36.1843 -36.0835 -36.0835   9.4588  11.2913  11.2913  12.1008  12.6487
    12.6487  22.6351  30.2092  32.8841

          k =-0.4444 0.4444-0.4444 (   449 PWs)   bands (ev):

   -36.2189 -36.0886 -36.0886   9.4555  11.1753  11.1753  12.9788  12.9788
    14.0918  19.3359  29.5964  32.0261

          k = 0.0000 0.2222 0.0000 (   443 PWs)   bands (ev):

   -36.0835 -36.0722 -36.0722   8.1615  10.9770  11.3596  11.3596  12.0447
    12.3262  30.4647  32.1438  32.3590

          k =-0.1111 0.3333-0.1111 (   454 PWs)   bands (ev):

   -36.1187 -36.0808 -36.0782   8.8942  10.8017  11.4801  11.5367  12.0463
    12.4413  28.1758  30.8447  31.3399

          k =-0.2222 0.4444-0.2222 (   451 PWs)   bands (ev):

   -36.1676 -36.0893 -36.0873   9.6207  11.0834  11.2693  11.5230  12.7450
    12.8089  24.1328  30.2632  30.6163

          k =-0.3333 0.5556-0.3333 (   447 PWs)   bands (ev):

   -36.2064 -36.0970 -36.0938   9.6781  11.0679  11.3929  11.9457  13.0192
    14.4212  20.4368  29.4062  30.4129

          k = 0.5556-0.3333 0.5556 (   449 PWs)   bands (ev):

   -36.2172 -36.1028 -36.0924   9.6600  11.0264  11.3267  12.3160  12.9617
    15.5839  18.8039  28.7379  30.5323

          k = 0.4444-0.2222 0.4444 (   444 PWs)   bands (ev):

   -36.1949 -36.1015 -36.0856   9.7214  11.1393  11.3924  11.8620  12.5609
    13.9785  21.6192  28.5492  31.0397

          k = 0.3333-0.1111 0.3333 (   453 PWs)   bands (ev):

   -36.1512 -36.0933 -36.0766   9.4825  10.9366  11.3893  11.5358  12.0765
    12.9133  25.4898  28.8605  32.4469

          k = 0.2222-0.0000 0.2222 (   453 PWs)   bands (ev):

   -36.1074 -36.0800 -36.0697   8.5964  10.9288  11.4158  11.4235  12.0161
    12.3964  29.3977  29.4574  32.9038

          k = 0.0000 0.4444 0.0000 (   455 PWs)   bands (ev):

   -36.1287 -36.0908 -36.0908   9.3250  10.4990  11.8106  11.8724  11.8724
    12.5459  29.5687  29.5687  30.4482

          k =-0.1111 0.5556-0.1111 (   449 PWs)   bands (ev):

   -36.1621 -36.1019 -36.1002   9.8570  10.3452  11.5775  12.0287  12.7933
    12.9261  25.9893  28.4465  29.0530

          k =-0.2222 0.6667-0.2222 (   448 PWs)   bands (ev):

   -36.1919 -36.1172 -36.1051   9.9603  10.6116  11.4392  11.9243  13.0605
    14.8713  22.1140  27.1831  28.1629

          k = 0.6667-0.2222 0.6667 (   445 PWs)   bands (ev):

   -36.2024 -36.1318 -36.1028  10.0368  10.7476  11.5253  11.7996  12.9835
    17.2891  19.0414  25.7225  28.9182

          k = 0.5556-0.1111 0.5556 (   444 PWs)   bands (ev):

   -36.1915 -36.1361 -36.0947  10.2355  10.8508  11.3436  11.7632  12.5544
    15.8840  21.1571  24.9236  30.6752

          k = 0.4444 0.0000 0.4444 (   449 PWs)   bands (ev):

   -36.1714 -36.1208 -36.0844  10.2737  10.7299  11.1914  11.8096  12.0453
    14.1051  24.7305  25.0784  31.6906

          k = 0.0000 0.6667 0.0000 (   444 PWs)   bands (ev):

   -36.1790 -36.1112 -36.1112   9.7652  10.0020  12.5784  12.5784  12.8077
    13.1255  26.6518  26.8862  26.8862

          k =-0.1111 0.7778-0.1111 (   448 PWs)   bands (ev):

   -36.1973 -36.1248 -36.1172   9.7576   9.9443  12.3797  12.5883  13.0821
    15.1196  23.9512  24.7180  26.2692

          k = 0.7778-0.1111 0.7778 (   444 PWs)   bands (ev):

   -36.1964 -36.1476 -36.1153   9.8804  10.2400  11.9073  12.4233  13.0507
    17.8082  20.8315  22.9669  26.8234

          k = 0.6667-0.0000 0.6667 (   443 PWs)   bands (ev):

   -36.1735 -36.1729 -36.1063  10.1689  10.6944  11.3262  12.1769  12.7376
    18.1332  20.6503  22.1947  28.4341

          k = 0.0000 0.8889 0.0000 (   452 PWs)   bands (ev):

   -36.2116 -36.1247 -36.1247   9.5186   9.6992  12.9840  13.1424  13.1424
    15.7814  22.4189  25.2437  25.2437

          k = 0.8889 0.0000 0.8889 (   450 PWs)   bands (ev):

   -36.2105 -36.1345 -36.1238   9.5968   9.7864  12.7750  12.8709  13.1718
    17.1838  21.5179  23.5319  25.4493

          k =-0.2222 0.4444 0.0000 (   449 PWs)   bands (ev):

   -36.1464 -36.0992 -36.0832   9.6512  10.5933  11.3342  11.8751  12.0972
    12.9405  27.0670  27.5035  31.4144

          k =-0.3333 0.5556-0.1111 (   445 PWs)   bands (ev):

   -36.1803 -36.1149 -36.0918  10.0850  10.8836  11.0485  11.8566  12.5595
    14.1637  23.2738  26.8667  29.5575

          k = 0.5556-0.3333 0.7778 (   443 PWs)   bands (ev):

   -36.2035 -36.1224 -36.0990  10.0245  10.8091  11.5192  11.7293  12.9137
    16.1849  19.7751  27.0856  28.0494

          k =-0.2222 0.6667 0.0000 (   447 PWs)   bands (ev):

   -36.1823 -36.1208 -36.1066  10.0694  10.1853  11.5558  12.5716  12.6252
    14.3647  25.0878  25.3974  26.9563

          k = 0.6667-0.2222 0.8889 (   448 PWs)   bands (ev):

   -36.1925 -36.1395 -36.1128  10.1215  10.4189  11.3631  12.3227  12.9776
    16.6124  21.6232  24.9133  25.5728

          k = 0.5556-0.1111 0.7778 (   443 PWs)   bands (ev):

   -36.1875 -36.1546 -36.1104  10.3193  10.6020  11.1740  12.1042  12.9272
    18.4388  19.6299  23.7244  26.3636

          k = 0.4444 0.0000 0.6667 (   444 PWs)   bands (ev):

   -36.1833 -36.1453 -36.1013  10.6723  10.6950  10.7092  12.1506  12.5810
    16.0383  22.9454  23.1897  27.8451

          k = 0.7778-0.1111 1.0000 (   454 PWs)   bands (ev):

   -36.2029 -36.1351 -36.1242   9.7830   9.9285  12.2165  12.7668  13.1413
    16.9582  22.4568  23.9872  24.1936

          k = 0.6667-0.0000 0.8889 (   445 PWs)   bands (ev):

   -36.1911 -36.1544 -36.1217   9.9970  10.2668  11.6704  12.4348  13.1360
    19.0941  20.8918  21.9459  24.8854

          k = 0.5556-0.1111 1.0000 (   449 PWs)   bands (ev):

   -36.1806 -36.1613 -36.1229  10.2601  10.6070  11.0370  12.2620  13.1382
    18.9454  21.5725  22.2173  23.7647

     the Fermi energy is    13.1096 ev

!    total energy              =    -198.68005673 Ry
     Harris-Foulkes estimate   =    -198.68005668 Ry
     estimated scf accuracy    <       0.00000007 Ry

     The total energy is the sum of the following terms:

     one-electron contribution =     -63.23950816 Ry
     hartree contribution      =      42.49971013 Ry
     xc contribution           =     -31.22599560 Ry
     ewald contribution        =    -146.71558644 Ry
     smearing contrib. (-TS)   =       0.00132333 Ry

     convergence has been achieved in   5 iterations

     Writing output data file Pd-kp-conv.save/
 
     init_run     :      0.48s CPU      0.53s WALL (       1 calls)
     electrons    :      1.92s CPU      2.45s WALL (       1 calls)

     Called by init_run:
     wfcinit      :      0.13s CPU      0.16s WALL (       1 calls)
     potinit      :      0.01s CPU      0.02s WALL (       1 calls)
     hinit0       :      0.32s CPU      0.33s WALL (       1 calls)

     Called by electrons:
     c_bands      :      1.56s CPU      2.00s WALL (       5 calls)
     sum_band     :      0.29s CPU      0.33s WALL (       5 calls)
     v_of_rho     :      0.03s CPU      0.03s WALL (       6 calls)
     newd         :      0.04s CPU      0.05s WALL (       6 calls)
     mix_rho      :      0.00s CPU      0.00s WALL (       5 calls)

     Called by c_bands:
     init_us_2    :      0.04s CPU      0.04s WALL (     385 calls)
     cegterg      :      1.45s CPU      1.53s WALL (     175 calls)

     Called by sum_band:
     sum_band:bec :      0.00s CPU      0.00s WALL (     175 calls)
     addusdens    :      0.04s CPU      0.04s WALL (       5 calls)

     Called by *egterg:
     h_psi        :      1.26s CPU      1.34s WALL (     642 calls)
     s_psi        :      0.02s CPU      0.02s WALL (     642 calls)
     g_psi        :      0.01s CPU      0.01s WALL (     432 calls)
     cdiaghg      :      0.16s CPU      0.17s WALL (     607 calls)

     Called by h_psi:
     h_psi:pot    :      1.26s CPU      1.34s WALL (     642 calls)
     h_psi:calbec :      0.03s CPU      0.03s WALL (     642 calls)
     vloc_psi     :      1.21s CPU      1.29s WALL (     642 calls)
     add_vuspsi   :      0.02s CPU      0.02s WALL (     642 calls)

     General routines
     calbec       :      0.03s CPU      0.03s WALL (     817 calls)
     fft          :      0.01s CPU      0.01s WALL (      67 calls)
     ffts         :      0.00s CPU      0.00s WALL (       5 calls)
     fftw         :      1.22s CPU      1.31s WALL (   13722 calls)
 
     Parallel routines
     fft_scatt_xy :      0.22s CPU      0.24s WALL (   13794 calls)
     fft_scatt_yz :      0.27s CPU      0.29s WALL (   13794 calls)
 
     PWSCF        :     2.48s CPU         3.21s WALL

 
   This run was terminated on:  22:25: 2   2Dec2021            

=------------------------------------------------------------------------------=
   JOB DONE.
=------------------------------------------------------------------------------=
