
     Program PWSCF v.6.3 starts on  2Dec2021 at 22:45:56 

     This program is part of the open-source Quantum ESPRESSO suite
     for quantum simulation of materials; please cite
         "P. Giannozzi et al., J. Phys.:Condens. Matter 21 395502 (2009);
         "P. Giannozzi et al., J. Phys.:Condens. Matter 29 465901 (2017);
          URL http://www.quantum-espresso.org", 
     in publications or presentations arising from this work. More details at
     http://www.quantum-espresso.org/quote

     Parallel version (MPI & OpenMP), running on       2 processor cores
     Number of MPI processes:                 2
     Threads/MPI process:                     1

     MPI processes distributed on     1 nodes
     R & G space division:  proc/nbgrp/npool/nimage =       2
     Reading input from pw-input.in

     Current dimensions of program PWSCF are:
     Max number of different atomic species (ntypx) = 10
     Max number of k-points (npk) =  40000
     Max angular momentum in pseudopotentials (lmaxx) =  3

     Subspace diagonalization in iterative solution of the eigenvalue problem:
     a serial algorithm will be used

 
     Parallelization info
     --------------------
     sticks:   dense  smooth     PW     G-vecs:    dense   smooth      PW
     Min         126     126     42                 1318     1318     264
     Max         127     127     43                 1319     1319     267
     Sum         253     253     85                 2637     2637     531
 

     Title: 
     Pd-kp-conv                                                                 


     bravais-lattice index     =            2
     lattice parameter (alat)  =       7.2000  a.u.
     unit-cell volume          =      93.3120 (a.u.)^3
     number of atoms/cell      =            1
     number of atomic types    =            1
     number of electrons       =        16.00
     number of Kohn-Sham states=           12
     kinetic-energy cutoff     =      35.0000  Ry
     charge density cutoff     =     140.0000  Ry
     convergence threshold     =      1.0E-07
     mixing beta               =       0.7000
     number of iterations used =            8  plain     mixing
     Exchange-correlation      =  SLA  PW   PBX  PBC ( 1  4  3  4 0 0)

     celldm(1)=   7.200000  celldm(2)=   0.000000  celldm(3)=   0.000000
     celldm(4)=   0.000000  celldm(5)=   0.000000  celldm(6)=   0.000000

     crystal axes: (cart. coord. in units of alat)
               a(1) = (  -0.500000   0.000000   0.500000 )  
               a(2) = (   0.000000   0.500000   0.500000 )  
               a(3) = (  -0.500000   0.500000   0.000000 )  

     reciprocal axes: (cart. coord. in units 2 pi/alat)
               b(1) = ( -1.000000 -1.000000  1.000000 )  
               b(2) = (  1.000000  1.000000  1.000000 )  
               b(3) = ( -1.000000  1.000000 -1.000000 )  


     PseudoPot. # 1 for Pd read from file:
     ./pd_pbe_v1.4.uspp.F.UPF
     MD5 check sum: 2d733d2bc2cbfd217af676df1668a4bc
     Pseudo is Ultrasoft + core correction, Zval = 16.0
     Generated by new atomic code, or converted to UPF format
     Using radial grid of  887 points,  6 beta functions with: 
                l(1) =   0
                l(2) =   0
                l(3) =   1
                l(4) =   1
                l(5) =   2
                l(6) =   2
     Q(r) pseudized with  8 coefficients,  rinner =    1.130   1.130   1.130
                                                       1.130   1.130

     atomic species   valence    mass     pseudopotential
        Pd            16.00   106.40000     Pd( 1.00)

     48 Sym. Ops., with inversion, found



   Cartesian axes

     site n.     atom                  positions (alat units)
         1           Pd  tau(   1) = (   0.0000000   0.0000000   0.0000000  )

     number of k points=     4  Marzari-Vanderbilt smearing, width (Ry)=  0.0350
                       cart. coord. in units 2pi/alat
        k(    1) = (   0.0000000   0.0000000   0.0000000), wk =   0.0740741
        k(    2) = (  -0.3333333   0.3333333  -0.3333333), wk =   0.5925926
        k(    3) = (   0.0000000   0.6666667   0.0000000), wk =   0.4444444
        k(    4) = (   0.6666667  -0.0000000   0.6666667), wk =   0.8888889

     Dense  grid:     2637 G-vectors     FFT dimensions: (  20,  20,  20)

     Estimated max dynamical RAM per process >       5.87 MB

     Estimated total dynamical RAM >      11.74 MB

     Initial potential from superposition of free atoms
     Check: negative starting charge=   -0.084445

     starting charge   15.49999, renormalised to   16.00000

     negative rho (up, down):  8.717E-02 0.000E+00
     Starting wfcs are   12 randomized atomic wfcs

     total cpu time spent up to now is        0.4 secs

     Self-consistent Calculation

     iteration #  1     ecut=    35.00 Ry     beta= 0.70
     Davidson diagonalization with overlap
     ethr =  1.00E-02,  avg # of iterations =  4.0

     negative rho (up, down):  8.712E-02 0.000E+00

     total cpu time spent up to now is        0.5 secs

     total energy              =    -198.22101097 Ry
     Harris-Foulkes estimate   =    -198.95580229 Ry
     estimated scf accuracy    <       1.02436670 Ry

     iteration #  2     ecut=    35.00 Ry     beta= 0.70
     Davidson diagonalization with overlap
     ethr =  6.40E-03,  avg # of iterations =  2.0

     negative rho (up, down):  8.818E-02 0.000E+00

     total cpu time spent up to now is        0.6 secs

     total energy              =    -198.38152769 Ry
     Harris-Foulkes estimate   =    -198.88490785 Ry
     estimated scf accuracy    <       1.02251777 Ry

     iteration #  3     ecut=    35.00 Ry     beta= 0.70
     Davidson diagonalization with overlap
     ethr =  6.39E-03,  avg # of iterations =  2.0

     negative rho (up, down):  8.946E-02 0.000E+00

     total cpu time spent up to now is        0.6 secs

     total energy              =    -198.61728142 Ry
     Harris-Foulkes estimate   =    -198.63447902 Ry
     estimated scf accuracy    <       0.02676442 Ry

     iteration #  4     ecut=    35.00 Ry     beta= 0.70
     Davidson diagonalization with overlap
     ethr =  1.67E-04,  avg # of iterations =  2.0

     negative rho (up, down):  8.932E-02 0.000E+00

     total cpu time spent up to now is        0.7 secs

     total energy              =    -198.63113940 Ry
     Harris-Foulkes estimate   =    -198.63586913 Ry
     estimated scf accuracy    <       0.02680910 Ry

     iteration #  5     ecut=    35.00 Ry     beta= 0.70
     Davidson diagonalization with overlap
     ethr =  1.67E-04,  avg # of iterations =  1.0

     negative rho (up, down):  8.891E-02 0.000E+00

     total cpu time spent up to now is        0.7 secs

     total energy              =    -198.62621598 Ry
     Harris-Foulkes estimate   =    -198.63167793 Ry
     estimated scf accuracy    <       0.01168820 Ry

     iteration #  6     ecut=    35.00 Ry     beta= 0.70
     Davidson diagonalization with overlap
     ethr =  7.31E-05,  avg # of iterations =  2.0

     negative rho (up, down):  8.901E-02 0.000E+00

     total cpu time spent up to now is        0.7 secs

     total energy              =    -198.62880404 Ry
     Harris-Foulkes estimate   =    -198.62892352 Ry
     estimated scf accuracy    <       0.00050424 Ry

     iteration #  7     ecut=    35.00 Ry     beta= 0.70
     Davidson diagonalization with overlap
     ethr =  3.15E-06,  avg # of iterations =  1.0

     negative rho (up, down):  8.908E-02 0.000E+00

     total cpu time spent up to now is        0.8 secs

     total energy              =    -198.62880944 Ry
     Harris-Foulkes estimate   =    -198.62883395 Ry
     estimated scf accuracy    <       0.00008861 Ry

     iteration #  8     ecut=    35.00 Ry     beta= 0.70
     Davidson diagonalization with overlap
     ethr =  5.54E-07,  avg # of iterations =  1.0

     negative rho (up, down):  8.915E-02 0.000E+00

     total cpu time spent up to now is        0.8 secs

     total energy              =    -198.62881297 Ry
     Harris-Foulkes estimate   =    -198.62881662 Ry
     estimated scf accuracy    <       0.00000861 Ry

     iteration #  9     ecut=    35.00 Ry     beta= 0.70
     Davidson diagonalization with overlap
     ethr =  5.38E-08,  avg # of iterations =  2.0

     negative rho (up, down):  8.915E-02 0.000E+00

     total cpu time spent up to now is        0.9 secs

     total energy              =    -198.62881478 Ry
     Harris-Foulkes estimate   =    -198.62881494 Ry
     estimated scf accuracy    <       0.00000036 Ry

     iteration # 10     ecut=    35.00 Ry     beta= 0.70
     Davidson diagonalization with overlap
     ethr =  2.23E-09,  avg # of iterations =  2.0

     negative rho (up, down):  8.915E-02 0.000E+00

     total cpu time spent up to now is        0.9 secs

     End of self-consistent calculation

          k = 0.0000 0.0000 0.0000 (   331 PWs)   bands (ev):

   -29.5392 -29.5392 -29.5392  12.7568  17.2003  17.2003  17.2003  18.9546
    18.9546  38.4635  43.6032  43.6032

          k =-0.3333 0.3333-0.3333 (   332 PWs)   bands (ev):

   -29.9271 -29.5938 -29.5938  14.7075  17.3580  17.3580  18.4517  19.6379
    19.6379  32.4939  38.6975  44.5847

          k = 0.0000 0.6667 0.0000 (   323 PWs)   bands (ev):

   -29.9083 -29.6828 -29.6828  14.9674  15.2569  19.5251  19.5251  19.9111
    19.9438  36.9019  36.9019  37.0386

          k = 0.6667-0.0000 0.6667 (   323 PWs)   bands (ev):

   -29.8872 -29.8850 -29.6656  15.5196  16.3460  17.4042  18.7923  19.8054
    26.7218  29.8421  32.0577  39.0577

     the Fermi energy is    19.9248 ev

!    total energy              =    -198.62881486 Ry
     Harris-Foulkes estimate   =    -198.62881487 Ry
     estimated scf accuracy    <       0.00000002 Ry

     The total energy is the sum of the following terms:

     one-electron contribution =     -37.80237395 Ry
     hartree contribution      =      33.60425164 Ry
     xc contribution           =     -31.40517181 Ry
     ewald contribution        =    -163.01731824 Ry
     smearing contrib. (-TS)   =      -0.00820250 Ry

     convergence has been achieved in  10 iterations

     Writing output data file Pd-kp-conv.save/
 
     init_run     :      0.33s CPU      0.35s WALL (       1 calls)
     electrons    :      0.41s CPU      0.74s WALL (       1 calls)

     Called by init_run:
     wfcinit      :      0.01s CPU      0.01s WALL (       1 calls)
     potinit      :      0.01s CPU      0.01s WALL (       1 calls)
     hinit0       :      0.31s CPU      0.31s WALL (       1 calls)

     Called by electrons:
     c_bands      :      0.23s CPU      0.25s WALL (      10 calls)
     sum_band     :      0.11s CPU      0.11s WALL (      10 calls)
     v_of_rho     :      0.03s CPU      0.03s WALL (      11 calls)
     newd         :      0.06s CPU      0.06s WALL (      11 calls)
     mix_rho      :      0.00s CPU      0.00s WALL (      10 calls)

     Called by c_bands:
     init_us_2    :      0.01s CPU      0.01s WALL (      84 calls)
     cegterg      :      0.21s CPU      0.23s WALL (      40 calls)

     Called by sum_band:
     sum_band:bec :      0.00s CPU      0.00s WALL (      40 calls)
     addusdens    :      0.06s CPU      0.06s WALL (      10 calls)

     Called by *egterg:
     h_psi        :      0.16s CPU      0.18s WALL (     120 calls)
     s_psi        :      0.00s CPU      0.00s WALL (     120 calls)
     g_psi        :      0.00s CPU      0.00s WALL (      76 calls)
     cdiaghg      :      0.03s CPU      0.03s WALL (     116 calls)

     Called by h_psi:
     h_psi:pot    :      0.16s CPU      0.18s WALL (     120 calls)
     h_psi:calbec :      0.00s CPU      0.01s WALL (     120 calls)
     vloc_psi     :      0.16s CPU      0.17s WALL (     120 calls)
     add_vuspsi   :      0.00s CPU      0.00s WALL (     120 calls)

     General routines
     calbec       :      0.00s CPU      0.01s WALL (     160 calls)
     fft          :      0.01s CPU      0.01s WALL (     122 calls)
     ffts         :      0.00s CPU      0.00s WALL (      10 calls)
     fftw         :      0.17s CPU      0.18s WALL (    2788 calls)
 
     Parallel routines
     fft_scatt_xy :      0.03s CPU      0.04s WALL (    2920 calls)
     fft_scatt_yz :      0.05s CPU      0.05s WALL (    2920 calls)
 
     PWSCF        :     0.83s CPU         1.33s WALL

 
   This run was terminated on:  22:45:57   2Dec2021            

=------------------------------------------------------------------------------=
   JOB DONE.
=------------------------------------------------------------------------------=
