
     Program PWSCF v.6.3 starts on  2Dec2021 at 22:46: 4 

     This program is part of the open-source Quantum ESPRESSO suite
     for quantum simulation of materials; please cite
         "P. Giannozzi et al., J. Phys.:Condens. Matter 21 395502 (2009);
         "P. Giannozzi et al., J. Phys.:Condens. Matter 29 465901 (2017);
          URL http://www.quantum-espresso.org", 
     in publications or presentations arising from this work. More details at
     http://www.quantum-espresso.org/quote

     Parallel version (MPI & OpenMP), running on       2 processor cores
     Number of MPI processes:                 2
     Threads/MPI process:                     1

     MPI processes distributed on     1 nodes
     R & G space division:  proc/nbgrp/npool/nimage =       2
     Reading input from pw-input.in

     Current dimensions of program PWSCF are:
     Max number of different atomic species (ntypx) = 10
     Max number of k-points (npk) =  40000
     Max angular momentum in pseudopotentials (lmaxx) =  3

     Subspace diagonalization in iterative solution of the eigenvalue problem:
     a serial algorithm will be used

 
     Parallelization info
     --------------------
     sticks:   dense  smooth     PW     G-vecs:    dense   smooth      PW
     Min         141     141     42                 1559     1559     267
     Max         142     142     43                 1560     1560     270
     Sum         283     283     85                 3119     3119     537
 

     Title: 
     Pd-kp-conv                                                                 


     bravais-lattice index     =            2
     lattice parameter (alat)  =       7.6000  a.u.
     unit-cell volume          =     109.7440 (a.u.)^3
     number of atoms/cell      =            1
     number of atomic types    =            1
     number of electrons       =        16.00
     number of Kohn-Sham states=           12
     kinetic-energy cutoff     =      35.0000  Ry
     charge density cutoff     =     140.0000  Ry
     convergence threshold     =      1.0E-07
     mixing beta               =       0.7000
     number of iterations used =            8  plain     mixing
     Exchange-correlation      =  SLA  PW   PBX  PBC ( 1  4  3  4 0 0)

     celldm(1)=   7.600000  celldm(2)=   0.000000  celldm(3)=   0.000000
     celldm(4)=   0.000000  celldm(5)=   0.000000  celldm(6)=   0.000000

     crystal axes: (cart. coord. in units of alat)
               a(1) = (  -0.500000   0.000000   0.500000 )  
               a(2) = (   0.000000   0.500000   0.500000 )  
               a(3) = (  -0.500000   0.500000   0.000000 )  

     reciprocal axes: (cart. coord. in units 2 pi/alat)
               b(1) = ( -1.000000 -1.000000  1.000000 )  
               b(2) = (  1.000000  1.000000  1.000000 )  
               b(3) = ( -1.000000  1.000000 -1.000000 )  


     PseudoPot. # 1 for Pd read from file:
     ./pd_pbe_v1.4.uspp.F.UPF
     MD5 check sum: 2d733d2bc2cbfd217af676df1668a4bc
     Pseudo is Ultrasoft + core correction, Zval = 16.0
     Generated by new atomic code, or converted to UPF format
     Using radial grid of  887 points,  6 beta functions with: 
                l(1) =   0
                l(2) =   0
                l(3) =   1
                l(4) =   1
                l(5) =   2
                l(6) =   2
     Q(r) pseudized with  8 coefficients,  rinner =    1.130   1.130   1.130
                                                       1.130   1.130

     atomic species   valence    mass     pseudopotential
        Pd            16.00   106.40000     Pd( 1.00)

     48 Sym. Ops., with inversion, found



   Cartesian axes

     site n.     atom                  positions (alat units)
         1           Pd  tau(   1) = (   0.0000000   0.0000000   0.0000000  )

     number of k points=     4  Marzari-Vanderbilt smearing, width (Ry)=  0.0350
                       cart. coord. in units 2pi/alat
        k(    1) = (   0.0000000   0.0000000   0.0000000), wk =   0.0740741
        k(    2) = (  -0.3333333   0.3333333  -0.3333333), wk =   0.5925926
        k(    3) = (   0.0000000   0.6666667   0.0000000), wk =   0.4444444
        k(    4) = (   0.6666667  -0.0000000   0.6666667), wk =   0.8888889

     Dense  grid:     3119 G-vectors     FFT dimensions: (  24,  24,  24)

     Estimated max dynamical RAM per process >       6.95 MB

     Estimated total dynamical RAM >      13.90 MB

     Initial potential from superposition of free atoms
     Check: negative starting charge=   -0.079189

     starting charge   15.49999, renormalised to   16.00000

     negative rho (up, down):  8.174E-02 0.000E+00
     Starting wfcs are   12 randomized atomic wfcs

     total cpu time spent up to now is        0.5 secs

     Self-consistent Calculation

     iteration #  1     ecut=    35.00 Ry     beta= 0.70
     Davidson diagonalization with overlap
     ethr =  1.00E-02,  avg # of iterations =  4.0

     negative rho (up, down):  8.079E-02 0.000E+00

     total cpu time spent up to now is        0.6 secs

     total energy              =    -198.09981561 Ry
     Harris-Foulkes estimate   =    -199.02396217 Ry
     estimated scf accuracy    <       1.27155774 Ry

     iteration #  2     ecut=    35.00 Ry     beta= 0.70
     Davidson diagonalization with overlap
     ethr =  7.95E-03,  avg # of iterations =  2.0

     negative rho (up, down):  8.205E-02 0.000E+00

     total cpu time spent up to now is        0.6 secs

     total energy              =    -198.34562178 Ry
     Harris-Foulkes estimate   =    -199.07206165 Ry
     estimated scf accuracy    <       1.51533750 Ry

     iteration #  3     ecut=    35.00 Ry     beta= 0.70
     Davidson diagonalization with overlap
     ethr =  7.95E-03,  avg # of iterations =  2.0

     negative rho (up, down):  8.252E-02 0.000E+00

     total cpu time spent up to now is        0.7 secs

     total energy              =    -198.64246288 Ry
     Harris-Foulkes estimate   =    -198.64977971 Ry
     estimated scf accuracy    <       0.01385291 Ry

     iteration #  4     ecut=    35.00 Ry     beta= 0.70
     Davidson diagonalization with overlap
     ethr =  8.66E-05,  avg # of iterations =  2.0

     negative rho (up, down):  8.254E-02 0.000E+00

     total cpu time spent up to now is        0.8 secs

     total energy              =    -198.64745123 Ry
     Harris-Foulkes estimate   =    -198.64792193 Ry
     estimated scf accuracy    <       0.00293159 Ry

     iteration #  5     ecut=    35.00 Ry     beta= 0.70
     Davidson diagonalization with overlap
     ethr =  1.83E-05,  avg # of iterations =  1.0

     negative rho (up, down):  8.262E-02 0.000E+00

     total cpu time spent up to now is        0.8 secs

     total energy              =    -198.64692695 Ry
     Harris-Foulkes estimate   =    -198.64750669 Ry
     estimated scf accuracy    <       0.00133558 Ry

     iteration #  6     ecut=    35.00 Ry     beta= 0.70
     Davidson diagonalization with overlap
     ethr =  8.35E-06,  avg # of iterations =  2.0

     negative rho (up, down):  8.264E-02 0.000E+00

     total cpu time spent up to now is        0.9 secs

     total energy              =    -198.64717781 Ry
     Harris-Foulkes estimate   =    -198.64718322 Ry
     estimated scf accuracy    <       0.00000760 Ry

     iteration #  7     ecut=    35.00 Ry     beta= 0.70
     Davidson diagonalization with overlap
     ethr =  4.75E-08,  avg # of iterations =  2.2

     negative rho (up, down):  8.266E-02 0.000E+00

     total cpu time spent up to now is        1.0 secs

     total energy              =    -198.64717943 Ry
     Harris-Foulkes estimate   =    -198.64718458 Ry
     estimated scf accuracy    <       0.00001141 Ry

     iteration #  8     ecut=    35.00 Ry     beta= 0.70
     Davidson diagonalization with overlap
     ethr =  4.75E-08,  avg # of iterations =  2.0

     negative rho (up, down):  8.267E-02 0.000E+00

     total cpu time spent up to now is        1.0 secs

     total energy              =    -198.64718183 Ry
     Harris-Foulkes estimate   =    -198.64718197 Ry
     estimated scf accuracy    <       0.00000030 Ry

     iteration #  9     ecut=    35.00 Ry     beta= 0.70
     Davidson diagonalization with overlap
     ethr =  1.87E-09,  avg # of iterations =  2.0

     negative rho (up, down):  8.267E-02 0.000E+00

     total cpu time spent up to now is        1.1 secs

     End of self-consistent calculation

          k = 0.0000 0.0000 0.0000 (   387 PWs)   bands (ev):

   -33.2333 -33.2333 -33.2333   9.9015  13.8349  13.8349  13.8349  15.1815
    15.1815  34.0281  38.2079  38.2079

          k =-0.3333 0.3333-0.3333 (   389 PWs)   bands (ev):

   -33.4468 -33.2646 -33.2646  11.7748  13.9662  13.9662  14.8942  15.7106
    15.7106  27.0129  34.0663  38.1718

          k = 0.0000 0.6667 0.0000 (   387 PWs)   bands (ev):

   -33.4370 -33.3138 -33.3138  12.0636  12.3359  15.6270  15.6270  15.9122
    16.1225  31.3335  31.3740  31.3740

          k = 0.6667-0.0000 0.6667 (   383 PWs)   bands (ev):

   -33.4262 -33.4250 -33.3047  12.5423  13.1848  14.0042  15.0801  15.8365
    21.9254  24.6931  26.5758  33.1884

     the Fermi energy is    15.9841 ev

!    total energy              =    -198.64718189 Ry
     Harris-Foulkes estimate   =    -198.64718190 Ry
     estimated scf accuracy    <          8.0E-09 Ry

     The total energy is the sum of the following terms:

     one-electron contribution =     -50.95518037 Ry
     hartree contribution      =      38.03667139 Ry
     xc contribution           =     -31.28598091 Ry
     ewald contribution        =    -154.43745938 Ry
     smearing contrib. (-TS)   =      -0.00523262 Ry

     convergence has been achieved in   9 iterations

     Writing output data file Pd-kp-conv.save/
 
     init_run     :      0.35s CPU      0.38s WALL (       1 calls)
     electrons    :      0.54s CPU      0.63s WALL (       1 calls)

     Called by init_run:
     wfcinit      :      0.02s CPU      0.02s WALL (       1 calls)
     potinit      :      0.01s CPU      0.02s WALL (       1 calls)
     hinit0       :      0.32s CPU      0.32s WALL (       1 calls)

     Called by electrons:
     c_bands      :      0.31s CPU      0.35s WALL (       9 calls)
     sum_band     :      0.13s CPU      0.14s WALL (       9 calls)
     v_of_rho     :      0.05s CPU      0.05s WALL (      10 calls)
     newd         :      0.06s CPU      0.07s WALL (      10 calls)
     mix_rho      :      0.00s CPU      0.01s WALL (       9 calls)

     Called by c_bands:
     init_us_2    :      0.01s CPU      0.01s WALL (      76 calls)
     cegterg      :      0.29s CPU      0.31s WALL (      36 calls)

     Called by sum_band:
     sum_band:bec :      0.00s CPU      0.00s WALL (      36 calls)
     addusdens    :      0.07s CPU      0.07s WALL (       9 calls)

     Called by *egterg:
     h_psi        :      0.24s CPU      0.26s WALL (     117 calls)
     s_psi        :      0.00s CPU      0.00s WALL (     117 calls)
     g_psi        :      0.00s CPU      0.00s WALL (      77 calls)
     cdiaghg      :      0.03s CPU      0.03s WALL (     113 calls)

     Called by h_psi:
     h_psi:pot    :      0.24s CPU      0.26s WALL (     117 calls)
     h_psi:calbec :      0.01s CPU      0.01s WALL (     117 calls)
     vloc_psi     :      0.23s CPU      0.25s WALL (     117 calls)
     add_vuspsi   :      0.00s CPU      0.00s WALL (     117 calls)

     General routines
     calbec       :      0.01s CPU      0.01s WALL (     153 calls)
     fft          :      0.02s CPU      0.02s WALL (     111 calls)
     ffts         :      0.00s CPU      0.00s WALL (       9 calls)
     fftw         :      0.24s CPU      0.26s WALL (    2612 calls)
 
     Parallel routines
     fft_scatt_xy :      0.05s CPU      0.05s WALL (    2732 calls)
     fft_scatt_yz :      0.05s CPU      0.06s WALL (    2732 calls)
 
     PWSCF        :     0.98s CPU         1.49s WALL

 
   This run was terminated on:  22:46: 6   2Dec2021            

=------------------------------------------------------------------------------=
   JOB DONE.
=------------------------------------------------------------------------------=
