
     Program PWSCF v.6.3 starts on  2Dec2021 at 22:46: 0 

     This program is part of the open-source Quantum ESPRESSO suite
     for quantum simulation of materials; please cite
         "P. Giannozzi et al., J. Phys.:Condens. Matter 21 395502 (2009);
         "P. Giannozzi et al., J. Phys.:Condens. Matter 29 465901 (2017);
          URL http://www.quantum-espresso.org", 
     in publications or presentations arising from this work. More details at
     http://www.quantum-espresso.org/quote

     Parallel version (MPI & OpenMP), running on       2 processor cores
     Number of MPI processes:                 2
     Threads/MPI process:                     1

     MPI processes distributed on     1 nodes
     R & G space division:  proc/nbgrp/npool/nimage =       2
     Reading input from pw-input.in

     Current dimensions of program PWSCF are:
     Max number of different atomic species (ntypx) = 10
     Max number of k-points (npk) =  40000
     Max angular momentum in pseudopotentials (lmaxx) =  3

     Subspace diagonalization in iterative solution of the eigenvalue problem:
     a serial algorithm will be used

 
     Parallelization info
     --------------------
     sticks:   dense  smooth     PW     G-vecs:    dense   smooth      PW
     Min         126     126     42                 1369     1369     264
     Max         127     127     43                 1372     1372     267
     Sum         253     253     85                 2741     2741     531
 

     Title: 
     Pd-kp-conv                                                                 


     bravais-lattice index     =            2
     lattice parameter (alat)  =       7.4000  a.u.
     unit-cell volume          =     101.3060 (a.u.)^3
     number of atoms/cell      =            1
     number of atomic types    =            1
     number of electrons       =        16.00
     number of Kohn-Sham states=           12
     kinetic-energy cutoff     =      35.0000  Ry
     charge density cutoff     =     140.0000  Ry
     convergence threshold     =      1.0E-07
     mixing beta               =       0.7000
     number of iterations used =            8  plain     mixing
     Exchange-correlation      =  SLA  PW   PBX  PBC ( 1  4  3  4 0 0)

     celldm(1)=   7.400000  celldm(2)=   0.000000  celldm(3)=   0.000000
     celldm(4)=   0.000000  celldm(5)=   0.000000  celldm(6)=   0.000000

     crystal axes: (cart. coord. in units of alat)
               a(1) = (  -0.500000   0.000000   0.500000 )  
               a(2) = (   0.000000   0.500000   0.500000 )  
               a(3) = (  -0.500000   0.500000   0.000000 )  

     reciprocal axes: (cart. coord. in units 2 pi/alat)
               b(1) = ( -1.000000 -1.000000  1.000000 )  
               b(2) = (  1.000000  1.000000  1.000000 )  
               b(3) = ( -1.000000  1.000000 -1.000000 )  


     PseudoPot. # 1 for Pd read from file:
     ./pd_pbe_v1.4.uspp.F.UPF
     MD5 check sum: 2d733d2bc2cbfd217af676df1668a4bc
     Pseudo is Ultrasoft + core correction, Zval = 16.0
     Generated by new atomic code, or converted to UPF format
     Using radial grid of  887 points,  6 beta functions with: 
                l(1) =   0
                l(2) =   0
                l(3) =   1
                l(4) =   1
                l(5) =   2
                l(6) =   2
     Q(r) pseudized with  8 coefficients,  rinner =    1.130   1.130   1.130
                                                       1.130   1.130

     atomic species   valence    mass     pseudopotential
        Pd            16.00   106.40000     Pd( 1.00)

     48 Sym. Ops., with inversion, found



   Cartesian axes

     site n.     atom                  positions (alat units)
         1           Pd  tau(   1) = (   0.0000000   0.0000000   0.0000000  )

     number of k points=     4  Marzari-Vanderbilt smearing, width (Ry)=  0.0350
                       cart. coord. in units 2pi/alat
        k(    1) = (   0.0000000   0.0000000   0.0000000), wk =   0.0740741
        k(    2) = (  -0.3333333   0.3333333  -0.3333333), wk =   0.5925926
        k(    3) = (   0.0000000   0.6666667   0.0000000), wk =   0.4444444
        k(    4) = (   0.6666667  -0.0000000   0.6666667), wk =   0.8888889

     Dense  grid:     2741 G-vectors     FFT dimensions: (  20,  20,  20)

     Estimated max dynamical RAM per process >       6.08 MB

     Estimated total dynamical RAM >      12.16 MB

     Initial potential from superposition of free atoms
     Check: negative starting charge=   -0.084791

     starting charge   15.49999, renormalised to   16.00000

     negative rho (up, down):  8.753E-02 0.000E+00
     Starting wfcs are   12 randomized atomic wfcs

     total cpu time spent up to now is        0.5 secs

     Self-consistent Calculation

     iteration #  1     ecut=    35.00 Ry     beta= 0.70
     Davidson diagonalization with overlap
     ethr =  1.00E-02,  avg # of iterations =  4.0

     negative rho (up, down):  8.716E-02 0.000E+00

     total cpu time spent up to now is        0.5 secs

     total energy              =    -198.16616179 Ry
     Harris-Foulkes estimate   =    -198.99640787 Ry
     estimated scf accuracy    <       1.14935545 Ry

     iteration #  2     ecut=    35.00 Ry     beta= 0.70
     Davidson diagonalization with overlap
     ethr =  7.18E-03,  avg # of iterations =  2.0

     negative rho (up, down):  8.825E-02 0.000E+00

     total cpu time spent up to now is        0.6 secs

     total energy              =    -198.36815017 Ry
     Harris-Foulkes estimate   =    -198.98062542 Ry
     estimated scf accuracy    <       1.26187504 Ry

     iteration #  3     ecut=    35.00 Ry     beta= 0.70
     Davidson diagonalization with overlap
     ethr =  7.18E-03,  avg # of iterations =  2.0

     negative rho (up, down):  8.910E-02 0.000E+00

     total cpu time spent up to now is        0.7 secs

     total energy              =    -198.63507299 Ry
     Harris-Foulkes estimate   =    -198.64715057 Ry
     estimated scf accuracy    <       0.02070647 Ry

     iteration #  4     ecut=    35.00 Ry     beta= 0.70
     Davidson diagonalization with overlap
     ethr =  1.29E-04,  avg # of iterations =  2.0

     negative rho (up, down):  8.907E-02 0.000E+00

     total cpu time spent up to now is        0.7 secs

     total energy              =    -198.64438698 Ry
     Harris-Foulkes estimate   =    -198.64570116 Ry
     estimated scf accuracy    <       0.01059151 Ry

     iteration #  5     ecut=    35.00 Ry     beta= 0.70
     Davidson diagonalization with overlap
     ethr =  6.62E-05,  avg # of iterations =  1.0

     negative rho (up, down):  8.888E-02 0.000E+00

     total cpu time spent up to now is        0.8 secs

     total energy              =    -198.64151305 Ry
     Harris-Foulkes estimate   =    -198.64449698 Ry
     estimated scf accuracy    <       0.00610421 Ry

     iteration #  6     ecut=    35.00 Ry     beta= 0.70
     Davidson diagonalization with overlap
     ethr =  3.82E-05,  avg # of iterations =  2.0

     negative rho (up, down):  8.895E-02 0.000E+00

     total cpu time spent up to now is        0.8 secs

     total energy              =    -198.64294193 Ry
     Harris-Foulkes estimate   =    -198.64309290 Ry
     estimated scf accuracy    <       0.00043806 Ry

     iteration #  7     ecut=    35.00 Ry     beta= 0.70
     Davidson diagonalization with overlap
     ethr =  2.74E-06,  avg # of iterations =  1.2

     negative rho (up, down):  8.904E-02 0.000E+00

     total cpu time spent up to now is        0.8 secs

     total energy              =    -198.64299172 Ry
     Harris-Foulkes estimate   =    -198.64299638 Ry
     estimated scf accuracy    <       0.00000896 Ry

     iteration #  8     ecut=    35.00 Ry     beta= 0.70
     Davidson diagonalization with overlap
     ethr =  5.60E-08,  avg # of iterations =  2.0

     negative rho (up, down):  8.906E-02 0.000E+00

     total cpu time spent up to now is        0.9 secs

     total energy              =    -198.64299429 Ry
     Harris-Foulkes estimate   =    -198.64299517 Ry
     estimated scf accuracy    <       0.00000173 Ry

     iteration #  9     ecut=    35.00 Ry     beta= 0.70
     Davidson diagonalization with overlap
     ethr =  1.08E-08,  avg # of iterations =  2.0

     negative rho (up, down):  8.905E-02 0.000E+00

     total cpu time spent up to now is        0.9 secs

     total energy              =    -198.64299475 Ry
     Harris-Foulkes estimate   =    -198.64299482 Ry
     estimated scf accuracy    <       0.00000024 Ry

     iteration # 10     ecut=    35.00 Ry     beta= 0.70
     Davidson diagonalization with overlap
     ethr =  1.52E-09,  avg # of iterations =  1.0

     negative rho (up, down):  8.905E-02 0.000E+00

     total cpu time spent up to now is        1.0 secs

     End of self-consistent calculation

          k = 0.0000 0.0000 0.0000 (   339 PWs)   bands (ev):

   -31.4886 -31.4886 -31.4886  11.2396  15.4321  15.4321  15.4321  16.9684
    16.9684  36.1502  40.7976  40.7976

          k =-0.3333 0.3333-0.3333 (   359 PWs)   bands (ev):

   -31.7763 -31.5301 -31.5301  13.1622  15.5756  15.5756  16.5703  17.5675
    17.5675  29.6057  36.2746  41.2253

          k = 0.0000 0.6667 0.0000 (   355 PWs)   bands (ev):

   -31.7627 -31.5962 -31.5962  13.4409  13.7257  17.4707  17.4707  17.8024
    17.9214  33.9949  33.9949  34.0503

          k = 0.6667-0.0000 0.6667 (   353 PWs)   bands (ev):

   -31.7476 -31.7458 -31.5836  13.9588  14.6814  15.6147  16.8391  17.7135
    24.1871  27.1162  29.1693  35.9699

     the Fermi energy is    17.8480 ev

!    total energy              =    -198.64299476 Ry
     Harris-Foulkes estimate   =    -198.64299477 Ry
     estimated scf accuracy    <       0.00000002 Ry

     The total energy is the sum of the following terms:

     one-electron contribution =     -44.51427128 Ry
     hartree contribution      =      35.82909703 Ry
     xc contribution           =     -31.33930411 Ry
     ewald contribution        =    -158.61144480 Ry
     smearing contrib. (-TS)   =      -0.00707160 Ry

     convergence has been achieved in  10 iterations

     Writing output data file Pd-kp-conv.save/
 
     init_run     :      0.34s CPU      0.37s WALL (       1 calls)
     electrons    :      0.46s CPU      0.87s WALL (       1 calls)

     Called by init_run:
     wfcinit      :      0.01s CPU      0.02s WALL (       1 calls)
     potinit      :      0.00s CPU      0.02s WALL (       1 calls)
     hinit0       :      0.31s CPU      0.32s WALL (       1 calls)

     Called by electrons:
     c_bands      :      0.25s CPU      0.28s WALL (      10 calls)
     sum_band     :      0.12s CPU      0.12s WALL (      10 calls)
     v_of_rho     :      0.03s CPU      0.04s WALL (      11 calls)
     newd         :      0.06s CPU      0.07s WALL (      11 calls)
     mix_rho      :      0.00s CPU      0.00s WALL (      10 calls)

     Called by c_bands:
     init_us_2    :      0.01s CPU      0.01s WALL (      84 calls)
     cegterg      :      0.23s CPU      0.25s WALL (      40 calls)

     Called by sum_band:
     sum_band:bec :      0.00s CPU      0.00s WALL (      40 calls)
     addusdens    :      0.07s CPU      0.07s WALL (      10 calls)

     Called by *egterg:
     h_psi        :      0.18s CPU      0.20s WALL (     121 calls)
     s_psi        :      0.00s CPU      0.00s WALL (     121 calls)
     g_psi        :      0.00s CPU      0.00s WALL (      77 calls)
     cdiaghg      :      0.03s CPU      0.03s WALL (     117 calls)

     Called by h_psi:
     h_psi:pot    :      0.18s CPU      0.20s WALL (     121 calls)
     h_psi:calbec :      0.00s CPU      0.01s WALL (     121 calls)
     vloc_psi     :      0.17s CPU      0.19s WALL (     121 calls)
     add_vuspsi   :      0.00s CPU      0.00s WALL (     121 calls)

     General routines
     calbec       :      0.01s CPU      0.01s WALL (     161 calls)
     fft          :      0.01s CPU      0.02s WALL (     122 calls)
     ffts         :      0.00s CPU      0.00s WALL (      10 calls)
     fftw         :      0.18s CPU      0.20s WALL (    2814 calls)
 
     Parallel routines
     fft_scatt_xy :      0.03s CPU      0.04s WALL (    2946 calls)
     fft_scatt_yz :      0.05s CPU      0.06s WALL (    2946 calls)
 
     PWSCF        :     0.89s CPU         1.39s WALL

 
   This run was terminated on:  22:46: 2   2Dec2021            

=------------------------------------------------------------------------------=
   JOB DONE.
=------------------------------------------------------------------------------=
