
     Program PWSCF v.6.3 starts on  2Dec2021 at 22:45:52 

     This program is part of the open-source Quantum ESPRESSO suite
     for quantum simulation of materials; please cite
         "P. Giannozzi et al., J. Phys.:Condens. Matter 21 395502 (2009);
         "P. Giannozzi et al., J. Phys.:Condens. Matter 29 465901 (2017);
          URL http://www.quantum-espresso.org", 
     in publications or presentations arising from this work. More details at
     http://www.quantum-espresso.org/quote

     Parallel version (MPI & OpenMP), running on       2 processor cores
     Number of MPI processes:                 2
     Threads/MPI process:                     1

     MPI processes distributed on     1 nodes
     R & G space division:  proc/nbgrp/npool/nimage =       2
     Reading input from pw-input.in

     Current dimensions of program PWSCF are:
     Max number of different atomic species (ntypx) = 10
     Max number of k-points (npk) =  40000
     Max angular momentum in pseudopotentials (lmaxx) =  3

     Subspace diagonalization in iterative solution of the eigenvalue problem:
     a serial algorithm will be used

 
     Parallelization info
     --------------------
     sticks:   dense  smooth     PW     G-vecs:    dense   smooth      PW
     Min         120     120     42                 1210     1210     229
     Max         121     121     43                 1211     1211     230
     Sum         241     241     85                 2421     2421     459
 

     Title: 
     Pd-kp-conv                                                                 


     bravais-lattice index     =            2
     lattice parameter (alat)  =       7.0000  a.u.
     unit-cell volume          =      85.7500 (a.u.)^3
     number of atoms/cell      =            1
     number of atomic types    =            1
     number of electrons       =        16.00
     number of Kohn-Sham states=           12
     kinetic-energy cutoff     =      35.0000  Ry
     charge density cutoff     =     140.0000  Ry
     convergence threshold     =      1.0E-07
     mixing beta               =       0.7000
     number of iterations used =            8  plain     mixing
     Exchange-correlation      =  SLA  PW   PBX  PBC ( 1  4  3  4 0 0)

     celldm(1)=   7.000000  celldm(2)=   0.000000  celldm(3)=   0.000000
     celldm(4)=   0.000000  celldm(5)=   0.000000  celldm(6)=   0.000000

     crystal axes: (cart. coord. in units of alat)
               a(1) = (  -0.500000   0.000000   0.500000 )  
               a(2) = (   0.000000   0.500000   0.500000 )  
               a(3) = (  -0.500000   0.500000   0.000000 )  

     reciprocal axes: (cart. coord. in units 2 pi/alat)
               b(1) = ( -1.000000 -1.000000  1.000000 )  
               b(2) = (  1.000000  1.000000  1.000000 )  
               b(3) = ( -1.000000  1.000000 -1.000000 )  


     PseudoPot. # 1 for Pd read from file:
     ./pd_pbe_v1.4.uspp.F.UPF
     MD5 check sum: 2d733d2bc2cbfd217af676df1668a4bc
     Pseudo is Ultrasoft + core correction, Zval = 16.0
     Generated by new atomic code, or converted to UPF format
     Using radial grid of  887 points,  6 beta functions with: 
                l(1) =   0
                l(2) =   0
                l(3) =   1
                l(4) =   1
                l(5) =   2
                l(6) =   2
     Q(r) pseudized with  8 coefficients,  rinner =    1.130   1.130   1.130
                                                       1.130   1.130

     atomic species   valence    mass     pseudopotential
        Pd            16.00   106.40000     Pd( 1.00)

     48 Sym. Ops., with inversion, found



   Cartesian axes

     site n.     atom                  positions (alat units)
         1           Pd  tau(   1) = (   0.0000000   0.0000000   0.0000000  )

     number of k points=     4  Marzari-Vanderbilt smearing, width (Ry)=  0.0350
                       cart. coord. in units 2pi/alat
        k(    1) = (   0.0000000   0.0000000   0.0000000), wk =   0.0740741
        k(    2) = (  -0.3333333   0.3333333  -0.3333333), wk =   0.5925926
        k(    3) = (   0.0000000   0.6666667   0.0000000), wk =   0.4444444
        k(    4) = (   0.6666667  -0.0000000   0.6666667), wk =   0.8888889

     Dense  grid:     2421 G-vectors     FFT dimensions: (  20,  20,  20)

     Estimated max dynamical RAM per process >       5.47 MB

     Estimated total dynamical RAM >      10.94 MB

     Initial potential from superposition of free atoms
     Check: negative starting charge=   -0.083349

     starting charge   15.49999, renormalised to   16.00000

     negative rho (up, down):  8.604E-02 0.000E+00
     Starting wfcs are   12 randomized atomic wfcs

     total cpu time spent up to now is        0.4 secs

     Self-consistent Calculation

     iteration #  1     ecut=    35.00 Ry     beta= 0.70
     Davidson diagonalization with overlap
     ethr =  1.00E-02,  avg # of iterations =  4.0

     negative rho (up, down):  8.645E-02 0.000E+00

     total cpu time spent up to now is        0.5 secs

     total energy              =    -198.25763842 Ry
     Harris-Foulkes estimate   =    -198.89840244 Ry
     estimated scf accuracy    <       0.90046361 Ry

     iteration #  2     ecut=    35.00 Ry     beta= 0.70
     Davidson diagonalization with overlap
     ethr =  5.63E-03,  avg # of iterations =  2.0

     negative rho (up, down):  8.749E-02 0.000E+00

     total cpu time spent up to now is        0.6 secs

     total energy              =    -198.41100401 Ry
     Harris-Foulkes estimate   =    -198.78598921 Ry
     estimated scf accuracy    <       0.73459842 Ry

     iteration #  3     ecut=    35.00 Ry     beta= 0.70
     Davidson diagonalization with overlap
     ethr =  4.59E-03,  avg # of iterations =  2.0

     negative rho (up, down):  8.900E-02 0.000E+00

     total cpu time spent up to now is        0.6 secs

     total energy              =    -198.59139100 Ry
     Harris-Foulkes estimate   =    -198.60568945 Ry
     estimated scf accuracy    <       0.02193667 Ry

     iteration #  4     ecut=    35.00 Ry     beta= 0.70
     Davidson diagonalization with overlap
     ethr =  1.37E-04,  avg # of iterations =  2.0

     negative rho (up, down):  8.877E-02 0.000E+00

     total cpu time spent up to now is        0.7 secs

     total energy              =    -198.60216100 Ry
     Harris-Foulkes estimate   =    -198.60788130 Ry
     estimated scf accuracy    <       0.02708013 Ry

     iteration #  5     ecut=    35.00 Ry     beta= 0.70
     Davidson diagonalization with overlap
     ethr =  1.37E-04,  avg # of iterations =  1.0

     negative rho (up, down):  8.839E-02 0.000E+00

     total cpu time spent up to now is        0.7 secs

     total energy              =    -198.59895187 Ry
     Harris-Foulkes estimate   =    -198.60301313 Ry
     estimated scf accuracy    <       0.00874674 Ry

     iteration #  6     ecut=    35.00 Ry     beta= 0.70
     Davidson diagonalization with overlap
     ethr =  5.47E-05,  avg # of iterations =  2.0

     negative rho (up, down):  8.846E-02 0.000E+00

     total cpu time spent up to now is        0.8 secs

     total energy              =    -198.60091169 Ry
     Harris-Foulkes estimate   =    -198.60100666 Ry
     estimated scf accuracy    <       0.00040680 Ry

     iteration #  7     ecut=    35.00 Ry     beta= 0.70
     Davidson diagonalization with overlap
     ethr =  2.54E-06,  avg # of iterations =  1.0

     negative rho (up, down):  8.848E-02 0.000E+00

     total cpu time spent up to now is        0.8 secs

     total energy              =    -198.60092916 Ry
     Harris-Foulkes estimate   =    -198.60093455 Ry
     estimated scf accuracy    <       0.00007581 Ry

     iteration #  8     ecut=    35.00 Ry     beta= 0.70
     Davidson diagonalization with overlap
     ethr =  4.74E-07,  avg # of iterations =  1.0

     negative rho (up, down):  8.856E-02 0.000E+00

     total cpu time spent up to now is        0.8 secs

     total energy              =    -198.60090608 Ry
     Harris-Foulkes estimate   =    -198.60092978 Ry
     estimated scf accuracy    <       0.00005330 Ry

     iteration #  9     ecut=    35.00 Ry     beta= 0.70
     Davidson diagonalization with overlap
     ethr =  3.33E-07,  avg # of iterations =  2.0

     negative rho (up, down):  8.856E-02 0.000E+00

     total cpu time spent up to now is        0.9 secs

     total energy              =    -198.60091768 Ry
     Harris-Foulkes estimate   =    -198.60091852 Ry
     estimated scf accuracy    <       0.00000243 Ry

     iteration # 10     ecut=    35.00 Ry     beta= 0.70
     Davidson diagonalization with overlap
     ethr =  1.52E-08,  avg # of iterations =  1.2

     negative rho (up, down):  8.856E-02 0.000E+00

     total cpu time spent up to now is        0.9 secs

     End of self-consistent calculation

          k = 0.0000 0.0000 0.0000 (   307 PWs)   bands (ev):

   -27.3433 -27.3433 -27.3433  14.4851  19.1699  19.1699  19.1699  21.1829
    21.1829  40.9901  46.6533  46.6533

          k =-0.3333 0.3333-0.3333 (   302 PWs)   bands (ev):

   -27.8679 -27.4163 -27.4163  16.4377  19.3414  19.3414  20.5773  21.9574
    21.9574  35.7146  41.3714  48.2891

          k = 0.0000 0.6667 0.0000 (   310 PWs)   bands (ev):

   -27.8418 -27.5360 -27.5360  16.6684  16.9512  21.8252  21.8252  22.2303
    22.2778  40.1364  40.1364  40.3367

          k = 0.6667-0.0000 0.6667 (   284 PWs)   bands (ev):

   -27.8128 -27.8089 -27.5123  17.2499  18.2071  19.4086  20.9748  22.1509
    29.5706  32.9233  35.2863  42.4978

     the Fermi energy is    22.2525 ev

!    total energy              =    -198.60091797 Ry
     Harris-Foulkes estimate   =    -198.60091799 Ry
     estimated scf accuracy    <       0.00000003 Ry

     The total energy is the sum of the following terms:

     one-electron contribution =     -30.80921471 Ry
     hartree contribution      =      31.37970519 Ry
     xc contribution           =     -31.48799673 Ry
     ewald contribution        =    -167.67495590 Ry
     smearing contrib. (-TS)   =      -0.00845581 Ry

     convergence has been achieved in  10 iterations

     Writing output data file Pd-kp-conv.save/
 
     init_run     :      0.33s CPU      0.34s WALL (       1 calls)
     electrons    :      0.42s CPU      0.52s WALL (       1 calls)

     Called by init_run:
     wfcinit      :      0.01s CPU      0.01s WALL (       1 calls)
     potinit      :      0.01s CPU      0.01s WALL (       1 calls)
     hinit0       :      0.30s CPU      0.31s WALL (       1 calls)

     Called by electrons:
     c_bands      :      0.24s CPU      0.26s WALL (      10 calls)
     sum_band     :      0.11s CPU      0.11s WALL (      10 calls)
     v_of_rho     :      0.03s CPU      0.03s WALL (      11 calls)
     newd         :      0.05s CPU      0.06s WALL (      11 calls)
     mix_rho      :      0.00s CPU      0.00s WALL (      10 calls)

     Called by c_bands:
     init_us_2    :      0.01s CPU      0.01s WALL (      84 calls)
     cegterg      :      0.22s CPU      0.24s WALL (      40 calls)

     Called by sum_band:
     sum_band:bec :      0.00s CPU      0.00s WALL (      40 calls)
     addusdens    :      0.06s CPU      0.06s WALL (      10 calls)

     Called by *egterg:
     h_psi        :      0.17s CPU      0.19s WALL (     117 calls)
     s_psi        :      0.00s CPU      0.00s WALL (     117 calls)
     g_psi        :      0.00s CPU      0.00s WALL (      73 calls)
     cdiaghg      :      0.03s CPU      0.03s WALL (     113 calls)

     Called by h_psi:
     h_psi:pot    :      0.17s CPU      0.19s WALL (     117 calls)
     h_psi:calbec :      0.00s CPU      0.01s WALL (     117 calls)
     vloc_psi     :      0.17s CPU      0.18s WALL (     117 calls)
     add_vuspsi   :      0.00s CPU      0.00s WALL (     117 calls)

     General routines
     calbec       :      0.00s CPU      0.01s WALL (     157 calls)
     fft          :      0.01s CPU      0.01s WALL (     122 calls)
     ffts         :      0.00s CPU      0.00s WALL (      10 calls)
     fftw         :      0.17s CPU      0.19s WALL (    2760 calls)
 
     Parallel routines
     fft_scatt_xy :      0.03s CPU      0.04s WALL (    2892 calls)
     fft_scatt_yz :      0.05s CPU      0.05s WALL (    2892 calls)
 
     PWSCF        :     0.85s CPU         1.19s WALL

 
   This run was terminated on:  22:45:54   2Dec2021            

=------------------------------------------------------------------------------=
   JOB DONE.
=------------------------------------------------------------------------------=
