
     Program PWSCF v.6.3 starts on  2Dec2021 at 20:55: 0 

     This program is part of the open-source Quantum ESPRESSO suite
     for quantum simulation of materials; please cite
         "P. Giannozzi et al., J. Phys.:Condens. Matter 21 395502 (2009);
         "P. Giannozzi et al., J. Phys.:Condens. Matter 29 465901 (2017);
          URL http://www.quantum-espresso.org", 
     in publications or presentations arising from this work. More details at
     http://www.quantum-espresso.org/quote

     Parallel version (MPI & OpenMP), running on       2 processor cores
     Number of MPI processes:                 2
     Threads/MPI process:                     1

     MPI processes distributed on     1 nodes
     R & G space division:  proc/nbgrp/npool/nimage =       2
     Reading input from pw-input.in

     Current dimensions of program PWSCF are:
     Max number of different atomic species (ntypx) = 10
     Max number of k-points (npk) =  40000
     Max angular momentum in pseudopotentials (lmaxx) =  3

     Subspace diagonalization in iterative solution of the eigenvalue problem:
     a serial algorithm will be used

 
     Parallelization info
     --------------------
     sticks:   dense  smooth     PW     G-vecs:    dense   smooth      PW
     Min         120     120     42                 1221     1221     264
     Max         121     121     43                 1224     1224     267
     Sum         241     241     85                 2445     2445     531
 

     Title: 
     Pd-kp-conv                                                                 


     bravais-lattice index     =            2
     lattice parameter (alat)  =       7.1000  a.u.
     unit-cell volume          =      89.4777 (a.u.)^3
     number of atoms/cell      =            1
     number of atomic types    =            1
     number of electrons       =        16.00
     number of Kohn-Sham states=           12
     kinetic-energy cutoff     =      35.0000  Ry
     charge density cutoff     =     140.0000  Ry
     convergence threshold     =      1.0E-07
     mixing beta               =       0.7000
     number of iterations used =            8  plain     mixing
     Exchange-correlation      =  SLA  PW   PBX  PBC ( 1  4  3  4 0 0)

     celldm(1)=   7.100000  celldm(2)=   0.000000  celldm(3)=   0.000000
     celldm(4)=   0.000000  celldm(5)=   0.000000  celldm(6)=   0.000000

     crystal axes: (cart. coord. in units of alat)
               a(1) = (  -0.500000   0.000000   0.500000 )  
               a(2) = (   0.000000   0.500000   0.500000 )  
               a(3) = (  -0.500000   0.500000   0.000000 )  

     reciprocal axes: (cart. coord. in units 2 pi/alat)
               b(1) = ( -1.000000 -1.000000  1.000000 )  
               b(2) = (  1.000000  1.000000  1.000000 )  
               b(3) = ( -1.000000  1.000000 -1.000000 )  


     PseudoPot. # 1 for Pd read from file:
     ./pd_pbe_v1.4.uspp.F.UPF
     MD5 check sum: 2d733d2bc2cbfd217af676df1668a4bc
     Pseudo is Ultrasoft + core correction, Zval = 16.0
     Generated by new atomic code, or converted to UPF format
     Using radial grid of  887 points,  6 beta functions with: 
                l(1) =   0
                l(2) =   0
                l(3) =   1
                l(4) =   1
                l(5) =   2
                l(6) =   2
     Q(r) pseudized with  8 coefficients,  rinner =    1.130   1.130   1.130
                                                       1.130   1.130

     atomic species   valence    mass     pseudopotential
        Pd            16.00   106.40000     Pd( 1.00)

     48 Sym. Ops., with inversion, found



   Cartesian axes

     site n.     atom                  positions (alat units)
         1           Pd  tau(   1) = (   0.0000000   0.0000000   0.0000000  )

     number of k points=    72  Marzari-Vanderbilt smearing, width (Ry)=  0.0100
                       cart. coord. in units 2pi/alat
        k(    1) = (   0.0000000   0.0000000   0.0000000), wk =   0.0011574
        k(    2) = (  -0.0833333   0.0833333  -0.0833333), wk =   0.0092593
        k(    3) = (  -0.1666667   0.1666667  -0.1666667), wk =   0.0092593
        k(    4) = (  -0.2500000   0.2500000  -0.2500000), wk =   0.0092593
        k(    5) = (  -0.3333333   0.3333333  -0.3333333), wk =   0.0092593
        k(    6) = (  -0.4166667   0.4166667  -0.4166667), wk =   0.0092593
        k(    7) = (   0.5000000  -0.5000000   0.5000000), wk =   0.0046296
        k(    8) = (   0.0000000   0.1666667   0.0000000), wk =   0.0069444
        k(    9) = (  -0.0833333   0.2500000  -0.0833333), wk =   0.0277778
        k(   10) = (  -0.1666667   0.3333333  -0.1666667), wk =   0.0277778
        k(   11) = (  -0.2500000   0.4166667  -0.2500000), wk =   0.0277778
        k(   12) = (  -0.3333333   0.5000000  -0.3333333), wk =   0.0277778
        k(   13) = (   0.5833333  -0.4166667   0.5833333), wk =   0.0277778
        k(   14) = (   0.5000000  -0.3333333   0.5000000), wk =   0.0277778
        k(   15) = (   0.4166667  -0.2500000   0.4166667), wk =   0.0277778
        k(   16) = (   0.3333333  -0.1666667   0.3333333), wk =   0.0277778
        k(   17) = (   0.2500000  -0.0833333   0.2500000), wk =   0.0277778
        k(   18) = (   0.1666667  -0.0000000   0.1666667), wk =   0.0138889
        k(   19) = (   0.0000000   0.3333333   0.0000000), wk =   0.0069444
        k(   20) = (  -0.0833333   0.4166667  -0.0833333), wk =   0.0277778
        k(   21) = (  -0.1666667   0.5000000  -0.1666667), wk =   0.0277778
        k(   22) = (  -0.2500000   0.5833333  -0.2500000), wk =   0.0277778
        k(   23) = (   0.6666667  -0.3333333   0.6666667), wk =   0.0277778
        k(   24) = (   0.5833333  -0.2500000   0.5833333), wk =   0.0277778
        k(   25) = (   0.5000000  -0.1666667   0.5000000), wk =   0.0277778
        k(   26) = (   0.4166667  -0.0833333   0.4166667), wk =   0.0277778
        k(   27) = (   0.3333333   0.0000000   0.3333333), wk =   0.0138889
        k(   28) = (   0.0000000   0.5000000   0.0000000), wk =   0.0069444
        k(   29) = (  -0.0833333   0.5833333  -0.0833333), wk =   0.0277778
        k(   30) = (  -0.1666667   0.6666667  -0.1666667), wk =   0.0277778
        k(   31) = (   0.7500000  -0.2500000   0.7500000), wk =   0.0277778
        k(   32) = (   0.6666667  -0.1666667   0.6666667), wk =   0.0277778
        k(   33) = (   0.5833333  -0.0833333   0.5833333), wk =   0.0277778
        k(   34) = (   0.5000000   0.0000000   0.5000000), wk =   0.0138889
        k(   35) = (   0.0000000   0.6666667   0.0000000), wk =   0.0069444
        k(   36) = (  -0.0833333   0.7500000  -0.0833333), wk =   0.0277778
        k(   37) = (   0.8333333  -0.1666667   0.8333333), wk =   0.0277778
        k(   38) = (   0.7500000  -0.0833333   0.7500000), wk =   0.0277778
        k(   39) = (   0.6666667  -0.0000000   0.6666667), wk =   0.0138889
        k(   40) = (   0.0000000   0.8333333   0.0000000), wk =   0.0069444
        k(   41) = (   0.9166667  -0.0833333   0.9166667), wk =   0.0277778
        k(   42) = (   0.8333333   0.0000000   0.8333333), wk =   0.0138889
        k(   43) = (   0.0000000  -1.0000000   0.0000000), wk =   0.0034722
        k(   44) = (  -0.1666667   0.3333333   0.0000000), wk =   0.0277778
        k(   45) = (  -0.2500000   0.4166667  -0.0833333), wk =   0.0555556
        k(   46) = (  -0.3333333   0.5000000  -0.1666667), wk =   0.0555556
        k(   47) = (   0.5833333  -0.4166667   0.7500000), wk =   0.0555556
        k(   48) = (   0.5000000  -0.3333333   0.6666667), wk =   0.0277778
        k(   49) = (  -0.1666667   0.5000000   0.0000000), wk =   0.0277778
        k(   50) = (  -0.2500000   0.5833333  -0.0833333), wk =   0.0555556
        k(   51) = (   0.6666667  -0.3333333   0.8333333), wk =   0.0555556
        k(   52) = (   0.5833333  -0.2500000   0.7500000), wk =   0.0555556
        k(   53) = (   0.5000000  -0.1666667   0.6666667), wk =   0.0555556
        k(   54) = (   0.4166667  -0.0833333   0.5833333), wk =   0.0555556
        k(   55) = (   0.3333333   0.0000000   0.5000000), wk =   0.0277778
        k(   56) = (  -0.1666667   0.6666667  -0.0000000), wk =   0.0277778
        k(   57) = (   0.7500000  -0.2500000   0.9166667), wk =   0.0555556
        k(   58) = (   0.6666667  -0.1666667   0.8333333), wk =   0.0555556
        k(   59) = (   0.5833333  -0.0833333   0.7500000), wk =   0.0555556
        k(   60) = (   0.5000000   0.0000000   0.6666667), wk =   0.0277778
        k(   61) = (   0.8333333  -0.1666667   1.0000000), wk =   0.0277778
        k(   62) = (   0.7500000  -0.0833333   0.9166667), wk =   0.0555556
        k(   63) = (   0.6666667   0.0000000   0.8333333), wk =   0.0277778
        k(   64) = (  -0.1666667  -1.0000000  -0.0000000), wk =   0.0138889
        k(   65) = (   0.6666667  -0.3333333   1.0000000), wk =   0.0277778
        k(   66) = (   0.5833333  -0.2500000   0.9166667), wk =   0.0555556
        k(   67) = (   0.5000000  -0.1666667   0.8333333), wk =   0.0277778
        k(   68) = (   0.6666667  -0.1666667   1.0000000), wk =   0.0277778
        k(   69) = (   0.5833333  -0.0833333   0.9166667), wk =   0.0555556
        k(   70) = (   0.5000000   0.0000000   0.8333333), wk =   0.0277778
        k(   71) = (  -0.3333333  -1.0000000   0.0000000), wk =   0.0138889
        k(   72) = (  -0.5000000  -1.0000000   0.0000000), wk =   0.0069444

     Dense  grid:     2445 G-vectors     FFT dimensions: (  20,  20,  20)

     Estimated max dynamical RAM per process >       7.48 MB

     Estimated total dynamical RAM >      14.96 MB

     Initial potential from superposition of free atoms
     Check: negative starting charge=   -0.083979

     starting charge   15.49999, renormalised to   16.00000

     negative rho (up, down):  8.669E-02 0.000E+00
     Starting wfcs are   12 randomized atomic wfcs

     total cpu time spent up to now is        0.7 secs

     Self-consistent Calculation

     iteration #  1     ecut=    35.00 Ry     beta= 0.70
     Davidson diagonalization with overlap
     ethr =  1.00E-02,  avg # of iterations =  3.6

     negative rho (up, down):  8.652E-02 0.000E+00

     total cpu time spent up to now is        1.7 secs

     total energy              =    -198.30810863 Ry
     Harris-Foulkes estimate   =    -198.96887715 Ry
     estimated scf accuracy    <       0.92157405 Ry

     iteration #  2     ecut=    35.00 Ry     beta= 0.70
     Davidson diagonalization with overlap
     ethr =  5.76E-03,  avg # of iterations =  2.0

     negative rho (up, down):  8.776E-02 0.000E+00

     total cpu time spent up to now is        2.2 secs

     total energy              =    -198.54623514 Ry
     Harris-Foulkes estimate   =    -198.87990122 Ry
     estimated scf accuracy    <       0.62728124 Ry

     iteration #  3     ecut=    35.00 Ry     beta= 0.70
     Davidson diagonalization with overlap
     ethr =  3.92E-03,  avg # of iterations =  2.0

     negative rho (up, down):  8.825E-02 0.000E+00

     total cpu time spent up to now is        2.7 secs

     total energy              =    -198.68572568 Ry
     Harris-Foulkes estimate   =    -198.68684056 Ry
     estimated scf accuracy    <       0.00230611 Ry

     iteration #  4     ecut=    35.00 Ry     beta= 0.70
     Davidson diagonalization with overlap
     ethr =  1.44E-05,  avg # of iterations =  2.1

     negative rho (up, down):  8.841E-02 0.000E+00

     total cpu time spent up to now is        3.2 secs

     total energy              =    -198.68633263 Ry
     Harris-Foulkes estimate   =    -198.68635062 Ry
     estimated scf accuracy    <       0.00003826 Ry

     iteration #  5     ecut=    35.00 Ry     beta= 0.70
     Davidson diagonalization with overlap
     ethr =  2.39E-07,  avg # of iterations =  2.1

     negative rho (up, down):  8.845E-02 0.000E+00

     total cpu time spent up to now is        3.8 secs

     End of self-consistent calculation

          k = 0.0000 0.0000 0.0000 (   331 PWs)   bands (ev):

   -28.3410 -28.3410 -28.3410  13.6085  18.2373  18.2373  18.2373  20.1566
    20.1566  39.6902  45.1176  45.1176

          k =-0.0833 0.0833-0.0833 (   319 PWs)   bands (ev):

   -28.3819 -28.3465 -28.3465  13.8853  18.1362  18.3380  18.3380  20.1096
    20.1096  39.9974  43.3919  45.4411

          k =-0.1667 0.1667-0.1667 (   311 PWs)   bands (ev):

   -28.4943 -28.3618 -28.3618  14.6227  17.9617  18.5411  18.5411  20.0757
    20.0757  40.0374  41.1224  46.2856

          k =-0.2500 0.2500-0.2500 (   311 PWs)   bands (ev):

   -28.6455 -28.3831 -28.3831  15.3934  18.2199  18.5808  18.5808  20.3301
    20.3301  37.2526  40.8629  47.1133

          k =-0.3333 0.3333-0.3333 (   308 PWs)   bands (ev):

   -28.7943 -28.4041 -28.4041  15.5932  18.4170  18.4170  19.5210  20.8743
    20.8743  34.1067  40.0109  46.4165

          k =-0.4167 0.4167-0.4167 (   317 PWs)   bands (ev):

   -28.9021 -28.4197 -28.4197  15.4889  18.2432  18.2432  21.3649  21.3862
    21.3862  31.2484  39.2181  45.0852

          k = 0.5000-0.5000 0.5000 (   302 PWs)   bands (ev):

   -28.9406 -28.4248 -28.4248  15.4279  18.1765  18.1765  21.5965  21.5965
    22.4080  29.8721  38.9262  44.5526

          k = 0.0000 0.1667 0.0000 (   315 PWs)   bands (ev):

   -28.3808 -28.3556 -28.3556  13.9779  18.0207  18.4188  18.4188  19.9317
    20.2450  40.1269  43.7916  44.9011

          k =-0.0833 0.2500-0.0833 (   316 PWs)   bands (ev):

   -28.4643 -28.3745 -28.3667  14.5710  17.7882  18.6300  18.6411  19.7535
    20.3241  40.5798  41.6989  44.7959

          k =-0.1667 0.3333-0.1667 (   313 PWs)   bands (ev):

   -28.5998 -28.3975 -28.3848  15.3972  17.7258  18.6454  18.7720  20.0080
    20.5553  38.4395  41.1708  44.7450

          k =-0.2500 0.4167-0.2500 (   310 PWs)   bands (ev):

   -28.7459 -28.4183 -28.4089  15.7860  18.3647  18.4445  18.6748  20.9014
    21.0218  35.2818  40.4836  44.3337

          k =-0.3333 0.5000-0.3333 (   315 PWs)   bands (ev):

   -28.8642 -28.4330 -28.4320  15.7126  18.1310  18.4891  19.6028  21.4663
    22.2676  32.1834  39.6199  43.7945

          k = 0.5833-0.4167 0.5833 (   317 PWs)   bands (ev):

   -28.9241 -28.4502 -28.4346  15.6216  18.0164  18.3602  20.3664  21.6082
    23.6232  30.0269  39.1504  43.6243

          k = 0.5000-0.3333 0.5000 (   317 PWs)   bands (ev):

   -28.9111 -28.4557 -28.4254  15.6514  18.0652  18.3575  20.3360  21.3301
    23.3725  30.5586  39.2069  43.1560

          k = 0.4167-0.2500 0.4167 (   313 PWs)   bands (ev):

   -28.8287 -28.4478 -28.4068  15.7772  18.2435  18.4893  19.4115  20.7367
    22.1654  33.1981  39.7475  43.5928

          k = 0.3333-0.1667 0.3333 (   308 PWs)   bands (ev):

   -28.6978 -28.4282 -28.3838  15.7607  18.1235  18.5688  18.6909  20.0797
    21.1991  36.3606  40.5176  44.6363

          k = 0.2500-0.0833 0.2500 (   314 PWs)   bands (ev):

   -28.5537 -28.4013 -28.3628  15.1387  17.7573  18.6556  18.7229  19.7404
    20.5399  39.3725  40.9117  44.9173

          k = 0.1667-0.0000 0.1667 (   315 PWs)   bands (ev):

   -28.4374 -28.3714 -28.3491  14.3235  17.9456  18.4811  18.5316  19.8824
    20.2402  40.3944  42.0263  44.7465

          k = 0.0000 0.3333 0.0000 (   307 PWs)   bands (ev):

   -28.4890 -28.3965 -28.3965  14.9637  17.4636  18.9440  18.9440  19.4332
    20.4866  41.2549  42.2121  43.6448

          k =-0.0833 0.4167-0.0833 (   308 PWs)   bands (ev):

   -28.5862 -28.4227 -28.4190  15.6469  17.1819  18.8438  19.2217  19.8480
    20.7048  39.8975  41.6777  42.7520

          k =-0.1667 0.5000-0.1667 (   313 PWs)   bands (ev):

   -28.7094 -28.4473 -28.4456  16.1320  17.3100  18.4517  19.2350  21.1033
    21.1279  36.7152  40.9667  42.0556

          k =-0.2500 0.5833-0.2500 (   316 PWs)   bands (ev):

   -28.8171 -28.4821 -28.4592  16.1105  17.7238  18.4619  19.0674  21.5433
    22.8916  33.4017  39.9130  41.7031

          k = 0.6667-0.3333 0.6667 (   315 PWs)   bands (ev):

   -28.8809 -28.5142 -28.4601  16.0582  17.6506  18.8922  19.0629  21.6469
    24.9015  30.5851  39.0663  42.0060

          k = 0.5833-0.2500 0.5833 (   313 PWs)   bands (ev):

   -28.8860 -28.5340 -28.4477  16.1218  17.6600  18.8090  19.2930  21.3205
    25.4893  30.0893  38.5425  41.8401

          k = 0.5000-0.1667 0.5000 (   314 PWs)   bands (ev):

   -28.8338 -28.5339 -28.4254  16.2966  17.8382  18.8315  18.8613  20.6679
    24.0428  32.5648  38.4085  42.0238

          k = 0.4167-0.0833 0.4167 (   313 PWs)   bands (ev):

   -28.7414 -28.5092 -28.3994  16.4542  17.7546  18.3095  19.0504  19.9041
    22.5763  35.7241  38.6821  43.1045

          k = 0.3333 0.0000 0.3333 (   317 PWs)   bands (ev):

   -28.6389 -28.4609 -28.3766  15.9795  17.4783  18.5572  19.1544  19.4186
    21.3843  38.3800  39.5434  45.0611

          k = 0.0000 0.5000 0.0000 (   311 PWs)   bands (ev):

   -28.6329 -28.4525 -28.4525  15.9221  16.7727  19.4520  19.7576  19.7576
    20.8291  40.9666  41.1649  41.1649

          k =-0.0833 0.5833-0.0833 (   314 PWs)   bands (ev):

   -28.7182 -28.4844 -28.4785  16.1249  16.5456  19.2862  20.0021  21.1084
    21.1622  38.2025  40.0413  40.2953

          k =-0.1667 0.6667-0.1667 (   316 PWs)   bands (ev):

   -28.7966 -28.5290 -28.4939  16.1243  16.7264  19.0094  19.8949  21.5901
    23.1811  34.8583  38.8496  39.5318

          k = 0.7500-0.2500 0.7500 (   315 PWs)   bands (ev):

   -28.8397 -28.5823 -28.4946  16.1635  17.0548  18.8158  19.6929  21.7031
    25.6524  31.6957  37.4685  39.8409

          k = 0.6667-0.1667 0.6667 (   307 PWs)   bands (ev):

   -28.8378 -28.6282 -28.4803  16.3827  17.3160  18.6413  19.5210  21.3746
    27.5692  29.8694  36.3163  41.0508

          k = 0.5833-0.0833 0.5833 (   311 PWs)   bands (ev):

   -28.8049 -28.6417 -28.4551  16.7533  17.5380  18.2519  19.4263  20.7361
    26.0577  32.2476  35.5900  42.2452

          k = 0.5000 0.0000 0.5000 (   315 PWs)   bands (ev):

   -28.7725 -28.5956 -28.4255  17.0753  17.5199  17.9684  19.3597  20.0911
    24.2215  35.2725  35.6618  42.4814

          k = 0.0000 0.6667 0.0000 (   315 PWs)   bands (ev):

   -28.7723 -28.5080 -28.5080  15.8653  16.1482  20.7325  20.7325  21.0945
    21.1882  38.5038  38.5038  38.7043

          k =-0.0833 0.7500-0.0833 (   318 PWs)   bands (ev):

   -28.8270 -28.5427 -28.5265  15.7574  16.0217  20.4332  20.8084  21.5862
    23.1863  36.2205  37.0848  37.6779

          k = 0.8333-0.1667 0.8333 (   311 PWs)   bands (ev):

   -28.8468 -28.5999 -28.5290  15.8046  16.2484  19.8798  20.6036  21.7718
    25.7752  33.2569  35.5603  37.7955

          k = 0.7500-0.0833 0.7500 (   309 PWs)   bands (ev):

   -28.8187 -28.6732 -28.5148  16.0360  16.7373  19.1975  20.3354  21.5045
    28.5841  30.5771  34.2708  38.9017

          k = 0.6667-0.0000 0.6667 (   309 PWs)   bands (ev):

   -28.7475 -28.7444 -28.4878  16.4377  17.3223  18.4453  19.9687  21.0371
    28.1541  31.3782  33.6843  40.7666

          k = 0.0000 0.8333 0.0000 (   322 PWs)   bands (ev):

   -28.8717 -28.5486 -28.5486  15.4339  15.7249  21.4612  21.6040  21.6040
    23.5614  35.3903  36.4878  36.4878

          k = 0.9167-0.0833 0.9167 (   316 PWs)   bands (ev):

   -28.8877 -28.5766 -28.5542  15.4131  15.7342  21.2375  21.3339  21.8690
    25.3826  34.0395  34.9888  36.2879

          k = 0.8333 0.0000 0.8333 (   314 PWs)   bands (ev):

   -28.8621 -28.6289 -28.5419  15.6441  16.0922  20.2676  20.9918  21.7255
    27.4305  32.5855  33.6213  37.1759

          k = 0.0000-1.0000 0.0000 (   302 PWs)   bands (ev):

   -28.9065 -28.5630 -28.5630  15.2465  15.5766  21.5658  21.9781  21.9781
    25.0033  33.5844  35.7200  35.7200

          k =-0.1667 0.3333 0.0000 (   312 PWs)   bands (ev):

   -28.5436 -28.4139 -28.3772  15.2470  17.5070  18.7215  18.9475  19.6304
    20.6101  40.3159  40.7606  44.1580

          k =-0.2500 0.4167-0.0833 (   310 PWs)   bands (ev):

   -28.6612 -28.4533 -28.3952  16.0082  17.4598  18.4570  19.1162  19.9667
    21.3158  37.6771  40.3007  43.7013

          k =-0.3333 0.5000-0.1667 (   312 PWs)   bands (ev):

   -28.7822 -28.4823 -28.4188  16.1544  18.0932  18.1958  18.9789  20.7162
    22.4621  34.4620  39.7410  42.3325

          k = 0.5833-0.4167 0.7500 (   312 PWs)   bands (ev):

   -28.8707 -28.4989 -28.4396  16.0231  17.8226  18.7203  19.2025  21.3069
    24.0266  31.4264  39.3099  41.5927

          k = 0.5000-0.3333 0.6667 (   310 PWs)   bands (ev):

   -28.9029 -28.5040 -28.4480  15.9609  17.7235  18.6823  19.5604  21.5016
    25.1275  29.8143  39.1525  41.4423

          k =-0.1667 0.5000 0.0000 (   315 PWs)   bands (ev):

   -28.6672 -28.4718 -28.4337  16.1885  16.8976  18.6392  19.7504  20.1519
    21.2975  38.8795  39.7791  42.2084

          k =-0.2500 0.5833-0.0833 (   314 PWs)   bands (ev):

   -28.7568 -28.5169 -28.4549  16.4222  17.0441  18.3311  19.7807  20.8317
    22.6349  35.9395  38.9014  40.6863

          k = 0.6667-0.3333 0.8333 (   315 PWs)   bands (ev):

   -28.8267 -28.5541 -28.4741  16.3620  17.3571  18.3214  19.5583  21.3905
    24.5739  32.6708  38.6853  39.4264

          k = 0.5833-0.2500 0.7500 (   309 PWs)   bands (ev):

   -28.8572 -28.5823 -28.4781  16.4157  17.3245  18.6447  19.3345  21.4867
    26.6392  30.0919  38.0472  39.4115

          k = 0.5000-0.1667 0.6667 (   309 PWs)   bands (ev):

   -28.8429 -28.5935 -28.4648  16.5794  17.3669  18.5423  19.3033  21.1718
    26.1299  30.9602  37.3243  40.2009

          k = 0.4167-0.0833 0.5833 (   315 PWs)   bands (ev):

   -28.7937 -28.5758 -28.4404  16.7889  17.6371  17.8626  19.4853  20.5442
    24.2603  33.9686  37.0998  41.1768

          k = 0.3333 0.0000 0.5000 (   314 PWs)   bands (ev):

   -28.7282 -28.5243 -28.4142  16.7969  17.2113  18.0622  19.6996  19.7952
    22.6305  36.8196  37.7838  42.4203

          k =-0.1667 0.6667-0.0000 (   317 PWs)   bands (ev):

   -28.7799 -28.5294 -28.4971  16.1373  16.3323  19.3272  20.7241  20.9421
    22.6849  37.2129  37.6554  38.8520

          k = 0.7500-0.2500 0.9167 (   315 PWs)   bands (ev):

   -28.8205 -28.5801 -28.5145  16.1404  16.5031  19.0422  20.5126  21.4598
    24.8297  34.2130  37.2227  37.3042

          k = 0.6667-0.1667 0.8333 (   311 PWs)   bands (ev):

   -28.8234 -28.6396 -28.5156  16.2632  16.8802  18.7083  20.1382  21.5921
    27.4069  31.2426  35.8589  37.8104

          k = 0.5833-0.0833 0.7500 (   310 PWs)   bands (ev):

   -28.7914 -28.6900 -28.4985  16.5836  17.2471  18.2647  19.8672  21.2861
    28.3253  30.6777  34.7174  38.9609

          k = 0.5000 0.0000 0.6667 (   307 PWs)   bands (ev):

   -28.7815 -28.6662 -28.4701  17.0434  17.5283  17.6396  19.7760  20.7747
    26.2232  33.5863  34.2462  40.2020

          k = 0.8333-0.1667 1.0000 (   316 PWs)   bands (ev):

   -28.8570 -28.5715 -28.5462  15.6849  15.9448  20.2937  21.2791  21.6015
    24.9328  35.2655  35.8273  35.8552

          k = 0.7500-0.0833 0.9167 (   315 PWs)   bands (ev):

   -28.8488 -28.6239 -28.5490  15.8273  16.2140  19.7460  20.8379  21.8116
    27.2646  33.0382  34.2058  36.2233

          k = 0.6667 0.0000 0.8333 (   312 PWs)   bands (ev):

   -28.8015 -28.6922 -28.5301  16.1426  16.7592  18.9499  20.3647  21.6037
    29.5550  30.6219  33.5167  37.4395

          k =-0.1667-1.0000-0.0000 (   312 PWs)   bands (ev):

   -28.8843 -28.5866 -28.5646  15.4903  15.8079  20.8117  21.2480  21.9767
    26.3970  33.4835  35.1072  35.1596

          k = 0.6667-0.3333 1.0000 (   318 PWs)   bands (ev):

   -28.7897 -28.5875 -28.4776  16.8392  16.8600  18.0334  20.3343  20.7173
    24.4657  35.4327  35.7932  39.2389

          k = 0.5833-0.2500 0.9167 (   313 PWs)   bands (ev):

   -28.8049 -28.6400 -28.5016  16.8082  17.1045  17.9480  20.0122  21.2738
    26.6191  32.4113  35.8168  37.8934

          k = 0.5000-0.1667 0.8333 (   312 PWs)   bands (ev):

   -28.8086 -28.6599 -28.5118  16.8726  17.0246  18.0952  19.8044  21.4891
    28.5806  30.0655  36.5054  36.8315

          k = 0.6667-0.1667 1.0000 (   309 PWs)   bands (ev):

   -28.8168 -28.6335 -28.5396  16.3027  16.5927  18.7082  20.5637  21.5954
    26.9607  34.1429  34.3296  35.8566

          k = 0.5833-0.0833 0.9167 (   312 PWs)   bands (ev):

   -28.7835 -28.6921 -28.5491  16.4452  17.0346  18.2398  20.1495  21.7906
    29.4266  31.3875  34.2544  35.3549

          k = 0.5000 0.0000 0.8333 (   313 PWs)   bands (ev):

   -28.7586 -28.7179 -28.5325  16.6760  17.5068  17.6263  20.0166  21.5882
    28.8553  31.9235  33.6800  36.5241

          k =-0.3333-1.0000 0.0000 (   308 PWs)   bands (ev):

   -28.8222 -28.6503 -28.5668  16.0840  16.4943  19.0918  20.4995  21.9779
    28.7768  33.2361  33.4798  34.4162

          k =-0.5000-1.0000 0.0000 (   308 PWs)   bands (ev):

   -28.7366 -28.7366 -28.5684  16.4747  17.6072  17.6072  20.0241  21.9790
    31.2481  31.2481  33.0878  34.1700

     the Fermi energy is    21.5936 ev

!    total energy              =    -198.68634041 Ry
     Harris-Foulkes estimate   =    -198.68634032 Ry
     estimated scf accuracy    <       0.00000007 Ry

     The total energy is the sum of the following terms:

     one-electron contribution =     -34.52589143 Ry
     hartree contribution      =      32.61729900 Ry
     xc contribution           =     -31.46442963 Ry
     ewald contribution        =    -165.31333683 Ry
     smearing contrib. (-TS)   =       0.00001848 Ry

     convergence has been achieved in   5 iterations

     Writing output data file Pd-kp-conv.save/
 
     init_run     :      0.51s CPU      0.56s WALL (       1 calls)
     electrons    :      2.52s CPU      3.17s WALL (       1 calls)

     Called by init_run:
     wfcinit      :      0.19s CPU      0.21s WALL (       1 calls)
     potinit      :      0.01s CPU      0.02s WALL (       1 calls)
     hinit0       :      0.30s CPU      0.31s WALL (       1 calls)

     Called by electrons:
     c_bands      :      2.12s CPU      2.68s WALL (       5 calls)
     sum_band     :      0.37s CPU      0.44s WALL (       5 calls)
     v_of_rho     :      0.02s CPU      0.02s WALL (       6 calls)
     newd         :      0.03s CPU      0.03s WALL (       6 calls)
     mix_rho      :      0.00s CPU      0.00s WALL (       5 calls)

     Called by c_bands:
     init_us_2    :      0.06s CPU      0.06s WALL (     792 calls)
     cegterg      :      1.95s CPU      2.14s WALL (     360 calls)

     Called by sum_band:
     sum_band:bec :      0.00s CPU      0.00s WALL (     360 calls)
     addusdens    :      0.03s CPU      0.03s WALL (       5 calls)

     Called by *egterg:
     h_psi        :      1.60s CPU      1.76s WALL (    1278 calls)
     s_psi        :      0.03s CPU      0.03s WALL (    1278 calls)
     g_psi        :      0.02s CPU      0.02s WALL (     846 calls)
     cdiaghg      :      0.31s CPU      0.33s WALL (    1206 calls)

     Called by h_psi:
     h_psi:pot    :      1.59s CPU      1.75s WALL (    1278 calls)
     h_psi:calbec :      0.04s CPU      0.04s WALL (    1278 calls)
     vloc_psi     :      1.51s CPU      1.66s WALL (    1278 calls)
     add_vuspsi   :      0.03s CPU      0.03s WALL (    1278 calls)

     General routines
     calbec       :      0.04s CPU      0.05s WALL (    1638 calls)
     fft          :      0.01s CPU      0.01s WALL (      67 calls)
     ffts         :      0.00s CPU      0.00s WALL (       5 calls)
     fftw         :      1.55s CPU      1.71s WALL (   27666 calls)
 
     Parallel routines
     fft_scatt_xy :      0.28s CPU      0.31s WALL (   27738 calls)
     fft_scatt_yz :      0.40s CPU      0.44s WALL (   27738 calls)
 
     PWSCF        :     3.16s CPU         4.16s WALL

 
   This run was terminated on:  20:55: 5   2Dec2021            

=------------------------------------------------------------------------------=
   JOB DONE.
=------------------------------------------------------------------------------=
