
     Program PWSCF v.6.3 starts on  2Dec2021 at 20:55:27 

     This program is part of the open-source Quantum ESPRESSO suite
     for quantum simulation of materials; please cite
         "P. Giannozzi et al., J. Phys.:Condens. Matter 21 395502 (2009);
         "P. Giannozzi et al., J. Phys.:Condens. Matter 29 465901 (2017);
          URL http://www.quantum-espresso.org", 
     in publications or presentations arising from this work. More details at
     http://www.quantum-espresso.org/quote

     Parallel version (MPI & OpenMP), running on       2 processor cores
     Number of MPI processes:                 2
     Threads/MPI process:                     1

     MPI processes distributed on     1 nodes
     R & G space division:  proc/nbgrp/npool/nimage =       2
     Reading input from pw-input.in

     Current dimensions of program PWSCF are:
     Max number of different atomic species (ntypx) = 10
     Max number of k-points (npk) =  40000
     Max angular momentum in pseudopotentials (lmaxx) =  3

     Subspace diagonalization in iterative solution of the eigenvalue problem:
     a serial algorithm will be used

 
     Parallelization info
     --------------------
     sticks:   dense  smooth     PW     G-vecs:    dense   smooth      PW
     Min         141     141     45                 1559     1559     304
     Max         142     142     46                 1560     1560     305
     Sum         283     283     91                 3119     3119     609
 

     Title: 
     Pd-kp-conv                                                                 


     bravais-lattice index     =            2
     lattice parameter (alat)  =       7.6000  a.u.
     unit-cell volume          =     109.7440 (a.u.)^3
     number of atoms/cell      =            1
     number of atomic types    =            1
     number of electrons       =        16.00
     number of Kohn-Sham states=           12
     kinetic-energy cutoff     =      35.0000  Ry
     charge density cutoff     =     140.0000  Ry
     convergence threshold     =      1.0E-07
     mixing beta               =       0.7000
     number of iterations used =            8  plain     mixing
     Exchange-correlation      =  SLA  PW   PBX  PBC ( 1  4  3  4 0 0)

     celldm(1)=   7.600000  celldm(2)=   0.000000  celldm(3)=   0.000000
     celldm(4)=   0.000000  celldm(5)=   0.000000  celldm(6)=   0.000000

     crystal axes: (cart. coord. in units of alat)
               a(1) = (  -0.500000   0.000000   0.500000 )  
               a(2) = (   0.000000   0.500000   0.500000 )  
               a(3) = (  -0.500000   0.500000   0.000000 )  

     reciprocal axes: (cart. coord. in units 2 pi/alat)
               b(1) = ( -1.000000 -1.000000  1.000000 )  
               b(2) = (  1.000000  1.000000  1.000000 )  
               b(3) = ( -1.000000  1.000000 -1.000000 )  


     PseudoPot. # 1 for Pd read from file:
     ./pd_pbe_v1.4.uspp.F.UPF
     MD5 check sum: 2d733d2bc2cbfd217af676df1668a4bc
     Pseudo is Ultrasoft + core correction, Zval = 16.0
     Generated by new atomic code, or converted to UPF format
     Using radial grid of  887 points,  6 beta functions with: 
                l(1) =   0
                l(2) =   0
                l(3) =   1
                l(4) =   1
                l(5) =   2
                l(6) =   2
     Q(r) pseudized with  8 coefficients,  rinner =    1.130   1.130   1.130
                                                       1.130   1.130

     atomic species   valence    mass     pseudopotential
        Pd            16.00   106.40000     Pd( 1.00)

     48 Sym. Ops., with inversion, found



   Cartesian axes

     site n.     atom                  positions (alat units)
         1           Pd  tau(   1) = (   0.0000000   0.0000000   0.0000000  )

     number of k points=    72  Marzari-Vanderbilt smearing, width (Ry)=  0.0100
                       cart. coord. in units 2pi/alat
        k(    1) = (   0.0000000   0.0000000   0.0000000), wk =   0.0011574
        k(    2) = (  -0.0833333   0.0833333  -0.0833333), wk =   0.0092593
        k(    3) = (  -0.1666667   0.1666667  -0.1666667), wk =   0.0092593
        k(    4) = (  -0.2500000   0.2500000  -0.2500000), wk =   0.0092593
        k(    5) = (  -0.3333333   0.3333333  -0.3333333), wk =   0.0092593
        k(    6) = (  -0.4166667   0.4166667  -0.4166667), wk =   0.0092593
        k(    7) = (   0.5000000  -0.5000000   0.5000000), wk =   0.0046296
        k(    8) = (   0.0000000   0.1666667   0.0000000), wk =   0.0069444
        k(    9) = (  -0.0833333   0.2500000  -0.0833333), wk =   0.0277778
        k(   10) = (  -0.1666667   0.3333333  -0.1666667), wk =   0.0277778
        k(   11) = (  -0.2500000   0.4166667  -0.2500000), wk =   0.0277778
        k(   12) = (  -0.3333333   0.5000000  -0.3333333), wk =   0.0277778
        k(   13) = (   0.5833333  -0.4166667   0.5833333), wk =   0.0277778
        k(   14) = (   0.5000000  -0.3333333   0.5000000), wk =   0.0277778
        k(   15) = (   0.4166667  -0.2500000   0.4166667), wk =   0.0277778
        k(   16) = (   0.3333333  -0.1666667   0.3333333), wk =   0.0277778
        k(   17) = (   0.2500000  -0.0833333   0.2500000), wk =   0.0277778
        k(   18) = (   0.1666667  -0.0000000   0.1666667), wk =   0.0138889
        k(   19) = (   0.0000000   0.3333333   0.0000000), wk =   0.0069444
        k(   20) = (  -0.0833333   0.4166667  -0.0833333), wk =   0.0277778
        k(   21) = (  -0.1666667   0.5000000  -0.1666667), wk =   0.0277778
        k(   22) = (  -0.2500000   0.5833333  -0.2500000), wk =   0.0277778
        k(   23) = (   0.6666667  -0.3333333   0.6666667), wk =   0.0277778
        k(   24) = (   0.5833333  -0.2500000   0.5833333), wk =   0.0277778
        k(   25) = (   0.5000000  -0.1666667   0.5000000), wk =   0.0277778
        k(   26) = (   0.4166667  -0.0833333   0.4166667), wk =   0.0277778
        k(   27) = (   0.3333333   0.0000000   0.3333333), wk =   0.0138889
        k(   28) = (   0.0000000   0.5000000   0.0000000), wk =   0.0069444
        k(   29) = (  -0.0833333   0.5833333  -0.0833333), wk =   0.0277778
        k(   30) = (  -0.1666667   0.6666667  -0.1666667), wk =   0.0277778
        k(   31) = (   0.7500000  -0.2500000   0.7500000), wk =   0.0277778
        k(   32) = (   0.6666667  -0.1666667   0.6666667), wk =   0.0277778
        k(   33) = (   0.5833333  -0.0833333   0.5833333), wk =   0.0277778
        k(   34) = (   0.5000000   0.0000000   0.5000000), wk =   0.0138889
        k(   35) = (   0.0000000   0.6666667   0.0000000), wk =   0.0069444
        k(   36) = (  -0.0833333   0.7500000  -0.0833333), wk =   0.0277778
        k(   37) = (   0.8333333  -0.1666667   0.8333333), wk =   0.0277778
        k(   38) = (   0.7500000  -0.0833333   0.7500000), wk =   0.0277778
        k(   39) = (   0.6666667  -0.0000000   0.6666667), wk =   0.0138889
        k(   40) = (   0.0000000   0.8333333   0.0000000), wk =   0.0069444
        k(   41) = (   0.9166667  -0.0833333   0.9166667), wk =   0.0277778
        k(   42) = (   0.8333333   0.0000000   0.8333333), wk =   0.0138889
        k(   43) = (   0.0000000  -1.0000000   0.0000000), wk =   0.0034722
        k(   44) = (  -0.1666667   0.3333333   0.0000000), wk =   0.0277778
        k(   45) = (  -0.2500000   0.4166667  -0.0833333), wk =   0.0555556
        k(   46) = (  -0.3333333   0.5000000  -0.1666667), wk =   0.0555556
        k(   47) = (   0.5833333  -0.4166667   0.7500000), wk =   0.0555556
        k(   48) = (   0.5000000  -0.3333333   0.6666667), wk =   0.0277778
        k(   49) = (  -0.1666667   0.5000000   0.0000000), wk =   0.0277778
        k(   50) = (  -0.2500000   0.5833333  -0.0833333), wk =   0.0555556
        k(   51) = (   0.6666667  -0.3333333   0.8333333), wk =   0.0555556
        k(   52) = (   0.5833333  -0.2500000   0.7500000), wk =   0.0555556
        k(   53) = (   0.5000000  -0.1666667   0.6666667), wk =   0.0555556
        k(   54) = (   0.4166667  -0.0833333   0.5833333), wk =   0.0555556
        k(   55) = (   0.3333333   0.0000000   0.5000000), wk =   0.0277778
        k(   56) = (  -0.1666667   0.6666667  -0.0000000), wk =   0.0277778
        k(   57) = (   0.7500000  -0.2500000   0.9166667), wk =   0.0555556
        k(   58) = (   0.6666667  -0.1666667   0.8333333), wk =   0.0555556
        k(   59) = (   0.5833333  -0.0833333   0.7500000), wk =   0.0555556
        k(   60) = (   0.5000000   0.0000000   0.6666667), wk =   0.0277778
        k(   61) = (   0.8333333  -0.1666667   1.0000000), wk =   0.0277778
        k(   62) = (   0.7500000  -0.0833333   0.9166667), wk =   0.0555556
        k(   63) = (   0.6666667   0.0000000   0.8333333), wk =   0.0277778
        k(   64) = (  -0.1666667  -1.0000000  -0.0000000), wk =   0.0138889
        k(   65) = (   0.6666667  -0.3333333   1.0000000), wk =   0.0277778
        k(   66) = (   0.5833333  -0.2500000   0.9166667), wk =   0.0555556
        k(   67) = (   0.5000000  -0.1666667   0.8333333), wk =   0.0277778
        k(   68) = (   0.6666667  -0.1666667   1.0000000), wk =   0.0277778
        k(   69) = (   0.5833333  -0.0833333   0.9166667), wk =   0.0555556
        k(   70) = (   0.5000000   0.0000000   0.8333333), wk =   0.0277778
        k(   71) = (  -0.3333333  -1.0000000   0.0000000), wk =   0.0138889
        k(   72) = (  -0.5000000  -1.0000000   0.0000000), wk =   0.0069444

     Dense  grid:     3119 G-vectors     FFT dimensions: (  24,  24,  24)

     Estimated max dynamical RAM per process >       9.34 MB

     Estimated total dynamical RAM >      18.68 MB

     Initial potential from superposition of free atoms
     Check: negative starting charge=   -0.079189

     starting charge   15.49999, renormalised to   16.00000

     negative rho (up, down):  8.174E-02 0.000E+00
     Starting wfcs are   12 randomized atomic wfcs

     total cpu time spent up to now is        0.7 secs

     Self-consistent Calculation

     iteration #  1     ecut=    35.00 Ry     beta= 0.70
     Davidson diagonalization with overlap
     ethr =  1.00E-02,  avg # of iterations =  3.6

     negative rho (up, down):  8.052E-02 0.000E+00

     total cpu time spent up to now is        1.6 secs

     total energy              =    -198.13837499 Ry
     Harris-Foulkes estimate   =    -199.04718001 Ry
     estimated scf accuracy    <       1.24838915 Ry

     iteration #  2     ecut=    35.00 Ry     beta= 0.70
     Davidson diagonalization with overlap
     ethr =  7.80E-03,  avg # of iterations =  2.0

     negative rho (up, down):  8.185E-02 0.000E+00

     total cpu time spent up to now is        2.3 secs

     total energy              =    -198.43850410 Ry
     Harris-Foulkes estimate   =    -199.07944529 Ry
     estimated scf accuracy    <       1.29556433 Ry

     iteration #  3     ecut=    35.00 Ry     beta= 0.70
     Davidson diagonalization with overlap
     ethr =  7.80E-03,  avg # of iterations =  2.0

     negative rho (up, down):  8.201E-02 0.000E+00

     total cpu time spent up to now is        3.0 secs

     total energy              =    -198.69891011 Ry
     Harris-Foulkes estimate   =    -198.69971528 Ry
     estimated scf accuracy    <       0.00176724 Ry

     iteration #  4     ecut=    35.00 Ry     beta= 0.70
     Davidson diagonalization with overlap
     ethr =  1.10E-05,  avg # of iterations =  2.4

     negative rho (up, down):  8.216E-02 0.000E+00

     total cpu time spent up to now is        3.7 secs

     total energy              =    -198.69951006 Ry
     Harris-Foulkes estimate   =    -198.69950845 Ry
     estimated scf accuracy    <       0.00000505 Ry

     iteration #  5     ecut=    35.00 Ry     beta= 0.70
     Davidson diagonalization with overlap
     ethr =  3.16E-08,  avg # of iterations =  1.9

     negative rho (up, down):  8.219E-02 0.000E+00

     total cpu time spent up to now is        4.7 secs

     total energy              =    -198.69951084 Ry
     Harris-Foulkes estimate   =    -198.69951069 Ry
     estimated scf accuracy    <       0.00000014 Ry

     iteration #  6     ecut=    35.00 Ry     beta= 0.70
     Davidson diagonalization with overlap
     ethr =  8.57E-10,  avg # of iterations =  2.0

     negative rho (up, down):  8.220E-02 0.000E+00

     total cpu time spent up to now is        5.4 secs

     End of self-consistent calculation

          k = 0.0000 0.0000 0.0000 (   387 PWs)   bands (ev):

   -33.1137 -33.1137 -33.1137   9.9187  13.9121  13.9121  13.9121  15.2887
    15.2887  34.0280  38.2287  38.2287

          k =-0.0833 0.0833-0.0833 (   375 PWs)   bands (ev):

   -33.1331 -33.1164 -33.1164  10.1498  13.8417  13.9857  13.9857  15.2588
    15.2588  34.1605  36.5942  38.4015

          k =-0.1667 0.1667-0.1667 (   368 PWs)   bands (ev):

   -33.1858 -33.1240 -33.1240  10.7815  13.7210  14.1357  14.1357  15.2407
    15.2407  33.1280  35.0795  38.7882

          k =-0.2500 0.2500-0.2500 (   380 PWs)   bands (ev):

   -33.2575 -33.1347 -33.1347  11.5179  13.8990  14.1684  14.1684  15.4257
    15.4257  30.1526  34.7778  38.9095

          k =-0.3333 0.3333-0.3333 (   389 PWs)   bands (ev):

   -33.3284 -33.1452 -33.1452  11.8195  14.0535  14.0535  14.9345  15.8093
    15.8093  27.0535  34.0816  38.1954

          k =-0.4167 0.4167-0.4167 (   386 PWs)   bands (ev):

   -33.3799 -33.1528 -33.1528  11.7956  13.9297  13.9297  16.1670  16.1670
    16.5604  24.3049  33.4761  37.2776

          k = 0.5000-0.5000 0.5000 (   392 PWs)   bands (ev):

   -33.3989 -33.1557 -33.1557  11.7605  13.8803  13.8803  16.3095  16.3095
    17.5691  22.9343  33.2528  36.9043

          k = 0.0000 0.1667 0.0000 (   371 PWs)   bands (ev):

   -33.1326 -33.1207 -33.1207  10.2270  13.7614  14.0436  14.0436  15.1360
    15.3530  34.2637  37.0928  37.7169

          k =-0.0833 0.2500-0.0833 (   372 PWs)   bands (ev):

   -33.1717 -33.1299 -33.1263  10.7306  13.5974  14.2005  14.2067  15.0159
    15.4126  34.0592  35.2127  37.2510

          k =-0.1667 0.3333-0.1667 (   374 PWs)   bands (ev):

   -33.2358 -33.1412 -33.1353  11.4778  13.5455  14.2220  14.3054  15.2025
    15.5809  31.3330  34.8984  36.8204

          k =-0.2500 0.4167-0.2500 (   379 PWs)   bands (ev):

   -33.3053 -33.1516 -33.1472  11.9418  14.0103  14.0844  14.2391  15.8769
    15.9103  28.1903  34.3127  36.3316

          k =-0.3333 0.5000-0.3333 (   383 PWs)   bands (ev):

   -33.3618 -33.1589 -33.1586  11.9621  13.8567  14.1078  14.9702  16.2212
    17.0302  25.2306  33.6476  35.9790

          k = 0.5833-0.4167 0.5833 (   387 PWs)   bands (ev):

   -33.3908 -33.1672 -33.1600  11.9116  13.7737  14.0163  15.5310  16.3194
    18.3324  23.1296  33.2568  35.9468

          k = 0.5000-0.3333 0.5000 (   384 PWs)   bands (ev):

   -33.3845 -33.1697 -33.1555  11.9303  13.8081  14.0151  15.5232  16.1290
    18.0267  23.6577  33.2341  35.5804

          k = 0.4167-0.2500 0.4167 (   382 PWs)   bands (ev):

   -33.3447 -33.1657 -33.1465  11.9933  13.9330  14.1101  14.8356  15.7156
    16.8419  26.1883  33.5377  35.9594

          k = 0.3333-0.1667 0.3333 (   379 PWs)   bands (ev):

   -33.2824 -33.1561 -33.1353  11.8683  13.8246  14.1722  14.2524  15.2509
    16.0565  29.2463  34.0091  36.9186

          k = 0.2500-0.0833 0.2500 (   375 PWs)   bands (ev):

   -33.2138 -33.1429 -33.1248  11.2297  13.5732  14.2235  14.2697  15.0087
    15.5718  32.3391  34.3929  37.5851

          k = 0.1667-0.0000 0.1667 (   377 PWs)   bands (ev):

   -33.1591 -33.1285 -33.1180  10.5191  13.7081  14.0913  14.1271  15.1030
    15.3528  34.2291  35.2507  37.5272

          k = 0.0000 0.3333 0.0000 (   371 PWs)   bands (ev):

   -33.1834 -33.1405 -33.1405  11.0703  13.3655  14.4265  14.4265  14.7939
    15.5266  34.8531  35.6281  36.0108

          k =-0.0833 0.4167-0.0833 (   374 PWs)   bands (ev):

   -33.2295 -33.1532 -33.1515  11.6882  13.1608  14.3674  14.6297  15.0900
    15.6840  32.7596  35.0132  35.0487

          k =-0.1667 0.5000-0.1667 (   383 PWs)   bands (ev):

   -33.2881 -33.1654 -33.1646  12.2153  13.2326  14.0816  14.6427  15.9829
    16.0411  29.5725  34.3073  34.3742

          k =-0.2500 0.5833-0.2500 (   385 PWs)   bands (ev):

   -33.3397 -33.1821 -33.1714  12.2847  13.5763  14.0736  14.5263  16.2734
    17.4913  26.4502  33.2863  34.1000

          k = 0.6667-0.3333 0.6667 (   381 PWs)   bands (ev):

   -33.3704 -33.1973 -33.1719  12.2596  13.5241  14.4036  14.5445  16.3467
    19.2623  23.7960  32.3320  34.4047

          k = 0.5833-0.2500 0.5833 (   383 PWs)   bands (ev):

   -33.3729 -33.2067 -33.1662  12.3031  13.5284  14.3450  14.7261  16.1226
    19.7936  23.2676  31.6356  34.9311

          k = 0.5000-0.1667 0.5000 (   389 PWs)   bands (ev):

   -33.3478 -33.2066 -33.1557  12.4175  13.6517  14.3821  14.3835  15.6668
    18.3726  25.6209  31.3363  35.2712

          k = 0.4167-0.0833 0.4167 (   386 PWs)   bands (ev):

   -33.3034 -33.1946 -33.1430  12.4685  13.5533  13.9990  14.5182  15.1266
    17.1118  28.6176  31.4518  36.2240

          k = 0.3333 0.0000 0.3333 (   377 PWs)   bands (ev):

   -33.2544 -33.1711 -33.1316  11.9617  13.3733  14.1668  14.5834  14.7845
    16.1901  31.4495  32.1255  37.7583

          k = 0.0000 0.5000 0.0000 (   375 PWs)   bands (ev):

   -33.2516 -33.1675 -33.1675  11.9970  12.8651  14.8143  15.0167  15.0167
    15.7714  33.6432  33.6432  34.2236

          k =-0.0833 0.5833-0.0833 (   382 PWs)   bands (ev):

   -33.2923 -33.1831 -33.1803  12.2664  12.6918  14.6862  15.1940  16.0066
    16.0579  31.0232  32.6721  33.1229

          k =-0.1667 0.6667-0.1667 (   388 PWs)   bands (ev):

   -33.3302 -33.2046 -33.1880  12.3417  12.8204  14.4803  15.1209  16.3054
    17.7270  27.9089  31.6195  32.2531

          k = 0.7500-0.2500 0.7500 (   390 PWs)   bands (ev):

   -33.3512 -33.2298 -33.1886  12.3838  13.0771  14.3410  14.9800  16.3851
    19.8073  25.0127  30.2608  32.5166

          k = 0.6667-0.1667 0.6667 (   388 PWs)   bands (ev):

   -33.3506 -33.2515 -33.1820  12.5442  13.2691  14.2202  14.8597  16.1584
    21.5866  23.1730  29.1764  33.5042

          k = 0.5833-0.0833 0.5833 (   388 PWs)   bands (ev):

   -33.3346 -33.2578 -33.1699  12.8054  13.4302  13.9371  14.7941  15.7145
    20.0867  25.3767  28.5049  35.1061

          k = 0.5000 0.0000 0.5000 (   379 PWs)   bands (ev):

   -33.3183 -33.2355 -33.1555  12.9955  13.3957  13.7538  14.7489  15.2570
    18.4586  28.2827  28.4129  35.6993

          k = 0.0000 0.6667 0.0000 (   387 PWs)   bands (ev):

   -33.3186 -33.1947 -33.1947  12.1290  12.4027  15.7124  15.7124  16.0244
    16.1642  31.3809  31.3986  31.3986

          k =-0.0833 0.7500-0.0833 (   383 PWs)   bands (ev):

   -33.3451 -33.2111 -33.2035  12.0875  12.3044  15.5340  15.7679  16.3042
    17.8242  29.2620  29.7683  30.7312

          k = 0.8333-0.1667 0.8333 (   382 PWs)   bands (ev):

   -33.3549 -33.2383 -33.2049  12.1427  12.4677  15.1310  15.6274  16.4328
    19.9656  26.5875  28.2924  30.8249

          k = 0.7500-0.0833 0.7500 (   386 PWs)   bands (ev):

   -33.3419 -33.2730 -33.1984  12.3206  12.8256  14.6284  15.4413  16.2488
    22.3653  24.1418  27.1053  31.7046

          k = 0.6667-0.0000 0.6667 (   383 PWs)   bands (ev):

   -33.3078 -33.3066 -33.1855  12.6147  13.2563  14.0719  15.1840  15.9241
    21.9693  24.7301  26.6252  33.2185

          k = 0.0000 0.8333 0.0000 (   383 PWs)   bands (ev):

   -33.3665 -33.2143 -33.2143  11.8598  12.0853  16.2165  16.3222  16.3222
    18.3427  27.9643  29.7825  29.7825

          k = 0.9167-0.0833 0.9167 (   385 PWs)   bands (ev):

   -33.3746 -33.2276 -33.2172  11.8554  12.0879  16.0987  16.1330  16.5003
    19.8486  26.6693  28.3930  29.6245

          k = 0.8333 0.0000 0.8333 (   381 PWs)   bands (ev):

   -33.3626 -33.2520 -33.2112  12.0337  12.3481  15.4151  15.9015  16.4017
    21.5082  25.8573  26.5765  30.3188

          k = 0.0000-1.0000 0.0000 (   388 PWs)   bands (ev):

   -33.3841 -33.2217 -33.2217  11.7307  11.9722  16.2878  16.5733  16.5733
    19.7134  26.1591  29.1835  29.1835

          k =-0.1667 0.3333 0.0000 (   374 PWs)   bands (ev):

   -33.2091 -33.1489 -33.1317  11.3158  13.3964  14.2748  14.4311  14.9313
    15.6191  33.4523  33.7470  37.0909

          k =-0.2500 0.4167-0.0833 (   379 PWs)   bands (ev):

   -33.2651 -33.1678 -33.1406  12.0269  13.3489  14.0952  14.5571  15.1760
    16.1407  30.5477  33.1859  36.3969

          k =-0.3333 0.5000-0.1667 (   384 PWs)   bands (ev):

   -33.3228 -33.1820 -33.1522  12.2780  13.8379  13.8829  14.4635  15.7118
    17.0581  27.4102  32.8330  35.0943

          k = 0.5833-0.4167 0.7500 (   385 PWs)   bands (ev):

   -33.3653 -33.1902 -33.1623  12.2176  13.6439  14.2796  14.6560  16.1171
    18.4555  24.5540  32.7177  34.1751

          k = 0.5000-0.3333 0.6667 (   384 PWs)   bands (ev):

   -33.3810 -33.1926 -33.1664  12.1775  13.5724  14.2519  14.9273  16.2471
    19.5528  22.9686  32.7602  33.7997

          k =-0.1667 0.5000 0.0000 (   381 PWs)   bands (ev):

   -33.2679 -33.1768 -33.1589  12.2115  12.9530  14.2177  15.0115  15.3171
    16.1282  31.8221  32.3043  34.9104

          k =-0.2500 0.5833-0.0833 (   384 PWs)   bands (ev):

   -33.3108 -33.1984 -33.1694  12.5208  13.0414  13.9851  15.0400  15.7949
    17.2023  28.8557  31.6394  33.4229

          k = 0.6667-0.3333 0.8333 (   382 PWs)   bands (ev):

   -33.3446 -33.2161 -33.1785  12.5079  13.3084  13.9721  14.8852  16.1753
    18.8537  25.8265  31.5951  32.0630

          k = 0.5833-0.2500 0.7500 (   384 PWs)   bands (ev):

   -33.3596 -33.2296 -33.1808  12.5450  13.2880  14.2276  14.7256  16.2380
    20.7426  23.3775  30.9395  32.0724

          k = 0.5000-0.1667 0.6667 (   382 PWs)   bands (ev):

   -33.3527 -33.2348 -33.1744  12.6569  13.3215  14.1549  14.7047  16.0212
    20.2184  24.1818  30.1879  32.9521

          k = 0.4167-0.0833 0.5833 (   387 PWs)   bands (ev):

   -33.3287 -33.2264 -33.1627  12.7997  13.5110  13.6398  14.8366  15.5831
    18.5162  26.9697  29.9147  34.0488

          k = 0.3333 0.0000 0.5000 (   384 PWs)   bands (ev):

   -33.2971 -33.2017 -33.1500  12.7063  13.1753  13.8199  14.9925  15.0450
    17.1561  29.8069  30.3594  35.2936

          k =-0.1667 0.6667-0.0000 (   389 PWs)   bands (ev):

   -33.3222 -33.2047 -33.1895  12.3412  12.5341  14.7175  15.7070  15.8785
    17.2950  30.1813  30.4762  31.5077

          k = 0.7500-0.2500 0.9167 (   388 PWs)   bands (ev):

   -33.3421 -33.2288 -33.1979  12.3806  12.6573  14.5088  15.5678  16.2225
    19.0907  27.3714  29.8990  30.2625

          k = 0.6667-0.1667 0.8333 (   386 PWs)   bands (ev):

   -33.3437 -33.2570 -33.1987  12.4809  12.9375  14.2648  15.3027  16.3113
    21.3059  24.6591  28.6417  30.6684

          k = 0.5833-0.0833 0.7500 (   389 PWs)   bands (ev):

   -33.3287 -33.2808 -33.1907  12.7226  13.1991  13.9403  15.1116  16.0984
    22.1413  24.0295  27.6385  31.6517

          k = 0.5000 0.0000 0.6667 (   388 PWs)   bands (ev):

   -33.3237 -33.2695 -33.1771  13.0541  13.3985  13.4798  15.0490  15.7400
    20.2072  26.6289  27.2672  32.8729

          k = 0.8333-0.1667 1.0000 (   386 PWs)   bands (ev):

   -33.3598 -33.2250 -33.2130  12.0526  12.2440  15.4271  16.1046  16.3191
    19.3101  27.9443  29.0313  29.0675

          k = 0.7500-0.0833 0.9167 (   385 PWs)   bands (ev):

   -33.3561 -33.2498 -33.2145  12.1698  12.4378  15.0324  15.7966  16.4625
    21.2954  26.2928  27.0963  29.3640

          k = 0.6667 0.0000 0.8333 (   386 PWs)   bands (ev):

   -33.3338 -33.2820 -33.2057  12.4077  12.8369  14.4462  15.4655  16.3183
    23.2388  24.2050  26.3729  30.3356

          k =-0.1667-1.0000-0.0000 (   384 PWs)   bands (ev):

   -33.3732 -33.2325 -33.2218  11.9170  12.1403  15.8016  16.0756  16.5741
    20.7148  26.1252  28.4788  28.5399

          k = 0.6667-0.3333 1.0000 (   386 PWs)   bands (ev):

   -33.3269 -33.2321 -33.1801  12.8878  12.9139  13.7598  15.4498  15.7018
    18.7079  28.4627  28.6406  31.9660

          k = 0.5833-0.2500 0.9167 (   385 PWs)   bands (ev):

   -33.3348 -33.2571 -33.1918  12.8811  13.1064  13.6964  15.2170  16.0920
    20.5769  25.6282  28.7293  30.6636

          k = 0.5000-0.1667 0.8333 (   386 PWs)   bands (ev):

   -33.3367 -33.2665 -33.1968  12.9630  13.0072  13.8172  15.0678  16.2408
    22.4289  23.4069  29.2092  29.8061

          k = 0.6667-0.1667 1.0000 (   390 PWs)   bands (ev):

   -33.3408 -33.2544 -33.2101  12.5256  12.7127  14.2645  15.6081  16.3137
    20.9165  27.3197  27.3795  28.7345

          k = 0.5833-0.0833 0.9167 (   389 PWs)   bands (ev):

   -33.3252 -33.2820 -33.2146  12.6402  13.0341  13.9206  15.3172  16.4477
    23.0847  24.8071  27.1316  28.4052

          k = 0.5000 0.0000 0.8333 (   385 PWs)   bands (ev):

   -33.3132 -33.2941 -33.2064  12.8171  13.3724  13.4700  15.2233  16.3089
    22.5489  25.2782  26.6755  29.3863

          k =-0.3333-1.0000 0.0000 (   388 PWs)   bands (ev):

   -33.3436 -33.2626 -33.2231  12.3687  12.6386  14.5516  15.5610  16.5754
    22.6282  26.0515  26.8088  27.6245

          k =-0.5000-1.0000 0.0000 (   380 PWs)   bands (ev):

   -33.3029 -33.3029 -33.2234  12.6656  13.4557  13.4557  15.2314  16.5766
    24.7501  24.7501  26.0104  27.2752

     the Fermi energy is    16.3159 ev

!    total energy              =    -198.69951086 Ry
     Harris-Foulkes estimate   =    -198.69951085 Ry
     estimated scf accuracy    <          2.0E-09 Ry

     The total energy is the sum of the following terms:

     one-electron contribution =     -51.11010515 Ry
     hartree contribution      =      38.15055856 Ry
     xc contribution           =     -31.30273131 Ry
     ewald contribution        =    -154.43745938 Ry
     smearing contrib. (-TS)   =       0.00022642 Ry

     convergence has been achieved in   6 iterations

     Writing output data file Pd-kp-conv.save/
 
     init_run     :      0.59s CPU      0.64s WALL (       1 calls)
     electrons    :      4.02s CPU      4.69s WALL (       1 calls)

     Called by init_run:
     wfcinit      :      0.25s CPU      0.28s WALL (       1 calls)
     potinit      :      0.01s CPU      0.02s WALL (       1 calls)
     hinit0       :      0.32s CPU      0.32s WALL (       1 calls)

     Called by electrons:
     c_bands      :      3.29s CPU      3.88s WALL (       6 calls)
     sum_band     :      0.67s CPU      0.72s WALL (       6 calls)
     v_of_rho     :      0.03s CPU      0.03s WALL (       7 calls)
     newd         :      0.04s CPU      0.05s WALL (       7 calls)
     mix_rho      :      0.00s CPU      0.00s WALL (       6 calls)

     Called by c_bands:
     init_us_2    :      0.08s CPU      0.09s WALL (     936 calls)
     cegterg      :      3.06s CPU      3.27s WALL (     432 calls)

     Called by sum_band:
     sum_band:bec :      0.00s CPU      0.00s WALL (     432 calls)
     addusdens    :      0.04s CPU      0.04s WALL (       6 calls)

     Called by *egterg:
     h_psi        :      2.65s CPU      2.84s WALL (    1506 calls)
     s_psi        :      0.03s CPU      0.04s WALL (    1506 calls)
     g_psi        :      0.02s CPU      0.03s WALL (    1002 calls)
     cdiaghg      :      0.35s CPU      0.38s WALL (    1434 calls)

     Called by h_psi:
     h_psi:pot    :      2.64s CPU      2.82s WALL (    1506 calls)
     h_psi:calbec :      0.05s CPU      0.06s WALL (    1506 calls)
     vloc_psi     :      2.54s CPU      2.72s WALL (    1506 calls)
     add_vuspsi   :      0.04s CPU      0.04s WALL (    1506 calls)

     General routines
     calbec       :      0.06s CPU      0.07s WALL (    1938 calls)
     fft          :      0.01s CPU      0.01s WALL (      78 calls)
     ffts         :      0.00s CPU      0.00s WALL (       6 calls)
     fftw         :      2.62s CPU      2.81s WALL (   32132 calls)
 
     Parallel routines
     fft_scatt_xy :      0.49s CPU      0.52s WALL (   32216 calls)
     fft_scatt_yz :      0.57s CPU      0.62s WALL (   32216 calls)
 
     PWSCF        :     4.71s CPU         5.71s WALL

 
   This run was terminated on:  20:55:33   2Dec2021            

=------------------------------------------------------------------------------=
   JOB DONE.
=------------------------------------------------------------------------------=
