
     Program PWSCF v.6.3 starts on  2Dec2021 at 20:56: 9 

     This program is part of the open-source Quantum ESPRESSO suite
     for quantum simulation of materials; please cite
         "P. Giannozzi et al., J. Phys.:Condens. Matter 21 395502 (2009);
         "P. Giannozzi et al., J. Phys.:Condens. Matter 29 465901 (2017);
          URL http://www.quantum-espresso.org", 
     in publications or presentations arising from this work. More details at
     http://www.quantum-espresso.org/quote

     Parallel version (MPI & OpenMP), running on       2 processor cores
     Number of MPI processes:                 2
     Threads/MPI process:                     1

     MPI processes distributed on     1 nodes
     R & G space division:  proc/nbgrp/npool/nimage =       2
     Reading input from pw-input.in

     Current dimensions of program PWSCF are:
     Max number of different atomic species (ntypx) = 10
     Max number of k-points (npk) =  40000
     Max angular momentum in pseudopotentials (lmaxx) =  3

     Subspace diagonalization in iterative solution of the eigenvalue problem:
     a serial algorithm will be used

 
     Parallelization info
     --------------------
     sticks:   dense  smooth     PW     G-vecs:    dense   smooth      PW
     Min         168     168     60                 2007     2007     410
     Max         169     169     61                 2008     2008     411
     Sum         337     337    121                 4015     4015     821
 

     Title: 
     Pd-kp-conv                                                                 


     bravais-lattice index     =            2
     lattice parameter (alat)  =       8.3000  a.u.
     unit-cell volume          =     142.9468 (a.u.)^3
     number of atoms/cell      =            1
     number of atomic types    =            1
     number of electrons       =        16.00
     number of Kohn-Sham states=           12
     kinetic-energy cutoff     =      35.0000  Ry
     charge density cutoff     =     140.0000  Ry
     convergence threshold     =      1.0E-07
     mixing beta               =       0.7000
     number of iterations used =            8  plain     mixing
     Exchange-correlation      =  SLA  PW   PBX  PBC ( 1  4  3  4 0 0)

     celldm(1)=   8.300000  celldm(2)=   0.000000  celldm(3)=   0.000000
     celldm(4)=   0.000000  celldm(5)=   0.000000  celldm(6)=   0.000000

     crystal axes: (cart. coord. in units of alat)
               a(1) = (  -0.500000   0.000000   0.500000 )  
               a(2) = (   0.000000   0.500000   0.500000 )  
               a(3) = (  -0.500000   0.500000   0.000000 )  

     reciprocal axes: (cart. coord. in units 2 pi/alat)
               b(1) = ( -1.000000 -1.000000  1.000000 )  
               b(2) = (  1.000000  1.000000  1.000000 )  
               b(3) = ( -1.000000  1.000000 -1.000000 )  


     PseudoPot. # 1 for Pd read from file:
     ./pd_pbe_v1.4.uspp.F.UPF
     MD5 check sum: 2d733d2bc2cbfd217af676df1668a4bc
     Pseudo is Ultrasoft + core correction, Zval = 16.0
     Generated by new atomic code, or converted to UPF format
     Using radial grid of  887 points,  6 beta functions with: 
                l(1) =   0
                l(2) =   0
                l(3) =   1
                l(4) =   1
                l(5) =   2
                l(6) =   2
     Q(r) pseudized with  8 coefficients,  rinner =    1.130   1.130   1.130
                                                       1.130   1.130

     atomic species   valence    mass     pseudopotential
        Pd            16.00   106.40000     Pd( 1.00)

     48 Sym. Ops., with inversion, found



   Cartesian axes

     site n.     atom                  positions (alat units)
         1           Pd  tau(   1) = (   0.0000000   0.0000000   0.0000000  )

     number of k points=    72  Marzari-Vanderbilt smearing, width (Ry)=  0.0100
                       cart. coord. in units 2pi/alat
        k(    1) = (   0.0000000   0.0000000   0.0000000), wk =   0.0011574
        k(    2) = (  -0.0833333   0.0833333  -0.0833333), wk =   0.0092593
        k(    3) = (  -0.1666667   0.1666667  -0.1666667), wk =   0.0092593
        k(    4) = (  -0.2500000   0.2500000  -0.2500000), wk =   0.0092593
        k(    5) = (  -0.3333333   0.3333333  -0.3333333), wk =   0.0092593
        k(    6) = (  -0.4166667   0.4166667  -0.4166667), wk =   0.0092593
        k(    7) = (   0.5000000  -0.5000000   0.5000000), wk =   0.0046296
        k(    8) = (   0.0000000   0.1666667   0.0000000), wk =   0.0069444
        k(    9) = (  -0.0833333   0.2500000  -0.0833333), wk =   0.0277778
        k(   10) = (  -0.1666667   0.3333333  -0.1666667), wk =   0.0277778
        k(   11) = (  -0.2500000   0.4166667  -0.2500000), wk =   0.0277778
        k(   12) = (  -0.3333333   0.5000000  -0.3333333), wk =   0.0277778
        k(   13) = (   0.5833333  -0.4166667   0.5833333), wk =   0.0277778
        k(   14) = (   0.5000000  -0.3333333   0.5000000), wk =   0.0277778
        k(   15) = (   0.4166667  -0.2500000   0.4166667), wk =   0.0277778
        k(   16) = (   0.3333333  -0.1666667   0.3333333), wk =   0.0277778
        k(   17) = (   0.2500000  -0.0833333   0.2500000), wk =   0.0277778
        k(   18) = (   0.1666667  -0.0000000   0.1666667), wk =   0.0138889
        k(   19) = (   0.0000000   0.3333333   0.0000000), wk =   0.0069444
        k(   20) = (  -0.0833333   0.4166667  -0.0833333), wk =   0.0277778
        k(   21) = (  -0.1666667   0.5000000  -0.1666667), wk =   0.0277778
        k(   22) = (  -0.2500000   0.5833333  -0.2500000), wk =   0.0277778
        k(   23) = (   0.6666667  -0.3333333   0.6666667), wk =   0.0277778
        k(   24) = (   0.5833333  -0.2500000   0.5833333), wk =   0.0277778
        k(   25) = (   0.5000000  -0.1666667   0.5000000), wk =   0.0277778
        k(   26) = (   0.4166667  -0.0833333   0.4166667), wk =   0.0277778
        k(   27) = (   0.3333333   0.0000000   0.3333333), wk =   0.0138889
        k(   28) = (   0.0000000   0.5000000   0.0000000), wk =   0.0069444
        k(   29) = (  -0.0833333   0.5833333  -0.0833333), wk =   0.0277778
        k(   30) = (  -0.1666667   0.6666667  -0.1666667), wk =   0.0277778
        k(   31) = (   0.7500000  -0.2500000   0.7500000), wk =   0.0277778
        k(   32) = (   0.6666667  -0.1666667   0.6666667), wk =   0.0277778
        k(   33) = (   0.5833333  -0.0833333   0.5833333), wk =   0.0277778
        k(   34) = (   0.5000000   0.0000000   0.5000000), wk =   0.0138889
        k(   35) = (   0.0000000   0.6666667   0.0000000), wk =   0.0069444
        k(   36) = (  -0.0833333   0.7500000  -0.0833333), wk =   0.0277778
        k(   37) = (   0.8333333  -0.1666667   0.8333333), wk =   0.0277778
        k(   38) = (   0.7500000  -0.0833333   0.7500000), wk =   0.0277778
        k(   39) = (   0.6666667  -0.0000000   0.6666667), wk =   0.0138889
        k(   40) = (   0.0000000   0.8333333   0.0000000), wk =   0.0069444
        k(   41) = (   0.9166667  -0.0833333   0.9166667), wk =   0.0277778
        k(   42) = (   0.8333333   0.0000000   0.8333333), wk =   0.0138889
        k(   43) = (   0.0000000  -1.0000000   0.0000000), wk =   0.0034722
        k(   44) = (  -0.1666667   0.3333333   0.0000000), wk =   0.0277778
        k(   45) = (  -0.2500000   0.4166667  -0.0833333), wk =   0.0555556
        k(   46) = (  -0.3333333   0.5000000  -0.1666667), wk =   0.0555556
        k(   47) = (   0.5833333  -0.4166667   0.7500000), wk =   0.0555556
        k(   48) = (   0.5000000  -0.3333333   0.6666667), wk =   0.0277778
        k(   49) = (  -0.1666667   0.5000000   0.0000000), wk =   0.0277778
        k(   50) = (  -0.2500000   0.5833333  -0.0833333), wk =   0.0555556
        k(   51) = (   0.6666667  -0.3333333   0.8333333), wk =   0.0555556
        k(   52) = (   0.5833333  -0.2500000   0.7500000), wk =   0.0555556
        k(   53) = (   0.5000000  -0.1666667   0.6666667), wk =   0.0555556
        k(   54) = (   0.4166667  -0.0833333   0.5833333), wk =   0.0555556
        k(   55) = (   0.3333333   0.0000000   0.5000000), wk =   0.0277778
        k(   56) = (  -0.1666667   0.6666667  -0.0000000), wk =   0.0277778
        k(   57) = (   0.7500000  -0.2500000   0.9166667), wk =   0.0555556
        k(   58) = (   0.6666667  -0.1666667   0.8333333), wk =   0.0555556
        k(   59) = (   0.5833333  -0.0833333   0.7500000), wk =   0.0555556
        k(   60) = (   0.5000000   0.0000000   0.6666667), wk =   0.0277778
        k(   61) = (   0.8333333  -0.1666667   1.0000000), wk =   0.0277778
        k(   62) = (   0.7500000  -0.0833333   0.9166667), wk =   0.0555556
        k(   63) = (   0.6666667   0.0000000   0.8333333), wk =   0.0277778
        k(   64) = (  -0.1666667  -1.0000000  -0.0000000), wk =   0.0138889
        k(   65) = (   0.6666667  -0.3333333   1.0000000), wk =   0.0277778
        k(   66) = (   0.5833333  -0.2500000   0.9166667), wk =   0.0555556
        k(   67) = (   0.5000000  -0.1666667   0.8333333), wk =   0.0277778
        k(   68) = (   0.6666667  -0.1666667   1.0000000), wk =   0.0277778
        k(   69) = (   0.5833333  -0.0833333   0.9166667), wk =   0.0555556
        k(   70) = (   0.5000000   0.0000000   0.8333333), wk =   0.0277778
        k(   71) = (  -0.3333333  -1.0000000   0.0000000), wk =   0.0138889
        k(   72) = (  -0.5000000  -1.0000000   0.0000000), wk =   0.0069444

     Dense  grid:     4015 G-vectors     FFT dimensions: (  24,  24,  24)

     Estimated max dynamical RAM per process >      11.70 MB

     Estimated total dynamical RAM >      23.41 MB

     Initial potential from superposition of free atoms
     Check: negative starting charge=   -0.082880

     starting charge   15.49999, renormalised to   16.00000

     negative rho (up, down):  8.555E-02 0.000E+00
     Starting wfcs are   12 randomized atomic wfcs

     total cpu time spent up to now is        0.7 secs

     Self-consistent Calculation

     iteration #  1     ecut=    35.00 Ry     beta= 0.70
     Davidson diagonalization with overlap
     ethr =  1.00E-02,  avg # of iterations =  3.3

     negative rho (up, down):  8.267E-02 0.000E+00

     total cpu time spent up to now is        1.7 secs

     total energy              =    -197.82619859 Ry
     Harris-Foulkes estimate   =    -199.06720795 Ry
     estimated scf accuracy    <       1.67778057 Ry

     iteration #  2     ecut=    35.00 Ry     beta= 0.70
     Davidson diagonalization with overlap
     ethr =  1.00E-02,  avg # of iterations =  2.0

     negative rho (up, down):  8.496E-02 0.000E+00

     total cpu time spent up to now is        2.9 secs

     total energy              =    -198.22732748 Ry
     Harris-Foulkes estimate   =    -199.39682175 Ry
     estimated scf accuracy    <       2.53495183 Ry

     iteration #  3     ecut=    35.00 Ry     beta= 0.70
     Davidson diagonalization with overlap
     ethr =  1.00E-02,  avg # of iterations =  2.0

     negative rho (up, down):  8.500E-02 0.000E+00

     total cpu time spent up to now is        3.6 secs

     total energy              =    -198.65854411 Ry
     Harris-Foulkes estimate   =    -198.65861721 Ry
     estimated scf accuracy    <       0.00033296 Ry

     iteration #  4     ecut=    35.00 Ry     beta= 0.70
     Davidson diagonalization with overlap
     ethr =  2.08E-06,  avg # of iterations =  3.2

     negative rho (up, down):  8.510E-02 0.000E+00

     total cpu time spent up to now is        4.5 secs

     total energy              =    -198.65875482 Ry
     Harris-Foulkes estimate   =    -198.65875771 Ry
     estimated scf accuracy    <       0.00001723 Ry

     iteration #  5     ecut=    35.00 Ry     beta= 0.70
     Davidson diagonalization with overlap
     ethr =  1.08E-07,  avg # of iterations =  1.1

     negative rho (up, down):  8.509E-02 0.000E+00

     total cpu time spent up to now is        5.2 secs

     total energy              =    -198.65875555 Ry
     Harris-Foulkes estimate   =    -198.65875561 Ry
     estimated scf accuracy    <       0.00000017 Ry

     iteration #  6     ecut=    35.00 Ry     beta= 0.70
     Davidson diagonalization with overlap
     ethr =  1.04E-09,  avg # of iterations =  2.0

     negative rho (up, down):  8.509E-02 0.000E+00

     total cpu time spent up to now is        6.1 secs

     End of self-consistent calculation

          k = 0.0000 0.0000 0.0000 (   531 PWs)   bands (ev):

   -37.8632 -37.8632 -37.8632   6.3247   9.4716   9.4716   9.4716  10.3593
    10.3593  27.8503  30.5510  30.5510

          k =-0.0833 0.0833-0.0833 (   528 PWs)   bands (ev):

   -37.8699 -37.8642 -37.8642   6.5106   9.4304   9.5206   9.5206  10.3418
    10.3418  27.7207  29.0879  30.5459

          k =-0.1667 0.1667-0.1667 (   513 PWs)   bands (ev):

   -37.8884 -37.8669 -37.8669   7.0284   9.3622   9.6205   9.6205  10.3368
    10.3368  25.6225  28.4984  30.4565

          k =-0.2500 0.2500-0.2500 (   507 PWs)   bands (ev):

   -37.9138 -37.8708 -37.8708   7.6734   9.5112   9.6456   9.6456  10.4591
    10.4591  22.7169  28.2377  30.1142

          k =-0.3333 0.3333-0.3333 (   492 PWs)   bands (ev):

   -37.9393 -37.8744 -37.8744   7.9944   9.5753   9.5753  10.3487  10.7040
    10.7040  19.8896  27.6997  29.4963

          k =-0.4167 0.4167-0.4167 (   498 PWs)   bands (ev):

   -37.9580 -37.8774 -37.8774   8.0157   9.4959   9.4959  10.9265  10.9265
    11.7746  17.3898  27.2475  28.9082

          k = 0.5000-0.5000 0.5000 (   502 PWs)   bands (ev):

   -37.9647 -37.8786 -37.8786   8.0000   9.4638   9.4638  11.0147  11.0147
    12.7923  16.0293  27.0806  28.6738

          k = 0.0000 0.1667 0.0000 (   523 PWs)   bands (ev):

   -37.8694 -37.8658 -37.8658   6.5727   9.3769   9.5594   9.5594  10.2677
    10.4001  27.8688  29.6670  29.7207

          k =-0.0833 0.2500-0.0833 (   511 PWs)   bands (ev):

   -37.8833 -37.8690 -37.8676   6.9835   9.2772   9.6652   9.6684  10.1970
    10.4423  26.6871  28.3045  29.0184

          k =-0.1667 0.3333-0.1667 (   502 PWs)   bands (ev):

   -37.9060 -37.8730 -37.8709   7.6176   9.2551   9.6876   9.7346  10.3286
    10.5545  23.8130  28.1021  28.4242

          k =-0.2500 0.4167-0.2500 (   504 PWs)   bands (ev):

   -37.9312 -37.8770 -37.8754   8.0661   9.5517   9.6565   9.6943  10.7651
    10.8221  20.9228  27.6730  27.9620

          k =-0.3333 0.5000-0.3333 (   496 PWs)   bands (ev):

   -37.9514 -37.8796 -37.8794   8.1309   9.4548   9.6119  10.2678  10.9602
    11.8380  18.2656  27.1717  27.7443

          k = 0.5833-0.4167 0.5833 (   499 PWs)   bands (ev):

   -37.9617 -37.8828 -37.8801   8.1089   9.4008   9.5537  10.6095  11.0210
    13.1542  16.2664  26.7471  27.8680

          k = 0.5000-0.3333 0.5000 (   496 PWs)   bands (ev):

   -37.9595 -37.8836 -37.8785   8.1191   9.4224   9.5530  10.6220  10.9038
    12.7819  16.7970  26.4771  27.8225

          k = 0.4167-0.2500 0.4167 (   502 PWs)   bands (ev):

   -37.9454 -37.8821 -37.8753   8.1412   9.5000   9.6140  10.2119  10.6451
    11.5528  19.1228  26.4678  28.3134

          k = 0.3333-0.1667 0.3333 (   503 PWs)   bands (ev):

   -37.9229 -37.8785 -37.8710   7.9778   9.4496   9.6774   9.7036  10.3506
    10.8895  21.8782  26.6991  29.1944

          k = 0.2500-0.0833 0.2500 (   507 PWs)   bands (ev):

   -37.8983 -37.8736 -37.8672   7.4000   9.2689   9.6860   9.7099  10.1940
    10.5524  24.7924  27.0679  29.9334

          k = 0.1667-0.0000 0.1667 (   517 PWs)   bands (ev):

   -37.8788 -37.8685 -37.8647   6.8101   9.3483   9.5909   9.6162  10.2485
    10.4047  27.3475  27.6978  29.8034

          k = 0.0000 0.3333 0.0000 (   504 PWs)   bands (ev):

   -37.8874 -37.8727 -37.8727   7.2648   9.1274   9.8138   9.8138  10.0623
    10.5143  27.8522  27.8522  27.9194

          k =-0.0833 0.4167-0.0833 (   504 PWs)   bands (ev):

   -37.9038 -37.8775 -37.8768   7.7909   8.9972   9.7859   9.9470  10.2661
    10.6165  25.1186  26.9628  27.9015

          k =-0.1667 0.5000-0.1667 (   503 PWs)   bands (ev):

   -37.9251 -37.8818 -37.8816   8.2732   9.0548   9.6036   9.9580  10.8092
    10.9550  22.1891  26.3807  27.1652

          k =-0.2500 0.5833-0.2500 (   503 PWs)   bands (ev):

   -37.9436 -37.8880 -37.8843   8.3720   9.3037   9.6161   9.8851  10.9915
    12.1122  19.4219  25.9746  26.1792

          k = 0.6667-0.3333 0.6667 (   508 PWs)   bands (ev):

   -37.9547 -37.8936 -37.8847   8.3627   9.2566   9.8071   9.9573  11.0373
    13.6699  17.0252  24.9229  26.4503

          k = 0.5833-0.2500 0.5833 (   499 PWs)   bands (ev):

   -37.9554 -37.8969 -37.8824   8.3914   9.2553   9.7709  10.0903  10.9002
    14.1718  16.4723  24.1926  27.2461

          k = 0.5000-0.1667 0.5000 (   502 PWs)   bands (ev):

   -37.9465 -37.8967 -37.8787   8.4614   9.3288   9.7964   9.8755  10.6145
    12.7580  18.6525  23.8528  28.1307

          k = 0.4167-0.0833 0.4167 (   504 PWs)   bands (ev):

   -37.9306 -37.8923 -37.8740   8.4607   9.2624   9.5821   9.8823  10.2707
    11.6686  21.3181  23.8967  28.9505

          k = 0.3333 0.0000 0.3333 (   503 PWs)   bands (ev):

   -37.9127 -37.8839 -37.8698   8.0074   9.1411   9.6629   9.9147  10.0559
    10.9758  23.9950  24.4375  30.1408

          k = 0.0000 0.5000 0.0000 (   504 PWs)   bands (ev):

   -37.9120 -37.8827 -37.8827   8.0846   8.8029  10.1225  10.1995  10.1995
    10.6715  25.8086  25.8086  26.9950

          k =-0.0833 0.5833-0.0833 (   497 PWs)   bands (ev):

   -37.9267 -37.8882 -37.8873   8.3517   8.6899  10.0225  10.3145  10.8231
    10.9973  23.5411  25.0288  25.4663

          k =-0.1667 0.6667-0.1667 (   500 PWs)   bands (ev):

   -37.9404 -37.8960 -37.8902   8.4411   8.7884   9.8872  10.2697  11.0111
    12.3037  20.7944  24.0003  24.7062

          k = 0.7500-0.2500 0.7500 (   497 PWs)   bands (ev):

   -37.9479 -37.9051 -37.8905   8.4733   8.9748   9.7983  10.1821  11.0623
    14.0025  18.2675  22.7670  24.9159

          k = 0.6667-0.1667 0.6667 (   505 PWs)   bands (ev):

   -37.9479 -37.9128 -37.8883   8.5777   9.1047   9.7257  10.1067  10.9223
    15.6624  16.4568  21.8231  25.6751

          k = 0.5833-0.0833 0.5833 (   501 PWs)   bands (ev):

   -37.9420 -37.9150 -37.8839   8.7468   9.2057   9.5509  10.0672  10.6430
    14.1563  18.5016  21.2478  26.9162

          k = 0.5000 0.0000 0.5000 (   500 PWs)   bands (ev):

   -37.9361 -37.9070 -37.8787   8.8592   9.1616   9.4382  10.0380  10.3507
    12.7459  21.0470  21.1420  28.5009

          k = 0.0000 0.6667 0.0000 (   500 PWs)   bands (ev):

   -37.9362 -37.8926 -37.8926   8.2919   8.4966  10.6461  10.6461  10.8335
    11.2530  23.6393  24.0396  24.0396

          k =-0.0833 0.7500-0.0833 (   493 PWs)   bands (ev):

   -37.9457 -37.8985 -37.8959   8.2856   8.4314  10.5765  10.6793  11.0108
    12.5160  21.8144  22.4930  23.5334

          k = 0.8333-0.1667 0.8333 (   489 PWs)   bands (ev):

   -37.9494 -37.9082 -37.8964   8.3286   8.5495  10.3234  10.5936  11.0919
    14.2150  19.6867  20.9678  23.6038

          k = 0.7500-0.0833 0.7500 (   496 PWs)   bands (ev):

   -37.9450 -37.9205 -37.8942   8.4473   8.7992   9.9928  10.4799  10.9782
    16.1896  17.6060  19.8689  24.2626

          k = 0.6667-0.0000 0.6667 (   506 PWs)   bands (ev):

   -37.9329 -37.9326 -37.8896   8.6381   9.0984   9.6196  10.3186  10.7737
    15.7604  18.1427  19.4362  25.4195

          k = 0.0000 0.8333 0.0000 (   488 PWs)   bands (ev):

   -37.9537 -37.8997 -37.8997   8.1384   8.2833  10.9555  11.0260  11.0260
    13.1511  20.4166  22.8238  22.8238

          k = 0.9167-0.0833 0.9167 (   490 PWs)   bands (ev):

   -37.9566 -37.9046 -37.9008   8.1413   8.2845  10.9062  10.9194  11.1349
    14.3883  19.2040  21.5831  22.7070

          k = 0.8333 0.0000 0.8333 (   494 PWs)   bands (ev):

   -37.9526 -37.9132 -37.8988   8.2616   8.4656  10.5046  10.7659  11.0728
    15.6844  18.6016  19.8044  23.2172

          k = 0.0000-1.0000 0.0000 (   492 PWs)   bands (ev):

   -37.9600 -37.9025 -37.9025   8.0567   8.2062  11.0004  11.1799  11.1799
    14.4788  18.6600  22.3851  22.3851

          k =-0.1667 0.3333 0.0000 (   508 PWs)   bands (ev):

   -37.8966 -37.8758 -37.8697   7.4680   9.1504   9.7205   9.8160  10.1499
    10.5798  25.9017  26.1343  29.6480

          k =-0.2500 0.4167-0.0833 (   502 PWs)   bands (ev):

   -37.9167 -37.8826 -37.8730   8.0802   9.1264   9.6134   9.9022  10.3149
    10.9462  23.0734  25.5457  28.8316

          k =-0.3333 0.5000-0.1667 (   508 PWs)   bands (ev):

   -37.9376 -37.8880 -37.8773   8.3437   9.4424   9.5162   9.8500  10.6570
    11.6787  20.2413  25.2780  27.5886

          k = 0.5833-0.4167 0.7500 (   502 PWs)   bands (ev):

   -37.9528 -37.8910 -37.8810   8.3248   9.3254   9.7299  10.0435  10.9016
    12.9415  17.6910  25.3263  26.5338

          k = 0.5000-0.3333 0.6667 (   500 PWs)   bands (ev):

   -37.9584 -37.8919 -37.8825   8.3015   9.2797   9.7096  10.2232  10.9770
    14.0841  16.1328  25.7281  25.7755

          k =-0.1667 0.5000 0.0000 (   504 PWs)   bands (ev):

   -37.9179 -37.8859 -37.8796   8.2506   8.8624   9.6944  10.1959  10.4220
    10.9423  24.2869  24.5991  27.2172

          k =-0.2500 0.5833-0.0833 (   499 PWs)   bands (ev):

   -37.9333 -37.8937 -37.8834   8.5421   8.9300   9.5441  10.2225  10.7116
    11.7994  21.5760  24.0672  25.7524

          k = 0.6667-0.3333 0.8333 (   497 PWs)   bands (ev):

   -37.9455 -37.9001 -37.8869   8.5468   9.1294   9.5451  10.1264  10.9372
    13.1795  18.9196  24.0015  24.5324

          k = 0.5833-0.2500 0.7500 (   496 PWs)   bands (ev):

   -37.9509 -37.9049 -37.8876   8.5701   9.1107   9.7359  10.0235  10.9726
    14.8901  16.6734  23.4137  24.5310

          k = 0.5000-0.1667 0.6667 (   498 PWs)   bands (ev):

   -37.9485 -37.9068 -37.8854   8.6423   9.1290   9.6950  10.0111  10.8381
    14.3473  17.4197  22.7663  25.3172

          k = 0.4167-0.0833 0.5833 (   500 PWs)   bands (ev):

   -37.9398 -37.9037 -37.8811   8.7362   9.2375   9.3507  10.0995  10.5662
    12.8248  19.8828  22.5116  26.3886

          k = 0.3333 0.0000 0.5000 (   507 PWs)   bands (ev):

   -37.9284 -37.8949 -37.8766   8.6314   9.0124   9.4445  10.2042  10.2157
    11.7046  22.4472  22.8282  27.6344

          k =-0.1667 0.6667-0.0000 (   491 PWs)   bands (ev):

   -37.9373 -37.8960 -37.8906   8.4457   8.5851  10.0419  10.6426  10.7706
    11.9525  22.7834  23.1138  23.9167

          k = 0.7500-0.2500 0.9167 (   497 PWs)   bands (ev):

   -37.9447 -37.9049 -37.8939   8.4854   8.6778   9.9049  10.5649  10.9656
    13.4088  20.3550  22.3468  23.0383

          k = 0.6667-0.1667 0.8333 (   495 PWs)   bands (ev):

   -37.9455 -37.9148 -37.8942   8.5531   8.8759   9.7459  10.3959  11.0180
    15.2410  18.0054  21.2683  23.3213

          k = 0.5833-0.0833 0.7500 (   498 PWs)   bands (ev):

   -37.9402 -37.9232 -37.8912   8.7137   9.0551   9.5331  10.2737  10.8858
    15.9390  17.4121  20.4275  24.1037

          k = 0.5000 0.0000 0.6667 (   501 PWs)   bands (ev):

   -37.9381 -37.9193 -37.8864   8.9259   9.1971   9.2196  10.2371  10.6597
    14.2342  19.6876  20.1005  25.1809

          k = 0.8333-0.1667 1.0000 (   492 PWs)   bands (ev):

   -37.9512 -37.9036 -37.8993   8.2741   8.3886  10.5002  10.9003  11.0244
    13.7532  20.4355  22.0321  22.1069

          k = 0.7500-0.0833 0.9167 (   492 PWs)   bands (ev):

   -37.9501 -37.9124 -37.8998   8.3569   8.5241  10.2539  10.7057  11.1115
    15.3898  19.1407  20.1516  22.2994

          k = 0.6667 0.0000 0.8333 (   491 PWs)   bands (ev):

   -37.9421 -37.9236 -37.8966   8.5141   8.8019   9.8705  10.4984  11.0229
    16.9952  17.6468  19.1787  23.0334

          k =-0.1667-1.0000-0.0000 (   494 PWs)   bands (ev):

   -37.9562 -37.9064 -37.9027   8.1870   8.3183  10.7403  10.8723  11.1801
    15.1283  18.6696  21.6324  21.6989

          k = 0.6667-0.3333 1.0000 (   501 PWs)   bands (ev):

   -37.9392 -37.9060 -37.8875   8.8364   8.8385   9.3959  10.5009  10.6371
    13.0061  21.2338  21.4201  24.3731

          k = 0.5833-0.2500 0.9167 (   496 PWs)   bands (ev):

   -37.9422 -37.9149 -37.8916   8.8258   8.9861   9.3628  10.3456  10.8831
    14.5759  18.7917  21.4507  23.2237

          k = 0.5000-0.1667 0.8333 (   500 PWs)   bands (ev):

   -37.9431 -37.9182 -37.8934   8.8925   8.9028   9.4546  10.2465  10.9749
    16.3292  16.7096  21.7348  22.5928

          k = 0.6667-0.1667 1.0000 (   499 PWs)   bands (ev):

   -37.9446 -37.9141 -37.8983   8.6062   8.7033   9.7438  10.5931  11.0207
    14.9195  20.1515  20.4132  21.5642

          k = 0.5833-0.0833 0.9167 (   498 PWs)   bands (ev):

   -37.9391 -37.9238 -37.8998   8.6859   8.9229   9.5162  10.4073  11.1031
    16.7500  18.1519  19.9147  21.3353

          k = 0.5000 0.0000 0.8333 (   499 PWs)   bands (ev):

   -37.9348 -37.9281 -37.8970   8.8077   9.1479   9.2132  10.3477  11.0174
    16.2334  18.6467  19.5178  22.1064

          k =-0.3333-1.0000 0.0000 (   490 PWs)   bands (ev):

   -37.9456 -37.9169 -37.9028   8.5024   8.6533   9.9390  10.5598  11.1816
    16.5469  18.7058  20.0393  20.7187

          k =-0.5000-1.0000 0.0000 (   488 PWs)   bands (ev):

   -37.9312 -37.9312 -37.9027   8.7087   9.2041   9.2041  10.3540  11.1823
    18.2560  18.2560  18.7387  20.3175

     the Fermi energy is    11.0412 ev

!    total energy              =    -198.65875559 Ry
     Harris-Foulkes estimate   =    -198.65875560 Ry
     estimated scf accuracy    <          8.5E-09 Ry

     The total energy is the sum of the following terms:

     one-electron contribution =     -71.76918588 Ry
     hartree contribution      =      45.71752790 Ry
     xc contribution           =     -31.19433774 Ry
     ewald contribution        =    -141.41261342 Ry
     smearing contrib. (-TS)   =      -0.00014645 Ry

     convergence has been achieved in   6 iterations

     Writing output data file Pd-kp-conv.save/
 
     init_run     :      0.60s CPU      0.65s WALL (       1 calls)
     electrons    :      4.59s CPU      5.35s WALL (       1 calls)

     Called by init_run:
     wfcinit      :      0.24s CPU      0.28s WALL (       1 calls)
     potinit      :      0.01s CPU      0.01s WALL (       1 calls)
     hinit0       :      0.33s CPU      0.34s WALL (       1 calls)

     Called by electrons:
     c_bands      :      3.77s CPU      4.43s WALL (       6 calls)
     sum_band     :      0.75s CPU      0.80s WALL (       6 calls)
     v_of_rho     :      0.03s CPU      0.03s WALL (       7 calls)
     newd         :      0.05s CPU      0.06s WALL (       7 calls)
     mix_rho      :      0.00s CPU      0.00s WALL (       6 calls)

     Called by c_bands:
     init_us_2    :      0.10s CPU      0.11s WALL (     936 calls)
     cegterg      :      3.48s CPU      3.70s WALL (     432 calls)

     Called by sum_band:
     sum_band:bec :      0.00s CPU      0.00s WALL (     432 calls)
     addusdens    :      0.05s CPU      0.06s WALL (       6 calls)

     Called by *egterg:
     h_psi        :      2.98s CPU      3.18s WALL (    1488 calls)
     s_psi        :      0.04s CPU      0.05s WALL (    1488 calls)
     g_psi        :      0.03s CPU      0.03s WALL (     984 calls)
     cdiaghg      :      0.36s CPU      0.38s WALL (    1416 calls)

     Called by h_psi:
     h_psi:pot    :      2.97s CPU      3.17s WALL (    1488 calls)
     h_psi:calbec :      0.06s CPU      0.06s WALL (    1488 calls)
     vloc_psi     :      2.86s CPU      3.04s WALL (    1488 calls)
     add_vuspsi   :      0.04s CPU      0.05s WALL (    1488 calls)

     General routines
     calbec       :      0.07s CPU      0.08s WALL (    1920 calls)
     fft          :      0.01s CPU      0.01s WALL (      78 calls)
     ffts         :      0.00s CPU      0.00s WALL (       6 calls)
     fftw         :      2.97s CPU      3.17s WALL (   32902 calls)
 
     Parallel routines
     fft_scatt_xy :      0.53s CPU      0.56s WALL (   32986 calls)
     fft_scatt_yz :      0.71s CPU      0.76s WALL (   32986 calls)
 
     PWSCF        :     5.31s CPU         6.42s WALL

 
   This run was terminated on:  20:56:16   2Dec2021            

=------------------------------------------------------------------------------=
   JOB DONE.
=------------------------------------------------------------------------------=
