
     Program PWSCF v.6.3 starts on  2Dec2021 at 21:16:36 

     This program is part of the open-source Quantum ESPRESSO suite
     for quantum simulation of materials; please cite
         "P. Giannozzi et al., J. Phys.:Condens. Matter 21 395502 (2009);
         "P. Giannozzi et al., J. Phys.:Condens. Matter 29 465901 (2017);
          URL http://www.quantum-espresso.org", 
     in publications or presentations arising from this work. More details at
     http://www.quantum-espresso.org/quote

     Parallel version (MPI & OpenMP), running on       2 processor cores
     Number of MPI processes:                 2
     Threads/MPI process:                     1

     MPI processes distributed on     1 nodes
     R & G space division:  proc/nbgrp/npool/nimage =       2
     Reading input from pw-input.in

     Current dimensions of program PWSCF are:
     Max number of different atomic species (ntypx) = 10
     Max number of k-points (npk) =  40000
     Max angular momentum in pseudopotentials (lmaxx) =  3

     Subspace diagonalization in iterative solution of the eigenvalue problem:
     a serial algorithm will be used

 
     Parallelization info
     --------------------
     sticks:   dense  smooth     PW     G-vecs:    dense   smooth      PW
     Min         126     126     42                 1318     1318     267
     Max         127     127     43                 1319     1319     270
     Sum         253     253     85                 2637     2637     537
 

     Title: 
     Pd-kp-conv                                                                 


     bravais-lattice index     =            2
     lattice parameter (alat)  =       7.2000  a.u.
     unit-cell volume          =      93.3120 (a.u.)^3
     number of atoms/cell      =            1
     number of atomic types    =            1
     number of electrons       =        16.00
     number of Kohn-Sham states=           12
     kinetic-energy cutoff     =      35.0000  Ry
     charge density cutoff     =     140.0000  Ry
     convergence threshold     =      1.0E-07
     mixing beta               =       0.7000
     number of iterations used =            8  plain     mixing
     Exchange-correlation      =  SLA  PW   PBX  PBC ( 1  4  3  4 0 0)

     celldm(1)=   7.200000  celldm(2)=   0.000000  celldm(3)=   0.000000
     celldm(4)=   0.000000  celldm(5)=   0.000000  celldm(6)=   0.000000

     crystal axes: (cart. coord. in units of alat)
               a(1) = (  -0.500000   0.000000   0.500000 )  
               a(2) = (   0.000000   0.500000   0.500000 )  
               a(3) = (  -0.500000   0.500000   0.000000 )  

     reciprocal axes: (cart. coord. in units 2 pi/alat)
               b(1) = ( -1.000000 -1.000000  1.000000 )  
               b(2) = (  1.000000  1.000000  1.000000 )  
               b(3) = ( -1.000000  1.000000 -1.000000 )  


     PseudoPot. # 1 for Pd read from file:
     ./pd_pbe_v1.4.uspp.F.UPF
     MD5 check sum: 2d733d2bc2cbfd217af676df1668a4bc
     Pseudo is Ultrasoft + core correction, Zval = 16.0
     Generated by new atomic code, or converted to UPF format
     Using radial grid of  887 points,  6 beta functions with: 
                l(1) =   0
                l(2) =   0
                l(3) =   1
                l(4) =   1
                l(5) =   2
                l(6) =   2
     Q(r) pseudized with  8 coefficients,  rinner =    1.130   1.130   1.130
                                                       1.130   1.130

     atomic species   valence    mass     pseudopotential
        Pd            16.00   106.40000     Pd( 1.00)

     48 Sym. Ops., with inversion, found



   Cartesian axes

     site n.     atom                  positions (alat units)
         1           Pd  tau(   1) = (   0.0000000   0.0000000   0.0000000  )

     number of k points=    35  Marzari-Vanderbilt smearing, width (Ry)=  0.0150
                       cart. coord. in units 2pi/alat
        k(    1) = (   0.0000000   0.0000000   0.0000000), wk =   0.0027435
        k(    2) = (  -0.1111111   0.1111111  -0.1111111), wk =   0.0219479
        k(    3) = (  -0.2222222   0.2222222  -0.2222222), wk =   0.0219479
        k(    4) = (  -0.3333333   0.3333333  -0.3333333), wk =   0.0219479
        k(    5) = (  -0.4444444   0.4444444  -0.4444444), wk =   0.0219479
        k(    6) = (   0.0000000   0.2222222   0.0000000), wk =   0.0164609
        k(    7) = (  -0.1111111   0.3333333  -0.1111111), wk =   0.0658436
        k(    8) = (  -0.2222222   0.4444444  -0.2222222), wk =   0.0658436
        k(    9) = (  -0.3333333   0.5555556  -0.3333333), wk =   0.0658436
        k(   10) = (   0.5555556  -0.3333333   0.5555556), wk =   0.0658436
        k(   11) = (   0.4444444  -0.2222222   0.4444444), wk =   0.0658436
        k(   12) = (   0.3333333  -0.1111111   0.3333333), wk =   0.0658436
        k(   13) = (   0.2222222  -0.0000000   0.2222222), wk =   0.0329218
        k(   14) = (   0.0000000   0.4444444   0.0000000), wk =   0.0164609
        k(   15) = (  -0.1111111   0.5555556  -0.1111111), wk =   0.0658436
        k(   16) = (  -0.2222222   0.6666667  -0.2222222), wk =   0.0658436
        k(   17) = (   0.6666667  -0.2222222   0.6666667), wk =   0.0658436
        k(   18) = (   0.5555556  -0.1111111   0.5555556), wk =   0.0658436
        k(   19) = (   0.4444444   0.0000000   0.4444444), wk =   0.0329218
        k(   20) = (   0.0000000   0.6666667   0.0000000), wk =   0.0164609
        k(   21) = (  -0.1111111   0.7777778  -0.1111111), wk =   0.0658436
        k(   22) = (   0.7777778  -0.1111111   0.7777778), wk =   0.0658436
        k(   23) = (   0.6666667  -0.0000000   0.6666667), wk =   0.0329218
        k(   24) = (   0.0000000   0.8888889   0.0000000), wk =   0.0164609
        k(   25) = (   0.8888889   0.0000000   0.8888889), wk =   0.0329218
        k(   26) = (  -0.2222222   0.4444444   0.0000000), wk =   0.0658436
        k(   27) = (  -0.3333333   0.5555556  -0.1111111), wk =   0.1316872
        k(   28) = (   0.5555556  -0.3333333   0.7777778), wk =   0.1316872
        k(   29) = (  -0.2222222   0.6666667   0.0000000), wk =   0.0658436
        k(   30) = (   0.6666667  -0.2222222   0.8888889), wk =   0.1316872
        k(   31) = (   0.5555556  -0.1111111   0.7777778), wk =   0.1316872
        k(   32) = (   0.4444444   0.0000000   0.6666667), wk =   0.0658436
        k(   33) = (   0.7777778  -0.1111111   1.0000000), wk =   0.0658436
        k(   34) = (   0.6666667  -0.0000000   0.8888889), wk =   0.0658436
        k(   35) = (   0.5555556  -0.1111111   1.0000000), wk =   0.0658436

     Dense  grid:     2637 G-vectors     FFT dimensions: (  20,  20,  20)

     Estimated max dynamical RAM per process >       6.79 MB

     Estimated total dynamical RAM >      13.59 MB

     Initial potential from superposition of free atoms
     Check: negative starting charge=   -0.084445

     starting charge   15.49999, renormalised to   16.00000

     negative rho (up, down):  8.717E-02 0.000E+00
     Starting wfcs are   12 randomized atomic wfcs

     total cpu time spent up to now is        0.6 secs

     Self-consistent Calculation

     iteration #  1     ecut=    35.00 Ry     beta= 0.70
     Davidson diagonalization with overlap
     ethr =  1.00E-02,  avg # of iterations =  3.6

     negative rho (up, down):  8.683E-02 0.000E+00

     total cpu time spent up to now is        1.0 secs

     total energy              =    -198.27914878 Ry
     Harris-Foulkes estimate   =    -198.99254231 Ry
     estimated scf accuracy    <       0.99163175 Ry

     iteration #  2     ecut=    35.00 Ry     beta= 0.70
     Davidson diagonalization with overlap
     ethr =  6.20E-03,  avg # of iterations =  2.0

     negative rho (up, down):  8.807E-02 0.000E+00

     total cpu time spent up to now is        1.2 secs

     total energy              =    -198.52649620 Ry
     Harris-Foulkes estimate   =    -198.92105927 Ry
     estimated scf accuracy    <       0.75633798 Ry

     iteration #  3     ecut=    35.00 Ry     beta= 0.70
     Davidson diagonalization with overlap
     ethr =  4.73E-03,  avg # of iterations =  2.0

     negative rho (up, down):  8.851E-02 0.000E+00

     total cpu time spent up to now is        1.5 secs

     total energy              =    -198.69340803 Ry
     Harris-Foulkes estimate   =    -198.69472958 Ry
     estimated scf accuracy    <       0.00272139 Ry

     iteration #  4     ecut=    35.00 Ry     beta= 0.70
     Davidson diagonalization with overlap
     ethr =  1.70E-05,  avg # of iterations =  2.1

     negative rho (up, down):  8.868E-02 0.000E+00

     total cpu time spent up to now is        2.1 secs

     total energy              =    -198.69414627 Ry
     Harris-Foulkes estimate   =    -198.69415907 Ry
     estimated scf accuracy    <       0.00003113 Ry

     iteration #  5     ecut=    35.00 Ry     beta= 0.70
     Davidson diagonalization with overlap
     ethr =  1.95E-07,  avg # of iterations =  2.0

     negative rho (up, down):  8.872E-02 0.000E+00

     total cpu time spent up to now is        2.4 secs

     total energy              =    -198.69415210 Ry
     Harris-Foulkes estimate   =    -198.69415204 Ry
     estimated scf accuracy    <       0.00000019 Ry

     iteration #  6     ecut=    35.00 Ry     beta= 0.70
     Davidson diagonalization with overlap
     ethr =  1.16E-09,  avg # of iterations =  2.2

     negative rho (up, down):  8.872E-02 0.000E+00

     total cpu time spent up to now is        2.7 secs

     End of self-consistent calculation

          k = 0.0000 0.0000 0.0000 (   331 PWs)   bands (ev):

   -29.4206 -29.4206 -29.4206  12.7725  17.2718  17.2718  17.2718  19.0647
    19.0647  38.4572  43.6248  43.6248

          k =-0.1111 0.1111-0.1111 (   329 PWs)   bands (ev):

   -29.4823 -29.4292 -29.4292  13.2374  17.1165  17.4289  17.4289  18.9986
    18.9986  38.8759  41.0436  44.1291

          k =-0.2222 0.2222-0.2222 (   320 PWs)   bands (ev):

   -29.6370 -29.4507 -29.4507  14.3044  17.0801  17.6107  17.6107  19.1116
    19.1116  36.7200  39.6695  45.1834

          k =-0.3333 0.3333-0.3333 (   332 PWs)   bands (ev):

   -29.8106 -29.4755 -29.4755  14.7484  17.4430  17.4430  18.4882  19.7359
    19.7359  32.5351  38.7094  44.6071

          k =-0.4444 0.4444-0.4444 (   335 PWs)   bands (ev):

   -29.9221 -29.4916 -29.4916  14.6340  17.2461  17.2461  20.3167  20.3167
    20.8065  28.9710  37.8132  43.1045

          k = 0.0000 0.2222 0.0000 (   327 PWs)   bands (ev):

   -29.4804 -29.4432 -29.4432  13.3933  16.9233  17.5707  17.5707  18.7119
    19.2070  39.1339  41.7614  43.0497

          k =-0.1111 0.3333-0.1111 (   321 PWs)   bands (ev):

   -29.5950 -29.4690 -29.4605  14.3079  16.6246  17.7546  17.8609  18.6938
    19.3974  38.3234  39.9787  42.4552

          k =-0.2222 0.4444-0.2222 (   324 PWs)   bands (ev):

   -29.7557 -29.4945 -29.4884  15.0384  17.0734  17.3880  17.8297  19.8512
    19.9123  34.1575  39.2965  41.8139

          k =-0.3333 0.5556-0.3333 (   332 PWs)   bands (ev):

   -29.8813 -29.5193 -29.5080  14.9699  17.0406  17.6051  18.3866  20.3913
    21.8732  30.0573  38.2293  41.3981

          k = 0.5556-0.3333 0.5556 (   326 PWs)   bands (ev):

   -29.9154 -29.5375 -29.5029  14.9271  16.9752  17.4920  18.9790  20.2855
    23.1040  28.3802  37.8111  40.9549

          k = 0.4444-0.2222 0.4444 (   326 PWs)   bands (ev):

   -29.8447 -29.5342 -29.4817  15.0696  17.1746  17.6008  18.2139  19.5785
    21.5382  31.3893  38.1305  41.1677

          k = 0.3333-0.1111 0.3333 (   324 PWs)   bands (ev):

   -29.7022 -29.5086 -29.4542  14.9692  16.8541  17.5784  17.8488  18.7495
    20.1361  35.6016  38.8346  42.7831

          k = 0.2222-0.0000 0.2222 (   325 PWs)   bands (ev):

   -29.5582 -29.4673 -29.4336  13.9460  16.8385  17.6550  17.6724  18.6586
    19.3143  39.1501  39.2761  42.9832

          k = 0.0000 0.4444 0.0000 (   323 PWs)   bands (ev):

   -29.6288 -29.5000 -29.5000  14.7966  16.1209  18.2673  18.4176  18.4176
    19.5813  39.9475  40.3840  40.3840

          k =-0.1111 0.5556-0.1111 (   323 PWs)   bands (ev):

   -29.7368 -29.5356 -29.5299  15.3102  15.8809  17.8959  18.6737  19.9935
    20.0003  36.1506  39.0141  39.1454

          k =-0.2222 0.6667-0.2222 (   327 PWs)   bands (ev):

   -29.8332 -29.5854 -29.5442  15.3256  16.2686  17.6672  18.4894  20.4659
    22.6270  31.7314  37.3591  38.6158

          k = 0.6667-0.2222 0.6667 (   320 PWs)   bands (ev):

   -29.8659 -29.6335 -29.5364  15.4477  16.4789  17.7685  18.2718  20.3234
    25.4622  28.3944  35.8350  39.6124

          k = 0.5556-0.1111 0.5556 (   324 PWs)   bands (ev):

   -29.8312 -29.6478 -29.5103  15.7919  16.6602  17.4492  18.2051  19.5693
    24.0521  30.7770  34.9804  40.6085

          k = 0.4444 0.0000 0.4444 (   323 PWs)   bands (ev):

   -29.7672 -29.5982 -29.4778  15.9856  16.5056  17.2044  18.2819  18.7034
    21.8661  34.6651  35.4144  41.4532

          k = 0.0000 0.6667 0.0000 (   323 PWs)   bands (ev):

   -29.7918 -29.5649 -29.5649  15.0329  15.3167  19.6053  19.6053  19.9838
    20.0273  36.9271  36.9271  37.0916

          k =-0.1111 0.7778-0.1111 (   324 PWs)   bands (ev):

   -29.8489 -29.6090 -29.5833  14.9434  15.2300  19.1754  19.6231  20.5023
    22.7685  33.7154  34.9261  36.0665

          k = 0.7778-0.1111 0.7778 (   329 PWs)   bands (ev):

   -29.8450 -29.6853 -29.5765  15.1178  15.6936  18.3983  19.3275  20.4419
    26.2684  29.9659  33.0507  36.8558

          k = 0.6667-0.0000 0.6667 (   323 PWs)   bands (ev):

   -29.7705 -29.7683 -29.5476  15.5888  16.4134  17.4653  18.8983  19.8883
    26.7669  29.8798  32.1103  39.0899

          k = 0.0000 0.8889 0.0000 (   326 PWs)   bands (ev):

   -29.8943 -29.6070 -29.6070  14.5467  14.8397  20.3334  20.6007  20.6007
    23.1007  32.8058  34.6026  34.6026

          k = 0.8889 0.0000 0.8889 (   326 PWs)   bands (ev):

   -29.8908 -29.6391 -29.6043  14.6559  14.9832  19.8610  20.1239  20.6537
    25.0205  31.8122  32.7688  34.9069

          k =-0.2222 0.4444 0.0000 (   323 PWs)   bands (ev):

   -29.6864 -29.5280 -29.4759  15.2209  16.2782  17.4894  18.4199  18.7599
    20.1802  37.1032  38.0447  41.8192

          k =-0.3333 0.5556-0.1111 (   326 PWs)   bands (ev):

   -29.7964 -29.5787 -29.5021  15.5995  16.7345  17.0293  18.3658  19.5514
    21.8632  33.1690  37.1137  39.7788

          k = 0.5556-0.3333 0.7778 (   324 PWs)   bands (ev):

   -29.8705 -29.6024 -29.5248  15.4636  16.5845  17.7503  18.1363  20.1934
    24.2257  29.2224  37.1369  38.4075

          k =-0.2222 0.6667 0.0000 (   325 PWs)   bands (ev):

   -29.8017 -29.5969 -29.5498  15.4809  15.6193  17.8553  19.5942  19.6454
    22.0349  35.0316  35.4983  37.3152

          k = 0.6667-0.2222 0.8889 (   329 PWs)   bands (ev):

   -29.8330 -29.6581 -29.5695  15.5184  15.9706  17.5376  19.1409  20.3055
    24.9012  31.0577  35.2245  35.4754

          k = 0.5556-0.1111 0.7778 (   328 PWs)   bands (ev):

   -29.8166 -29.7079 -29.5623  15.8222  16.2778  17.2151  18.7711  20.2180
    27.0487  28.8822  33.7251  36.5708

          k = 0.4444 0.0000 0.6667 (   328 PWs)   bands (ev):

   -29.8047 -29.6776 -29.5324  16.3613  16.4502  16.5116  18.8393  19.6128
    24.2935  32.7566  33.0178  38.2017

          k = 0.7778-0.1111 1.0000 (   328 PWs)   bands (ev):

   -29.8659 -29.6417 -29.6062  14.9487  15.2147  18.9154  19.9200  20.5980
    25.0422  32.6814  33.4760  33.6840

          k = 0.6667-0.0000 0.8889 (   329 PWs)   bands (ev):

   -29.8271 -29.7067 -29.5985  15.2785  15.7524  18.0170  19.3368  20.5904
    27.7336  30.1240  31.9023  34.6970

          k = 0.5556-0.1111 1.0000 (   330 PWs)   bands (ev):

   -29.7932 -29.7290 -29.6028  15.6750  16.3111  17.0066  19.0328  20.5926
    27.7670  30.8469  32.0791  33.6016

     the Fermi energy is    20.4137 ev

!    total energy              =    -198.69415215 Ry
     Harris-Foulkes estimate   =    -198.69415215 Ry
     estimated scf accuracy    <          4.2E-09 Ry

     The total energy is the sum of the following terms:

     one-electron contribution =     -37.97173563 Ry
     hartree contribution      =      33.71754756 Ry
     xc contribution           =     -31.42267400 Ry
     ewald contribution        =    -163.01731824 Ry
     smearing contrib. (-TS)   =       0.00002815 Ry

     convergence has been achieved in   6 iterations

     Writing output data file Pd-kp-conv.save/
 
     init_run     :      0.42s CPU      0.46s WALL (       1 calls)
     electrons    :      1.57s CPU      2.13s WALL (       1 calls)

     Called by init_run:
     wfcinit      :      0.09s CPU      0.11s WALL (       1 calls)
     potinit      :      0.01s CPU      0.02s WALL (       1 calls)
     hinit0       :      0.31s CPU      0.31s WALL (       1 calls)

     Called by electrons:
     c_bands      :      1.29s CPU      1.46s WALL (       6 calls)
     sum_band     :      0.23s CPU      0.26s WALL (       6 calls)
     v_of_rho     :      0.02s CPU      0.02s WALL (       7 calls)
     newd         :      0.04s CPU      0.04s WALL (       7 calls)
     mix_rho      :      0.00s CPU      0.00s WALL (       6 calls)

     Called by c_bands:
     init_us_2    :      0.04s CPU      0.04s WALL (     455 calls)
     cegterg      :      1.18s CPU      1.27s WALL (     210 calls)

     Called by sum_band:
     sum_band:bec :      0.00s CPU      0.00s WALL (     210 calls)
     addusdens    :      0.03s CPU      0.03s WALL (       6 calls)

     Called by *egterg:
     h_psi        :      0.94s CPU      1.02s WALL (     732 calls)
     s_psi        :      0.02s CPU      0.02s WALL (     732 calls)
     g_psi        :      0.01s CPU      0.01s WALL (     487 calls)
     cdiaghg      :      0.18s CPU      0.20s WALL (     697 calls)

     Called by h_psi:
     h_psi:pot    :      0.94s CPU      1.02s WALL (     732 calls)
     h_psi:calbec :      0.02s CPU      0.03s WALL (     732 calls)
     vloc_psi     :      0.89s CPU      0.97s WALL (     732 calls)
     add_vuspsi   :      0.02s CPU      0.02s WALL (     732 calls)

     General routines
     calbec       :      0.03s CPU      0.03s WALL (     942 calls)
     fft          :      0.01s CPU      0.01s WALL (      78 calls)
     ffts         :      0.00s CPU      0.00s WALL (       6 calls)
     fftw         :      0.91s CPU      0.99s WALL (   15880 calls)
 
     Parallel routines
     fft_scatt_xy :      0.17s CPU      0.18s WALL (   15964 calls)
     fft_scatt_yz :      0.24s CPU      0.26s WALL (   15964 calls)
 
     PWSCF        :     2.10s CPU         2.85s WALL

 
   This run was terminated on:  21:16:39   2Dec2021            

=------------------------------------------------------------------------------=
   JOB DONE.
=------------------------------------------------------------------------------=
