
     Program PWSCF v.6.3 starts on  2Dec2021 at 21:17:16 

     This program is part of the open-source Quantum ESPRESSO suite
     for quantum simulation of materials; please cite
         "P. Giannozzi et al., J. Phys.:Condens. Matter 21 395502 (2009);
         "P. Giannozzi et al., J. Phys.:Condens. Matter 29 465901 (2017);
          URL http://www.quantum-espresso.org", 
     in publications or presentations arising from this work. More details at
     http://www.quantum-espresso.org/quote

     Parallel version (MPI & OpenMP), running on       2 processor cores
     Number of MPI processes:                 2
     Threads/MPI process:                     1

     MPI processes distributed on     1 nodes
     R & G space division:  proc/nbgrp/npool/nimage =       2
     Reading input from pw-input.in

     Current dimensions of program PWSCF are:
     Max number of different atomic species (ntypx) = 10
     Max number of k-points (npk) =  40000
     Max angular momentum in pseudopotentials (lmaxx) =  3

     Subspace diagonalization in iterative solution of the eigenvalue problem:
     a serial algorithm will be used

 
     Parallelization info
     --------------------
     sticks:   dense  smooth     PW     G-vecs:    dense   smooth      PW
     Min         156     156     54                 1917     1917     373
     Max         157     157     55                 1922     1922     376
     Sum         313     313    109                 3839     3839     749
 

     Title: 
     Pd-kp-conv                                                                 


     bravais-lattice index     =            2
     lattice parameter (alat)  =       8.2000  a.u.
     unit-cell volume          =     137.8420 (a.u.)^3
     number of atoms/cell      =            1
     number of atomic types    =            1
     number of electrons       =        16.00
     number of Kohn-Sham states=           12
     kinetic-energy cutoff     =      35.0000  Ry
     charge density cutoff     =     140.0000  Ry
     convergence threshold     =      1.0E-07
     mixing beta               =       0.7000
     number of iterations used =            8  plain     mixing
     Exchange-correlation      =  SLA  PW   PBX  PBC ( 1  4  3  4 0 0)

     celldm(1)=   8.200000  celldm(2)=   0.000000  celldm(3)=   0.000000
     celldm(4)=   0.000000  celldm(5)=   0.000000  celldm(6)=   0.000000

     crystal axes: (cart. coord. in units of alat)
               a(1) = (  -0.500000   0.000000   0.500000 )  
               a(2) = (   0.000000   0.500000   0.500000 )  
               a(3) = (  -0.500000   0.500000   0.000000 )  

     reciprocal axes: (cart. coord. in units 2 pi/alat)
               b(1) = ( -1.000000 -1.000000  1.000000 )  
               b(2) = (  1.000000  1.000000  1.000000 )  
               b(3) = ( -1.000000  1.000000 -1.000000 )  


     PseudoPot. # 1 for Pd read from file:
     ./pd_pbe_v1.4.uspp.F.UPF
     MD5 check sum: 2d733d2bc2cbfd217af676df1668a4bc
     Pseudo is Ultrasoft + core correction, Zval = 16.0
     Generated by new atomic code, or converted to UPF format
     Using radial grid of  887 points,  6 beta functions with: 
                l(1) =   0
                l(2) =   0
                l(3) =   1
                l(4) =   1
                l(5) =   2
                l(6) =   2
     Q(r) pseudized with  8 coefficients,  rinner =    1.130   1.130   1.130
                                                       1.130   1.130

     atomic species   valence    mass     pseudopotential
        Pd            16.00   106.40000     Pd( 1.00)

     48 Sym. Ops., with inversion, found



   Cartesian axes

     site n.     atom                  positions (alat units)
         1           Pd  tau(   1) = (   0.0000000   0.0000000   0.0000000  )

     number of k points=    35  Marzari-Vanderbilt smearing, width (Ry)=  0.0150
                       cart. coord. in units 2pi/alat
        k(    1) = (   0.0000000   0.0000000   0.0000000), wk =   0.0027435
        k(    2) = (  -0.1111111   0.1111111  -0.1111111), wk =   0.0219479
        k(    3) = (  -0.2222222   0.2222222  -0.2222222), wk =   0.0219479
        k(    4) = (  -0.3333333   0.3333333  -0.3333333), wk =   0.0219479
        k(    5) = (  -0.4444444   0.4444444  -0.4444444), wk =   0.0219479
        k(    6) = (   0.0000000   0.2222222   0.0000000), wk =   0.0164609
        k(    7) = (  -0.1111111   0.3333333  -0.1111111), wk =   0.0658436
        k(    8) = (  -0.2222222   0.4444444  -0.2222222), wk =   0.0658436
        k(    9) = (  -0.3333333   0.5555556  -0.3333333), wk =   0.0658436
        k(   10) = (   0.5555556  -0.3333333   0.5555556), wk =   0.0658436
        k(   11) = (   0.4444444  -0.2222222   0.4444444), wk =   0.0658436
        k(   12) = (   0.3333333  -0.1111111   0.3333333), wk =   0.0658436
        k(   13) = (   0.2222222  -0.0000000   0.2222222), wk =   0.0329218
        k(   14) = (   0.0000000   0.4444444   0.0000000), wk =   0.0164609
        k(   15) = (  -0.1111111   0.5555556  -0.1111111), wk =   0.0658436
        k(   16) = (  -0.2222222   0.6666667  -0.2222222), wk =   0.0658436
        k(   17) = (   0.6666667  -0.2222222   0.6666667), wk =   0.0658436
        k(   18) = (   0.5555556  -0.1111111   0.5555556), wk =   0.0658436
        k(   19) = (   0.4444444   0.0000000   0.4444444), wk =   0.0329218
        k(   20) = (   0.0000000   0.6666667   0.0000000), wk =   0.0164609
        k(   21) = (  -0.1111111   0.7777778  -0.1111111), wk =   0.0658436
        k(   22) = (   0.7777778  -0.1111111   0.7777778), wk =   0.0658436
        k(   23) = (   0.6666667  -0.0000000   0.6666667), wk =   0.0329218
        k(   24) = (   0.0000000   0.8888889   0.0000000), wk =   0.0164609
        k(   25) = (   0.8888889   0.0000000   0.8888889), wk =   0.0329218
        k(   26) = (  -0.2222222   0.4444444   0.0000000), wk =   0.0658436
        k(   27) = (  -0.3333333   0.5555556  -0.1111111), wk =   0.1316872
        k(   28) = (   0.5555556  -0.3333333   0.7777778), wk =   0.1316872
        k(   29) = (  -0.2222222   0.6666667   0.0000000), wk =   0.0658436
        k(   30) = (   0.6666667  -0.2222222   0.8888889), wk =   0.1316872
        k(   31) = (   0.5555556  -0.1111111   0.7777778), wk =   0.1316872
        k(   32) = (   0.4444444   0.0000000   0.6666667), wk =   0.0658436
        k(   33) = (   0.7777778  -0.1111111   1.0000000), wk =   0.0658436
        k(   34) = (   0.6666667  -0.0000000   0.8888889), wk =   0.0658436
        k(   35) = (   0.5555556  -0.1111111   1.0000000), wk =   0.0658436

     Dense  grid:     3839 G-vectors     FFT dimensions: (  24,  24,  24)

     Estimated max dynamical RAM per process >       9.65 MB

     Estimated total dynamical RAM >      19.31 MB

     Initial potential from superposition of free atoms
     Check: negative starting charge=   -0.082129

     starting charge   15.49999, renormalised to   16.00000

     negative rho (up, down):  8.478E-02 0.000E+00
     Starting wfcs are   12 randomized atomic wfcs

     total cpu time spent up to now is        0.5 secs

     Self-consistent Calculation

     iteration #  1     ecut=    35.00 Ry     beta= 0.70
     Davidson diagonalization with overlap
     ethr =  1.00E-02,  avg # of iterations =  3.4

     negative rho (up, down):  8.198E-02 0.000E+00

     total cpu time spent up to now is        0.9 secs

     total energy              =    -197.87449673 Ry
     Harris-Foulkes estimate   =    -199.06904530 Ry
     estimated scf accuracy    <       1.61822099 Ry

     iteration #  2     ecut=    35.00 Ry     beta= 0.70
     Davidson diagonalization with overlap
     ethr =  1.00E-02,  avg # of iterations =  2.0

     negative rho (up, down):  8.426E-02 0.000E+00

     total cpu time spent up to now is        1.3 secs

     total energy              =    -198.24227827 Ry
     Harris-Foulkes estimate   =    -199.34779155 Ry
     estimated scf accuracy    <       2.38792723 Ry

     iteration #  3     ecut=    35.00 Ry     beta= 0.70
     Davidson diagonalization with overlap
     ethr =  1.00E-02,  avg # of iterations =  2.0

     negative rho (up, down):  8.430E-02 0.000E+00

     total cpu time spent up to now is        1.7 secs

     total energy              =    -198.66591982 Ry
     Harris-Foulkes estimate   =    -198.66595343 Ry
     estimated scf accuracy    <       0.00012274 Ry

     iteration #  4     ecut=    35.00 Ry     beta= 0.70
     Davidson diagonalization with overlap
     ethr =  7.67E-07,  avg # of iterations =  3.3

     negative rho (up, down):  8.441E-02 0.000E+00

     total cpu time spent up to now is        2.2 secs

     total energy              =    -198.66614931 Ry
     Harris-Foulkes estimate   =    -198.66614961 Ry
     estimated scf accuracy    <       0.00000608 Ry

     iteration #  5     ecut=    35.00 Ry     beta= 0.70
     Davidson diagonalization with overlap
     ethr =  3.80E-08,  avg # of iterations =  1.0

     negative rho (up, down):  8.442E-02 0.000E+00

     total cpu time spent up to now is        2.5 secs

     End of self-consistent calculation

          k = 0.0000 0.0000 0.0000 (   531 PWs)   bands (ev):

   -37.3060 -37.3060 -37.3060   6.7514  10.0038  10.0038  10.0038  10.9458
    10.9458  28.6301  31.5322  31.5322

          k =-0.1111 0.1111-0.1111 (   495 PWs)   bands (ev):

   -37.3196 -37.3076 -37.3076   7.0873   9.9315  10.0920  10.0920  10.9193
    10.9193  28.1881  29.5465  31.5521

          k =-0.2222 0.2222-0.2222 (   483 PWs)   bands (ev):

   -37.3545 -37.3131 -37.3131   7.9271   9.9319  10.1945  10.1945  10.9879
    10.9879  24.6132  29.1959  31.3504

          k =-0.3333 0.3333-0.3333 (   492 PWs)   bands (ev):

   -37.3944 -37.3194 -37.3194   8.4532  10.1112  10.1112  10.8986  11.3099
    11.3099  20.7544  28.5021  30.5730

          k =-0.4444 0.4444-0.4444 (   477 PWs)   bands (ev):

   -37.4199 -37.3232 -37.3232   8.4619  10.0093  10.0093  11.6004  11.6004
    12.8345  17.5386  27.9366  29.8142

          k = 0.0000 0.2222 0.0000 (   503 PWs)   bands (ev):

   -37.3192 -37.3111 -37.3111   7.2000   9.8294  10.1683  10.1683  10.7777
    11.0225  28.7080  30.1699  30.1826

          k =-0.1111 0.3333-0.1111 (   489 PWs)   bands (ev):

   -37.3450 -37.3172 -37.3153   7.8949   9.6788  10.2790  10.3277  10.7826
    11.1269  26.1552  28.9919  29.1415

          k =-0.2222 0.4444-0.2222 (   488 PWs)   bands (ev):

   -37.3818 -37.3236 -37.3221   8.5978   9.9417  10.0954  10.3168  11.3947
    11.4806  22.2099  28.4339  28.4554

          k =-0.3333 0.5556-0.3333 (   481 PWs)   bands (ev):

   -37.4107 -37.3294 -37.3269   8.6639   9.9184  10.2026  10.7184  11.6360
    13.0341  18.6332  27.5935  28.2593

          k = 0.5556-0.3333 0.5556 (   480 PWs)   bands (ev):

   -37.4186 -37.3337 -37.3259   8.6497   9.8811  10.1443  11.0463  11.5852
    14.1990  17.0130  26.8200  28.5692

          k = 0.4444-0.2222 0.4444 (   487 PWs)   bands (ev):

   -37.4024 -37.3326 -37.3210   8.6998   9.9794  10.2021  10.6552  11.2328
    12.5720  19.7769  26.5640  29.1240

          k = 0.3333-0.1111 0.3333 (   489 PWs)   bands (ev):

   -37.3694 -37.3266 -37.3143   8.4585   9.8042  10.2040  10.3271  10.8072
    11.5536  23.5259  26.8403  30.4657

          k = 0.2222-0.0000 0.2222 (   489 PWs)   bands (ev):

   -37.3366 -37.3166 -37.3091   7.6115   9.7916  10.2206  10.2252  10.7541
    11.0880  27.3764  27.4746  30.9296

          k = 0.0000 0.4444 0.0000 (   480 PWs)   bands (ev):

   -37.3526 -37.3245 -37.3245   8.3088   9.4104  10.5816  10.6267  10.6267
    11.2193  27.4569  27.4569  28.5595

          k =-0.1111 0.5556-0.1111 (   485 PWs)   bands (ev):

   -37.3776 -37.3329 -37.3318   8.8245   9.2756  10.3743  10.7647  11.4364
    11.5959  24.0190  26.3964  27.0292

          k =-0.2222 0.6667-0.2222 (   478 PWs)   bands (ev):

   -37.4000 -37.3444 -37.3352   8.9272   9.5215  10.2536  10.6742  11.6722
    13.4238  20.2873  25.1707  26.1344

          k = 0.6667-0.2222 0.6667 (   481 PWs)   bands (ev):

   -37.4079 -37.3555 -37.3337   8.9953   9.6430  10.3355  10.5643  11.6038
    15.7665  17.2869  23.7559  26.8400

          k = 0.5556-0.1111 0.5556 (   484 PWs)   bands (ev):

   -37.3997 -37.3586 -37.3276   9.1711   9.7305  10.1805  10.5329  11.2272
    14.3628  19.3489  22.9864  28.4770

          k = 0.4444 0.0000 0.4444 (   489 PWs)   bands (ev):

   -37.3847 -37.3471 -37.3201   9.1994   9.6190  10.0380  10.5741  10.7766
    12.6571  22.7970  23.1215  29.7432

          k = 0.0000 0.6667 0.0000 (   480 PWs)   bands (ev):

   -37.3904 -37.3400 -37.3400   8.7546   8.9685  11.2491  11.2491  11.4493
    11.8414  24.5959  24.9417  24.9417

          k =-0.1111 0.7778-0.1111 (   474 PWs)   bands (ev):

   -37.4039 -37.3502 -37.3444   8.7540   8.9186  11.0897  11.2581  11.6908
    13.6965  22.0260  22.8073  24.3709

          k = 0.7778-0.1111 0.7778 (   480 PWs)   bands (ev):

   -37.4036 -37.3674 -37.3430   8.8633   9.1867  10.6723  11.1148  11.6623
    16.2300  19.0833  21.0627  24.8819

          k = 0.6667-0.0000 0.6667 (   480 PWs)   bands (ev):

   -37.3862 -37.3861 -37.3363   9.1187   9.5994  10.1543  10.9004  11.3862
    16.5073  18.9306  20.3062  26.3746

          k = 0.0000 0.8889 0.0000 (   468 PWs)   bands (ev):

   -37.4147 -37.3499 -37.3499   8.5416   8.6985  11.6052  11.7441  11.7441
    14.4110  20.4522  23.4264  23.4264

          k = 0.8889 0.0000 0.8889 (   470 PWs)   bands (ev):

   -37.4141 -37.3572 -37.3494   8.6124   8.7769  11.4348  11.5080  11.7683
    15.7335  19.5612  21.7554  23.6146

          k =-0.2222 0.4444 0.0000 (   480 PWs)   bands (ev):

   -37.3658 -37.3308 -37.3190   8.6158   9.4959  10.1535  10.6278  10.8316
    11.5787  25.0713  25.4700  29.3634

          k =-0.3333 0.5556-0.1111 (   480 PWs)   bands (ev):

   -37.3913 -37.3427 -37.3255   9.0338   9.7645   9.9009  10.6155  11.2365
    12.7283  21.3881  24.8675  27.5245

          k = 0.5556-0.3333 0.7778 (   477 PWs)   bands (ev):

   -37.4086 -37.3483 -37.3309   8.9815   9.6939  10.3296  10.5076  11.5439
    14.6863  18.0070  25.0804  26.0483

          k =-0.2222 0.6667 0.0000 (   480 PWs)   bands (ev):

   -37.3927 -37.3473 -37.3365   9.0317   9.1324  10.3563  11.2425  11.2988
    12.9373  23.1451  23.4679  24.9526

          k = 0.6667-0.2222 0.8889 (   485 PWs)   bands (ev):

   -37.4006 -37.3612 -37.3413   9.0778   9.3477  10.1853  11.0287  11.5995
    15.0672  19.8300  22.9330  23.6713

          k = 0.5556-0.1111 0.7778 (   479 PWs)   bands (ev):

   -37.3968 -37.3724 -37.3396   9.2539   9.5131  10.0189  10.8356  11.5549
    16.8182  17.8996  21.8128  24.3991

          k = 0.4444 0.0000 0.6667 (   482 PWs)   bands (ev):

   -37.3937 -37.3654 -37.3327   9.5665   9.5877   9.6120  10.8788  11.2502
    14.5008  21.1005  21.2981  25.8222

          k = 0.7778-0.1111 1.0000 (   478 PWs)   bands (ev):

   -37.4083 -37.3577 -37.3498   8.7808   8.9029  10.9433  11.4187  11.7429
    15.4536  20.5074  22.1662  22.3732

          k = 0.6667-0.0000 0.8889 (   481 PWs)   bands (ev):

   -37.3996 -37.3724 -37.3479   8.9713   9.2078  10.4602  11.1270  11.7376
    17.4871  19.0945  20.0945  23.0036

          k = 0.5556-0.1111 1.0000 (   480 PWs)   bands (ev):

   -37.3917 -37.3773 -37.3488   9.2116   9.5095   9.8947  10.9766  11.7397
    17.2875  19.8263  20.3253  21.9034

     the Fermi energy is    11.6855 ev

!    total energy              =    -198.66614952 Ry
     Harris-Foulkes estimate   =    -198.66614950 Ry
     estimated scf accuracy    <       0.00000005 Ry

     The total energy is the sum of the following terms:

     one-electron contribution =     -68.97194886 Ry
     hartree contribution      =      44.64550191 Ry
     xc contribution           =     -31.20213749 Ry
     ewald contribution        =    -143.13715749 Ry
     smearing contrib. (-TS)   =      -0.00040759 Ry

     convergence has been achieved in   5 iterations

     Writing output data file Pd-kp-conv.save/
 
     init_run     :      0.37s CPU      0.40s WALL (       1 calls)
     electrons    :      1.90s CPU      2.39s WALL (       1 calls)

     Called by init_run:
     wfcinit      :      0.11s CPU      0.12s WALL (       1 calls)
     potinit      :      0.01s CPU      0.01s WALL (       1 calls)
     hinit0       :      0.25s CPU      0.26s WALL (       1 calls)

     Called by electrons:
     c_bands      :      1.55s CPU      1.63s WALL (       5 calls)
     sum_band     :      0.30s CPU      0.33s WALL (       5 calls)
     v_of_rho     :      0.02s CPU      0.03s WALL (       6 calls)
     newd         :      0.04s CPU      0.05s WALL (       6 calls)
     mix_rho      :      0.00s CPU      0.00s WALL (       5 calls)

     Called by c_bands:
     init_us_2    :      0.04s CPU      0.04s WALL (     385 calls)
     cegterg      :      1.43s CPU      1.51s WALL (     175 calls)

     Called by sum_band:
     sum_band:bec :      0.00s CPU      0.00s WALL (     175 calls)
     addusdens    :      0.04s CPU      0.05s WALL (       5 calls)

     Called by *egterg:
     h_psi        :      1.23s CPU      1.30s WALL (     619 calls)
     s_psi        :      0.02s CPU      0.02s WALL (     619 calls)
     g_psi        :      0.01s CPU      0.01s WALL (     409 calls)
     cdiaghg      :      0.16s CPU      0.16s WALL (     584 calls)

     Called by h_psi:
     h_psi:pot    :      1.22s CPU      1.29s WALL (     619 calls)
     h_psi:calbec :      0.03s CPU      0.03s WALL (     619 calls)
     vloc_psi     :      1.17s CPU      1.24s WALL (     619 calls)
     add_vuspsi   :      0.02s CPU      0.02s WALL (     619 calls)

     General routines
     calbec       :      0.03s CPU      0.03s WALL (     794 calls)
     fft          :      0.01s CPU      0.01s WALL (      67 calls)
     ffts         :      0.00s CPU      0.00s WALL (       5 calls)
     fftw         :      1.19s CPU      1.27s WALL (   13806 calls)
 
     Parallel routines
     fft_scatt_xy :      0.22s CPU      0.23s WALL (   13878 calls)
     fft_scatt_yz :      0.26s CPU      0.28s WALL (   13878 calls)
 
     PWSCF        :     2.36s CPU         3.01s WALL

 
   This run was terminated on:  21:17:19   2Dec2021            

=------------------------------------------------------------------------------=
   JOB DONE.
=------------------------------------------------------------------------------=
