
     Program PWSCF v.6.3 starts on  2Dec2021 at 20:58:40 

     This program is part of the open-source Quantum ESPRESSO suite
     for quantum simulation of materials; please cite
         "P. Giannozzi et al., J. Phys.:Condens. Matter 21 395502 (2009);
         "P. Giannozzi et al., J. Phys.:Condens. Matter 29 465901 (2017);
          URL http://www.quantum-espresso.org", 
     in publications or presentations arising from this work. More details at
     http://www.quantum-espresso.org/quote

     Parallel version (MPI & OpenMP), running on       2 processor cores
     Number of MPI processes:                 2
     Threads/MPI process:                     1

     MPI processes distributed on     1 nodes
     R & G space division:  proc/nbgrp/npool/nimage =       2
     Reading input from pw-input.in

     Current dimensions of program PWSCF are:
     Max number of different atomic species (ntypx) = 10
     Max number of k-points (npk) =  40000
     Max angular momentum in pseudopotentials (lmaxx) =  3

     Subspace diagonalization in iterative solution of the eigenvalue problem:
     a serial algorithm will be used

 
     Parallelization info
     --------------------
     sticks:   dense  smooth     PW     G-vecs:    dense   smooth      PW
     Min         156     156     54                 1917     1917     373
     Max         157     157     55                 1922     1922     376
     Sum         313     313    109                 3839     3839     749
 

     Title: 
     Pd-kp-conv                                                                 


     bravais-lattice index     =            2
     lattice parameter (alat)  =       8.2000  a.u.
     unit-cell volume          =     137.8420 (a.u.)^3
     number of atoms/cell      =            1
     number of atomic types    =            1
     number of electrons       =        16.00
     number of Kohn-Sham states=           12
     kinetic-energy cutoff     =      35.0000  Ry
     charge density cutoff     =     140.0000  Ry
     convergence threshold     =      1.0E-07
     mixing beta               =       0.7000
     number of iterations used =            8  plain     mixing
     Exchange-correlation      =  SLA  PW   PBX  PBC ( 1  4  3  4 0 0)

     celldm(1)=   8.200000  celldm(2)=   0.000000  celldm(3)=   0.000000
     celldm(4)=   0.000000  celldm(5)=   0.000000  celldm(6)=   0.000000

     crystal axes: (cart. coord. in units of alat)
               a(1) = (  -0.500000   0.000000   0.500000 )  
               a(2) = (   0.000000   0.500000   0.500000 )  
               a(3) = (  -0.500000   0.500000   0.000000 )  

     reciprocal axes: (cart. coord. in units 2 pi/alat)
               b(1) = ( -1.000000 -1.000000  1.000000 )  
               b(2) = (  1.000000  1.000000  1.000000 )  
               b(3) = ( -1.000000  1.000000 -1.000000 )  


     PseudoPot. # 1 for Pd read from file:
     ./pd_pbe_v1.4.uspp.F.UPF
     MD5 check sum: 2d733d2bc2cbfd217af676df1668a4bc
     Pseudo is Ultrasoft + core correction, Zval = 16.0
     Generated by new atomic code, or converted to UPF format
     Using radial grid of  887 points,  6 beta functions with: 
                l(1) =   0
                l(2) =   0
                l(3) =   1
                l(4) =   1
                l(5) =   2
                l(6) =   2
     Q(r) pseudized with  8 coefficients,  rinner =    1.130   1.130   1.130
                                                       1.130   1.130

     atomic species   valence    mass     pseudopotential
        Pd            16.00   106.40000     Pd( 1.00)

     48 Sym. Ops., with inversion, found



   Cartesian axes

     site n.     atom                  positions (alat units)
         1           Pd  tau(   1) = (   0.0000000   0.0000000   0.0000000  )

     number of k points=   120  Marzari-Vanderbilt smearing, width (Ry)=  0.0100

     Number of k-points >= 100: set verbosity='high' to print them.

     Dense  grid:     3839 G-vectors     FFT dimensions: (  24,  24,  24)

     Estimated max dynamical RAM per process >      13.40 MB

     Estimated total dynamical RAM >      26.81 MB

     Initial potential from superposition of free atoms
     Check: negative starting charge=   -0.082129

     starting charge   15.49999, renormalised to   16.00000

     negative rho (up, down):  8.478E-02 0.000E+00
     Starting wfcs are   12 randomized atomic wfcs

     total cpu time spent up to now is        0.9 secs

     Self-consistent Calculation

     iteration #  1     ecut=    35.00 Ry     beta= 0.70
     Davidson diagonalization with overlap
     ethr =  1.00E-02,  avg # of iterations =  3.4

     negative rho (up, down):  8.198E-02 0.000E+00

     total cpu time spent up to now is        2.4 secs

     total energy              =    -197.86883173 Ry
     Harris-Foulkes estimate   =    -199.06821034 Ry
     estimated scf accuracy    <       1.62477691 Ry

     iteration #  2     ecut=    35.00 Ry     beta= 0.70
     Davidson diagonalization with overlap
     ethr =  1.00E-02,  avg # of iterations =  2.0

     negative rho (up, down):  8.426E-02 0.000E+00

     total cpu time spent up to now is        3.7 secs

     total energy              =    -198.24142239 Ry
     Harris-Foulkes estimate   =    -199.35351726 Ry
     estimated scf accuracy    <       2.40338751 Ry

     iteration #  3     ecut=    35.00 Ry     beta= 0.70
     Davidson diagonalization with overlap
     ethr =  1.00E-02,  avg # of iterations =  2.0

     negative rho (up, down):  8.429E-02 0.000E+00

     total cpu time spent up to now is        4.9 secs

     total energy              =    -198.66629959 Ry
     Harris-Foulkes estimate   =    -198.66630849 Ry
     estimated scf accuracy    <       0.00008866 Ry

     iteration #  4     ecut=    35.00 Ry     beta= 0.70
     Davidson diagonalization with overlap
     ethr =  5.54E-07,  avg # of iterations =  3.2

     negative rho (up, down):  8.440E-02 0.000E+00

     total cpu time spent up to now is        6.6 secs

     total energy              =    -198.66648545 Ry
     Harris-Foulkes estimate   =    -198.66648655 Ry
     estimated scf accuracy    <       0.00000916 Ry

     iteration #  5     ecut=    35.00 Ry     beta= 0.70
     Davidson diagonalization with overlap
     ethr =  5.73E-08,  avg # of iterations =  1.0

     negative rho (up, down):  8.440E-02 0.000E+00

     total cpu time spent up to now is        7.7 secs

     End of self-consistent calculation

     Number of k-points >= 100: set verbosity='high' to print the bands.

     the Fermi energy is    11.6856 ev

!    total energy              =    -198.66648572 Ry
     Harris-Foulkes estimate   =    -198.66648572 Ry
     estimated scf accuracy    <       0.00000005 Ry

     The total energy is the sum of the following terms:

     one-electron contribution =     -68.98914084 Ry
     hartree contribution      =      44.66503452 Ry
     xc contribution           =     -31.20524908 Ry
     ewald contribution        =    -143.13715749 Ry
     smearing contrib. (-TS)   =       0.00002717 Ry

     convergence has been achieved in   5 iterations

     Writing output data file Pd-kp-conv.save/
 
     init_run     :      0.76s CPU      0.80s WALL (       1 calls)
     electrons    :      6.25s CPU      6.79s WALL (       1 calls)

     Called by init_run:
     wfcinit      :      0.39s CPU      0.43s WALL (       1 calls)
     potinit      :      0.01s CPU      0.01s WALL (       1 calls)
     hinit0       :      0.34s CPU      0.34s WALL (       1 calls)

     Called by electrons:
     c_bands      :      5.22s CPU      5.66s WALL (       5 calls)
     sum_band     :      0.97s CPU      1.02s WALL (       5 calls)
     v_of_rho     :      0.03s CPU      0.03s WALL (       6 calls)
     newd         :      0.04s CPU      0.05s WALL (       6 calls)
     mix_rho      :      0.00s CPU      0.00s WALL (       5 calls)

     Called by c_bands:
     init_us_2    :      0.15s CPU      0.16s WALL (    1320 calls)
     cegterg      :      4.83s CPU      5.18s WALL (     600 calls)

     Called by sum_band:
     sum_band:bec :      0.01s CPU      0.01s WALL (     600 calls)
     addusdens    :      0.04s CPU      0.05s WALL (       5 calls)

     Called by *egterg:
     h_psi        :      4.18s CPU      4.48s WALL (    2108 calls)
     s_psi        :      0.06s CPU      0.07s WALL (    2108 calls)
     g_psi        :      0.04s CPU      0.05s WALL (    1388 calls)
     cdiaghg      :      0.52s CPU      0.56s WALL (    1988 calls)

     Called by h_psi:
     h_psi:pot    :      4.16s CPU      4.46s WALL (    2108 calls)
     h_psi:calbec :      0.08s CPU      0.09s WALL (    2108 calls)
     vloc_psi     :      4.00s CPU      4.28s WALL (    2108 calls)
     add_vuspsi   :      0.06s CPU      0.07s WALL (    2108 calls)

     General routines
     calbec       :      0.10s CPU      0.11s WALL (    2708 calls)
     fft          :      0.01s CPU      0.01s WALL (      67 calls)
     ffts         :      0.00s CPU      0.00s WALL (       5 calls)
     fftw         :      4.10s CPU      4.38s WALL (   47166 calls)
 
     Parallel routines
     fft_scatt_xy :      0.75s CPU      0.80s WALL (   47238 calls)
     fft_scatt_yz :      0.90s CPU      0.97s WALL (   47238 calls)
 
     PWSCF        :     7.14s CPU         8.11s WALL

 
   This run was terminated on:  20:58:49   2Dec2021            

=------------------------------------------------------------------------------=
   JOB DONE.
=------------------------------------------------------------------------------=
