
     Program PWSCF v.6.3 starts on  2Dec2021 at 21:38:29 

     This program is part of the open-source Quantum ESPRESSO suite
     for quantum simulation of materials; please cite
         "P. Giannozzi et al., J. Phys.:Condens. Matter 21 395502 (2009);
         "P. Giannozzi et al., J. Phys.:Condens. Matter 29 465901 (2017);
          URL http://www.quantum-espresso.org", 
     in publications or presentations arising from this work. More details at
     http://www.quantum-espresso.org/quote

     Parallel version (MPI & OpenMP), running on       2 processor cores
     Number of MPI processes:                 2
     Threads/MPI process:                     1

     MPI processes distributed on     1 nodes
     R & G space division:  proc/nbgrp/npool/nimage =       2
     Reading input from pw-input.in

     Current dimensions of program PWSCF are:
     Max number of different atomic species (ntypx) = 10
     Max number of k-points (npk) =  40000
     Max angular momentum in pseudopotentials (lmaxx) =  3

     Subspace diagonalization in iterative solution of the eigenvalue problem:
     a serial algorithm will be used

 
     Parallelization info
     --------------------
     sticks:   dense  smooth     PW     G-vecs:    dense   smooth      PW
     Min         120     120     42                 1210     1210     264
     Max         121     121     43                 1211     1211     267
     Sum         241     241     85                 2421     2421     531
 

     Title: 
     Pd-kp-conv                                                                 


     bravais-lattice index     =            2
     lattice parameter (alat)  =       7.0000  a.u.
     unit-cell volume          =      85.7500 (a.u.)^3
     number of atoms/cell      =            1
     number of atomic types    =            1
     number of electrons       =        16.00
     number of Kohn-Sham states=           12
     kinetic-energy cutoff     =      35.0000  Ry
     charge density cutoff     =     140.0000  Ry
     convergence threshold     =      1.0E-07
     mixing beta               =       0.7000
     number of iterations used =            8  plain     mixing
     Exchange-correlation      =  SLA  PW   PBX  PBC ( 1  4  3  4 0 0)

     celldm(1)=   7.000000  celldm(2)=   0.000000  celldm(3)=   0.000000
     celldm(4)=   0.000000  celldm(5)=   0.000000  celldm(6)=   0.000000

     crystal axes: (cart. coord. in units of alat)
               a(1) = (  -0.500000   0.000000   0.500000 )  
               a(2) = (   0.000000   0.500000   0.500000 )  
               a(3) = (  -0.500000   0.500000   0.000000 )  

     reciprocal axes: (cart. coord. in units 2 pi/alat)
               b(1) = ( -1.000000 -1.000000  1.000000 )  
               b(2) = (  1.000000  1.000000  1.000000 )  
               b(3) = ( -1.000000  1.000000 -1.000000 )  


     PseudoPot. # 1 for Pd read from file:
     ./pd_pbe_v1.4.uspp.F.UPF
     MD5 check sum: 2d733d2bc2cbfd217af676df1668a4bc
     Pseudo is Ultrasoft + core correction, Zval = 16.0
     Generated by new atomic code, or converted to UPF format
     Using radial grid of  887 points,  6 beta functions with: 
                l(1) =   0
                l(2) =   0
                l(3) =   1
                l(4) =   1
                l(5) =   2
                l(6) =   2
     Q(r) pseudized with  8 coefficients,  rinner =    1.130   1.130   1.130
                                                       1.130   1.130

     atomic species   valence    mass     pseudopotential
        Pd            16.00   106.40000     Pd( 1.00)

     48 Sym. Ops., with inversion, found



   Cartesian axes

     site n.     atom                  positions (alat units)
         1           Pd  tau(   1) = (   0.0000000   0.0000000   0.0000000  )

     number of k points=    35  Marzari-Vanderbilt smearing, width (Ry)=  0.0200
                       cart. coord. in units 2pi/alat
        k(    1) = (   0.0000000   0.0000000   0.0000000), wk =   0.0027435
        k(    2) = (  -0.1111111   0.1111111  -0.1111111), wk =   0.0219479
        k(    3) = (  -0.2222222   0.2222222  -0.2222222), wk =   0.0219479
        k(    4) = (  -0.3333333   0.3333333  -0.3333333), wk =   0.0219479
        k(    5) = (  -0.4444444   0.4444444  -0.4444444), wk =   0.0219479
        k(    6) = (   0.0000000   0.2222222   0.0000000), wk =   0.0164609
        k(    7) = (  -0.1111111   0.3333333  -0.1111111), wk =   0.0658436
        k(    8) = (  -0.2222222   0.4444444  -0.2222222), wk =   0.0658436
        k(    9) = (  -0.3333333   0.5555556  -0.3333333), wk =   0.0658436
        k(   10) = (   0.5555556  -0.3333333   0.5555556), wk =   0.0658436
        k(   11) = (   0.4444444  -0.2222222   0.4444444), wk =   0.0658436
        k(   12) = (   0.3333333  -0.1111111   0.3333333), wk =   0.0658436
        k(   13) = (   0.2222222  -0.0000000   0.2222222), wk =   0.0329218
        k(   14) = (   0.0000000   0.4444444   0.0000000), wk =   0.0164609
        k(   15) = (  -0.1111111   0.5555556  -0.1111111), wk =   0.0658436
        k(   16) = (  -0.2222222   0.6666667  -0.2222222), wk =   0.0658436
        k(   17) = (   0.6666667  -0.2222222   0.6666667), wk =   0.0658436
        k(   18) = (   0.5555556  -0.1111111   0.5555556), wk =   0.0658436
        k(   19) = (   0.4444444   0.0000000   0.4444444), wk =   0.0329218
        k(   20) = (   0.0000000   0.6666667   0.0000000), wk =   0.0164609
        k(   21) = (  -0.1111111   0.7777778  -0.1111111), wk =   0.0658436
        k(   22) = (   0.7777778  -0.1111111   0.7777778), wk =   0.0658436
        k(   23) = (   0.6666667  -0.0000000   0.6666667), wk =   0.0329218
        k(   24) = (   0.0000000   0.8888889   0.0000000), wk =   0.0164609
        k(   25) = (   0.8888889   0.0000000   0.8888889), wk =   0.0329218
        k(   26) = (  -0.2222222   0.4444444   0.0000000), wk =   0.0658436
        k(   27) = (  -0.3333333   0.5555556  -0.1111111), wk =   0.1316872
        k(   28) = (   0.5555556  -0.3333333   0.7777778), wk =   0.1316872
        k(   29) = (  -0.2222222   0.6666667   0.0000000), wk =   0.0658436
        k(   30) = (   0.6666667  -0.2222222   0.8888889), wk =   0.1316872
        k(   31) = (   0.5555556  -0.1111111   0.7777778), wk =   0.1316872
        k(   32) = (   0.4444444   0.0000000   0.6666667), wk =   0.0658436
        k(   33) = (   0.7777778  -0.1111111   1.0000000), wk =   0.0658436
        k(   34) = (   0.6666667  -0.0000000   0.8888889), wk =   0.0658436
        k(   35) = (   0.5555556  -0.1111111   1.0000000), wk =   0.0658436

     Dense  grid:     2421 G-vectors     FFT dimensions: (  20,  20,  20)

     Estimated max dynamical RAM per process >       6.32 MB

     Estimated total dynamical RAM >      12.64 MB

     Initial potential from superposition of free atoms
     Check: negative starting charge=   -0.083349

     starting charge   15.49999, renormalised to   16.00000

     negative rho (up, down):  8.604E-02 0.000E+00
     Starting wfcs are   12 randomized atomic wfcs

     total cpu time spent up to now is        0.5 secs

     Self-consistent Calculation

     iteration #  1     ecut=    35.00 Ry     beta= 0.70
     Davidson diagonalization with overlap
     ethr =  1.00E-02,  avg # of iterations =  3.6

     negative rho (up, down):  8.606E-02 0.000E+00

     total cpu time spent up to now is        0.9 secs

     total energy              =    -198.33090914 Ry
     Harris-Foulkes estimate   =    -198.94370194 Ry
     estimated scf accuracy    <       0.85775596 Ry

     iteration #  2     ecut=    35.00 Ry     beta= 0.70
     Davidson diagonalization with overlap
     ethr =  5.36E-03,  avg # of iterations =  2.0

     negative rho (up, down):  8.731E-02 0.000E+00

     total cpu time spent up to now is        1.2 secs

     total energy              =    -198.55747036 Ry
     Harris-Foulkes estimate   =    -198.83916807 Ry
     estimated scf accuracy    <       0.51944235 Ry

     iteration #  3     ecut=    35.00 Ry     beta= 0.70
     Davidson diagonalization with overlap
     ethr =  3.25E-03,  avg # of iterations =  2.0

     negative rho (up, down):  8.786E-02 0.000E+00

     total cpu time spent up to now is        1.4 secs

     total energy              =    -198.67434581 Ry
     Harris-Foulkes estimate   =    -198.67533632 Ry
     estimated scf accuracy    <       0.00207116 Ry

     iteration #  4     ecut=    35.00 Ry     beta= 0.70
     Davidson diagonalization with overlap
     ethr =  1.29E-05,  avg # of iterations =  2.1

     negative rho (up, down):  8.800E-02 0.000E+00

     total cpu time spent up to now is        2.0 secs

     total energy              =    -198.67488979 Ry
     Harris-Foulkes estimate   =    -198.67492248 Ry
     estimated scf accuracy    <       0.00006116 Ry

     iteration #  5     ecut=    35.00 Ry     beta= 0.70
     Davidson diagonalization with overlap
     ethr =  3.82E-07,  avg # of iterations =  2.0

     negative rho (up, down):  8.803E-02 0.000E+00

     total cpu time spent up to now is        2.3 secs

     total energy              =    -198.67490389 Ry
     Harris-Foulkes estimate   =    -198.67490404 Ry
     estimated scf accuracy    <       0.00000046 Ry

     iteration #  6     ecut=    35.00 Ry     beta= 0.70
     Davidson diagonalization with overlap
     ethr =  2.90E-09,  avg # of iterations =  2.1

     negative rho (up, down):  8.803E-02 0.000E+00

     total cpu time spent up to now is        2.5 secs

     End of self-consistent calculation

          k = 0.0000 0.0000 0.0000 (   307 PWs)   bands (ev):

   -27.2093 -27.2093 -27.2093  14.5011  19.2484  19.2484  19.2484  21.3055
    21.3055  40.9800  46.6757  46.6757

          k =-0.1111 0.1111-0.1111 (   307 PWs)   bands (ev):

   -27.2937 -27.2209 -27.2209  15.0025  19.0677  19.4264  19.4264  21.2236
    21.2236  41.5426  44.0204  47.2949

          k =-0.2222 0.2222-0.2222 (   302 PWs)   bands (ev):

   -27.5035 -27.2499 -27.2499  16.1130  19.0378  19.6303  19.6303  21.3463
    21.3463  39.8891  42.4029  48.7140

          k =-0.3333 0.3333-0.3333 (   302 PWs)   bands (ev):

   -27.7371 -27.2827 -27.2827  16.4822  19.4350  19.4350  20.6161  22.0665
    22.0665  35.7611  41.3816  48.3139

          k =-0.4444 0.4444-0.4444 (   290 PWs)   bands (ev):

   -27.8861 -27.3037 -27.3037  16.3177  19.2100  19.2100  22.7450  22.7450
    23.0559  32.1819  40.3615  46.5616

          k = 0.0000 0.2222 0.0000 (   307 PWs)   bands (ev):

   -27.2913 -27.2399 -27.2399  15.1708  18.8448  19.5879  19.5879  20.8883
    21.4662  41.8148  44.7148  46.3070

          k =-0.1111 0.3333-0.1111 (   301 PWs)   bands (ev):

   -27.4468 -27.2745 -27.2631  16.1389  18.5041  19.7905  19.9177  20.8657
    21.6805  41.4722  42.8103  45.9402

          k =-0.2222 0.4444-0.2222 (   298 PWs)   bands (ev):

   -27.6631 -27.3085 -27.3005  16.8240  19.0398  19.3677  19.8787  22.1744
    22.2727  37.3904  42.1427  45.3992

          k =-0.3333 0.5556-0.3333 (   300 PWs)   bands (ev):

   -27.8317 -27.3416 -27.3261  16.6928  18.9672  19.6191  20.5042  22.8291
    24.3626  33.2464  40.9541  44.8892

          k = 0.5556-0.3333 0.5556 (   294 PWs)   bands (ev):

   -27.8776 -27.3663 -27.3189  16.6386  18.8933  19.4884  21.1656  22.7055
    25.6403  31.5654  40.5398  44.3395

          k = 0.4444-0.2222 0.4444 (   297 PWs)   bands (ev):

   -27.7826 -27.3621 -27.2908  16.8166  19.1238  19.6120  20.3105  21.8825
    24.0602  34.6073  41.0050  44.5213

          k = 0.3333-0.1111 0.3333 (   302 PWs)   bands (ev):

   -27.5911 -27.3279 -27.2544  16.8001  18.7837  19.5872  19.8977  20.9262
    22.5221  38.8085  41.9064  46.1759

          k = 0.2222-0.0000 0.2222 (   305 PWs)   bands (ev):

   -27.3969 -27.2724 -27.2268  15.7608  18.7470  19.6825  19.7019  20.8252
    21.5850  42.0884  42.2786  46.1991

          k = 0.0000 0.4444 0.0000 (   303 PWs)   bands (ev):

   -27.4921 -27.3166 -27.3166  16.6335  17.9255  20.3797  20.5517  20.5517
    21.8924  42.9329  43.8304  43.8307

          k =-0.1111 0.5556-0.1111 (   301 PWs)   bands (ev):

   -27.6373 -27.3639 -27.3561  17.0995  17.6660  19.9632  20.8434  22.3314
    22.3774  39.4038  42.3298  42.4137

          k =-0.2222 0.6667-0.2222 (   303 PWs)   bands (ev):

   -27.7665 -27.4312 -27.3750  17.0603  18.0975  19.7092  20.6287  22.9165
    25.2138  34.8827  40.5530  41.9777

          k = 0.6667-0.2222 0.6667 (   298 PWs)   bands (ev):

   -27.8109 -27.4966 -27.3643  17.1969  18.3292  19.8143  20.3759  22.7478
    28.1931  31.4934  39.0587  43.0463

          k = 0.5556-0.1111 0.5556 (   299 PWs)   bands (ev):

   -27.7641 -27.5160 -27.3293  17.6001  18.5340  19.4539  20.2977  21.8709
    26.7803  33.9609  38.2295  43.6561

          k = 0.4444 0.0000 0.4444 (   301 PWs)   bands (ev):

   -27.6783 -27.4489 -27.2858  17.8830  18.3752  19.1543  20.3850  20.8757
    24.4542  37.8358  38.8162  44.5235

          k = 0.0000 0.6667 0.0000 (   310 PWs)   bands (ev):

   -27.7109 -27.4032 -27.4032  16.7399  17.0155  21.9143  21.9143  22.2733
    22.4076  40.1652  40.1652  40.3970

          k =-0.1111 0.7778-0.1111 (   307 PWs)   bands (ev):

   -27.7873 -27.4626 -27.4276  16.6073  16.9242  21.4096  21.9333  22.9587
    25.3306  36.8325  38.2819  39.2252

          k = 0.7778-0.1111 0.7778 (   298 PWs)   bands (ev):

   -27.7815 -27.5658 -27.4182  16.7926  17.4563  20.5306  21.5889  22.8865
    29.0991  32.9436  36.3615  40.0948

          k = 0.6667-0.0000 0.6667 (   284 PWs)   bands (ev):

   -27.6816 -27.6777 -27.3792  17.3252  18.2795  19.4750  21.0920  22.2432
    29.6218  32.9673  35.3457  42.5350

          k = 0.0000 0.8889 0.0000 (   302 PWs)   bands (ev):

   -27.8480 -27.4591 -27.4591  16.1534  16.4807  22.7637  23.0708  23.0708
    25.5516  36.2173  37.6134  37.6134

          k = 0.8889 0.0000 0.8889 (   302 PWs)   bands (ev):

   -27.8431 -27.5030 -27.4555  16.2711  16.6471  22.1942  22.5151  23.1340
    27.6628  35.1536  35.7926  37.9529

          k =-0.2222 0.4444 0.0000 (   304 PWs)   bands (ev):

   -27.5697 -27.3543 -27.2835  17.0914  18.1081  19.4816  20.5530  20.9398
    22.5727  40.2280  41.4401  45.1568

          k =-0.3333 0.5556-0.1111 (   304 PWs)   bands (ev):

   -27.7174 -27.4223 -27.3184  17.4010  18.6405  18.9703  20.4880  21.8480
    24.4308  36.3948  40.3746  43.0076

          k = 0.5556-0.3333 0.7778 (   299 PWs)   bands (ev):

   -27.8169 -27.4545 -27.3489  17.2329  18.4404  19.7897  20.2228  22.5956
    26.9131  32.3585  40.2473  41.7608

          k =-0.2222 0.6667 0.0000 (   304 PWs)   bands (ev):

   -27.7241 -27.4465 -27.3827  17.2365  17.3645  19.9184  21.9018  21.9531
    24.5990  38.2120  38.7956  40.6380

          k = 0.6667-0.2222 0.8889 (   298 PWs)   bands (ev):

   -27.7658 -27.5291 -27.4091  17.2546  17.7641  19.5572  21.3741  22.7274
    27.6716  34.1497  38.5556  38.6962

          k = 0.5556-0.1111 0.7778 (   293 PWs)   bands (ev):

   -27.7436 -27.5965 -27.3992  17.5889  18.1252  19.1896  20.9464  22.6246
    29.9066  31.9558  36.9799  39.8755

          k = 0.4444 0.0000 0.6667 (   299 PWs)   bands (ev):

   -27.7280 -27.5554 -27.3593  18.1853  18.3175  18.4222  21.0233  21.9242
    27.0528  36.0105  36.1962  41.4927

          k = 0.7778-0.1111 1.0000 (   301 PWs)   bands (ev):

   -27.8099 -27.5063 -27.4583  16.6024  16.9109  21.1148  22.2747  23.0680
    27.7533  35.9929  36.5571  36.7926

          k = 0.6667-0.0000 0.8889 (   294 PWs)   bands (ev):

   -27.7573 -27.5946 -27.4479  16.9691  17.5266  20.0972  21.5971  23.0583
    30.6289  33.1154  35.1942  37.8872

          k = 0.5556-0.1111 1.0000 (   298 PWs)   bands (ev):

   -27.7115 -27.6246 -27.4544  17.4145  18.1614  18.9541  21.2430  23.0621
    30.6982  33.9164  35.2765  36.8356

     the Fermi energy is    22.8610 ev

!    total energy              =    -198.67490400 Ry
     Harris-Foulkes estimate   =    -198.67490401 Ry
     estimated scf accuracy    <       0.00000001 Ry

     The total energy is the sum of the following terms:

     one-electron contribution =     -30.99551891 Ry
     hartree contribution      =      31.50364231 Ry
     xc contribution           =     -31.50789582 Ry
     ewald contribution        =    -167.67495590 Ry
     smearing contrib. (-TS)   =      -0.00017568 Ry

     convergence has been achieved in   6 iterations

     Writing output data file Pd-kp-conv.save/
 
     init_run     :      0.41s CPU      0.44s WALL (       1 calls)
     electrons    :      1.53s CPU      2.00s WALL (       1 calls)

     Called by init_run:
     wfcinit      :      0.09s CPU      0.10s WALL (       1 calls)
     potinit      :      0.00s CPU      0.02s WALL (       1 calls)
     hinit0       :      0.30s CPU      0.31s WALL (       1 calls)

     Called by electrons:
     c_bands      :      1.26s CPU      1.37s WALL (       6 calls)
     sum_band     :      0.23s CPU      0.25s WALL (       6 calls)
     v_of_rho     :      0.02s CPU      0.02s WALL (       7 calls)
     newd         :      0.03s CPU      0.03s WALL (       7 calls)
     mix_rho      :      0.00s CPU      0.00s WALL (       6 calls)

     Called by c_bands:
     init_us_2    :      0.03s CPU      0.04s WALL (     455 calls)
     cegterg      :      1.17s CPU      1.27s WALL (     210 calls)

     Called by sum_band:
     sum_band:bec :      0.00s CPU      0.00s WALL (     210 calls)
     addusdens    :      0.03s CPU      0.03s WALL (       6 calls)

     Called by *egterg:
     h_psi        :      0.92s CPU      1.00s WALL (     728 calls)
     s_psi        :      0.01s CPU      0.02s WALL (     728 calls)
     g_psi        :      0.01s CPU      0.01s WALL (     483 calls)
     cdiaghg      :      0.21s CPU      0.23s WALL (     693 calls)

     Called by h_psi:
     h_psi:pot    :      0.91s CPU      1.00s WALL (     728 calls)
     h_psi:calbec :      0.02s CPU      0.03s WALL (     728 calls)
     vloc_psi     :      0.87s CPU      0.95s WALL (     728 calls)
     add_vuspsi   :      0.02s CPU      0.02s WALL (     728 calls)

     General routines
     calbec       :      0.03s CPU      0.03s WALL (     938 calls)
     fft          :      0.01s CPU      0.01s WALL (      78 calls)
     ffts         :      0.00s CPU      0.00s WALL (       6 calls)
     fftw         :      0.89s CPU      0.97s WALL (   15996 calls)
 
     Parallel routines
     fft_scatt_xy :      0.16s CPU      0.18s WALL (   16080 calls)
     fft_scatt_yz :      0.23s CPU      0.26s WALL (   16080 calls)
 
     PWSCF        :     2.04s CPU         2.67s WALL

 
   This run was terminated on:  21:38:31   2Dec2021            

=------------------------------------------------------------------------------=
   JOB DONE.
=------------------------------------------------------------------------------=
