
     Program PWSCF v.6.3 starts on  2Dec2021 at 21:38:46 

     This program is part of the open-source Quantum ESPRESSO suite
     for quantum simulation of materials; please cite
         "P. Giannozzi et al., J. Phys.:Condens. Matter 21 395502 (2009);
         "P. Giannozzi et al., J. Phys.:Condens. Matter 29 465901 (2017);
          URL http://www.quantum-espresso.org", 
     in publications or presentations arising from this work. More details at
     http://www.quantum-espresso.org/quote

     Parallel version (MPI & OpenMP), running on       2 processor cores
     Number of MPI processes:                 2
     Threads/MPI process:                     1

     MPI processes distributed on     1 nodes
     R & G space division:  proc/nbgrp/npool/nimage =       2
     Reading input from pw-input.in

     Current dimensions of program PWSCF are:
     Max number of different atomic species (ntypx) = 10
     Max number of k-points (npk) =  40000
     Max angular momentum in pseudopotentials (lmaxx) =  3

     Subspace diagonalization in iterative solution of the eigenvalue problem:
     a serial algorithm will be used

 
     Parallelization info
     --------------------
     sticks:   dense  smooth     PW     G-vecs:    dense   smooth      PW
     Min         132     132     45                 1445     1445     304
     Max         133     133     46                 1446     1446     305
     Sum         265     265     91                 2891     2891     609
 

     Title: 
     Pd-kp-conv                                                                 


     bravais-lattice index     =            2
     lattice parameter (alat)  =       7.5000  a.u.
     unit-cell volume          =     105.4688 (a.u.)^3
     number of atoms/cell      =            1
     number of atomic types    =            1
     number of electrons       =        16.00
     number of Kohn-Sham states=           12
     kinetic-energy cutoff     =      35.0000  Ry
     charge density cutoff     =     140.0000  Ry
     convergence threshold     =      1.0E-07
     mixing beta               =       0.7000
     number of iterations used =            8  plain     mixing
     Exchange-correlation      =  SLA  PW   PBX  PBC ( 1  4  3  4 0 0)

     celldm(1)=   7.500000  celldm(2)=   0.000000  celldm(3)=   0.000000
     celldm(4)=   0.000000  celldm(5)=   0.000000  celldm(6)=   0.000000

     crystal axes: (cart. coord. in units of alat)
               a(1) = (  -0.500000   0.000000   0.500000 )  
               a(2) = (   0.000000   0.500000   0.500000 )  
               a(3) = (  -0.500000   0.500000   0.000000 )  

     reciprocal axes: (cart. coord. in units 2 pi/alat)
               b(1) = ( -1.000000 -1.000000  1.000000 )  
               b(2) = (  1.000000  1.000000  1.000000 )  
               b(3) = ( -1.000000  1.000000 -1.000000 )  


     PseudoPot. # 1 for Pd read from file:
     ./pd_pbe_v1.4.uspp.F.UPF
     MD5 check sum: 2d733d2bc2cbfd217af676df1668a4bc
     Pseudo is Ultrasoft + core correction, Zval = 16.0
     Generated by new atomic code, or converted to UPF format
     Using radial grid of  887 points,  6 beta functions with: 
                l(1) =   0
                l(2) =   0
                l(3) =   1
                l(4) =   1
                l(5) =   2
                l(6) =   2
     Q(r) pseudized with  8 coefficients,  rinner =    1.130   1.130   1.130
                                                       1.130   1.130

     atomic species   valence    mass     pseudopotential
        Pd            16.00   106.40000     Pd( 1.00)

     48 Sym. Ops., with inversion, found



   Cartesian axes

     site n.     atom                  positions (alat units)
         1           Pd  tau(   1) = (   0.0000000   0.0000000   0.0000000  )

     number of k points=    35  Marzari-Vanderbilt smearing, width (Ry)=  0.0200
                       cart. coord. in units 2pi/alat
        k(    1) = (   0.0000000   0.0000000   0.0000000), wk =   0.0027435
        k(    2) = (  -0.1111111   0.1111111  -0.1111111), wk =   0.0219479
        k(    3) = (  -0.2222222   0.2222222  -0.2222222), wk =   0.0219479
        k(    4) = (  -0.3333333   0.3333333  -0.3333333), wk =   0.0219479
        k(    5) = (  -0.4444444   0.4444444  -0.4444444), wk =   0.0219479
        k(    6) = (   0.0000000   0.2222222   0.0000000), wk =   0.0164609
        k(    7) = (  -0.1111111   0.3333333  -0.1111111), wk =   0.0658436
        k(    8) = (  -0.2222222   0.4444444  -0.2222222), wk =   0.0658436
        k(    9) = (  -0.3333333   0.5555556  -0.3333333), wk =   0.0658436
        k(   10) = (   0.5555556  -0.3333333   0.5555556), wk =   0.0658436
        k(   11) = (   0.4444444  -0.2222222   0.4444444), wk =   0.0658436
        k(   12) = (   0.3333333  -0.1111111   0.3333333), wk =   0.0658436
        k(   13) = (   0.2222222  -0.0000000   0.2222222), wk =   0.0329218
        k(   14) = (   0.0000000   0.4444444   0.0000000), wk =   0.0164609
        k(   15) = (  -0.1111111   0.5555556  -0.1111111), wk =   0.0658436
        k(   16) = (  -0.2222222   0.6666667  -0.2222222), wk =   0.0658436
        k(   17) = (   0.6666667  -0.2222222   0.6666667), wk =   0.0658436
        k(   18) = (   0.5555556  -0.1111111   0.5555556), wk =   0.0658436
        k(   19) = (   0.4444444   0.0000000   0.4444444), wk =   0.0329218
        k(   20) = (   0.0000000   0.6666667   0.0000000), wk =   0.0164609
        k(   21) = (  -0.1111111   0.7777778  -0.1111111), wk =   0.0658436
        k(   22) = (   0.7777778  -0.1111111   0.7777778), wk =   0.0658436
        k(   23) = (   0.6666667  -0.0000000   0.6666667), wk =   0.0329218
        k(   24) = (   0.0000000   0.8888889   0.0000000), wk =   0.0164609
        k(   25) = (   0.8888889   0.0000000   0.8888889), wk =   0.0329218
        k(   26) = (  -0.2222222   0.4444444   0.0000000), wk =   0.0658436
        k(   27) = (  -0.3333333   0.5555556  -0.1111111), wk =   0.1316872
        k(   28) = (   0.5555556  -0.3333333   0.7777778), wk =   0.1316872
        k(   29) = (  -0.2222222   0.6666667   0.0000000), wk =   0.0658436
        k(   30) = (   0.6666667  -0.2222222   0.8888889), wk =   0.1316872
        k(   31) = (   0.5555556  -0.1111111   0.7777778), wk =   0.1316872
        k(   32) = (   0.4444444   0.0000000   0.6666667), wk =   0.0658436
        k(   33) = (   0.7777778  -0.1111111   1.0000000), wk =   0.0658436
        k(   34) = (   0.6666667  -0.0000000   0.8888889), wk =   0.0658436
        k(   35) = (   0.5555556  -0.1111111   1.0000000), wk =   0.0658436

     Dense  grid:     2891 G-vectors     FFT dimensions: (  20,  20,  20)

     Estimated max dynamical RAM per process >       7.40 MB

     Estimated total dynamical RAM >      14.80 MB

     Initial potential from superposition of free atoms
     Check: negative starting charge=   -0.084664

     starting charge   15.49999, renormalised to   16.00000

     negative rho (up, down):  8.740E-02 0.000E+00
     Starting wfcs are   12 randomized atomic wfcs

     total cpu time spent up to now is        0.6 secs

     Self-consistent Calculation

     iteration #  1     ecut=    35.00 Ry     beta= 0.70
     Davidson diagonalization with overlap
     ethr =  1.00E-02,  avg # of iterations =  3.7

     negative rho (up, down):  8.675E-02 0.000E+00

     total cpu time spent up to now is        1.0 secs

     total energy              =    -198.17741038 Ry
     Harris-Foulkes estimate   =    -199.03860317 Ry
     estimated scf accuracy    <       1.18631062 Ry

     iteration #  2     ecut=    35.00 Ry     beta= 0.70
     Davidson diagonalization with overlap
     ethr =  7.41E-03,  avg # of iterations =  2.0

     negative rho (up, down):  8.793E-02 0.000E+00

     total cpu time spent up to now is        1.2 secs

     total energy              =    -198.46568005 Ry
     Harris-Foulkes estimate   =    -199.04005486 Ry
     estimated scf accuracy    <       1.14634690 Ry

     iteration #  3     ecut=    35.00 Ry     beta= 0.70
     Davidson diagonalization with overlap
     ethr =  7.16E-03,  avg # of iterations =  2.0

     negative rho (up, down):  8.820E-02 0.000E+00

     total cpu time spent up to now is        1.5 secs

     total energy              =    -198.70044304 Ry
     Harris-Foulkes estimate   =    -198.70156109 Ry
     estimated scf accuracy    <       0.00238219 Ry

     iteration #  4     ecut=    35.00 Ry     beta= 0.70
     Davidson diagonalization with overlap
     ethr =  1.49E-05,  avg # of iterations =  2.3

     negative rho (up, down):  8.838E-02 0.000E+00

     total cpu time spent up to now is        2.1 secs

     total energy              =    -198.70120118 Ry
     Harris-Foulkes estimate   =    -198.70120290 Ry
     estimated scf accuracy    <       0.00001290 Ry

     iteration #  5     ecut=    35.00 Ry     beta= 0.70
     Davidson diagonalization with overlap
     ethr =  8.06E-08,  avg # of iterations =  2.0

     negative rho (up, down):  8.843E-02 0.000E+00

     total cpu time spent up to now is        2.4 secs

     total energy              =    -198.70120351 Ry
     Harris-Foulkes estimate   =    -198.70120327 Ry
     estimated scf accuracy    <       0.00000030 Ry

     iteration #  6     ecut=    35.00 Ry     beta= 0.70
     Davidson diagonalization with overlap
     ethr =  1.88E-09,  avg # of iterations =  2.0

     negative rho (up, down):  8.843E-02 0.000E+00

     total cpu time spent up to now is        2.6 secs

     End of self-consistent calculation

          k = 0.0000 0.0000 0.0000 (   339 PWs)   bands (ev):

   -32.2879 -32.2879 -32.2879  10.5650  14.6755  14.6755  14.6755  16.1448
    16.1448  35.0652  39.4974  39.4974

          k =-0.1111 0.1111-0.1111 (   359 PWs)   bands (ev):

   -32.3277 -32.2938 -32.2938  10.9831  14.5507  14.8052  14.8052  16.0915
    16.0915  35.2624  37.0359  39.8404

          k =-0.2222 0.2222-0.2222 (   359 PWs)   bands (ev):

   -32.4262 -32.3080 -32.3080  11.9792  14.5197  14.9580  14.9580  16.1872
    16.1872  32.4717  36.0351  40.4066

          k =-0.3333 0.3333-0.3333 (   359 PWs)   bands (ev):

   -32.5368 -32.3242 -32.3242  12.4865  14.8233  14.8233  15.7421  16.6965
    16.6965  28.3092  35.1601  39.6817

          k =-0.4444 0.4444-0.4444 (   368 PWs)   bands (ev):

   -32.6087 -32.3347 -32.3347  12.4276  14.6626  14.6626  17.1635  17.1635
    17.9137  24.8207  34.3966  38.4784

          k = 0.0000 0.2222 0.0000 (   355 PWs)   bands (ev):

   -32.3265 -32.3026 -32.3026  11.1232  14.3940  14.9213  14.9213  15.8619
    16.2613  35.5320  37.7841  38.6319

          k =-0.1111 0.3333-0.1111 (   360 PWs)   bands (ev):

   -32.3996 -32.3195 -32.3142  11.9632  14.1494  15.0786  15.1625  15.8512
    16.4165  34.0879  36.1831  37.7976

          k =-0.2222 0.4444-0.2222 (   368 PWs)   bands (ev):

   -32.5020 -32.3364 -32.3327  12.7155  14.5117  14.7828  15.1398  16.8278
    16.8355  29.8978  35.5192  37.0833

          k =-0.3333 0.5556-0.3333 (   371 PWs)   bands (ev):

   -32.5827 -32.3524 -32.3453  12.7133  14.5021  14.9581  15.6309  17.2216
    18.6586  25.9224  34.5730  36.7715

          k = 0.5556-0.3333 0.5556 (   370 PWs)   bands (ev):

   -32.6049 -32.3641 -32.3421  12.6820  14.4472  14.8658  16.1303  17.1384
    19.8460  24.2581  34.1060  36.5038

          k = 0.4444-0.2222 0.4444 (   363 PWs)   bands (ev):

   -32.5590 -32.3618 -32.3284  12.7859  14.6076  14.9560  15.4932  16.5707
    18.2773  27.2018  34.2097  36.8172

          k = 0.3333-0.1111 0.3333 (   366 PWs)   bands (ev):

   -32.4676 -32.3452 -32.3107  12.6049  14.3295  14.9406  15.1560  15.8965
    17.0340  31.3330  34.7018  38.3695

          k = 0.2222-0.0000 0.2222 (   361 PWs)   bands (ev):

   -32.3761 -32.3182 -32.2970  11.6264  14.3247  14.9944  15.0071  15.8190
    16.3510  35.1543  35.2019  38.7302

          k = 0.0000 0.4444 0.0000 (   355 PWs)   bands (ev):

   -32.4209 -32.3396 -32.3396  12.4338  13.7371  15.5080  15.6201  15.6201
    16.5656  35.8214  35.8214  35.9706

          k =-0.1111 0.5556-0.1111 (   359 PWs)   bands (ev):

   -32.4899 -32.3624 -32.3590  12.9762  13.5309  15.1957  15.8327  16.9061
    16.9584  31.8517  34.5399  34.9229

          k =-0.2222 0.6667-0.2222 (   370 PWs)   bands (ev):

   -32.5521 -32.3945 -32.3684  13.0442  13.8630  15.0039  15.6853  17.2812
    19.2850  27.6215  33.0944  34.1908

          k = 0.6667-0.2222 0.6667 (   372 PWs)   bands (ev):

   -32.5737 -32.4255 -32.3637  13.1458  14.0426  15.0976  15.5086  17.1684
    21.9363  24.3753  31.5638  35.0881

          k = 0.5556-0.1111 0.5556 (   374 PWs)   bands (ev):

   -32.5511 -32.4345 -32.3470  13.4222  14.1923  14.8365  15.4557  16.5616
    20.5288  26.6461  30.7104  36.5437

          k = 0.4444 0.0000 0.4444 (   367 PWs)   bands (ev):

   -32.5094 -32.4025 -32.3261  13.5302  14.0475  14.6446  15.5198  15.8556
    18.5212  30.4697  30.9889  37.3684

          k = 0.0000 0.6667 0.0000 (   355 PWs)   bands (ev):

   -32.5251 -32.3814 -32.3814  12.7920  13.0675  16.5931  16.5931  16.9293
    17.0315  32.6721  32.6721  32.7036

          k =-0.1111 0.7778-0.1111 (   368 PWs)   bands (ev):

   -32.5626 -32.4099 -32.3936  12.7454  12.9908  16.2648  16.6073  17.3106
    19.4674  29.6048  30.5463  31.9153

          k = 0.7778-0.1111 0.7778 (   367 PWs)   bands (ev):

   -32.5604 -32.4585 -32.3892  12.9014  13.3752  15.6198  16.3717  17.2647
    22.6193  26.0737  28.7349  32.6024

          k = 0.6667-0.0000 0.6667 (   375 PWs)   bands (ev):

   -32.5129 -32.5115 -32.3710  13.2928  13.9726  14.8413  16.0245  16.8183
    23.0612  25.8985  27.8809  34.5691

          k = 0.0000 0.8889 0.0000 (   367 PWs)   bands (ev):

   -32.5921 -32.4087 -32.4087  12.4201  12.6659  17.1765  17.3913  17.3913
    19.9477  28.3620  30.6415  30.6415

          k = 0.8889 0.0000 0.8889 (   365 PWs)   bands (ev):

   -32.5900 -32.4293 -32.4071  12.5164  12.7830  16.8226  17.0105  17.4341
    21.6289  27.4173  28.8404  30.9021

          k =-0.2222 0.4444 0.0000 (   362 PWs)   bands (ev):

   -32.4576 -32.3573 -32.3244  12.8160  13.8640  14.8686  15.6233  15.9098
    17.0705  32.9106  33.5731  37.4309

          k =-0.3333 0.5556-0.1111 (   367 PWs)   bands (ev):

   -32.5280 -32.3901 -32.3415  13.2440  14.2385  14.4822  15.5852  16.5551
    18.5437  28.9486  32.7910  35.4959

          k = 0.5556-0.3333 0.7778 (   370 PWs)   bands (ev):

   -32.5762 -32.4055 -32.3562  13.1443  14.1337  15.0869  15.4000  17.0665
    20.7579  25.1590  32.9485  34.0095

          k =-0.2222 0.6667 0.0000 (   371 PWs)   bands (ev):

   -32.5320 -32.4019 -32.3720  13.1764  13.3148  15.1621  16.5832  16.6363
    18.7254  30.8337  31.1917  32.9295

          k = 0.6667-0.2222 0.8889 (   371 PWs)   bands (ev):

   -32.5525 -32.4411 -32.3847  13.2282  13.6105  14.8986  16.2233  17.1570
    21.3268  27.0264  30.8429  31.2635

          k = 0.5556-0.1111 0.7778 (   374 PWs)   bands (ev):

   -32.5423 -32.4728 -32.3803  13.4885  13.8582  14.6346  15.9217  17.0852
    23.3487  24.9021  29.4651  32.2347

          k = 0.4444 0.0000 0.6667 (   373 PWs)   bands (ev):

   -32.5341 -32.4533 -32.3612  13.9527  13.9988  14.0234  15.9788  16.5983
    20.7328  28.5422  28.8442  33.8358

          k = 0.7778-0.1111 1.0000 (   367 PWs)   bands (ev):

   -32.5739 -32.4308 -32.4082  12.7617  12.9748  16.0475  16.8523  17.3899
    21.5521  28.3248  29.4400  29.6424

          k = 0.6667-0.0000 0.8889 (   378 PWs)   bands (ev):

   -32.5493 -32.4725 -32.4034  13.0425  13.4191  15.3017  16.3824  17.3822
    24.0038  26.2074  27.6217  30.5218

          k = 0.5556-0.1111 1.0000 (   371 PWs)   bands (ev):

   -32.5272 -32.4864 -32.4060  13.3801  13.8819  14.4585  16.1379  17.3854
    23.9747  26.8665  27.8863  29.3923

     the Fermi energy is    17.2659 ev

!    total energy              =    -198.70120356 Ry
     Harris-Foulkes estimate   =    -198.70120356 Ry
     estimated scf accuracy    <          2.3E-09 Ry

     The total energy is the sum of the following terms:

     one-electron contribution =     -47.90930740 Ry
     hartree contribution      =      37.02991207 Ry
     xc contribution           =     -31.32482550 Ry
     ewald contribution        =    -156.49662553 Ry
     smearing contrib. (-TS)   =      -0.00035721 Ry

     convergence has been achieved in   6 iterations

     Writing output data file Pd-kp-conv.save/
 
     init_run     :      0.43s CPU      0.47s WALL (       1 calls)
     electrons    :      1.60s CPU      2.08s WALL (       1 calls)

     Called by init_run:
     wfcinit      :      0.09s CPU      0.12s WALL (       1 calls)
     potinit      :      0.00s CPU      0.02s WALL (       1 calls)
     hinit0       :      0.32s CPU      0.32s WALL (       1 calls)

     Called by electrons:
     c_bands      :      1.32s CPU      1.43s WALL (       6 calls)
     sum_band     :      0.23s CPU      0.26s WALL (       6 calls)
     v_of_rho     :      0.02s CPU      0.02s WALL (       7 calls)
     newd         :      0.04s CPU      0.04s WALL (       7 calls)
     mix_rho      :      0.00s CPU      0.00s WALL (       6 calls)

     Called by c_bands:
     init_us_2    :      0.04s CPU      0.04s WALL (     455 calls)
     cegterg      :      1.21s CPU      1.32s WALL (     210 calls)

     Called by sum_band:
     sum_band:bec :      0.00s CPU      0.00s WALL (     210 calls)
     addusdens    :      0.04s CPU      0.04s WALL (       6 calls)

     Called by *egterg:
     h_psi        :      0.94s CPU      1.02s WALL (     737 calls)
     s_psi        :      0.02s CPU      0.02s WALL (     737 calls)
     g_psi        :      0.01s CPU      0.01s WALL (     492 calls)
     cdiaghg      :      0.21s CPU      0.23s WALL (     702 calls)

     Called by h_psi:
     h_psi:pot    :      0.93s CPU      1.02s WALL (     737 calls)
     h_psi:calbec :      0.03s CPU      0.03s WALL (     737 calls)
     vloc_psi     :      0.88s CPU      0.96s WALL (     737 calls)
     add_vuspsi   :      0.02s CPU      0.02s WALL (     737 calls)

     General routines
     calbec       :      0.03s CPU      0.03s WALL (     947 calls)
     fft          :      0.01s CPU      0.01s WALL (      78 calls)
     ffts         :      0.00s CPU      0.00s WALL (       6 calls)
     fftw         :      0.90s CPU      0.99s WALL (   15654 calls)
 
     Parallel routines
     fft_scatt_xy :      0.16s CPU      0.18s WALL (   15738 calls)
     fft_scatt_yz :      0.24s CPU      0.27s WALL (   15738 calls)
 
     PWSCF        :     2.13s CPU         2.82s WALL

 
   This run was terminated on:  21:38:48   2Dec2021            

=------------------------------------------------------------------------------=
   JOB DONE.
=------------------------------------------------------------------------------=
