
     Program PWSCF v.6.3 starts on  2Dec2021 at 21:22:46 

     This program is part of the open-source Quantum ESPRESSO suite
     for quantum simulation of materials; please cite
         "P. Giannozzi et al., J. Phys.:Condens. Matter 21 395502 (2009);
         "P. Giannozzi et al., J. Phys.:Condens. Matter 29 465901 (2017);
          URL http://www.quantum-espresso.org", 
     in publications or presentations arising from this work. More details at
     http://www.quantum-espresso.org/quote

     Parallel version (MPI & OpenMP), running on       2 processor cores
     Number of MPI processes:                 2
     Threads/MPI process:                     1

     MPI processes distributed on     1 nodes
     R & G space division:  proc/nbgrp/npool/nimage =       2
     Reading input from pw-input.in

     Current dimensions of program PWSCF are:
     Max number of different atomic species (ntypx) = 10
     Max number of k-points (npk) =  40000
     Max angular momentum in pseudopotentials (lmaxx) =  3

     Subspace diagonalization in iterative solution of the eigenvalue problem:
     a serial algorithm will be used

 
     Parallelization info
     --------------------
     sticks:   dense  smooth     PW     G-vecs:    dense   smooth      PW
     Min         105     105     42                 1042     1042     229
     Max         106     106     43                 1043     1043     230
     Sum         211     211     85                 2085     2085     459
 

     Title: 
     Pd-kp-conv                                                                 


     bravais-lattice index     =            2
     lattice parameter (alat)  =       6.7000  a.u.
     unit-cell volume          =      75.1908 (a.u.)^3
     number of atoms/cell      =            1
     number of atomic types    =            1
     number of electrons       =        16.00
     number of Kohn-Sham states=           12
     kinetic-energy cutoff     =      35.0000  Ry
     charge density cutoff     =     140.0000  Ry
     convergence threshold     =      1.0E-07
     mixing beta               =       0.7000
     number of iterations used =            8  plain     mixing
     Exchange-correlation      =  SLA  PW   PBX  PBC ( 1  4  3  4 0 0)

     celldm(1)=   6.700000  celldm(2)=   0.000000  celldm(3)=   0.000000
     celldm(4)=   0.000000  celldm(5)=   0.000000  celldm(6)=   0.000000

     crystal axes: (cart. coord. in units of alat)
               a(1) = (  -0.500000   0.000000   0.500000 )  
               a(2) = (   0.000000   0.500000   0.500000 )  
               a(3) = (  -0.500000   0.500000   0.000000 )  

     reciprocal axes: (cart. coord. in units 2 pi/alat)
               b(1) = ( -1.000000 -1.000000  1.000000 )  
               b(2) = (  1.000000  1.000000  1.000000 )  
               b(3) = ( -1.000000  1.000000 -1.000000 )  


     PseudoPot. # 1 for Pd read from file:
     ./pd_pbe_v1.4.uspp.F.UPF
     MD5 check sum: 2d733d2bc2cbfd217af676df1668a4bc
     Pseudo is Ultrasoft + core correction, Zval = 16.0
     Generated by new atomic code, or converted to UPF format
     Using radial grid of  887 points,  6 beta functions with: 
                l(1) =   0
                l(2) =   0
                l(3) =   1
                l(4) =   1
                l(5) =   2
                l(6) =   2
     Q(r) pseudized with  8 coefficients,  rinner =    1.130   1.130   1.130
                                                       1.130   1.130

     atomic species   valence    mass     pseudopotential
        Pd            16.00   106.40000     Pd( 1.00)

     48 Sym. Ops., with inversion, found



   Cartesian axes

     site n.     atom                  positions (alat units)
         1           Pd  tau(   1) = (   0.0000000   0.0000000   0.0000000  )

     number of k points=   195  Marzari-Vanderbilt smearing, width (Ry)=  0.0150

     Number of k-points >= 100: set verbosity='high' to print them.

     Dense  grid:     2085 G-vectors     FFT dimensions: (  18,  18,  18)

     Estimated max dynamical RAM per process >       9.36 MB

     Estimated total dynamical RAM >      18.71 MB

     Initial potential from superposition of free atoms
     Check: negative starting charge=   -0.084526

     starting charge   15.49999, renormalised to   16.00000

     negative rho (up, down):  8.725E-02 0.000E+00
     Starting wfcs are   12 randomized atomic wfcs

     total cpu time spent up to now is        0.9 secs

     Self-consistent Calculation

     iteration #  1     ecut=    35.00 Ry     beta= 0.70
     Davidson diagonalization with overlap
     ethr =  1.00E-02,  avg # of iterations =  3.5

     negative rho (up, down):  8.907E-02 0.000E+00

     total cpu time spent up to now is        2.4 secs

     total energy              =    -198.36077626 Ry
     Harris-Foulkes estimate   =    -198.82963871 Ry
     estimated scf accuracy    <       0.66474038 Ry

     iteration #  2     ecut=    35.00 Ry     beta= 0.70
     Davidson diagonalization with overlap
     ethr =  4.15E-03,  avg # of iterations =  2.0

     negative rho (up, down):  8.987E-02 0.000E+00

     total cpu time spent up to now is        3.7 secs

     total energy              =    -198.54782328 Ry
     Harris-Foulkes estimate   =    -198.70944218 Ry
     estimated scf accuracy    <       0.28265872 Ry

     iteration #  3     ecut=    35.00 Ry     beta= 0.70
     Davidson diagonalization with overlap
     ethr =  1.77E-03,  avg # of iterations =  2.0

     negative rho (up, down):  9.056E-02 0.000E+00

     total cpu time spent up to now is        4.8 secs

     total energy              =    -198.61132433 Ry
     Harris-Foulkes estimate   =    -198.61169263 Ry
     estimated scf accuracy    <       0.00089753 Ry

     iteration #  4     ecut=    35.00 Ry     beta= 0.70
     Davidson diagonalization with overlap
     ethr =  5.61E-06,  avg # of iterations =  2.2

     negative rho (up, down):  9.070E-02 0.000E+00

     total cpu time spent up to now is        6.1 secs

     total energy              =    -198.61152777 Ry
     Harris-Foulkes estimate   =    -198.61153587 Ry
     estimated scf accuracy    <       0.00001506 Ry

     iteration #  5     ecut=    35.00 Ry     beta= 0.70
     Davidson diagonalization with overlap
     ethr =  9.41E-08,  avg # of iterations =  2.0

     negative rho (up, down):  9.073E-02 0.000E+00

     total cpu time spent up to now is        7.3 secs

     total energy              =    -198.61153151 Ry
     Harris-Foulkes estimate   =    -198.61153157 Ry
     estimated scf accuracy    <       0.00000018 Ry

     iteration #  6     ecut=    35.00 Ry     beta= 0.70
     Davidson diagonalization with overlap
     ethr =  1.15E-09,  avg # of iterations =  2.0

     negative rho (up, down):  9.073E-02 0.000E+00

     total cpu time spent up to now is        8.5 secs

     End of self-consistent calculation

     Number of k-points >= 100: set verbosity='high' to print the bands.

     the Fermi energy is    27.1389 ev

!    total energy              =    -198.61153155 Ry
     Harris-Foulkes estimate   =    -198.61153155 Ry
     estimated scf accuracy    <          2.8E-09 Ry

     The total energy is the sum of the following terms:

     one-electron contribution =     -19.96866627 Ry
     hartree contribution      =      28.21747470 Ry
     xc contribution           =     -31.67769482 Ry
     ewald contribution        =    -175.18278975 Ry
     smearing contrib. (-TS)   =       0.00014459 Ry

     convergence has been achieved in   6 iterations

     Writing output data file Pd-kp-conv.save/
 
     init_run     :      0.70s CPU      0.78s WALL (       1 calls)
     electrons    :      6.97s CPU      7.95s WALL (       1 calls)

     Called by init_run:
     wfcinit      :      0.40s CPU      0.45s WALL (       1 calls)
     potinit      :      0.00s CPU      0.01s WALL (       1 calls)
     hinit0       :      0.30s CPU      0.30s WALL (       1 calls)

     Called by electrons:
     c_bands      :      5.95s CPU      6.49s WALL (       6 calls)
     sum_band     :      0.98s CPU      1.07s WALL (       6 calls)
     v_of_rho     :      0.01s CPU      0.02s WALL (       7 calls)
     newd         :      0.03s CPU      0.03s WALL (       7 calls)
     mix_rho      :      0.00s CPU      0.00s WALL (       6 calls)

     Called by c_bands:
     init_us_2    :      0.16s CPU      0.17s WALL (    2535 calls)
     cegterg      :      5.51s CPU      6.02s WALL (    1170 calls)

     Called by sum_band:
     sum_band:bec :      0.01s CPU      0.01s WALL (    1170 calls)
     addusdens    :      0.03s CPU      0.03s WALL (       6 calls)

     Called by *egterg:
     h_psi        :      4.31s CPU      4.72s WALL (    4055 calls)
     s_psi        :      0.08s CPU      0.08s WALL (    4055 calls)
     g_psi        :      0.05s CPU      0.05s WALL (    2690 calls)
     cdiaghg      :      0.94s CPU      1.01s WALL (    3860 calls)

     Called by h_psi:
     h_psi:pot    :      4.28s CPU      4.69s WALL (    4055 calls)
     h_psi:calbec :      0.11s CPU      0.12s WALL (    4055 calls)
     vloc_psi     :      4.06s CPU      4.45s WALL (    4055 calls)
     add_vuspsi   :      0.08s CPU      0.09s WALL (    4055 calls)

     General routines
     calbec       :      0.13s CPU      0.14s WALL (    5225 calls)
     fft          :      0.01s CPU      0.01s WALL (      78 calls)
     ffts         :      0.00s CPU      0.00s WALL (       6 calls)
     fftw         :      4.23s CPU      4.63s WALL (   88684 calls)
 
     Parallel routines
     fft_scatt_xy :      0.73s CPU      0.80s WALL (   88768 calls)
     fft_scatt_yz :      1.18s CPU      1.31s WALL (   88768 calls)
 
     PWSCF        :     7.76s CPU         9.40s WALL

 
   This run was terminated on:  21:22:55   2Dec2021            

=------------------------------------------------------------------------------=
   JOB DONE.
=------------------------------------------------------------------------------=
