
     Program PWSCF v.6.3 starts on  2Dec2021 at 21:22:56 

     This program is part of the open-source Quantum ESPRESSO suite
     for quantum simulation of materials; please cite
         "P. Giannozzi et al., J. Phys.:Condens. Matter 21 395502 (2009);
         "P. Giannozzi et al., J. Phys.:Condens. Matter 29 465901 (2017);
          URL http://www.quantum-espresso.org", 
     in publications or presentations arising from this work. More details at
     http://www.quantum-espresso.org/quote

     Parallel version (MPI & OpenMP), running on       2 processor cores
     Number of MPI processes:                 2
     Threads/MPI process:                     1

     MPI processes distributed on     1 nodes
     R & G space division:  proc/nbgrp/npool/nimage =       2
     Reading input from pw-input.in

     Current dimensions of program PWSCF are:
     Max number of different atomic species (ntypx) = 10
     Max number of k-points (npk) =  40000
     Max angular momentum in pseudopotentials (lmaxx) =  3

     Subspace diagonalization in iterative solution of the eigenvalue problem:
     a serial algorithm will be used

 
     Parallelization info
     --------------------
     sticks:   dense  smooth     PW     G-vecs:    dense   smooth      PW
     Min         111     111     42                 1066     1066     264
     Max         112     112     43                 1067     1067     267
     Sum         223     223     85                 2133     2133     531
 

     Title: 
     Pd-kp-conv                                                                 


     bravais-lattice index     =            2
     lattice parameter (alat)  =       6.8000  a.u.
     unit-cell volume          =      78.6080 (a.u.)^3
     number of atoms/cell      =            1
     number of atomic types    =            1
     number of electrons       =        16.00
     number of Kohn-Sham states=           12
     kinetic-energy cutoff     =      35.0000  Ry
     charge density cutoff     =     140.0000  Ry
     convergence threshold     =      1.0E-07
     mixing beta               =       0.7000
     number of iterations used =            8  plain     mixing
     Exchange-correlation      =  SLA  PW   PBX  PBC ( 1  4  3  4 0 0)

     celldm(1)=   6.800000  celldm(2)=   0.000000  celldm(3)=   0.000000
     celldm(4)=   0.000000  celldm(5)=   0.000000  celldm(6)=   0.000000

     crystal axes: (cart. coord. in units of alat)
               a(1) = (  -0.500000   0.000000   0.500000 )  
               a(2) = (   0.000000   0.500000   0.500000 )  
               a(3) = (  -0.500000   0.500000   0.000000 )  

     reciprocal axes: (cart. coord. in units 2 pi/alat)
               b(1) = ( -1.000000 -1.000000  1.000000 )  
               b(2) = (  1.000000  1.000000  1.000000 )  
               b(3) = ( -1.000000  1.000000 -1.000000 )  


     PseudoPot. # 1 for Pd read from file:
     ./pd_pbe_v1.4.uspp.F.UPF
     MD5 check sum: 2d733d2bc2cbfd217af676df1668a4bc
     Pseudo is Ultrasoft + core correction, Zval = 16.0
     Generated by new atomic code, or converted to UPF format
     Using radial grid of  887 points,  6 beta functions with: 
                l(1) =   0
                l(2) =   0
                l(3) =   1
                l(4) =   1
                l(5) =   2
                l(6) =   2
     Q(r) pseudized with  8 coefficients,  rinner =    1.130   1.130   1.130
                                                       1.130   1.130

     atomic species   valence    mass     pseudopotential
        Pd            16.00   106.40000     Pd( 1.00)

     48 Sym. Ops., with inversion, found



   Cartesian axes

     site n.     atom                  positions (alat units)
         1           Pd  tau(   1) = (   0.0000000   0.0000000   0.0000000  )

     number of k points=   195  Marzari-Vanderbilt smearing, width (Ry)=  0.0150

     Number of k-points >= 100: set verbosity='high' to print them.

     Dense  grid:     2133 G-vectors     FFT dimensions: (  20,  20,  20)

     Estimated max dynamical RAM per process >       9.75 MB

     Estimated total dynamical RAM >      19.49 MB

     Initial potential from superposition of free atoms
     Check: negative starting charge=   -0.081587

     starting charge   15.49999, renormalised to   16.00000

     negative rho (up, down):  8.422E-02 0.000E+00
     Starting wfcs are   12 randomized atomic wfcs

     total cpu time spent up to now is        0.9 secs

     Self-consistent Calculation

     iteration #  1     ecut=    35.00 Ry     beta= 0.70
     Davidson diagonalization with overlap
     ethr =  1.00E-02,  avg # of iterations =  3.5

     negative rho (up, down):  8.474E-02 0.000E+00

     total cpu time spent up to now is        3.0 secs

     total energy              =    -198.35616327 Ry
     Harris-Foulkes estimate   =    -198.87328730 Ry
     estimated scf accuracy    <       0.72983637 Ry

     iteration #  2     ecut=    35.00 Ry     beta= 0.70
     Davidson diagonalization with overlap
     ethr =  4.56E-03,  avg # of iterations =  2.0

     negative rho (up, down):  8.596E-02 0.000E+00

     total cpu time spent up to now is        4.4 secs

     total energy              =    -198.55936154 Ry
     Harris-Foulkes estimate   =    -198.75672440 Ry
     estimated scf accuracy    <       0.35140508 Ry

     iteration #  3     ecut=    35.00 Ry     beta= 0.70
     Davidson diagonalization with overlap
     ethr =  2.20E-03,  avg # of iterations =  2.0

     negative rho (up, down):  8.654E-02 0.000E+00

     total cpu time spent up to now is        5.6 secs

     total energy              =    -198.63785461 Ry
     Harris-Foulkes estimate   =    -198.63830654 Ry
     estimated scf accuracy    <       0.00105253 Ry

     iteration #  4     ecut=    35.00 Ry     beta= 0.70
     Davidson diagonalization with overlap
     ethr =  6.58E-06,  avg # of iterations =  2.2

     negative rho (up, down):  8.666E-02 0.000E+00

     total cpu time spent up to now is        7.0 secs

     total energy              =    -198.63811308 Ry
     Harris-Foulkes estimate   =    -198.63812340 Ry
     estimated scf accuracy    <       0.00001974 Ry

     iteration #  5     ecut=    35.00 Ry     beta= 0.70
     Davidson diagonalization with overlap
     ethr =  1.23E-07,  avg # of iterations =  2.0

     negative rho (up, down):  8.669E-02 0.000E+00

     total cpu time spent up to now is        8.4 secs

     total energy              =    -198.63811782 Ry
     Harris-Foulkes estimate   =    -198.63811787 Ry
     estimated scf accuracy    <       0.00000019 Ry

     iteration #  6     ecut=    35.00 Ry     beta= 0.70
     Davidson diagonalization with overlap
     ethr =  1.20E-09,  avg # of iterations =  2.1

     negative rho (up, down):  8.669E-02 0.000E+00

     total cpu time spent up to now is        9.9 secs

     End of self-consistent calculation

     Number of k-points >= 100: set verbosity='high' to print the bands.

     the Fermi energy is    25.6401 ev

!    total energy              =    -198.63811786 Ry
     Harris-Foulkes estimate   =    -198.63811787 Ry
     estimated scf accuracy    <          5.4E-09 Ry

     The total energy is the sum of the following terms:

     one-electron contribution =     -23.73369073 Ry
     hartree contribution      =      29.31926654 Ry
     xc contribution           =     -31.61726565 Ry
     ewald contribution        =    -172.60657228 Ry
     smearing contrib. (-TS)   =       0.00014426 Ry

     convergence has been achieved in   6 iterations

     Writing output data file Pd-kp-conv.save/
 
     init_run     :      0.73s CPU      0.79s WALL (       1 calls)
     electrons    :      7.82s CPU      9.03s WALL (       1 calls)

     Called by init_run:
     wfcinit      :      0.41s CPU      0.46s WALL (       1 calls)
     potinit      :      0.00s CPU      0.01s WALL (       1 calls)
     hinit0       :      0.30s CPU      0.30s WALL (       1 calls)

     Called by electrons:
     c_bands      :      6.64s CPU      7.71s WALL (       6 calls)
     sum_band     :      1.13s CPU      1.24s WALL (       6 calls)
     v_of_rho     :      0.02s CPU      0.02s WALL (       7 calls)
     newd         :      0.03s CPU      0.03s WALL (       7 calls)
     mix_rho      :      0.00s CPU      0.00s WALL (       6 calls)

     Called by c_bands:
     init_us_2    :      0.16s CPU      0.18s WALL (    2535 calls)
     cegterg      :      6.17s CPU      6.69s WALL (    1170 calls)

     Called by sum_band:
     sum_band:bec :      0.01s CPU      0.01s WALL (    1170 calls)
     addusdens    :      0.03s CPU      0.03s WALL (       6 calls)

     Called by *egterg:
     h_psi        :      4.95s CPU      5.39s WALL (    4054 calls)
     s_psi        :      0.08s CPU      0.08s WALL (    4054 calls)
     g_psi        :      0.05s CPU      0.05s WALL (    2689 calls)
     cdiaghg      :      0.96s CPU      1.02s WALL (    3859 calls)

     Called by h_psi:
     h_psi:pot    :      4.92s CPU      5.36s WALL (    4054 calls)
     h_psi:calbec :      0.11s CPU      0.13s WALL (    4054 calls)
     vloc_psi     :      4.70s CPU      5.12s WALL (    4054 calls)
     add_vuspsi   :      0.08s CPU      0.09s WALL (    4054 calls)

     General routines
     calbec       :      0.13s CPU      0.14s WALL (    5224 calls)
     fft          :      0.01s CPU      0.01s WALL (      78 calls)
     ffts         :      0.00s CPU      0.00s WALL (       6 calls)
     fftw         :      4.88s CPU      5.31s WALL (   88846 calls)
 
     Parallel routines
     fft_scatt_xy :      0.89s CPU      0.97s WALL (   88930 calls)
     fft_scatt_yz :      1.26s CPU      1.39s WALL (   88930 calls)
 
     PWSCF        :     8.71s CPU        10.62s WALL

 
   This run was terminated on:  21:23: 6   2Dec2021            

=------------------------------------------------------------------------------=
   JOB DONE.
=------------------------------------------------------------------------------=
