
     Program PWSCF v.6.3 starts on  2Dec2021 at 21:23:30 

     This program is part of the open-source Quantum ESPRESSO suite
     for quantum simulation of materials; please cite
         "P. Giannozzi et al., J. Phys.:Condens. Matter 21 395502 (2009);
         "P. Giannozzi et al., J. Phys.:Condens. Matter 29 465901 (2017);
          URL http://www.quantum-espresso.org", 
     in publications or presentations arising from this work. More details at
     http://www.quantum-espresso.org/quote

     Parallel version (MPI & OpenMP), running on       2 processor cores
     Number of MPI processes:                 2
     Threads/MPI process:                     1

     MPI processes distributed on     1 nodes
     R & G space division:  proc/nbgrp/npool/nimage =       2
     Reading input from pw-input.in

     Current dimensions of program PWSCF are:
     Max number of different atomic species (ntypx) = 10
     Max number of k-points (npk) =  40000
     Max angular momentum in pseudopotentials (lmaxx) =  3

     Subspace diagonalization in iterative solution of the eigenvalue problem:
     a serial algorithm will be used

 
     Parallelization info
     --------------------
     sticks:   dense  smooth     PW     G-vecs:    dense   smooth      PW
     Min         120     120     42                 1221     1221     267
     Max         121     121     43                 1224     1224     270
     Sum         241     241     85                 2445     2445     537
 

     Title: 
     Pd-kp-conv                                                                 


     bravais-lattice index     =            2
     lattice parameter (alat)  =       7.1000  a.u.
     unit-cell volume          =      89.4777 (a.u.)^3
     number of atoms/cell      =            1
     number of atomic types    =            1
     number of electrons       =        16.00
     number of Kohn-Sham states=           12
     kinetic-energy cutoff     =      35.0000  Ry
     charge density cutoff     =     140.0000  Ry
     convergence threshold     =      1.0E-07
     mixing beta               =       0.7000
     number of iterations used =            8  plain     mixing
     Exchange-correlation      =  SLA  PW   PBX  PBC ( 1  4  3  4 0 0)

     celldm(1)=   7.100000  celldm(2)=   0.000000  celldm(3)=   0.000000
     celldm(4)=   0.000000  celldm(5)=   0.000000  celldm(6)=   0.000000

     crystal axes: (cart. coord. in units of alat)
               a(1) = (  -0.500000   0.000000   0.500000 )  
               a(2) = (   0.000000   0.500000   0.500000 )  
               a(3) = (  -0.500000   0.500000   0.000000 )  

     reciprocal axes: (cart. coord. in units 2 pi/alat)
               b(1) = ( -1.000000 -1.000000  1.000000 )  
               b(2) = (  1.000000  1.000000  1.000000 )  
               b(3) = ( -1.000000  1.000000 -1.000000 )  


     PseudoPot. # 1 for Pd read from file:
     ./pd_pbe_v1.4.uspp.F.UPF
     MD5 check sum: 2d733d2bc2cbfd217af676df1668a4bc
     Pseudo is Ultrasoft + core correction, Zval = 16.0
     Generated by new atomic code, or converted to UPF format
     Using radial grid of  887 points,  6 beta functions with: 
                l(1) =   0
                l(2) =   0
                l(3) =   1
                l(4) =   1
                l(5) =   2
                l(6) =   2
     Q(r) pseudized with  8 coefficients,  rinner =    1.130   1.130   1.130
                                                       1.130   1.130

     atomic species   valence    mass     pseudopotential
        Pd            16.00   106.40000     Pd( 1.00)

     48 Sym. Ops., with inversion, found



   Cartesian axes

     site n.     atom                  positions (alat units)
         1           Pd  tau(   1) = (   0.0000000   0.0000000   0.0000000  )

     number of k points=   195  Marzari-Vanderbilt smearing, width (Ry)=  0.0150

     Number of k-points >= 100: set verbosity='high' to print them.

     Dense  grid:     2445 G-vectors     FFT dimensions: (  20,  20,  20)

     Estimated max dynamical RAM per process >      10.99 MB

     Estimated total dynamical RAM >      21.98 MB

     Initial potential from superposition of free atoms
     Check: negative starting charge=   -0.083979

     starting charge   15.49999, renormalised to   16.00000

     negative rho (up, down):  8.669E-02 0.000E+00
     Starting wfcs are   12 randomized atomic wfcs

     total cpu time spent up to now is        0.9 secs

     Self-consistent Calculation

     iteration #  1     ecut=    35.00 Ry     beta= 0.70
     Davidson diagonalization with overlap
     ethr =  1.00E-02,  avg # of iterations =  3.5

     negative rho (up, down):  8.653E-02 0.000E+00

     total cpu time spent up to now is        3.0 secs

     total energy              =    -198.30338486 Ry
     Harris-Foulkes estimate   =    -198.96890042 Ry
     estimated scf accuracy    <       0.92830875 Ry

     iteration #  2     ecut=    35.00 Ry     beta= 0.70
     Davidson diagonalization with overlap
     ethr =  5.80E-03,  avg # of iterations =  2.0

     negative rho (up, down):  8.778E-02 0.000E+00

     total cpu time spent up to now is        4.5 secs

     total energy              =    -198.54853283 Ry
     Harris-Foulkes estimate   =    -198.88348560 Ry
     estimated scf accuracy    <       0.62906695 Ry

     iteration #  3     ecut=    35.00 Ry     beta= 0.70
     Davidson diagonalization with overlap
     ethr =  3.93E-03,  avg # of iterations =  2.0

     negative rho (up, down):  8.822E-02 0.000E+00

     total cpu time spent up to now is        5.8 secs

     total energy              =    -198.68562900 Ry
     Harris-Foulkes estimate   =    -198.68635717 Ry
     estimated scf accuracy    <       0.00157341 Ry

     iteration #  4     ecut=    35.00 Ry     beta= 0.70
     Davidson diagonalization with overlap
     ethr =  9.83E-06,  avg # of iterations =  2.2

     negative rho (up, down):  8.837E-02 0.000E+00

     total cpu time spent up to now is        7.3 secs

     total energy              =    -198.68607784 Ry
     Harris-Foulkes estimate   =    -198.68608682 Ry
     estimated scf accuracy    <       0.00002147 Ry

     iteration #  5     ecut=    35.00 Ry     beta= 0.70
     Davidson diagonalization with overlap
     ethr =  1.34E-07,  avg # of iterations =  2.0

     negative rho (up, down):  8.841E-02 0.000E+00

     total cpu time spent up to now is        8.7 secs

     End of self-consistent calculation

     Number of k-points >= 100: set verbosity='high' to print the bands.

     the Fermi energy is    21.6438 ev

!    total energy              =    -198.68608222 Ry
     Harris-Foulkes estimate   =    -198.68608210 Ry
     estimated scf accuracy    <       0.00000008 Ry

     The total energy is the sum of the following terms:

     one-electron contribution =     -34.54378044 Ry
     hartree contribution      =      32.63918824 Ry
     xc contribution           =     -31.46829118 Ry
     ewald contribution        =    -165.31333683 Ry
     smearing contrib. (-TS)   =       0.00013800 Ry

     convergence has been achieved in   5 iterations

     Writing output data file Pd-kp-conv.save/
 
     init_run     :      0.77s CPU      0.82s WALL (       1 calls)
     electrons    :      6.65s CPU      7.84s WALL (       1 calls)

     Called by init_run:
     wfcinit      :      0.45s CPU      0.49s WALL (       1 calls)
     potinit      :      0.00s CPU      0.01s WALL (       1 calls)
     hinit0       :      0.31s CPU      0.31s WALL (       1 calls)

     Called by electrons:
     c_bands      :      5.64s CPU      6.36s WALL (       5 calls)
     sum_band     :      0.97s CPU      1.05s WALL (       5 calls)
     v_of_rho     :      0.01s CPU      0.34s WALL (       6 calls)
     newd         :      0.03s CPU      0.03s WALL (       6 calls)
     mix_rho      :      0.00s CPU      0.00s WALL (       5 calls)

     Called by c_bands:
     init_us_2    :      0.15s CPU      0.17s WALL (    2145 calls)
     cegterg      :      5.20s CPU      5.67s WALL (     975 calls)

     Called by sum_band:
     sum_band:bec :      0.01s CPU      0.01s WALL (     975 calls)
     addusdens    :      0.03s CPU      0.03s WALL (       5 calls)

     Called by *egterg:
     h_psi        :      4.21s CPU      4.60s WALL (    3466 calls)
     s_psi        :      0.07s CPU      0.08s WALL (    3466 calls)
     g_psi        :      0.05s CPU      0.05s WALL (    2296 calls)
     cdiaghg      :      0.81s CPU      0.87s WALL (    3271 calls)

     Called by h_psi:
     h_psi:pot    :      4.18s CPU      4.58s WALL (    3466 calls)
     h_psi:calbec :      0.10s CPU      0.11s WALL (    3466 calls)
     vloc_psi     :      3.98s CPU      4.35s WALL (    3466 calls)
     add_vuspsi   :      0.07s CPU      0.08s WALL (    3466 calls)

     General routines
     calbec       :      0.12s CPU      0.13s WALL (    4441 calls)
     fft          :      0.01s CPU      0.01s WALL (      67 calls)
     ffts         :      0.00s CPU      0.00s WALL (       5 calls)
     fftw         :      4.11s CPU      4.48s WALL (   75010 calls)
 
     Parallel routines
     fft_scatt_xy :      0.74s CPU      0.81s WALL (   75082 calls)
     fft_scatt_yz :      1.04s CPU      1.15s WALL (   75082 calls)
 
     PWSCF        :     7.55s CPU         9.54s WALL

 
   This run was terminated on:  21:23:39   2Dec2021            

=------------------------------------------------------------------------------=
   JOB DONE.
=------------------------------------------------------------------------------=
