
     Program PWSCF v.6.3 starts on  2Dec2021 at 21:26:37 

     This program is part of the open-source Quantum ESPRESSO suite
     for quantum simulation of materials; please cite
         "P. Giannozzi et al., J. Phys.:Condens. Matter 21 395502 (2009);
         "P. Giannozzi et al., J. Phys.:Condens. Matter 29 465901 (2017);
          URL http://www.quantum-espresso.org", 
     in publications or presentations arising from this work. More details at
     http://www.quantum-espresso.org/quote

     Parallel version (MPI & OpenMP), running on       2 processor cores
     Number of MPI processes:                 2
     Threads/MPI process:                     1

     MPI processes distributed on     1 nodes
     R & G space division:  proc/nbgrp/npool/nimage =       2
     Reading input from pw-input.in

     Current dimensions of program PWSCF are:
     Max number of different atomic species (ntypx) = 10
     Max number of k-points (npk) =  40000
     Max angular momentum in pseudopotentials (lmaxx) =  3

     Subspace diagonalization in iterative solution of the eigenvalue problem:
     a serial algorithm will be used

 
     Parallelization info
     --------------------
     sticks:   dense  smooth     PW     G-vecs:    dense   smooth      PW
     Min         174     174     60                 2142     2142     434
     Max         175     175     61                 2143     2143     435
     Sum         349     349    121                 4285     4285     869
 

     Title: 
     Pd-kp-conv                                                                 


     bravais-lattice index     =            2
     lattice parameter (alat)  =       8.5000  a.u.
     unit-cell volume          =     153.5312 (a.u.)^3
     number of atoms/cell      =            1
     number of atomic types    =            1
     number of electrons       =        16.00
     number of Kohn-Sham states=           12
     kinetic-energy cutoff     =      35.0000  Ry
     charge density cutoff     =     140.0000  Ry
     convergence threshold     =      1.0E-07
     mixing beta               =       0.7000
     number of iterations used =            8  plain     mixing
     Exchange-correlation      =  SLA  PW   PBX  PBC ( 1  4  3  4 0 0)

     celldm(1)=   8.500000  celldm(2)=   0.000000  celldm(3)=   0.000000
     celldm(4)=   0.000000  celldm(5)=   0.000000  celldm(6)=   0.000000

     crystal axes: (cart. coord. in units of alat)
               a(1) = (  -0.500000   0.000000   0.500000 )  
               a(2) = (   0.000000   0.500000   0.500000 )  
               a(3) = (  -0.500000   0.500000   0.000000 )  

     reciprocal axes: (cart. coord. in units 2 pi/alat)
               b(1) = ( -1.000000 -1.000000  1.000000 )  
               b(2) = (  1.000000  1.000000  1.000000 )  
               b(3) = ( -1.000000  1.000000 -1.000000 )  


     PseudoPot. # 1 for Pd read from file:
     ./pd_pbe_v1.4.uspp.F.UPF
     MD5 check sum: 2d733d2bc2cbfd217af676df1668a4bc
     Pseudo is Ultrasoft + core correction, Zval = 16.0
     Generated by new atomic code, or converted to UPF format
     Using radial grid of  887 points,  6 beta functions with: 
                l(1) =   0
                l(2) =   0
                l(3) =   1
                l(4) =   1
                l(5) =   2
                l(6) =   2
     Q(r) pseudized with  8 coefficients,  rinner =    1.130   1.130   1.130
                                                       1.130   1.130

     atomic species   valence    mass     pseudopotential
        Pd            16.00   106.40000     Pd( 1.00)

     48 Sym. Ops., with inversion, found



   Cartesian axes

     site n.     atom                  positions (alat units)
         1           Pd  tau(   1) = (   0.0000000   0.0000000   0.0000000  )

     number of k points=   195  Marzari-Vanderbilt smearing, width (Ry)=  0.0150

     Number of k-points >= 100: set verbosity='high' to print them.

     Dense  grid:     4285 G-vectors     FFT dimensions: (  24,  24,  24)

     Estimated max dynamical RAM per process >      18.45 MB

     Estimated total dynamical RAM >      36.91 MB

     Check: negative/imaginary core charge=   -0.000001    0.000000

     Initial potential from superposition of free atoms
     Check: negative starting charge=   -0.084050

     starting charge   15.49999, renormalised to   16.00000

     negative rho (up, down):  8.676E-02 0.000E+00
     Starting wfcs are   12 randomized atomic wfcs

     total cpu time spent up to now is        1.2 secs

     Self-consistent Calculation

     iteration #  1     ecut=    35.00 Ry     beta= 0.70
     Davidson diagonalization with overlap
     ethr =  1.00E-02,  avg # of iterations =  3.3

     negative rho (up, down):  8.376E-02 0.000E+00

     total cpu time spent up to now is        3.7 secs

     total energy              =    -197.73114287 Ry
     Harris-Foulkes estimate   =    -199.06373915 Ry
     estimated scf accuracy    <       1.79437882 Ry

     iteration #  2     ecut=    35.00 Ry     beta= 0.70
     Davidson diagonalization with overlap
     ethr =  1.00E-02,  avg # of iterations =  2.0

     negative rho (up, down):  8.604E-02 0.000E+00

     total cpu time spent up to now is        5.9 secs

     total energy              =    -198.20234795 Ry
     Harris-Foulkes estimate   =    -199.49105108 Ry
     estimated scf accuracy    <       2.80484036 Ry

     iteration #  3     ecut=    35.00 Ry     beta= 0.70
     Davidson diagonalization with overlap
     ethr =  1.00E-02,  avg # of iterations =  2.0

     negative rho (up, down):  8.609E-02 0.000E+00

     total cpu time spent up to now is        8.0 secs

     total energy              =    -198.64265216 Ry
     Harris-Foulkes estimate   =    -198.64395328 Ry
     estimated scf accuracy    <       0.00402200 Ry

     iteration #  4     ecut=    35.00 Ry     beta= 0.70
     Davidson diagonalization with overlap
     ethr =  2.51E-05,  avg # of iterations =  2.2

     negative rho (up, down):  8.613E-02 0.000E+00

     total cpu time spent up to now is        9.9 secs

     total energy              =    -198.64322157 Ry
     Harris-Foulkes estimate   =    -198.64325158 Ry
     estimated scf accuracy    <       0.00010954 Ry

     iteration #  5     ecut=    35.00 Ry     beta= 0.70
     Davidson diagonalization with overlap
     ethr =  6.85E-07,  avg # of iterations =  2.1

     negative rho (up, down):  8.612E-02 0.000E+00

     total cpu time spent up to now is       12.0 secs

     total energy              =    -198.64323528 Ry
     Harris-Foulkes estimate   =    -198.64323538 Ry
     estimated scf accuracy    <       0.00000021 Ry

     iteration #  6     ecut=    35.00 Ry     beta= 0.70
     Davidson diagonalization with overlap
     ethr =  1.33E-09,  avg # of iterations =  2.3

     negative rho (up, down):  8.612E-02 0.000E+00

     total cpu time spent up to now is       14.4 secs

     total energy              =    -198.64323538 Ry
     Harris-Foulkes estimate   =    -198.64323546 Ry
     estimated scf accuracy    <       0.00000019 Ry

     iteration #  7     ecut=    35.00 Ry     beta= 0.70
     Davidson diagonalization with overlap
     ethr =  1.19E-09,  avg # of iterations =  1.9

     negative rho (up, down):  8.612E-02 0.000E+00

     total cpu time spent up to now is       16.3 secs

     End of self-consistent calculation

     Number of k-points >= 100: set verbosity='high' to print the bands.

     the Fermi energy is     9.8981 ev

!    total energy              =    -198.64323541 Ry
     Harris-Foulkes estimate   =    -198.64323542 Ry
     estimated scf accuracy    <          2.1E-09 Ry

     The total energy is the sum of the following terms:

     one-electron contribution =     -77.20381193 Ry
     hartree contribution      =      47.82700037 Ry
     xc contribution           =     -31.18143628 Ry
     ewald contribution        =    -138.08525782 Ry
     smearing contrib. (-TS)   =       0.00027024 Ry

     convergence has been achieved in   7 iterations

     Writing output data file Pd-kp-conv.save/
 
     init_run     :      1.03s CPU      1.09s WALL (       1 calls)
     electrons    :     13.96s CPU     15.10s WALL (       1 calls)

     Called by init_run:
     wfcinit      :      0.66s CPU      0.70s WALL (       1 calls)
     potinit      :      0.01s CPU      0.02s WALL (       1 calls)
     hinit0       :      0.34s CPU      0.35s WALL (       1 calls)

     Called by electrons:
     c_bands      :     11.71s CPU     12.63s WALL (       7 calls)
     sum_band     :      2.17s CPU      2.31s WALL (       7 calls)
     v_of_rho     :      0.03s CPU      0.04s WALL (       8 calls)
     newd         :      0.06s CPU      0.07s WALL (       8 calls)
     mix_rho      :      0.00s CPU      0.00s WALL (       7 calls)

     Called by c_bands:
     init_us_2    :      0.35s CPU      0.38s WALL (    2925 calls)
     cegterg      :     10.71s CPU     11.32s WALL (    1365 calls)

     Called by sum_band:
     sum_band:bec :      0.01s CPU      0.01s WALL (    1365 calls)
     addusdens    :      0.07s CPU      0.07s WALL (       7 calls)

     Called by *egterg:
     h_psi        :      9.12s CPU      9.64s WALL (    4633 calls)
     s_psi        :      0.14s CPU      0.15s WALL (    4633 calls)
     g_psi        :      0.10s CPU      0.11s WALL (    3073 calls)
     cdiaghg      :      1.07s CPU      1.13s WALL (    4438 calls)

     Called by h_psi:
     h_psi:pot    :      9.07s CPU      9.59s WALL (    4633 calls)
     h_psi:calbec :      0.19s CPU      0.20s WALL (    4633 calls)
     vloc_psi     :      8.70s CPU      9.20s WALL (    4633 calls)
     add_vuspsi   :      0.15s CPU      0.16s WALL (    4633 calls)

     General routines
     calbec       :      0.23s CPU      0.24s WALL (    5998 calls)
     fft          :      0.02s CPU      0.02s WALL (      89 calls)
     ffts         :      0.00s CPU      0.00s WALL (       7 calls)
     fftw         :      9.00s CPU      9.51s WALL (  100522 calls)
 
     Parallel routines
     fft_scatt_xy :      1.61s CPU      1.71s WALL (  100618 calls)
     fft_scatt_yz :      2.04s CPU      2.18s WALL (  100618 calls)
 
     PWSCF        :    15.17s CPU        17.06s WALL

 
   This run was terminated on:  21:26:54   2Dec2021            

=------------------------------------------------------------------------------=
   JOB DONE.
=------------------------------------------------------------------------------=
