
     Program PWSCF v.6.3 starts on  2Dec2021 at 21:19:58 

     This program is part of the open-source Quantum ESPRESSO suite
     for quantum simulation of materials; please cite
         "P. Giannozzi et al., J. Phys.:Condens. Matter 21 395502 (2009);
         "P. Giannozzi et al., J. Phys.:Condens. Matter 29 465901 (2017);
          URL http://www.quantum-espresso.org", 
     in publications or presentations arising from this work. More details at
     http://www.quantum-espresso.org/quote

     Parallel version (MPI & OpenMP), running on       2 processor cores
     Number of MPI processes:                 2
     Threads/MPI process:                     1

     MPI processes distributed on     1 nodes
     R & G space division:  proc/nbgrp/npool/nimage =       2
     Reading input from pw-input.in

     Current dimensions of program PWSCF are:
     Max number of different atomic species (ntypx) = 10
     Max number of k-points (npk) =  40000
     Max angular momentum in pseudopotentials (lmaxx) =  3

     Subspace diagonalization in iterative solution of the eigenvalue problem:
     a serial algorithm will be used

 
     Parallelization info
     --------------------
     sticks:   dense  smooth     PW     G-vecs:    dense   smooth      PW
     Min         117     117     42                 1138     1138     264
     Max         118     118     43                 1139     1139     267
     Sum         235     235     85                 2277     2277     531
 

     Title: 
     Pd-kp-conv                                                                 


     bravais-lattice index     =            2
     lattice parameter (alat)  =       6.9000  a.u.
     unit-cell volume          =      82.1273 (a.u.)^3
     number of atoms/cell      =            1
     number of atomic types    =            1
     number of electrons       =        16.00
     number of Kohn-Sham states=           12
     kinetic-energy cutoff     =      35.0000  Ry
     charge density cutoff     =     140.0000  Ry
     convergence threshold     =      1.0E-07
     mixing beta               =       0.7000
     number of iterations used =            8  plain     mixing
     Exchange-correlation      =  SLA  PW   PBX  PBC ( 1  4  3  4 0 0)

     celldm(1)=   6.900000  celldm(2)=   0.000000  celldm(3)=   0.000000
     celldm(4)=   0.000000  celldm(5)=   0.000000  celldm(6)=   0.000000

     crystal axes: (cart. coord. in units of alat)
               a(1) = (  -0.500000   0.000000   0.500000 )  
               a(2) = (   0.000000   0.500000   0.500000 )  
               a(3) = (  -0.500000   0.500000   0.000000 )  

     reciprocal axes: (cart. coord. in units 2 pi/alat)
               b(1) = ( -1.000000 -1.000000  1.000000 )  
               b(2) = (  1.000000  1.000000  1.000000 )  
               b(3) = ( -1.000000  1.000000 -1.000000 )  


     PseudoPot. # 1 for Pd read from file:
     ./pd_pbe_v1.4.uspp.F.UPF
     MD5 check sum: 2d733d2bc2cbfd217af676df1668a4bc
     Pseudo is Ultrasoft + core correction, Zval = 16.0
     Generated by new atomic code, or converted to UPF format
     Using radial grid of  887 points,  6 beta functions with: 
                l(1) =   0
                l(2) =   0
                l(3) =   1
                l(4) =   1
                l(5) =   2
                l(6) =   2
     Q(r) pseudized with  8 coefficients,  rinner =    1.130   1.130   1.130
                                                       1.130   1.130

     atomic species   valence    mass     pseudopotential
        Pd            16.00   106.40000     Pd( 1.00)

     48 Sym. Ops., with inversion, found



   Cartesian axes

     site n.     atom                  positions (alat units)
         1           Pd  tau(   1) = (   0.0000000   0.0000000   0.0000000  )

     number of k points=   120  Marzari-Vanderbilt smearing, width (Ry)=  0.0150

     Number of k-points >= 100: set verbosity='high' to print them.

     Dense  grid:     2277 G-vectors     FFT dimensions: (  20,  20,  20)

     Estimated max dynamical RAM per process >       8.25 MB

     Estimated total dynamical RAM >      16.50 MB

     Initial potential from superposition of free atoms
     Check: negative starting charge=   -0.082546

     starting charge   15.49999, renormalised to   16.00000

     negative rho (up, down):  8.521E-02 0.000E+00
     Starting wfcs are   12 randomized atomic wfcs

     total cpu time spent up to now is        0.8 secs

     Self-consistent Calculation

     iteration #  1     ecut=    35.00 Ry     beta= 0.70
     Davidson diagonalization with overlap
     ethr =  1.00E-02,  avg # of iterations =  3.5

     negative rho (up, down):  8.546E-02 0.000E+00

     total cpu time spent up to now is        1.8 secs

     total energy              =    -198.34671840 Ry
     Harris-Foulkes estimate   =    -198.91044080 Ry
     estimated scf accuracy    <       0.79219494 Ry

     iteration #  2     ecut=    35.00 Ry     beta= 0.70
     Davidson diagonalization with overlap
     ethr =  4.95E-03,  avg # of iterations =  2.0

     negative rho (up, down):  8.670E-02 0.000E+00

     total cpu time spent up to now is        2.7 secs

     total energy              =    -198.56343845 Ry
     Harris-Foulkes estimate   =    -198.79922347 Ry
     estimated scf accuracy    <       0.42689812 Ry

     iteration #  3     ecut=    35.00 Ry     beta= 0.70
     Davidson diagonalization with overlap
     ethr =  2.67E-03,  avg # of iterations =  2.0

     negative rho (up, down):  8.724E-02 0.000E+00

     total cpu time spent up to now is        4.0 secs

     total energy              =    -198.65871914 Ry
     Harris-Foulkes estimate   =    -198.65928553 Ry
     estimated scf accuracy    <       0.00126929 Ry

     iteration #  4     ecut=    35.00 Ry     beta= 0.70
     Davidson diagonalization with overlap
     ethr =  7.93E-06,  avg # of iterations =  2.2

     negative rho (up, down):  8.738E-02 0.000E+00

     total cpu time spent up to now is        5.0 secs

     total energy              =    -198.65904897 Ry
     Harris-Foulkes estimate   =    -198.65905850 Ry
     estimated scf accuracy    <       0.00002005 Ry

     iteration #  5     ecut=    35.00 Ry     beta= 0.70
     Davidson diagonalization with overlap
     ethr =  1.25E-07,  avg # of iterations =  2.0

     negative rho (up, down):  8.741E-02 0.000E+00

     total cpu time spent up to now is        5.9 secs

     End of self-consistent calculation

     Number of k-points >= 100: set verbosity='high' to print the bands.

     the Fermi energy is    24.2150 ev

!    total energy              =    -198.65905329 Ry
     Harris-Foulkes estimate   =    -198.65905322 Ry
     estimated scf accuracy    <       0.00000005 Ry

     The total energy is the sum of the following terms:

     one-electron contribution =     -27.41306207 Ry
     hartree contribution      =      30.42062132 Ry
     xc contribution           =     -31.56179899 Ry
     ewald contribution        =    -170.10502774 Ry
     smearing contrib. (-TS)   =       0.00021419 Ry

     convergence has been achieved in   5 iterations

     Writing output data file Pd-kp-conv.save/
 
     init_run     :      0.62s CPU      0.68s WALL (       1 calls)
     electrons    :      4.11s CPU      5.10s WALL (       1 calls)

     Called by init_run:
     wfcinit      :      0.31s CPU      0.35s WALL (       1 calls)
     potinit      :      0.00s CPU      0.02s WALL (       1 calls)
     hinit0       :      0.30s CPU      0.30s WALL (       1 calls)

     Called by electrons:
     c_bands      :      3.49s CPU      4.40s WALL (       5 calls)
     sum_band     :      0.59s CPU      0.64s WALL (       5 calls)
     v_of_rho     :      0.02s CPU      0.02s WALL (       6 calls)
     newd         :      0.03s CPU      0.03s WALL (       6 calls)
     mix_rho      :      0.00s CPU      0.00s WALL (       5 calls)

     Called by c_bands:
     init_us_2    :      0.09s CPU      0.10s WALL (    1320 calls)
     cegterg      :      3.23s CPU      3.52s WALL (     600 calls)

     Called by sum_band:
     sum_band:bec :      0.01s CPU      0.01s WALL (     600 calls)
     addusdens    :      0.02s CPU      0.03s WALL (       5 calls)

     Called by *egterg:
     h_psi        :      2.66s CPU      2.90s WALL (    2131 calls)
     s_psi        :      0.04s CPU      0.05s WALL (    2131 calls)
     g_psi        :      0.03s CPU      0.03s WALL (    1411 calls)
     cdiaghg      :      0.50s CPU      0.54s WALL (    2011 calls)

     Called by h_psi:
     h_psi:pot    :      2.64s CPU      2.89s WALL (    2131 calls)
     h_psi:calbec :      0.06s CPU      0.07s WALL (    2131 calls)
     vloc_psi     :      2.52s CPU      2.75s WALL (    2131 calls)
     add_vuspsi   :      0.04s CPU      0.05s WALL (    2131 calls)

     General routines
     calbec       :      0.07s CPU      0.08s WALL (    2731 calls)
     fft          :      0.01s CPU      0.01s WALL (      67 calls)
     ffts         :      0.00s CPU      0.00s WALL (       5 calls)
     fftw         :      2.58s CPU      2.81s WALL (   46320 calls)
 
     Parallel routines
     fft_scatt_xy :      0.47s CPU      0.51s WALL (   46392 calls)
     fft_scatt_yz :      0.65s CPU      0.72s WALL (   46392 calls)
 
     PWSCF        :     4.87s CPU         6.34s WALL

 
   This run was terminated on:  21:20: 4   2Dec2021            

=------------------------------------------------------------------------------=
   JOB DONE.
=------------------------------------------------------------------------------=
