
     Program PWSCF v.6.3 starts on  2Dec2021 at 21:20:11 

     This program is part of the open-source Quantum ESPRESSO suite
     for quantum simulation of materials; please cite
         "P. Giannozzi et al., J. Phys.:Condens. Matter 21 395502 (2009);
         "P. Giannozzi et al., J. Phys.:Condens. Matter 29 465901 (2017);
          URL http://www.quantum-espresso.org", 
     in publications or presentations arising from this work. More details at
     http://www.quantum-espresso.org/quote

     Parallel version (MPI & OpenMP), running on       2 processor cores
     Number of MPI processes:                 2
     Threads/MPI process:                     1

     MPI processes distributed on     1 nodes
     R & G space division:  proc/nbgrp/npool/nimage =       2
     Reading input from pw-input.in

     Current dimensions of program PWSCF are:
     Max number of different atomic species (ntypx) = 10
     Max number of k-points (npk) =  40000
     Max angular momentum in pseudopotentials (lmaxx) =  3

     Subspace diagonalization in iterative solution of the eigenvalue problem:
     a serial algorithm will be used

 
     Parallelization info
     --------------------
     sticks:   dense  smooth     PW     G-vecs:    dense   smooth      PW
     Min         120     120     42                 1221     1221     267
     Max         121     121     43                 1224     1224     270
     Sum         241     241     85                 2445     2445     537
 

     Title: 
     Pd-kp-conv                                                                 


     bravais-lattice index     =            2
     lattice parameter (alat)  =       7.1000  a.u.
     unit-cell volume          =      89.4777 (a.u.)^3
     number of atoms/cell      =            1
     number of atomic types    =            1
     number of electrons       =        16.00
     number of Kohn-Sham states=           12
     kinetic-energy cutoff     =      35.0000  Ry
     charge density cutoff     =     140.0000  Ry
     convergence threshold     =      1.0E-07
     mixing beta               =       0.7000
     number of iterations used =            8  plain     mixing
     Exchange-correlation      =  SLA  PW   PBX  PBC ( 1  4  3  4 0 0)

     celldm(1)=   7.100000  celldm(2)=   0.000000  celldm(3)=   0.000000
     celldm(4)=   0.000000  celldm(5)=   0.000000  celldm(6)=   0.000000

     crystal axes: (cart. coord. in units of alat)
               a(1) = (  -0.500000   0.000000   0.500000 )  
               a(2) = (   0.000000   0.500000   0.500000 )  
               a(3) = (  -0.500000   0.500000   0.000000 )  

     reciprocal axes: (cart. coord. in units 2 pi/alat)
               b(1) = ( -1.000000 -1.000000  1.000000 )  
               b(2) = (  1.000000  1.000000  1.000000 )  
               b(3) = ( -1.000000  1.000000 -1.000000 )  


     PseudoPot. # 1 for Pd read from file:
     ./pd_pbe_v1.4.uspp.F.UPF
     MD5 check sum: 2d733d2bc2cbfd217af676df1668a4bc
     Pseudo is Ultrasoft + core correction, Zval = 16.0
     Generated by new atomic code, or converted to UPF format
     Using radial grid of  887 points,  6 beta functions with: 
                l(1) =   0
                l(2) =   0
                l(3) =   1
                l(4) =   1
                l(5) =   2
                l(6) =   2
     Q(r) pseudized with  8 coefficients,  rinner =    1.130   1.130   1.130
                                                       1.130   1.130

     atomic species   valence    mass     pseudopotential
        Pd            16.00   106.40000     Pd( 1.00)

     48 Sym. Ops., with inversion, found



   Cartesian axes

     site n.     atom                  positions (alat units)
         1           Pd  tau(   1) = (   0.0000000   0.0000000   0.0000000  )

     number of k points=   120  Marzari-Vanderbilt smearing, width (Ry)=  0.0150

     Number of k-points >= 100: set verbosity='high' to print them.

     Dense  grid:     2445 G-vectors     FFT dimensions: (  20,  20,  20)

     Estimated max dynamical RAM per process >       8.85 MB

     Estimated total dynamical RAM >      17.70 MB

     Initial potential from superposition of free atoms
     Check: negative starting charge=   -0.083979

     starting charge   15.49999, renormalised to   16.00000

     negative rho (up, down):  8.669E-02 0.000E+00
     Starting wfcs are   12 randomized atomic wfcs

     total cpu time spent up to now is        0.8 secs

     Self-consistent Calculation

     iteration #  1     ecut=    35.00 Ry     beta= 0.70
     Davidson diagonalization with overlap
     ethr =  1.00E-02,  avg # of iterations =  3.6

     negative rho (up, down):  8.653E-02 0.000E+00

     total cpu time spent up to now is        2.1 secs

     total energy              =    -198.30554476 Ry
     Harris-Foulkes estimate   =    -198.96873423 Ry
     estimated scf accuracy    <       0.92498175 Ry

     iteration #  2     ecut=    35.00 Ry     beta= 0.70
     Davidson diagonalization with overlap
     ethr =  5.78E-03,  avg # of iterations =  2.0

     negative rho (up, down):  8.778E-02 0.000E+00

     total cpu time spent up to now is        3.1 secs

     total energy              =    -198.54826278 Ry
     Harris-Foulkes estimate   =    -198.88179083 Ry
     estimated scf accuracy    <       0.62631828 Ry

     iteration #  3     ecut=    35.00 Ry     beta= 0.70
     Davidson diagonalization with overlap
     ethr =  3.91E-03,  avg # of iterations =  2.0

     negative rho (up, down):  8.823E-02 0.000E+00

     total cpu time spent up to now is        3.9 secs

     total energy              =    -198.68574095 Ry
     Harris-Foulkes estimate   =    -198.68656623 Ry
     estimated scf accuracy    <       0.00176108 Ry

     iteration #  4     ecut=    35.00 Ry     beta= 0.70
     Davidson diagonalization with overlap
     ethr =  1.10E-05,  avg # of iterations =  2.2

     negative rho (up, down):  8.838E-02 0.000E+00

     total cpu time spent up to now is        4.8 secs

     total energy              =    -198.68622938 Ry
     Harris-Foulkes estimate   =    -198.68624011 Ry
     estimated scf accuracy    <       0.00002476 Ry

     iteration #  5     ecut=    35.00 Ry     beta= 0.70
     Davidson diagonalization with overlap
     ethr =  1.55E-07,  avg # of iterations =  2.0

     negative rho (up, down):  8.842E-02 0.000E+00

     total cpu time spent up to now is        5.7 secs

     End of self-consistent calculation

     Number of k-points >= 100: set verbosity='high' to print the bands.

     the Fermi energy is    21.6291 ev

!    total energy              =    -198.68623441 Ry
     Harris-Foulkes estimate   =    -198.68623430 Ry
     estimated scf accuracy    <       0.00000008 Ry

     The total energy is the sum of the following terms:

     one-electron contribution =     -34.53989690 Ry
     hartree contribution      =      32.63417766 Ry
     xc contribution           =     -31.46737892 Ry
     ewald contribution        =    -165.31333683 Ry
     smearing contrib. (-TS)   =       0.00020058 Ry

     convergence has been achieved in   5 iterations

     Writing output data file Pd-kp-conv.save/
 
     init_run     :      0.62s CPU      0.68s WALL (       1 calls)
     electrons    :      4.14s CPU      4.94s WALL (       1 calls)

     Called by init_run:
     wfcinit      :      0.31s CPU      0.34s WALL (       1 calls)
     potinit      :      0.00s CPU      0.01s WALL (       1 calls)
     hinit0       :      0.31s CPU      0.31s WALL (       1 calls)

     Called by electrons:
     c_bands      :      3.50s CPU      4.24s WALL (       5 calls)
     sum_band     :      0.61s CPU      0.64s WALL (       5 calls)
     v_of_rho     :      0.01s CPU      0.02s WALL (       6 calls)
     newd         :      0.03s CPU      0.03s WALL (       6 calls)
     mix_rho      :      0.00s CPU      0.00s WALL (       5 calls)

     Called by c_bands:
     init_us_2    :      0.10s CPU      0.10s WALL (    1320 calls)
     cegterg      :      3.24s CPU      3.56s WALL (     600 calls)

     Called by sum_band:
     sum_band:bec :      0.01s CPU      0.01s WALL (     600 calls)
     addusdens    :      0.03s CPU      0.03s WALL (       5 calls)

     Called by *egterg:
     h_psi        :      2.63s CPU      2.88s WALL (    2136 calls)
     s_psi        :      0.04s CPU      0.05s WALL (    2136 calls)
     g_psi        :      0.03s CPU      0.03s WALL (    1416 calls)
     cdiaghg      :      0.51s CPU      0.55s WALL (    2016 calls)

     Called by h_psi:
     h_psi:pot    :      2.61s CPU      2.86s WALL (    2136 calls)
     h_psi:calbec :      0.07s CPU      0.07s WALL (    2136 calls)
     vloc_psi     :      2.49s CPU      2.72s WALL (    2136 calls)
     add_vuspsi   :      0.05s CPU      0.05s WALL (    2136 calls)

     General routines
     calbec       :      0.08s CPU      0.08s WALL (    2736 calls)
     fft          :      0.01s CPU      0.01s WALL (      67 calls)
     ffts         :      0.00s CPU      0.00s WALL (       5 calls)
     fftw         :      2.56s CPU      2.78s WALL (   46204 calls)
 
     Parallel routines
     fft_scatt_xy :      0.46s CPU      0.50s WALL (   46276 calls)
     fft_scatt_yz :      0.66s CPU      0.72s WALL (   46276 calls)
 
     PWSCF        :     4.91s CPU         6.14s WALL

 
   This run was terminated on:  21:20:17   2Dec2021            

=------------------------------------------------------------------------------=
   JOB DONE.
=------------------------------------------------------------------------------=
