
     Program PWSCF v.6.3 starts on  2Dec2021 at 21:20:18 

     This program is part of the open-source Quantum ESPRESSO suite
     for quantum simulation of materials; please cite
         "P. Giannozzi et al., J. Phys.:Condens. Matter 21 395502 (2009);
         "P. Giannozzi et al., J. Phys.:Condens. Matter 29 465901 (2017);
          URL http://www.quantum-espresso.org", 
     in publications or presentations arising from this work. More details at
     http://www.quantum-espresso.org/quote

     Parallel version (MPI & OpenMP), running on       2 processor cores
     Number of MPI processes:                 2
     Threads/MPI process:                     1

     MPI processes distributed on     1 nodes
     R & G space division:  proc/nbgrp/npool/nimage =       2
     Reading input from pw-input.in

     Current dimensions of program PWSCF are:
     Max number of different atomic species (ntypx) = 10
     Max number of k-points (npk) =  40000
     Max angular momentum in pseudopotentials (lmaxx) =  3

     Subspace diagonalization in iterative solution of the eigenvalue problem:
     a serial algorithm will be used

 
     Parallelization info
     --------------------
     sticks:   dense  smooth     PW     G-vecs:    dense   smooth      PW
     Min         126     126     42                 1318     1318     267
     Max         127     127     43                 1319     1319     270
     Sum         253     253     85                 2637     2637     537
 

     Title: 
     Pd-kp-conv                                                                 


     bravais-lattice index     =            2
     lattice parameter (alat)  =       7.2000  a.u.
     unit-cell volume          =      93.3120 (a.u.)^3
     number of atoms/cell      =            1
     number of atomic types    =            1
     number of electrons       =        16.00
     number of Kohn-Sham states=           12
     kinetic-energy cutoff     =      35.0000  Ry
     charge density cutoff     =     140.0000  Ry
     convergence threshold     =      1.0E-07
     mixing beta               =       0.7000
     number of iterations used =            8  plain     mixing
     Exchange-correlation      =  SLA  PW   PBX  PBC ( 1  4  3  4 0 0)

     celldm(1)=   7.200000  celldm(2)=   0.000000  celldm(3)=   0.000000
     celldm(4)=   0.000000  celldm(5)=   0.000000  celldm(6)=   0.000000

     crystal axes: (cart. coord. in units of alat)
               a(1) = (  -0.500000   0.000000   0.500000 )  
               a(2) = (   0.000000   0.500000   0.500000 )  
               a(3) = (  -0.500000   0.500000   0.000000 )  

     reciprocal axes: (cart. coord. in units 2 pi/alat)
               b(1) = ( -1.000000 -1.000000  1.000000 )  
               b(2) = (  1.000000  1.000000  1.000000 )  
               b(3) = ( -1.000000  1.000000 -1.000000 )  


     PseudoPot. # 1 for Pd read from file:
     ./pd_pbe_v1.4.uspp.F.UPF
     MD5 check sum: 2d733d2bc2cbfd217af676df1668a4bc
     Pseudo is Ultrasoft + core correction, Zval = 16.0
     Generated by new atomic code, or converted to UPF format
     Using radial grid of  887 points,  6 beta functions with: 
                l(1) =   0
                l(2) =   0
                l(3) =   1
                l(4) =   1
                l(5) =   2
                l(6) =   2
     Q(r) pseudized with  8 coefficients,  rinner =    1.130   1.130   1.130
                                                       1.130   1.130

     atomic species   valence    mass     pseudopotential
        Pd            16.00   106.40000     Pd( 1.00)

     48 Sym. Ops., with inversion, found



   Cartesian axes

     site n.     atom                  positions (alat units)
         1           Pd  tau(   1) = (   0.0000000   0.0000000   0.0000000  )

     number of k points=   120  Marzari-Vanderbilt smearing, width (Ry)=  0.0150

     Number of k-points >= 100: set verbosity='high' to print them.

     Dense  grid:     2637 G-vectors     FFT dimensions: (  20,  20,  20)

     Estimated max dynamical RAM per process >       9.33 MB

     Estimated total dynamical RAM >      18.66 MB

     Initial potential from superposition of free atoms
     Check: negative starting charge=   -0.084445

     starting charge   15.49999, renormalised to   16.00000

     negative rho (up, down):  8.717E-02 0.000E+00
     Starting wfcs are   12 randomized atomic wfcs

     total cpu time spent up to now is        0.8 secs

     Self-consistent Calculation

     iteration #  1     ecut=    35.00 Ry     beta= 0.70
     Davidson diagonalization with overlap
     ethr =  1.00E-02,  avg # of iterations =  3.6

     negative rho (up, down):  8.684E-02 0.000E+00

     total cpu time spent up to now is        1.8 secs

     total energy              =    -198.27769477 Ry
     Harris-Foulkes estimate   =    -198.99113595 Ry
     estimated scf accuracy    <       0.99168524 Ry

     iteration #  2     ecut=    35.00 Ry     beta= 0.70
     Davidson diagonalization with overlap
     ethr =  6.20E-03,  avg # of iterations =  2.0

     negative rho (up, down):  8.808E-02 0.000E+00

     total cpu time spent up to now is        2.7 secs

     total energy              =    -198.53317343 Ry
     Harris-Foulkes estimate   =    -198.92191651 Ry
     estimated scf accuracy    <       0.74226299 Ry

     iteration #  3     ecut=    35.00 Ry     beta= 0.70
     Davidson diagonalization with overlap
     ethr =  4.64E-03,  avg # of iterations =  2.0

     negative rho (up, down):  8.848E-02 0.000E+00

     total cpu time spent up to now is        3.5 secs

     total energy              =    -198.69357128 Ry
     Harris-Foulkes estimate   =    -198.69446032 Ry
     estimated scf accuracy    <       0.00189000 Ry

     iteration #  4     ecut=    35.00 Ry     beta= 0.70
     Davidson diagonalization with overlap
     ethr =  1.18E-05,  avg # of iterations =  2.2

     negative rho (up, down):  8.864E-02 0.000E+00

     total cpu time spent up to now is        4.4 secs

     total energy              =    -198.69411342 Ry
     Harris-Foulkes estimate   =    -198.69412152 Ry
     estimated scf accuracy    <       0.00002123 Ry

     iteration #  5     ecut=    35.00 Ry     beta= 0.70
     Davidson diagonalization with overlap
     ethr =  1.33E-07,  avg # of iterations =  2.0

     negative rho (up, down):  8.868E-02 0.000E+00

     total cpu time spent up to now is        5.3 secs

     total energy              =    -198.69411755 Ry
     Harris-Foulkes estimate   =    -198.69411742 Ry
     estimated scf accuracy    <       0.00000012 Ry

     iteration #  6     ecut=    35.00 Ry     beta= 0.70
     Davidson diagonalization with overlap
     ethr =  7.28E-10,  avg # of iterations =  2.2

     negative rho (up, down):  8.869E-02 0.000E+00

     total cpu time spent up to now is        6.1 secs

     End of self-consistent calculation

     Number of k-points >= 100: set verbosity='high' to print the bands.

     the Fermi energy is    20.4463 ev

!    total energy              =    -198.69411758 Ry
     Harris-Foulkes estimate   =    -198.69411758 Ry
     estimated scf accuracy    <          1.8E-09 Ry

     The total energy is the sum of the following terms:

     one-electron contribution =     -37.99108763 Ry
     hartree contribution      =      33.74101585 Ry
     xc contribution           =     -31.42692431 Ry
     ewald contribution        =    -163.01731824 Ry
     smearing contrib. (-TS)   =       0.00019676 Ry

     convergence has been achieved in   6 iterations

     Writing output data file Pd-kp-conv.save/
 
     init_run     :      0.62s CPU      0.65s WALL (       1 calls)
     electrons    :      4.93s CPU      5.71s WALL (       1 calls)

     Called by init_run:
     wfcinit      :      0.29s CPU      0.31s WALL (       1 calls)
     potinit      :      0.00s CPU      0.01s WALL (       1 calls)
     hinit0       :      0.31s CPU      0.31s WALL (       1 calls)

     Called by electrons:
     c_bands      :      4.16s CPU      4.51s WALL (       6 calls)
     sum_band     :      0.72s CPU      0.78s WALL (       6 calls)
     v_of_rho     :      0.02s CPU      0.02s WALL (       7 calls)
     newd         :      0.04s CPU      0.04s WALL (       7 calls)
     mix_rho      :      0.00s CPU      0.00s WALL (       6 calls)

     Called by c_bands:
     init_us_2    :      0.12s CPU      0.13s WALL (    1560 calls)
     cegterg      :      3.84s CPU      4.16s WALL (     720 calls)

     Called by sum_band:
     sum_band:bec :      0.01s CPU      0.01s WALL (     720 calls)
     addusdens    :      0.03s CPU      0.04s WALL (       6 calls)

     Called by *egterg:
     h_psi        :      3.08s CPU      3.34s WALL (    2521 calls)
     s_psi        :      0.05s CPU      0.06s WALL (    2521 calls)
     g_psi        :      0.04s CPU      0.04s WALL (    1681 calls)
     cdiaghg      :      0.59s CPU      0.63s WALL (    2401 calls)

     Called by h_psi:
     h_psi:pot    :      3.06s CPU      3.31s WALL (    2521 calls)
     h_psi:calbec :      0.08s CPU      0.09s WALL (    2521 calls)
     vloc_psi     :      2.91s CPU      3.15s WALL (    2521 calls)
     add_vuspsi   :      0.06s CPU      0.06s WALL (    2521 calls)

     General routines
     calbec       :      0.09s CPU      0.10s WALL (    3241 calls)
     fft          :      0.01s CPU      0.01s WALL (      78 calls)
     ffts         :      0.00s CPU      0.00s WALL (       6 calls)
     fftw         :      2.99s CPU      3.24s WALL (   54322 calls)
 
     Parallel routines
     fft_scatt_xy :      0.54s CPU      0.58s WALL (   54406 calls)
     fft_scatt_yz :      0.77s CPU      0.85s WALL (   54406 calls)
 
     PWSCF        :     5.69s CPU         6.88s WALL

 
   This run was terminated on:  21:20:25   2Dec2021            

=------------------------------------------------------------------------------=
   JOB DONE.
=------------------------------------------------------------------------------=
