
     Program PWSCF v.6.3 starts on  2Dec2021 at 21:20:33 

     This program is part of the open-source Quantum ESPRESSO suite
     for quantum simulation of materials; please cite
         "P. Giannozzi et al., J. Phys.:Condens. Matter 21 395502 (2009);
         "P. Giannozzi et al., J. Phys.:Condens. Matter 29 465901 (2017);
          URL http://www.quantum-espresso.org", 
     in publications or presentations arising from this work. More details at
     http://www.quantum-espresso.org/quote

     Parallel version (MPI & OpenMP), running on       2 processor cores
     Number of MPI processes:                 2
     Threads/MPI process:                     1

     MPI processes distributed on     1 nodes
     R & G space division:  proc/nbgrp/npool/nimage =       2
     Reading input from pw-input.in

     Current dimensions of program PWSCF are:
     Max number of different atomic species (ntypx) = 10
     Max number of k-points (npk) =  40000
     Max angular momentum in pseudopotentials (lmaxx) =  3

     Subspace diagonalization in iterative solution of the eigenvalue problem:
     a serial algorithm will be used

 
     Parallelization info
     --------------------
     sticks:   dense  smooth     PW     G-vecs:    dense   smooth      PW
     Min         126     126     45                 1369     1369     304
     Max         127     127     46                 1372     1372     305
     Sum         253     253     91                 2741     2741     609
 

     Title: 
     Pd-kp-conv                                                                 


     bravais-lattice index     =            2
     lattice parameter (alat)  =       7.4000  a.u.
     unit-cell volume          =     101.3060 (a.u.)^3
     number of atoms/cell      =            1
     number of atomic types    =            1
     number of electrons       =        16.00
     number of Kohn-Sham states=           12
     kinetic-energy cutoff     =      35.0000  Ry
     charge density cutoff     =     140.0000  Ry
     convergence threshold     =      1.0E-07
     mixing beta               =       0.7000
     number of iterations used =            8  plain     mixing
     Exchange-correlation      =  SLA  PW   PBX  PBC ( 1  4  3  4 0 0)

     celldm(1)=   7.400000  celldm(2)=   0.000000  celldm(3)=   0.000000
     celldm(4)=   0.000000  celldm(5)=   0.000000  celldm(6)=   0.000000

     crystal axes: (cart. coord. in units of alat)
               a(1) = (  -0.500000   0.000000   0.500000 )  
               a(2) = (   0.000000   0.500000   0.500000 )  
               a(3) = (  -0.500000   0.500000   0.000000 )  

     reciprocal axes: (cart. coord. in units 2 pi/alat)
               b(1) = ( -1.000000 -1.000000  1.000000 )  
               b(2) = (  1.000000  1.000000  1.000000 )  
               b(3) = ( -1.000000  1.000000 -1.000000 )  


     PseudoPot. # 1 for Pd read from file:
     ./pd_pbe_v1.4.uspp.F.UPF
     MD5 check sum: 2d733d2bc2cbfd217af676df1668a4bc
     Pseudo is Ultrasoft + core correction, Zval = 16.0
     Generated by new atomic code, or converted to UPF format
     Using radial grid of  887 points,  6 beta functions with: 
                l(1) =   0
                l(2) =   0
                l(3) =   1
                l(4) =   1
                l(5) =   2
                l(6) =   2
     Q(r) pseudized with  8 coefficients,  rinner =    1.130   1.130   1.130
                                                       1.130   1.130

     atomic species   valence    mass     pseudopotential
        Pd            16.00   106.40000     Pd( 1.00)

     48 Sym. Ops., with inversion, found



   Cartesian axes

     site n.     atom                  positions (alat units)
         1           Pd  tau(   1) = (   0.0000000   0.0000000   0.0000000  )

     number of k points=   120  Marzari-Vanderbilt smearing, width (Ry)=  0.0150

     Number of k-points >= 100: set verbosity='high' to print them.

     Dense  grid:     2741 G-vectors     FFT dimensions: (  20,  20,  20)

     Estimated max dynamical RAM per process >       9.84 MB

     Estimated total dynamical RAM >      19.68 MB

     Initial potential from superposition of free atoms
     Check: negative starting charge=   -0.084791

     starting charge   15.49999, renormalised to   16.00000

     negative rho (up, down):  8.753E-02 0.000E+00
     Starting wfcs are   12 randomized atomic wfcs

     total cpu time spent up to now is        0.8 secs

     Self-consistent Calculation

     iteration #  1     ecut=    35.00 Ry     beta= 0.70
     Davidson diagonalization with overlap
     ethr =  1.00E-02,  avg # of iterations =  3.6

     negative rho (up, down):  8.695E-02 0.000E+00

     total cpu time spent up to now is        1.9 secs

     total energy              =    -198.21087923 Ry
     Harris-Foulkes estimate   =    -199.02503688 Ry
     estimated scf accuracy    <       1.12470664 Ry

     iteration #  2     ecut=    35.00 Ry     beta= 0.70
     Davidson diagonalization with overlap
     ethr =  7.03E-03,  avg # of iterations =  2.0

     negative rho (up, down):  8.817E-02 0.000E+00

     total cpu time spent up to now is        2.8 secs

     total energy              =    -198.49348960 Ry
     Harris-Foulkes estimate   =    -199.00174626 Ry
     estimated scf accuracy    <       0.99914069 Ry

     iteration #  3     ecut=    35.00 Ry     beta= 0.70
     Davidson diagonalization with overlap
     ethr =  6.24E-03,  avg # of iterations =  2.0

     negative rho (up, down):  8.847E-02 0.000E+00

     total cpu time spent up to now is        3.6 secs

     total energy              =    -198.70058945 Ry
     Harris-Foulkes estimate   =    -198.70139125 Ry
     estimated scf accuracy    <       0.00173127 Ry

     iteration #  4     ecut=    35.00 Ry     beta= 0.70
     Davidson diagonalization with overlap
     ethr =  1.08E-05,  avg # of iterations =  2.3

     negative rho (up, down):  8.863E-02 0.000E+00

     total cpu time spent up to now is        4.6 secs

     total energy              =    -198.70116495 Ry
     Harris-Foulkes estimate   =    -198.70116519 Ry
     estimated scf accuracy    <       0.00000870 Ry

     iteration #  5     ecut=    35.00 Ry     beta= 0.70
     Davidson diagonalization with overlap
     ethr =  5.44E-08,  avg # of iterations =  2.0

     negative rho (up, down):  8.868E-02 0.000E+00

     total cpu time spent up to now is        5.5 secs

     total energy              =    -198.70116649 Ry
     Harris-Foulkes estimate   =    -198.70116629 Ry
     estimated scf accuracy    <       0.00000023 Ry

     iteration #  6     ecut=    35.00 Ry     beta= 0.70
     Davidson diagonalization with overlap
     ethr =  1.46E-09,  avg # of iterations =  2.0

     negative rho (up, down):  8.869E-02 0.000E+00

     total cpu time spent up to now is        6.4 secs

     End of self-consistent calculation

     Number of k-points >= 100: set verbosity='high' to print the bands.

     the Fermi energy is    18.2764 ev

!    total energy              =    -198.70116653 Ry
     Harris-Foulkes estimate   =    -198.70116652 Ry
     estimated scf accuracy    <          1.9E-09 Ry

     The total energy is the sum of the following terms:

     one-electron contribution =     -44.68362628 Ry
     hartree contribution      =      35.95176452 Ry
     xc contribution           =     -31.35805058 Ry
     ewald contribution        =    -158.61144480 Ry
     smearing contrib. (-TS)   =       0.00019061 Ry

     convergence has been achieved in   6 iterations

     Writing output data file Pd-kp-conv.save/
 
     init_run     :      0.62s CPU      0.66s WALL (       1 calls)
     electrons    :      5.02s CPU      5.69s WALL (       1 calls)

     Called by init_run:
     wfcinit      :      0.29s CPU      0.32s WALL (       1 calls)
     potinit      :      0.01s CPU      0.01s WALL (       1 calls)
     hinit0       :      0.31s CPU      0.32s WALL (       1 calls)

     Called by electrons:
     c_bands      :      4.24s CPU      4.80s WALL (       6 calls)
     sum_band     :      0.74s CPU      0.80s WALL (       6 calls)
     v_of_rho     :      0.02s CPU      0.02s WALL (       7 calls)
     newd         :      0.04s CPU      0.04s WALL (       7 calls)
     mix_rho      :      0.00s CPU      0.00s WALL (       6 calls)

     Called by c_bands:
     init_us_2    :      0.13s CPU      0.14s WALL (    1560 calls)
     cegterg      :      3.87s CPU      4.16s WALL (     720 calls)

     Called by sum_band:
     sum_band:bec :      0.01s CPU      0.01s WALL (     720 calls)
     addusdens    :      0.04s CPU      0.04s WALL (       6 calls)

     Called by *egterg:
     h_psi        :      3.09s CPU      3.33s WALL (    2513 calls)
     s_psi        :      0.05s CPU      0.06s WALL (    2513 calls)
     g_psi        :      0.04s CPU      0.04s WALL (    1673 calls)
     cdiaghg      :      0.59s CPU      0.63s WALL (    2393 calls)

     Called by h_psi:
     h_psi:pot    :      3.07s CPU      3.31s WALL (    2513 calls)
     h_psi:calbec :      0.08s CPU      0.09s WALL (    2513 calls)
     vloc_psi     :      2.91s CPU      3.14s WALL (    2513 calls)
     add_vuspsi   :      0.06s CPU      0.06s WALL (    2513 calls)

     General routines
     calbec       :      0.09s CPU      0.10s WALL (    3233 calls)
     fft          :      0.01s CPU      0.01s WALL (      78 calls)
     ffts         :      0.00s CPU      0.00s WALL (       6 calls)
     fftw         :      3.01s CPU      3.25s WALL (   53746 calls)
 
     Parallel routines
     fft_scatt_xy :      0.54s CPU      0.58s WALL (   53830 calls)
     fft_scatt_yz :      0.78s CPU      0.86s WALL (   53830 calls)
 
     PWSCF        :     5.78s CPU         6.87s WALL

 
   This run was terminated on:  21:20:40   2Dec2021            

=------------------------------------------------------------------------------=
   JOB DONE.
=------------------------------------------------------------------------------=
