
     Program PWSCF v.6.3 starts on  2Dec2021 at 21:21:26 

     This program is part of the open-source Quantum ESPRESSO suite
     for quantum simulation of materials; please cite
         "P. Giannozzi et al., J. Phys.:Condens. Matter 21 395502 (2009);
         "P. Giannozzi et al., J. Phys.:Condens. Matter 29 465901 (2017);
          URL http://www.quantum-espresso.org", 
     in publications or presentations arising from this work. More details at
     http://www.quantum-espresso.org/quote

     Parallel version (MPI & OpenMP), running on       2 processor cores
     Number of MPI processes:                 2
     Threads/MPI process:                     1

     MPI processes distributed on     1 nodes
     R & G space division:  proc/nbgrp/npool/nimage =       2
     Reading input from pw-input.in

     Current dimensions of program PWSCF are:
     Max number of different atomic species (ntypx) = 10
     Max number of k-points (npk) =  40000
     Max angular momentum in pseudopotentials (lmaxx) =  3

     Subspace diagonalization in iterative solution of the eigenvalue problem:
     a serial algorithm will be used

 
     Parallelization info
     --------------------
     sticks:   dense  smooth     PW     G-vecs:    dense   smooth      PW
     Min         156     156     54                 1763     1763     362
     Max         157     157     55                 1764     1764     363
     Sum         313     313    109                 3527     3527     725
 

     Title: 
     Pd-kp-conv                                                                 


     bravais-lattice index     =            2
     lattice parameter (alat)  =       8.0000  a.u.
     unit-cell volume          =     128.0000 (a.u.)^3
     number of atoms/cell      =            1
     number of atomic types    =            1
     number of electrons       =        16.00
     number of Kohn-Sham states=           12
     kinetic-energy cutoff     =      35.0000  Ry
     charge density cutoff     =     140.0000  Ry
     convergence threshold     =      1.0E-07
     mixing beta               =       0.7000
     number of iterations used =            8  plain     mixing
     Exchange-correlation      =  SLA  PW   PBX  PBC ( 1  4  3  4 0 0)

     celldm(1)=   8.000000  celldm(2)=   0.000000  celldm(3)=   0.000000
     celldm(4)=   0.000000  celldm(5)=   0.000000  celldm(6)=   0.000000

     crystal axes: (cart. coord. in units of alat)
               a(1) = (  -0.500000   0.000000   0.500000 )  
               a(2) = (   0.000000   0.500000   0.500000 )  
               a(3) = (  -0.500000   0.500000   0.000000 )  

     reciprocal axes: (cart. coord. in units 2 pi/alat)
               b(1) = ( -1.000000 -1.000000  1.000000 )  
               b(2) = (  1.000000  1.000000  1.000000 )  
               b(3) = ( -1.000000  1.000000 -1.000000 )  


     PseudoPot. # 1 for Pd read from file:
     ./pd_pbe_v1.4.uspp.F.UPF
     MD5 check sum: 2d733d2bc2cbfd217af676df1668a4bc
     Pseudo is Ultrasoft + core correction, Zval = 16.0
     Generated by new atomic code, or converted to UPF format
     Using radial grid of  887 points,  6 beta functions with: 
                l(1) =   0
                l(2) =   0
                l(3) =   1
                l(4) =   1
                l(5) =   2
                l(6) =   2
     Q(r) pseudized with  8 coefficients,  rinner =    1.130   1.130   1.130
                                                       1.130   1.130

     atomic species   valence    mass     pseudopotential
        Pd            16.00   106.40000     Pd( 1.00)

     48 Sym. Ops., with inversion, found



   Cartesian axes

     site n.     atom                  positions (alat units)
         1           Pd  tau(   1) = (   0.0000000   0.0000000   0.0000000  )

     number of k points=   120  Marzari-Vanderbilt smearing, width (Ry)=  0.0150

     Number of k-points >= 100: set verbosity='high' to print them.

     Dense  grid:     3527 G-vectors     FFT dimensions: (  24,  24,  24)

     Estimated max dynamical RAM per process >      12.48 MB

     Estimated total dynamical RAM >      24.95 MB

     Check: negative/imaginary core charge=   -0.000001    0.000000

     Initial potential from superposition of free atoms
     Check: negative starting charge=   -0.080332

     starting charge   15.49999, renormalised to   16.00000

     negative rho (up, down):  8.292E-02 0.000E+00
     Starting wfcs are   12 randomized atomic wfcs

     total cpu time spent up to now is        0.9 secs

     Self-consistent Calculation

     iteration #  1     ecut=    35.00 Ry     beta= 0.70
     Davidson diagonalization with overlap
     ethr =  1.00E-02,  avg # of iterations =  3.4

     negative rho (up, down):  8.035E-02 0.000E+00

     total cpu time spent up to now is        2.4 secs

     total energy              =    -197.95983497 Ry
     Harris-Foulkes estimate   =    -199.06699126 Ry
     estimated scf accuracy    <       1.50627500 Ry

     iteration #  2     ecut=    35.00 Ry     beta= 0.70
     Davidson diagonalization with overlap
     ethr =  9.41E-03,  avg # of iterations =  2.0

     negative rho (up, down):  8.254E-02 0.000E+00

     total cpu time spent up to now is        3.7 secs

     total energy              =    -198.29404922 Ry
     Harris-Foulkes estimate   =    -199.25942692 Ry
     estimated scf accuracy    <       2.05607035 Ry

     iteration #  3     ecut=    35.00 Ry     beta= 0.70
     Davidson diagonalization with overlap
     ethr =  9.41E-03,  avg # of iterations =  2.0

     negative rho (up, down):  8.261E-02 0.000E+00

     total cpu time spent up to now is        4.9 secs

     total energy              =    -198.68008622 Ry
     Harris-Foulkes estimate   =    -198.68034953 Ry
     estimated scf accuracy    <       0.00061559 Ry

     iteration #  4     ecut=    35.00 Ry     beta= 0.70
     Davidson diagonalization with overlap
     ethr =  3.85E-06,  avg # of iterations =  2.7

     negative rho (up, down):  8.273E-02 0.000E+00

     total cpu time spent up to now is        6.7 secs

     total energy              =    -198.68040835 Ry
     Harris-Foulkes estimate   =    -198.68040765 Ry
     estimated scf accuracy    <       0.00000245 Ry

     iteration #  5     ecut=    35.00 Ry     beta= 0.70
     Davidson diagonalization with overlap
     ethr =  1.53E-08,  avg # of iterations =  1.6

     negative rho (up, down):  8.274E-02 0.000E+00

     total cpu time spent up to now is        7.9 secs

     End of self-consistent calculation

     Number of k-points >= 100: set verbosity='high' to print the bands.

     the Fermi energy is    13.0878 ev

!    total energy              =    -198.68040852 Ry
     Harris-Foulkes estimate   =    -198.68040850 Ry
     estimated scf accuracy    <       0.00000005 Ry

     The total energy is the sum of the following terms:

     one-electron contribution =     -63.25656462 Ry
     hartree contribution      =      42.52130015 Ry
     xc contribution           =     -31.22956486 Ry
     ewald contribution        =    -146.71558644 Ry
     smearing contrib. (-TS)   =       0.00000724 Ry

     convergence has been achieved in   5 iterations

     Writing output data file Pd-kp-conv.save/
 
     init_run     :      0.75s CPU      0.79s WALL (       1 calls)
     electrons    :      6.17s CPU      7.01s WALL (       1 calls)

     Called by init_run:
     wfcinit      :      0.40s CPU      0.43s WALL (       1 calls)
     potinit      :      0.01s CPU      0.01s WALL (       1 calls)
     hinit0       :      0.33s CPU      0.33s WALL (       1 calls)

     Called by electrons:
     c_bands      :      5.16s CPU      5.88s WALL (       5 calls)
     sum_band     :      0.96s CPU      1.03s WALL (       5 calls)
     v_of_rho     :      0.02s CPU      0.03s WALL (       6 calls)
     newd         :      0.04s CPU      0.04s WALL (       6 calls)
     mix_rho      :      0.00s CPU      0.00s WALL (       5 calls)

     Called by c_bands:
     init_us_2    :      0.13s CPU      0.14s WALL (    1320 calls)
     cegterg      :      4.78s CPU      5.09s WALL (     600 calls)

     Called by sum_band:
     sum_band:bec :      0.01s CPU      0.01s WALL (     600 calls)
     addusdens    :      0.04s CPU      0.04s WALL (       5 calls)

     Called by *egterg:
     h_psi        :      4.16s CPU      4.43s WALL (    2132 calls)
     s_psi        :      0.06s CPU      0.06s WALL (    2132 calls)
     g_psi        :      0.04s CPU      0.04s WALL (    1412 calls)
     cdiaghg      :      0.52s CPU      0.55s WALL (    2012 calls)

     Called by h_psi:
     h_psi:pot    :      4.14s CPU      4.41s WALL (    2132 calls)
     h_psi:calbec :      0.08s CPU      0.09s WALL (    2132 calls)
     vloc_psi     :      3.98s CPU      4.25s WALL (    2132 calls)
     add_vuspsi   :      0.06s CPU      0.06s WALL (    2132 calls)

     General routines
     calbec       :      0.10s CPU      0.10s WALL (    2732 calls)
     fft          :      0.01s CPU      0.01s WALL (      67 calls)
     ffts         :      0.00s CPU      0.00s WALL (       5 calls)
     fftw         :      4.10s CPU      4.36s WALL (   46784 calls)
 
     Parallel routines
     fft_scatt_xy :      0.75s CPU      0.80s WALL (   46856 calls)
     fft_scatt_yz :      0.92s CPU      0.99s WALL (   46856 calls)
 
     PWSCF        :     7.04s CPU         8.43s WALL

 
   This run was terminated on:  21:21:35   2Dec2021            

=------------------------------------------------------------------------------=
   JOB DONE.
=------------------------------------------------------------------------------=
