
     Program PWSCF v.6.3 starts on  2Dec2021 at 23:10:42 

     This program is part of the open-source Quantum ESPRESSO suite
     for quantum simulation of materials; please cite
         "P. Giannozzi et al., J. Phys.:Condens. Matter 21 395502 (2009);
         "P. Giannozzi et al., J. Phys.:Condens. Matter 29 465901 (2017);
          URL http://www.quantum-espresso.org", 
     in publications or presentations arising from this work. More details at
     http://www.quantum-espresso.org/quote

     Parallel version (MPI & OpenMP), running on       2 processor cores
     Number of MPI processes:                 2
     Threads/MPI process:                     1

     MPI processes distributed on     1 nodes
     R & G space division:  proc/nbgrp/npool/nimage =       2
     Reading input from pw-input.in

     Current dimensions of program PWSCF are:
     Max number of different atomic species (ntypx) = 10
     Max number of k-points (npk) =  40000
     Max angular momentum in pseudopotentials (lmaxx) =  3

     Subspace diagonalization in iterative solution of the eigenvalue problem:
     a serial algorithm will be used

 
     Parallelization info
     --------------------
     sticks:   dense  smooth     PW     G-vecs:    dense   smooth      PW
     Min         111     111     42                 1066     1066     229
     Max         112     112     43                 1067     1067     230
     Sum         223     223     85                 2133     2133     459
 

     Title: 
     Pd-kp-conv                                                                 


     bravais-lattice index     =            2
     lattice parameter (alat)  =       6.8000  a.u.
     unit-cell volume          =      78.6080 (a.u.)^3
     number of atoms/cell      =            1
     number of atomic types    =            1
     number of electrons       =        16.00
     number of Kohn-Sham states=           12
     kinetic-energy cutoff     =      35.0000  Ry
     charge density cutoff     =     140.0000  Ry
     convergence threshold     =      1.0E-07
     mixing beta               =       0.7000
     number of iterations used =            8  plain     mixing
     Exchange-correlation      =  SLA  PW   PBX  PBC ( 1  4  3  4 0 0)

     celldm(1)=   6.800000  celldm(2)=   0.000000  celldm(3)=   0.000000
     celldm(4)=   0.000000  celldm(5)=   0.000000  celldm(6)=   0.000000

     crystal axes: (cart. coord. in units of alat)
               a(1) = (  -0.500000   0.000000   0.500000 )  
               a(2) = (   0.000000   0.500000   0.500000 )  
               a(3) = (  -0.500000   0.500000   0.000000 )  

     reciprocal axes: (cart. coord. in units 2 pi/alat)
               b(1) = ( -1.000000 -1.000000  1.000000 )  
               b(2) = (  1.000000  1.000000  1.000000 )  
               b(3) = ( -1.000000  1.000000 -1.000000 )  


     PseudoPot. # 1 for Pd read from file:
     ./pd_pbe_v1.4.uspp.F.UPF
     MD5 check sum: 2d733d2bc2cbfd217af676df1668a4bc
     Pseudo is Ultrasoft + core correction, Zval = 16.0
     Generated by new atomic code, or converted to UPF format
     Using radial grid of  887 points,  6 beta functions with: 
                l(1) =   0
                l(2) =   0
                l(3) =   1
                l(4) =   1
                l(5) =   2
                l(6) =   2
     Q(r) pseudized with  8 coefficients,  rinner =    1.130   1.130   1.130
                                                       1.130   1.130

     atomic species   valence    mass     pseudopotential
        Pd            16.00   106.40000     Pd( 1.00)

     48 Sym. Ops., with inversion, found



   Cartesian axes

     site n.     atom                  positions (alat units)
         1           Pd  tau(   1) = (   0.0000000   0.0000000   0.0000000  )

     number of k points=     8  Marzari-Vanderbilt smearing, width (Ry)=  0.0400
                       cart. coord. in units 2pi/alat
        k(    1) = (   0.0000000   0.0000000   0.0000000), wk =   0.0312500
        k(    2) = (  -0.2500000   0.2500000  -0.2500000), wk =   0.2500000
        k(    3) = (   0.5000000  -0.5000000   0.5000000), wk =   0.1250000
        k(    4) = (   0.0000000   0.5000000   0.0000000), wk =   0.1875000
        k(    5) = (   0.7500000  -0.2500000   0.7500000), wk =   0.7500000
        k(    6) = (   0.5000000   0.0000000   0.5000000), wk =   0.3750000
        k(    7) = (   0.0000000  -1.0000000   0.0000000), wk =   0.0937500
        k(    8) = (  -0.5000000  -1.0000000   0.0000000), wk =   0.1875000

     Dense  grid:     2133 G-vectors     FFT dimensions: (  20,  20,  20)

     Estimated max dynamical RAM per process >       5.05 MB

     Estimated total dynamical RAM >      10.11 MB

     Initial potential from superposition of free atoms
     Check: negative starting charge=   -0.081587

     starting charge   15.49999, renormalised to   16.00000

     negative rho (up, down):  8.422E-02 0.000E+00
     Starting wfcs are   12 randomized atomic wfcs

     total cpu time spent up to now is        0.4 secs

     Self-consistent Calculation

     iteration #  1     ecut=    35.00 Ry     beta= 0.70
     Davidson diagonalization with overlap
     ethr =  1.00E-02,  avg # of iterations =  3.4

     negative rho (up, down):  8.460E-02 0.000E+00

     total cpu time spent up to now is        0.6 secs

     total energy              =    -198.38848914 Ry
     Harris-Foulkes estimate   =    -198.88426044 Ry
     estimated scf accuracy    <       0.69876614 Ry

     iteration #  2     ecut=    35.00 Ry     beta= 0.70
     Davidson diagonalization with overlap
     ethr =  4.37E-03,  avg # of iterations =  2.0

     negative rho (up, down):  8.587E-02 0.000E+00

     total cpu time spent up to now is        0.6 secs

     total energy              =    -198.58713070 Ry
     Harris-Foulkes estimate   =    -198.76148477 Ry
     estimated scf accuracy    <       0.30529223 Ry

     iteration #  3     ecut=    35.00 Ry     beta= 0.70
     Davidson diagonalization with overlap
     ethr =  1.91E-03,  avg # of iterations =  2.2

     negative rho (up, down):  8.639E-02 0.000E+00

     total cpu time spent up to now is        0.7 secs

     total energy              =    -198.65078775 Ry
     Harris-Foulkes estimate   =    -198.65093133 Ry
     estimated scf accuracy    <       0.00045547 Ry

     iteration #  4     ecut=    35.00 Ry     beta= 0.70
     Davidson diagonalization with overlap
     ethr =  2.85E-06,  avg # of iterations =  2.4

     negative rho (up, down):  8.651E-02 0.000E+00

     total cpu time spent up to now is        0.8 secs

     total energy              =    -198.65092091 Ry
     Harris-Foulkes estimate   =    -198.65092914 Ry
     estimated scf accuracy    <       0.00001498 Ry

     iteration #  5     ecut=    35.00 Ry     beta= 0.70
     Davidson diagonalization with overlap
     ethr =  9.36E-08,  avg # of iterations =  2.0

     negative rho (up, down):  8.653E-02 0.000E+00

     total cpu time spent up to now is        0.8 secs

     total energy              =    -198.65092486 Ry
     Harris-Foulkes estimate   =    -198.65092683 Ry
     estimated scf accuracy    <       0.00000347 Ry

     iteration #  6     ecut=    35.00 Ry     beta= 0.70
     Davidson diagonalization with overlap
     ethr =  2.17E-08,  avg # of iterations =  2.0

     negative rho (up, down):  8.653E-02 0.000E+00

     total cpu time spent up to now is        0.9 secs

     total energy              =    -198.65092580 Ry
     Harris-Foulkes estimate   =    -198.65092605 Ry
     estimated scf accuracy    <       0.00000051 Ry

     iteration #  7     ecut=    35.00 Ry     beta= 0.70
     Davidson diagonalization with overlap
     ethr =  3.20E-09,  avg # of iterations =  1.9

     negative rho (up, down):  8.653E-02 0.000E+00

     total cpu time spent up to now is        1.0 secs

     End of self-consistent calculation

          k = 0.0000 0.0000 0.0000 (   283 PWs)   bands (ev):

   -24.6086 -24.6086 -24.6086  16.4868  21.5172  21.5172  21.5172  23.8905
    23.8905  43.7445  50.0033  50.0033

          k =-0.2500 0.2500-0.2500 (   280 PWs)   bands (ev):

   -25.0919 -24.6736 -24.6736  18.3752  21.5287  21.9280  21.9280  24.0841
    24.0841  42.3792  45.3665  52.9961

          k = 0.5000-0.5000 0.5000 (   272 PWs)   bands (ev):

   -25.5555 -24.7383 -24.7383  18.2005  21.4219  21.4219  25.6773  25.6773
    26.1486  35.2084  42.9949  50.0738

          k = 0.0000 0.5000 0.0000 (   290 PWs)   bands (ev):

   -25.0718 -24.7828 -24.7828  18.9346  19.7057  23.0065  23.3768  23.3768
    24.7209  45.8860  46.7325  46.7325

          k = 0.7500-0.2500 0.7500 (   271 PWs)   bands (ev):

   -25.3940 -24.9872 -24.8470  19.0067  20.0608  22.2408  23.2845  25.8166
    30.1618  36.7648  42.7958  45.2877

          k = 0.5000 0.0000 0.5000 (   273 PWs)   bands (ev):

   -25.2899 -25.0088 -24.7388  20.1835  20.6513  21.1773  22.8630  23.7842
    28.6884  40.4671  41.2047  47.3983

          k = 0.0000-1.0000 0.0000 (   254 PWs)   bands (ev):

   -25.4979 -24.9532 -24.9532  17.8679  18.2744  25.6490  26.1608  26.1608
    29.0926  39.2334  40.5708  40.5708

          k =-0.5000-1.0000 0.0000 (   264 PWs)   bands (ev):

   -25.2298 -25.2298 -24.9650  19.3359  20.7633  20.7633  23.6760  26.1636
    36.2217  36.2217  38.3906  39.4128

     the Fermi energy is    26.0583 ev

!    total energy              =    -198.65092590 Ry
     Harris-Foulkes estimate   =    -198.65092590 Ry
     estimated scf accuracy    <          1.8E-09 Ry

     The total energy is the sum of the following terms:

     one-electron contribution =     -23.79642777 Ry
     hartree contribution      =      29.38753226 Ry
     xc contribution           =     -31.62959932 Ry
     ewald contribution        =    -172.60657228 Ry
     smearing contrib. (-TS)   =      -0.00585879 Ry

     convergence has been achieved in   7 iterations

     Writing output data file Pd-kp-conv.save/
 
     init_run     :      0.33s CPU      0.35s WALL (       1 calls)
     electrons    :      0.47s CPU      0.90s WALL (       1 calls)

     Called by init_run:
     wfcinit      :      0.02s CPU      0.03s WALL (       1 calls)
     potinit      :      0.01s CPU      0.01s WALL (       1 calls)
     hinit0       :      0.30s CPU      0.30s WALL (       1 calls)

     Called by electrons:
     c_bands      :      0.34s CPU      0.36s WALL (       7 calls)
     sum_band     :      0.09s CPU      0.09s WALL (       7 calls)
     v_of_rho     :      0.02s CPU      0.02s WALL (       8 calls)
     newd         :      0.04s CPU      0.04s WALL (       8 calls)
     mix_rho      :      0.00s CPU      0.00s WALL (       7 calls)

     Called by c_bands:
     init_us_2    :      0.01s CPU      0.01s WALL (     120 calls)
     cegterg      :      0.31s CPU      0.34s WALL (      56 calls)

     Called by sum_band:
     sum_band:bec :      0.00s CPU      0.00s WALL (      56 calls)
     addusdens    :      0.03s CPU      0.03s WALL (       7 calls)

     Called by *egterg:
     h_psi        :      0.25s CPU      0.27s WALL (     191 calls)
     s_psi        :      0.00s CPU      0.00s WALL (     191 calls)
     g_psi        :      0.00s CPU      0.00s WALL (     127 calls)
     cdiaghg      :      0.05s CPU      0.05s WALL (     183 calls)

     Called by h_psi:
     h_psi:pot    :      0.25s CPU      0.27s WALL (     191 calls)
     h_psi:calbec :      0.01s CPU      0.01s WALL (     191 calls)
     vloc_psi     :      0.24s CPU      0.26s WALL (     191 calls)
     add_vuspsi   :      0.00s CPU      0.00s WALL (     191 calls)

     General routines
     calbec       :      0.01s CPU      0.01s WALL (     247 calls)
     fft          :      0.01s CPU      0.01s WALL (      89 calls)
     ffts         :      0.00s CPU      0.00s WALL (       7 calls)
     fftw         :      0.24s CPU      0.27s WALL (    4142 calls)
 
     Parallel routines
     fft_scatt_xy :      0.05s CPU      0.05s WALL (    4238 calls)
     fft_scatt_yz :      0.07s CPU      0.07s WALL (    4238 calls)
 
     PWSCF        :     0.88s CPU         1.42s WALL

 
   This run was terminated on:  23:10:43   2Dec2021            

=------------------------------------------------------------------------------=
   JOB DONE.
=------------------------------------------------------------------------------=
