
     Program PWSCF v.6.3 starts on  2Dec2021 at 22:56:26 

     This program is part of the open-source Quantum ESPRESSO suite
     for quantum simulation of materials; please cite
         "P. Giannozzi et al., J. Phys.:Condens. Matter 21 395502 (2009);
         "P. Giannozzi et al., J. Phys.:Condens. Matter 29 465901 (2017);
          URL http://www.quantum-espresso.org", 
     in publications or presentations arising from this work. More details at
     http://www.quantum-espresso.org/quote

     Parallel version (MPI & OpenMP), running on       2 processor cores
     Number of MPI processes:                 2
     Threads/MPI process:                     1

     MPI processes distributed on     1 nodes
     R & G space division:  proc/nbgrp/npool/nimage =       2
     Reading input from pw-input.in

     Current dimensions of program PWSCF are:
     Max number of different atomic species (ntypx) = 10
     Max number of k-points (npk) =  40000
     Max angular momentum in pseudopotentials (lmaxx) =  3

     Subspace diagonalization in iterative solution of the eigenvalue problem:
     a serial algorithm will be used

 
     Parallelization info
     --------------------
     sticks:   dense  smooth     PW     G-vecs:    dense   smooth      PW
     Min         141     141     48                 1570     1570     322
     Max         142     142     49                 1573     1573     323
     Sum         283     283     97                 3143     3143     645
 

     Title: 
     Pd-kp-conv                                                                 


     bravais-lattice index     =            2
     lattice parameter (alat)  =       7.7000  a.u.
     unit-cell volume          =     114.1333 (a.u.)^3
     number of atoms/cell      =            1
     number of atomic types    =            1
     number of electrons       =        16.00
     number of Kohn-Sham states=           12
     kinetic-energy cutoff     =      35.0000  Ry
     charge density cutoff     =     140.0000  Ry
     convergence threshold     =      1.0E-07
     mixing beta               =       0.7000
     number of iterations used =            8  plain     mixing
     Exchange-correlation      =  SLA  PW   PBX  PBC ( 1  4  3  4 0 0)

     celldm(1)=   7.700000  celldm(2)=   0.000000  celldm(3)=   0.000000
     celldm(4)=   0.000000  celldm(5)=   0.000000  celldm(6)=   0.000000

     crystal axes: (cart. coord. in units of alat)
               a(1) = (  -0.500000   0.000000   0.500000 )  
               a(2) = (   0.000000   0.500000   0.500000 )  
               a(3) = (  -0.500000   0.500000   0.000000 )  

     reciprocal axes: (cart. coord. in units 2 pi/alat)
               b(1) = ( -1.000000 -1.000000  1.000000 )  
               b(2) = (  1.000000  1.000000  1.000000 )  
               b(3) = ( -1.000000  1.000000 -1.000000 )  


     PseudoPot. # 1 for Pd read from file:
     ./pd_pbe_v1.4.uspp.F.UPF
     MD5 check sum: 2d733d2bc2cbfd217af676df1668a4bc
     Pseudo is Ultrasoft + core correction, Zval = 16.0
     Generated by new atomic code, or converted to UPF format
     Using radial grid of  887 points,  6 beta functions with: 
                l(1) =   0
                l(2) =   0
                l(3) =   1
                l(4) =   1
                l(5) =   2
                l(6) =   2
     Q(r) pseudized with  8 coefficients,  rinner =    1.130   1.130   1.130
                                                       1.130   1.130

     atomic species   valence    mass     pseudopotential
        Pd            16.00   106.40000     Pd( 1.00)

     48 Sym. Ops., with inversion, found



   Cartesian axes

     site n.     atom                  positions (alat units)
         1           Pd  tau(   1) = (   0.0000000   0.0000000   0.0000000  )

     number of k points=   195  Marzari-Vanderbilt smearing, width (Ry)=  0.0350

     Number of k-points >= 100: set verbosity='high' to print them.

     Dense  grid:     3143 G-vectors     FFT dimensions: (  24,  24,  24)

     Estimated max dynamical RAM per process >      13.98 MB

     Estimated total dynamical RAM >      27.96 MB

     Initial potential from superposition of free atoms
     Check: negative starting charge=   -0.079204

     starting charge   15.49999, renormalised to   16.00000

     negative rho (up, down):  8.176E-02 0.000E+00
     Starting wfcs are   12 randomized atomic wfcs

     total cpu time spent up to now is        1.1 secs

     Self-consistent Calculation

     iteration #  1     ecut=    35.00 Ry     beta= 0.70
     Davidson diagonalization with overlap
     ethr =  1.00E-02,  avg # of iterations =  3.6

     negative rho (up, down):  8.048E-02 0.000E+00

     total cpu time spent up to now is        3.5 secs

     total energy              =    -198.09330340 Ry
     Harris-Foulkes estimate   =    -199.05587033 Ry
     estimated scf accuracy    <       1.31894091 Ry

     iteration #  2     ecut=    35.00 Ry     beta= 0.70
     Davidson diagonalization with overlap
     ethr =  8.24E-03,  avg # of iterations =  2.0

     negative rho (up, down):  8.178E-02 0.000E+00

     total cpu time spent up to now is        5.9 secs

     total energy              =    -198.40149412 Ry
     Harris-Foulkes estimate   =    -199.12186187 Ry
     estimated scf accuracy    <       1.47690793 Ry

     iteration #  3     ecut=    35.00 Ry     beta= 0.70
     Davidson diagonalization with overlap
     ethr =  8.24E-03,  avg # of iterations =  2.0

     negative rho (up, down):  8.191E-02 0.000E+00

     total cpu time spent up to now is        7.9 secs

     total energy              =    -198.69549513 Ry
     Harris-Foulkes estimate   =    -198.69611511 Ry
     estimated scf accuracy    <       0.00137304 Ry

     iteration #  4     ecut=    35.00 Ry     beta= 0.70
     Davidson diagonalization with overlap
     ethr =  8.58E-06,  avg # of iterations =  2.5

     negative rho (up, down):  8.204E-02 0.000E+00

     total cpu time spent up to now is       10.2 secs

     total energy              =    -198.69603763 Ry
     Harris-Foulkes estimate   =    -198.69603603 Ry
     estimated scf accuracy    <       0.00000337 Ry

     iteration #  5     ecut=    35.00 Ry     beta= 0.70
     Davidson diagonalization with overlap
     ethr =  2.11E-08,  avg # of iterations =  1.9

     negative rho (up, down):  8.209E-02 0.000E+00

     total cpu time spent up to now is       12.1 secs

     total energy              =    -198.69603840 Ry
     Harris-Foulkes estimate   =    -198.69603817 Ry
     estimated scf accuracy    <       0.00000017 Ry

     iteration #  6     ecut=    35.00 Ry     beta= 0.70
     Davidson diagonalization with overlap
     ethr =  1.03E-09,  avg # of iterations =  2.0

     negative rho (up, down):  8.209E-02 0.000E+00

     total cpu time spent up to now is       13.9 secs

     End of self-consistent calculation

     Number of k-points >= 100: set verbosity='high' to print the bands.

     the Fermi energy is    15.5281 ev

!    total energy              =    -198.69603842 Ry
     Harris-Foulkes estimate   =    -198.69603842 Ry
     estimated scf accuracy    <          7.9E-10 Ry

     The total energy is the sum of the following terms:

     one-electron contribution =     -54.23800951 Ry
     hartree contribution      =      39.25339437 Ry
     xc contribution           =     -31.28105503 Ry
     ewald contribution        =    -152.43177811 Ry
     smearing contrib. (-TS)   =       0.00140988 Ry

     convergence has been achieved in   6 iterations

     Writing output data file Pd-kp-conv.save/
 
     init_run     :      0.96s CPU      1.03s WALL (       1 calls)
     electrons    :     11.29s CPU     12.81s WALL (       1 calls)

     Called by init_run:
     wfcinit      :      0.62s CPU      0.68s WALL (       1 calls)
     potinit      :      0.01s CPU      0.01s WALL (       1 calls)
     hinit0       :      0.32s CPU      0.33s WALL (       1 calls)

     Called by electrons:
     c_bands      :      9.48s CPU     10.80s WALL (       6 calls)
     sum_band     :      1.75s CPU      1.85s WALL (       6 calls)
     v_of_rho     :      0.03s CPU      0.03s WALL (       7 calls)
     newd         :      0.04s CPU      0.05s WALL (       7 calls)
     mix_rho      :      0.00s CPU      0.00s WALL (       6 calls)

     Called by c_bands:
     init_us_2    :      0.23s CPU      0.25s WALL (    2535 calls)
     cegterg      :      8.79s CPU      9.30s WALL (    1170 calls)

     Called by sum_band:
     sum_band:bec :      0.01s CPU      0.01s WALL (    1170 calls)
     addusdens    :      0.04s CPU      0.05s WALL (       6 calls)

     Called by *egterg:
     h_psi        :      7.58s CPU      8.04s WALL (    4102 calls)
     s_psi        :      0.10s CPU      0.11s WALL (    4102 calls)
     g_psi        :      0.07s CPU      0.07s WALL (    2737 calls)
     cdiaghg      :      0.98s CPU      1.03s WALL (    3907 calls)

     Called by h_psi:
     h_psi:pot    :      7.54s CPU      8.00s WALL (    4102 calls)
     h_psi:calbec :      0.14s CPU      0.15s WALL (    4102 calls)
     vloc_psi     :      7.27s CPU      7.71s WALL (    4102 calls)
     add_vuspsi   :      0.10s CPU      0.11s WALL (    4102 calls)

     General routines
     calbec       :      0.17s CPU      0.18s WALL (    5272 calls)
     fft          :      0.01s CPU      0.01s WALL (      78 calls)
     ffts         :      0.00s CPU      0.00s WALL (       6 calls)
     fftw         :      7.48s CPU      7.92s WALL (   87572 calls)
 
     Parallel routines
     fft_scatt_xy :      1.40s CPU      1.49s WALL (   87656 calls)
     fft_scatt_yz :      1.55s CPU      1.65s WALL (   87656 calls)
 
     PWSCF        :    12.40s CPU        14.62s WALL

 
   This run was terminated on:  22:56:40   2Dec2021            

=------------------------------------------------------------------------------=
   JOB DONE.
=------------------------------------------------------------------------------=
