
     Program PWSCF v.6.3 starts on  2Dec2021 at 20:29:33 

     This program is part of the open-source Quantum ESPRESSO suite
     for quantum simulation of materials; please cite
         "P. Giannozzi et al., J. Phys.:Condens. Matter 21 395502 (2009);
         "P. Giannozzi et al., J. Phys.:Condens. Matter 29 465901 (2017);
          URL http://www.quantum-espresso.org", 
     in publications or presentations arising from this work. More details at
     http://www.quantum-espresso.org/quote

     Parallel version (MPI & OpenMP), running on       2 processor cores
     Number of MPI processes:                 2
     Threads/MPI process:                     1

     MPI processes distributed on     1 nodes
     R & G space division:  proc/nbgrp/npool/nimage =       2
     Reading input from pw-input.in

     Current dimensions of program PWSCF are:
     Max number of different atomic species (ntypx) = 10
     Max number of k-points (npk) =  40000
     Max angular momentum in pseudopotentials (lmaxx) =  3

     Subspace diagonalization in iterative solution of the eigenvalue problem:
     a serial algorithm will be used

 
     Parallelization info
     --------------------
     sticks:   dense  smooth     PW     G-vecs:    dense   smooth      PW
     Min         120     120     42                 1221     1221     264
     Max         121     121     43                 1224     1224     267
     Sum         241     241     85                 2445     2445     531
 

     Title: 
     Pd-kp-conv                                                                 


     bravais-lattice index     =            2
     lattice parameter (alat)  =       7.1000  a.u.
     unit-cell volume          =      89.4777 (a.u.)^3
     number of atoms/cell      =            1
     number of atomic types    =            1
     number of electrons       =        16.00
     number of Kohn-Sham states=           12
     kinetic-energy cutoff     =      35.0000  Ry
     charge density cutoff     =     140.0000  Ry
     convergence threshold     =      1.0E-07
     mixing beta               =       0.7000
     number of iterations used =            8  plain     mixing
     Exchange-correlation      =  SLA  PW   PBX  PBC ( 1  4  3  4 0 0)

     celldm(1)=   7.100000  celldm(2)=   0.000000  celldm(3)=   0.000000
     celldm(4)=   0.000000  celldm(5)=   0.000000  celldm(6)=   0.000000

     crystal axes: (cart. coord. in units of alat)
               a(1) = (  -0.500000   0.000000   0.500000 )  
               a(2) = (   0.000000   0.500000   0.500000 )  
               a(3) = (  -0.500000   0.500000   0.000000 )  

     reciprocal axes: (cart. coord. in units 2 pi/alat)
               b(1) = ( -1.000000 -1.000000  1.000000 )  
               b(2) = (  1.000000  1.000000  1.000000 )  
               b(3) = ( -1.000000  1.000000 -1.000000 )  


     PseudoPot. # 1 for Pd read from file:
     ./pd_pbe_v1.4.uspp.F.UPF
     MD5 check sum: 2d733d2bc2cbfd217af676df1668a4bc
     Pseudo is Ultrasoft + core correction, Zval = 16.0
     Generated by new atomic code, or converted to UPF format
     Using radial grid of  887 points,  6 beta functions with: 
                l(1) =   0
                l(2) =   0
                l(3) =   1
                l(4) =   1
                l(5) =   2
                l(6) =   2
     Q(r) pseudized with  8 coefficients,  rinner =    1.130   1.130   1.130
                                                       1.130   1.130

     atomic species   valence    mass     pseudopotential
        Pd            16.00   106.40000     Pd( 1.00)

     48 Sym. Ops., with inversion, found



   Cartesian axes

     site n.     atom                  positions (alat units)
         1           Pd  tau(   1) = (   0.0000000   0.0000000   0.0000000  )

     number of k points=    16  Marzari-Vanderbilt smearing, width (Ry)=  0.0050
                       cart. coord. in units 2pi/alat
        k(    1) = (   0.0000000   0.0000000   0.0000000), wk =   0.0092593
        k(    2) = (  -0.1666667   0.1666667  -0.1666667), wk =   0.0740741
        k(    3) = (  -0.3333333   0.3333333  -0.3333333), wk =   0.0740741
        k(    4) = (   0.5000000  -0.5000000   0.5000000), wk =   0.0370370
        k(    5) = (   0.0000000   0.3333333   0.0000000), wk =   0.0555556
        k(    6) = (  -0.1666667   0.5000000  -0.1666667), wk =   0.2222222
        k(    7) = (   0.6666667  -0.3333333   0.6666667), wk =   0.2222222
        k(    8) = (   0.5000000  -0.1666667   0.5000000), wk =   0.2222222
        k(    9) = (   0.3333333   0.0000000   0.3333333), wk =   0.1111111
        k(   10) = (   0.0000000   0.6666667   0.0000000), wk =   0.0555556
        k(   11) = (   0.8333333  -0.1666667   0.8333333), wk =   0.2222222
        k(   12) = (   0.6666667  -0.0000000   0.6666667), wk =   0.1111111
        k(   13) = (   0.0000000  -1.0000000   0.0000000), wk =   0.0277778
        k(   14) = (   0.6666667  -0.3333333   1.0000000), wk =   0.2222222
        k(   15) = (   0.5000000  -0.1666667   0.8333333), wk =   0.2222222
        k(   16) = (  -0.3333333  -1.0000000   0.0000000), wk =   0.1111111

     Dense  grid:     2445 G-vectors     FFT dimensions: (  20,  20,  20)

     Estimated max dynamical RAM per process >       5.88 MB

     Estimated total dynamical RAM >      11.76 MB

     Initial potential from superposition of free atoms
     Check: negative starting charge=   -0.083979

     starting charge   15.49999, renormalised to   16.00000

     negative rho (up, down):  8.669E-02 0.000E+00
     Starting wfcs are   12 randomized atomic wfcs

     total cpu time spent up to now is        0.5 secs

     Self-consistent Calculation

     iteration #  1     ecut=    35.00 Ry     beta= 0.70
     Davidson diagonalization with overlap
     ethr =  1.00E-02,  avg # of iterations =  3.6

     negative rho (up, down):  8.649E-02 0.000E+00

     total cpu time spent up to now is        0.7 secs

     total energy              =    -198.31284522 Ry
     Harris-Foulkes estimate   =    -198.97725963 Ry
     estimated scf accuracy    <       0.92614919 Ry

     iteration #  2     ecut=    35.00 Ry     beta= 0.70
     Davidson diagonalization with overlap
     ethr =  5.79E-03,  avg # of iterations =  2.0

     negative rho (up, down):  8.775E-02 0.000E+00

     total cpu time spent up to now is        0.8 secs

     total energy              =    -198.53994896 Ry
     Harris-Foulkes estimate   =    -198.87865384 Ry
     estimated scf accuracy    <       0.63822061 Ry

     iteration #  3     ecut=    35.00 Ry     beta= 0.70
     Davidson diagonalization with overlap
     ethr =  3.99E-03,  avg # of iterations =  2.1

     negative rho (up, down):  8.833E-02 0.000E+00

     total cpu time spent up to now is        0.9 secs

     total energy              =    -198.68658102 Ry
     Harris-Foulkes estimate   =    -198.68856809 Ry
     estimated scf accuracy    <       0.00390704 Ry

     iteration #  4     ecut=    35.00 Ry     beta= 0.70
     Davidson diagonalization with overlap
     ethr =  2.44E-05,  avg # of iterations =  2.2

     negative rho (up, down):  8.850E-02 0.000E+00

     total cpu time spent up to now is        1.1 secs

     total energy              =    -198.68753333 Ry
     Harris-Foulkes estimate   =    -198.68757266 Ry
     estimated scf accuracy    <       0.00007980 Ry

     iteration #  5     ecut=    35.00 Ry     beta= 0.70
     Davidson diagonalization with overlap
     ethr =  4.99E-07,  avg # of iterations =  2.0

     negative rho (up, down):  8.854E-02 0.000E+00

     total cpu time spent up to now is        1.2 secs

     total energy              =    -198.68754745 Ry
     Harris-Foulkes estimate   =    -198.68754765 Ry
     estimated scf accuracy    <       0.00000047 Ry

     iteration #  6     ecut=    35.00 Ry     beta= 0.70
     Davidson diagonalization with overlap
     ethr =  2.96E-09,  avg # of iterations =  2.2

     negative rho (up, down):  8.854E-02 0.000E+00

     total cpu time spent up to now is        1.3 secs

     End of self-consistent calculation

          k = 0.0000 0.0000 0.0000 (   331 PWs)   bands (ev):

   -28.4230 -28.4230 -28.4230  13.6037  18.1877  18.1877  18.1877  20.0945
    20.0945  39.6980  45.1150  45.1150

          k =-0.1667 0.1667-0.1667 (   311 PWs)   bands (ev):

   -28.5756 -28.4437 -28.4437  14.6163  17.9164  18.4904  18.4904  20.0149
    20.0149  40.0277  41.1264  46.2770

          k =-0.3333 0.3333-0.3333 (   308 PWs)   bands (ev):

   -28.8744 -28.4859 -28.4859  15.5672  18.3649  18.3649  19.5008  20.8133
    20.8133  34.0821  40.0131  46.4014

          k = 0.5000-0.5000 0.5000 (   302 PWs)   bands (ev):

   -29.0201 -28.5065 -28.5065  15.3969  18.1250  18.1250  21.5330  21.5330
    22.4021  29.8355  38.9313  44.5431

          k = 0.0000 0.3333 0.0000 (   307 PWs)   bands (ev):

   -28.5704 -28.4783 -28.4783  14.9569  17.4178  18.8928  18.8928  19.3772
    20.4234  41.2526  42.2082  43.6316

          k =-0.1667 0.5000-0.1667 (   313 PWs)   bands (ev):

   -28.7898 -28.5288 -28.5272  16.1080  17.2727  18.4038  19.1814  21.0572
    21.0647  36.6955  40.9578  42.0389

          k = 0.6667-0.3333 0.6667 (   315 PWs)   bands (ev):

   -28.9607 -28.5955 -28.5416  16.0246  17.6040  18.8385  19.0233  21.5833
    24.8699  30.5553  39.0558  41.9910

          k = 0.5000-0.1667 0.5000 (   314 PWs)   bands (ev):

   -28.9138 -28.6151 -28.5071  16.2646  17.7901  18.7968  18.8073  20.6089
    24.0004  32.5376  38.3923  42.0203

          k = 0.3333 0.0000 0.3333 (   317 PWs)   bands (ev):

   -28.7197 -28.5424 -28.4584  15.9683  17.4346  18.5077  19.1020  19.3608
    21.3264  38.3681  39.5225  45.0551

          k = 0.0000 0.6667 0.0000 (   315 PWs)   bands (ev):

   -28.8525 -28.5893 -28.5893  15.8330  16.1078  20.6759  20.6759  21.0730
    21.1225  38.4897  38.4897  38.6809

          k = 0.8333-0.1667 0.8333 (   311 PWs)   bands (ev):

   -28.9268 -28.6809 -28.6103  15.7669  16.2095  19.8359  20.5433  21.7084
    25.7465  33.2409  35.5311  37.7824

          k = 0.6667-0.0000 0.6667 (   309 PWs)   bands (ev):

   -28.8279 -28.8248 -28.5693  16.3969  17.2846  18.4036  19.9099  20.9783
    28.1270  31.3510  33.6577  40.7488

          k = 0.0000-1.0000 0.0000 (   302 PWs)   bands (ev):

   -28.9862 -28.6441 -28.6441  15.2102  15.5381  21.4987  21.9158  21.9158
    24.9964  33.5485  35.7113  35.7113

          k = 0.6667-0.3333 1.0000 (   318 PWs)   bands (ev):

   -28.8699 -28.6685 -28.5590  16.8032  16.8193  17.9928  20.2773  20.6604
    24.4253  35.4151  35.7695  39.2200

          k = 0.5000-0.1667 0.8333 (   312 PWs)   bands (ev):

   -28.8886 -28.7406 -28.5932  16.8303  16.9869  18.0545  19.7474  21.4284
    28.5526  30.0381  36.4861  36.8077

          k =-0.3333-1.0000 0.0000 (   308 PWs)   bands (ev):

   -28.9023 -28.7310 -28.6479  16.0451  16.4548  19.0482  20.4391  21.9155
    28.7536  33.2122  33.4614  34.3897

     the Fermi energy is    21.5487 ev

!    total energy              =    -198.68754761 Ry
     Harris-Foulkes estimate   =    -198.68754765 Ry
     estimated scf accuracy    <       0.00000005 Ry

     The total energy is the sum of the following terms:

     one-electron contribution =     -34.46527954 Ry
     hartree contribution      =      32.54112348 Ry
     xc contribution           =     -31.45003061 Ry
     ewald contribution        =    -165.31333683 Ry
     smearing contrib. (-TS)   =      -0.00002410 Ry

     convergence has been achieved in   6 iterations

     Writing output data file Pd-kp-conv.save/
 
     init_run     :      0.37s CPU      0.38s WALL (       1 calls)
     electrons    :      0.77s CPU      0.95s WALL (       1 calls)

     Called by init_run:
     wfcinit      :      0.04s CPU      0.05s WALL (       1 calls)
     potinit      :      0.00s CPU      0.01s WALL (       1 calls)
     hinit0       :      0.31s CPU      0.31s WALL (       1 calls)

     Called by electrons:
     c_bands      :      0.60s CPU      0.64s WALL (       6 calls)
     sum_band     :      0.13s CPU      0.14s WALL (       6 calls)
     v_of_rho     :      0.02s CPU      0.02s WALL (       7 calls)
     newd         :      0.03s CPU      0.03s WALL (       7 calls)
     mix_rho      :      0.00s CPU      0.00s WALL (       6 calls)

     Called by c_bands:
     init_us_2    :      0.02s CPU      0.02s WALL (     208 calls)
     cegterg      :      0.56s CPU      0.59s WALL (      96 calls)

     Called by sum_band:
     sum_band:bec :      0.00s CPU      0.00s WALL (      96 calls)
     addusdens    :      0.03s CPU      0.03s WALL (       6 calls)

     Called by *egterg:
     h_psi        :      0.45s CPU      0.48s WALL (     337 calls)
     s_psi        :      0.01s CPU      0.01s WALL (     337 calls)
     g_psi        :      0.00s CPU      0.01s WALL (     225 calls)
     cdiaghg      :      0.09s CPU      0.09s WALL (     321 calls)

     Called by h_psi:
     h_psi:pot    :      0.44s CPU      0.47s WALL (     337 calls)
     h_psi:calbec :      0.01s CPU      0.01s WALL (     337 calls)
     vloc_psi     :      0.42s CPU      0.45s WALL (     337 calls)
     add_vuspsi   :      0.01s CPU      0.01s WALL (     337 calls)

     General routines
     calbec       :      0.01s CPU      0.01s WALL (     433 calls)
     fft          :      0.01s CPU      0.01s WALL (      78 calls)
     ffts         :      0.00s CPU      0.00s WALL (       6 calls)
     fftw         :      0.43s CPU      0.46s WALL (    7294 calls)
 
     Parallel routines
     fft_scatt_xy :      0.08s CPU      0.08s WALL (    7378 calls)
     fft_scatt_yz :      0.11s CPU      0.12s WALL (    7378 calls)
 
     PWSCF        :     1.21s CPU         1.75s WALL

 
   This run was terminated on:  20:29:35   2Dec2021            

=------------------------------------------------------------------------------=
   JOB DONE.
=------------------------------------------------------------------------------=
