
     Program PWSCF v.6.3 starts on  2Dec2021 at 22:46:48 

     This program is part of the open-source Quantum ESPRESSO suite
     for quantum simulation of materials; please cite
         "P. Giannozzi et al., J. Phys.:Condens. Matter 21 395502 (2009);
         "P. Giannozzi et al., J. Phys.:Condens. Matter 29 465901 (2017);
          URL http://www.quantum-espresso.org", 
     in publications or presentations arising from this work. More details at
     http://www.quantum-espresso.org/quote

     Parallel version (MPI & OpenMP), running on       2 processor cores
     Number of MPI processes:                 2
     Threads/MPI process:                     1

     MPI processes distributed on     1 nodes
     R & G space division:  proc/nbgrp/npool/nimage =       2
     Reading input from pw-input.in

     Current dimensions of program PWSCF are:
     Max number of different atomic species (ntypx) = 10
     Max number of k-points (npk) =  40000
     Max angular momentum in pseudopotentials (lmaxx) =  3

     Subspace diagonalization in iterative solution of the eigenvalue problem:
     a serial algorithm will be used

 
     Parallelization info
     --------------------
     sticks:   dense  smooth     PW     G-vecs:    dense   smooth      PW
     Min         141     141     45                 1570     1570     304
     Max         142     142     46                 1573     1573     305
     Sum         283     283     91                 3143     3143     609
 

     Title: 
     Pd-kp-conv                                                                 


     bravais-lattice index     =            2
     lattice parameter (alat)  =       7.7000  a.u.
     unit-cell volume          =     114.1333 (a.u.)^3
     number of atoms/cell      =            1
     number of atomic types    =            1
     number of electrons       =        16.00
     number of Kohn-Sham states=           12
     kinetic-energy cutoff     =      35.0000  Ry
     charge density cutoff     =     140.0000  Ry
     convergence threshold     =      1.0E-07
     mixing beta               =       0.7000
     number of iterations used =            8  plain     mixing
     Exchange-correlation      =  SLA  PW   PBX  PBC ( 1  4  3  4 0 0)

     celldm(1)=   7.700000  celldm(2)=   0.000000  celldm(3)=   0.000000
     celldm(4)=   0.000000  celldm(5)=   0.000000  celldm(6)=   0.000000

     crystal axes: (cart. coord. in units of alat)
               a(1) = (  -0.500000   0.000000   0.500000 )  
               a(2) = (   0.000000   0.500000   0.500000 )  
               a(3) = (  -0.500000   0.500000   0.000000 )  

     reciprocal axes: (cart. coord. in units 2 pi/alat)
               b(1) = ( -1.000000 -1.000000  1.000000 )  
               b(2) = (  1.000000  1.000000  1.000000 )  
               b(3) = ( -1.000000  1.000000 -1.000000 )  


     PseudoPot. # 1 for Pd read from file:
     ./pd_pbe_v1.4.uspp.F.UPF
     MD5 check sum: 2d733d2bc2cbfd217af676df1668a4bc
     Pseudo is Ultrasoft + core correction, Zval = 16.0
     Generated by new atomic code, or converted to UPF format
     Using radial grid of  887 points,  6 beta functions with: 
                l(1) =   0
                l(2) =   0
                l(3) =   1
                l(4) =   1
                l(5) =   2
                l(6) =   2
     Q(r) pseudized with  8 coefficients,  rinner =    1.130   1.130   1.130
                                                       1.130   1.130

     atomic species   valence    mass     pseudopotential
        Pd            16.00   106.40000     Pd( 1.00)

     48 Sym. Ops., with inversion, found



   Cartesian axes

     site n.     atom                  positions (alat units)
         1           Pd  tau(   1) = (   0.0000000   0.0000000   0.0000000  )

     number of k points=     8  Marzari-Vanderbilt smearing, width (Ry)=  0.0350
                       cart. coord. in units 2pi/alat
        k(    1) = (   0.0000000   0.0000000   0.0000000), wk =   0.0312500
        k(    2) = (  -0.2500000   0.2500000  -0.2500000), wk =   0.2500000
        k(    3) = (   0.5000000  -0.5000000   0.5000000), wk =   0.1250000
        k(    4) = (   0.0000000   0.5000000   0.0000000), wk =   0.1875000
        k(    5) = (   0.7500000  -0.2500000   0.7500000), wk =   0.7500000
        k(    6) = (   0.5000000   0.0000000   0.5000000), wk =   0.3750000
        k(    7) = (   0.0000000  -1.0000000   0.0000000), wk =   0.0937500
        k(    8) = (  -0.5000000  -1.0000000   0.0000000), wk =   0.1875000

     Dense  grid:     3143 G-vectors     FFT dimensions: (  24,  24,  24)

     Estimated max dynamical RAM per process >       7.16 MB

     Estimated total dynamical RAM >      14.33 MB

     Initial potential from superposition of free atoms
     Check: negative starting charge=   -0.079204

     starting charge   15.49999, renormalised to   16.00000

     negative rho (up, down):  8.176E-02 0.000E+00
     Starting wfcs are   12 randomized atomic wfcs

     total cpu time spent up to now is        0.5 secs

     Self-consistent Calculation

     iteration #  1     ecut=    35.00 Ry     beta= 0.70
     Davidson diagonalization with overlap
     ethr =  1.00E-02,  avg # of iterations =  3.6

     negative rho (up, down):  8.047E-02 0.000E+00

     total cpu time spent up to now is        0.6 secs

     total energy              =    -198.09429819 Ry
     Harris-Foulkes estimate   =    -199.06217282 Ry
     estimated scf accuracy    <       1.32655485 Ry

     iteration #  2     ecut=    35.00 Ry     beta= 0.70
     Davidson diagonalization with overlap
     ethr =  8.29E-03,  avg # of iterations =  2.0

     negative rho (up, down):  8.178E-02 0.000E+00

     total cpu time spent up to now is        0.7 secs

     total energy              =    -198.38110534 Ry
     Harris-Foulkes estimate   =    -199.12310302 Ry
     estimated scf accuracy    <       1.53188989 Ry

     iteration #  3     ecut=    35.00 Ry     beta= 0.70
     Davidson diagonalization with overlap
     ethr =  8.29E-03,  avg # of iterations =  2.0

     negative rho (up, down):  8.181E-02 0.000E+00

     total cpu time spent up to now is        0.8 secs

     total energy              =    -198.70873448 Ry
     Harris-Foulkes estimate   =    -198.70898680 Ry
     estimated scf accuracy    <       0.00060388 Ry

     iteration #  4     ecut=    35.00 Ry     beta= 0.70
     Davidson diagonalization with overlap
     ethr =  3.77E-06,  avg # of iterations =  3.0

     negative rho (up, down):  8.193E-02 0.000E+00

     total cpu time spent up to now is        0.9 secs

     total energy              =    -198.70909006 Ry
     Harris-Foulkes estimate   =    -198.70909111 Ry
     estimated scf accuracy    <       0.00000856 Ry

     iteration #  5     ecut=    35.00 Ry     beta= 0.70
     Davidson diagonalization with overlap
     ethr =  5.35E-08,  avg # of iterations =  2.0

     negative rho (up, down):  8.195E-02 0.000E+00

     total cpu time spent up to now is        1.0 secs

     total energy              =    -198.70909161 Ry
     Harris-Foulkes estimate   =    -198.70909158 Ry
     estimated scf accuracy    <       0.00000017 Ry

     iteration #  6     ecut=    35.00 Ry     beta= 0.70
     Davidson diagonalization with overlap
     ethr =  1.07E-09,  avg # of iterations =  2.0

     negative rho (up, down):  8.195E-02 0.000E+00

     total cpu time spent up to now is        1.1 secs

     End of self-consistent calculation

          k = 0.0000 0.0000 0.0000 (   411 PWs)   bands (ev):

   -33.8253 -33.8253 -33.8253   9.3191  13.2357  13.2357  13.2357  14.5288
    14.5288  33.0440  37.0116  37.0116

          k =-0.2500 0.2500-0.2500 (   392 PWs)   bands (ev):

   -33.9492 -33.8432 -33.8432  10.8901  13.2165  13.4784  13.4784  14.6619
    14.6619  28.9514  33.7301  37.4958

          k = 0.5000-0.5000 0.5000 (   392 PWs)   bands (ev):

   -34.0719 -33.8612 -33.8612  11.1802  13.2075  13.2075  15.4923  15.4923
    16.7736  21.8158  32.2625  35.5827

          k = 0.0000 0.5000 0.0000 (   415 PWs)   bands (ev):

   -33.9447 -33.8722 -33.8722  11.3597  12.2490  14.0773  14.2774  14.2774
    14.9822  32.3708  32.3708  33.0679

          k = 0.7500-0.2500 0.7500 (   399 PWs)   bands (ev):

   -34.0309 -33.9257 -33.8900  11.7852  12.4466  13.6375  14.2441  15.5624
    18.8670  23.9115  29.0495  31.2805

          k = 0.5000 0.0000 0.5000 (   407 PWs)   bands (ev):

   -34.0027 -33.9309 -33.8617  12.3463  12.7467  13.0827  14.0245  14.5049
    17.5431  27.1077  27.2254  34.5288

          k = 0.0000-1.0000 0.0000 (   388 PWs)   bands (ev):

   -34.0590 -33.9184 -33.9184  11.1689  11.4060  15.4704  15.7410  15.7410
    18.8455  24.9428  28.0751  28.0751

          k =-0.5000-1.0000 0.0000 (   396 PWs)   bands (ev):

   -33.9892 -33.9892 -33.9204  12.0577  12.8040  12.8040  14.4787  15.7429
    23.6875  23.6875  24.8275  26.1424

     the Fermi energy is    15.7605 ev

!    total energy              =    -198.70909163 Ry
     Harris-Foulkes estimate   =    -198.70909163 Ry
     estimated scf accuracy    <          2.5E-09 Ry

     The total energy is the sum of the following terms:

     one-electron contribution =     -54.31170305 Ry
     hartree contribution      =      39.33100944 Ry
     xc contribution           =     -31.29334542 Ry
     ewald contribution        =    -152.43177811 Ry
     smearing contrib. (-TS)   =      -0.00327449 Ry

     convergence has been achieved in   6 iterations

     Writing output data file Pd-kp-conv.save/
 
     init_run     :      0.37s CPU      0.39s WALL (       1 calls)
     electrons    :      0.59s CPU      1.01s WALL (       1 calls)

     Called by init_run:
     wfcinit      :      0.03s CPU      0.03s WALL (       1 calls)
     potinit      :      0.01s CPU      0.01s WALL (       1 calls)
     hinit0       :      0.32s CPU      0.32s WALL (       1 calls)

     Called by electrons:
     c_bands      :      0.41s CPU      0.44s WALL (       6 calls)
     sum_band     :      0.12s CPU      0.12s WALL (       6 calls)
     v_of_rho     :      0.03s CPU      0.03s WALL (       7 calls)
     newd         :      0.04s CPU      0.04s WALL (       7 calls)
     mix_rho      :      0.00s CPU      0.00s WALL (       6 calls)

     Called by c_bands:
     init_us_2    :      0.01s CPU      0.01s WALL (     104 calls)
     cegterg      :      0.38s CPU      0.41s WALL (      48 calls)

     Called by sum_band:
     sum_band:bec :      0.00s CPU      0.00s WALL (      48 calls)
     addusdens    :      0.04s CPU      0.04s WALL (       6 calls)

     Called by *egterg:
     h_psi        :      0.33s CPU      0.35s WALL (     173 calls)
     s_psi        :      0.00s CPU      0.01s WALL (     173 calls)
     g_psi        :      0.00s CPU      0.00s WALL (     117 calls)
     cdiaghg      :      0.04s CPU      0.05s WALL (     165 calls)

     Called by h_psi:
     h_psi:pot    :      0.33s CPU      0.35s WALL (     173 calls)
     h_psi:calbec :      0.01s CPU      0.01s WALL (     173 calls)
     vloc_psi     :      0.31s CPU      0.33s WALL (     173 calls)
     add_vuspsi   :      0.00s CPU      0.01s WALL (     173 calls)

     General routines
     calbec       :      0.01s CPU      0.01s WALL (     221 calls)
     fft          :      0.01s CPU      0.01s WALL (      78 calls)
     ffts         :      0.00s CPU      0.00s WALL (       6 calls)
     fftw         :      0.32s CPU      0.34s WALL (    3636 calls)
 
     Parallel routines
     fft_scatt_xy :      0.06s CPU      0.07s WALL (    3720 calls)
     fft_scatt_yz :      0.07s CPU      0.07s WALL (    3720 calls)
 
     PWSCF        :     1.05s CPU         1.56s WALL

 
   This run was terminated on:  22:46:49   2Dec2021            

=------------------------------------------------------------------------------=
   JOB DONE.
=------------------------------------------------------------------------------=
