
     Program PWSCF v.6.3 starts on  2Dec2021 at 20:43:30 

     This program is part of the open-source Quantum ESPRESSO suite
     for quantum simulation of materials; please cite
         "P. Giannozzi et al., J. Phys.:Condens. Matter 21 395502 (2009);
         "P. Giannozzi et al., J. Phys.:Condens. Matter 29 465901 (2017);
          URL http://www.quantum-espresso.org", 
     in publications or presentations arising from this work. More details at
     http://www.quantum-espresso.org/quote

     Parallel version (MPI & OpenMP), running on       2 processor cores
     Number of MPI processes:                 2
     Threads/MPI process:                     1

     MPI processes distributed on     1 nodes
     R & G space division:  proc/nbgrp/npool/nimage =       2
     Reading input from pw-input.in

     Current dimensions of program PWSCF are:
     Max number of different atomic species (ntypx) = 10
     Max number of k-points (npk) =  40000
     Max angular momentum in pseudopotentials (lmaxx) =  3

     Subspace diagonalization in iterative solution of the eigenvalue problem:
     a serial algorithm will be used

 
     Parallelization info
     --------------------
     sticks:   dense  smooth     PW     G-vecs:    dense   smooth      PW
     Min         126     126     45                 1365     1365     280
     Max         127     127     46                 1368     1368     281
     Sum         253     253     91                 2733     2733     561
 

     Title: 
     Pd-kp-conv                                                                 


     bravais-lattice index     =            2
     lattice parameter (alat)  =       7.3000  a.u.
     unit-cell volume          =      97.2542 (a.u.)^3
     number of atoms/cell      =            1
     number of atomic types    =            1
     number of electrons       =        16.00
     number of Kohn-Sham states=           12
     kinetic-energy cutoff     =      35.0000  Ry
     charge density cutoff     =     140.0000  Ry
     convergence threshold     =      1.0E-07
     mixing beta               =       0.7000
     number of iterations used =            8  plain     mixing
     Exchange-correlation      =  SLA  PW   PBX  PBC ( 1  4  3  4 0 0)

     celldm(1)=   7.300000  celldm(2)=   0.000000  celldm(3)=   0.000000
     celldm(4)=   0.000000  celldm(5)=   0.000000  celldm(6)=   0.000000

     crystal axes: (cart. coord. in units of alat)
               a(1) = (  -0.500000   0.000000   0.500000 )  
               a(2) = (   0.000000   0.500000   0.500000 )  
               a(3) = (  -0.500000   0.500000   0.000000 )  

     reciprocal axes: (cart. coord. in units 2 pi/alat)
               b(1) = ( -1.000000 -1.000000  1.000000 )  
               b(2) = (  1.000000  1.000000  1.000000 )  
               b(3) = ( -1.000000  1.000000 -1.000000 )  


     PseudoPot. # 1 for Pd read from file:
     ./pd_pbe_v1.4.uspp.F.UPF
     MD5 check sum: 2d733d2bc2cbfd217af676df1668a4bc
     Pseudo is Ultrasoft + core correction, Zval = 16.0
     Generated by new atomic code, or converted to UPF format
     Using radial grid of  887 points,  6 beta functions with: 
                l(1) =   0
                l(2) =   0
                l(3) =   1
                l(4) =   1
                l(5) =   2
                l(6) =   2
     Q(r) pseudized with  8 coefficients,  rinner =    1.130   1.130   1.130
                                                       1.130   1.130

     atomic species   valence    mass     pseudopotential
        Pd            16.00   106.40000     Pd( 1.00)

     48 Sym. Ops., with inversion, found



   Cartesian axes

     site n.     atom                  positions (alat units)
         1           Pd  tau(   1) = (   0.0000000   0.0000000   0.0000000  )

     number of k points=   413  Marzari-Vanderbilt smearing, width (Ry)=  0.0050

     Number of k-points >= 100: set verbosity='high' to print them.

     Dense  grid:     2733 G-vectors     FFT dimensions: (  20,  20,  20)

     Estimated max dynamical RAM per process >      18.77 MB

     Estimated total dynamical RAM >      37.55 MB

     Initial potential from superposition of free atoms
     Check: negative starting charge=   -0.084718

     starting charge   15.49999, renormalised to   16.00000

     negative rho (up, down):  8.745E-02 0.000E+00
     Starting wfcs are   12 randomized atomic wfcs

     total cpu time spent up to now is        1.5 secs

     Self-consistent Calculation

     iteration #  1     ecut=    35.00 Ry     beta= 0.70
     Davidson diagonalization with overlap
     ethr =  1.00E-02,  avg # of iterations =  3.6

     negative rho (up, down):  8.698E-02 0.000E+00

     total cpu time spent up to now is        5.9 secs

     total energy              =    -198.24601640 Ry
     Harris-Foulkes estimate   =    -199.00982953 Ry
     estimated scf accuracy    <       1.05839775 Ry

     iteration #  2     ecut=    35.00 Ry     beta= 0.70
     Davidson diagonalization with overlap
     ethr =  6.61E-03,  avg # of iterations =  2.0

     negative rho (up, down):  8.822E-02 0.000E+00

     total cpu time spent up to now is        9.2 secs

     total energy              =    -198.51685023 Ry
     Harris-Foulkes estimate   =    -198.96194190 Ry
     estimated scf accuracy    <       0.86183942 Ry

     iteration #  3     ecut=    35.00 Ry     beta= 0.70
     Davidson diagonalization with overlap
     ethr =  5.39E-03,  avg # of iterations =  2.0

     negative rho (up, down):  8.855E-02 0.000E+00

     total cpu time spent up to now is       12.3 secs

     total energy              =    -198.69819372 Ry
     Harris-Foulkes estimate   =    -198.69891388 Ry
     estimated scf accuracy    <       0.00156019 Ry

     iteration #  4     ecut=    35.00 Ry     beta= 0.70
     Davidson diagonalization with overlap
     ethr =  9.75E-06,  avg # of iterations =  2.3

     negative rho (up, down):  8.871E-02 0.000E+00

     total cpu time spent up to now is       15.4 secs

     total energy              =    -198.69869619 Ry
     Harris-Foulkes estimate   =    -198.69869941 Ry
     estimated scf accuracy    <       0.00001317 Ry

     iteration #  5     ecut=    35.00 Ry     beta= 0.70
     Davidson diagonalization with overlap
     ethr =  8.23E-08,  avg # of iterations =  1.9

     negative rho (up, down):  8.876E-02 0.000E+00

     total cpu time spent up to now is       18.1 secs

     total energy              =    -198.69869864 Ry
     Harris-Foulkes estimate   =    -198.69869843 Ry
     estimated scf accuracy    <       0.00000022 Ry

     iteration #  6     ecut=    35.00 Ry     beta= 0.70
     Davidson diagonalization with overlap
     ethr =  1.37E-09,  avg # of iterations =  2.1

     negative rho (up, down):  8.876E-02 0.000E+00

     total cpu time spent up to now is       20.9 secs

     End of self-consistent calculation

     Number of k-points >= 100: set verbosity='high' to print the bands.

     the Fermi energy is    19.3383 ev

!    total energy              =    -198.69869868 Ry
     Harris-Foulkes estimate   =    -198.69869868 Ry
     estimated scf accuracy    <          2.1E-09 Ry

     The total energy is the sum of the following terms:

     one-electron contribution =     -41.38191306 Ry
     hartree contribution      =      34.86037390 Ry
     xc contribution           =     -31.39295585 Ry
     ewald contribution        =    -160.78420429 Ry
     smearing contrib. (-TS)   =       0.00000062 Ry

     convergence has been achieved in   6 iterations

     Writing output data file Pd-kp-conv.save/
 
     init_run     :      1.28s CPU      1.40s WALL (       1 calls)
     electrons    :     16.92s CPU     19.06s WALL (       1 calls)

     Called by init_run:
     wfcinit      :      0.95s CPU      1.05s WALL (       1 calls)
     potinit      :      0.00s CPU      0.02s WALL (       1 calls)
     hinit0       :      0.32s CPU      0.32s WALL (       1 calls)

     Called by electrons:
     c_bands      :     14.45s CPU     16.33s WALL (       6 calls)
     sum_band     :      2.42s CPU      2.61s WALL (       6 calls)
     v_of_rho     :      0.02s CPU      0.02s WALL (       7 calls)
     newd         :      0.04s CPU      0.04s WALL (       7 calls)
     mix_rho      :      0.00s CPU      0.00s WALL (       6 calls)

     Called by c_bands:
     init_us_2    :      0.42s CPU      0.46s WALL (    5369 calls)
     cegterg      :     13.22s CPU     14.20s WALL (    2478 calls)

     Called by sum_band:
     sum_band:bec :      0.02s CPU      0.02s WALL (    2478 calls)
     addusdens    :      0.03s CPU      0.04s WALL (       6 calls)

     Called by *egterg:
     h_psi        :     10.54s CPU     11.38s WALL (    8603 calls)
     s_psi        :      0.18s CPU      0.20s WALL (    8603 calls)
     g_psi        :      0.12s CPU      0.13s WALL (    5712 calls)
     cdiaghg      :      2.02s CPU      2.14s WALL (    8190 calls)

     Called by h_psi:
     h_psi:pot    :     10.47s CPU     11.31s WALL (    8603 calls)
     h_psi:calbec :      0.27s CPU      0.29s WALL (    8603 calls)
     vloc_psi     :      9.95s CPU     10.74s WALL (    8603 calls)
     add_vuspsi   :      0.20s CPU      0.21s WALL (    8603 calls)

     General routines
     calbec       :      0.31s CPU      0.34s WALL (   11081 calls)
     fft          :      0.01s CPU      0.01s WALL (      78 calls)
     ffts         :      0.00s CPU      0.00s WALL (       6 calls)
     fftw         :     10.30s CPU     11.12s WALL (  184822 calls)
 
     Parallel routines
     fft_scatt_xy :      1.83s CPU      1.98s WALL (  184906 calls)
     fft_scatt_yz :      2.70s CPU      2.95s WALL (  184906 calls)
 
     PWSCF        :    18.43s CPU        22.52s WALL

 
   This run was terminated on:  20:43:53   2Dec2021            

=------------------------------------------------------------------------------=
   JOB DONE.
=------------------------------------------------------------------------------=
