
     Program PWSCF v.6.3 starts on  2Dec2021 at 21:14: 8 

     This program is part of the open-source Quantum ESPRESSO suite
     for quantum simulation of materials; please cite
         "P. Giannozzi et al., J. Phys.:Condens. Matter 21 395502 (2009);
         "P. Giannozzi et al., J. Phys.:Condens. Matter 29 465901 (2017);
          URL http://www.quantum-espresso.org", 
     in publications or presentations arising from this work. More details at
     http://www.quantum-espresso.org/quote

     Parallel version (MPI & OpenMP), running on       2 processor cores
     Number of MPI processes:                 2
     Threads/MPI process:                     1

     MPI processes distributed on     1 nodes
     R & G space division:  proc/nbgrp/npool/nimage =       2
     Reading input from pw-input.in

     Current dimensions of program PWSCF are:
     Max number of different atomic species (ntypx) = 10
     Max number of k-points (npk) =  40000
     Max angular momentum in pseudopotentials (lmaxx) =  3

     Subspace diagonalization in iterative solution of the eigenvalue problem:
     a serial algorithm will be used

 
     Parallelization info
     --------------------
     sticks:   dense  smooth     PW     G-vecs:    dense   smooth      PW
     Min         126     126     42                 1369     1369     264
     Max         127     127     43                 1372     1372     267
     Sum         253     253     85                 2741     2741     531
 

     Title: 
     Pd-kp-conv                                                                 


     bravais-lattice index     =            2
     lattice parameter (alat)  =       7.4000  a.u.
     unit-cell volume          =     101.3060 (a.u.)^3
     number of atoms/cell      =            1
     number of atomic types    =            1
     number of electrons       =        16.00
     number of Kohn-Sham states=           12
     kinetic-energy cutoff     =      35.0000  Ry
     charge density cutoff     =     140.0000  Ry
     convergence threshold     =      1.0E-07
     mixing beta               =       0.7000
     number of iterations used =            8  plain     mixing
     Exchange-correlation      =  SLA  PW   PBX  PBC ( 1  4  3  4 0 0)

     celldm(1)=   7.400000  celldm(2)=   0.000000  celldm(3)=   0.000000
     celldm(4)=   0.000000  celldm(5)=   0.000000  celldm(6)=   0.000000

     crystal axes: (cart. coord. in units of alat)
               a(1) = (  -0.500000   0.000000   0.500000 )  
               a(2) = (   0.000000   0.500000   0.500000 )  
               a(3) = (  -0.500000   0.500000   0.000000 )  

     reciprocal axes: (cart. coord. in units 2 pi/alat)
               b(1) = ( -1.000000 -1.000000  1.000000 )  
               b(2) = (  1.000000  1.000000  1.000000 )  
               b(3) = ( -1.000000  1.000000 -1.000000 )  


     PseudoPot. # 1 for Pd read from file:
     ./pd_pbe_v1.4.uspp.F.UPF
     MD5 check sum: 2d733d2bc2cbfd217af676df1668a4bc
     Pseudo is Ultrasoft + core correction, Zval = 16.0
     Generated by new atomic code, or converted to UPF format
     Using radial grid of  887 points,  6 beta functions with: 
                l(1) =   0
                l(2) =   0
                l(3) =   1
                l(4) =   1
                l(5) =   2
                l(6) =   2
     Q(r) pseudized with  8 coefficients,  rinner =    1.130   1.130   1.130
                                                       1.130   1.130

     atomic species   valence    mass     pseudopotential
        Pd            16.00   106.40000     Pd( 1.00)

     48 Sym. Ops., with inversion, found



   Cartesian axes

     site n.     atom                  positions (alat units)
         1           Pd  tau(   1) = (   0.0000000   0.0000000   0.0000000  )

     number of k points=     4  Marzari-Vanderbilt smearing, width (Ry)=  0.0150
                       cart. coord. in units 2pi/alat
        k(    1) = (   0.0000000   0.0000000   0.0000000), wk =   0.0740741
        k(    2) = (  -0.3333333   0.3333333  -0.3333333), wk =   0.5925926
        k(    3) = (   0.0000000   0.6666667   0.0000000), wk =   0.4444444
        k(    4) = (   0.6666667  -0.0000000   0.6666667), wk =   0.8888889

     Dense  grid:     2741 G-vectors     FFT dimensions: (  20,  20,  20)

     Estimated max dynamical RAM per process >       6.08 MB

     Estimated total dynamical RAM >      12.16 MB

     Initial potential from superposition of free atoms
     Check: negative starting charge=   -0.084791

     starting charge   15.49999, renormalised to   16.00000

     negative rho (up, down):  8.753E-02 0.000E+00
     Starting wfcs are   12 randomized atomic wfcs

     total cpu time spent up to now is        0.5 secs

     Self-consistent Calculation

     iteration #  1     ecut=    35.00 Ry     beta= 0.70
     Davidson diagonalization with overlap
     ethr =  1.00E-02,  avg # of iterations =  4.0

     negative rho (up, down):  8.715E-02 0.000E+00

     total cpu time spent up to now is        0.5 secs

     total energy              =    -198.15758108 Ry
     Harris-Foulkes estimate   =    -198.99387626 Ry
     estimated scf accuracy    <       1.15759731 Ry

     iteration #  2     ecut=    35.00 Ry     beta= 0.70
     Davidson diagonalization with overlap
     ethr =  7.23E-03,  avg # of iterations =  2.0

     negative rho (up, down):  8.824E-02 0.000E+00

     total cpu time spent up to now is        0.6 secs

     total energy              =    -198.37186985 Ry
     Harris-Foulkes estimate   =    -198.99119535 Ry
     estimated scf accuracy    <       1.27730967 Ry

     iteration #  3     ecut=    35.00 Ry     beta= 0.70
     Davidson diagonalization with overlap
     ethr =  7.23E-03,  avg # of iterations =  2.0

     negative rho (up, down):  8.899E-02 0.000E+00

     total cpu time spent up to now is        0.6 secs

     total energy              =    -198.63179136 Ry
     Harris-Foulkes estimate   =    -198.64239807 Ry
     estimated scf accuracy    <       0.01885938 Ry

     iteration #  4     ecut=    35.00 Ry     beta= 0.70
     Davidson diagonalization with overlap
     ethr =  1.18E-04,  avg # of iterations =  2.0

     negative rho (up, down):  8.886E-02 0.000E+00

     total cpu time spent up to now is        0.7 secs

     total energy              =    -198.63834335 Ry
     Harris-Foulkes estimate   =    -198.64285532 Ry
     estimated scf accuracy    <       0.01114010 Ry

     iteration #  5     ecut=    35.00 Ry     beta= 0.70
     Davidson diagonalization with overlap
     ethr =  6.96E-05,  avg # of iterations =  2.0

     negative rho (up, down):  8.873E-02 0.000E+00

     total cpu time spent up to now is        0.8 secs

     total energy              =    -198.63957680 Ry
     Harris-Foulkes estimate   =    -198.63971502 Ry
     estimated scf accuracy    <       0.00020845 Ry

     iteration #  6     ecut=    35.00 Ry     beta= 0.70
     Davidson diagonalization with overlap
     ethr =  1.30E-06,  avg # of iterations =  2.0

     negative rho (up, down):  8.884E-02 0.000E+00

     total cpu time spent up to now is        0.8 secs

     total energy              =    -198.63942215 Ry
     Harris-Foulkes estimate   =    -198.63994455 Ry
     estimated scf accuracy    <       0.00140970 Ry

     iteration #  7     ecut=    35.00 Ry     beta= 0.70
     Davidson diagonalization with overlap
     ethr =  1.30E-06,  avg # of iterations =  2.0

     negative rho (up, down):  8.884E-02 0.000E+00

     total cpu time spent up to now is        0.8 secs

     total energy              =    -198.63967598 Ry
     Harris-Foulkes estimate   =    -198.63968592 Ry
     estimated scf accuracy    <       0.00002040 Ry

     iteration #  8     ecut=    35.00 Ry     beta= 0.70
     Davidson diagonalization with overlap
     ethr =  1.27E-07,  avg # of iterations =  2.0

     negative rho (up, down):  8.885E-02 0.000E+00

     total cpu time spent up to now is        0.9 secs

     total energy              =    -198.63968098 Ry
     Harris-Foulkes estimate   =    -198.63968250 Ry
     estimated scf accuracy    <       0.00000427 Ry

     iteration #  9     ecut=    35.00 Ry     beta= 0.70
     Davidson diagonalization with overlap
     ethr =  2.67E-08,  avg # of iterations =  1.2

     negative rho (up, down):  8.885E-02 0.000E+00

     total cpu time spent up to now is        0.9 secs

     End of self-consistent calculation

          k = 0.0000 0.0000 0.0000 (   339 PWs)   bands (ev):

   -31.3612 -31.3612 -31.3612  11.2485  15.5215  15.5215  15.5215  17.0529
    17.0529  36.1665  40.7929  40.7929

          k =-0.3333 0.3333-0.3333 (   359 PWs)   bands (ev):

   -31.6507 -31.4029 -31.4029  13.2113  15.6577  15.6577  16.6066  17.6617
    17.6617  29.6439  36.2763  41.2503

          k = 0.0000 0.6667 0.0000 (   355 PWs)   bands (ev):

   -31.6370 -31.4694 -31.4694  13.4834  13.8032  17.5707  17.5707  17.8909
    17.9564  34.0143  34.0143  34.0778

          k = 0.6667-0.0000 0.6667 (   353 PWs)   bands (ev):

   -31.6218 -31.6200 -31.4567  14.0262  14.7406  15.6935  16.9192  17.8168
    24.2280  27.1637  29.2004  35.9931

     the Fermi energy is    17.8438 ev

!    total energy              =    -198.63968163 Ry
     Harris-Foulkes estimate   =    -198.63968163 Ry
     estimated scf accuracy    <          1.2E-10 Ry

     The total energy is the sum of the following terms:

     one-electron contribution =     -44.61465076 Ry
     hartree contribution      =      35.94641562 Ry
     xc contribution           =     -31.35960565 Ry
     ewald contribution        =    -158.61144480 Ry
     smearing contrib. (-TS)   =      -0.00039603 Ry

     convergence has been achieved in   9 iterations

     Writing output data file Pd-kp-conv.save/
 
     init_run     :      0.34s CPU      0.37s WALL (       1 calls)
     electrons    :      0.44s CPU      0.51s WALL (       1 calls)

     Called by init_run:
     wfcinit      :      0.01s CPU      0.02s WALL (       1 calls)
     potinit      :      0.01s CPU      0.02s WALL (       1 calls)
     hinit0       :      0.31s CPU      0.31s WALL (       1 calls)

     Called by electrons:
     c_bands      :      0.25s CPU      0.27s WALL (       9 calls)
     sum_band     :      0.11s CPU      0.11s WALL (       9 calls)
     v_of_rho     :      0.03s CPU      0.03s WALL (      10 calls)
     newd         :      0.06s CPU      0.06s WALL (      10 calls)
     mix_rho      :      0.00s CPU      0.00s WALL (       9 calls)

     Called by c_bands:
     init_us_2    :      0.01s CPU      0.01s WALL (      76 calls)
     cegterg      :      0.23s CPU      0.24s WALL (      36 calls)

     Called by sum_band:
     sum_band:bec :      0.00s CPU      0.00s WALL (      36 calls)
     addusdens    :      0.06s CPU      0.06s WALL (       9 calls)

     Called by *egterg:
     h_psi        :      0.18s CPU      0.19s WALL (     117 calls)
     s_psi        :      0.00s CPU      0.00s WALL (     117 calls)
     g_psi        :      0.00s CPU      0.00s WALL (      77 calls)
     cdiaghg      :      0.03s CPU      0.04s WALL (     113 calls)

     Called by h_psi:
     h_psi:pot    :      0.18s CPU      0.19s WALL (     117 calls)
     h_psi:calbec :      0.00s CPU      0.01s WALL (     117 calls)
     vloc_psi     :      0.17s CPU      0.18s WALL (     117 calls)
     add_vuspsi   :      0.00s CPU      0.00s WALL (     117 calls)

     General routines
     calbec       :      0.01s CPU      0.01s WALL (     153 calls)
     fft          :      0.01s CPU      0.01s WALL (     111 calls)
     ffts         :      0.00s CPU      0.00s WALL (       9 calls)
     fftw         :      0.18s CPU      0.19s WALL (    2636 calls)
 
     Parallel routines
     fft_scatt_xy :      0.03s CPU      0.04s WALL (    2756 calls)
     fft_scatt_yz :      0.05s CPU      0.05s WALL (    2756 calls)
 
     PWSCF        :     0.86s CPU         1.33s WALL

 
   This run was terminated on:  21:14:10   2Dec2021            

=------------------------------------------------------------------------------=
   JOB DONE.
=------------------------------------------------------------------------------=
