
     Program PWSCF v.6.3 starts on  2Dec2021 at 21:16:23 

     This program is part of the open-source Quantum ESPRESSO suite
     for quantum simulation of materials; please cite
         "P. Giannozzi et al., J. Phys.:Condens. Matter 21 395502 (2009);
         "P. Giannozzi et al., J. Phys.:Condens. Matter 29 465901 (2017);
          URL http://www.quantum-espresso.org", 
     in publications or presentations arising from this work. More details at
     http://www.quantum-espresso.org/quote

     Parallel version (MPI & OpenMP), running on       2 processor cores
     Number of MPI processes:                 2
     Threads/MPI process:                     1

     MPI processes distributed on     1 nodes
     R & G space division:  proc/nbgrp/npool/nimage =       2
     Reading input from pw-input.in

     Current dimensions of program PWSCF are:
     Max number of different atomic species (ntypx) = 10
     Max number of k-points (npk) =  40000
     Max angular momentum in pseudopotentials (lmaxx) =  3

     Subspace diagonalization in iterative solution of the eigenvalue problem:
     a serial algorithm will be used

 
     Parallelization info
     --------------------
     sticks:   dense  smooth     PW     G-vecs:    dense   smooth      PW
     Min         111     111     42                 1066     1066     229
     Max         112     112     43                 1067     1067     230
     Sum         223     223     85                 2133     2133     459
 

     Title: 
     Pd-kp-conv                                                                 


     bravais-lattice index     =            2
     lattice parameter (alat)  =       6.8000  a.u.
     unit-cell volume          =      78.6080 (a.u.)^3
     number of atoms/cell      =            1
     number of atomic types    =            1
     number of electrons       =        16.00
     number of Kohn-Sham states=           12
     kinetic-energy cutoff     =      35.0000  Ry
     charge density cutoff     =     140.0000  Ry
     convergence threshold     =      1.0E-07
     mixing beta               =       0.7000
     number of iterations used =            8  plain     mixing
     Exchange-correlation      =  SLA  PW   PBX  PBC ( 1  4  3  4 0 0)

     celldm(1)=   6.800000  celldm(2)=   0.000000  celldm(3)=   0.000000
     celldm(4)=   0.000000  celldm(5)=   0.000000  celldm(6)=   0.000000

     crystal axes: (cart. coord. in units of alat)
               a(1) = (  -0.500000   0.000000   0.500000 )  
               a(2) = (   0.000000   0.500000   0.500000 )  
               a(3) = (  -0.500000   0.500000   0.000000 )  

     reciprocal axes: (cart. coord. in units 2 pi/alat)
               b(1) = ( -1.000000 -1.000000  1.000000 )  
               b(2) = (  1.000000  1.000000  1.000000 )  
               b(3) = ( -1.000000  1.000000 -1.000000 )  


     PseudoPot. # 1 for Pd read from file:
     ./pd_pbe_v1.4.uspp.F.UPF
     MD5 check sum: 2d733d2bc2cbfd217af676df1668a4bc
     Pseudo is Ultrasoft + core correction, Zval = 16.0
     Generated by new atomic code, or converted to UPF format
     Using radial grid of  887 points,  6 beta functions with: 
                l(1) =   0
                l(2) =   0
                l(3) =   1
                l(4) =   1
                l(5) =   2
                l(6) =   2
     Q(r) pseudized with  8 coefficients,  rinner =    1.130   1.130   1.130
                                                       1.130   1.130

     atomic species   valence    mass     pseudopotential
        Pd            16.00   106.40000     Pd( 1.00)

     48 Sym. Ops., with inversion, found



   Cartesian axes

     site n.     atom                  positions (alat units)
         1           Pd  tau(   1) = (   0.0000000   0.0000000   0.0000000  )

     number of k points=    35  Marzari-Vanderbilt smearing, width (Ry)=  0.0150
                       cart. coord. in units 2pi/alat
        k(    1) = (   0.0000000   0.0000000   0.0000000), wk =   0.0027435
        k(    2) = (  -0.1111111   0.1111111  -0.1111111), wk =   0.0219479
        k(    3) = (  -0.2222222   0.2222222  -0.2222222), wk =   0.0219479
        k(    4) = (  -0.3333333   0.3333333  -0.3333333), wk =   0.0219479
        k(    5) = (  -0.4444444   0.4444444  -0.4444444), wk =   0.0219479
        k(    6) = (   0.0000000   0.2222222   0.0000000), wk =   0.0164609
        k(    7) = (  -0.1111111   0.3333333  -0.1111111), wk =   0.0658436
        k(    8) = (  -0.2222222   0.4444444  -0.2222222), wk =   0.0658436
        k(    9) = (  -0.3333333   0.5555556  -0.3333333), wk =   0.0658436
        k(   10) = (   0.5555556  -0.3333333   0.5555556), wk =   0.0658436
        k(   11) = (   0.4444444  -0.2222222   0.4444444), wk =   0.0658436
        k(   12) = (   0.3333333  -0.1111111   0.3333333), wk =   0.0658436
        k(   13) = (   0.2222222  -0.0000000   0.2222222), wk =   0.0329218
        k(   14) = (   0.0000000   0.4444444   0.0000000), wk =   0.0164609
        k(   15) = (  -0.1111111   0.5555556  -0.1111111), wk =   0.0658436
        k(   16) = (  -0.2222222   0.6666667  -0.2222222), wk =   0.0658436
        k(   17) = (   0.6666667  -0.2222222   0.6666667), wk =   0.0658436
        k(   18) = (   0.5555556  -0.1111111   0.5555556), wk =   0.0658436
        k(   19) = (   0.4444444   0.0000000   0.4444444), wk =   0.0329218
        k(   20) = (   0.0000000   0.6666667   0.0000000), wk =   0.0164609
        k(   21) = (  -0.1111111   0.7777778  -0.1111111), wk =   0.0658436
        k(   22) = (   0.7777778  -0.1111111   0.7777778), wk =   0.0658436
        k(   23) = (   0.6666667  -0.0000000   0.6666667), wk =   0.0329218
        k(   24) = (   0.0000000   0.8888889   0.0000000), wk =   0.0164609
        k(   25) = (   0.8888889   0.0000000   0.8888889), wk =   0.0329218
        k(   26) = (  -0.2222222   0.4444444   0.0000000), wk =   0.0658436
        k(   27) = (  -0.3333333   0.5555556  -0.1111111), wk =   0.1316872
        k(   28) = (   0.5555556  -0.3333333   0.7777778), wk =   0.1316872
        k(   29) = (  -0.2222222   0.6666667   0.0000000), wk =   0.0658436
        k(   30) = (   0.6666667  -0.2222222   0.8888889), wk =   0.1316872
        k(   31) = (   0.5555556  -0.1111111   0.7777778), wk =   0.1316872
        k(   32) = (   0.4444444   0.0000000   0.6666667), wk =   0.0658436
        k(   33) = (   0.7777778  -0.1111111   1.0000000), wk =   0.0658436
        k(   34) = (   0.6666667  -0.0000000   0.8888889), wk =   0.0658436
        k(   35) = (   0.5555556  -0.1111111   1.0000000), wk =   0.0658436

     Dense  grid:     2133 G-vectors     FFT dimensions: (  20,  20,  20)

     Estimated max dynamical RAM per process >       5.73 MB

     Estimated total dynamical RAM >      11.46 MB

     Initial potential from superposition of free atoms
     Check: negative starting charge=   -0.081587

     starting charge   15.49999, renormalised to   16.00000

     negative rho (up, down):  8.422E-02 0.000E+00
     Starting wfcs are   12 randomized atomic wfcs

     total cpu time spent up to now is        0.5 secs

     Self-consistent Calculation

     iteration #  1     ecut=    35.00 Ry     beta= 0.70
     Davidson diagonalization with overlap
     ethr =  1.00E-02,  avg # of iterations =  3.4

     negative rho (up, down):  8.470E-02 0.000E+00

     total cpu time spent up to now is        0.9 secs

     total energy              =    -198.36364459 Ry
     Harris-Foulkes estimate   =    -198.87527324 Ry
     estimated scf accuracy    <       0.72174510 Ry

     iteration #  2     ecut=    35.00 Ry     beta= 0.70
     Davidson diagonalization with overlap
     ethr =  4.51E-03,  avg # of iterations =  2.0

     negative rho (up, down):  8.594E-02 0.000E+00

     total cpu time spent up to now is        1.1 secs

     total energy              =    -198.56067139 Ry
     Harris-Foulkes estimate   =    -198.75154916 Ry
     estimated scf accuracy    <       0.33820920 Ry

     iteration #  3     ecut=    35.00 Ry     beta= 0.70
     Davidson diagonalization with overlap
     ethr =  2.11E-03,  avg # of iterations =  2.1

     negative rho (up, down):  8.662E-02 0.000E+00

     total cpu time spent up to now is        1.4 secs

     total energy              =    -198.63815446 Ry
     Harris-Foulkes estimate   =    -198.63895823 Ry
     estimated scf accuracy    <       0.00170929 Ry

     iteration #  4     ecut=    35.00 Ry     beta= 0.70
     Davidson diagonalization with overlap
     ethr =  1.07E-05,  avg # of iterations =  2.1

     negative rho (up, down):  8.671E-02 0.000E+00

     total cpu time spent up to now is        1.6 secs

     total energy              =    -198.63856600 Ry
     Harris-Foulkes estimate   =    -198.63864567 Ry
     estimated scf accuracy    <       0.00012761 Ry

     iteration #  5     ecut=    35.00 Ry     beta= 0.70
     Davidson diagonalization with overlap
     ethr =  7.98E-07,  avg # of iterations =  2.0

     negative rho (up, down):  8.673E-02 0.000E+00

     total cpu time spent up to now is        1.9 secs

     total energy              =    -198.63860110 Ry
     Harris-Foulkes estimate   =    -198.63861136 Ry
     estimated scf accuracy    <       0.00001814 Ry

     iteration #  6     ecut=    35.00 Ry     beta= 0.70
     Davidson diagonalization with overlap
     ethr =  1.13E-07,  avg # of iterations =  2.0

     negative rho (up, down):  8.674E-02 0.000E+00

     total cpu time spent up to now is        2.2 secs

     total energy              =    -198.63860575 Ry
     Harris-Foulkes estimate   =    -198.63860623 Ry
     estimated scf accuracy    <       0.00000099 Ry

     iteration #  7     ecut=    35.00 Ry     beta= 0.70
     Davidson diagonalization with overlap
     ethr =  6.22E-09,  avg # of iterations =  1.9

     negative rho (up, down):  8.674E-02 0.000E+00

     total cpu time spent up to now is        2.4 secs

     End of self-consistent calculation

          k = 0.0000 0.0000 0.0000 (   283 PWs)   bands (ev):

   -24.7214 -24.7214 -24.7214  16.4790  21.4467  21.4467  21.4467  23.8084
    23.8084  43.7426  50.0034  50.0034

          k =-0.1111 0.1111-0.1111 (   280 PWs)   bands (ev):

   -24.8356 -24.7365 -24.7365  17.0221  21.2377  21.6492  21.6492  23.7121
    23.7121  44.4516  47.2689  50.7449

          k =-0.2222 0.2222-0.2222 (   283 PWs)   bands (ev):

   -25.1204 -24.7749 -24.7749  18.1672  21.2319  21.8788  21.8788  23.8455
    23.8455  43.3306  45.4501  52.5515

          k =-0.3333 0.3333-0.3333 (   281 PWs)   bands (ev):

   -25.4351 -24.8185 -24.8185  18.4250  21.6506  21.6506  23.0312  24.6773
    24.6773  39.3458  44.3581  52.4073

          k =-0.4444 0.4444-0.4444 (   269 PWs)   bands (ev):

   -25.6360 -24.8465 -24.8465  18.1956  21.3910  21.3910  25.4684  25.4684
    25.6138  35.8046  43.1609  50.3594

          k = 0.0000 0.2222 0.0000 (   283 PWs)   bands (ev):

   -24.8324 -24.7621 -24.7621  17.2050  20.9787  21.8345  21.8345  23.3209
    23.9948  44.7522  47.9478  49.8446

          k =-0.1111 0.3333-0.1111 (   283 PWs)   bands (ev):

   -25.0435 -24.8082 -24.7930  18.2279  20.5933  22.0590  22.2093  23.2928
    24.2391  44.9005  45.9265  49.7616

          k =-0.2222 0.4444-0.2222 (   280 PWs)   bands (ev):

   -25.3354 -24.8535 -24.8429  18.8287  21.2509  21.5701  22.1610  24.7873
    24.9199  40.9672  45.3114  49.3830

          k =-0.3333 0.5556-0.3333 (   271 PWs)   bands (ev):

   -25.5620 -24.8977 -24.8764  18.6172  21.1054  21.8601  22.8879  25.5707
    27.1775  36.8363  43.9480  48.7523

          k = 0.5556-0.3333 0.5556 (   271 PWs)   bands (ev):

   -25.6238 -24.9312 -24.8668  18.5499  21.0220  21.7072  23.6263  25.4233
    28.5184  35.1614  43.5146  48.0971

          k = 0.4444-0.2222 0.4444 (   273 PWs)   bands (ev):

   -25.4963 -24.9256 -24.8291  18.7712  21.2893  21.8487  22.6772  24.4617
    26.9097  38.2157  44.1348  48.2840

          k = 0.3333-0.1111 0.3333 (   280 PWs)   bands (ev):

   -25.2382 -24.8803 -24.7803  18.8701  20.9471  21.8281  22.1789  23.3566
    25.2031  42.3201  45.2908  49.9827

          k = 0.2222-0.0000 0.2222 (   285 PWs)   bands (ev):

   -24.9760 -24.8059 -24.7438  17.8355  20.8680  21.9424  21.9612  23.2442
    24.1267  45.2747  45.5409  49.7569

          k = 0.0000 0.4444 0.0000 (   290 PWs)   bands (ev):

   -25.1048 -24.8648 -24.8648  18.7187  19.9246  22.7465  22.9360  22.9360
    24.4860  46.2244  47.1352  47.6466

          k =-0.1111 0.5556-0.1111 (   278 PWs)   bands (ev):

   -25.2999 -24.9285 -24.9173  19.1005  19.6535  22.2819  23.2687  24.9652
    25.0460  43.0036  45.8686  46.2003

          k =-0.2222 0.6667-0.2222 (   276 PWs)   bands (ev):

   -25.4732 -25.0195 -24.9424  18.9901  20.1346  22.0015  23.0159  25.6743
    28.1367  38.4163  44.0651  45.7222

          k = 0.6667-0.2222 0.6667 (   275 PWs)   bands (ev):

   -25.5331 -25.1077 -24.9277  19.1435  20.3913  22.1122  22.7224  25.4727
    31.2844  34.9865  42.6209  46.8670

          k = 0.5556-0.1111 0.5556 (   273 PWs)   bands (ev):

   -25.4705 -25.1339 -24.8806  19.6184  20.6203  21.7097  22.6304  24.4484
    29.8661  37.5464  41.8514  47.0190

          k = 0.4444 0.0000 0.4444 (   275 PWs)   bands (ev):

   -25.3554 -25.0435 -24.8223  20.0247  20.4610  21.3311  22.7270  23.3022
    27.3766  41.3456  42.6436  47.9197

          k = 0.0000 0.6667 0.0000 (   274 PWs)   bands (ev):

   -25.3981 -24.9803 -24.9803  18.6429  18.8961  24.5044  24.5044  24.8725
    25.0820  43.7780  43.7780  44.0520

          k =-0.1111 0.7778-0.1111 (   273 PWs)   bands (ev):

   -25.5005 -25.0607 -25.0127  18.4536  18.8028  23.9234  24.5233  25.7240
    28.2340  40.3057  42.0358  42.7496

          k = 0.7778-0.1111 0.7778 (   272 PWs)   bands (ev):

   -25.4926 -25.2010 -25.0001  18.6466  19.4193  22.9258  24.1190  25.6348
    32.3062  36.2787  40.0739  43.7110

          k = 0.6667-0.0000 0.6667 (   268 PWs)   bands (ev):

   -25.3589 -25.3528 -24.9477  19.2468  20.3690  21.7262  23.5415  24.8811
    32.8354  36.4645  38.9650  46.3831

          k = 0.0000 0.8889 0.0000 (   270 PWs)   bands (ev):

   -25.5819 -25.0548 -25.0548  17.9318  18.2961  25.4977  25.8501  25.8501
    28.3383  40.0472  40.9702  40.9702

          k = 0.8889 0.0000 0.8889 (   272 PWs)   bands (ev):

   -25.5750 -25.1149 -25.0498  18.0582  18.4912  24.8163  25.2009  25.9253
    30.6710  38.7751  39.2975  41.3508

          k =-0.2222 0.4444 0.0000 (   280 PWs)   bands (ev):

   -25.2092 -24.9155 -24.8199  19.2166  20.1413  21.6982  22.9350  23.3803
    25.2640  43.6459  45.2130  48.8862

          k =-0.3333 0.5556-0.1111 (   278 PWs)   bands (ev):

   -25.4079 -25.0074 -24.8665  19.4160  20.7688  21.1413  22.8574  24.4206
    27.3328  39.9973  43.9789  46.5958

          k = 0.5556-0.3333 0.7778 (   268 PWs)   bands (ev):

   -25.5414 -25.0503 -24.9069  19.2104  20.5008  22.0793  22.5537  25.2938
    29.9546  35.8950  43.6438  45.5041

          k =-0.2222 0.6667 0.0000 (   277 PWs)   bands (ev):

   -25.4162 -25.0393 -24.9532  19.1947  19.3008  22.2333  24.4878  24.5429
    27.4982  41.7469  42.4915  44.3266

          k = 0.6667-0.2222 0.8889 (   274 PWs)   bands (ev):

   -25.4718 -25.1512 -24.9885  19.1829  19.7620  21.8217  23.8716  25.4460
    30.8071  37.6192  42.2284  42.3393

          k = 0.5556-0.1111 0.7778 (   274 PWs)   bands (ev):

   -25.4420 -25.2430 -24.9752  19.5475  20.1916  21.3999  23.3733  25.3256
    33.1320  35.4237  40.6192  43.5649

          k = 0.4444 0.0000 0.6667 (   272 PWs)   bands (ev):

   -25.4214 -25.1874 -24.9212  20.2096  20.4013  20.5706  23.4650  24.5117
    30.1734  39.6831  39.7410  45.1286

          k = 0.7778-0.1111 1.0000 (   276 PWs)   bands (ev):

   -25.5305 -25.1193 -25.0551  18.4353  18.7910  23.5842  24.9156  25.8463
    30.8299  39.6425  40.0017  40.3280

          k = 0.6667-0.0000 0.8889 (   268 PWs)   bands (ev):

   -25.4596 -25.2397 -25.0406  18.8425  19.5025  22.4303  24.1244  25.8347
    33.9117  36.4647  38.8911  41.4580

          k = 0.5556-0.1111 1.0000 (   272 PWs)   bands (ev):

   -25.3981 -25.2800 -25.0501  19.3462  20.2261  21.1335  23.7115  25.8389
    34.0092  37.3771  38.8482  40.4674

     the Fermi energy is    25.5776 ev

!    total energy              =    -198.63860593 Ry
     Harris-Foulkes estimate   =    -198.63860593 Ry
     estimated scf accuracy    <          3.3E-10 Ry

     The total energy is the sum of the following terms:

     one-electron contribution =     -23.70917262 Ry
     hartree contribution      =      29.28821562 Ry
     xc contribution           =     -31.61133181 Ry
     ewald contribution        =    -172.60657228 Ry
     smearing contrib. (-TS)   =       0.00025516 Ry

     convergence has been achieved in   7 iterations

     Writing output data file Pd-kp-conv.save/
 
     init_run     :      0.40s CPU      0.43s WALL (       1 calls)
     electrons    :      1.70s CPU      2.14s WALL (       1 calls)

     Called by init_run:
     wfcinit      :      0.09s CPU      0.10s WALL (       1 calls)
     potinit      :      0.00s CPU      0.01s WALL (       1 calls)
     hinit0       :      0.30s CPU      0.30s WALL (       1 calls)

     Called by electrons:
     c_bands      :      1.39s CPU      1.52s WALL (       7 calls)
     sum_band     :      0.26s CPU      0.29s WALL (       7 calls)
     v_of_rho     :      0.02s CPU      0.02s WALL (       8 calls)
     newd         :      0.03s CPU      0.04s WALL (       8 calls)
     mix_rho      :      0.00s CPU      0.00s WALL (       7 calls)

     Called by c_bands:
     init_us_2    :      0.04s CPU      0.04s WALL (     525 calls)
     cegterg      :      1.30s CPU      1.41s WALL (     245 calls)

     Called by sum_band:
     sum_band:bec :      0.00s CPU      0.00s WALL (     245 calls)
     addusdens    :      0.03s CPU      0.03s WALL (       7 calls)

     Called by *egterg:
     h_psi        :      1.04s CPU      1.14s WALL (     824 calls)
     s_psi        :      0.02s CPU      0.02s WALL (     824 calls)
     g_psi        :      0.01s CPU      0.01s WALL (     544 calls)
     cdiaghg      :      0.20s CPU      0.21s WALL (     789 calls)

     Called by h_psi:
     h_psi:pot    :      1.04s CPU      1.14s WALL (     824 calls)
     h_psi:calbec :      0.03s CPU      0.03s WALL (     824 calls)
     vloc_psi     :      0.99s CPU      1.08s WALL (     824 calls)
     add_vuspsi   :      0.02s CPU      0.02s WALL (     824 calls)

     General routines
     calbec       :      0.03s CPU      0.03s WALL (    1069 calls)
     fft          :      0.01s CPU      0.01s WALL (      89 calls)
     ffts         :      0.00s CPU      0.00s WALL (       7 calls)
     fftw         :      1.02s CPU      1.12s WALL (   18174 calls)
 
     Parallel routines
     fft_scatt_xy :      0.19s CPU      0.21s WALL (   18270 calls)
     fft_scatt_yz :      0.26s CPU      0.29s WALL (   18270 calls)
 
     PWSCF        :     2.19s CPU         2.91s WALL

 
   This run was terminated on:  21:16:26   2Dec2021            

=------------------------------------------------------------------------------=
   JOB DONE.
=------------------------------------------------------------------------------=
