
     Program PWSCF v.6.3 starts on  2Dec2021 at 21:16:55 

     This program is part of the open-source Quantum ESPRESSO suite
     for quantum simulation of materials; please cite
         "P. Giannozzi et al., J. Phys.:Condens. Matter 21 395502 (2009);
         "P. Giannozzi et al., J. Phys.:Condens. Matter 29 465901 (2017);
          URL http://www.quantum-espresso.org", 
     in publications or presentations arising from this work. More details at
     http://www.quantum-espresso.org/quote

     Parallel version (MPI & OpenMP), running on       2 processor cores
     Number of MPI processes:                 2
     Threads/MPI process:                     1

     MPI processes distributed on     1 nodes
     R & G space division:  proc/nbgrp/npool/nimage =       2
     Reading input from pw-input.in

     Current dimensions of program PWSCF are:
     Max number of different atomic species (ntypx) = 10
     Max number of k-points (npk) =  40000
     Max angular momentum in pseudopotentials (lmaxx) =  3

     Subspace diagonalization in iterative solution of the eigenvalue problem:
     a serial algorithm will be used

 
     Parallelization info
     --------------------
     sticks:   dense  smooth     PW     G-vecs:    dense   smooth      PW
     Min         141     141     48                 1570     1570     322
     Max         142     142     49                 1573     1573     323
     Sum         283     283     97                 3143     3143     645
 

     Title: 
     Pd-kp-conv                                                                 


     bravais-lattice index     =            2
     lattice parameter (alat)  =       7.7000  a.u.
     unit-cell volume          =     114.1333 (a.u.)^3
     number of atoms/cell      =            1
     number of atomic types    =            1
     number of electrons       =        16.00
     number of Kohn-Sham states=           12
     kinetic-energy cutoff     =      35.0000  Ry
     charge density cutoff     =     140.0000  Ry
     convergence threshold     =      1.0E-07
     mixing beta               =       0.7000
     number of iterations used =            8  plain     mixing
     Exchange-correlation      =  SLA  PW   PBX  PBC ( 1  4  3  4 0 0)

     celldm(1)=   7.700000  celldm(2)=   0.000000  celldm(3)=   0.000000
     celldm(4)=   0.000000  celldm(5)=   0.000000  celldm(6)=   0.000000

     crystal axes: (cart. coord. in units of alat)
               a(1) = (  -0.500000   0.000000   0.500000 )  
               a(2) = (   0.000000   0.500000   0.500000 )  
               a(3) = (  -0.500000   0.500000   0.000000 )  

     reciprocal axes: (cart. coord. in units 2 pi/alat)
               b(1) = ( -1.000000 -1.000000  1.000000 )  
               b(2) = (  1.000000  1.000000  1.000000 )  
               b(3) = ( -1.000000  1.000000 -1.000000 )  


     PseudoPot. # 1 for Pd read from file:
     ./pd_pbe_v1.4.uspp.F.UPF
     MD5 check sum: 2d733d2bc2cbfd217af676df1668a4bc
     Pseudo is Ultrasoft + core correction, Zval = 16.0
     Generated by new atomic code, or converted to UPF format
     Using radial grid of  887 points,  6 beta functions with: 
                l(1) =   0
                l(2) =   0
                l(3) =   1
                l(4) =   1
                l(5) =   2
                l(6) =   2
     Q(r) pseudized with  8 coefficients,  rinner =    1.130   1.130   1.130
                                                       1.130   1.130

     atomic species   valence    mass     pseudopotential
        Pd            16.00   106.40000     Pd( 1.00)

     48 Sym. Ops., with inversion, found



   Cartesian axes

     site n.     atom                  positions (alat units)
         1           Pd  tau(   1) = (   0.0000000   0.0000000   0.0000000  )

     number of k points=    35  Marzari-Vanderbilt smearing, width (Ry)=  0.0150
                       cart. coord. in units 2pi/alat
        k(    1) = (   0.0000000   0.0000000   0.0000000), wk =   0.0027435
        k(    2) = (  -0.1111111   0.1111111  -0.1111111), wk =   0.0219479
        k(    3) = (  -0.2222222   0.2222222  -0.2222222), wk =   0.0219479
        k(    4) = (  -0.3333333   0.3333333  -0.3333333), wk =   0.0219479
        k(    5) = (  -0.4444444   0.4444444  -0.4444444), wk =   0.0219479
        k(    6) = (   0.0000000   0.2222222   0.0000000), wk =   0.0164609
        k(    7) = (  -0.1111111   0.3333333  -0.1111111), wk =   0.0658436
        k(    8) = (  -0.2222222   0.4444444  -0.2222222), wk =   0.0658436
        k(    9) = (  -0.3333333   0.5555556  -0.3333333), wk =   0.0658436
        k(   10) = (   0.5555556  -0.3333333   0.5555556), wk =   0.0658436
        k(   11) = (   0.4444444  -0.2222222   0.4444444), wk =   0.0658436
        k(   12) = (   0.3333333  -0.1111111   0.3333333), wk =   0.0658436
        k(   13) = (   0.2222222  -0.0000000   0.2222222), wk =   0.0329218
        k(   14) = (   0.0000000   0.4444444   0.0000000), wk =   0.0164609
        k(   15) = (  -0.1111111   0.5555556  -0.1111111), wk =   0.0658436
        k(   16) = (  -0.2222222   0.6666667  -0.2222222), wk =   0.0658436
        k(   17) = (   0.6666667  -0.2222222   0.6666667), wk =   0.0658436
        k(   18) = (   0.5555556  -0.1111111   0.5555556), wk =   0.0658436
        k(   19) = (   0.4444444   0.0000000   0.4444444), wk =   0.0329218
        k(   20) = (   0.0000000   0.6666667   0.0000000), wk =   0.0164609
        k(   21) = (  -0.1111111   0.7777778  -0.1111111), wk =   0.0658436
        k(   22) = (   0.7777778  -0.1111111   0.7777778), wk =   0.0658436
        k(   23) = (   0.6666667  -0.0000000   0.6666667), wk =   0.0329218
        k(   24) = (   0.0000000   0.8888889   0.0000000), wk =   0.0164609
        k(   25) = (   0.8888889   0.0000000   0.8888889), wk =   0.0329218
        k(   26) = (  -0.2222222   0.4444444   0.0000000), wk =   0.0658436
        k(   27) = (  -0.3333333   0.5555556  -0.1111111), wk =   0.1316872
        k(   28) = (   0.5555556  -0.3333333   0.7777778), wk =   0.1316872
        k(   29) = (  -0.2222222   0.6666667   0.0000000), wk =   0.0658436
        k(   30) = (   0.6666667  -0.2222222   0.8888889), wk =   0.1316872
        k(   31) = (   0.5555556  -0.1111111   0.7777778), wk =   0.1316872
        k(   32) = (   0.4444444   0.0000000   0.6666667), wk =   0.0658436
        k(   33) = (   0.7777778  -0.1111111   1.0000000), wk =   0.0658436
        k(   34) = (   0.6666667  -0.0000000   0.8888889), wk =   0.0658436
        k(   35) = (   0.5555556  -0.1111111   1.0000000), wk =   0.0658436

     Dense  grid:     3143 G-vectors     FFT dimensions: (  24,  24,  24)

     Estimated max dynamical RAM per process >       8.15 MB

     Estimated total dynamical RAM >      16.30 MB

     Initial potential from superposition of free atoms
     Check: negative starting charge=   -0.079204

     starting charge   15.49999, renormalised to   16.00000

     negative rho (up, down):  8.176E-02 0.000E+00
     Starting wfcs are   12 randomized atomic wfcs

     total cpu time spent up to now is        0.6 secs

     Self-consistent Calculation

     iteration #  1     ecut=    35.00 Ry     beta= 0.70
     Davidson diagonalization with overlap
     ethr =  1.00E-02,  avg # of iterations =  3.7

     negative rho (up, down):  8.046E-02 0.000E+00

     total cpu time spent up to now is        1.1 secs

     total energy              =    -198.09709289 Ry
     Harris-Foulkes estimate   =    -199.05583371 Ry
     estimated scf accuracy    <       1.31358578 Ry

     iteration #  2     ecut=    35.00 Ry     beta= 0.70
     Davidson diagonalization with overlap
     ethr =  8.21E-03,  avg # of iterations =  2.0

     negative rho (up, down):  8.179E-02 0.000E+00

     total cpu time spent up to now is        1.8 secs

     total energy              =    -198.41270464 Ry
     Harris-Foulkes estimate   =    -199.12195147 Ry
     estimated scf accuracy    <       1.44929035 Ry

     iteration #  3     ecut=    35.00 Ry     beta= 0.70
     Davidson diagonalization with overlap
     ethr =  8.21E-03,  avg # of iterations =  2.0

     negative rho (up, down):  8.192E-02 0.000E+00

     total cpu time spent up to now is        2.1 secs

     total energy              =    -198.69549332 Ry
     Harris-Foulkes estimate   =    -198.69626215 Ry
     estimated scf accuracy    <       0.00169994 Ry

     iteration #  4     ecut=    35.00 Ry     beta= 0.70
     Davidson diagonalization with overlap
     ethr =  1.06E-05,  avg # of iterations =  2.5

     negative rho (up, down):  8.206E-02 0.000E+00

     total cpu time spent up to now is        2.5 secs

     total energy              =    -198.69611622 Ry
     Harris-Foulkes estimate   =    -198.69611572 Ry
     estimated scf accuracy    <       0.00000641 Ry

     iteration #  5     ecut=    35.00 Ry     beta= 0.70
     Davidson diagonalization with overlap
     ethr =  4.01E-08,  avg # of iterations =  2.0

     negative rho (up, down):  8.210E-02 0.000E+00

     total cpu time spent up to now is        2.9 secs

     total energy              =    -198.69611761 Ry
     Harris-Foulkes estimate   =    -198.69611740 Ry
     estimated scf accuracy    <       0.00000016 Ry

     iteration #  6     ecut=    35.00 Ry     beta= 0.70
     Davidson diagonalization with overlap
     ethr =  9.86E-10,  avg # of iterations =  2.0

     negative rho (up, down):  8.211E-02 0.000E+00

     total cpu time spent up to now is        3.2 secs

     End of self-consistent calculation

          k = 0.0000 0.0000 0.0000 (   411 PWs)   bands (ev):

   -33.9368 -33.9368 -33.9368   9.3076  13.1589  13.1589  13.1589  14.4478
    14.4478  33.0333  37.0066  37.0066

          k =-0.1111 0.1111-0.1111 (   390 PWs)   bands (ev):

   -33.9651 -33.9407 -33.9407   9.6990  13.0534  13.2755  13.2755  14.4074
    14.4074  33.0709  34.6440  37.2486

          k =-0.2222 0.2222-0.2222 (   386 PWs)   bands (ev):

   -34.0385 -33.9513 -33.9513  10.6480  13.0302  13.4118  13.4118  14.4946
    14.4946  29.9544  33.8711  37.5398

          k =-0.3333 0.3333-0.3333 (   401 PWs)   bands (ev):

   -34.1214 -33.9637 -33.9637  11.1730  13.2950  13.2950  14.1598  14.9378
    14.9378  25.8520  33.0502  36.7696

          k =-0.4444 0.4444-0.4444 (   401 PWs)   bands (ev):

   -34.1746 -33.9717 -33.9717  11.1422  13.1540  13.1540  15.3426  15.3426
    16.2532  22.4344  32.3547  35.7241

          k = 0.0000 0.2222 0.0000 (   391 PWs)   bands (ev):

   -33.9643 -33.9475 -33.9475   9.8301  12.9143  13.3796  13.3796  14.2076
    14.5517  33.3756  35.3950  35.9702

          k =-0.1111 0.3333-0.1111 (   386 PWs)   bands (ev):

   -34.0187 -33.9598 -33.9558  10.6246  12.7028  13.5220  13.5924  14.2020
    14.6917  31.5631  33.9132  35.0346

          k =-0.2222 0.4444-0.2222 (   395 PWs)   bands (ev):

   -34.0954 -33.9726 -33.9696  11.3717  13.0261  13.2642  13.5746  15.0587
    15.0813  27.4090  33.2769  34.3044

          k =-0.3333 0.5556-0.3333 (   397 PWs)   bands (ev):

   -34.1554 -33.9845 -33.9792  11.3997  13.0191  13.4160  14.0338  15.3936
    16.8132  23.5388  32.3826  34.0436

          k = 0.5556-0.3333 0.5556 (   397 PWs)   bands (ev):

   -34.1719 -33.9933 -33.9772  11.3751  12.9694  13.3354  14.4777  15.3212
    17.9854  21.8869  31.8518  33.9138

          k = 0.4444-0.2222 0.4444 (   399 PWs)   bands (ev):

   -34.1380 -33.9915 -33.9669  11.4577  13.1085  13.4143  13.9191  14.8284
    16.4036  24.7797  31.8211  34.3115

          k = 0.3333-0.1111 0.3333 (   389 PWs)   bands (ev):

   -34.0696 -33.9788 -33.9534  11.2461  12.8615  13.4039  13.5896  14.2413
    15.2430  28.8196  32.2196  35.8114

          k = 0.2222-0.0000 0.2222 (   389 PWs)   bands (ev):

   -34.0014 -33.9589 -33.9430  10.3040  12.8571  13.4441  13.4555  14.1728
    14.6339  32.7389  32.7427  36.2293

          k = 0.0000 0.4444 0.0000 (   399 PWs)   bands (ev):

   -34.0347 -33.9751 -33.9751  11.0801  12.3381  13.9058  13.9958  13.9958
    14.8195  33.1365  33.1365  33.6114

          k =-0.1111 0.5556-0.1111 (   403 PWs)   bands (ev):

   -34.0866 -33.9923 -33.9894  11.6233  12.1549  13.6273  14.1831  15.1187
    15.2049  29.3285  31.9182  32.4186

          k =-0.2222 0.6667-0.2222 (   399 PWs)   bands (ev):

   -34.1328 -34.0161 -33.9965  11.7118  12.4581  13.4584  14.0558  15.4453
    17.3641  25.2372  30.5644  31.5976

          k = 0.6667-0.2222 0.6667 (   400 PWs)   bands (ev):

   -34.1488 -34.0390 -33.9933  11.8024  12.6195  13.5490  13.9025  15.3474
    19.9136  22.0585  29.0516  32.4347

          k = 0.5556-0.1111 0.5556 (   400 PWs)   bands (ev):

   -34.1320 -34.0457 -33.9808  12.0429  12.7485  13.3226  13.8572  14.8210
    18.5068  24.2630  28.2149  34.3924

          k = 0.4444 0.0000 0.4444 (   403 PWs)   bands (ev):

   -34.1012 -34.0218 -33.9651  12.1143  12.6119  13.1518  13.9132  14.2034
    16.5968  28.0028  28.4269  34.9442

          k = 0.0000 0.6667 0.0000 (   399 PWs)   bands (ev):

   -34.1129 -34.0062 -34.0062  11.4835  11.7460  14.8488  14.8488  15.1385
    15.3332  30.1093  30.1815  30.1815

          k =-0.1111 0.7778-0.1111 (   404 PWs)   bands (ev):

   -34.1407 -34.0277 -34.0154  11.4576  11.6762  14.5789  14.8611  15.4710
    17.5737  27.1833  28.0137  29.4851

          k = 0.7778-0.1111 0.7778 (   401 PWs)   bands (ev):

   -34.1391 -34.0636 -34.0125  11.5995  12.0211  14.0094  14.6583  15.4302
    20.5255  23.8090  26.2349  30.1143

          k = 0.6667-0.0000 0.6667 (   403 PWs)   bands (ev):

   -34.1038 -34.1029 -33.9989  11.9451  12.5547  13.3175  14.3566  15.0436
    20.9226  23.6140  25.4221  31.9266

          k = 0.0000 0.8889 0.0000 (   392 PWs)   bands (ev):

   -34.1627 -34.0266 -34.0266  11.1715  11.3885  15.3543  15.5422  15.5422
    18.1370  25.7880  28.3199  28.3199

          k = 0.8889 0.0000 0.8889 (   398 PWs)   bands (ev):

   -34.1608 -34.0423 -34.0254  11.2612  11.4904  15.0650  15.2118  15.5779
    19.6905  24.8651  26.5512  28.5561

          k =-0.2222 0.4444 0.0000 (   389 PWs)   bands (ev):

   -34.0621 -33.9881 -33.9635  11.4379  12.4519  13.3410  13.9982  14.2575
    15.2746  30.4145  30.9571  34.8525

          k =-0.3333 0.5556-0.1111 (   401 PWs)   bands (ev):

   -34.1150 -34.0127 -33.9765  11.8747  12.7862  12.9978  13.9692  14.8196
    16.6354  26.4941  30.2457  32.9585

          k = 0.5556-0.3333 0.7778 (   395 PWs)   bands (ev):

   -34.1506 -34.0240 -33.9875  11.7948  12.6997  13.5413  13.8099  15.2601
    18.7675  22.8191  30.4463  31.4417

          k =-0.2222 0.6667 0.0000 (   407 PWs)   bands (ev):

   -34.1179 -34.0217 -33.9994  11.8334  11.9635  13.5985  14.8392  14.8958
    16.8254  28.3661  28.6869  30.3572

          k = 0.6667-0.2222 0.8889 (   403 PWs)   bands (ev):

   -34.1333 -34.0507 -34.0089  11.8872  12.2318  13.3663  14.5309  15.3390
    19.2748  24.6878  28.2840  28.8077

          k = 0.5556-0.1111 0.7778 (   400 PWs)   bands (ev):

   -34.1255 -34.0742 -34.0056  12.1210  12.4502  13.1352  14.2671  15.2763
    21.2173  22.6103  26.9848  29.7028

          k = 0.4444 0.0000 0.6667 (   400 PWs)   bands (ev):

   -34.1194 -34.0598 -33.9912  12.5401  12.5687  12.5844  14.3197  14.8523
    18.6889  26.1114  26.4063  31.2631

          k = 0.7778-0.1111 1.0000 (   406 PWs)   bands (ev):

   -34.1493 -34.0433 -34.0266  11.4787  11.6594  14.3852  15.0780  15.5402
    19.5516  25.7876  27.0862  27.2912

          k = 0.6667-0.0000 0.8889 (   397 PWs)   bands (ev):

   -34.1307 -34.0739 -34.0227  11.7308  12.0570  13.7277  14.6710  15.5344
    21.8660  23.9204  25.1532  28.0889

          k = 0.5556-0.1111 1.0000 (   399 PWs)   bands (ev):

   -34.1146 -34.0844 -34.0248  12.0352  12.4647  12.9765  14.4582  15.5363
    21.7905  24.5686  25.4400  26.9540

     the Fermi energy is    15.4280 ev

!    total energy              =    -198.69611763 Ry
     Harris-Foulkes estimate   =    -198.69611763 Ry
     estimated scf accuracy    <          3.4E-09 Ry

     The total energy is the sum of the following terms:

     one-electron contribution =     -54.21475902 Ry
     hartree contribution      =      39.22746910 Ry
     xc contribution           =     -31.27675379 Ry
     ewald contribution        =    -152.43177811 Ry
     smearing contrib. (-TS)   =      -0.00029580 Ry

     convergence has been achieved in   6 iterations

     Writing output data file Pd-kp-conv.save/
 
     init_run     :      0.47s CPU      0.52s WALL (       1 calls)
     electrons    :      2.19s CPU      2.66s WALL (       1 calls)

     Called by init_run:
     wfcinit      :      0.13s CPU      0.15s WALL (       1 calls)
     potinit      :      0.01s CPU      0.02s WALL (       1 calls)
     hinit0       :      0.32s CPU      0.32s WALL (       1 calls)

     Called by electrons:
     c_bands      :      1.74s CPU      2.12s WALL (       6 calls)
     sum_band     :      0.38s CPU      0.40s WALL (       6 calls)
     v_of_rho     :      0.03s CPU      0.03s WALL (       7 calls)
     newd         :      0.05s CPU      0.05s WALL (       7 calls)
     mix_rho      :      0.00s CPU      0.00s WALL (       6 calls)

     Called by c_bands:
     init_us_2    :      0.04s CPU      0.05s WALL (     455 calls)
     cegterg      :      1.63s CPU      1.73s WALL (     210 calls)

     Called by sum_band:
     sum_band:bec :      0.00s CPU      0.00s WALL (     210 calls)
     addusdens    :      0.04s CPU      0.04s WALL (       6 calls)

     Called by *egterg:
     h_psi        :      1.41s CPU      1.51s WALL (     739 calls)
     s_psi        :      0.02s CPU      0.02s WALL (     739 calls)
     g_psi        :      0.01s CPU      0.01s WALL (     494 calls)
     cdiaghg      :      0.18s CPU      0.19s WALL (     704 calls)

     Called by h_psi:
     h_psi:pot    :      1.41s CPU      1.51s WALL (     739 calls)
     h_psi:calbec :      0.03s CPU      0.03s WALL (     739 calls)
     vloc_psi     :      1.36s CPU      1.45s WALL (     739 calls)
     add_vuspsi   :      0.02s CPU      0.02s WALL (     739 calls)

     General routines
     calbec       :      0.03s CPU      0.03s WALL (     949 calls)
     fft          :      0.01s CPU      0.01s WALL (      78 calls)
     ffts         :      0.00s CPU      0.00s WALL (       6 calls)
     fftw         :      1.39s CPU      1.48s WALL (   15780 calls)
 
     Parallel routines
     fft_scatt_xy :      0.26s CPU      0.28s WALL (   15864 calls)
     fft_scatt_yz :      0.29s CPU      0.31s WALL (   15864 calls)
 
     PWSCF        :     2.76s CPU         3.44s WALL

 
   This run was terminated on:  21:16:59   2Dec2021            

=------------------------------------------------------------------------------=
   JOB DONE.
=------------------------------------------------------------------------------=
