
     Program PWSCF v.6.3 starts on  2Dec2021 at 21:17:12 

     This program is part of the open-source Quantum ESPRESSO suite
     for quantum simulation of materials; please cite
         "P. Giannozzi et al., J. Phys.:Condens. Matter 21 395502 (2009);
         "P. Giannozzi et al., J. Phys.:Condens. Matter 29 465901 (2017);
          URL http://www.quantum-espresso.org", 
     in publications or presentations arising from this work. More details at
     http://www.quantum-espresso.org/quote

     Parallel version (MPI & OpenMP), running on       2 processor cores
     Number of MPI processes:                 2
     Threads/MPI process:                     1

     MPI processes distributed on     1 nodes
     R & G space division:  proc/nbgrp/npool/nimage =       2
     Reading input from pw-input.in

     Current dimensions of program PWSCF are:
     Max number of different atomic species (ntypx) = 10
     Max number of k-points (npk) =  40000
     Max angular momentum in pseudopotentials (lmaxx) =  3

     Subspace diagonalization in iterative solution of the eigenvalue problem:
     a serial algorithm will be used

 
     Parallelization info
     --------------------
     sticks:   dense  smooth     PW     G-vecs:    dense   smooth      PW
     Min         156     156     54                 1859     1859     362
     Max         157     157     55                 1860     1860     363
     Sum         313     313    109                 3719     3719     725
 

     Title: 
     Pd-kp-conv                                                                 


     bravais-lattice index     =            2
     lattice parameter (alat)  =       8.1000  a.u.
     unit-cell volume          =     132.8602 (a.u.)^3
     number of atoms/cell      =            1
     number of atomic types    =            1
     number of electrons       =        16.00
     number of Kohn-Sham states=           12
     kinetic-energy cutoff     =      35.0000  Ry
     charge density cutoff     =     140.0000  Ry
     convergence threshold     =      1.0E-07
     mixing beta               =       0.7000
     number of iterations used =            8  plain     mixing
     Exchange-correlation      =  SLA  PW   PBX  PBC ( 1  4  3  4 0 0)

     celldm(1)=   8.100000  celldm(2)=   0.000000  celldm(3)=   0.000000
     celldm(4)=   0.000000  celldm(5)=   0.000000  celldm(6)=   0.000000

     crystal axes: (cart. coord. in units of alat)
               a(1) = (  -0.500000   0.000000   0.500000 )  
               a(2) = (   0.000000   0.500000   0.500000 )  
               a(3) = (  -0.500000   0.500000   0.000000 )  

     reciprocal axes: (cart. coord. in units 2 pi/alat)
               b(1) = ( -1.000000 -1.000000  1.000000 )  
               b(2) = (  1.000000  1.000000  1.000000 )  
               b(3) = ( -1.000000  1.000000 -1.000000 )  


     PseudoPot. # 1 for Pd read from file:
     ./pd_pbe_v1.4.uspp.F.UPF
     MD5 check sum: 2d733d2bc2cbfd217af676df1668a4bc
     Pseudo is Ultrasoft + core correction, Zval = 16.0
     Generated by new atomic code, or converted to UPF format
     Using radial grid of  887 points,  6 beta functions with: 
                l(1) =   0
                l(2) =   0
                l(3) =   1
                l(4) =   1
                l(5) =   2
                l(6) =   2
     Q(r) pseudized with  8 coefficients,  rinner =    1.130   1.130   1.130
                                                       1.130   1.130

     atomic species   valence    mass     pseudopotential
        Pd            16.00   106.40000     Pd( 1.00)

     48 Sym. Ops., with inversion, found



   Cartesian axes

     site n.     atom                  positions (alat units)
         1           Pd  tau(   1) = (   0.0000000   0.0000000   0.0000000  )

     number of k points=    35  Marzari-Vanderbilt smearing, width (Ry)=  0.0150
                       cart. coord. in units 2pi/alat
        k(    1) = (   0.0000000   0.0000000   0.0000000), wk =   0.0027435
        k(    2) = (  -0.1111111   0.1111111  -0.1111111), wk =   0.0219479
        k(    3) = (  -0.2222222   0.2222222  -0.2222222), wk =   0.0219479
        k(    4) = (  -0.3333333   0.3333333  -0.3333333), wk =   0.0219479
        k(    5) = (  -0.4444444   0.4444444  -0.4444444), wk =   0.0219479
        k(    6) = (   0.0000000   0.2222222   0.0000000), wk =   0.0164609
        k(    7) = (  -0.1111111   0.3333333  -0.1111111), wk =   0.0658436
        k(    8) = (  -0.2222222   0.4444444  -0.2222222), wk =   0.0658436
        k(    9) = (  -0.3333333   0.5555556  -0.3333333), wk =   0.0658436
        k(   10) = (   0.5555556  -0.3333333   0.5555556), wk =   0.0658436
        k(   11) = (   0.4444444  -0.2222222   0.4444444), wk =   0.0658436
        k(   12) = (   0.3333333  -0.1111111   0.3333333), wk =   0.0658436
        k(   13) = (   0.2222222  -0.0000000   0.2222222), wk =   0.0329218
        k(   14) = (   0.0000000   0.4444444   0.0000000), wk =   0.0164609
        k(   15) = (  -0.1111111   0.5555556  -0.1111111), wk =   0.0658436
        k(   16) = (  -0.2222222   0.6666667  -0.2222222), wk =   0.0658436
        k(   17) = (   0.6666667  -0.2222222   0.6666667), wk =   0.0658436
        k(   18) = (   0.5555556  -0.1111111   0.5555556), wk =   0.0658436
        k(   19) = (   0.4444444   0.0000000   0.4444444), wk =   0.0329218
        k(   20) = (   0.0000000   0.6666667   0.0000000), wk =   0.0164609
        k(   21) = (  -0.1111111   0.7777778  -0.1111111), wk =   0.0658436
        k(   22) = (   0.7777778  -0.1111111   0.7777778), wk =   0.0658436
        k(   23) = (   0.6666667  -0.0000000   0.6666667), wk =   0.0329218
        k(   24) = (   0.0000000   0.8888889   0.0000000), wk =   0.0164609
        k(   25) = (   0.8888889   0.0000000   0.8888889), wk =   0.0329218
        k(   26) = (  -0.2222222   0.4444444   0.0000000), wk =   0.0658436
        k(   27) = (  -0.3333333   0.5555556  -0.1111111), wk =   0.1316872
        k(   28) = (   0.5555556  -0.3333333   0.7777778), wk =   0.1316872
        k(   29) = (  -0.2222222   0.6666667   0.0000000), wk =   0.0658436
        k(   30) = (   0.6666667  -0.2222222   0.8888889), wk =   0.1316872
        k(   31) = (   0.5555556  -0.1111111   0.7777778), wk =   0.1316872
        k(   32) = (   0.4444444   0.0000000   0.6666667), wk =   0.0658436
        k(   33) = (   0.7777778  -0.1111111   1.0000000), wk =   0.0658436
        k(   34) = (   0.6666667  -0.0000000   0.8888889), wk =   0.0658436
        k(   35) = (   0.5555556  -0.1111111   1.0000000), wk =   0.0658436

     Dense  grid:     3719 G-vectors     FFT dimensions: (  24,  24,  24)

     Estimated max dynamical RAM per process >       9.37 MB

     Estimated total dynamical RAM >      18.74 MB

     Initial potential from superposition of free atoms
     Check: negative starting charge=   -0.081280

     starting charge   15.49999, renormalised to   16.00000

     negative rho (up, down):  8.390E-02 0.000E+00
     Starting wfcs are   12 randomized atomic wfcs

     total cpu time spent up to now is        0.6 secs

     Self-consistent Calculation

     iteration #  1     ecut=    35.00 Ry     beta= 0.70
     Davidson diagonalization with overlap
     ethr =  1.00E-02,  avg # of iterations =  3.4

     negative rho (up, down):  8.121E-02 0.000E+00

     total cpu time spent up to now is        1.1 secs

     total energy              =    -197.92034036 Ry
     Harris-Foulkes estimate   =    -199.06895323 Ry
     estimated scf accuracy    <       1.55925195 Ry

     iteration #  2     ecut=    35.00 Ry     beta= 0.70
     Davidson diagonalization with overlap
     ethr =  9.75E-03,  avg # of iterations =  2.0

     negative rho (up, down):  8.344E-02 0.000E+00

     total cpu time spent up to now is        1.5 secs

     total energy              =    -198.26237833 Ry
     Harris-Foulkes estimate   =    -199.30091560 Ry
     estimated scf accuracy    <       2.23202069 Ry

     iteration #  3     ecut=    35.00 Ry     beta= 0.70
     Davidson diagonalization with overlap
     ethr =  9.75E-03,  avg # of iterations =  2.0

     negative rho (up, down):  8.351E-02 0.000E+00

     total cpu time spent up to now is        1.8 secs

     total energy              =    -198.67304301 Ry
     Harris-Foulkes estimate   =    -198.67329272 Ry
     estimated scf accuracy    <       0.00059181 Ry

     iteration #  4     ecut=    35.00 Ry     beta= 0.70
     Davidson diagonalization with overlap
     ethr =  3.70E-06,  avg # of iterations =  2.9

     negative rho (up, down):  8.362E-02 0.000E+00

     total cpu time spent up to now is        2.3 secs

     total energy              =    -198.67335913 Ry
     Harris-Foulkes estimate   =    -198.67335887 Ry
     estimated scf accuracy    <       0.00000346 Ry

     iteration #  5     ecut=    35.00 Ry     beta= 0.70
     Davidson diagonalization with overlap
     ethr =  2.16E-08,  avg # of iterations =  1.4

     negative rho (up, down):  8.364E-02 0.000E+00

     total cpu time spent up to now is        2.6 secs

     total energy              =    -198.67335938 Ry
     Harris-Foulkes estimate   =    -198.67335937 Ry
     estimated scf accuracy    <       0.00000010 Ry

     iteration #  6     ecut=    35.00 Ry     beta= 0.70
     Davidson diagonalization with overlap
     ethr =  6.41E-10,  avg # of iterations =  1.6

     negative rho (up, down):  8.364E-02 0.000E+00

     total cpu time spent up to now is        3.0 secs

     End of self-consistent calculation

          k = 0.0000 0.0000 0.0000 (   459 PWs)   bands (ev):

   -36.7033 -36.7033 -36.7033   7.2050  10.5760  10.5760  10.5760  11.5783
    11.5783  29.4415  32.5503  32.5503

          k =-0.1111 0.1111-0.1111 (   477 PWs)   bands (ev):

   -36.7199 -36.7061 -36.7061   7.5509  10.4957  10.6663  10.6663  11.5456
    11.5456  29.1060  30.4718  32.6106

          k =-0.2222 0.2222-0.2222 (   483 PWs)   bands (ev):

   -36.7607 -36.7126 -36.7126   8.4115  10.4896  10.7735  10.7735  11.6167
    11.6167  25.5834  30.0564  32.4858

          k =-0.3333 0.3333-0.3333 (   468 PWs)   bands (ev):

   -36.8062 -36.7196 -36.7196   8.9428  10.6854  10.6854  11.4836  11.9613
    11.9613  21.6702  29.3380  31.7023

          k =-0.4444 0.4444-0.4444 (   470 PWs)   bands (ev):

   -36.8362 -36.7242 -36.7242   8.9452  10.5761  10.5761  12.2698  12.2698
    13.4463  18.4117  28.7496  30.8961

          k = 0.0000 0.2222 0.0000 (   479 PWs)   bands (ev):

   -36.7194 -36.7099 -36.7099   7.6668  10.3874  10.7470  10.7470  11.3951
    11.6570  29.5679  31.1395  31.2489

          k =-0.1111 0.3333-0.1111 (   474 PWs)   bands (ev):

   -36.7497 -36.7172 -36.7148   8.3803  10.2247  10.8634  10.9155  11.3974
    11.7665  27.1429  29.8997  30.2160

          k =-0.2222 0.4444-0.2222 (   463 PWs)   bands (ev):

   -36.7918 -36.7244 -36.7226   9.0954  10.4971  10.6673  10.9043  12.0516
    12.1272  23.1469  29.3403  29.4994

          k =-0.3333 0.5556-0.3333 (   463 PWs)   bands (ev):

   -36.8254 -36.7310 -36.7284   9.1574  10.4786  10.7823  11.3159  12.3078
    13.7081  19.5099  28.4845  29.3111

          k = 0.5556-0.3333 0.5556 (   459 PWs)   bands (ev):

   -36.8347 -36.7360 -36.7271   9.1414  10.4393  10.7205  11.6647  12.2545
    14.8714  17.8835  27.7634  29.5238

          k = 0.4444-0.2222 0.4444 (   465 PWs)   bands (ev):

   -36.8156 -36.7349 -36.7214   9.1969  10.5443  10.7817  11.2430  11.8785
    13.2549  20.6732  27.5371  30.0579

          k = 0.3333-0.1111 0.3333 (   471 PWs)   bands (ev):

   -36.7778 -36.7278 -36.7137   8.9561  10.3551  10.7808  10.9156  11.4245
    12.2147  24.4837  27.8291  31.4324

          k = 0.2222-0.0000 0.2222 (   473 PWs)   bands (ev):

   -36.7399 -36.7163 -36.7077   8.0898  10.3449  10.8017  10.8083  11.3680
    11.7246  28.3673  28.4455  31.8944

          k = 0.0000 0.4444 0.0000 (   472 PWs)   bands (ev):

   -36.7586 -36.7256 -36.7256   8.8026   9.9403  11.1795  11.2317  11.2317
    11.8652  28.4880  28.4880  29.4833

          k =-0.1111 0.5556-0.1111 (   463 PWs)   bands (ev):

   -36.7870 -36.7352 -36.7339   9.3274   9.7966  10.9600  11.3793  12.0961
    12.2431  24.9803  27.3969  28.0209

          k =-0.2222 0.6667-0.2222 (   455 PWs)   bands (ev):

   -36.8130 -36.7483 -36.7379   9.4304  10.0530  10.8308  11.2836  12.3469
    14.1273  21.1769  26.1542  27.1246

          k = 0.6667-0.2222 0.6667 (   461 PWs)   bands (ev):

   -36.8221 -36.7614 -36.7361   9.5025  10.1813  10.9138  11.1662  12.2742
    16.5064  18.1399  24.7152  27.8544

          k = 0.5556-0.1111 0.5556 (   458 PWs)   bands (ev):

   -36.8125 -36.7649 -36.7290   9.6897  10.2764  10.7470  11.1322  11.8728
    15.1021  20.2287  23.9309  29.5500

          k = 0.4444 0.0000 0.4444 (   463 PWs)   bands (ev):

   -36.7951 -36.7517 -36.7201   9.7222  10.1599  10.6002  11.1766  11.3935
    13.3609  23.7408  24.0740  30.6960

          k = 0.0000 0.6667 0.0000 (   472 PWs)   bands (ev):

   -36.8021 -36.7436 -36.7436   9.2467   9.4719  11.8942  11.8942  12.1094
    12.4657  25.6000  25.8905  25.8905

          k =-0.1111 0.7778-0.1111 (   463 PWs)   bands (ev):

   -36.8177 -36.7553 -36.7486   9.2434   9.4180  11.7164  11.9048  12.3665
    14.3878  22.9669  23.7362  25.2973

          k = 0.7778-0.1111 0.7778 (   468 PWs)   bands (ev):

   -36.8170 -36.7752 -36.7470   9.3589   9.6994  11.2723  11.7508  12.3370
    16.9969  19.9351  21.9891  25.8292

          k = 0.6667-0.0000 0.6667 (   456 PWs)   bands (ev):

   -36.7970 -36.7967 -36.7391   9.6306  10.1327  10.7249  11.5227  12.0423
    17.2982  19.7665  21.2261  27.3797

          k = 0.0000 0.8889 0.0000 (   464 PWs)   bands (ev):

   -36.8300 -36.7552 -36.7552   9.0185   9.1853  12.2752  12.4226  12.4226
    15.0775  21.4098  24.3135  24.3135

          k = 0.8889 0.0000 0.8889 (   462 PWs)   bands (ev):

   -36.8293 -36.7634 -36.7545   9.0924   9.2685  12.0863  12.1708  12.4486
    16.4379  20.5138  22.6217  24.5101

          k =-0.2222 0.4444 0.0000 (   470 PWs)   bands (ev):

   -36.7738 -36.7330 -36.7194   9.1190  10.0296  10.7277  11.2340  11.4471
    12.2405  26.0469  26.4611  30.3665

          k =-0.3333 0.5556-0.1111 (   460 PWs)   bands (ev):

   -36.8028 -36.7466 -36.7266   9.5454  10.3097  10.4596  11.2197  11.8800
    13.4256  22.3066  25.8432  28.5190

          k = 0.5556-0.3333 0.7778 (   464 PWs)   bands (ev):

   -36.8230 -36.7531 -36.7330   9.4888  10.2372  10.9084  11.1018  12.2093
    15.4146  18.8663  26.0605  27.0247

          k =-0.2222 0.6667 0.0000 (   464 PWs)   bands (ev):

   -36.8047 -36.7519 -36.7394   9.5373   9.6448  10.9403  11.8880  11.9443
    13.6305  24.0940  24.4078  25.9296

          k = 0.6667-0.2222 0.8889 (   463 PWs)   bands (ev):

   -36.8135 -36.7680 -36.7447   9.5865   9.8697  10.7588  11.6583  12.2692
    15.8183  20.7033  23.8981  24.5985

          k = 0.5556-0.1111 0.7778 (   465 PWs)   bands (ev):

   -36.8093 -36.7809 -36.7430   9.7726  10.0432  10.5808  11.4529  12.2209
    17.6068  18.7404  22.7441  25.3569

          k = 0.4444 0.0000 0.6667 (   470 PWs)   bands (ev):

   -36.8058 -36.7729 -36.7351  10.1045  10.1258  10.1461  11.4979  11.8965
    15.2477  21.9974  22.2204  26.8094

          k = 0.7778-0.1111 1.0000 (   463 PWs)   bands (ev):

   -36.8226 -36.7640 -36.7546   9.2699   9.4025  11.5625  12.0748  12.4216
    16.1847  21.4569  23.0538  23.2610

          k = 0.6667-0.0000 0.8889 (   464 PWs)   bands (ev):

   -36.8124 -36.7808 -36.7525   9.4716   9.7233  11.0488  11.7637  12.4164
    18.2679  19.9725  20.9934  23.9209

          k = 0.5556-0.1111 1.0000 (   459 PWs)   bands (ev):

   -36.8034 -36.7866 -36.7533   9.7232  10.0443  10.4509  11.6027  12.4186
    18.0940  20.6759  21.2474  22.8097

     the Fermi energy is    12.3552 ev

!    total energy              =    -198.67335939 Ry
     Harris-Foulkes estimate   =    -198.67335939 Ry
     estimated scf accuracy    <          1.1E-09 Ry

     The total energy is the sum of the following terms:

     one-electron contribution =     -66.13098517 Ry
     hartree contribution      =      43.57544065 Ry
     xc contribution           =     -31.21309852 Ry
     ewald contribution        =    -144.90428288 Ry
     smearing contrib. (-TS)   =      -0.00043346 Ry

     convergence has been achieved in   6 iterations

     Writing output data file Pd-kp-conv.save/
 
     init_run     :      0.49s CPU      0.52s WALL (       1 calls)
     electrons    :      2.17s CPU      2.68s WALL (       1 calls)

     Called by init_run:
     wfcinit      :      0.14s CPU      0.15s WALL (       1 calls)
     potinit      :      0.01s CPU      0.02s WALL (       1 calls)
     hinit0       :      0.33s CPU      0.33s WALL (       1 calls)

     Called by electrons:
     c_bands      :      1.74s CPU      1.86s WALL (       6 calls)
     sum_band     :      0.36s CPU      0.39s WALL (       6 calls)
     v_of_rho     :      0.03s CPU      0.03s WALL (       7 calls)
     newd         :      0.05s CPU      0.05s WALL (       7 calls)
     mix_rho      :      0.00s CPU      0.00s WALL (       6 calls)

     Called by c_bands:
     init_us_2    :      0.05s CPU      0.05s WALL (     455 calls)
     cegterg      :      1.61s CPU      1.72s WALL (     210 calls)

     Called by sum_band:
     sum_band:bec :      0.00s CPU      0.00s WALL (     210 calls)
     addusdens    :      0.05s CPU      0.05s WALL (       6 calls)

     Called by *egterg:
     h_psi        :      1.40s CPU      1.50s WALL (     711 calls)
     s_psi        :      0.02s CPU      0.02s WALL (     711 calls)
     g_psi        :      0.01s CPU      0.02s WALL (     466 calls)
     cdiaghg      :      0.17s CPU      0.18s WALL (     676 calls)

     Called by h_psi:
     h_psi:pot    :      1.40s CPU      1.49s WALL (     711 calls)
     h_psi:calbec :      0.03s CPU      0.03s WALL (     711 calls)
     vloc_psi     :      1.34s CPU      1.43s WALL (     711 calls)
     add_vuspsi   :      0.02s CPU      0.02s WALL (     711 calls)

     General routines
     calbec       :      0.03s CPU      0.04s WALL (     921 calls)
     fft          :      0.01s CPU      0.01s WALL (      78 calls)
     ffts         :      0.00s CPU      0.00s WALL (       6 calls)
     fftw         :      1.38s CPU      1.47s WALL (   15836 calls)
 
     Parallel routines
     fft_scatt_xy :      0.25s CPU      0.27s WALL (   15920 calls)
     fft_scatt_yz :      0.30s CPU      0.33s WALL (   15920 calls)
 
     PWSCF        :     2.75s CPU         3.44s WALL

 
   This run was terminated on:  21:17:16   2Dec2021            

=------------------------------------------------------------------------------=
   JOB DONE.
=------------------------------------------------------------------------------=
