
     Program PWSCF v.6.3 starts on  2Dec2021 at 20:51: 4 

     This program is part of the open-source Quantum ESPRESSO suite
     for quantum simulation of materials; please cite
         "P. Giannozzi et al., J. Phys.:Condens. Matter 21 395502 (2009);
         "P. Giannozzi et al., J. Phys.:Condens. Matter 29 465901 (2017);
          URL http://www.quantum-espresso.org", 
     in publications or presentations arising from this work. More details at
     http://www.quantum-espresso.org/quote

     Parallel version (MPI & OpenMP), running on       2 processor cores
     Number of MPI processes:                 2
     Threads/MPI process:                     1

     MPI processes distributed on     1 nodes
     R & G space division:  proc/nbgrp/npool/nimage =       2
     Reading input from pw-input.in

     Current dimensions of program PWSCF are:
     Max number of different atomic species (ntypx) = 10
     Max number of k-points (npk) =  40000
     Max angular momentum in pseudopotentials (lmaxx) =  3

     Subspace diagonalization in iterative solution of the eigenvalue problem:
     a serial algorithm will be used

 
     Parallelization info
     --------------------
     sticks:   dense  smooth     PW     G-vecs:    dense   smooth      PW
     Min         126     126     42                 1318     1318     264
     Max         127     127     43                 1319     1319     267
     Sum         253     253     85                 2637     2637     531
 

     Title: 
     Pd-kp-conv                                                                 


     bravais-lattice index     =            2
     lattice parameter (alat)  =       7.2000  a.u.
     unit-cell volume          =      93.3120 (a.u.)^3
     number of atoms/cell      =            1
     number of atomic types    =            1
     number of electrons       =        16.00
     number of Kohn-Sham states=           12
     kinetic-energy cutoff     =      35.0000  Ry
     charge density cutoff     =     140.0000  Ry
     convergence threshold     =      1.0E-07
     mixing beta               =       0.7000
     number of iterations used =            8  plain     mixing
     Exchange-correlation      =  SLA  PW   PBX  PBC ( 1  4  3  4 0 0)

     celldm(1)=   7.200000  celldm(2)=   0.000000  celldm(3)=   0.000000
     celldm(4)=   0.000000  celldm(5)=   0.000000  celldm(6)=   0.000000

     crystal axes: (cart. coord. in units of alat)
               a(1) = (  -0.500000   0.000000   0.500000 )  
               a(2) = (   0.000000   0.500000   0.500000 )  
               a(3) = (  -0.500000   0.500000   0.000000 )  

     reciprocal axes: (cart. coord. in units 2 pi/alat)
               b(1) = ( -1.000000 -1.000000  1.000000 )  
               b(2) = (  1.000000  1.000000  1.000000 )  
               b(3) = ( -1.000000  1.000000 -1.000000 )  


     PseudoPot. # 1 for Pd read from file:
     ./pd_pbe_v1.4.uspp.F.UPF
     MD5 check sum: 2d733d2bc2cbfd217af676df1668a4bc
     Pseudo is Ultrasoft + core correction, Zval = 16.0
     Generated by new atomic code, or converted to UPF format
     Using radial grid of  887 points,  6 beta functions with: 
                l(1) =   0
                l(2) =   0
                l(3) =   1
                l(4) =   1
                l(5) =   2
                l(6) =   2
     Q(r) pseudized with  8 coefficients,  rinner =    1.130   1.130   1.130
                                                       1.130   1.130

     atomic species   valence    mass     pseudopotential
        Pd            16.00   106.40000     Pd( 1.00)

     48 Sym. Ops., with inversion, found



   Cartesian axes

     site n.     atom                  positions (alat units)
         1           Pd  tau(   1) = (   0.0000000   0.0000000   0.0000000  )

     number of k points=     4  Marzari-Vanderbilt smearing, width (Ry)=  0.0100
                       cart. coord. in units 2pi/alat
        k(    1) = (   0.0000000   0.0000000   0.0000000), wk =   0.0740741
        k(    2) = (  -0.3333333   0.3333333  -0.3333333), wk =   0.5925926
        k(    3) = (   0.0000000   0.6666667   0.0000000), wk =   0.4444444
        k(    4) = (   0.6666667  -0.0000000   0.6666667), wk =   0.8888889

     Dense  grid:     2637 G-vectors     FFT dimensions: (  20,  20,  20)

     Estimated max dynamical RAM per process >       5.87 MB

     Estimated total dynamical RAM >      11.74 MB

     Initial potential from superposition of free atoms
     Check: negative starting charge=   -0.084445

     starting charge   15.49999, renormalised to   16.00000

     negative rho (up, down):  8.717E-02 0.000E+00
     Starting wfcs are   12 randomized atomic wfcs

     total cpu time spent up to now is        0.5 secs

     Self-consistent Calculation

     iteration #  1     ecut=    35.00 Ry     beta= 0.70
     Davidson diagonalization with overlap
     ethr =  1.00E-02,  avg # of iterations =  4.0

     negative rho (up, down):  8.712E-02 0.000E+00

     total cpu time spent up to now is        0.5 secs

     total energy              =    -198.21415295 Ry
     Harris-Foulkes estimate   =    -198.95414310 Ry
     estimated scf accuracy    <       1.03146982 Ry

     iteration #  2     ecut=    35.00 Ry     beta= 0.70
     Davidson diagonalization with overlap
     ethr =  6.45E-03,  avg # of iterations =  2.0

     negative rho (up, down):  8.817E-02 0.000E+00

     total cpu time spent up to now is        0.6 secs

     total energy              =    -198.38513637 Ry
     Harris-Foulkes estimate   =    -198.89578624 Ry
     estimated scf accuracy    <       1.03978269 Ry

     iteration #  3     ecut=    35.00 Ry     beta= 0.70
     Davidson diagonalization with overlap
     ethr =  6.45E-03,  avg # of iterations =  2.0

     negative rho (up, down):  8.982E-02 0.000E+00

     total cpu time spent up to now is        0.6 secs

     total energy              =    -198.60580265 Ry
     Harris-Foulkes estimate   =    -198.63064486 Ry
     estimated scf accuracy    <       0.03675109 Ry

     iteration #  4     ecut=    35.00 Ry     beta= 0.70
     Davidson diagonalization with overlap
     ethr =  2.30E-04,  avg # of iterations =  2.0

     negative rho (up, down):  8.950E-02 0.000E+00

     total cpu time spent up to now is        0.7 secs

     total energy              =    -198.63130289 Ry
     Harris-Foulkes estimate   =    -198.64483326 Ry
     estimated scf accuracy    <       0.06042885 Ry

     iteration #  5     ecut=    35.00 Ry     beta= 0.70
     Davidson diagonalization with overlap
     ethr =  2.30E-04,  avg # of iterations =  1.0

     negative rho (up, down):  9.011E-02 0.000E+00

     total cpu time spent up to now is        0.7 secs

     total energy              =    -198.64238467 Ry
     Harris-Foulkes estimate   =    -198.63285382 Ry
     estimated scf accuracy    <       0.02431745 Ry

     iteration #  6     ecut=    35.00 Ry     beta= 0.70
     Davidson diagonalization with overlap
     ethr =  1.52E-04,  avg # of iterations =  1.0

     negative rho (up, down):  8.852E-02 0.000E+00

     total cpu time spent up to now is        0.7 secs

     total energy              =    -198.61382813 Ry
     Harris-Foulkes estimate   =    -198.64367408 Ry
     estimated scf accuracy    <       0.05753094 Ry

     iteration #  7     ecut=    35.00 Ry     beta= 0.70
     Davidson diagonalization with overlap
     ethr =  1.52E-04,  avg # of iterations =  2.0

     negative rho (up, down):  8.870E-02 0.000E+00

     total cpu time spent up to now is        0.8 secs

     total energy              =    -198.62559569 Ry
     Harris-Foulkes estimate   =    -198.62623340 Ry
     estimated scf accuracy    <       0.00491036 Ry

     iteration #  8     ecut=    35.00 Ry     beta= 0.70
     Davidson diagonalization with overlap
     ethr =  3.07E-05,  avg # of iterations =  1.0

     negative rho (up, down):  8.872E-02 0.000E+00

     total cpu time spent up to now is        0.8 secs

     total energy              =    -198.62593559 Ry
     Harris-Foulkes estimate   =    -198.62573348 Ry
     estimated scf accuracy    <       0.00125673 Ry

     iteration #  9     ecut=    35.00 Ry     beta= 0.70
     Davidson diagonalization with overlap
     ethr =  7.85E-06,  avg # of iterations =  1.0

     negative rho (up, down):  8.906E-02 0.000E+00

     total cpu time spent up to now is        0.9 secs

     total energy              =    -198.62485215 Ry
     Harris-Foulkes estimate   =    -198.62597641 Ry
     estimated scf accuracy    <       0.00296863 Ry

     iteration # 10     ecut=    35.00 Ry     beta= 0.70
     Davidson diagonalization with overlap
     ethr =  7.85E-06,  avg # of iterations =  2.0

     negative rho (up, down):  8.900E-02 0.000E+00

     total cpu time spent up to now is        0.9 secs

     total energy              =    -198.62557348 Ry
     Harris-Foulkes estimate   =    -198.62564571 Ry
     estimated scf accuracy    <       0.00055351 Ry

     iteration # 11     ecut=    35.00 Ry     beta= 0.70
     Davidson diagonalization with overlap
     ethr =  3.46E-06,  avg # of iterations =  1.0

     negative rho (up, down):  8.905E-02 0.000E+00

     total cpu time spent up to now is        0.9 secs

     total energy              =    -198.62563273 Ry
     Harris-Foulkes estimate   =    -198.62558431 Ry
     estimated scf accuracy    <       0.00021639 Ry

     iteration # 12     ecut=    35.00 Ry     beta= 0.70
     Davidson diagonalization with overlap
     ethr =  1.35E-06,  avg # of iterations =  1.0

     negative rho (up, down):  8.889E-02 0.000E+00

     total cpu time spent up to now is        1.0 secs

     total energy              =    -198.62544072 Ry
     Harris-Foulkes estimate   =    -198.62564254 Ry
     estimated scf accuracy    <       0.00053531 Ry

     iteration # 13     ecut=    35.00 Ry     beta= 0.70
     Davidson diagonalization with overlap
     ethr =  1.35E-06,  avg # of iterations =  2.0

     negative rho (up, down):  8.895E-02 0.000E+00

     total cpu time spent up to now is        1.0 secs

     total energy              =    -198.62553675 Ry
     Harris-Foulkes estimate   =    -198.62555529 Ry
     estimated scf accuracy    <       0.00005046 Ry

     iteration # 14     ecut=    35.00 Ry     beta= 0.70
     Davidson diagonalization with overlap
     ethr =  3.15E-07,  avg # of iterations =  1.8

     negative rho (up, down):  8.896E-02 0.000E+00

     total cpu time spent up to now is        1.1 secs

     total energy              =    -198.62554646 Ry
     Harris-Foulkes estimate   =    -198.62554831 Ry
     estimated scf accuracy    <       0.00000592 Ry

     iteration # 15     ecut=    35.00 Ry     beta= 0.70
     Davidson diagonalization with overlap
     ethr =  3.70E-08,  avg # of iterations =  1.0

     negative rho (up, down):  8.902E-02 0.000E+00

     total cpu time spent up to now is        1.1 secs

     total energy              =    -198.62554738 Ry
     Harris-Foulkes estimate   =    -198.62554735 Ry
     estimated scf accuracy    <       0.00000015 Ry

     iteration # 16     ecut=    35.00 Ry     beta= 0.70
     Davidson diagonalization with overlap
     ethr =  9.64E-10,  avg # of iterations =  2.0

     negative rho (up, down):  8.889E-02 0.000E+00

     total cpu time spent up to now is        1.1 secs

     total energy              =    -198.62554616 Ry
     Harris-Foulkes estimate   =    -198.62554800 Ry
     estimated scf accuracy    <       0.00000403 Ry

     iteration # 17     ecut=    35.00 Ry     beta= 0.70
     Davidson diagonalization with overlap
     ethr =  9.64E-10,  avg # of iterations =  2.5

     negative rho (up, down):  8.890E-02 0.000E+00

     total cpu time spent up to now is        1.2 secs

     total energy              =    -198.62554728 Ry
     Harris-Foulkes estimate   =    -198.62554763 Ry
     estimated scf accuracy    <       0.00000178 Ry

     iteration # 18     ecut=    35.00 Ry     beta= 0.70
     Davidson diagonalization with overlap
     ethr =  9.64E-10,  avg # of iterations =  2.0

     negative rho (up, down):  8.893E-02 0.000E+00

     total cpu time spent up to now is        1.2 secs

     total energy              =    -198.62554727 Ry
     Harris-Foulkes estimate   =    -198.62554738 Ry
     estimated scf accuracy    <       0.00000024 Ry

     iteration # 19     ecut=    35.00 Ry     beta= 0.70
     Davidson diagonalization with overlap
     ethr =  9.64E-10,  avg # of iterations =  2.0

     negative rho (up, down):  8.892E-02 0.000E+00

     total cpu time spent up to now is        1.3 secs

     End of self-consistent calculation

          k = 0.0000 0.0000 0.0000 (   331 PWs)   bands (ev):

   -29.4072 -29.4072 -29.4072  12.7654  17.2899  17.2899  17.2899  19.0441
    19.0441  38.4757  43.5989  43.5989

          k =-0.3333 0.3333-0.3333 (   332 PWs)   bands (ev):

   -29.7977 -29.4622 -29.4622  14.7567  17.4420  17.4420  18.4870  19.7355
    19.7355  32.5336  38.6998  44.6104

          k = 0.0000 0.6667 0.0000 (   323 PWs)   bands (ev):

   -29.7787 -29.5517 -29.5517  15.0117  15.3335  19.6263  19.6263  19.9796
    20.0053  36.9224  36.9224  37.0684

          k = 0.6667-0.0000 0.6667 (   323 PWs)   bands (ev):

   -29.7575 -29.7552 -29.5344  15.5872  16.4062  17.4824  18.8767  19.9104
    26.7649  29.8922  32.0922  39.0829

     the Fermi energy is    19.9244 ev

!    total energy              =    -198.62554729 Ry
     Harris-Foulkes estimate   =    -198.62554735 Ry
     estimated scf accuracy    <       0.00000008 Ry

     The total energy is the sum of the following terms:

     one-electron contribution =     -37.90892251 Ry
     hartree contribution      =      33.72769888 Ry
     xc contribution           =     -31.42712984 Ry
     ewald contribution        =    -163.01731824 Ry
     smearing contrib. (-TS)   =       0.00012441 Ry

     convergence has been achieved in  19 iterations

     Writing output data file Pd-kp-conv.save/
 
     init_run     :      0.34s CPU      0.36s WALL (       1 calls)
     electrons    :      0.76s CPU      1.18s WALL (       1 calls)

     Called by init_run:
     wfcinit      :      0.01s CPU      0.02s WALL (       1 calls)
     potinit      :      0.01s CPU      0.02s WALL (       1 calls)
     hinit0       :      0.31s CPU      0.31s WALL (       1 calls)

     Called by electrons:
     c_bands      :      0.41s CPU      0.46s WALL (      19 calls)
     sum_band     :      0.19s CPU      0.20s WALL (      19 calls)
     v_of_rho     :      0.05s CPU      0.06s WALL (      20 calls)
     newd         :      0.10s CPU      0.10s WALL (      20 calls)
     mix_rho      :      0.01s CPU      0.01s WALL (      19 calls)

     Called by c_bands:
     init_us_2    :      0.01s CPU      0.01s WALL (     156 calls)
     cegterg      :      0.37s CPU      0.42s WALL (      76 calls)

     Called by sum_band:
     sum_band:bec :      0.00s CPU      0.00s WALL (      76 calls)
     addusdens    :      0.11s CPU      0.11s WALL (      19 calls)

     Called by *egterg:
     h_psi        :      0.30s CPU      0.33s WALL (     213 calls)
     s_psi        :      0.01s CPU      0.01s WALL (     213 calls)
     g_psi        :      0.00s CPU      0.00s WALL (     133 calls)
     cdiaghg      :      0.05s CPU      0.05s WALL (     209 calls)

     Called by h_psi:
     h_psi:pot    :      0.29s CPU      0.33s WALL (     213 calls)
     h_psi:calbec :      0.01s CPU      0.01s WALL (     213 calls)
     vloc_psi     :      0.28s CPU      0.31s WALL (     213 calls)
     add_vuspsi   :      0.01s CPU      0.01s WALL (     213 calls)

     General routines
     calbec       :      0.01s CPU      0.01s WALL (     289 calls)
     fft          :      0.02s CPU      0.02s WALL (     221 calls)
     ffts         :      0.00s CPU      0.00s WALL (      19 calls)
     fftw         :      0.29s CPU      0.33s WALL (    5204 calls)
 
     Parallel routines
     fft_scatt_xy :      0.06s CPU      0.06s WALL (    5444 calls)
     fft_scatt_yz :      0.08s CPU      0.09s WALL (    5444 calls)
 
     PWSCF        :     1.18s CPU         1.69s WALL

 
   This run was terminated on:  20:51: 5   2Dec2021            

=------------------------------------------------------------------------------=
   JOB DONE.
=------------------------------------------------------------------------------=
