
     Program PWSCF v.6.3 starts on  2Dec2021 at 20:51: 1 

     This program is part of the open-source Quantum ESPRESSO suite
     for quantum simulation of materials; please cite
         "P. Giannozzi et al., J. Phys.:Condens. Matter 21 395502 (2009);
         "P. Giannozzi et al., J. Phys.:Condens. Matter 29 465901 (2017);
          URL http://www.quantum-espresso.org", 
     in publications or presentations arising from this work. More details at
     http://www.quantum-espresso.org/quote

     Parallel version (MPI & OpenMP), running on       2 processor cores
     Number of MPI processes:                 2
     Threads/MPI process:                     1

     MPI processes distributed on     1 nodes
     R & G space division:  proc/nbgrp/npool/nimage =       2
     Reading input from pw-input.in

     Current dimensions of program PWSCF are:
     Max number of different atomic species (ntypx) = 10
     Max number of k-points (npk) =  40000
     Max angular momentum in pseudopotentials (lmaxx) =  3

     Subspace diagonalization in iterative solution of the eigenvalue problem:
     a serial algorithm will be used

 
     Parallelization info
     --------------------
     sticks:   dense  smooth     PW     G-vecs:    dense   smooth      PW
     Min         120     120     42                 1221     1221     229
     Max         121     121     43                 1224     1224     230
     Sum         241     241     85                 2445     2445     459
 

     Title: 
     Pd-kp-conv                                                                 


     bravais-lattice index     =            2
     lattice parameter (alat)  =       7.1000  a.u.
     unit-cell volume          =      89.4777 (a.u.)^3
     number of atoms/cell      =            1
     number of atomic types    =            1
     number of electrons       =        16.00
     number of Kohn-Sham states=           12
     kinetic-energy cutoff     =      35.0000  Ry
     charge density cutoff     =     140.0000  Ry
     convergence threshold     =      1.0E-07
     mixing beta               =       0.7000
     number of iterations used =            8  plain     mixing
     Exchange-correlation      =  SLA  PW   PBX  PBC ( 1  4  3  4 0 0)

     celldm(1)=   7.100000  celldm(2)=   0.000000  celldm(3)=   0.000000
     celldm(4)=   0.000000  celldm(5)=   0.000000  celldm(6)=   0.000000

     crystal axes: (cart. coord. in units of alat)
               a(1) = (  -0.500000   0.000000   0.500000 )  
               a(2) = (   0.000000   0.500000   0.500000 )  
               a(3) = (  -0.500000   0.500000   0.000000 )  

     reciprocal axes: (cart. coord. in units 2 pi/alat)
               b(1) = ( -1.000000 -1.000000  1.000000 )  
               b(2) = (  1.000000  1.000000  1.000000 )  
               b(3) = ( -1.000000  1.000000 -1.000000 )  


     PseudoPot. # 1 for Pd read from file:
     ./pd_pbe_v1.4.uspp.F.UPF
     MD5 check sum: 2d733d2bc2cbfd217af676df1668a4bc
     Pseudo is Ultrasoft + core correction, Zval = 16.0
     Generated by new atomic code, or converted to UPF format
     Using radial grid of  887 points,  6 beta functions with: 
                l(1) =   0
                l(2) =   0
                l(3) =   1
                l(4) =   1
                l(5) =   2
                l(6) =   2
     Q(r) pseudized with  8 coefficients,  rinner =    1.130   1.130   1.130
                                                       1.130   1.130

     atomic species   valence    mass     pseudopotential
        Pd            16.00   106.40000     Pd( 1.00)

     48 Sym. Ops., with inversion, found



   Cartesian axes

     site n.     atom                  positions (alat units)
         1           Pd  tau(   1) = (   0.0000000   0.0000000   0.0000000  )

     number of k points=     4  Marzari-Vanderbilt smearing, width (Ry)=  0.0100
                       cart. coord. in units 2pi/alat
        k(    1) = (   0.0000000   0.0000000   0.0000000), wk =   0.0740741
        k(    2) = (  -0.3333333   0.3333333  -0.3333333), wk =   0.5925926
        k(    3) = (   0.0000000   0.6666667   0.0000000), wk =   0.4444444
        k(    4) = (   0.6666667  -0.0000000   0.6666667), wk =   0.8888889

     Dense  grid:     2445 G-vectors     FFT dimensions: (  20,  20,  20)

     Estimated max dynamical RAM per process >       5.54 MB

     Estimated total dynamical RAM >      11.07 MB

     Initial potential from superposition of free atoms
     Check: negative starting charge=   -0.083979

     starting charge   15.49999, renormalised to   16.00000

     negative rho (up, down):  8.669E-02 0.000E+00
     Starting wfcs are   12 randomized atomic wfcs

     total cpu time spent up to now is        0.5 secs

     Self-consistent Calculation

     iteration #  1     ecut=    35.00 Ry     beta= 0.70
     Davidson diagonalization with overlap
     ethr =  1.00E-02,  avg # of iterations =  4.0

     negative rho (up, down):  8.688E-02 0.000E+00

     total cpu time spent up to now is        0.5 secs

     total energy              =    -198.23516016 Ry
     Harris-Foulkes estimate   =    -198.92815163 Ry
     estimated scf accuracy    <       0.96950418 Ry

     iteration #  2     ecut=    35.00 Ry     beta= 0.70
     Davidson diagonalization with overlap
     ethr =  6.06E-03,  avg # of iterations =  2.0

     negative rho (up, down):  8.787E-02 0.000E+00

     total cpu time spent up to now is        0.6 secs

     total energy              =    -198.38483509 Ry
     Harris-Foulkes estimate   =    -198.84618333 Ry
     estimated scf accuracy    <       0.93348559 Ry

     iteration #  3     ecut=    35.00 Ry     beta= 0.70
     Davidson diagonalization with overlap
     ethr =  5.83E-03,  avg # of iterations =  2.0

     negative rho (up, down):  8.993E-02 0.000E+00

     total cpu time spent up to now is        0.6 secs

     total energy              =    -198.59081131 Ry
     Harris-Foulkes estimate   =    -198.62006453 Ry
     estimated scf accuracy    <       0.04182958 Ry

     iteration #  4     ecut=    35.00 Ry     beta= 0.70
     Davidson diagonalization with overlap
     ethr =  2.61E-04,  avg # of iterations =  2.0

     negative rho (up, down):  8.943E-02 0.000E+00

     total cpu time spent up to now is        0.7 secs

     total energy              =    -198.61890267 Ry
     Harris-Foulkes estimate   =    -198.64125977 Ry
     estimated scf accuracy    <       0.08543535 Ry

     iteration #  5     ecut=    35.00 Ry     beta= 0.70
     Davidson diagonalization with overlap
     ethr =  2.61E-04,  avg # of iterations =  1.2

     negative rho (up, down):  8.966E-02 0.000E+00

     total cpu time spent up to now is        0.7 secs

     total energy              =    -198.62509563 Ry
     Harris-Foulkes estimate   =    -198.62189823 Ry
     estimated scf accuracy    <       0.02802171 Ry

     iteration #  6     ecut=    35.00 Ry     beta= 0.70
     Davidson diagonalization with overlap
     ethr =  1.75E-04,  avg # of iterations =  1.0

     negative rho (up, down):  8.851E-02 0.000E+00

     total cpu time spent up to now is        0.8 secs

     total energy              =    -198.60843134 Ry
     Harris-Foulkes estimate   =    -198.62524472 Ry
     estimated scf accuracy    <       0.03810139 Ry

     iteration #  7     ecut=    35.00 Ry     beta= 0.70
     Davidson diagonalization with overlap
     ethr =  1.75E-04,  avg # of iterations =  2.0

     negative rho (up, down):  8.833E-02 0.000E+00

     total cpu time spent up to now is        0.8 secs

     total energy              =    -198.61375048 Ry
     Harris-Foulkes estimate   =    -198.61361324 Ry
     estimated scf accuracy    <       0.00001590 Ry

     iteration #  8     ecut=    35.00 Ry     beta= 0.70
     Davidson diagonalization with overlap
     ethr =  9.94E-08,  avg # of iterations =  3.0

     negative rho (up, down):  8.839E-02 0.000E+00

     total cpu time spent up to now is        0.9 secs

     total energy              =    -198.61433188 Ry
     Harris-Foulkes estimate   =    -198.61458928 Ry
     estimated scf accuracy    <       0.00699430 Ry

     iteration #  9     ecut=    35.00 Ry     beta= 0.70
     Davidson diagonalization with overlap
     ethr =  9.94E-08,  avg # of iterations =  2.0

     negative rho (up, down):  8.896E-02 0.000E+00

     total cpu time spent up to now is        0.9 secs

     total energy              =    -198.61248420 Ry
     Harris-Foulkes estimate   =    -198.61434635 Ry
     estimated scf accuracy    <       0.00520616 Ry

     iteration # 10     ecut=    35.00 Ry     beta= 0.70
     Davidson diagonalization with overlap
     ethr =  9.94E-08,  avg # of iterations =  3.0

     negative rho (up, down):  8.877E-02 0.000E+00

     total cpu time spent up to now is        1.0 secs

     total energy              =    -198.61361036 Ry
     Harris-Foulkes estimate   =    -198.61376485 Ry
     estimated scf accuracy    <       0.00086872 Ry

     iteration # 11     ecut=    35.00 Ry     beta= 0.70
     Davidson diagonalization with overlap
     ethr =  9.94E-08,  avg # of iterations =  2.0

     negative rho (up, down):  8.858E-02 0.000E+00

     total cpu time spent up to now is        1.0 secs

     total energy              =    -198.61354416 Ry
     Harris-Foulkes estimate   =    -198.61364629 Ry
     estimated scf accuracy    <       0.00016062 Ry

     iteration # 12     ecut=    35.00 Ry     beta= 0.70
     Davidson diagonalization with overlap
     ethr =  9.94E-08,  avg # of iterations =  2.2

     negative rho (up, down):  8.878E-02 0.000E+00

     total cpu time spent up to now is        1.0 secs

     total energy              =    -198.61347588 Ry
     Harris-Foulkes estimate   =    -198.61373099 Ry
     estimated scf accuracy    <       0.00075989 Ry

     iteration # 13     ecut=    35.00 Ry     beta= 0.70
     Davidson diagonalization with overlap
     ethr =  9.94E-08,  avg # of iterations =  2.0

     negative rho (up, down):  8.876E-02 0.000E+00

     total cpu time spent up to now is        1.1 secs

     total energy              =    -198.61362036 Ry
     Harris-Foulkes estimate   =    -198.61363186 Ry
     estimated scf accuracy    <       0.00007020 Ry

     iteration # 14     ecut=    35.00 Ry     beta= 0.70
     Davidson diagonalization with overlap
     ethr =  9.94E-08,  avg # of iterations =  1.0

     negative rho (up, down):  8.875E-02 0.000E+00

     total cpu time spent up to now is        1.1 secs

     total energy              =    -198.61362107 Ry
     Harris-Foulkes estimate   =    -198.61362302 Ry
     estimated scf accuracy    <       0.00001371 Ry

     iteration # 15     ecut=    35.00 Ry     beta= 0.70
     Davidson diagonalization with overlap
     ethr =  8.57E-08,  avg # of iterations =  1.0

     negative rho (up, down):  8.874E-02 0.000E+00

     total cpu time spent up to now is        1.2 secs

     total energy              =    -198.61362058 Ry
     Harris-Foulkes estimate   =    -198.61362147 Ry
     estimated scf accuracy    <       0.00000354 Ry

     iteration # 16     ecut=    35.00 Ry     beta= 0.70
     Davidson diagonalization with overlap
     ethr =  2.22E-08,  avg # of iterations =  1.0

     negative rho (up, down):  8.874E-02 0.000E+00

     total cpu time spent up to now is        1.2 secs

     End of self-consistent calculation

          k = 0.0000 0.0000 0.0000 (   331 PWs)   bands (ev):

   -28.3649 -28.3649 -28.3649  13.5993  18.2318  18.2318  18.2318  20.1098
    20.1098  39.7085  45.0915  45.0915

          k =-0.3333 0.3333-0.3333 (   308 PWs)   bands (ev):

   -28.8179 -28.4279 -28.4279  15.5890  18.3926  18.3926  19.5102  20.8467
    20.8467  34.0936  40.0030  46.4127

          k = 0.0000 0.6667 0.0000 (   315 PWs)   bands (ev):

   -28.7957 -28.5317 -28.5317  15.8308  16.1452  20.7265  20.7265  21.0806
    21.1385  38.4927  38.4927  38.6711

          k = 0.6667-0.0000 0.6667 (   309 PWs)   bands (ev):

   -28.7711 -28.7679 -28.5116  16.4173  17.2988  18.4420  19.9225  21.0313
    28.1398  31.3772  33.6556  40.7517

     the Fermi energy is    21.0436 ev

!    total energy              =    -198.61362091 Ry
     Harris-Foulkes estimate   =    -198.61362093 Ry
     estimated scf accuracy    <       0.00000003 Ry

     The total energy is the sum of the following terms:

     one-electron contribution =     -34.42958003 Ry
     hartree contribution      =      32.59163463 Ry
     xc contribution           =     -31.46226876 Ry
     ewald contribution        =    -165.31333683 Ry
     smearing contrib. (-TS)   =      -0.00006992 Ry

     convergence has been achieved in  16 iterations

     Writing output data file Pd-kp-conv.save/
 
     init_run     :      0.33s CPU      0.36s WALL (       1 calls)
     electrons    :      0.68s CPU      1.10s WALL (       1 calls)

     Called by init_run:
     wfcinit      :      0.01s CPU      0.02s WALL (       1 calls)
     potinit      :      0.00s CPU      0.01s WALL (       1 calls)
     hinit0       :      0.31s CPU      0.31s WALL (       1 calls)

     Called by electrons:
     c_bands      :      0.39s CPU      0.43s WALL (      16 calls)
     sum_band     :      0.16s CPU      0.17s WALL (      16 calls)
     v_of_rho     :      0.05s CPU      0.05s WALL (      17 calls)
     newd         :      0.08s CPU      0.08s WALL (      17 calls)
     mix_rho      :      0.01s CPU      0.01s WALL (      16 calls)

     Called by c_bands:
     init_us_2    :      0.01s CPU      0.01s WALL (     132 calls)
     cegterg      :      0.36s CPU      0.39s WALL (      64 calls)

     Called by sum_band:
     sum_band:bec :      0.00s CPU      0.00s WALL (      64 calls)
     addusdens    :      0.09s CPU      0.09s WALL (      16 calls)

     Called by *egterg:
     h_psi        :      0.28s CPU      0.31s WALL (     194 calls)
     s_psi        :      0.00s CPU      0.01s WALL (     194 calls)
     g_psi        :      0.00s CPU      0.00s WALL (     126 calls)
     cdiaghg      :      0.05s CPU      0.05s WALL (     190 calls)

     Called by h_psi:
     h_psi:pot    :      0.28s CPU      0.31s WALL (     194 calls)
     h_psi:calbec :      0.01s CPU      0.01s WALL (     194 calls)
     vloc_psi     :      0.26s CPU      0.29s WALL (     194 calls)
     add_vuspsi   :      0.00s CPU      0.01s WALL (     194 calls)

     General routines
     calbec       :      0.01s CPU      0.01s WALL (     258 calls)
     fft          :      0.02s CPU      0.02s WALL (     188 calls)
     ffts         :      0.00s CPU      0.00s WALL (      16 calls)
     fftw         :      0.28s CPU      0.31s WALL (    4626 calls)
 
     Parallel routines
     fft_scatt_xy :      0.05s CPU      0.06s WALL (    4830 calls)
     fft_scatt_yz :      0.08s CPU      0.09s WALL (    4830 calls)
 
     PWSCF        :     1.09s CPU         1.61s WALL

 
   This run was terminated on:  20:51: 3   2Dec2021            

=------------------------------------------------------------------------------=
   JOB DONE.
=------------------------------------------------------------------------------=
