
     Program PWSCF v.6.3 starts on  2Dec2021 at 20:51:16 

     This program is part of the open-source Quantum ESPRESSO suite
     for quantum simulation of materials; please cite
         "P. Giannozzi et al., J. Phys.:Condens. Matter 21 395502 (2009);
         "P. Giannozzi et al., J. Phys.:Condens. Matter 29 465901 (2017);
          URL http://www.quantum-espresso.org", 
     in publications or presentations arising from this work. More details at
     http://www.quantum-espresso.org/quote

     Parallel version (MPI & OpenMP), running on       2 processor cores
     Number of MPI processes:                 2
     Threads/MPI process:                     1

     MPI processes distributed on     1 nodes
     R & G space division:  proc/nbgrp/npool/nimage =       2
     Reading input from pw-input.in

     Current dimensions of program PWSCF are:
     Max number of different atomic species (ntypx) = 10
     Max number of k-points (npk) =  40000
     Max angular momentum in pseudopotentials (lmaxx) =  3

     Subspace diagonalization in iterative solution of the eigenvalue problem:
     a serial algorithm will be used

 
     Parallelization info
     --------------------
     sticks:   dense  smooth     PW     G-vecs:    dense   smooth      PW
     Min         147     147     45                 1643     1643     304
     Max         148     148     46                 1644     1644     305
     Sum         295     295     91                 3287     3287     609
 

     Title: 
     Pd-kp-conv                                                                 


     bravais-lattice index     =            2
     lattice parameter (alat)  =       7.8000  a.u.
     unit-cell volume          =     118.6380 (a.u.)^3
     number of atoms/cell      =            1
     number of atomic types    =            1
     number of electrons       =        16.00
     number of Kohn-Sham states=           12
     kinetic-energy cutoff     =      35.0000  Ry
     charge density cutoff     =     140.0000  Ry
     convergence threshold     =      1.0E-07
     mixing beta               =       0.7000
     number of iterations used =            8  plain     mixing
     Exchange-correlation      =  SLA  PW   PBX  PBC ( 1  4  3  4 0 0)

     celldm(1)=   7.800000  celldm(2)=   0.000000  celldm(3)=   0.000000
     celldm(4)=   0.000000  celldm(5)=   0.000000  celldm(6)=   0.000000

     crystal axes: (cart. coord. in units of alat)
               a(1) = (  -0.500000   0.000000   0.500000 )  
               a(2) = (   0.000000   0.500000   0.500000 )  
               a(3) = (  -0.500000   0.500000   0.000000 )  

     reciprocal axes: (cart. coord. in units 2 pi/alat)
               b(1) = ( -1.000000 -1.000000  1.000000 )  
               b(2) = (  1.000000  1.000000  1.000000 )  
               b(3) = ( -1.000000  1.000000 -1.000000 )  


     PseudoPot. # 1 for Pd read from file:
     ./pd_pbe_v1.4.uspp.F.UPF
     MD5 check sum: 2d733d2bc2cbfd217af676df1668a4bc
     Pseudo is Ultrasoft + core correction, Zval = 16.0
     Generated by new atomic code, or converted to UPF format
     Using radial grid of  887 points,  6 beta functions with: 
                l(1) =   0
                l(2) =   0
                l(3) =   1
                l(4) =   1
                l(5) =   2
                l(6) =   2
     Q(r) pseudized with  8 coefficients,  rinner =    1.130   1.130   1.130
                                                       1.130   1.130

     atomic species   valence    mass     pseudopotential
        Pd            16.00   106.40000     Pd( 1.00)

     48 Sym. Ops., with inversion, found



   Cartesian axes

     site n.     atom                  positions (alat units)
         1           Pd  tau(   1) = (   0.0000000   0.0000000   0.0000000  )

     number of k points=     4  Marzari-Vanderbilt smearing, width (Ry)=  0.0100
                       cart. coord. in units 2pi/alat
        k(    1) = (   0.0000000   0.0000000   0.0000000), wk =   0.0740741
        k(    2) = (  -0.3333333   0.3333333  -0.3333333), wk =   0.5925926
        k(    3) = (   0.0000000   0.6666667   0.0000000), wk =   0.4444444
        k(    4) = (   0.6666667  -0.0000000   0.6666667), wk =   0.8888889

     Dense  grid:     3287 G-vectors     FFT dimensions: (  24,  24,  24)

     Estimated max dynamical RAM per process >       7.27 MB

     Estimated total dynamical RAM >      14.55 MB

     Initial potential from superposition of free atoms
     Check: negative starting charge=   -0.079046

     starting charge   15.49999, renormalised to   16.00000

     negative rho (up, down):  8.160E-02 0.000E+00
     Starting wfcs are   12 randomized atomic wfcs

     total cpu time spent up to now is        0.5 secs

     Self-consistent Calculation

     iteration #  1     ecut=    35.00 Ry     beta= 0.70
     Davidson diagonalization with overlap
     ethr =  1.00E-02,  avg # of iterations =  3.8

     negative rho (up, down):  8.050E-02 0.000E+00

     total cpu time spent up to now is        0.6 secs

     total energy              =    -198.01410347 Ry
     Harris-Foulkes estimate   =    -199.03786302 Ry
     estimated scf accuracy    <       1.40087426 Ry

     iteration #  2     ecut=    35.00 Ry     beta= 0.70
     Davidson diagonalization with overlap
     ethr =  8.76E-03,  avg # of iterations =  2.0

     negative rho (up, down):  8.176E-02 0.000E+00

     total cpu time spent up to now is        0.7 secs

     total energy              =    -198.32219460 Ry
     Harris-Foulkes estimate   =    -199.17522275 Ry
     estimated scf accuracy    <       1.80057294 Ry

     iteration #  3     ecut=    35.00 Ry     beta= 0.70
     Davidson diagonalization with overlap
     ethr =  8.76E-03,  avg # of iterations =  2.0

     negative rho (up, down):  8.197E-02 0.000E+00

     total cpu time spent up to now is        0.7 secs

     total energy              =    -198.64113194 Ry
     Harris-Foulkes estimate   =    -198.64188290 Ry
     estimated scf accuracy    <       0.00201093 Ry

     iteration #  4     ecut=    35.00 Ry     beta= 0.70
     Davidson diagonalization with overlap
     ethr =  1.26E-05,  avg # of iterations =  2.8

     negative rho (up, down):  8.216E-02 0.000E+00

     total cpu time spent up to now is        0.8 secs

     total energy              =    -198.64197310 Ry
     Harris-Foulkes estimate   =    -198.64197782 Ry
     estimated scf accuracy    <       0.00005231 Ry

     iteration #  5     ecut=    35.00 Ry     beta= 0.70
     Davidson diagonalization with overlap
     ethr =  3.27E-07,  avg # of iterations =  2.0

     negative rho (up, down):  8.220E-02 0.000E+00

     total cpu time spent up to now is        0.9 secs

     total energy              =    -198.64198007 Ry
     Harris-Foulkes estimate   =    -198.64197974 Ry
     estimated scf accuracy    <       0.00000131 Ry

     iteration #  6     ecut=    35.00 Ry     beta= 0.70
     Davidson diagonalization with overlap
     ethr =  8.20E-09,  avg # of iterations =  1.8

     negative rho (up, down):  8.221E-02 0.000E+00

     total cpu time spent up to now is        0.9 secs

     End of self-consistent calculation

          k = 0.0000 0.0000 0.0000 (   411 PWs)   bands (ev):

   -34.6530 -34.6530 -34.6530   8.7292  12.4954  12.4954  12.4954  13.6687
    13.6687  32.1000  35.8073  35.8073

          k =-0.3333 0.3333-0.3333 (   419 PWs)   bands (ev):

   -34.8128 -34.6767 -34.6767  10.5857  12.6058  12.6058  13.4414  14.1480
    14.1480  24.7263  32.0474  35.4203

          k = 0.0000 0.6667 0.0000 (   432 PWs)   bands (ev):

   -34.8058 -34.7139 -34.7139  10.8697  11.1627  14.0842  14.0842  14.3134
    14.5568  28.8917  29.0270  29.0270

          k = 0.6667-0.0000 0.6667 (   403 PWs)   bands (ev):

   -34.7975 -34.7967 -34.7068  11.3375  11.9058  12.6481  13.5872  14.2694
    19.9466  22.5865  24.2779  30.7022

     the Fermi energy is    14.2862 ev

!    total energy              =    -198.64198018 Ry
     Harris-Foulkes estimate   =    -198.64198018 Ry
     estimated scf accuracy    <       0.00000002 Ry

     The total energy is the sum of the following terms:

     one-electron contribution =     -57.25182442 Ry
     hartree contribution      =      40.35115603 Ry
     xc contribution           =     -31.26443824 Ry
     ewald contribution        =    -150.47752455 Ry
     smearing contrib. (-TS)   =       0.00065100 Ry

     convergence has been achieved in   6 iterations

     Writing output data file Pd-kp-conv.save/
 
     init_run     :      0.35s CPU      0.38s WALL (       1 calls)
     electrons    :      0.40s CPU      0.47s WALL (       1 calls)

     Called by init_run:
     wfcinit      :      0.02s CPU      0.02s WALL (       1 calls)
     potinit      :      0.01s CPU      0.02s WALL (       1 calls)
     hinit0       :      0.32s CPU      0.32s WALL (       1 calls)

     Called by electrons:
     c_bands      :      0.23s CPU      0.24s WALL (       6 calls)
     sum_band     :      0.09s CPU      0.10s WALL (       6 calls)
     v_of_rho     :      0.03s CPU      0.04s WALL (       7 calls)
     newd         :      0.05s CPU      0.05s WALL (       7 calls)
     mix_rho      :      0.00s CPU      0.00s WALL (       6 calls)

     Called by c_bands:
     init_us_2    :      0.01s CPU      0.01s WALL (      52 calls)
     cegterg      :      0.22s CPU      0.23s WALL (      24 calls)

     Called by sum_band:
     sum_band:bec :      0.00s CPU      0.00s WALL (      24 calls)
     addusdens    :      0.05s CPU      0.05s WALL (       6 calls)

     Called by *egterg:
     h_psi        :      0.18s CPU      0.19s WALL (      85 calls)
     s_psi        :      0.00s CPU      0.00s WALL (      85 calls)
     g_psi        :      0.00s CPU      0.00s WALL (      57 calls)
     cdiaghg      :      0.03s CPU      0.03s WALL (      81 calls)

     Called by h_psi:
     h_psi:pot    :      0.18s CPU      0.19s WALL (      85 calls)
     h_psi:calbec :      0.00s CPU      0.00s WALL (      85 calls)
     vloc_psi     :      0.17s CPU      0.18s WALL (      85 calls)
     add_vuspsi   :      0.00s CPU      0.00s WALL (      85 calls)

     General routines
     calbec       :      0.00s CPU      0.01s WALL (     109 calls)
     fft          :      0.01s CPU      0.01s WALL (      78 calls)
     ffts         :      0.00s CPU      0.00s WALL (       6 calls)
     fftw         :      0.18s CPU      0.19s WALL (    1796 calls)
 
     Parallel routines
     fft_scatt_xy :      0.03s CPU      0.04s WALL (    1880 calls)
     fft_scatt_yz :      0.04s CPU      0.04s WALL (    1880 calls)
 
     PWSCF        :     0.83s CPU         1.31s WALL

 
   This run was terminated on:  20:51:17   2Dec2021            

=------------------------------------------------------------------------------=
   JOB DONE.
=------------------------------------------------------------------------------=
