
     Program PWSCF v.6.3 starts on  2Dec2021 at 20:28:13 

     This program is part of the open-source Quantum ESPRESSO suite
     for quantum simulation of materials; please cite
         "P. Giannozzi et al., J. Phys.:Condens. Matter 21 395502 (2009);
         "P. Giannozzi et al., J. Phys.:Condens. Matter 29 465901 (2017);
          URL http://www.quantum-espresso.org", 
     in publications or presentations arising from this work. More details at
     http://www.quantum-espresso.org/quote

     Parallel version (MPI & OpenMP), running on       2 processor cores
     Number of MPI processes:                 2
     Threads/MPI process:                     1

     MPI processes distributed on     1 nodes
     R & G space division:  proc/nbgrp/npool/nimage =       2
     Reading input from pw-input.in

     Current dimensions of program PWSCF are:
     Max number of different atomic species (ntypx) = 10
     Max number of k-points (npk) =  40000
     Max angular momentum in pseudopotentials (lmaxx) =  3

     Subspace diagonalization in iterative solution of the eigenvalue problem:
     a serial algorithm will be used

 
     Parallelization info
     --------------------
     sticks:   dense  smooth     PW     G-vecs:    dense   smooth      PW
     Min         132     132     42                 1445     1445     267
     Max         133     133     43                 1446     1446     270
     Sum         265     265     85                 2891     2891     537
 

     Title: 
     Pd-kp-conv                                                                 


     bravais-lattice index     =            2
     lattice parameter (alat)  =       7.5000  a.u.
     unit-cell volume          =     105.4688 (a.u.)^3
     number of atoms/cell      =            1
     number of atomic types    =            1
     number of electrons       =        16.00
     number of Kohn-Sham states=           12
     kinetic-energy cutoff     =      35.0000  Ry
     charge density cutoff     =     140.0000  Ry
     convergence threshold     =      1.0E-07
     mixing beta               =       0.7000
     number of iterations used =            8  plain     mixing
     Exchange-correlation      =  SLA  PW   PBX  PBC ( 1  4  3  4 0 0)

     celldm(1)=   7.500000  celldm(2)=   0.000000  celldm(3)=   0.000000
     celldm(4)=   0.000000  celldm(5)=   0.000000  celldm(6)=   0.000000

     crystal axes: (cart. coord. in units of alat)
               a(1) = (  -0.500000   0.000000   0.500000 )  
               a(2) = (   0.000000   0.500000   0.500000 )  
               a(3) = (  -0.500000   0.500000   0.000000 )  

     reciprocal axes: (cart. coord. in units 2 pi/alat)
               b(1) = ( -1.000000 -1.000000  1.000000 )  
               b(2) = (  1.000000  1.000000  1.000000 )  
               b(3) = ( -1.000000  1.000000 -1.000000 )  


     PseudoPot. # 1 for Pd read from file:
     ./pd_pbe_v1.4.uspp.F.UPF
     MD5 check sum: 2d733d2bc2cbfd217af676df1668a4bc
     Pseudo is Ultrasoft + core correction, Zval = 16.0
     Generated by new atomic code, or converted to UPF format
     Using radial grid of  887 points,  6 beta functions with: 
                l(1) =   0
                l(2) =   0
                l(3) =   1
                l(4) =   1
                l(5) =   2
                l(6) =   2
     Q(r) pseudized with  8 coefficients,  rinner =    1.130   1.130   1.130
                                                       1.130   1.130

     atomic species   valence    mass     pseudopotential
        Pd            16.00   106.40000     Pd( 1.00)

     48 Sym. Ops., with inversion, found



   Cartesian axes

     site n.     atom                  positions (alat units)
         1           Pd  tau(   1) = (   0.0000000   0.0000000   0.0000000  )

     number of k points=     4  Marzari-Vanderbilt smearing, width (Ry)=  0.0050
                       cart. coord. in units 2pi/alat
        k(    1) = (   0.0000000   0.0000000   0.0000000), wk =   0.0740741
        k(    2) = (  -0.3333333   0.3333333  -0.3333333), wk =   0.5925926
        k(    3) = (   0.0000000   0.6666667   0.0000000), wk =   0.4444444
        k(    4) = (   0.6666667  -0.0000000   0.6666667), wk =   0.8888889

     Dense  grid:     2891 G-vectors     FFT dimensions: (  20,  20,  20)

     Estimated max dynamical RAM per process >       6.36 MB

     Estimated total dynamical RAM >      12.71 MB

     Initial potential from superposition of free atoms
     Check: negative starting charge=   -0.084664

     starting charge   15.49999, renormalised to   16.00000

     negative rho (up, down):  8.740E-02 0.000E+00
     Starting wfcs are   12 randomized atomic wfcs

     total cpu time spent up to now is        0.5 secs

     Self-consistent Calculation

     iteration #  1     ecut=    35.00 Ry     beta= 0.70
     Davidson diagonalization with overlap
     ethr =  1.00E-02,  avg # of iterations =  4.0

     negative rho (up, down):  8.695E-02 0.000E+00

     total cpu time spent up to now is        0.5 secs

     total energy              =    -198.12618223 Ry
     Harris-Foulkes estimate   =    -199.00869545 Ry
     estimated scf accuracy    <       1.21769697 Ry

     iteration #  2     ecut=    35.00 Ry     beta= 0.70
     Davidson diagonalization with overlap
     ethr =  7.61E-03,  avg # of iterations =  2.0

     negative rho (up, down):  8.801E-02 0.000E+00

     total cpu time spent up to now is        0.6 secs

     total energy              =    -198.36312606 Ry
     Harris-Foulkes estimate   =    -199.03876519 Ry
     estimated scf accuracy    <       1.40294276 Ry

     iteration #  3     ecut=    35.00 Ry     beta= 0.70
     Davidson diagonalization with overlap
     ethr =  7.61E-03,  avg # of iterations =  2.0

     negative rho (up, down):  8.853E-02 0.000E+00

     total cpu time spent up to now is        0.7 secs

     total energy              =    -198.63687456 Ry
     Harris-Foulkes estimate   =    -198.64394234 Ry
     estimated scf accuracy    <       0.01356940 Ry

     iteration #  4     ecut=    35.00 Ry     beta= 0.70
     Davidson diagonalization with overlap
     ethr =  8.48E-05,  avg # of iterations =  2.0

     negative rho (up, down):  8.847E-02 0.000E+00

     total cpu time spent up to now is        0.7 secs

     total energy              =    -198.64135536 Ry
     Harris-Foulkes estimate   =    -198.64429401 Ry
     estimated scf accuracy    <       0.00512572 Ry

     iteration #  5     ecut=    35.00 Ry     beta= 0.70
     Davidson diagonalization with overlap
     ethr =  3.20E-05,  avg # of iterations =  2.0

     negative rho (up, down):  8.841E-02 0.000E+00

     total cpu time spent up to now is        0.8 secs

     total energy              =    -198.64271751 Ry
     Harris-Foulkes estimate   =    -198.64284355 Ry
     estimated scf accuracy    <       0.00046276 Ry

     iteration #  6     ecut=    35.00 Ry     beta= 0.70
     Davidson diagonalization with overlap
     ethr =  2.89E-06,  avg # of iterations =  1.0

     negative rho (up, down):  8.845E-02 0.000E+00

     total cpu time spent up to now is        0.8 secs

     total energy              =    -198.64270540 Ry
     Harris-Foulkes estimate   =    -198.64275156 Ry
     estimated scf accuracy    <       0.00007654 Ry

     iteration #  7     ecut=    35.00 Ry     beta= 0.70
     Davidson diagonalization with overlap
     ethr =  4.78E-07,  avg # of iterations =  2.0

     negative rho (up, down):  8.844E-02 0.000E+00

     total cpu time spent up to now is        0.8 secs

     total energy              =    -198.64272712 Ry
     Harris-Foulkes estimate   =    -198.64273698 Ry
     estimated scf accuracy    <       0.00001958 Ry

     iteration #  8     ecut=    35.00 Ry     beta= 0.70
     Davidson diagonalization with overlap
     ethr =  1.22E-07,  avg # of iterations =  2.0

     negative rho (up, down):  8.844E-02 0.000E+00

     total cpu time spent up to now is        0.9 secs

     End of self-consistent calculation

          k = 0.0000 0.0000 0.0000 (   339 PWs)   bands (ev):

   -32.1865 -32.1865 -32.1865  10.5642  14.7570  14.7570  14.7570  16.1819
    16.1819  35.0968  39.4684  39.4684

          k =-0.3333 0.3333-0.3333 (   359 PWs)   bands (ev):

   -32.4369 -32.2230 -32.2230  12.5289  14.8797  14.8797  15.7677  16.7613
    16.7613  28.3343  35.1476  39.7023

          k = 0.0000 0.6667 0.0000 (   355 PWs)   bands (ev):

   -32.4250 -32.2805 -32.2805  12.8001  13.1396  16.6843  16.6843  16.9677
    17.0512  32.6810  32.6810  32.7018

          k = 0.6667-0.0000 0.6667 (   375 PWs)   bands (ev):

   -32.4128 -32.4114 -32.2701  13.3400  14.0058  14.9143  16.0579  16.9128
    23.0874  25.9427  27.8834  34.5784

     the Fermi energy is    16.9369 ev

!    total energy              =    -198.64273111 Ry
     Harris-Foulkes estimate   =    -198.64273117 Ry
     estimated scf accuracy    <       0.00000007 Ry

     The total energy is the sum of the following terms:

     one-electron contribution =     -47.91763412 Ry
     hartree contribution      =      37.11407807 Ry
     xc contribution           =     -31.34185536 Ry
     ewald contribution        =    -156.49662553 Ry
     smearing contrib. (-TS)   =      -0.00069418 Ry

     convergence has been achieved in   8 iterations

     Writing output data file Pd-kp-conv.save/
 
     init_run     :      0.35s CPU      0.37s WALL (       1 calls)
     electrons    :      0.38s CPU      0.43s WALL (       1 calls)

     Called by init_run:
     wfcinit      :      0.01s CPU      0.01s WALL (       1 calls)
     potinit      :      0.00s CPU      0.02s WALL (       1 calls)
     hinit0       :      0.32s CPU      0.32s WALL (       1 calls)

     Called by electrons:
     c_bands      :      0.21s CPU      0.23s WALL (       8 calls)
     sum_band     :      0.10s CPU      0.10s WALL (       8 calls)
     v_of_rho     :      0.03s CPU      0.03s WALL (       9 calls)
     newd         :      0.05s CPU      0.05s WALL (       9 calls)
     mix_rho      :      0.00s CPU      0.00s WALL (       8 calls)

     Called by c_bands:
     init_us_2    :      0.01s CPU      0.01s WALL (      68 calls)
     cegterg      :      0.19s CPU      0.21s WALL (      32 calls)

     Called by sum_band:
     sum_band:bec :      0.00s CPU      0.00s WALL (      32 calls)
     addusdens    :      0.05s CPU      0.05s WALL (       8 calls)

     Called by *egterg:
     h_psi        :      0.15s CPU      0.17s WALL (     104 calls)
     s_psi        :      0.00s CPU      0.00s WALL (     104 calls)
     g_psi        :      0.00s CPU      0.00s WALL (      68 calls)
     cdiaghg      :      0.03s CPU      0.03s WALL (     100 calls)

     Called by h_psi:
     h_psi:pot    :      0.15s CPU      0.17s WALL (     104 calls)
     h_psi:calbec :      0.00s CPU      0.00s WALL (     104 calls)
     vloc_psi     :      0.14s CPU      0.16s WALL (     104 calls)
     add_vuspsi   :      0.00s CPU      0.00s WALL (     104 calls)

     General routines
     calbec       :      0.01s CPU      0.01s WALL (     136 calls)
     fft          :      0.01s CPU      0.01s WALL (     100 calls)
     ffts         :      0.00s CPU      0.00s WALL (       8 calls)
     fftw         :      0.15s CPU      0.16s WALL (    2334 calls)
 
     Parallel routines
     fft_scatt_xy :      0.03s CPU      0.03s WALL (    2442 calls)
     fft_scatt_yz :      0.04s CPU      0.05s WALL (    2442 calls)
 
     PWSCF        :     0.82s CPU         0.98s WALL

 
   This run was terminated on:  20:28:14   2Dec2021            

=------------------------------------------------------------------------------=
   JOB DONE.
=------------------------------------------------------------------------------=
