
     Program PWSCF v.6.3 starts on  2Dec2021 at 20:28: 4 

     This program is part of the open-source Quantum ESPRESSO suite
     for quantum simulation of materials; please cite
         "P. Giannozzi et al., J. Phys.:Condens. Matter 21 395502 (2009);
         "P. Giannozzi et al., J. Phys.:Condens. Matter 29 465901 (2017);
          URL http://www.quantum-espresso.org", 
     in publications or presentations arising from this work. More details at
     http://www.quantum-espresso.org/quote

     Parallel version (MPI & OpenMP), running on       2 processor cores
     Number of MPI processes:                 2
     Threads/MPI process:                     1

     MPI processes distributed on     1 nodes
     R & G space division:  proc/nbgrp/npool/nimage =       2
     Reading input from pw-input.in

     Current dimensions of program PWSCF are:
     Max number of different atomic species (ntypx) = 10
     Max number of k-points (npk) =  40000
     Max angular momentum in pseudopotentials (lmaxx) =  3

     Subspace diagonalization in iterative solution of the eigenvalue problem:
     a serial algorithm will be used

 
     Parallelization info
     --------------------
     sticks:   dense  smooth     PW     G-vecs:    dense   smooth      PW
     Min         120     120     42                 1221     1221     229
     Max         121     121     43                 1224     1224     230
     Sum         241     241     85                 2445     2445     459
 

     Title: 
     Pd-kp-conv                                                                 


     bravais-lattice index     =            2
     lattice parameter (alat)  =       7.1000  a.u.
     unit-cell volume          =      89.4777 (a.u.)^3
     number of atoms/cell      =            1
     number of atomic types    =            1
     number of electrons       =        16.00
     number of Kohn-Sham states=           12
     kinetic-energy cutoff     =      35.0000  Ry
     charge density cutoff     =     140.0000  Ry
     convergence threshold     =      1.0E-07
     mixing beta               =       0.7000
     number of iterations used =            8  plain     mixing
     Exchange-correlation      =  SLA  PW   PBX  PBC ( 1  4  3  4 0 0)

     celldm(1)=   7.100000  celldm(2)=   0.000000  celldm(3)=   0.000000
     celldm(4)=   0.000000  celldm(5)=   0.000000  celldm(6)=   0.000000

     crystal axes: (cart. coord. in units of alat)
               a(1) = (  -0.500000   0.000000   0.500000 )  
               a(2) = (   0.000000   0.500000   0.500000 )  
               a(3) = (  -0.500000   0.500000   0.000000 )  

     reciprocal axes: (cart. coord. in units 2 pi/alat)
               b(1) = ( -1.000000 -1.000000  1.000000 )  
               b(2) = (  1.000000  1.000000  1.000000 )  
               b(3) = ( -1.000000  1.000000 -1.000000 )  


     PseudoPot. # 1 for Pd read from file:
     ./pd_pbe_v1.4.uspp.F.UPF
     MD5 check sum: 2d733d2bc2cbfd217af676df1668a4bc
     Pseudo is Ultrasoft + core correction, Zval = 16.0
     Generated by new atomic code, or converted to UPF format
     Using radial grid of  887 points,  6 beta functions with: 
                l(1) =   0
                l(2) =   0
                l(3) =   1
                l(4) =   1
                l(5) =   2
                l(6) =   2
     Q(r) pseudized with  8 coefficients,  rinner =    1.130   1.130   1.130
                                                       1.130   1.130

     atomic species   valence    mass     pseudopotential
        Pd            16.00   106.40000     Pd( 1.00)

     48 Sym. Ops., with inversion, found



   Cartesian axes

     site n.     atom                  positions (alat units)
         1           Pd  tau(   1) = (   0.0000000   0.0000000   0.0000000  )

     number of k points=     4  Marzari-Vanderbilt smearing, width (Ry)=  0.0050
                       cart. coord. in units 2pi/alat
        k(    1) = (   0.0000000   0.0000000   0.0000000), wk =   0.0740741
        k(    2) = (  -0.3333333   0.3333333  -0.3333333), wk =   0.5925926
        k(    3) = (   0.0000000   0.6666667   0.0000000), wk =   0.4444444
        k(    4) = (   0.6666667  -0.0000000   0.6666667), wk =   0.8888889

     Dense  grid:     2445 G-vectors     FFT dimensions: (  20,  20,  20)

     Estimated max dynamical RAM per process >       5.54 MB

     Estimated total dynamical RAM >      11.07 MB

     Initial potential from superposition of free atoms
     Check: negative starting charge=   -0.083979

     starting charge   15.49999, renormalised to   16.00000

     negative rho (up, down):  8.669E-02 0.000E+00
     Starting wfcs are   12 randomized atomic wfcs

     total cpu time spent up to now is        0.5 secs

     Self-consistent Calculation

     iteration #  1     ecut=    35.00 Ry     beta= 0.70
     Davidson diagonalization with overlap
     ethr =  1.00E-02,  avg # of iterations =  4.0

     negative rho (up, down):  8.687E-02 0.000E+00

     total cpu time spent up to now is        0.5 secs

     total energy              =    -198.23643794 Ry
     Harris-Foulkes estimate   =    -198.92803268 Ry
     estimated scf accuracy    <       0.96753619 Ry

     iteration #  2     ecut=    35.00 Ry     beta= 0.70
     Davidson diagonalization with overlap
     ethr =  6.05E-03,  avg # of iterations =  2.0

     negative rho (up, down):  8.787E-02 0.000E+00

     total cpu time spent up to now is        0.6 secs

     total energy              =    -198.38535062 Ry
     Harris-Foulkes estimate   =    -198.84569954 Ry
     estimated scf accuracy    <       0.93116287 Ry

     iteration #  3     ecut=    35.00 Ry     beta= 0.70
     Davidson diagonalization with overlap
     ethr =  5.82E-03,  avg # of iterations =  2.0

     negative rho (up, down):  8.974E-02 0.000E+00

     total cpu time spent up to now is        0.6 secs

     total energy              =    -198.59397745 Ry
     Harris-Foulkes estimate   =    -198.62086220 Ry
     estimated scf accuracy    <       0.03945007 Ry

     iteration #  4     ecut=    35.00 Ry     beta= 0.70
     Davidson diagonalization with overlap
     ethr =  2.47E-04,  avg # of iterations =  2.0

     negative rho (up, down):  8.943E-02 0.000E+00

     total cpu time spent up to now is        0.7 secs

     total energy              =    -198.62156954 Ry
     Harris-Foulkes estimate   =    -198.63525449 Ry
     estimated scf accuracy    <       0.06902931 Ry

     iteration #  5     ecut=    35.00 Ry     beta= 0.70
     Davidson diagonalization with overlap
     ethr =  2.47E-04,  avg # of iterations =  1.0

     negative rho (up, down):  8.957E-02 0.000E+00

     total cpu time spent up to now is        0.7 secs

     total energy              =    -198.62537623 Ry
     Harris-Foulkes estimate   =    -198.62289624 Ry
     estimated scf accuracy    <       0.03224591 Ry

     iteration #  6     ecut=    35.00 Ry     beta= 0.70
     Davidson diagonalization with overlap
     ethr =  2.02E-04,  avg # of iterations =  1.0

     negative rho (up, down):  8.865E-02 0.000E+00

     total cpu time spent up to now is        0.8 secs

     total energy              =    -198.61030023 Ry
     Harris-Foulkes estimate   =    -198.62545522 Ry
     estimated scf accuracy    <       0.03990555 Ry

     iteration #  7     ecut=    35.00 Ry     beta= 0.70
     Davidson diagonalization with overlap
     ethr =  2.02E-04,  avg # of iterations =  2.0

     negative rho (up, down):  8.833E-02 0.000E+00

     total cpu time spent up to now is        0.8 secs

     total energy              =    -198.61188776 Ry
     Harris-Foulkes estimate   =    -198.61371493 Ry
     estimated scf accuracy    <       0.00382668 Ry

     iteration #  8     ecut=    35.00 Ry     beta= 0.70
     Davidson diagonalization with overlap
     ethr =  2.39E-05,  avg # of iterations =  2.0

     negative rho (up, down):  8.915E-02 0.000E+00

     total cpu time spent up to now is        0.8 secs

     total energy              =    -198.60947540 Ry
     Harris-Foulkes estimate   =    -198.61387614 Ry
     estimated scf accuracy    <       0.01006858 Ry

     iteration #  9     ecut=    35.00 Ry     beta= 0.70
     Davidson diagonalization with overlap
     ethr =  2.39E-05,  avg # of iterations =  2.0

     negative rho (up, down):  8.956E-02 0.000E+00

     total cpu time spent up to now is        0.9 secs

     total energy              =    -198.61659973 Ry
     Harris-Foulkes estimate   =    -198.61512816 Ry
     estimated scf accuracy    <       0.00857087 Ry

     iteration # 10     ecut=    35.00 Ry     beta= 0.70
     Davidson diagonalization with overlap
     ethr =  2.39E-05,  avg # of iterations =  1.0

     negative rho (up, down):  8.926E-02 0.000E+00

     total cpu time spent up to now is        0.9 secs

     total energy              =    -198.61470636 Ry
     Harris-Foulkes estimate   =    -198.61670566 Ry
     estimated scf accuracy    <       0.01360021 Ry

     iteration # 11     ecut=    35.00 Ry     beta= 0.70
     Davidson diagonalization with overlap
     ethr =  2.39E-05,  avg # of iterations =  1.0

     negative rho (up, down):  8.893E-02 0.000E+00

     total cpu time spent up to now is        1.0 secs

     total energy              =    -198.61331665 Ry
     Harris-Foulkes estimate   =    -198.61485080 Ry
     estimated scf accuracy    <       0.00773059 Ry

     iteration # 12     ecut=    35.00 Ry     beta= 0.70
     Davidson diagonalization with overlap
     ethr =  2.39E-05,  avg # of iterations =  1.0

     negative rho (up, down):  8.885E-02 0.000E+00

     total cpu time spent up to now is        1.0 secs

     total energy              =    -198.61322598 Ry
     Harris-Foulkes estimate   =    -198.61349042 Ry
     estimated scf accuracy    <       0.00298380 Ry

     iteration # 13     ecut=    35.00 Ry     beta= 0.70
     Davidson diagonalization with overlap
     ethr =  1.86E-05,  avg # of iterations =  1.0

     negative rho (up, down):  8.888E-02 0.000E+00

     total cpu time spent up to now is        1.0 secs

     total energy              =    -198.61334507 Ry
     Harris-Foulkes estimate   =    -198.61324884 Ry
     estimated scf accuracy    <       0.00172406 Ry

     iteration # 14     ecut=    35.00 Ry     beta= 0.70
     Davidson diagonalization with overlap
     ethr =  1.08E-05,  avg # of iterations =  1.0

     negative rho (up, down):  8.853E-02 0.000E+00

     total cpu time spent up to now is        1.1 secs

     total energy              =    -198.61239582 Ry
     Harris-Foulkes estimate   =    -198.61335078 Ry
     estimated scf accuracy    <       0.00229883 Ry

     iteration # 15     ecut=    35.00 Ry     beta= 0.70
     Davidson diagonalization with overlap
     ethr =  1.08E-05,  avg # of iterations =  2.0

     negative rho (up, down):  8.854E-02 0.000E+00

     total cpu time spent up to now is        1.1 secs

     total energy              =    -198.61332003 Ry
     Harris-Foulkes estimate   =    -198.61340789 Ry
     estimated scf accuracy    <       0.00456151 Ry

     iteration # 16     ecut=    35.00 Ry     beta= 0.70
     Davidson diagonalization with overlap
     ethr =  1.08E-05,  avg # of iterations =  1.0

     negative rho (up, down):  8.857E-02 0.000E+00

     total cpu time spent up to now is        1.1 secs

     total energy              =    -198.61321641 Ry
     Harris-Foulkes estimate   =    -198.61332496 Ry
     estimated scf accuracy    <       0.00356731 Ry

     iteration # 17     ecut=    35.00 Ry     beta= 0.70
     Davidson diagonalization with overlap
     ethr =  1.08E-05,  avg # of iterations =  1.0

     negative rho (up, down):  8.858E-02 0.000E+00

     total cpu time spent up to now is        1.2 secs

     total energy              =    -198.61319996 Ry
     Harris-Foulkes estimate   =    -198.61322529 Ry
     estimated scf accuracy    <       0.00237811 Ry

     iteration # 18     ecut=    35.00 Ry     beta= 0.70
     Davidson diagonalization with overlap
     ethr =  1.08E-05,  avg # of iterations =  1.0

     negative rho (up, down):  8.860E-02 0.000E+00

     total cpu time spent up to now is        1.2 secs

     total energy              =    -198.61310363 Ry
     Harris-Foulkes estimate   =    -198.61320067 Ry
     estimated scf accuracy    <       0.00208423 Ry

     iteration # 19     ecut=    35.00 Ry     beta= 0.70
     Davidson diagonalization with overlap
     ethr =  1.08E-05,  avg # of iterations =  1.0

     negative rho (up, down):  8.865E-02 0.000E+00

     total cpu time spent up to now is        1.3 secs

     total energy              =    -198.61303479 Ry
     Harris-Foulkes estimate   =    -198.61311565 Ry
     estimated scf accuracy    <       0.00108606 Ry

     iteration # 20     ecut=    35.00 Ry     beta= 0.70
     Davidson diagonalization with overlap
     ethr =  6.79E-06,  avg # of iterations =  1.0

     negative rho (up, down):  8.873E-02 0.000E+00

     total cpu time spent up to now is        1.3 secs

     total energy              =    -198.61296496 Ry
     Harris-Foulkes estimate   =    -198.61305075 Ry
     estimated scf accuracy    <       0.00034869 Ry

     iteration # 21     ecut=    35.00 Ry     beta= 0.70
     Davidson diagonalization with overlap
     ethr =  2.18E-06,  avg # of iterations =  1.0

     negative rho (up, down):  8.874E-02 0.000E+00

     total cpu time spent up to now is        1.3 secs

     total energy              =    -198.61302658 Ry
     Harris-Foulkes estimate   =    -198.61302454 Ry
     estimated scf accuracy    <       0.00005963 Ry

     iteration # 22     ecut=    35.00 Ry     beta= 0.70
     Davidson diagonalization with overlap
     ethr =  3.73E-07,  avg # of iterations =  1.0

     negative rho (up, down):  8.872E-02 0.000E+00

     total cpu time spent up to now is        1.4 secs

     total energy              =    -198.61301983 Ry
     Harris-Foulkes estimate   =    -198.61302677 Ry
     estimated scf accuracy    <       0.00008025 Ry

     iteration # 23     ecut=    35.00 Ry     beta= 0.70
     Davidson diagonalization with overlap
     ethr =  3.73E-07,  avg # of iterations =  1.0

     negative rho (up, down):  8.872E-02 0.000E+00

     total cpu time spent up to now is        1.4 secs

     total energy              =    -198.61301816 Ry
     Harris-Foulkes estimate   =    -198.61302112 Ry
     estimated scf accuracy    <       0.00002640 Ry

     iteration # 24     ecut=    35.00 Ry     beta= 0.70
     Davidson diagonalization with overlap
     ethr =  1.65E-07,  avg # of iterations =  1.0

     negative rho (up, down):  8.871E-02 0.000E+00

     total cpu time spent up to now is        1.4 secs

     total energy              =    -198.61301845 Ry
     Harris-Foulkes estimate   =    -198.61301892 Ry
     estimated scf accuracy    <       0.00000469 Ry

     iteration # 25     ecut=    35.00 Ry     beta= 0.70
     Davidson diagonalization with overlap
     ethr =  2.93E-08,  avg # of iterations =  1.0

     negative rho (up, down):  8.871E-02 0.000E+00

     total cpu time spent up to now is        1.5 secs

     total energy              =    -198.61301841 Ry
     Harris-Foulkes estimate   =    -198.61301856 Ry
     estimated scf accuracy    <       0.00000107 Ry

     iteration # 26     ecut=    35.00 Ry     beta= 0.70
     Davidson diagonalization with overlap
     ethr =  6.69E-09,  avg # of iterations =  1.0

     negative rho (up, down):  8.871E-02 0.000E+00

     total cpu time spent up to now is        1.5 secs

     End of self-consistent calculation

          k = 0.0000 0.0000 0.0000 (   331 PWs)   bands (ev):

   -28.3591 -28.3591 -28.3591  13.5994  18.2423  18.2423  18.2423  20.1049
    20.1049  39.7227  45.0831  45.0831

          k =-0.3333 0.3333-0.3333 (   308 PWs)   bands (ev):

   -28.8122 -28.4222 -28.4222  15.5959  18.3954  18.3954  19.5125  20.8497
    20.8497  34.0946  40.0048  46.4159

          k = 0.0000 0.6667 0.0000 (   315 PWs)   bands (ev):

   -28.7900 -28.5260 -28.5260  15.8253  16.1557  20.7378  20.7378  21.0821
    21.1330  38.4924  38.4924  38.6652

          k = 0.6667-0.0000 0.6667 (   309 PWs)   bands (ev):

   -28.7654 -28.7622 -28.5058  16.4197  17.2996  18.4523  19.9171  21.0430
    28.1412  31.3844  33.6510  40.7511

     the Fermi energy is    21.0633 ev

!    total energy              =    -198.61301839 Ry
     Harris-Foulkes estimate   =    -198.61301846 Ry
     estimated scf accuracy    <       0.00000009 Ry

     The total energy is the sum of the following terms:

     one-electron contribution =     -34.43382400 Ry
     hartree contribution      =      32.59867234 Ry
     xc contribution           =     -31.46352371 Ry
     ewald contribution        =    -165.31333683 Ry
     smearing contrib. (-TS)   =      -0.00100619 Ry

     convergence has been achieved in  26 iterations

     Writing output data file Pd-kp-conv.save/
 
     init_run     :      0.33s CPU      0.36s WALL (       1 calls)
     electrons    :      0.98s CPU      1.41s WALL (       1 calls)

     Called by init_run:
     wfcinit      :      0.01s CPU      0.01s WALL (       1 calls)
     potinit      :      0.01s CPU      0.01s WALL (       1 calls)
     hinit0       :      0.30s CPU      0.31s WALL (       1 calls)

     Called by electrons:
     c_bands      :      0.52s CPU      0.57s WALL (      26 calls)
     sum_band     :      0.26s CPU      0.27s WALL (      26 calls)
     v_of_rho     :      0.07s CPU      0.08s WALL (      27 calls)
     newd         :      0.12s CPU      0.13s WALL (      27 calls)
     mix_rho      :      0.01s CPU      0.01s WALL (      26 calls)

     Called by c_bands:
     init_us_2    :      0.02s CPU      0.02s WALL (     212 calls)
     cegterg      :      0.48s CPU      0.52s WALL (     104 calls)

     Called by sum_band:
     sum_band:bec :      0.00s CPU      0.00s WALL (     104 calls)
     addusdens    :      0.14s CPU      0.14s WALL (      26 calls)

     Called by *egterg:
     h_psi        :      0.39s CPU      0.42s WALL (     252 calls)
     s_psi        :      0.01s CPU      0.01s WALL (     252 calls)
     g_psi        :      0.00s CPU      0.00s WALL (     144 calls)
     cdiaghg      :      0.05s CPU      0.06s WALL (     248 calls)

     Called by h_psi:
     h_psi:pot    :      0.39s CPU      0.42s WALL (     252 calls)
     h_psi:calbec :      0.01s CPU      0.01s WALL (     252 calls)
     vloc_psi     :      0.37s CPU      0.40s WALL (     252 calls)
     add_vuspsi   :      0.01s CPU      0.01s WALL (     252 calls)

     General routines
     calbec       :      0.01s CPU      0.01s WALL (     356 calls)
     fft          :      0.03s CPU      0.03s WALL (     298 calls)
     ffts         :      0.00s CPU      0.00s WALL (      26 calls)
     fftw         :      0.39s CPU      0.43s WALL (    6654 calls)
 
     Parallel routines
     fft_scatt_xy :      0.08s CPU      0.08s WALL (    6978 calls)
     fft_scatt_yz :      0.11s CPU      0.12s WALL (    6978 calls)
 
     PWSCF        :     1.40s CPU         1.91s WALL

 
   This run was terminated on:  20:28: 6   2Dec2021            

=------------------------------------------------------------------------------=
   JOB DONE.
=------------------------------------------------------------------------------=
