
     Program PWSCF v.6.3 starts on  2Dec2021 at 20:28:28 

     This program is part of the open-source Quantum ESPRESSO suite
     for quantum simulation of materials; please cite
         "P. Giannozzi et al., J. Phys.:Condens. Matter 21 395502 (2009);
         "P. Giannozzi et al., J. Phys.:Condens. Matter 29 465901 (2017);
          URL http://www.quantum-espresso.org", 
     in publications or presentations arising from this work. More details at
     http://www.quantum-espresso.org/quote

     Parallel version (MPI & OpenMP), running on       2 processor cores
     Number of MPI processes:                 2
     Threads/MPI process:                     1

     MPI processes distributed on     1 nodes
     R & G space division:  proc/nbgrp/npool/nimage =       2
     Reading input from pw-input.in

     Current dimensions of program PWSCF are:
     Max number of different atomic species (ntypx) = 10
     Max number of k-points (npk) =  40000
     Max angular momentum in pseudopotentials (lmaxx) =  3

     Subspace diagonalization in iterative solution of the eigenvalue problem:
     a serial algorithm will be used

 
     Parallelization info
     --------------------
     sticks:   dense  smooth     PW     G-vecs:    dense   smooth      PW
     Min         168     168     54                 2007     2007     362
     Max         169     169     55                 2008     2008     363
     Sum         337     337    109                 4015     4015     725
 

     Title: 
     Pd-kp-conv                                                                 


     bravais-lattice index     =            2
     lattice parameter (alat)  =       8.3000  a.u.
     unit-cell volume          =     142.9468 (a.u.)^3
     number of atoms/cell      =            1
     number of atomic types    =            1
     number of electrons       =        16.00
     number of Kohn-Sham states=           12
     kinetic-energy cutoff     =      35.0000  Ry
     charge density cutoff     =     140.0000  Ry
     convergence threshold     =      1.0E-07
     mixing beta               =       0.7000
     number of iterations used =            8  plain     mixing
     Exchange-correlation      =  SLA  PW   PBX  PBC ( 1  4  3  4 0 0)

     celldm(1)=   8.300000  celldm(2)=   0.000000  celldm(3)=   0.000000
     celldm(4)=   0.000000  celldm(5)=   0.000000  celldm(6)=   0.000000

     crystal axes: (cart. coord. in units of alat)
               a(1) = (  -0.500000   0.000000   0.500000 )  
               a(2) = (   0.000000   0.500000   0.500000 )  
               a(3) = (  -0.500000   0.500000   0.000000 )  

     reciprocal axes: (cart. coord. in units 2 pi/alat)
               b(1) = ( -1.000000 -1.000000  1.000000 )  
               b(2) = (  1.000000  1.000000  1.000000 )  
               b(3) = ( -1.000000  1.000000 -1.000000 )  


     PseudoPot. # 1 for Pd read from file:
     ./pd_pbe_v1.4.uspp.F.UPF
     MD5 check sum: 2d733d2bc2cbfd217af676df1668a4bc
     Pseudo is Ultrasoft + core correction, Zval = 16.0
     Generated by new atomic code, or converted to UPF format
     Using radial grid of  887 points,  6 beta functions with: 
                l(1) =   0
                l(2) =   0
                l(3) =   1
                l(4) =   1
                l(5) =   2
                l(6) =   2
     Q(r) pseudized with  8 coefficients,  rinner =    1.130   1.130   1.130
                                                       1.130   1.130

     atomic species   valence    mass     pseudopotential
        Pd            16.00   106.40000     Pd( 1.00)

     48 Sym. Ops., with inversion, found



   Cartesian axes

     site n.     atom                  positions (alat units)
         1           Pd  tau(   1) = (   0.0000000   0.0000000   0.0000000  )

     number of k points=     4  Marzari-Vanderbilt smearing, width (Ry)=  0.0050
                       cart. coord. in units 2pi/alat
        k(    1) = (   0.0000000   0.0000000   0.0000000), wk =   0.0740741
        k(    2) = (  -0.3333333   0.3333333  -0.3333333), wk =   0.5925926
        k(    3) = (   0.0000000   0.6666667   0.0000000), wk =   0.4444444
        k(    4) = (   0.6666667  -0.0000000   0.6666667), wk =   0.8888889

     Dense  grid:     4015 G-vectors     FFT dimensions: (  24,  24,  24)

     Estimated max dynamical RAM per process >       8.59 MB

     Estimated total dynamical RAM >      17.18 MB

     Initial potential from superposition of free atoms
     Check: negative starting charge=   -0.082880

     starting charge   15.49999, renormalised to   16.00000

     negative rho (up, down):  8.555E-02 0.000E+00
     Starting wfcs are   12 randomized atomic wfcs

     total cpu time spent up to now is        0.5 secs

     Self-consistent Calculation

     iteration #  1     ecut=    35.00 Ry     beta= 0.70
     Davidson diagonalization with overlap
     ethr =  1.00E-02,  avg # of iterations =  3.0

     negative rho (up, down):  8.273E-02 0.000E+00

     total cpu time spent up to now is        0.6 secs

     total energy              =    -197.80470586 Ry
     Harris-Foulkes estimate   =    -199.05173048 Ry
     estimated scf accuracy    <       1.68669907 Ry

     iteration #  2     ecut=    35.00 Ry     beta= 0.70
     Davidson diagonalization with overlap
     ethr =  1.00E-02,  avg # of iterations =  2.0

     negative rho (up, down):  8.498E-02 0.000E+00

     total cpu time spent up to now is        0.7 secs

     total energy              =    -198.21955136 Ry
     Harris-Foulkes estimate   =    -199.40218320 Ry
     estimated scf accuracy    <       2.56840874 Ry

     iteration #  3     ecut=    35.00 Ry     beta= 0.70
     Davidson diagonalization with overlap
     ethr =  1.00E-02,  avg # of iterations =  2.0

     negative rho (up, down):  8.509E-02 0.000E+00

     total cpu time spent up to now is        0.7 secs

     total energy              =    -198.61868690 Ry
     Harris-Foulkes estimate   =    -198.61873286 Ry
     estimated scf accuracy    <       0.00045787 Ry

     iteration #  4     ecut=    35.00 Ry     beta= 0.70
     Davidson diagonalization with overlap
     ethr =  2.86E-06,  avg # of iterations =  3.5

     negative rho (up, down):  8.519E-02 0.000E+00

     total cpu time spent up to now is        0.8 secs

     total energy              =    -198.61892692 Ry
     Harris-Foulkes estimate   =    -198.61891984 Ry
     estimated scf accuracy    <       0.00001275 Ry

     iteration #  5     ecut=    35.00 Ry     beta= 0.70
     Davidson diagonalization with overlap
     ethr =  7.97E-08,  avg # of iterations =  1.8

     negative rho (up, down):  8.522E-02 0.000E+00

     total cpu time spent up to now is        0.9 secs

     total energy              =    -198.61892819 Ry
     Harris-Foulkes estimate   =    -198.61892751 Ry
     estimated scf accuracy    <       0.00000153 Ry

     iteration #  6     ecut=    35.00 Ry     beta= 0.70
     Davidson diagonalization with overlap
     ethr =  9.59E-09,  avg # of iterations =  2.0

     negative rho (up, down):  8.522E-02 0.000E+00

     total cpu time spent up to now is        0.9 secs

     End of self-consistent calculation

          k = 0.0000 0.0000 0.0000 (   531 PWs)   bands (ev):

   -37.9492 -37.9492 -37.9492   6.3080   9.4197   9.4197   9.4197  10.2702
    10.2702  27.8629  30.5225  30.5225

          k =-0.3333 0.3333-0.3333 (   492 PWs)   bands (ev):

   -38.0250 -37.9604 -37.9604   7.9628   9.5079   9.5079  10.3166  10.6295
    10.6295  19.8604  27.6786  29.4791

          k = 0.0000 0.6667 0.0000 (   500 PWs)   bands (ev):

   -38.0219 -37.9786 -37.9786   8.2310   8.4511  10.5898  10.5898  10.7409
    11.2192  23.6054  24.0195  24.0195

          k = 0.6667-0.0000 0.6667 (   506 PWs)   bands (ev):

   -38.0186 -38.0183 -37.9756   8.5822   9.0361   9.5731  10.2309  10.7164
    15.7298  18.1231  19.3933  25.3962

     the Fermi energy is    10.7234 ev

!    total energy              =    -198.61892829 Ry
     Harris-Foulkes estimate   =    -198.61892829 Ry
     estimated scf accuracy    <          4.5E-09 Ry

     The total energy is the sum of the following terms:

     one-electron contribution =     -71.65661727 Ry
     hartree contribution      =      45.63288641 Ry
     xc contribution           =     -31.18297381 Ry
     ewald contribution        =    -141.41261342 Ry
     smearing contrib. (-TS)   =       0.00038980 Ry

     convergence has been achieved in   6 iterations

     Writing output data file Pd-kp-conv.save/
 
     init_run     :      0.38s CPU      0.40s WALL (       1 calls)
     electrons    :      0.40s CPU      0.47s WALL (       1 calls)

     Called by init_run:
     wfcinit      :      0.02s CPU      0.02s WALL (       1 calls)
     potinit      :      0.01s CPU      0.02s WALL (       1 calls)
     hinit0       :      0.33s CPU      0.34s WALL (       1 calls)

     Called by electrons:
     c_bands      :      0.22s CPU      0.24s WALL (       6 calls)
     sum_band     :      0.10s CPU      0.10s WALL (       6 calls)
     v_of_rho     :      0.03s CPU      0.04s WALL (       7 calls)
     newd         :      0.06s CPU      0.06s WALL (       7 calls)
     mix_rho      :      0.00s CPU      0.00s WALL (       6 calls)

     Called by c_bands:
     init_us_2    :      0.01s CPU      0.01s WALL (      52 calls)
     cegterg      :      0.20s CPU      0.22s WALL (      24 calls)

     Called by sum_band:
     sum_band:bec :      0.00s CPU      0.00s WALL (      24 calls)
     addusdens    :      0.05s CPU      0.05s WALL (       6 calls)

     Called by *egterg:
     h_psi        :      0.18s CPU      0.19s WALL (      85 calls)
     s_psi        :      0.00s CPU      0.00s WALL (      85 calls)
     g_psi        :      0.00s CPU      0.00s WALL (      57 calls)
     cdiaghg      :      0.02s CPU      0.02s WALL (      81 calls)

     Called by h_psi:
     h_psi:pot    :      0.18s CPU      0.19s WALL (      85 calls)
     h_psi:calbec :      0.00s CPU      0.00s WALL (      85 calls)
     vloc_psi     :      0.17s CPU      0.18s WALL (      85 calls)
     add_vuspsi   :      0.00s CPU      0.00s WALL (      85 calls)

     General routines
     calbec       :      0.00s CPU      0.01s WALL (     109 calls)
     fft          :      0.01s CPU      0.02s WALL (      78 calls)
     ffts         :      0.00s CPU      0.00s WALL (       6 calls)
     fftw         :      0.17s CPU      0.19s WALL (    1794 calls)
 
     Parallel routines
     fft_scatt_xy :      0.03s CPU      0.04s WALL (    1878 calls)
     fft_scatt_yz :      0.04s CPU      0.05s WALL (    1878 calls)
 
     PWSCF        :     0.85s CPU         1.32s WALL

 
   This run was terminated on:  20:28:30   2Dec2021            

=------------------------------------------------------------------------------=
   JOB DONE.
=------------------------------------------------------------------------------=
