
     Program PWSCF v.6.3 starts on  2Dec2021 at 21:23:40 

     This program is part of the open-source Quantum ESPRESSO suite
     for quantum simulation of materials; please cite
         "P. Giannozzi et al., J. Phys.:Condens. Matter 21 395502 (2009);
         "P. Giannozzi et al., J. Phys.:Condens. Matter 29 465901 (2017);
          URL http://www.quantum-espresso.org", 
     in publications or presentations arising from this work. More details at
     http://www.quantum-espresso.org/quote

     Parallel version (MPI & OpenMP), running on       2 processor cores
     Number of MPI processes:                 2
     Threads/MPI process:                     1

     MPI processes distributed on     1 nodes
     R & G space division:  proc/nbgrp/npool/nimage =       2
     Reading input from pw-input.in

     Current dimensions of program PWSCF are:
     Max number of different atomic species (ntypx) = 10
     Max number of k-points (npk) =  40000
     Max angular momentum in pseudopotentials (lmaxx) =  3

     Subspace diagonalization in iterative solution of the eigenvalue problem:
     a serial algorithm will be used

 
     Parallelization info
     --------------------
     sticks:   dense  smooth     PW     G-vecs:    dense   smooth      PW
     Min         126     126     42                 1318     1318     267
     Max         127     127     43                 1319     1319     270
     Sum         253     253     85                 2637     2637     537
 

     Title: 
     Pd-kp-conv                                                                 


     bravais-lattice index     =            2
     lattice parameter (alat)  =       7.2000  a.u.
     unit-cell volume          =      93.3120 (a.u.)^3
     number of atoms/cell      =            1
     number of atomic types    =            1
     number of electrons       =        16.00
     number of Kohn-Sham states=           12
     kinetic-energy cutoff     =      35.0000  Ry
     charge density cutoff     =     140.0000  Ry
     convergence threshold     =      1.0E-07
     mixing beta               =       0.7000
     number of iterations used =            8  plain     mixing
     Exchange-correlation      =  SLA  PW   PBX  PBC ( 1  4  3  4 0 0)

     celldm(1)=   7.200000  celldm(2)=   0.000000  celldm(3)=   0.000000
     celldm(4)=   0.000000  celldm(5)=   0.000000  celldm(6)=   0.000000

     crystal axes: (cart. coord. in units of alat)
               a(1) = (  -0.500000   0.000000   0.500000 )  
               a(2) = (   0.000000   0.500000   0.500000 )  
               a(3) = (  -0.500000   0.500000   0.000000 )  

     reciprocal axes: (cart. coord. in units 2 pi/alat)
               b(1) = ( -1.000000 -1.000000  1.000000 )  
               b(2) = (  1.000000  1.000000  1.000000 )  
               b(3) = ( -1.000000  1.000000 -1.000000 )  


     PseudoPot. # 1 for Pd read from file:
     ./pd_pbe_v1.4.uspp.F.UPF
     MD5 check sum: 2d733d2bc2cbfd217af676df1668a4bc
     Pseudo is Ultrasoft + core correction, Zval = 16.0
     Generated by new atomic code, or converted to UPF format
     Using radial grid of  887 points,  6 beta functions with: 
                l(1) =   0
                l(2) =   0
                l(3) =   1
                l(4) =   1
                l(5) =   2
                l(6) =   2
     Q(r) pseudized with  8 coefficients,  rinner =    1.130   1.130   1.130
                                                       1.130   1.130

     atomic species   valence    mass     pseudopotential
        Pd            16.00   106.40000     Pd( 1.00)

     48 Sym. Ops., with inversion, found



   Cartesian axes

     site n.     atom                  positions (alat units)
         1           Pd  tau(   1) = (   0.0000000   0.0000000   0.0000000  )

     number of k points=   195  Marzari-Vanderbilt smearing, width (Ry)=  0.0150

     Number of k-points >= 100: set verbosity='high' to print them.

     Dense  grid:     2637 G-vectors     FFT dimensions: (  20,  20,  20)

     Estimated max dynamical RAM per process >      11.57 MB

     Estimated total dynamical RAM >      23.14 MB

     Initial potential from superposition of free atoms
     Check: negative starting charge=   -0.084445

     starting charge   15.49999, renormalised to   16.00000

     negative rho (up, down):  8.717E-02 0.000E+00
     Starting wfcs are   12 randomized atomic wfcs

     total cpu time spent up to now is        1.0 secs

     Self-consistent Calculation

     iteration #  1     ecut=    35.00 Ry     beta= 0.70
     Davidson diagonalization with overlap
     ethr =  1.00E-02,  avg # of iterations =  3.6

     negative rho (up, down):  8.684E-02 0.000E+00

     total cpu time spent up to now is        2.7 secs

     total energy              =    -198.27597045 Ry
     Harris-Foulkes estimate   =    -198.99130300 Ry
     estimated scf accuracy    <       0.99436359 Ry

     iteration #  2     ecut=    35.00 Ry     beta= 0.70
     Davidson diagonalization with overlap
     ethr =  6.21E-03,  avg # of iterations =  2.0

     negative rho (up, down):  8.809E-02 0.000E+00

     total cpu time spent up to now is        4.2 secs

     total energy              =    -198.53390491 Ry
     Harris-Foulkes estimate   =    -198.92325077 Ry
     estimated scf accuracy    <       0.74315704 Ry

     iteration #  3     ecut=    35.00 Ry     beta= 0.70
     Davidson diagonalization with overlap
     ethr =  4.64E-03,  avg # of iterations =  2.0

     negative rho (up, down):  8.848E-02 0.000E+00

     total cpu time spent up to now is        5.5 secs

     total energy              =    -198.69346160 Ry
     Harris-Foulkes estimate   =    -198.69423520 Ry
     estimated scf accuracy    <       0.00166403 Ry

     iteration #  4     ecut=    35.00 Ry     beta= 0.70
     Davidson diagonalization with overlap
     ethr =  1.04E-05,  avg # of iterations =  2.3

     negative rho (up, down):  8.863E-02 0.000E+00

     total cpu time spent up to now is        7.0 secs

     total energy              =    -198.69396123 Ry
     Harris-Foulkes estimate   =    -198.69396755 Ry
     estimated scf accuracy    <       0.00001803 Ry

     iteration #  5     ecut=    35.00 Ry     beta= 0.70
     Davidson diagonalization with overlap
     ethr =  1.13E-07,  avg # of iterations =  2.0

     negative rho (up, down):  8.868E-02 0.000E+00

     total cpu time spent up to now is        8.5 secs

     total energy              =    -198.69396470 Ry
     Harris-Foulkes estimate   =    -198.69396454 Ry
     estimated scf accuracy    <       0.00000014 Ry

     iteration #  6     ecut=    35.00 Ry     beta= 0.70
     Davidson diagonalization with overlap
     ethr =  8.57E-10,  avg # of iterations =  2.2

     negative rho (up, down):  8.868E-02 0.000E+00

     total cpu time spent up to now is       10.1 secs

     End of self-consistent calculation

     Number of k-points >= 100: set verbosity='high' to print the bands.

     the Fermi energy is    20.4610 ev

!    total energy              =    -198.69396472 Ry
     Harris-Foulkes estimate   =    -198.69396472 Ry
     estimated scf accuracy    <          1.8E-09 Ry

     The total energy is the sum of the following terms:

     one-electron contribution =     -37.99575382 Ry
     hartree contribution      =      33.74695999 Ry
     xc contribution           =     -31.42798720 Ry
     ewald contribution        =    -163.01731824 Ry
     smearing contrib. (-TS)   =       0.00013454 Ry

     convergence has been achieved in   6 iterations

     Writing output data file Pd-kp-conv.save/
 
     init_run     :      0.80s CPU      0.86s WALL (       1 calls)
     electrons    :      7.96s CPU      9.12s WALL (       1 calls)

     Called by init_run:
     wfcinit      :      0.47s CPU      0.51s WALL (       1 calls)
     potinit      :      0.00s CPU      0.02s WALL (       1 calls)
     hinit0       :      0.31s CPU      0.31s WALL (       1 calls)

     Called by electrons:
     c_bands      :      6.77s CPU      7.75s WALL (       6 calls)
     sum_band     :      1.14s CPU      1.26s WALL (       6 calls)
     v_of_rho     :      0.02s CPU      0.02s WALL (       7 calls)
     newd         :      0.03s CPU      0.04s WALL (       7 calls)
     mix_rho      :      0.00s CPU      0.00s WALL (       6 calls)

     Called by c_bands:
     init_us_2    :      0.19s CPU      0.21s WALL (    2535 calls)
     cegterg      :      6.22s CPU      6.80s WALL (    1170 calls)

     Called by sum_band:
     sum_band:bec :      0.01s CPU      0.01s WALL (    1170 calls)
     addusdens    :      0.04s CPU      0.04s WALL (       6 calls)

     Called by *egterg:
     h_psi        :      4.97s CPU      5.45s WALL (    4092 calls)
     s_psi        :      0.09s CPU      0.10s WALL (    4092 calls)
     g_psi        :      0.06s CPU      0.06s WALL (    2727 calls)
     cdiaghg      :      0.96s CPU      1.04s WALL (    3897 calls)

     Called by h_psi:
     h_psi:pot    :      4.94s CPU      5.41s WALL (    4092 calls)
     h_psi:calbec :      0.13s CPU      0.14s WALL (    4092 calls)
     vloc_psi     :      4.70s CPU      5.14s WALL (    4092 calls)
     add_vuspsi   :      0.09s CPU      0.10s WALL (    4092 calls)

     General routines
     calbec       :      0.15s CPU      0.16s WALL (    5262 calls)
     fft          :      0.01s CPU      0.01s WALL (      78 calls)
     ffts         :      0.00s CPU      0.00s WALL (       6 calls)
     fftw         :      4.84s CPU      5.31s WALL (   88076 calls)
 
     Parallel routines
     fft_scatt_xy :      0.88s CPU      0.97s WALL (   88160 calls)
     fft_scatt_yz :      1.23s CPU      1.36s WALL (   88160 calls)
 
     PWSCF        :     8.92s CPU        10.72s WALL

 
   This run was terminated on:  21:23:51   2Dec2021            

=------------------------------------------------------------------------------=
   JOB DONE.
=------------------------------------------------------------------------------=
