
     Program PWSCF v.6.3 starts on  2Dec2021 at 20:57:45 

     This program is part of the open-source Quantum ESPRESSO suite
     for quantum simulation of materials; please cite
         "P. Giannozzi et al., J. Phys.:Condens. Matter 21 395502 (2009);
         "P. Giannozzi et al., J. Phys.:Condens. Matter 29 465901 (2017);
          URL http://www.quantum-espresso.org", 
     in publications or presentations arising from this work. More details at
     http://www.quantum-espresso.org/quote

     Parallel version (MPI & OpenMP), running on       2 processor cores
     Number of MPI processes:                 2
     Threads/MPI process:                     1

     MPI processes distributed on     1 nodes
     R & G space division:  proc/nbgrp/npool/nimage =       2
     Reading input from pw-input.in

     Current dimensions of program PWSCF are:
     Max number of different atomic species (ntypx) = 10
     Max number of k-points (npk) =  40000
     Max angular momentum in pseudopotentials (lmaxx) =  3

     Subspace diagonalization in iterative solution of the eigenvalue problem:
     a serial algorithm will be used

 
     Parallelization info
     --------------------
     sticks:   dense  smooth     PW     G-vecs:    dense   smooth      PW
     Min         141     141     45                 1559     1559     304
     Max         142     142     46                 1560     1560     305
     Sum         283     283     91                 3119     3119     609
 

     Title: 
     Pd-kp-conv                                                                 


     bravais-lattice index     =            2
     lattice parameter (alat)  =       7.6000  a.u.
     unit-cell volume          =     109.7440 (a.u.)^3
     number of atoms/cell      =            1
     number of atomic types    =            1
     number of electrons       =        16.00
     number of Kohn-Sham states=           12
     kinetic-energy cutoff     =      35.0000  Ry
     charge density cutoff     =     140.0000  Ry
     convergence threshold     =      1.0E-07
     mixing beta               =       0.7000
     number of iterations used =            8  plain     mixing
     Exchange-correlation      =  SLA  PW   PBX  PBC ( 1  4  3  4 0 0)

     celldm(1)=   7.600000  celldm(2)=   0.000000  celldm(3)=   0.000000
     celldm(4)=   0.000000  celldm(5)=   0.000000  celldm(6)=   0.000000

     crystal axes: (cart. coord. in units of alat)
               a(1) = (  -0.500000   0.000000   0.500000 )  
               a(2) = (   0.000000   0.500000   0.500000 )  
               a(3) = (  -0.500000   0.500000   0.000000 )  

     reciprocal axes: (cart. coord. in units 2 pi/alat)
               b(1) = ( -1.000000 -1.000000  1.000000 )  
               b(2) = (  1.000000  1.000000  1.000000 )  
               b(3) = ( -1.000000  1.000000 -1.000000 )  


     PseudoPot. # 1 for Pd read from file:
     ./pd_pbe_v1.4.uspp.F.UPF
     MD5 check sum: 2d733d2bc2cbfd217af676df1668a4bc
     Pseudo is Ultrasoft + core correction, Zval = 16.0
     Generated by new atomic code, or converted to UPF format
     Using radial grid of  887 points,  6 beta functions with: 
                l(1) =   0
                l(2) =   0
                l(3) =   1
                l(4) =   1
                l(5) =   2
                l(6) =   2
     Q(r) pseudized with  8 coefficients,  rinner =    1.130   1.130   1.130
                                                       1.130   1.130

     atomic species   valence    mass     pseudopotential
        Pd            16.00   106.40000     Pd( 1.00)

     48 Sym. Ops., with inversion, found



   Cartesian axes

     site n.     atom                  positions (alat units)
         1           Pd  tau(   1) = (   0.0000000   0.0000000   0.0000000  )

     number of k points=   120  Marzari-Vanderbilt smearing, width (Ry)=  0.0100

     Number of k-points >= 100: set verbosity='high' to print them.

     Dense  grid:     3119 G-vectors     FFT dimensions: (  24,  24,  24)

     Estimated max dynamical RAM per process >      11.03 MB

     Estimated total dynamical RAM >      22.05 MB

     Initial potential from superposition of free atoms
     Check: negative starting charge=   -0.079189

     starting charge   15.49999, renormalised to   16.00000

     negative rho (up, down):  8.174E-02 0.000E+00
     Starting wfcs are   12 randomized atomic wfcs

     total cpu time spent up to now is        0.9 secs

     Self-consistent Calculation

     iteration #  1     ecut=    35.00 Ry     beta= 0.70
     Davidson diagonalization with overlap
     ethr =  1.00E-02,  avg # of iterations =  3.6

     negative rho (up, down):  8.054E-02 0.000E+00

     total cpu time spent up to now is        2.3 secs

     total energy              =    -198.13334050 Ry
     Harris-Foulkes estimate   =    -199.04713408 Ry
     estimated scf accuracy    <       1.25532505 Ry

     iteration #  2     ecut=    35.00 Ry     beta= 0.70
     Davidson diagonalization with overlap
     ethr =  7.85E-03,  avg # of iterations =  2.0

     negative rho (up, down):  8.186E-02 0.000E+00

     total cpu time spent up to now is        3.5 secs

     total energy              =    -198.43235261 Ry
     Harris-Foulkes estimate   =    -199.08348894 Ry
     estimated scf accuracy    <       1.31992793 Ry

     iteration #  3     ecut=    35.00 Ry     beta= 0.70
     Davidson diagonalization with overlap
     ethr =  7.85E-03,  avg # of iterations =  2.0

     negative rho (up, down):  8.201E-02 0.000E+00

     total cpu time spent up to now is        4.6 secs

     total energy              =    -198.69895036 Ry
     Harris-Foulkes estimate   =    -198.69974629 Ry
     estimated scf accuracy    <       0.00174226 Ry

     iteration #  4     ecut=    35.00 Ry     beta= 0.70
     Davidson diagonalization with overlap
     ethr =  1.09E-05,  avg # of iterations =  2.5

     negative rho (up, down):  8.216E-02 0.000E+00

     total cpu time spent up to now is        5.8 secs

     total energy              =    -198.69957502 Ry
     Harris-Foulkes estimate   =    -198.69957340 Ry
     estimated scf accuracy    <       0.00000542 Ry

     iteration #  5     ecut=    35.00 Ry     beta= 0.70
     Davidson diagonalization with overlap
     ethr =  3.39E-08,  avg # of iterations =  1.9

     negative rho (up, down):  8.219E-02 0.000E+00

     total cpu time spent up to now is        6.8 secs

     total energy              =    -198.69957597 Ry
     Harris-Foulkes estimate   =    -198.69957578 Ry
     estimated scf accuracy    <       0.00000015 Ry

     iteration #  6     ecut=    35.00 Ry     beta= 0.70
     Davidson diagonalization with overlap
     ethr =  9.63E-10,  avg # of iterations =  2.0

     negative rho (up, down):  8.220E-02 0.000E+00

     total cpu time spent up to now is        8.3 secs

     End of self-consistent calculation

     Number of k-points >= 100: set verbosity='high' to print the bands.

     the Fermi energy is    16.3293 ev

!    total energy              =    -198.69957599 Ry
     Harris-Foulkes estimate   =    -198.69957598 Ry
     estimated scf accuracy    <          2.2E-09 Ry

     The total energy is the sum of the following terms:

     one-electron contribution =     -51.11484359 Ry
     hartree contribution      =      38.15625289 Ry
     xc contribution           =     -31.30370760 Ry
     ewald contribution        =    -154.43745938 Ry
     smearing contrib. (-TS)   =       0.00018169 Ry

     convergence has been achieved in   6 iterations

     Writing output data file Pd-kp-conv.save/
 
     init_run     :      0.73s CPU      0.77s WALL (       1 calls)
     electrons    :      6.65s CPU      7.44s WALL (       1 calls)

     Called by init_run:
     wfcinit      :      0.39s CPU      0.41s WALL (       1 calls)
     potinit      :      0.01s CPU      0.01s WALL (       1 calls)
     hinit0       :      0.32s CPU      0.32s WALL (       1 calls)

     Called by electrons:
     c_bands      :      5.54s CPU      6.20s WALL (       6 calls)
     sum_band     :      1.06s CPU      1.14s WALL (       6 calls)
     v_of_rho     :      0.03s CPU      0.03s WALL (       7 calls)
     newd         :      0.04s CPU      0.04s WALL (       7 calls)
     mix_rho      :      0.00s CPU      0.00s WALL (       6 calls)

     Called by c_bands:
     init_us_2    :      0.14s CPU      0.15s WALL (    1560 calls)
     cegterg      :      5.16s CPU      5.50s WALL (     720 calls)

     Called by sum_band:
     sum_band:bec :      0.01s CPU      0.01s WALL (     720 calls)
     addusdens    :      0.04s CPU      0.04s WALL (       6 calls)

     Called by *egterg:
     h_psi        :      4.44s CPU      4.73s WALL (    2527 calls)
     s_psi        :      0.06s CPU      0.06s WALL (    2527 calls)
     g_psi        :      0.04s CPU      0.04s WALL (    1687 calls)
     cdiaghg      :      0.60s CPU      0.63s WALL (    2407 calls)

     Called by h_psi:
     h_psi:pot    :      4.42s CPU      4.71s WALL (    2527 calls)
     h_psi:calbec :      0.08s CPU      0.09s WALL (    2527 calls)
     vloc_psi     :      4.25s CPU      4.53s WALL (    2527 calls)
     add_vuspsi   :      0.06s CPU      0.07s WALL (    2527 calls)

     General routines
     calbec       :      0.10s CPU      0.11s WALL (    3247 calls)
     fft          :      0.01s CPU      0.01s WALL (      78 calls)
     ffts         :      0.00s CPU      0.00s WALL (       6 calls)
     fftw         :      4.36s CPU      4.65s WALL (   53566 calls)
 
     Parallel routines
     fft_scatt_xy :      0.81s CPU      0.86s WALL (   53650 calls)
     fft_scatt_yz :      0.92s CPU      0.99s WALL (   53650 calls)
 
     PWSCF        :     7.51s CPU         8.75s WALL

 
   This run was terminated on:  20:57:54   2Dec2021            

=------------------------------------------------------------------------------=
   JOB DONE.
=------------------------------------------------------------------------------=
