
     Program PWSCF v.6.3 starts on  2Dec2021 at 23:15:42 

     This program is part of the open-source Quantum ESPRESSO suite
     for quantum simulation of materials; please cite
         "P. Giannozzi et al., J. Phys.:Condens. Matter 21 395502 (2009);
         "P. Giannozzi et al., J. Phys.:Condens. Matter 29 465901 (2017);
          URL http://www.quantum-espresso.org", 
     in publications or presentations arising from this work. More details at
     http://www.quantum-espresso.org/quote

     Parallel version (MPI & OpenMP), running on       2 processor cores
     Number of MPI processes:                 2
     Threads/MPI process:                     1

     MPI processes distributed on     1 nodes
     R & G space division:  proc/nbgrp/npool/nimage =       2
     Reading input from pw-input.in

     Current dimensions of program PWSCF are:
     Max number of different atomic species (ntypx) = 10
     Max number of k-points (npk) =  40000
     Max angular momentum in pseudopotentials (lmaxx) =  3

     Subspace diagonalization in iterative solution of the eigenvalue problem:
     a serial algorithm will be used

 
     Parallelization info
     --------------------
     sticks:   dense  smooth     PW     G-vecs:    dense   smooth      PW
     Min         105     105     42                  994      994     229
     Max         106     106     43                  995      995     230
     Sum         211     211     85                 1989     1989     459
 

     Title: 
     Pd-kp-conv                                                                 


     bravais-lattice index     =            2
     lattice parameter (alat)  =       6.6000  a.u.
     unit-cell volume          =      71.8740 (a.u.)^3
     number of atoms/cell      =            1
     number of atomic types    =            1
     number of electrons       =        16.00
     number of Kohn-Sham states=           12
     kinetic-energy cutoff     =      35.0000  Ry
     charge density cutoff     =     140.0000  Ry
     convergence threshold     =      1.0E-07
     mixing beta               =       0.7000
     number of iterations used =            8  plain     mixing
     Exchange-correlation      =  SLA  PW   PBX  PBC ( 1  4  3  4 0 0)

     celldm(1)=   6.600000  celldm(2)=   0.000000  celldm(3)=   0.000000
     celldm(4)=   0.000000  celldm(5)=   0.000000  celldm(6)=   0.000000

     crystal axes: (cart. coord. in units of alat)
               a(1) = (  -0.500000   0.000000   0.500000 )  
               a(2) = (   0.000000   0.500000   0.500000 )  
               a(3) = (  -0.500000   0.500000   0.000000 )  

     reciprocal axes: (cart. coord. in units 2 pi/alat)
               b(1) = ( -1.000000 -1.000000  1.000000 )  
               b(2) = (  1.000000  1.000000  1.000000 )  
               b(3) = ( -1.000000  1.000000 -1.000000 )  


     PseudoPot. # 1 for Pd read from file:
     ./pd_pbe_v1.4.uspp.F.UPF
     MD5 check sum: 2d733d2bc2cbfd217af676df1668a4bc
     Pseudo is Ultrasoft + core correction, Zval = 16.0
     Generated by new atomic code, or converted to UPF format
     Using radial grid of  887 points,  6 beta functions with: 
                l(1) =   0
                l(2) =   0
                l(3) =   1
                l(4) =   1
                l(5) =   2
                l(6) =   2
     Q(r) pseudized with  8 coefficients,  rinner =    1.130   1.130   1.130
                                                       1.130   1.130

     atomic species   valence    mass     pseudopotential
        Pd            16.00   106.40000     Pd( 1.00)

     48 Sym. Ops., with inversion, found



   Cartesian axes

     site n.     atom                  positions (alat units)
         1           Pd  tau(   1) = (   0.0000000   0.0000000   0.0000000  )

     number of k points=   120  Marzari-Vanderbilt smearing, width (Ry)=  0.0400

     Number of k-points >= 100: set verbosity='high' to print them.

     Dense  grid:     1989 G-vectors     FFT dimensions: (  18,  18,  18)

     Estimated max dynamical RAM per process >       7.25 MB

     Estimated total dynamical RAM >      14.50 MB

     Initial potential from superposition of free atoms
     Check: negative starting charge=   -0.084505

     starting charge   15.49999, renormalised to   16.00000

     negative rho (up, down):  8.723E-02 0.000E+00
     Starting wfcs are   12 randomized atomic wfcs

     total cpu time spent up to now is        0.7 secs

     Self-consistent Calculation

     iteration #  1     ecut=    35.00 Ry     beta= 0.70
     Davidson diagonalization with overlap
     ethr =  1.00E-02,  avg # of iterations =  3.5

     negative rho (up, down):  8.928E-02 0.000E+00

     total cpu time spent up to now is        1.7 secs

     total energy              =    -198.35846197 Ry
     Harris-Foulkes estimate   =    -198.77911054 Ry
     estimated scf accuracy    <       0.59940821 Ry

     iteration #  2     ecut=    35.00 Ry     beta= 0.70
     Davidson diagonalization with overlap
     ethr =  3.75E-03,  avg # of iterations =  2.0

     negative rho (up, down):  9.015E-02 0.000E+00

     total cpu time spent up to now is        2.4 secs

     total energy              =    -198.52745759 Ry
     Harris-Foulkes estimate   =    -198.65727979 Ry
     estimated scf accuracy    <       0.22286079 Ry

     iteration #  3     ecut=    35.00 Ry     beta= 0.70
     Davidson diagonalization with overlap
     ethr =  1.39E-03,  avg # of iterations =  2.0

     negative rho (up, down):  9.091E-02 0.000E+00

     total cpu time spent up to now is        3.1 secs

     total energy              =    -198.57805069 Ry
     Harris-Foulkes estimate   =    -198.57838188 Ry
     estimated scf accuracy    <       0.00083100 Ry

     iteration #  4     ecut=    35.00 Ry     beta= 0.70
     Davidson diagonalization with overlap
     ethr =  5.19E-06,  avg # of iterations =  2.2

     negative rho (up, down):  9.104E-02 0.000E+00

     total cpu time spent up to now is        3.9 secs

     total energy              =    -198.57822369 Ry
     Harris-Foulkes estimate   =    -198.57823160 Ry
     estimated scf accuracy    <       0.00001406 Ry

     iteration #  5     ecut=    35.00 Ry     beta= 0.70
     Davidson diagonalization with overlap
     ethr =  8.79E-08,  avg # of iterations =  2.0

     negative rho (up, down):  9.107E-02 0.000E+00

     total cpu time spent up to now is        4.6 secs

     total energy              =    -198.57822724 Ry
     Harris-Foulkes estimate   =    -198.57822730 Ry
     estimated scf accuracy    <       0.00000017 Ry

     iteration #  6     ecut=    35.00 Ry     beta= 0.70
     Davidson diagonalization with overlap
     ethr =  1.09E-09,  avg # of iterations =  2.0

     negative rho (up, down):  9.107E-02 0.000E+00

     total cpu time spent up to now is        5.4 secs

     End of self-consistent calculation

     Number of k-points >= 100: set verbosity='high' to print the bands.

     the Fermi energy is    28.7717 ev

!    total energy              =    -198.57822727 Ry
     Harris-Foulkes estimate   =    -198.57822727 Ry
     estimated scf accuracy    <          1.3E-09 Ry

     The total energy is the sum of the following terms:

     one-electron contribution =     -16.11273972 Ry
     hartree contribution      =      27.11489820 Ry
     xc contribution           =     -31.74321606 Ry
     ewald contribution        =    -177.83707445 Ry
     smearing contrib. (-TS)   =      -0.00009525 Ry

     convergence has been achieved in   6 iterations

     Writing output data file Pd-kp-conv.save/
 
     init_run     :      0.57s CPU      0.63s WALL (       1 calls)
     electrons    :      4.27s CPU      4.66s WALL (       1 calls)

     Called by init_run:
     wfcinit      :      0.27s CPU      0.30s WALL (       1 calls)
     potinit      :      0.00s CPU      0.01s WALL (       1 calls)
     hinit0       :      0.29s CPU      0.30s WALL (       1 calls)

     Called by electrons:
     c_bands      :      3.64s CPU      3.95s WALL (       6 calls)
     sum_band     :      0.60s CPU      0.65s WALL (       6 calls)
     v_of_rho     :      0.01s CPU      0.02s WALL (       7 calls)
     newd         :      0.03s CPU      0.03s WALL (       7 calls)
     mix_rho      :      0.00s CPU      0.00s WALL (       6 calls)

     Called by c_bands:
     init_us_2    :      0.10s CPU      0.10s WALL (    1560 calls)
     cegterg      :      3.37s CPU      3.63s WALL (     720 calls)

     Called by sum_band:
     sum_band:bec :      0.01s CPU      0.01s WALL (     720 calls)
     addusdens    :      0.02s CPU      0.03s WALL (       6 calls)

     Called by *egterg:
     h_psi        :      2.65s CPU      2.86s WALL (    2486 calls)
     s_psi        :      0.05s CPU      0.05s WALL (    2486 calls)
     g_psi        :      0.03s CPU      0.03s WALL (    1646 calls)
     cdiaghg      :      0.58s CPU      0.62s WALL (    2366 calls)

     Called by h_psi:
     h_psi:pot    :      2.63s CPU      2.85s WALL (    2486 calls)
     h_psi:calbec :      0.07s CPU      0.07s WALL (    2486 calls)
     vloc_psi     :      2.50s CPU      2.70s WALL (    2486 calls)
     add_vuspsi   :      0.05s CPU      0.05s WALL (    2486 calls)

     General routines
     calbec       :      0.08s CPU      0.08s WALL (    3206 calls)
     fft          :      0.01s CPU      0.01s WALL (      78 calls)
     ffts         :      0.00s CPU      0.00s WALL (       6 calls)
     fftw         :      2.60s CPU      2.82s WALL (   54580 calls)
 
     Parallel routines
     fft_scatt_xy :      0.45s CPU      0.48s WALL (   54664 calls)
     fft_scatt_yz :      0.72s CPU      0.79s WALL (   54664 calls)
 
     PWSCF        :     4.98s CPU         5.73s WALL

 
   This run was terminated on:  23:15:48   2Dec2021            

=------------------------------------------------------------------------------=
   JOB DONE.
=------------------------------------------------------------------------------=
