
     Program PWSCF v.6.3 starts on  2Dec2021 at 23:18: 8 

     This program is part of the open-source Quantum ESPRESSO suite
     for quantum simulation of materials; please cite
         "P. Giannozzi et al., J. Phys.:Condens. Matter 21 395502 (2009);
         "P. Giannozzi et al., J. Phys.:Condens. Matter 29 465901 (2017);
          URL http://www.quantum-espresso.org", 
     in publications or presentations arising from this work. More details at
     http://www.quantum-espresso.org/quote

     Parallel version (MPI & OpenMP), running on       2 processor cores
     Number of MPI processes:                 2
     Threads/MPI process:                     1

     MPI processes distributed on     1 nodes
     R & G space division:  proc/nbgrp/npool/nimage =       2
     Reading input from pw-input.in

     Current dimensions of program PWSCF are:
     Max number of different atomic species (ntypx) = 10
     Max number of k-points (npk) =  40000
     Max angular momentum in pseudopotentials (lmaxx) =  3

     Subspace diagonalization in iterative solution of the eigenvalue problem:
     a serial algorithm will be used

 
     Parallelization info
     --------------------
     sticks:   dense  smooth     PW     G-vecs:    dense   smooth      PW
     Min         174     174     60                 2055     2055     434
     Max         175     175     61                 2056     2056     435
     Sum         349     349    121                 4111     4111     869
 

     Title: 
     Pd-kp-conv                                                                 


     bravais-lattice index     =            2
     lattice parameter (alat)  =       8.4000  a.u.
     unit-cell volume          =     148.1760 (a.u.)^3
     number of atoms/cell      =            1
     number of atomic types    =            1
     number of electrons       =        16.00
     number of Kohn-Sham states=           12
     kinetic-energy cutoff     =      35.0000  Ry
     charge density cutoff     =     140.0000  Ry
     convergence threshold     =      1.0E-07
     mixing beta               =       0.7000
     number of iterations used =            8  plain     mixing
     Exchange-correlation      =  SLA  PW   PBX  PBC ( 1  4  3  4 0 0)

     celldm(1)=   8.400000  celldm(2)=   0.000000  celldm(3)=   0.000000
     celldm(4)=   0.000000  celldm(5)=   0.000000  celldm(6)=   0.000000

     crystal axes: (cart. coord. in units of alat)
               a(1) = (  -0.500000   0.000000   0.500000 )  
               a(2) = (   0.000000   0.500000   0.500000 )  
               a(3) = (  -0.500000   0.500000   0.000000 )  

     reciprocal axes: (cart. coord. in units 2 pi/alat)
               b(1) = ( -1.000000 -1.000000  1.000000 )  
               b(2) = (  1.000000  1.000000  1.000000 )  
               b(3) = ( -1.000000  1.000000 -1.000000 )  


     PseudoPot. # 1 for Pd read from file:
     ./pd_pbe_v1.4.uspp.F.UPF
     MD5 check sum: 2d733d2bc2cbfd217af676df1668a4bc
     Pseudo is Ultrasoft + core correction, Zval = 16.0
     Generated by new atomic code, or converted to UPF format
     Using radial grid of  887 points,  6 beta functions with: 
                l(1) =   0
                l(2) =   0
                l(3) =   1
                l(4) =   1
                l(5) =   2
                l(6) =   2
     Q(r) pseudized with  8 coefficients,  rinner =    1.130   1.130   1.130
                                                       1.130   1.130

     atomic species   valence    mass     pseudopotential
        Pd            16.00   106.40000     Pd( 1.00)

     48 Sym. Ops., with inversion, found



   Cartesian axes

     site n.     atom                  positions (alat units)
         1           Pd  tau(   1) = (   0.0000000   0.0000000   0.0000000  )

     number of k points=   120  Marzari-Vanderbilt smearing, width (Ry)=  0.0400

     Number of k-points >= 100: set verbosity='high' to print them.

     Dense  grid:     4111 G-vectors     FFT dimensions: (  24,  24,  24)

     Estimated max dynamical RAM per process >      14.28 MB

     Estimated total dynamical RAM >      28.55 MB

     Check: negative/imaginary core charge=   -0.000001    0.000000

     Initial potential from superposition of free atoms
     Check: negative starting charge=   -0.083520

     starting charge   15.49999, renormalised to   16.00000

     negative rho (up, down):  8.621E-02 0.000E+00
     Starting wfcs are   12 randomized atomic wfcs

     total cpu time spent up to now is        1.0 secs

     Self-consistent Calculation

     iteration #  1     ecut=    35.00 Ry     beta= 0.70
     Davidson diagonalization with overlap
     ethr =  1.00E-02,  avg # of iterations =  3.3

     negative rho (up, down):  8.326E-02 0.000E+00

     total cpu time spent up to now is        2.5 secs

     total energy              =    -197.77414346 Ry
     Harris-Foulkes estimate   =    -199.06708778 Ry
     estimated scf accuracy    <       1.74452486 Ry

     iteration #  2     ecut=    35.00 Ry     beta= 0.70
     Davidson diagonalization with overlap
     ethr =  1.00E-02,  avg # of iterations =  2.0

     negative rho (up, down):  8.555E-02 0.000E+00

     total cpu time spent up to now is        3.8 secs

     total energy              =    -198.20972888 Ry
     Harris-Foulkes estimate   =    -199.43680019 Ry
     estimated scf accuracy    <       2.65998573 Ry

     iteration #  3     ecut=    35.00 Ry     beta= 0.70
     Davidson diagonalization with overlap
     ethr =  1.00E-02,  avg # of iterations =  2.0

     negative rho (up, down):  8.560E-02 0.000E+00

     total cpu time spent up to now is        5.1 secs

     total energy              =    -198.64849177 Ry
     Harris-Foulkes estimate   =    -198.64896181 Ry
     estimated scf accuracy    <       0.00151422 Ry

     iteration #  4     ecut=    35.00 Ry     beta= 0.70
     Davidson diagonalization with overlap
     ethr =  9.46E-06,  avg # of iterations =  2.7

     negative rho (up, down):  8.567E-02 0.000E+00

     total cpu time spent up to now is        6.8 secs

     total energy              =    -198.64880567 Ry
     Harris-Foulkes estimate   =    -198.64881638 Ry
     estimated scf accuracy    <       0.00004491 Ry

     iteration #  5     ecut=    35.00 Ry     beta= 0.70
     Davidson diagonalization with overlap
     ethr =  2.81E-07,  avg # of iterations =  1.6

     negative rho (up, down):  8.567E-02 0.000E+00

     total cpu time spent up to now is        8.0 secs

     total energy              =    -198.64881000 Ry
     Harris-Foulkes estimate   =    -198.64881006 Ry
     estimated scf accuracy    <       0.00000013 Ry

     iteration #  6     ecut=    35.00 Ry     beta= 0.70
     Davidson diagonalization with overlap
     ethr =  8.37E-10,  avg # of iterations =  2.3

     negative rho (up, down):  8.566E-02 0.000E+00

     total cpu time spent up to now is        9.4 secs

     End of self-consistent calculation

     Number of k-points >= 100: set verbosity='high' to print the bands.

     the Fermi energy is    10.5294 ev

!    total energy              =    -198.64881006 Ry
     Harris-Foulkes estimate   =    -198.64881009 Ry
     estimated scf accuracy    <       0.00000005 Ry

     The total energy is the sum of the following terms:

     one-electron contribution =     -74.49132484 Ry
     hartree contribution      =      46.74626926 Ry
     xc contribution           =     -31.18224537 Ry
     ewald contribution        =    -139.72912994 Ry
     smearing contrib. (-TS)   =       0.00762083 Ry

     convergence has been achieved in   6 iterations

     Writing output data file Pd-kp-conv.save/
 
     init_run     :      0.79s CPU      0.84s WALL (       1 calls)
     electrons    :      7.55s CPU      8.41s WALL (       1 calls)

     Called by init_run:
     wfcinit      :      0.42s CPU      0.46s WALL (       1 calls)
     potinit      :      0.01s CPU      0.02s WALL (       1 calls)
     hinit0       :      0.34s CPU      0.34s WALL (       1 calls)

     Called by electrons:
     c_bands      :      6.31s CPU      7.09s WALL (       6 calls)
     sum_band     :      1.17s CPU      1.22s WALL (       6 calls)
     v_of_rho     :      0.03s CPU      0.03s WALL (       7 calls)
     newd         :      0.06s CPU      0.06s WALL (       7 calls)
     mix_rho      :      0.00s CPU      0.00s WALL (       6 calls)

     Called by c_bands:
     init_us_2    :      0.18s CPU      0.19s WALL (    1560 calls)
     cegterg      :      5.80s CPU      6.08s WALL (     720 calls)

     Called by sum_band:
     sum_band:bec :      0.01s CPU      0.01s WALL (     720 calls)
     addusdens    :      0.05s CPU      0.06s WALL (       6 calls)

     Called by *egterg:
     h_psi        :      4.97s CPU      5.23s WALL (    2513 calls)
     s_psi        :      0.08s CPU      0.08s WALL (    2513 calls)
     g_psi        :      0.06s CPU      0.06s WALL (    1673 calls)
     cdiaghg      :      0.60s CPU      0.63s WALL (    2393 calls)

     Called by h_psi:
     h_psi:pot    :      4.95s CPU      5.21s WALL (    2513 calls)
     h_psi:calbec :      0.10s CPU      0.11s WALL (    2513 calls)
     vloc_psi     :      4.75s CPU      5.00s WALL (    2513 calls)
     add_vuspsi   :      0.08s CPU      0.08s WALL (    2513 calls)

     General routines
     calbec       :      0.12s CPU      0.13s WALL (    3233 calls)
     fft          :      0.01s CPU      0.01s WALL (      78 calls)
     ffts         :      0.00s CPU      0.00s WALL (       6 calls)
     fftw         :      4.90s CPU      5.14s WALL (   54324 calls)
 
     Parallel routines
     fft_scatt_xy :      0.87s CPU      0.92s WALL (   54408 calls)
     fft_scatt_yz :      1.11s CPU      1.18s WALL (   54408 calls)
 
     PWSCF        :     8.47s CPU         9.91s WALL

 
   This run was terminated on:  23:18:18   2Dec2021            

=------------------------------------------------------------------------------=
   JOB DONE.
=------------------------------------------------------------------------------=
