
     Program PWSCF v.6.3 starts on  2Dec2021 at 20:51:35 

     This program is part of the open-source Quantum ESPRESSO suite
     for quantum simulation of materials; please cite
         "P. Giannozzi et al., J. Phys.:Condens. Matter 21 395502 (2009);
         "P. Giannozzi et al., J. Phys.:Condens. Matter 29 465901 (2017);
          URL http://www.quantum-espresso.org", 
     in publications or presentations arising from this work. More details at
     http://www.quantum-espresso.org/quote

     Parallel version (MPI & OpenMP), running on       2 processor cores
     Number of MPI processes:                 2
     Threads/MPI process:                     1

     MPI processes distributed on     1 nodes
     R & G space division:  proc/nbgrp/npool/nimage =       2
     Reading input from pw-input.in

     Current dimensions of program PWSCF are:
     Max number of different atomic species (ntypx) = 10
     Max number of k-points (npk) =  40000
     Max angular momentum in pseudopotentials (lmaxx) =  3

     Subspace diagonalization in iterative solution of the eigenvalue problem:
     a serial algorithm will be used

 
     Parallelization info
     --------------------
     sticks:   dense  smooth     PW     G-vecs:    dense   smooth      PW
     Min         105     105     36                  994      994     205
     Max         106     106     37                  995      995     206
     Sum         211     211     73                 1989     1989     411
 

     Title: 
     Pd-kp-conv                                                                 


     bravais-lattice index     =            2
     lattice parameter (alat)  =       6.6000  a.u.
     unit-cell volume          =      71.8740 (a.u.)^3
     number of atoms/cell      =            1
     number of atomic types    =            1
     number of electrons       =        16.00
     number of Kohn-Sham states=           12
     kinetic-energy cutoff     =      35.0000  Ry
     charge density cutoff     =     140.0000  Ry
     convergence threshold     =      1.0E-07
     mixing beta               =       0.7000
     number of iterations used =            8  plain     mixing
     Exchange-correlation      =  SLA  PW   PBX  PBC ( 1  4  3  4 0 0)

     celldm(1)=   6.600000  celldm(2)=   0.000000  celldm(3)=   0.000000
     celldm(4)=   0.000000  celldm(5)=   0.000000  celldm(6)=   0.000000

     crystal axes: (cart. coord. in units of alat)
               a(1) = (  -0.500000   0.000000   0.500000 )  
               a(2) = (   0.000000   0.500000   0.500000 )  
               a(3) = (  -0.500000   0.500000   0.000000 )  

     reciprocal axes: (cart. coord. in units 2 pi/alat)
               b(1) = ( -1.000000 -1.000000  1.000000 )  
               b(2) = (  1.000000  1.000000  1.000000 )  
               b(3) = ( -1.000000  1.000000 -1.000000 )  


     PseudoPot. # 1 for Pd read from file:
     ./pd_pbe_v1.4.uspp.F.UPF
     MD5 check sum: 2d733d2bc2cbfd217af676df1668a4bc
     Pseudo is Ultrasoft + core correction, Zval = 16.0
     Generated by new atomic code, or converted to UPF format
     Using radial grid of  887 points,  6 beta functions with: 
                l(1) =   0
                l(2) =   0
                l(3) =   1
                l(4) =   1
                l(5) =   2
                l(6) =   2
     Q(r) pseudized with  8 coefficients,  rinner =    1.130   1.130   1.130
                                                       1.130   1.130

     atomic species   valence    mass     pseudopotential
        Pd            16.00   106.40000     Pd( 1.00)

     48 Sym. Ops., with inversion, found



   Cartesian axes

     site n.     atom                  positions (alat units)
         1           Pd  tau(   1) = (   0.0000000   0.0000000   0.0000000  )

     number of k points=     8  Marzari-Vanderbilt smearing, width (Ry)=  0.0100
                       cart. coord. in units 2pi/alat
        k(    1) = (   0.0000000   0.0000000   0.0000000), wk =   0.0312500
        k(    2) = (  -0.2500000   0.2500000  -0.2500000), wk =   0.2500000
        k(    3) = (   0.5000000  -0.5000000   0.5000000), wk =   0.1250000
        k(    4) = (   0.0000000   0.5000000   0.0000000), wk =   0.1875000
        k(    5) = (   0.7500000  -0.2500000   0.7500000), wk =   0.7500000
        k(    6) = (   0.5000000   0.0000000   0.5000000), wk =   0.3750000
        k(    7) = (   0.0000000  -1.0000000   0.0000000), wk =   0.0937500
        k(    8) = (  -0.5000000  -1.0000000   0.0000000), wk =   0.1875000

     Dense  grid:     1989 G-vectors     FFT dimensions: (  18,  18,  18)

     Estimated max dynamical RAM per process >       4.69 MB

     Estimated total dynamical RAM >       9.38 MB

     Initial potential from superposition of free atoms
     Check: negative starting charge=   -0.084505

     starting charge   15.49999, renormalised to   16.00000

     negative rho (up, down):  8.723E-02 0.000E+00
     Starting wfcs are   12 randomized atomic wfcs

     total cpu time spent up to now is        0.4 secs

     Self-consistent Calculation

     iteration #  1     ecut=    35.00 Ry     beta= 0.70
     Davidson diagonalization with overlap
     ethr =  1.00E-02,  avg # of iterations =  3.5

     negative rho (up, down):  8.909E-02 0.000E+00

     total cpu time spent up to now is        0.5 secs

     total energy              =    -198.38694203 Ry
     Harris-Foulkes estimate   =    -198.78978301 Ry
     estimated scf accuracy    <       0.57311448 Ry

     iteration #  2     ecut=    35.00 Ry     beta= 0.70
     Davidson diagonalization with overlap
     ethr =  3.58E-03,  avg # of iterations =  2.0

     negative rho (up, down):  8.999E-02 0.000E+00

     total cpu time spent up to now is        0.6 secs

     total energy              =    -198.54735642 Ry
     Harris-Foulkes estimate   =    -198.66528283 Ry
     estimated scf accuracy    <       0.20058245 Ry

     iteration #  3     ecut=    35.00 Ry     beta= 0.70
     Davidson diagonalization with overlap
     ethr =  1.25E-03,  avg # of iterations =  2.0

     negative rho (up, down):  9.063E-02 0.000E+00

     total cpu time spent up to now is        0.7 secs

     total energy              =    -198.58921430 Ry
     Harris-Foulkes estimate   =    -198.58932632 Ry
     estimated scf accuracy    <       0.00040681 Ry

     iteration #  4     ecut=    35.00 Ry     beta= 0.70
     Davidson diagonalization with overlap
     ethr =  2.54E-06,  avg # of iterations =  2.4

     negative rho (up, down):  9.069E-02 0.000E+00

     total cpu time spent up to now is        0.7 secs

     total energy              =    -198.58928136 Ry
     Harris-Foulkes estimate   =    -198.58934289 Ry
     estimated scf accuracy    <       0.00009057 Ry

     iteration #  5     ecut=    35.00 Ry     beta= 0.70
     Davidson diagonalization with overlap
     ethr =  5.66E-07,  avg # of iterations =  2.0

     negative rho (up, down):  9.074E-02 0.000E+00

     total cpu time spent up to now is        0.8 secs

     total energy              =    -198.58927878 Ry
     Harris-Foulkes estimate   =    -198.58936431 Ry
     estimated scf accuracy    <       0.00021367 Ry

     iteration #  6     ecut=    35.00 Ry     beta= 0.70
     Davidson diagonalization with overlap
     ethr =  5.66E-07,  avg # of iterations =  2.0

     negative rho (up, down):  9.074E-02 0.000E+00

     total cpu time spent up to now is        0.9 secs

     total energy              =    -198.58932134 Ry
     Harris-Foulkes estimate   =    -198.58932394 Ry
     estimated scf accuracy    <       0.00000735 Ry

     iteration #  7     ecut=    35.00 Ry     beta= 0.70
     Davidson diagonalization with overlap
     ethr =  4.60E-08,  avg # of iterations =  1.0

     negative rho (up, down):  9.074E-02 0.000E+00

     total cpu time spent up to now is        0.9 secs

     End of self-consistent calculation

          k = 0.0000 0.0000 0.0000 (   259 PWs)   bands (ev):

   -21.7548 -21.7548 -21.7548  18.7652  23.9893  23.9893  23.9893  26.7406
    26.7406  46.7664  53.6502  53.6502

          k =-0.2500 0.2500-0.2500 (   253 PWs)   bands (ev):

   -22.4123 -21.8413 -21.8413  20.6875  24.0791  24.4566  24.4566  26.9461
    26.9461  46.1195  48.8799  57.3575

          k = 0.5000-0.5000 0.5000 (   242 PWs)   bands (ev):

   -23.0366 -21.9263 -21.9263  20.3081  23.8753  23.8753  28.8067  28.8067
    29.0951  39.3479  46.0474  54.2138

          k = 0.0000 0.5000 0.0000 (   258 PWs)   bands (ev):

   -22.3842 -21.9891 -21.9891  21.2717  21.9032  25.7495  26.1272  26.1272
    27.6978  49.6061  50.9685  50.9685

          k = 0.7500-0.2500 0.7500 (   250 PWs)   bands (ev):

   -22.8179 -22.2662 -22.0741  21.1517  22.3421  24.8641  26.0143  28.9660
    33.6642  40.6691  46.8235  49.4501

          k = 0.5000 0.0000 0.5000 (   256 PWs)   bands (ev):

   -22.6789 -22.2961 -21.9283  22.5470  23.0271  23.6492  25.5223  26.5851
    32.1475  44.4227  45.4940  51.1070

          k = 0.0000-1.0000 0.0000 (   254 PWs)   bands (ev):

   -22.9565 -22.2190 -22.2190  19.8424  20.2861  28.7751  29.3611  29.3611
    32.3047  43.5900  44.2812  44.2812

          k =-0.5000-1.0000 0.0000 (   252 PWs)   bands (ev):

   -22.5944 -22.5944 -22.2357  21.5049  23.1616  23.1616  26.4539  29.3659
    40.0764  40.0764  42.4548  43.4613

     the Fermi energy is    29.0440 ev

!    total energy              =    -198.58932236 Ry
     Harris-Foulkes estimate   =    -198.58932237 Ry
     estimated scf accuracy    <          1.0E-08 Ry

     The total energy is the sum of the following terms:

     one-electron contribution =     -16.21294539 Ry
     hartree contribution      =      27.22499009 Ry
     xc contribution           =     -31.76417964 Ry
     ewald contribution        =    -177.83707445 Ry
     smearing contrib. (-TS)   =      -0.00011297 Ry

     convergence has been achieved in   7 iterations

     Writing output data file Pd-kp-conv.save/
 
     init_run     :      0.32s CPU      0.35s WALL (       1 calls)
     electrons    :      0.43s CPU      0.51s WALL (       1 calls)

     Called by init_run:
     wfcinit      :      0.02s CPU      0.02s WALL (       1 calls)
     potinit      :      0.00s CPU      0.01s WALL (       1 calls)
     hinit0       :      0.29s CPU      0.30s WALL (       1 calls)

     Called by electrons:
     c_bands      :      0.30s CPU      0.32s WALL (       7 calls)
     sum_band     :      0.08s CPU      0.09s WALL (       7 calls)
     v_of_rho     :      0.02s CPU      0.02s WALL (       8 calls)
     newd         :      0.03s CPU      0.03s WALL (       8 calls)
     mix_rho      :      0.00s CPU      0.00s WALL (       7 calls)

     Called by c_bands:
     init_us_2    :      0.01s CPU      0.01s WALL (     120 calls)
     cegterg      :      0.28s CPU      0.30s WALL (      56 calls)

     Called by sum_band:
     sum_band:bec :      0.00s CPU      0.00s WALL (      56 calls)
     addusdens    :      0.03s CPU      0.03s WALL (       7 calls)

     Called by *egterg:
     h_psi        :      0.21s CPU      0.23s WALL (     183 calls)
     s_psi        :      0.00s CPU      0.00s WALL (     183 calls)
     g_psi        :      0.00s CPU      0.00s WALL (     119 calls)
     cdiaghg      :      0.05s CPU      0.05s WALL (     175 calls)

     Called by h_psi:
     h_psi:pot    :      0.21s CPU      0.23s WALL (     183 calls)
     h_psi:calbec :      0.01s CPU      0.01s WALL (     183 calls)
     vloc_psi     :      0.20s CPU      0.22s WALL (     183 calls)
     add_vuspsi   :      0.00s CPU      0.00s WALL (     183 calls)

     General routines
     calbec       :      0.01s CPU      0.01s WALL (     239 calls)
     fft          :      0.01s CPU      0.01s WALL (      89 calls)
     ffts         :      0.00s CPU      0.00s WALL (       7 calls)
     fftw         :      0.21s CPU      0.23s WALL (    4076 calls)
 
     Parallel routines
     fft_scatt_xy :      0.04s CPU      0.04s WALL (    4172 calls)
     fft_scatt_yz :      0.06s CPU      0.07s WALL (    4172 calls)
 
     PWSCF        :     0.83s CPU         1.34s WALL

 
   This run was terminated on:  20:51:36   2Dec2021            

=------------------------------------------------------------------------------=
   JOB DONE.
=------------------------------------------------------------------------------=
