
     Program PWSCF v.6.3 starts on  2Dec2021 at 20:51:37 

     This program is part of the open-source Quantum ESPRESSO suite
     for quantum simulation of materials; please cite
         "P. Giannozzi et al., J. Phys.:Condens. Matter 21 395502 (2009);
         "P. Giannozzi et al., J. Phys.:Condens. Matter 29 465901 (2017);
          URL http://www.quantum-espresso.org", 
     in publications or presentations arising from this work. More details at
     http://www.quantum-espresso.org/quote

     Parallel version (MPI & OpenMP), running on       2 processor cores
     Number of MPI processes:                 2
     Threads/MPI process:                     1

     MPI processes distributed on     1 nodes
     R & G space division:  proc/nbgrp/npool/nimage =       2
     Reading input from pw-input.in

     Current dimensions of program PWSCF are:
     Max number of different atomic species (ntypx) = 10
     Max number of k-points (npk) =  40000
     Max angular momentum in pseudopotentials (lmaxx) =  3

     Subspace diagonalization in iterative solution of the eigenvalue problem:
     a serial algorithm will be used

 
     Parallelization info
     --------------------
     sticks:   dense  smooth     PW     G-vecs:    dense   smooth      PW
     Min         105     105     36                 1042     1042     205
     Max         106     106     37                 1043     1043     206
     Sum         211     211     73                 2085     2085     411
 

     Title: 
     Pd-kp-conv                                                                 


     bravais-lattice index     =            2
     lattice parameter (alat)  =       6.7000  a.u.
     unit-cell volume          =      75.1908 (a.u.)^3
     number of atoms/cell      =            1
     number of atomic types    =            1
     number of electrons       =        16.00
     number of Kohn-Sham states=           12
     kinetic-energy cutoff     =      35.0000  Ry
     charge density cutoff     =     140.0000  Ry
     convergence threshold     =      1.0E-07
     mixing beta               =       0.7000
     number of iterations used =            8  plain     mixing
     Exchange-correlation      =  SLA  PW   PBX  PBC ( 1  4  3  4 0 0)

     celldm(1)=   6.700000  celldm(2)=   0.000000  celldm(3)=   0.000000
     celldm(4)=   0.000000  celldm(5)=   0.000000  celldm(6)=   0.000000

     crystal axes: (cart. coord. in units of alat)
               a(1) = (  -0.500000   0.000000   0.500000 )  
               a(2) = (   0.000000   0.500000   0.500000 )  
               a(3) = (  -0.500000   0.500000   0.000000 )  

     reciprocal axes: (cart. coord. in units 2 pi/alat)
               b(1) = ( -1.000000 -1.000000  1.000000 )  
               b(2) = (  1.000000  1.000000  1.000000 )  
               b(3) = ( -1.000000  1.000000 -1.000000 )  


     PseudoPot. # 1 for Pd read from file:
     ./pd_pbe_v1.4.uspp.F.UPF
     MD5 check sum: 2d733d2bc2cbfd217af676df1668a4bc
     Pseudo is Ultrasoft + core correction, Zval = 16.0
     Generated by new atomic code, or converted to UPF format
     Using radial grid of  887 points,  6 beta functions with: 
                l(1) =   0
                l(2) =   0
                l(3) =   1
                l(4) =   1
                l(5) =   2
                l(6) =   2
     Q(r) pseudized with  8 coefficients,  rinner =    1.130   1.130   1.130
                                                       1.130   1.130

     atomic species   valence    mass     pseudopotential
        Pd            16.00   106.40000     Pd( 1.00)

     48 Sym. Ops., with inversion, found



   Cartesian axes

     site n.     atom                  positions (alat units)
         1           Pd  tau(   1) = (   0.0000000   0.0000000   0.0000000  )

     number of k points=     8  Marzari-Vanderbilt smearing, width (Ry)=  0.0100
                       cart. coord. in units 2pi/alat
        k(    1) = (   0.0000000   0.0000000   0.0000000), wk =   0.0312500
        k(    2) = (  -0.2500000   0.2500000  -0.2500000), wk =   0.2500000
        k(    3) = (   0.5000000  -0.5000000   0.5000000), wk =   0.1250000
        k(    4) = (   0.0000000   0.5000000   0.0000000), wk =   0.1875000
        k(    5) = (   0.7500000  -0.2500000   0.7500000), wk =   0.7500000
        k(    6) = (   0.5000000   0.0000000   0.5000000), wk =   0.3750000
        k(    7) = (   0.0000000  -1.0000000   0.0000000), wk =   0.0937500
        k(    8) = (  -0.5000000  -1.0000000   0.0000000), wk =   0.1875000

     Dense  grid:     2085 G-vectors     FFT dimensions: (  18,  18,  18)

     Estimated max dynamical RAM per process >       4.87 MB

     Estimated total dynamical RAM >       9.74 MB

     Initial potential from superposition of free atoms
     Check: negative starting charge=   -0.084526

     starting charge   15.49999, renormalised to   16.00000

     negative rho (up, down):  8.725E-02 0.000E+00
     Starting wfcs are   12 randomized atomic wfcs

     total cpu time spent up to now is        0.5 secs

     Self-consistent Calculation

     iteration #  1     ecut=    35.00 Ry     beta= 0.70
     Davidson diagonalization with overlap
     ethr =  1.00E-02,  avg # of iterations =  3.4

     negative rho (up, down):  8.885E-02 0.000E+00

     total cpu time spent up to now is        0.5 secs

     total energy              =    -198.39273071 Ry
     Harris-Foulkes estimate   =    -198.83952216 Ry
     estimated scf accuracy    <       0.63259799 Ry

     iteration #  2     ecut=    35.00 Ry     beta= 0.70
     Davidson diagonalization with overlap
     ethr =  3.95E-03,  avg # of iterations =  2.0

     negative rho (up, down):  8.972E-02 0.000E+00

     total cpu time spent up to now is        0.6 secs

     total energy              =    -198.57123079 Ry
     Harris-Foulkes estimate   =    -198.71380161 Ry
     estimated scf accuracy    <       0.24570722 Ry

     iteration #  3     ecut=    35.00 Ry     beta= 0.70
     Davidson diagonalization with overlap
     ethr =  1.54E-03,  avg # of iterations =  2.0

     negative rho (up, down):  9.018E-02 0.000E+00

     total cpu time spent up to now is        0.7 secs

     total energy              =    -198.62245931 Ry
     Harris-Foulkes estimate   =    -198.62246768 Ry
     estimated scf accuracy    <       0.00015099 Ry

     iteration #  4     ecut=    35.00 Ry     beta= 0.70
     Davidson diagonalization with overlap
     ethr =  9.44E-07,  avg # of iterations =  2.2

     negative rho (up, down):  9.035E-02 0.000E+00

     total cpu time spent up to now is        0.8 secs

     total energy              =    -198.62251234 Ry
     Harris-Foulkes estimate   =    -198.62251264 Ry
     estimated scf accuracy    <       0.00000543 Ry

     iteration #  5     ecut=    35.00 Ry     beta= 0.70
     Davidson diagonalization with overlap
     ethr =  3.39E-08,  avg # of iterations =  1.5

     negative rho (up, down):  9.036E-02 0.000E+00

     total cpu time spent up to now is        0.8 secs

     total energy              =    -198.62251292 Ry
     Harris-Foulkes estimate   =    -198.62251304 Ry
     estimated scf accuracy    <       0.00000025 Ry

     iteration #  6     ecut=    35.00 Ry     beta= 0.70
     Davidson diagonalization with overlap
     ethr =  1.58E-09,  avg # of iterations =  2.0

     negative rho (up, down):  9.037E-02 0.000E+00

     total cpu time spent up to now is        0.9 secs

     End of self-consistent calculation

          k = 0.0000 0.0000 0.0000 (   259 PWs)   bands (ev):

   -23.1709 -23.1709 -23.1709  17.5897  22.7522  22.7522  22.7522  25.3193
    25.3193  45.2183  51.7862  51.7862

          k =-0.2500 0.2500-0.2500 (   274 PWs)   bands (ev):

   -23.7368 -23.2467 -23.2467  19.5065  22.7842  23.1911  23.1911  25.5121
    25.5121  44.2294  47.0669  55.1398

          k = 0.5000-0.5000 0.5000 (   266 PWs)   bands (ev):

   -24.2758 -23.3213 -23.3213  19.2444  22.6473  22.6473  27.2355  27.2355
    27.5774  37.2376  44.4837  52.0992

          k = 0.0000 0.5000 0.0000 (   258 PWs)   bands (ev):

   -23.7120 -23.3733 -23.3733  20.0805  20.8049  24.3622  24.7497  24.7497
    26.2105  47.7104  48.8050  48.8050

          k = 0.7500-0.2500 0.7500 (   262 PWs)   bands (ev):

   -24.0874 -23.6125 -23.4479  20.0743  21.1951  23.5383  24.6480  27.3856
    31.8804  38.6746  44.7748  47.3213

          k = 0.5000 0.0000 0.5000 (   264 PWs)   bands (ev):

   -23.9668 -23.6379 -23.3220  21.3553  21.8317  22.3985  24.1924  25.1808
    30.3944  42.4060  43.3030  49.2095

          k = 0.0000-1.0000 0.0000 (   254 PWs)   bands (ev):

   -24.2078 -23.5726 -23.5726  18.8521  19.2789  27.2092  27.7528  27.7528
    30.6502  41.3728  42.3792  42.3792

          k =-0.5000-1.0000 0.0000 (   264 PWs)   bands (ev):

   -23.8955 -23.8955 -23.5865  20.4154  21.9539  21.9539  25.0624  27.7566
    38.1046  38.1046  40.3778  41.4005

     the Fermi energy is    27.4677 ev

!    total energy              =    -198.62251298 Ry
     Harris-Foulkes estimate   =    -198.62251300 Ry
     estimated scf accuracy    <       0.00000002 Ry

     The total energy is the sum of the following terms:

     one-electron contribution =     -20.08705746 Ry
     hartree contribution      =      28.34945288 Ry
     xc contribution           =     -31.70220896 Ry
     ewald contribution        =    -175.18278975 Ry
     smearing contrib. (-TS)   =       0.00009032 Ry

     convergence has been achieved in   6 iterations

     Writing output data file Pd-kp-conv.save/
 
     init_run     :      0.33s CPU      0.36s WALL (       1 calls)
     electrons    :      0.40s CPU      0.46s WALL (       1 calls)

     Called by init_run:
     wfcinit      :      0.02s CPU      0.03s WALL (       1 calls)
     potinit      :      0.00s CPU      0.01s WALL (       1 calls)
     hinit0       :      0.30s CPU      0.30s WALL (       1 calls)

     Called by electrons:
     c_bands      :      0.27s CPU      0.31s WALL (       6 calls)
     sum_band     :      0.08s CPU      0.09s WALL (       6 calls)
     v_of_rho     :      0.02s CPU      0.02s WALL (       7 calls)
     newd         :      0.03s CPU      0.03s WALL (       7 calls)
     mix_rho      :      0.00s CPU      0.00s WALL (       6 calls)

     Called by c_bands:
     init_us_2    :      0.01s CPU      0.01s WALL (     104 calls)
     cegterg      :      0.25s CPU      0.28s WALL (      48 calls)

     Called by sum_band:
     sum_band:bec :      0.00s CPU      0.00s WALL (      48 calls)
     addusdens    :      0.03s CPU      0.03s WALL (       6 calls)

     Called by *egterg:
     h_psi        :      0.20s CPU      0.22s WALL (     161 calls)
     s_psi        :      0.00s CPU      0.00s WALL (     161 calls)
     g_psi        :      0.00s CPU      0.00s WALL (     105 calls)
     cdiaghg      :      0.04s CPU      0.05s WALL (     153 calls)

     Called by h_psi:
     h_psi:pot    :      0.20s CPU      0.22s WALL (     161 calls)
     h_psi:calbec :      0.01s CPU      0.01s WALL (     161 calls)
     vloc_psi     :      0.19s CPU      0.21s WALL (     161 calls)
     add_vuspsi   :      0.00s CPU      0.00s WALL (     161 calls)

     General routines
     calbec       :      0.01s CPU      0.01s WALL (     209 calls)
     fft          :      0.01s CPU      0.01s WALL (      78 calls)
     ffts         :      0.00s CPU      0.00s WALL (       6 calls)
     fftw         :      0.20s CPU      0.22s WALL (    3516 calls)
 
     Parallel routines
     fft_scatt_xy :      0.04s CPU      0.04s WALL (    3600 calls)
     fft_scatt_yz :      0.05s CPU      0.06s WALL (    3600 calls)
 
     PWSCF        :     0.81s CPU         1.28s WALL

 
   This run was terminated on:  20:51:38   2Dec2021            

=------------------------------------------------------------------------------=
   JOB DONE.
=------------------------------------------------------------------------------=
