
     Program PWSCF v.6.3 starts on  2Dec2021 at 20:51:43 

     This program is part of the open-source Quantum ESPRESSO suite
     for quantum simulation of materials; please cite
         "P. Giannozzi et al., J. Phys.:Condens. Matter 21 395502 (2009);
         "P. Giannozzi et al., J. Phys.:Condens. Matter 29 465901 (2017);
          URL http://www.quantum-espresso.org", 
     in publications or presentations arising from this work. More details at
     http://www.quantum-espresso.org/quote

     Parallel version (MPI & OpenMP), running on       2 processor cores
     Number of MPI processes:                 2
     Threads/MPI process:                     1

     MPI processes distributed on     1 nodes
     R & G space division:  proc/nbgrp/npool/nimage =       2
     Reading input from pw-input.in

     Current dimensions of program PWSCF are:
     Max number of different atomic species (ntypx) = 10
     Max number of k-points (npk) =  40000
     Max angular momentum in pseudopotentials (lmaxx) =  3

     Subspace diagonalization in iterative solution of the eigenvalue problem:
     a serial algorithm will be used

 
     Parallelization info
     --------------------
     sticks:   dense  smooth     PW     G-vecs:    dense   smooth      PW
     Min         120     120     42                 1210     1210     264
     Max         121     121     43                 1211     1211     267
     Sum         241     241     85                 2421     2421     531
 

     Title: 
     Pd-kp-conv                                                                 


     bravais-lattice index     =            2
     lattice parameter (alat)  =       7.0000  a.u.
     unit-cell volume          =      85.7500 (a.u.)^3
     number of atoms/cell      =            1
     number of atomic types    =            1
     number of electrons       =        16.00
     number of Kohn-Sham states=           12
     kinetic-energy cutoff     =      35.0000  Ry
     charge density cutoff     =     140.0000  Ry
     convergence threshold     =      1.0E-07
     mixing beta               =       0.7000
     number of iterations used =            8  plain     mixing
     Exchange-correlation      =  SLA  PW   PBX  PBC ( 1  4  3  4 0 0)

     celldm(1)=   7.000000  celldm(2)=   0.000000  celldm(3)=   0.000000
     celldm(4)=   0.000000  celldm(5)=   0.000000  celldm(6)=   0.000000

     crystal axes: (cart. coord. in units of alat)
               a(1) = (  -0.500000   0.000000   0.500000 )  
               a(2) = (   0.000000   0.500000   0.500000 )  
               a(3) = (  -0.500000   0.500000   0.000000 )  

     reciprocal axes: (cart. coord. in units 2 pi/alat)
               b(1) = ( -1.000000 -1.000000  1.000000 )  
               b(2) = (  1.000000  1.000000  1.000000 )  
               b(3) = ( -1.000000  1.000000 -1.000000 )  


     PseudoPot. # 1 for Pd read from file:
     ./pd_pbe_v1.4.uspp.F.UPF
     MD5 check sum: 2d733d2bc2cbfd217af676df1668a4bc
     Pseudo is Ultrasoft + core correction, Zval = 16.0
     Generated by new atomic code, or converted to UPF format
     Using radial grid of  887 points,  6 beta functions with: 
                l(1) =   0
                l(2) =   0
                l(3) =   1
                l(4) =   1
                l(5) =   2
                l(6) =   2
     Q(r) pseudized with  8 coefficients,  rinner =    1.130   1.130   1.130
                                                       1.130   1.130

     atomic species   valence    mass     pseudopotential
        Pd            16.00   106.40000     Pd( 1.00)

     48 Sym. Ops., with inversion, found



   Cartesian axes

     site n.     atom                  positions (alat units)
         1           Pd  tau(   1) = (   0.0000000   0.0000000   0.0000000  )

     number of k points=     8  Marzari-Vanderbilt smearing, width (Ry)=  0.0100
                       cart. coord. in units 2pi/alat
        k(    1) = (   0.0000000   0.0000000   0.0000000), wk =   0.0312500
        k(    2) = (  -0.2500000   0.2500000  -0.2500000), wk =   0.2500000
        k(    3) = (   0.5000000  -0.5000000   0.5000000), wk =   0.1250000
        k(    4) = (   0.0000000   0.5000000   0.0000000), wk =   0.1875000
        k(    5) = (   0.7500000  -0.2500000   0.7500000), wk =   0.7500000
        k(    6) = (   0.5000000   0.0000000   0.5000000), wk =   0.3750000
        k(    7) = (   0.0000000  -1.0000000   0.0000000), wk =   0.0937500
        k(    8) = (  -0.5000000  -1.0000000   0.0000000), wk =   0.1875000

     Dense  grid:     2421 G-vectors     FFT dimensions: (  20,  20,  20)

     Estimated max dynamical RAM per process >       5.58 MB

     Estimated total dynamical RAM >      11.16 MB

     Initial potential from superposition of free atoms
     Check: negative starting charge=   -0.083349

     starting charge   15.49999, renormalised to   16.00000

     negative rho (up, down):  8.604E-02 0.000E+00
     Starting wfcs are   12 randomized atomic wfcs

     total cpu time spent up to now is        0.5 secs

     Self-consistent Calculation

     iteration #  1     ecut=    35.00 Ry     beta= 0.70
     Davidson diagonalization with overlap
     ethr =  1.00E-02,  avg # of iterations =  3.8

     negative rho (up, down):  8.592E-02 0.000E+00

     total cpu time spent up to now is        0.6 secs

     total energy              =    -198.36362966 Ry
     Harris-Foulkes estimate   =    -198.94885518 Ry
     estimated scf accuracy    <       0.81822232 Ry

     iteration #  2     ecut=    35.00 Ry     beta= 0.70
     Davidson diagonalization with overlap
     ethr =  5.11E-03,  avg # of iterations =  2.0

     negative rho (up, down):  8.725E-02 0.000E+00

     total cpu time spent up to now is        0.7 secs

     total energy              =    -198.59722366 Ry
     Harris-Foulkes estimate   =    -198.83549270 Ry
     estimated scf accuracy    <       0.42754966 Ry

     iteration #  3     ecut=    35.00 Ry     beta= 0.70
     Davidson diagonalization with overlap
     ethr =  2.67E-03,  avg # of iterations =  2.0

     negative rho (up, down):  8.755E-02 0.000E+00

     total cpu time spent up to now is        0.8 secs

     total energy              =    -198.68515206 Ry
     Harris-Foulkes estimate   =    -198.68515625 Ry
     estimated scf accuracy    <       0.00011580 Ry

     iteration #  4     ecut=    35.00 Ry     beta= 0.70
     Davidson diagonalization with overlap
     ethr =  7.24E-07,  avg # of iterations =  2.5

     negative rho (up, down):  8.770E-02 0.000E+00

     total cpu time spent up to now is        0.8 secs

     total energy              =    -198.68525439 Ry
     Harris-Foulkes estimate   =    -198.68525491 Ry
     estimated scf accuracy    <       0.00000876 Ry

     iteration #  5     ecut=    35.00 Ry     beta= 0.70
     Davidson diagonalization with overlap
     ethr =  5.47E-08,  avg # of iterations =  2.0

     negative rho (up, down):  8.773E-02 0.000E+00

     total cpu time spent up to now is        0.9 secs

     End of self-consistent calculation

          k = 0.0000 0.0000 0.0000 (   307 PWs)   bands (ev):

   -27.0359 -27.0359 -27.0359  14.5151  19.3560  19.3560  19.3560  21.4374
    21.4374  40.9794  46.6820  46.6820

          k =-0.2500 0.2500-0.2500 (   302 PWs)   bands (ev):

   -27.3938 -27.0853 -27.0853  16.3536  19.3169  19.7230  19.7230  21.6116
    21.6116  38.9218  42.2865  49.0163

          k = 0.5000-0.5000 0.5000 (   302 PWs)   bands (ev):

   -27.7393 -27.1341 -27.1341  16.3539  19.2862  19.2862  22.9820  22.9820
    23.5881  31.6035  40.2211  46.3225

          k = 0.0000 0.5000 0.0000 (   303 PWs)   bands (ev):

   -27.3788 -27.1665 -27.1665  16.8981  17.7728  20.6360  20.9856  20.9856
    22.1589  42.5540  42.9506  42.9506

          k = 0.7500-0.2500 0.7500 (   298 PWs)   bands (ev):

   -27.6200 -27.3183 -27.2150  17.1252  18.0710  19.9603  20.9186  23.1008
    27.1206  33.3270  39.1951  41.5844

          k = 0.5000 0.0000 0.5000 (   295 PWs)   bands (ev):

   -27.5415 -27.3339 -27.1343  18.1090  18.5763  19.0433  20.5600  21.3473
    25.6981  36.9473  37.4459  44.0535

          k = 0.0000-1.0000 0.0000 (   302 PWs)   bands (ev):

   -27.6986 -27.2954 -27.2954  16.1368  16.4953  22.9569  23.3909  23.3909
    26.2935  35.4197  37.2645  37.2645

          k =-0.5000-1.0000 0.0000 (   308 PWs)   bands (ev):

   -27.4992 -27.4992 -27.3022  17.4454  18.6694  18.6694  21.2696  23.3930
    32.8448  32.8448  34.7910  35.8745

     the Fermi energy is    23.1830 ev

!    total energy              =    -198.68525541 Ry
     Harris-Foulkes estimate   =    -198.68525539 Ry
     estimated scf accuracy    <       0.00000005 Ry

     The total energy is the sum of the following terms:

     one-electron contribution =     -31.13451961 Ry
     hartree contribution      =      31.65993521 Ry
     xc contribution           =     -31.53595634 Ry
     ewald contribution        =    -167.67495590 Ry
     smearing contrib. (-TS)   =       0.00024124 Ry

     convergence has been achieved in   5 iterations

     Writing output data file Pd-kp-conv.save/
 
     init_run     :      0.34s CPU      0.36s WALL (       1 calls)
     electrons    :      0.41s CPU      0.45s WALL (       1 calls)

     Called by init_run:
     wfcinit      :      0.02s CPU      0.03s WALL (       1 calls)
     potinit      :      0.00s CPU      0.01s WALL (       1 calls)
     hinit0       :      0.30s CPU      0.31s WALL (       1 calls)

     Called by electrons:
     c_bands      :      0.29s CPU      0.31s WALL (       5 calls)
     sum_band     :      0.08s CPU      0.08s WALL (       5 calls)
     v_of_rho     :      0.02s CPU      0.02s WALL (       6 calls)
     newd         :      0.03s CPU      0.03s WALL (       6 calls)
     mix_rho      :      0.00s CPU      0.00s WALL (       5 calls)

     Called by c_bands:
     init_us_2    :      0.01s CPU      0.01s WALL (      88 calls)
     cegterg      :      0.27s CPU      0.28s WALL (      40 calls)

     Called by sum_band:
     sum_band:bec :      0.00s CPU      0.00s WALL (      40 calls)
     addusdens    :      0.03s CPU      0.03s WALL (       5 calls)

     Called by *egterg:
     h_psi        :      0.21s CPU      0.23s WALL (     146 calls)
     s_psi        :      0.00s CPU      0.00s WALL (     146 calls)
     g_psi        :      0.00s CPU      0.00s WALL (      98 calls)
     cdiaghg      :      0.04s CPU      0.05s WALL (     138 calls)

     Called by h_psi:
     h_psi:pot    :      0.21s CPU      0.23s WALL (     146 calls)
     h_psi:calbec :      0.01s CPU      0.01s WALL (     146 calls)
     vloc_psi     :      0.20s CPU      0.22s WALL (     146 calls)
     add_vuspsi   :      0.00s CPU      0.00s WALL (     146 calls)

     General routines
     calbec       :      0.01s CPU      0.01s WALL (     186 calls)
     fft          :      0.01s CPU      0.01s WALL (      67 calls)
     ffts         :      0.00s CPU      0.00s WALL (       5 calls)
     fftw         :      0.21s CPU      0.22s WALL (    3064 calls)
 
     Parallel routines
     fft_scatt_xy :      0.04s CPU      0.04s WALL (    3136 calls)
     fft_scatt_yz :      0.06s CPU      0.06s WALL (    3136 calls)
 
     PWSCF        :     0.84s CPU         1.31s WALL

 
   This run was terminated on:  20:51:44   2Dec2021            

=------------------------------------------------------------------------------=
   JOB DONE.
=------------------------------------------------------------------------------=
