
     Program PWSCF v.6.3 starts on  2Dec2021 at 20:52:13 

     This program is part of the open-source Quantum ESPRESSO suite
     for quantum simulation of materials; please cite
         "P. Giannozzi et al., J. Phys.:Condens. Matter 21 395502 (2009);
         "P. Giannozzi et al., J. Phys.:Condens. Matter 29 465901 (2017);
          URL http://www.quantum-espresso.org", 
     in publications or presentations arising from this work. More details at
     http://www.quantum-espresso.org/quote

     Parallel version (MPI & OpenMP), running on       2 processor cores
     Number of MPI processes:                 2
     Threads/MPI process:                     1

     MPI processes distributed on     1 nodes
     R & G space division:  proc/nbgrp/npool/nimage =       2
     Reading input from pw-input.in

     Current dimensions of program PWSCF are:
     Max number of different atomic species (ntypx) = 10
     Max number of k-points (npk) =  40000
     Max angular momentum in pseudopotentials (lmaxx) =  3

     Subspace diagonalization in iterative solution of the eigenvalue problem:
     a serial algorithm will be used

 
     Parallelization info
     --------------------
     sticks:   dense  smooth     PW     G-vecs:    dense   smooth      PW
     Min         174     174     54                 2055     2055     373
     Max         175     175     55                 2056     2056     376
     Sum         349     349    109                 4111     4111     749
 

     Title: 
     Pd-kp-conv                                                                 


     bravais-lattice index     =            2
     lattice parameter (alat)  =       8.4000  a.u.
     unit-cell volume          =     148.1760 (a.u.)^3
     number of atoms/cell      =            1
     number of atomic types    =            1
     number of electrons       =        16.00
     number of Kohn-Sham states=           12
     kinetic-energy cutoff     =      35.0000  Ry
     charge density cutoff     =     140.0000  Ry
     convergence threshold     =      1.0E-07
     mixing beta               =       0.7000
     number of iterations used =            8  plain     mixing
     Exchange-correlation      =  SLA  PW   PBX  PBC ( 1  4  3  4 0 0)

     celldm(1)=   8.400000  celldm(2)=   0.000000  celldm(3)=   0.000000
     celldm(4)=   0.000000  celldm(5)=   0.000000  celldm(6)=   0.000000

     crystal axes: (cart. coord. in units of alat)
               a(1) = (  -0.500000   0.000000   0.500000 )  
               a(2) = (   0.000000   0.500000   0.500000 )  
               a(3) = (  -0.500000   0.500000   0.000000 )  

     reciprocal axes: (cart. coord. in units 2 pi/alat)
               b(1) = ( -1.000000 -1.000000  1.000000 )  
               b(2) = (  1.000000  1.000000  1.000000 )  
               b(3) = ( -1.000000  1.000000 -1.000000 )  


     PseudoPot. # 1 for Pd read from file:
     ./pd_pbe_v1.4.uspp.F.UPF
     MD5 check sum: 2d733d2bc2cbfd217af676df1668a4bc
     Pseudo is Ultrasoft + core correction, Zval = 16.0
     Generated by new atomic code, or converted to UPF format
     Using radial grid of  887 points,  6 beta functions with: 
                l(1) =   0
                l(2) =   0
                l(3) =   1
                l(4) =   1
                l(5) =   2
                l(6) =   2
     Q(r) pseudized with  8 coefficients,  rinner =    1.130   1.130   1.130
                                                       1.130   1.130

     atomic species   valence    mass     pseudopotential
        Pd            16.00   106.40000     Pd( 1.00)

     48 Sym. Ops., with inversion, found



   Cartesian axes

     site n.     atom                  positions (alat units)
         1           Pd  tau(   1) = (   0.0000000   0.0000000   0.0000000  )

     number of k points=     8  Marzari-Vanderbilt smearing, width (Ry)=  0.0100
                       cart. coord. in units 2pi/alat
        k(    1) = (   0.0000000   0.0000000   0.0000000), wk =   0.0312500
        k(    2) = (  -0.2500000   0.2500000  -0.2500000), wk =   0.2500000
        k(    3) = (   0.5000000  -0.5000000   0.5000000), wk =   0.1250000
        k(    4) = (   0.0000000   0.5000000   0.0000000), wk =   0.1875000
        k(    5) = (   0.7500000  -0.2500000   0.7500000), wk =   0.7500000
        k(    6) = (   0.5000000   0.0000000   0.5000000), wk =   0.3750000
        k(    7) = (   0.0000000  -1.0000000   0.0000000), wk =   0.0937500
        k(    8) = (  -0.5000000  -1.0000000   0.0000000), wk =   0.1875000

     Dense  grid:     4111 G-vectors     FFT dimensions: (  24,  24,  24)

     Estimated max dynamical RAM per process >       8.96 MB

     Estimated total dynamical RAM >      17.93 MB

     Check: negative/imaginary core charge=   -0.000001    0.000000

     Initial potential from superposition of free atoms
     Check: negative starting charge=   -0.083520

     starting charge   15.49999, renormalised to   16.00000

     negative rho (up, down):  8.621E-02 0.000E+00
     Starting wfcs are   12 randomized atomic wfcs

     total cpu time spent up to now is        0.5 secs

     Self-consistent Calculation

     iteration #  1     ecut=    35.00 Ry     beta= 0.70
     Davidson diagonalization with overlap
     ethr =  1.00E-02,  avg # of iterations =  2.9

     negative rho (up, down):  8.328E-02 0.000E+00

     total cpu time spent up to now is        0.7 secs

     total energy              =    -197.75988207 Ry
     Harris-Foulkes estimate   =    -199.06842027 Ry
     estimated scf accuracy    <       1.76644630 Ry

     iteration #  2     ecut=    35.00 Ry     beta= 0.70
     Davidson diagonalization with overlap
     ethr =  1.00E-02,  avg # of iterations =  2.0

     negative rho (up, down):  8.559E-02 0.000E+00

     total cpu time spent up to now is        0.8 secs

     total energy              =    -198.20932418 Ry
     Harris-Foulkes estimate   =    -199.46595953 Ry
     estimated scf accuracy    <       2.73358154 Ry

     iteration #  3     ecut=    35.00 Ry     beta= 0.70
     Davidson diagonalization with overlap
     ethr =  1.00E-02,  avg # of iterations =  2.0

     negative rho (up, down):  8.563E-02 0.000E+00

     total cpu time spent up to now is        0.9 secs

     total energy              =    -198.65942769 Ry
     Harris-Foulkes estimate   =    -198.66001595 Ry
     estimated scf accuracy    <       0.00199537 Ry

     iteration #  4     ecut=    35.00 Ry     beta= 0.70
     Davidson diagonalization with overlap
     ethr =  1.25E-05,  avg # of iterations =  3.2

     negative rho (up, down):  8.566E-02 0.000E+00

     total cpu time spent up to now is        1.0 secs

     total energy              =    -198.65993843 Ry
     Harris-Foulkes estimate   =    -198.65997524 Ry
     estimated scf accuracy    <       0.00011340 Ry

     iteration #  5     ecut=    35.00 Ry     beta= 0.70
     Davidson diagonalization with overlap
     ethr =  7.09E-07,  avg # of iterations =  2.0

     negative rho (up, down):  8.565E-02 0.000E+00

     total cpu time spent up to now is        1.1 secs

     total energy              =    -198.65995254 Ry
     Harris-Foulkes estimate   =    -198.65995253 Ry
     estimated scf accuracy    <       0.00000014 Ry

     iteration #  6     ecut=    35.00 Ry     beta= 0.70
     Davidson diagonalization with overlap
     ethr =  8.70E-10,  avg # of iterations =  2.4

     negative rho (up, down):  8.565E-02 0.000E+00

     total cpu time spent up to now is        1.2 secs

     End of self-consistent calculation

          k = 0.0000 0.0000 0.0000 (   531 PWs)   bands (ev):

   -38.4005 -38.4005 -38.4005   5.9222   8.9577   8.9577   8.9577   9.7991
     9.7991  27.1008  29.6057  29.6057

          k =-0.2500 0.2500-0.2500 (   522 PWs)   bands (ev):

   -38.4444 -38.4072 -38.4072   7.2375   9.0040   9.1240   9.1240   9.8927
     9.8927  21.8481  27.4508  29.0671

          k = 0.5000-0.5000 0.5000 (   502 PWs)   bands (ev):

   -38.4878 -38.4136 -38.4136   7.5644   8.9556   8.9556  10.4143  10.4143
    12.2521  15.2431  26.3389  27.6872

          k = 0.0000 0.5000 0.0000 (   528 PWs)   bands (ev):

   -38.4429 -38.4176 -38.4176   7.6413   8.3289   9.5865   9.6440   9.6440
    10.0927  24.8892  24.8892  26.1217

          k = 0.7500-0.2500 0.7500 (   516 PWs)   bands (ev):

   -38.4739 -38.4368 -38.4244   8.0187   8.5009   9.2739   9.6324  10.4562
    13.3428  17.4937  21.8935  24.0252

          k = 0.5000 0.0000 0.5000 (   524 PWs)   bands (ev):

   -38.4637 -38.4387 -38.4141   8.3826   8.6697   8.9422   9.4991   9.7859
    12.0992  20.2050  20.3085  27.4911

          k = 0.0000-1.0000 0.0000 (   524 PWs)   bands (ev):

   -38.4845 -38.4349 -38.4349   7.6308   7.7644  10.4014  10.5641  10.5641
    13.8823  17.8000  21.5870  21.5870

          k =-0.5000-1.0000 0.0000 (   516 PWs)   bands (ev):

   -38.4596 -38.4596 -38.4353   8.2516   8.7103   8.7103   9.7956  10.5659
    17.5135  17.5135  17.8929  19.5245

     the Fermi energy is    10.5259 ev

!    total energy              =    -198.65995258 Ry
     Harris-Foulkes estimate   =    -198.65995258 Ry
     estimated scf accuracy    <          7.1E-09 Ry

     The total energy is the sum of the following terms:

     one-electron contribution =     -74.51763502 Ry
     hartree contribution      =      46.77425440 Ry
     xc contribution           =     -31.18651672 Ry
     ewald contribution        =    -139.72912994 Ry
     smearing contrib. (-TS)   =      -0.00092531 Ry

     convergence has been achieved in   6 iterations

     Writing output data file Pd-kp-conv.save/
 
     init_run     :      0.40s CPU      0.43s WALL (       1 calls)
     electrons    :      0.66s CPU      0.74s WALL (       1 calls)

     Called by init_run:
     wfcinit      :      0.03s CPU      0.04s WALL (       1 calls)
     potinit      :      0.01s CPU      0.02s WALL (       1 calls)
     hinit0       :      0.34s CPU      0.34s WALL (       1 calls)

     Called by electrons:
     c_bands      :      0.45s CPU      0.47s WALL (       6 calls)
     sum_band     :      0.13s CPU      0.14s WALL (       6 calls)
     v_of_rho     :      0.03s CPU      0.03s WALL (       7 calls)
     newd         :      0.06s CPU      0.06s WALL (       7 calls)
     mix_rho      :      0.00s CPU      0.00s WALL (       6 calls)

     Called by c_bands:
     init_us_2    :      0.01s CPU      0.01s WALL (     104 calls)
     cegterg      :      0.41s CPU      0.43s WALL (      48 calls)

     Called by sum_band:
     sum_band:bec :      0.00s CPU      0.00s WALL (      48 calls)
     addusdens    :      0.05s CPU      0.06s WALL (       6 calls)

     Called by *egterg:
     h_psi        :      0.35s CPU      0.37s WALL (     172 calls)
     s_psi        :      0.01s CPU      0.01s WALL (     172 calls)
     g_psi        :      0.00s CPU      0.00s WALL (     116 calls)
     cdiaghg      :      0.04s CPU      0.05s WALL (     164 calls)

     Called by h_psi:
     h_psi:pot    :      0.35s CPU      0.37s WALL (     172 calls)
     h_psi:calbec :      0.01s CPU      0.01s WALL (     172 calls)
     vloc_psi     :      0.34s CPU      0.35s WALL (     172 calls)
     add_vuspsi   :      0.01s CPU      0.01s WALL (     172 calls)

     General routines
     calbec       :      0.01s CPU      0.01s WALL (     220 calls)
     fft          :      0.01s CPU      0.01s WALL (      78 calls)
     ffts         :      0.00s CPU      0.00s WALL (       6 calls)
     fftw         :      0.34s CPU      0.36s WALL (    3564 calls)
 
     Parallel routines
     fft_scatt_xy :      0.06s CPU      0.07s WALL (    3648 calls)
     fft_scatt_yz :      0.08s CPU      0.08s WALL (    3648 calls)
 
     PWSCF        :     1.14s CPU         1.64s WALL

 
   This run was terminated on:  20:52:15   2Dec2021            

=------------------------------------------------------------------------------=
   JOB DONE.
=------------------------------------------------------------------------------=
