
     Program PWSCF v.6.3 starts on  2Dec2021 at 20:51: 6 

     This program is part of the open-source Quantum ESPRESSO suite
     for quantum simulation of materials; please cite
         "P. Giannozzi et al., J. Phys.:Condens. Matter 21 395502 (2009);
         "P. Giannozzi et al., J. Phys.:Condens. Matter 29 465901 (2017);
          URL http://www.quantum-espresso.org", 
     in publications or presentations arising from this work. More details at
     http://www.quantum-espresso.org/quote

     Parallel version (MPI & OpenMP), running on       2 processor cores
     Number of MPI processes:                 2
     Threads/MPI process:                     1

     MPI processes distributed on     1 nodes
     R & G space division:  proc/nbgrp/npool/nimage =       2
     Reading input from pw-input.in

     Current dimensions of program PWSCF are:
     Max number of different atomic species (ntypx) = 10
     Max number of k-points (npk) =  40000
     Max angular momentum in pseudopotentials (lmaxx) =  3

     Subspace diagonalization in iterative solution of the eigenvalue problem:
     a serial algorithm will be used

 
     Parallelization info
     --------------------
     sticks:   dense  smooth     PW     G-vecs:    dense   smooth      PW
     Min         126     126     42                 1365     1365     264
     Max         127     127     43                 1368     1368     267
     Sum         253     253     85                 2733     2733     531
 

     Title: 
     Pd-kp-conv                                                                 


     bravais-lattice index     =            2
     lattice parameter (alat)  =       7.3000  a.u.
     unit-cell volume          =      97.2542 (a.u.)^3
     number of atoms/cell      =            1
     number of atomic types    =            1
     number of electrons       =        16.00
     number of Kohn-Sham states=           12
     kinetic-energy cutoff     =      35.0000  Ry
     charge density cutoff     =     140.0000  Ry
     convergence threshold     =      1.0E-07
     mixing beta               =       0.7000
     number of iterations used =            8  plain     mixing
     Exchange-correlation      =  SLA  PW   PBX  PBC ( 1  4  3  4 0 0)

     celldm(1)=   7.300000  celldm(2)=   0.000000  celldm(3)=   0.000000
     celldm(4)=   0.000000  celldm(5)=   0.000000  celldm(6)=   0.000000

     crystal axes: (cart. coord. in units of alat)
               a(1) = (  -0.500000   0.000000   0.500000 )  
               a(2) = (   0.000000   0.500000   0.500000 )  
               a(3) = (  -0.500000   0.500000   0.000000 )  

     reciprocal axes: (cart. coord. in units 2 pi/alat)
               b(1) = ( -1.000000 -1.000000  1.000000 )  
               b(2) = (  1.000000  1.000000  1.000000 )  
               b(3) = ( -1.000000  1.000000 -1.000000 )  


     PseudoPot. # 1 for Pd read from file:
     ./pd_pbe_v1.4.uspp.F.UPF
     MD5 check sum: 2d733d2bc2cbfd217af676df1668a4bc
     Pseudo is Ultrasoft + core correction, Zval = 16.0
     Generated by new atomic code, or converted to UPF format
     Using radial grid of  887 points,  6 beta functions with: 
                l(1) =   0
                l(2) =   0
                l(3) =   1
                l(4) =   1
                l(5) =   2
                l(6) =   2
     Q(r) pseudized with  8 coefficients,  rinner =    1.130   1.130   1.130
                                                       1.130   1.130

     atomic species   valence    mass     pseudopotential
        Pd            16.00   106.40000     Pd( 1.00)

     48 Sym. Ops., with inversion, found



   Cartesian axes

     site n.     atom                  positions (alat units)
         1           Pd  tau(   1) = (   0.0000000   0.0000000   0.0000000  )

     number of k points=     4  Marzari-Vanderbilt smearing, width (Ry)=  0.0100
                       cart. coord. in units 2pi/alat
        k(    1) = (   0.0000000   0.0000000   0.0000000), wk =   0.0740741
        k(    2) = (  -0.3333333   0.3333333  -0.3333333), wk =   0.5925926
        k(    3) = (   0.0000000   0.6666667   0.0000000), wk =   0.4444444
        k(    4) = (   0.6666667  -0.0000000   0.6666667), wk =   0.8888889

     Dense  grid:     2733 G-vectors     FFT dimensions: (  20,  20,  20)

     Estimated max dynamical RAM per process >       6.04 MB

     Estimated total dynamical RAM >      12.09 MB

     Initial potential from superposition of free atoms
     Check: negative starting charge=   -0.084718

     starting charge   15.49999, renormalised to   16.00000

     negative rho (up, down):  8.745E-02 0.000E+00
     Starting wfcs are   12 randomized atomic wfcs

     total cpu time spent up to now is        0.5 secs

     Self-consistent Calculation

     iteration #  1     ecut=    35.00 Ry     beta= 0.70
     Davidson diagonalization with overlap
     ethr =  1.00E-02,  avg # of iterations =  4.0

     negative rho (up, down):  8.722E-02 0.000E+00

     total cpu time spent up to now is        0.5 secs

     total energy              =    -198.18836748 Ry
     Harris-Foulkes estimate   =    -198.97598628 Ry
     estimated scf accuracy    <       1.09402725 Ry

     iteration #  2     ecut=    35.00 Ry     beta= 0.70
     Davidson diagonalization with overlap
     ethr =  6.84E-03,  avg # of iterations =  2.0

     negative rho (up, down):  8.828E-02 0.000E+00

     total cpu time spent up to now is        0.6 secs

     total energy              =    -198.38119683 Ry
     Harris-Foulkes estimate   =    -198.94452669 Ry
     estimated scf accuracy    <       1.15452109 Ry

     iteration #  3     ecut=    35.00 Ry     beta= 0.70
     Davidson diagonalization with overlap
     ethr =  6.84E-03,  avg # of iterations =  2.0

     negative rho (up, down):  8.947E-02 0.000E+00

     total cpu time spent up to now is        0.6 secs

     total energy              =    -198.61999481 Ry
     Harris-Foulkes estimate   =    -198.63789666 Ry
     estimated scf accuracy    <       0.02856843 Ry

     iteration #  4     ecut=    35.00 Ry     beta= 0.70
     Davidson diagonalization with overlap
     ethr =  1.79E-04,  avg # of iterations =  2.0

     negative rho (up, down):  8.930E-02 0.000E+00

     total cpu time spent up to now is        0.7 secs

     total energy              =    -198.63776172 Ry
     Harris-Foulkes estimate   =    -198.64390983 Ry
     estimated scf accuracy    <       0.03096856 Ry

     iteration #  5     ecut=    35.00 Ry     beta= 0.70
     Davidson diagonalization with overlap
     ethr =  1.79E-04,  avg # of iterations =  1.0

     negative rho (up, down):  8.981E-02 0.000E+00

     total cpu time spent up to now is        0.7 secs

     total energy              =    -198.64571520 Ry
     Harris-Foulkes estimate   =    -198.63839656 Ry
     estimated scf accuracy    <       0.01404035 Ry

     iteration #  6     ecut=    35.00 Ry     beta= 0.70
     Davidson diagonalization with overlap
     ethr =  8.78E-05,  avg # of iterations =  1.8

     negative rho (up, down):  8.865E-02 0.000E+00

     total cpu time spent up to now is        0.8 secs

     total energy              =    -198.62603524 Ry
     Harris-Foulkes estimate   =    -198.64701650 Ry
     estimated scf accuracy    <       0.04089906 Ry

     iteration #  7     ecut=    35.00 Ry     beta= 0.70
     Davidson diagonalization with overlap
     ethr =  8.78E-05,  avg # of iterations =  2.0

     negative rho (up, down):  8.876E-02 0.000E+00

     total cpu time spent up to now is        0.8 secs

     total energy              =    -198.63422094 Ry
     Harris-Foulkes estimate   =    -198.63447784 Ry
     estimated scf accuracy    <       0.00165747 Ry

     iteration #  8     ecut=    35.00 Ry     beta= 0.70
     Davidson diagonalization with overlap
     ethr =  1.04E-05,  avg # of iterations =  1.0

     negative rho (up, down):  8.874E-02 0.000E+00

     total cpu time spent up to now is        0.9 secs

     total energy              =    -198.63444053 Ry
     Harris-Foulkes estimate   =    -198.63428119 Ry
     estimated scf accuracy    <       0.00035900 Ry

     iteration #  9     ecut=    35.00 Ry     beta= 0.70
     Davidson diagonalization with overlap
     ethr =  2.24E-06,  avg # of iterations =  1.2

     negative rho (up, down):  8.906E-02 0.000E+00

     total cpu time spent up to now is        0.9 secs

     total energy              =    -198.63376320 Ry
     Harris-Foulkes estimate   =    -198.63450922 Ry
     estimated scf accuracy    <       0.00183934 Ry

     iteration # 10     ecut=    35.00 Ry     beta= 0.70
     Davidson diagonalization with overlap
     ethr =  2.24E-06,  avg # of iterations =  2.0

     negative rho (up, down):  8.899E-02 0.000E+00

     total cpu time spent up to now is        1.0 secs

     total energy              =    -198.63423359 Ry
     Harris-Foulkes estimate   =    -198.63428583 Ry
     estimated scf accuracy    <       0.00032514 Ry

     iteration # 11     ecut=    35.00 Ry     beta= 0.70
     Davidson diagonalization with overlap
     ethr =  2.03E-06,  avg # of iterations =  1.0

     negative rho (up, down):  8.891E-02 0.000E+00

     total cpu time spent up to now is        1.0 secs

     total energy              =    -198.63420444 Ry
     Harris-Foulkes estimate   =    -198.63424215 Ry
     estimated scf accuracy    <       0.00010660 Ry

     iteration # 12     ecut=    35.00 Ry     beta= 0.70
     Davidson diagonalization with overlap
     ethr =  6.66E-07,  avg # of iterations =  1.2

     negative rho (up, down):  8.892E-02 0.000E+00

     total cpu time spent up to now is        1.0 secs

     total energy              =    -198.63422224 Ry
     Harris-Foulkes estimate   =    -198.63422234 Ry
     estimated scf accuracy    <       0.00000125 Ry

     iteration # 13     ecut=    35.00 Ry     beta= 0.70
     Davidson diagonalization with overlap
     ethr =  7.83E-09,  avg # of iterations =  1.5

     negative rho (up, down):  8.892E-02 0.000E+00

     total cpu time spent up to now is        1.1 secs

     total energy              =    -198.63422213 Ry
     Harris-Foulkes estimate   =    -198.63422228 Ry
     estimated scf accuracy    <       0.00000072 Ry

     iteration # 14     ecut=    35.00 Ry     beta= 0.70
     Davidson diagonalization with overlap
     ethr =  4.51E-09,  avg # of iterations =  1.0

     negative rho (up, down):  8.893E-02 0.000E+00

     total cpu time spent up to now is        1.1 secs

     total energy              =    -198.63422212 Ry
     Harris-Foulkes estimate   =    -198.63422217 Ry
     estimated scf accuracy    <       0.00000010 Ry

     iteration # 15     ecut=    35.00 Ry     beta= 0.70
     Davidson diagonalization with overlap
     ethr =  6.31E-10,  avg # of iterations =  2.0

     negative rho (up, down):  8.893E-02 0.000E+00

     total cpu time spent up to now is        1.2 secs

     End of self-consistent calculation

          k = 0.0000 0.0000 0.0000 (   331 PWs)   bands (ev):

   -30.3890 -30.3890 -30.3890  11.9844  16.3979  16.3979  16.3979  18.0374
    18.0374  37.2968  42.1675  42.1675

          k =-0.3333 0.3333-0.3333 (   344 PWs)   bands (ev):

   -30.7255 -30.4369 -30.4369  13.9710  16.5413  16.5413  17.5252  18.6870
    18.6870  31.0570  37.4594  42.8941

          k = 0.0000 0.6667 0.0000 (   335 PWs)   bands (ev):

   -30.7092 -30.5141 -30.5141  14.2362  14.5624  18.5880  18.5880  18.9352
    18.9444  35.4341  35.4341  35.5431

          k = 0.6667-0.0000 0.6667 (   347 PWs)   bands (ev):

   -30.6917 -30.6895 -30.4996  14.7988  15.5611  16.5759  17.8859  18.8512
    25.4673  28.4947  30.6133  37.5014

     the Fermi energy is    18.8666 ev

!    total energy              =    -198.63422213 Ry
     Harris-Foulkes estimate   =    -198.63422216 Ry
     estimated scf accuracy    <       0.00000003 Ry

     The total energy is the sum of the following terms:

     one-electron contribution =     -41.31477672 Ry
     hartree contribution      =      34.85977323 Ry
     xc contribution           =     -31.39537493 Ry
     ewald contribution        =    -160.78420429 Ry
     smearing contrib. (-TS)   =       0.00036057 Ry

     convergence has been achieved in  15 iterations

     Writing output data file Pd-kp-conv.save/
 
     init_run     :      0.34s CPU      0.36s WALL (       1 calls)
     electrons    :      0.64s CPU      1.04s WALL (       1 calls)

     Called by init_run:
     wfcinit      :      0.01s CPU      0.02s WALL (       1 calls)
     potinit      :      0.00s CPU      0.02s WALL (       1 calls)
     hinit0       :      0.31s CPU      0.31s WALL (       1 calls)

     Called by electrons:
     c_bands      :      0.34s CPU      0.38s WALL (      15 calls)
     sum_band     :      0.17s CPU      0.17s WALL (      15 calls)
     v_of_rho     :      0.04s CPU      0.05s WALL (      16 calls)
     newd         :      0.08s CPU      0.09s WALL (      16 calls)
     mix_rho      :      0.01s CPU      0.01s WALL (      15 calls)

     Called by c_bands:
     init_us_2    :      0.01s CPU      0.01s WALL (     124 calls)
     cegterg      :      0.31s CPU      0.34s WALL (      60 calls)

     Called by sum_band:
     sum_band:bec :      0.00s CPU      0.00s WALL (      60 calls)
     addusdens    :      0.09s CPU      0.09s WALL (      15 calls)

     Called by *egterg:
     h_psi        :      0.25s CPU      0.27s WALL (     167 calls)
     s_psi        :      0.00s CPU      0.00s WALL (     167 calls)
     g_psi        :      0.00s CPU      0.00s WALL (     103 calls)
     cdiaghg      :      0.04s CPU      0.04s WALL (     163 calls)

     Called by h_psi:
     h_psi:pot    :      0.24s CPU      0.27s WALL (     167 calls)
     h_psi:calbec :      0.01s CPU      0.01s WALL (     167 calls)
     vloc_psi     :      0.23s CPU      0.26s WALL (     167 calls)
     add_vuspsi   :      0.00s CPU      0.00s WALL (     167 calls)

     General routines
     calbec       :      0.01s CPU      0.01s WALL (     227 calls)
     fft          :      0.02s CPU      0.02s WALL (     177 calls)
     ffts         :      0.00s CPU      0.00s WALL (      15 calls)
     fftw         :      0.25s CPU      0.27s WALL (    4052 calls)
 
     Parallel routines
     fft_scatt_xy :      0.05s CPU      0.05s WALL (    4244 calls)
     fft_scatt_yz :      0.07s CPU      0.08s WALL (    4244 calls)
 
     PWSCF        :     1.05s CPU         1.56s WALL

 
   This run was terminated on:  20:51: 7   2Dec2021            

=------------------------------------------------------------------------------=
   JOB DONE.
=------------------------------------------------------------------------------=
