
     Program PWSCF v.6.3 starts on  2Dec2021 at 20:51:14 

     This program is part of the open-source Quantum ESPRESSO suite
     for quantum simulation of materials; please cite
         "P. Giannozzi et al., J. Phys.:Condens. Matter 21 395502 (2009);
         "P. Giannozzi et al., J. Phys.:Condens. Matter 29 465901 (2017);
          URL http://www.quantum-espresso.org", 
     in publications or presentations arising from this work. More details at
     http://www.quantum-espresso.org/quote

     Parallel version (MPI & OpenMP), running on       2 processor cores
     Number of MPI processes:                 2
     Threads/MPI process:                     1

     MPI processes distributed on     1 nodes
     R & G space division:  proc/nbgrp/npool/nimage =       2
     Reading input from pw-input.in

     Current dimensions of program PWSCF are:
     Max number of different atomic species (ntypx) = 10
     Max number of k-points (npk) =  40000
     Max angular momentum in pseudopotentials (lmaxx) =  3

     Subspace diagonalization in iterative solution of the eigenvalue problem:
     a serial algorithm will be used

 
     Parallelization info
     --------------------
     sticks:   dense  smooth     PW     G-vecs:    dense   smooth      PW
     Min         141     141     45                 1570     1570     280
     Max         142     142     46                 1573     1573     281
     Sum         283     283     91                 3143     3143     561
 

     Title: 
     Pd-kp-conv                                                                 


     bravais-lattice index     =            2
     lattice parameter (alat)  =       7.7000  a.u.
     unit-cell volume          =     114.1333 (a.u.)^3
     number of atoms/cell      =            1
     number of atomic types    =            1
     number of electrons       =        16.00
     number of Kohn-Sham states=           12
     kinetic-energy cutoff     =      35.0000  Ry
     charge density cutoff     =     140.0000  Ry
     convergence threshold     =      1.0E-07
     mixing beta               =       0.7000
     number of iterations used =            8  plain     mixing
     Exchange-correlation      =  SLA  PW   PBX  PBC ( 1  4  3  4 0 0)

     celldm(1)=   7.700000  celldm(2)=   0.000000  celldm(3)=   0.000000
     celldm(4)=   0.000000  celldm(5)=   0.000000  celldm(6)=   0.000000

     crystal axes: (cart. coord. in units of alat)
               a(1) = (  -0.500000   0.000000   0.500000 )  
               a(2) = (   0.000000   0.500000   0.500000 )  
               a(3) = (  -0.500000   0.500000   0.000000 )  

     reciprocal axes: (cart. coord. in units 2 pi/alat)
               b(1) = ( -1.000000 -1.000000  1.000000 )  
               b(2) = (  1.000000  1.000000  1.000000 )  
               b(3) = ( -1.000000  1.000000 -1.000000 )  


     PseudoPot. # 1 for Pd read from file:
     ./pd_pbe_v1.4.uspp.F.UPF
     MD5 check sum: 2d733d2bc2cbfd217af676df1668a4bc
     Pseudo is Ultrasoft + core correction, Zval = 16.0
     Generated by new atomic code, or converted to UPF format
     Using radial grid of  887 points,  6 beta functions with: 
                l(1) =   0
                l(2) =   0
                l(3) =   1
                l(4) =   1
                l(5) =   2
                l(6) =   2
     Q(r) pseudized with  8 coefficients,  rinner =    1.130   1.130   1.130
                                                       1.130   1.130

     atomic species   valence    mass     pseudopotential
        Pd            16.00   106.40000     Pd( 1.00)

     48 Sym. Ops., with inversion, found



   Cartesian axes

     site n.     atom                  positions (alat units)
         1           Pd  tau(   1) = (   0.0000000   0.0000000   0.0000000  )

     number of k points=     4  Marzari-Vanderbilt smearing, width (Ry)=  0.0100
                       cart. coord. in units 2pi/alat
        k(    1) = (   0.0000000   0.0000000   0.0000000), wk =   0.0740741
        k(    2) = (  -0.3333333   0.3333333  -0.3333333), wk =   0.5925926
        k(    3) = (   0.0000000   0.6666667   0.0000000), wk =   0.4444444
        k(    4) = (   0.6666667  -0.0000000   0.6666667), wk =   0.8888889

     Dense  grid:     3143 G-vectors     FFT dimensions: (  24,  24,  24)

     Estimated max dynamical RAM per process >       7.02 MB

     Estimated total dynamical RAM >      14.04 MB

     Initial potential from superposition of free atoms
     Check: negative starting charge=   -0.079204

     starting charge   15.49999, renormalised to   16.00000

     negative rho (up, down):  8.176E-02 0.000E+00
     Starting wfcs are   12 randomized atomic wfcs

     total cpu time spent up to now is        0.5 secs

     Self-consistent Calculation

     iteration #  1     ecut=    35.00 Ry     beta= 0.70
     Davidson diagonalization with overlap
     ethr =  1.00E-02,  avg # of iterations =  3.8

     negative rho (up, down):  8.072E-02 0.000E+00

     total cpu time spent up to now is        0.6 secs

     total energy              =    -198.05322203 Ry
     Harris-Foulkes estimate   =    -199.03047248 Ry
     estimated scf accuracy    <       1.34070981 Ry

     iteration #  2     ecut=    35.00 Ry     beta= 0.70
     Davidson diagonalization with overlap
     ethr =  8.38E-03,  avg # of iterations =  2.0

     negative rho (up, down):  8.200E-02 0.000E+00

     total cpu time spent up to now is        0.6 secs

     total energy              =    -198.33687258 Ry
     Harris-Foulkes estimate   =    -199.13018980 Ry
     estimated scf accuracy    <       1.66603709 Ry

     iteration #  3     ecut=    35.00 Ry     beta= 0.70
     Davidson diagonalization with overlap
     ethr =  8.38E-03,  avg # of iterations =  2.0

     negative rho (up, down):  8.225E-02 0.000E+00

     total cpu time spent up to now is        0.7 secs

     total energy              =    -198.64287719 Ry
     Harris-Foulkes estimate   =    -198.64418355 Ry
     estimated scf accuracy    <       0.00320510 Ry

     iteration #  4     ecut=    35.00 Ry     beta= 0.70
     Davidson diagonalization with overlap
     ethr =  2.00E-05,  avg # of iterations =  2.8

     negative rho (up, down):  8.242E-02 0.000E+00

     total cpu time spent up to now is        0.8 secs

     total energy              =    -198.64397383 Ry
     Harris-Foulkes estimate   =    -198.64396558 Ry
     estimated scf accuracy    <       0.00002468 Ry

     iteration #  5     ecut=    35.00 Ry     beta= 0.70
     Davidson diagonalization with overlap
     ethr =  1.54E-07,  avg # of iterations =  1.0

     negative rho (up, down):  8.246E-02 0.000E+00

     total cpu time spent up to now is        0.8 secs

     total energy              =    -198.64397485 Ry
     Harris-Foulkes estimate   =    -198.64397460 Ry
     estimated scf accuracy    <       0.00000156 Ry

     iteration #  6     ecut=    35.00 Ry     beta= 0.70
     Davidson diagonalization with overlap
     ethr =  9.78E-09,  avg # of iterations =  2.0

     negative rho (up, down):  8.246E-02 0.000E+00

     total cpu time spent up to now is        0.9 secs

     End of self-consistent calculation

          k = 0.0000 0.0000 0.0000 (   411 PWs)   bands (ev):

   -33.8795 -33.8795 -33.8795   9.3041  13.2064  13.2064  13.2064  14.4599
    14.4599  33.0552  36.9832  36.9832

          k =-0.3333 0.3333-0.3333 (   401 PWs)   bands (ev):

   -34.0648 -33.9066 -33.9066  11.1968  13.3237  13.3237  14.1728  14.9704
    14.9704  25.8636  33.0359  36.7805

          k = 0.0000 0.6667 0.0000 (   399 PWs)   bands (ev):

   -34.0562 -33.9492 -33.9492  11.4809  11.7884  14.9019  14.9019  15.1508
    15.3411  30.1029  30.1841  30.1841

          k = 0.6667-0.0000 0.6667 (   403 PWs)   bands (ev):

   -34.0472 -34.0463 -33.9419  11.9701  12.5685  13.3607  14.3666  15.0985
    20.9346  23.6390  25.4162  31.9287

     the Fermi energy is    15.1155 ev

!    total energy              =    -198.64397500 Ry
     Harris-Foulkes estimate   =    -198.64397499 Ry
     estimated scf accuracy    <       0.00000001 Ry

     The total energy is the sum of the following terms:

     one-electron contribution =     -54.20074108 Ry
     hartree contribution      =      39.27490210 Ry
     xc contribution           =     -31.28714444 Ry
     ewald contribution        =    -152.43177811 Ry
     smearing contrib. (-TS)   =       0.00078654 Ry

     convergence has been achieved in   6 iterations

     Writing output data file Pd-kp-conv.save/
 
     init_run     :      0.36s CPU      0.38s WALL (       1 calls)
     electrons    :      0.35s CPU      0.39s WALL (       1 calls)

     Called by init_run:
     wfcinit      :      0.02s CPU      0.02s WALL (       1 calls)
     potinit      :      0.01s CPU      0.02s WALL (       1 calls)
     hinit0       :      0.32s CPU      0.32s WALL (       1 calls)

     Called by electrons:
     c_bands      :      0.20s CPU      0.22s WALL (       6 calls)
     sum_band     :      0.08s CPU      0.09s WALL (       6 calls)
     v_of_rho     :      0.03s CPU      0.03s WALL (       7 calls)
     newd         :      0.04s CPU      0.05s WALL (       7 calls)
     mix_rho      :      0.00s CPU      0.00s WALL (       6 calls)

     Called by c_bands:
     init_us_2    :      0.01s CPU      0.01s WALL (      52 calls)
     cegterg      :      0.19s CPU      0.20s WALL (      24 calls)

     Called by sum_band:
     sum_band:bec :      0.00s CPU      0.00s WALL (      24 calls)
     addusdens    :      0.04s CPU      0.04s WALL (       6 calls)

     Called by *egterg:
     h_psi        :      0.16s CPU      0.18s WALL (      82 calls)
     s_psi        :      0.00s CPU      0.00s WALL (      82 calls)
     g_psi        :      0.00s CPU      0.00s WALL (      54 calls)
     cdiaghg      :      0.02s CPU      0.02s WALL (      78 calls)

     Called by h_psi:
     h_psi:pot    :      0.16s CPU      0.18s WALL (      82 calls)
     h_psi:calbec :      0.00s CPU      0.00s WALL (      82 calls)
     vloc_psi     :      0.15s CPU      0.17s WALL (      82 calls)
     add_vuspsi   :      0.00s CPU      0.00s WALL (      82 calls)

     General routines
     calbec       :      0.00s CPU      0.00s WALL (     106 calls)
     fft          :      0.01s CPU      0.01s WALL (      78 calls)
     ffts         :      0.00s CPU      0.00s WALL (       6 calls)
     fftw         :      0.16s CPU      0.17s WALL (    1766 calls)
 
     Parallel routines
     fft_scatt_xy :      0.03s CPU      0.03s WALL (    1850 calls)
     fft_scatt_yz :      0.04s CPU      0.04s WALL (    1850 calls)
 
     PWSCF        :     0.79s CPU         0.95s WALL

 
   This run was terminated on:  20:51:15   2Dec2021            

=------------------------------------------------------------------------------=
   JOB DONE.
=------------------------------------------------------------------------------=
