
     Program PWSCF v.6.3 starts on  2Dec2021 at 22:49:40 

     This program is part of the open-source Quantum ESPRESSO suite
     for quantum simulation of materials; please cite
         "P. Giannozzi et al., J. Phys.:Condens. Matter 21 395502 (2009);
         "P. Giannozzi et al., J. Phys.:Condens. Matter 29 465901 (2017);
          URL http://www.quantum-espresso.org", 
     in publications or presentations arising from this work. More details at
     http://www.quantum-espresso.org/quote

     Parallel version (MPI & OpenMP), running on       2 processor cores
     Number of MPI processes:                 2
     Threads/MPI process:                     1

     MPI processes distributed on     1 nodes
     R & G space division:  proc/nbgrp/npool/nimage =       2
     Reading input from pw-input.in

     Current dimensions of program PWSCF are:
     Max number of different atomic species (ntypx) = 10
     Max number of k-points (npk) =  40000
     Max angular momentum in pseudopotentials (lmaxx) =  3

     Subspace diagonalization in iterative solution of the eigenvalue problem:
     a serial algorithm will be used

 
     Parallelization info
     --------------------
     sticks:   dense  smooth     PW     G-vecs:    dense   smooth      PW
     Min         117     117     42                 1138     1138     264
     Max         118     118     43                 1139     1139     267
     Sum         235     235     85                 2277     2277     531
 

     Title: 
     Pd-kp-conv                                                                 


     bravais-lattice index     =            2
     lattice parameter (alat)  =       6.9000  a.u.
     unit-cell volume          =      82.1273 (a.u.)^3
     number of atoms/cell      =            1
     number of atomic types    =            1
     number of electrons       =        16.00
     number of Kohn-Sham states=           12
     kinetic-energy cutoff     =      35.0000  Ry
     charge density cutoff     =     140.0000  Ry
     convergence threshold     =      1.0E-07
     mixing beta               =       0.7000
     number of iterations used =            8  plain     mixing
     Exchange-correlation      =  SLA  PW   PBX  PBC ( 1  4  3  4 0 0)

     celldm(1)=   6.900000  celldm(2)=   0.000000  celldm(3)=   0.000000
     celldm(4)=   0.000000  celldm(5)=   0.000000  celldm(6)=   0.000000

     crystal axes: (cart. coord. in units of alat)
               a(1) = (  -0.500000   0.000000   0.500000 )  
               a(2) = (   0.000000   0.500000   0.500000 )  
               a(3) = (  -0.500000   0.500000   0.000000 )  

     reciprocal axes: (cart. coord. in units 2 pi/alat)
               b(1) = ( -1.000000 -1.000000  1.000000 )  
               b(2) = (  1.000000  1.000000  1.000000 )  
               b(3) = ( -1.000000  1.000000 -1.000000 )  


     PseudoPot. # 1 for Pd read from file:
     ./pd_pbe_v1.4.uspp.F.UPF
     MD5 check sum: 2d733d2bc2cbfd217af676df1668a4bc
     Pseudo is Ultrasoft + core correction, Zval = 16.0
     Generated by new atomic code, or converted to UPF format
     Using radial grid of  887 points,  6 beta functions with: 
                l(1) =   0
                l(2) =   0
                l(3) =   1
                l(4) =   1
                l(5) =   2
                l(6) =   2
     Q(r) pseudized with  8 coefficients,  rinner =    1.130   1.130   1.130
                                                       1.130   1.130

     atomic species   valence    mass     pseudopotential
        Pd            16.00   106.40000     Pd( 1.00)

     48 Sym. Ops., with inversion, found



   Cartesian axes

     site n.     atom                  positions (alat units)
         1           Pd  tau(   1) = (   0.0000000   0.0000000   0.0000000  )

     number of k points=    72  Marzari-Vanderbilt smearing, width (Ry)=  0.0350
                       cart. coord. in units 2pi/alat
        k(    1) = (   0.0000000   0.0000000   0.0000000), wk =   0.0011574
        k(    2) = (  -0.0833333   0.0833333  -0.0833333), wk =   0.0092593
        k(    3) = (  -0.1666667   0.1666667  -0.1666667), wk =   0.0092593
        k(    4) = (  -0.2500000   0.2500000  -0.2500000), wk =   0.0092593
        k(    5) = (  -0.3333333   0.3333333  -0.3333333), wk =   0.0092593
        k(    6) = (  -0.4166667   0.4166667  -0.4166667), wk =   0.0092593
        k(    7) = (   0.5000000  -0.5000000   0.5000000), wk =   0.0046296
        k(    8) = (   0.0000000   0.1666667   0.0000000), wk =   0.0069444
        k(    9) = (  -0.0833333   0.2500000  -0.0833333), wk =   0.0277778
        k(   10) = (  -0.1666667   0.3333333  -0.1666667), wk =   0.0277778
        k(   11) = (  -0.2500000   0.4166667  -0.2500000), wk =   0.0277778
        k(   12) = (  -0.3333333   0.5000000  -0.3333333), wk =   0.0277778
        k(   13) = (   0.5833333  -0.4166667   0.5833333), wk =   0.0277778
        k(   14) = (   0.5000000  -0.3333333   0.5000000), wk =   0.0277778
        k(   15) = (   0.4166667  -0.2500000   0.4166667), wk =   0.0277778
        k(   16) = (   0.3333333  -0.1666667   0.3333333), wk =   0.0277778
        k(   17) = (   0.2500000  -0.0833333   0.2500000), wk =   0.0277778
        k(   18) = (   0.1666667  -0.0000000   0.1666667), wk =   0.0138889
        k(   19) = (   0.0000000   0.3333333   0.0000000), wk =   0.0069444
        k(   20) = (  -0.0833333   0.4166667  -0.0833333), wk =   0.0277778
        k(   21) = (  -0.1666667   0.5000000  -0.1666667), wk =   0.0277778
        k(   22) = (  -0.2500000   0.5833333  -0.2500000), wk =   0.0277778
        k(   23) = (   0.6666667  -0.3333333   0.6666667), wk =   0.0277778
        k(   24) = (   0.5833333  -0.2500000   0.5833333), wk =   0.0277778
        k(   25) = (   0.5000000  -0.1666667   0.5000000), wk =   0.0277778
        k(   26) = (   0.4166667  -0.0833333   0.4166667), wk =   0.0277778
        k(   27) = (   0.3333333   0.0000000   0.3333333), wk =   0.0138889
        k(   28) = (   0.0000000   0.5000000   0.0000000), wk =   0.0069444
        k(   29) = (  -0.0833333   0.5833333  -0.0833333), wk =   0.0277778
        k(   30) = (  -0.1666667   0.6666667  -0.1666667), wk =   0.0277778
        k(   31) = (   0.7500000  -0.2500000   0.7500000), wk =   0.0277778
        k(   32) = (   0.6666667  -0.1666667   0.6666667), wk =   0.0277778
        k(   33) = (   0.5833333  -0.0833333   0.5833333), wk =   0.0277778
        k(   34) = (   0.5000000   0.0000000   0.5000000), wk =   0.0138889
        k(   35) = (   0.0000000   0.6666667   0.0000000), wk =   0.0069444
        k(   36) = (  -0.0833333   0.7500000  -0.0833333), wk =   0.0277778
        k(   37) = (   0.8333333  -0.1666667   0.8333333), wk =   0.0277778
        k(   38) = (   0.7500000  -0.0833333   0.7500000), wk =   0.0277778
        k(   39) = (   0.6666667  -0.0000000   0.6666667), wk =   0.0138889
        k(   40) = (   0.0000000   0.8333333   0.0000000), wk =   0.0069444
        k(   41) = (   0.9166667  -0.0833333   0.9166667), wk =   0.0277778
        k(   42) = (   0.8333333   0.0000000   0.8333333), wk =   0.0138889
        k(   43) = (   0.0000000  -1.0000000   0.0000000), wk =   0.0034722
        k(   44) = (  -0.1666667   0.3333333   0.0000000), wk =   0.0277778
        k(   45) = (  -0.2500000   0.4166667  -0.0833333), wk =   0.0555556
        k(   46) = (  -0.3333333   0.5000000  -0.1666667), wk =   0.0555556
        k(   47) = (   0.5833333  -0.4166667   0.7500000), wk =   0.0555556
        k(   48) = (   0.5000000  -0.3333333   0.6666667), wk =   0.0277778
        k(   49) = (  -0.1666667   0.5000000   0.0000000), wk =   0.0277778
        k(   50) = (  -0.2500000   0.5833333  -0.0833333), wk =   0.0555556
        k(   51) = (   0.6666667  -0.3333333   0.8333333), wk =   0.0555556
        k(   52) = (   0.5833333  -0.2500000   0.7500000), wk =   0.0555556
        k(   53) = (   0.5000000  -0.1666667   0.6666667), wk =   0.0555556
        k(   54) = (   0.4166667  -0.0833333   0.5833333), wk =   0.0555556
        k(   55) = (   0.3333333   0.0000000   0.5000000), wk =   0.0277778
        k(   56) = (  -0.1666667   0.6666667  -0.0000000), wk =   0.0277778
        k(   57) = (   0.7500000  -0.2500000   0.9166667), wk =   0.0555556
        k(   58) = (   0.6666667  -0.1666667   0.8333333), wk =   0.0555556
        k(   59) = (   0.5833333  -0.0833333   0.7500000), wk =   0.0555556
        k(   60) = (   0.5000000   0.0000000   0.6666667), wk =   0.0277778
        k(   61) = (   0.8333333  -0.1666667   1.0000000), wk =   0.0277778
        k(   62) = (   0.7500000  -0.0833333   0.9166667), wk =   0.0555556
        k(   63) = (   0.6666667   0.0000000   0.8333333), wk =   0.0277778
        k(   64) = (  -0.1666667  -1.0000000  -0.0000000), wk =   0.0138889
        k(   65) = (   0.6666667  -0.3333333   1.0000000), wk =   0.0277778
        k(   66) = (   0.5833333  -0.2500000   0.9166667), wk =   0.0555556
        k(   67) = (   0.5000000  -0.1666667   0.8333333), wk =   0.0277778
        k(   68) = (   0.6666667  -0.1666667   1.0000000), wk =   0.0277778
        k(   69) = (   0.5833333  -0.0833333   0.9166667), wk =   0.0555556
        k(   70) = (   0.5000000   0.0000000   0.8333333), wk =   0.0277778
        k(   71) = (  -0.3333333  -1.0000000   0.0000000), wk =   0.0138889
        k(   72) = (  -0.5000000  -1.0000000   0.0000000), wk =   0.0069444

     Dense  grid:     2277 G-vectors     FFT dimensions: (  20,  20,  20)

     Estimated max dynamical RAM per process >       6.99 MB

     Estimated total dynamical RAM >      13.99 MB

     Initial potential from superposition of free atoms
     Check: negative starting charge=   -0.082546

     starting charge   15.49999, renormalised to   16.00000

     negative rho (up, down):  8.521E-02 0.000E+00
     Starting wfcs are   12 randomized atomic wfcs

     total cpu time spent up to now is        0.6 secs

     Self-consistent Calculation

     iteration #  1     ecut=    35.00 Ry     beta= 0.70
     Davidson diagonalization with overlap
     ethr =  1.00E-02,  avg # of iterations =  3.5

     negative rho (up, down):  8.546E-02 0.000E+00

     total cpu time spent up to now is        1.3 secs

     total energy              =    -198.34790374 Ry
     Harris-Foulkes estimate   =    -198.91100813 Ry
     estimated scf accuracy    <       0.79138055 Ry

     iteration #  2     ecut=    35.00 Ry     beta= 0.70
     Davidson diagonalization with overlap
     ethr =  4.95E-03,  avg # of iterations =  2.0

     negative rho (up, down):  8.671E-02 0.000E+00

     total cpu time spent up to now is        1.8 secs

     total energy              =    -198.56442152 Ry
     Harris-Foulkes estimate   =    -198.79835740 Ry
     estimated scf accuracy    <       0.42290465 Ry

     iteration #  3     ecut=    35.00 Ry     beta= 0.70
     Davidson diagonalization with overlap
     ethr =  2.64E-03,  avg # of iterations =  2.0

     negative rho (up, down):  8.727E-02 0.000E+00

     total cpu time spent up to now is        2.3 secs

     total energy              =    -198.65874411 Ry
     Harris-Foulkes estimate   =    -198.65942452 Ry
     estimated scf accuracy    <       0.00148309 Ry

     iteration #  4     ecut=    35.00 Ry     beta= 0.70
     Davidson diagonalization with overlap
     ethr =  9.27E-06,  avg # of iterations =  2.2

     negative rho (up, down):  8.740E-02 0.000E+00

     total cpu time spent up to now is        2.8 secs

     total energy              =    -198.65912085 Ry
     Harris-Foulkes estimate   =    -198.65913579 Ry
     estimated scf accuracy    <       0.00002978 Ry

     iteration #  5     ecut=    35.00 Ry     beta= 0.70
     Davidson diagonalization with overlap
     ethr =  1.86E-07,  avg # of iterations =  2.1

     negative rho (up, down):  8.744E-02 0.000E+00

     total cpu time spent up to now is        3.3 secs

     End of self-consistent calculation

          k = 0.0000 0.0000 0.0000 (   283 PWs)   bands (ev):

   -25.9926 -25.9926 -25.9926  15.4566  20.3263  20.3263  20.3263  22.5267
    22.5267  42.3311  48.3012  48.3012

          k =-0.0833 0.0833-0.0833 (   292 PWs)   bands (ev):

   -26.0491 -26.0003 -26.0003  15.7565  20.2058  20.4389  20.4389  22.4687
    22.4687  42.7145  46.5279  48.6913

          k =-0.1667 0.1667-0.1667 (   295 PWs)   bands (ev):

   -26.2016 -26.0211 -26.0211  16.5428  20.0091  20.6675  20.6675  22.4234
    22.4234  43.2307  43.9584  49.7385

          k =-0.2500 0.2500-0.2500 (   296 PWs)   bands (ev):

   -26.4063 -26.0493 -26.0493  17.3053  20.3312  20.7098  20.7098  22.7124
    22.7124  40.5874  43.7694  50.9384

          k =-0.3333 0.3333-0.3333 (   287 PWs)   bands (ev):

   -26.6068 -26.0771 -26.0771  17.4297  20.5195  20.5195  21.7871  23.3407
    23.3407  37.5100  42.8278  50.3118

          k =-0.4167 0.4167-0.4167 (   281 PWs)   bands (ev):

   -26.7512 -26.0975 -26.0975  17.2771  20.3198  20.3198  23.7447  23.9401
    23.9401  34.6589  41.9119  48.7536

          k = 0.5000-0.5000 0.5000 (   272 PWs)   bands (ev):

   -26.8034 -26.1047 -26.1047  17.1989  20.2419  20.2419  24.1865  24.1865
    24.8130  33.2876  41.5764  48.1390

          k = 0.0000 0.1667 0.0000 (   299 PWs)   bands (ev):

   -26.0479 -26.0131 -26.0131  15.8569  20.0721  20.5296  20.5296  22.2591
    22.6255  42.8629  46.8989  48.2038

          k =-0.0833 0.2500-0.0833 (   295 PWs)   bands (ev):

   -26.1611 -26.0381 -26.0274  16.4932  19.8042  20.7704  20.7831  22.0510
    22.7146  43.5428  44.7677  48.2825

          k =-0.1667 0.3333-0.1667 (   293 PWs)   bands (ev):

   -26.3444 -26.0688 -26.0514  17.3429  19.7490  20.7801  20.9306  22.3420
    22.9769  41.7619  44.1429  48.4819

          k =-0.2500 0.4167-0.2500 (   294 PWs)   bands (ev):

   -26.5415 -26.0966 -26.0841  17.6625  20.4623  20.5785  20.8152  23.3557
    23.5142  38.6813  43.4178  48.1576

          k =-0.3333 0.5000-0.3333 (   285 PWs)   bands (ev):

   -26.7001 -26.1160 -26.1144  17.5314  20.1854  20.6005  21.8700  24.0343
    24.8493  35.5845  42.4266  47.5062

          k = 0.5833-0.4167 0.5833 (   281 PWs)   bands (ev):

   -26.7806 -26.1389 -26.1174  17.4161  20.0550  20.4521  22.7261  24.2020
    26.2536  33.4221  41.8981  47.2521

          k = 0.5000-0.3333 0.5000 (   280 PWs)   bands (ev):

   -26.7631 -26.1462 -26.1051  17.4525  20.1118  20.4484  22.6880  23.8743
    26.0273  33.9547  41.9798  46.7619

          k = 0.4167-0.2500 0.4167 (   290 PWs)   bands (ev):

   -26.6526 -26.1362 -26.0805  17.6156  20.3176  20.5986  21.6590  23.1804
    24.7854  36.6091  42.6324  47.2731

          k = 0.3333-0.1667 0.3333 (   290 PWs)   bands (ev):

   -26.4767 -26.1101 -26.0498  17.6711  20.2191  20.6969  20.8323  22.4201
    23.7126  39.7385  43.5620  48.3860

          k = 0.2500-0.0833 0.2500 (   292 PWs)   bands (ev):

   -26.2820 -26.0741 -26.0216  17.0888  19.7749  20.7977  20.8751  22.0327
    22.9598  42.6381  43.9259  48.3896

          k = 0.1667-0.0000 0.1667 (   291 PWs)   bands (ev):

   -26.1245 -26.0339 -26.0033  16.2287  19.9843  20.6020  20.6599  22.2013
    22.6181  43.2474  45.1428  48.1109

          k = 0.0000 0.3333 0.0000 (   295 PWs)   bands (ev):

   -26.1948 -26.0680 -26.0680  16.9100  19.4295  21.1278  21.1278  21.6789
    22.9027  44.2509  45.2951  47.2177

          k =-0.0833 0.4167-0.0833 (   297 PWs)   bands (ev):

   -26.3263 -26.1030 -26.0979  17.6137  19.1113  21.0050  21.4441  22.1615
    23.1525  43.2150  44.8422  46.4128

          k =-0.1667 0.5000-0.1667 (   291 PWs)   bands (ev):

   -26.4917 -26.1357 -26.1334  18.0427  19.2875  20.5640  21.4569  23.5831
    23.6405  40.1280  44.1353  45.7375

          k =-0.2500 0.5833-0.2500 (   284 PWs)   bands (ev):

   -26.6361 -26.1823 -26.1511  17.9628  19.7218  20.6023  21.2620  24.1247
    25.5519  36.7842  43.0073  45.3454

          k = 0.6667-0.3333 0.6667 (   283 PWs)   bands (ev):

   -26.7220 -26.2257 -26.1517  17.8954  19.6326  21.0586  21.2693  24.2465
    27.6859  33.9194  42.1720  45.6338

          k = 0.5833-0.2500 0.5833 (   288 PWs)   bands (ev):

   -26.7292 -26.2527 -26.1351  17.9704  19.6426  20.9618  21.5239  23.8617
    28.3075  33.4438  41.7403  45.1865

          k = 0.5000-0.1667 0.5000 (   284 PWs)   bands (ev):

   -26.6589 -26.2524 -26.1054  18.1801  19.8484  21.0106  21.0212  23.1014
    26.8442  35.9610  41.7299  45.2712

          k = 0.4167-0.0833 0.4167 (   292 PWs)   bands (ev):

   -26.5350 -26.2194 -26.0708  18.4044  19.7961  20.3946  21.2366  22.2195
    25.2667  39.1320  42.1331  46.4058

          k = 0.3333 0.0000 0.3333 (   295 PWs)   bands (ev):

   -26.3971 -26.1543 -26.0401  17.9792  19.4547  20.6777  21.3663  21.6572
    23.9276  41.6090  43.0868  48.4381

          k = 0.0000 0.5000 0.0000 (   290 PWs)   bands (ev):

   -26.3887 -26.1424 -26.1424  17.8534  18.6433  21.7195  22.0588  22.0588
    23.2988  44.1537  44.7648  44.7648

          k =-0.0833 0.5833-0.0833 (   296 PWs)   bands (ev):

   -26.5032 -26.1857 -26.1774  17.9990  18.3935  21.5313  22.3373  23.5854
    23.6815  41.6280  43.5827  43.7092

          k =-0.1667 0.6667-0.1667 (   290 PWs)   bands (ev):

   -26.6080 -26.2460 -26.1976  17.9440  18.6065  21.2189  22.2111  24.1803
    25.8705  38.2197  42.2792  43.0317

          k = 0.7500-0.2500 0.7500 (   290 PWs)   bands (ev):

   -26.6662 -26.3179 -26.1983  17.9783  18.9708  20.9982  21.9753  24.3107
    28.5361  34.9554  40.9083  43.3599

          k = 0.6667-0.1667 0.6667 (   280 PWs)   bands (ev):

   -26.6638 -26.3800 -26.1790  18.2265  19.2706  20.7957  21.7752  23.9247
    30.5211  33.1536  39.7493  44.6773

          k = 0.5833-0.0833 0.5833 (   287 PWs)   bands (ev):

   -26.6198 -26.3984 -26.1454  18.6549  19.5241  20.3550  21.6640  23.1815
    29.0001  35.6193  39.0149  45.4885

          k = 0.5000 0.0000 0.5000 (   283 PWs)   bands (ev):

   -26.5760 -26.3359 -26.1056  19.0605  19.5157  20.0162  21.5869  22.4382
    27.0694  38.6262  39.2193  45.6739

          k = 0.0000 0.6667 0.0000 (   302 PWs)   bands (ev):

   -26.5759 -26.2169 -26.2169  17.6668  17.9377  23.1791  23.1791  23.5330
    23.7108  41.9229  41.9229  42.1783

          k =-0.0833 0.7500-0.0833 (   285 PWs)   bands (ev):

   -26.6484 -26.2634 -26.2411  17.5178  17.8004  22.8282  23.2677  24.1766
    25.8405  39.5414  40.6374  41.0214

          k = 0.8333-0.1667 0.8333 (   290 PWs)   bands (ev):

   -26.6755 -26.3413 -26.2446  17.5546  18.0637  22.1985  23.0254  24.3901
    28.6488  36.4730  39.0946  41.1508

          k = 0.7500-0.0833 0.7500 (   282 PWs)   bands (ev):

   -26.6372 -26.4409 -26.2255  17.8102  18.6247  21.4265  22.7115  24.0761
    31.6560  33.7082  37.7573  42.3705

          k = 0.6667-0.0000 0.6667 (   284 PWs)   bands (ev):

   -26.5421 -26.5372 -26.1894  18.2651  19.2970  20.5727  22.2856  23.5307
    31.1831  34.6644  37.1054  44.4063

          k = 0.0000 0.8333 0.0000 (   290 PWs)   bands (ev):

   -26.7081 -26.2709 -26.2709  17.1422  17.4626  24.0290  24.1941  24.1941
    26.1477  38.9967  39.7119  39.7119

          k = 0.9167-0.0833 0.9167 (   291 PWs)   bands (ev):

   -26.7300 -26.3088 -26.2783  17.1101  17.4769  23.7504  23.8780  24.5029
    28.1332  37.6060  38.1876  39.4911

          k = 0.8333 0.0000 0.8333 (   280 PWs)   bands (ev):

   -26.6956 -26.3798 -26.2615  17.3659  17.8893  22.6395  23.4768  24.3352
    30.3744  35.7443  37.1452  40.4783

          k = 0.0000-1.0000 0.0000 (   302 PWs)   bands (ev):

   -26.7563 -26.2908 -26.2908  16.9206  17.2960  24.1477  24.6256  24.6256
    27.6310  37.2061  38.8581  38.8581

          k =-0.1667 0.3333 0.0000 (   296 PWs)   bands (ev):

   -26.2685 -26.0913 -26.0414  17.2106  19.4820  20.8685  21.1313  21.9076
    23.0416  43.4815  43.9984  47.5451

          k =-0.2500 0.4167-0.0833 (   290 PWs)   bands (ev):

   -26.4273 -26.1439 -26.0653  17.9747  19.4498  20.5571  21.3215  22.2931
    23.8481  41.0349  43.6481  47.2458

          k =-0.3333 0.5000-0.1667 (   287 PWs)   bands (ev):

   -26.5897 -26.1828 -26.0969  18.0405  20.1362  20.3044  21.1628  23.1533
    25.1234  37.8750  42.9304  45.8635

          k = 0.5833-0.4167 0.7500 (   285 PWs)   bands (ev):

   -26.7086 -26.2051 -26.1245  17.8672  19.8272  20.8639  21.4237  23.8436
    26.7796  34.7980  42.3358  45.1686

          k = 0.5000-0.3333 0.6667 (   288 PWs)   bands (ev):

   -26.7522 -26.2122 -26.1357  17.7920  19.7141  20.8183  21.8220  24.0738
    27.8906  33.1788  42.1154  45.0798

          k =-0.1667 0.5000 0.0000 (   293 PWs)   bands (ev):

   -26.4348 -26.1688 -26.1172  18.1478  18.7890  20.7796  22.0493  22.5086
    23.8285  42.1888  43.3791  45.7151

          k =-0.2500 0.5833-0.0833 (   287 PWs)   bands (ev):

   -26.5548 -26.2295 -26.1457  18.3104  18.9805  20.4400  22.0807  23.2886
    25.3130  39.3487  42.3751  44.1499

          k = 0.6667-0.3333 0.8333 (   288 PWs)   bands (ev):

   -26.6488 -26.2797 -26.1710  18.2223  19.3051  20.4390  21.8230  23.9417
    27.3990  36.0088  42.0224  42.9793

          k = 0.5833-0.2500 0.7500 (   286 PWs)   bands (ev):

   -26.6902 -26.3179 -26.1763  18.2850  19.2632  20.7964  21.5638  24.0550
    29.5498  33.3868  41.3938  42.9631

          k = 0.5000-0.1667 0.6667 (   286 PWs)   bands (ev):

   -26.6712 -26.3332 -26.1584  18.4787  19.3066  20.6806  21.5273  23.6875
    29.0454  34.2891  40.7323  43.6410

          k = 0.4167-0.0833 0.5833 (   287 PWs)   bands (ev):

   -26.6047 -26.3093 -26.1256  18.7266  19.6144  19.9248  21.7368  22.9586
    27.0978  37.3718  40.5645  44.5211

          k = 0.3333 0.0000 0.5000 (   286 PWs)   bands (ev):

   -26.5167 -26.2397 -26.0904  18.8179  19.1552  20.1002  21.9827  22.1000
    25.3281  40.1483  41.3987  45.7890

          k =-0.1667 0.6667-0.0000 (   289 PWs)   bands (ev):

   -26.5854 -26.2458 -26.2023  17.9697  18.1510  21.5752  23.1711  23.4146
    25.3465  40.5722  41.1290  42.3684

          k = 0.7500-0.2500 0.9167 (   289 PWs)   bands (ev):

   -26.6400 -26.3144 -26.2256  17.9439  18.3512  21.2503  22.9204  24.0247
    27.6667  37.5226  40.6552  40.7955

          k = 0.6667-0.1667 0.8333 (   288 PWs)   bands (ev):

   -26.6438 -26.3954 -26.2271  18.0741  18.7822  20.8714  22.4840  24.1786
    30.4174  34.4522  39.3476  41.2607

          k = 0.5833-0.0833 0.7500 (   281 PWs)   bands (ev):

   -26.6009 -26.4634 -26.2039  18.4313  19.2107  20.3674  22.1702  23.8207
    31.3598  33.9505  38.1483  42.4802

          k = 0.5000 0.0000 0.6667 (   283 PWs)   bands (ev):

   -26.5885 -26.4314 -26.1657  18.9535  19.5434  19.6546  22.0648  23.2265
    29.1878  37.0109  37.6134  43.6800

          k = 0.8333-0.1667 1.0000 (   288 PWs)   bands (ev):

   -26.6889 -26.3020 -26.2680  17.4225  17.7158  22.6675  23.8097  24.1910
    27.7194  38.7327  39.1060  39.2081

          k = 0.7500-0.0833 0.9167 (   284 PWs)   bands (ev):

   -26.6776 -26.3732 -26.2717  17.5744  18.0276  22.0459  23.2948  24.4362
    30.2220  36.2513  37.7179  39.5341

          k = 0.6667 0.0000 0.8333 (   282 PWs)   bands (ev):

   -26.6137 -26.4664 -26.2464  17.9271  18.6531  21.1442  22.7425  24.1922
    32.6820  33.7392  36.9958  40.8735

          k =-0.1667-1.0000-0.0000 (   284 PWs)   bands (ev):

   -26.7254 -26.3223 -26.2924  17.1944  17.5631  23.2610  23.7753  24.6289
    29.2240  37.0616  38.2987  38.3532

          k = 0.6667-0.3333 1.0000 (   288 PWs)   bands (ev):

   -26.5988 -26.3248 -26.1759  18.7475  18.7597  20.1106  22.7108  23.1621
    27.3123  38.7791  39.2886  42.7047

          k = 0.5833-0.2500 0.9167 (   284 PWs)   bands (ev):

   -26.6193 -26.3957 -26.2080  18.6954  19.0338  20.0154  22.3392  23.8065
    29.6004  35.7252  39.2422  41.3731

          k = 0.5000-0.1667 0.8333 (   282 PWs)   bands (ev):

   -26.6239 -26.4224 -26.2220  18.7454  18.9703  20.1743  22.0995  24.0579
    31.6155  33.3262  40.0352  40.2217

          k = 0.6667-0.1667 1.0000 (   289 PWs)   bands (ev):

   -26.6350 -26.3864 -26.2602  18.1122  18.4587  20.8696  22.9729  24.1816
    29.9464  37.4687  37.6608  39.3321

          k = 0.5833-0.0833 0.9167 (   283 PWs)   bands (ev):

   -26.5895 -26.4659 -26.2726  18.2675  18.9676  20.3382  22.4925  24.4104
    32.5502  34.5991  37.7152  38.7307

          k = 0.5000 0.0000 0.8333 (   280 PWs)   bands (ev):

   -26.5563 -26.5007 -26.2497  18.5251  19.5133  19.6402  22.3404  24.1739
    31.9525  35.1933  37.0712  39.9848

          k =-0.3333-1.0000 0.0000 (   282 PWs)   bands (ev):

   -26.6416 -26.4088 -26.2969  17.8617  18.3491  21.3039  22.8953  24.6304
    31.8196  36.7035  36.7249  37.7293

          k =-0.5000-1.0000 0.0000 (   280 PWs)   bands (ev):

   -26.5260 -26.5260 -26.2988  18.3008  19.6178  19.6178  22.3461  24.6308
    34.4413  34.4413  36.5066  37.5341

     the Fermi energy is    24.2393 ev

!    total energy              =    -198.65912725 Ry
     Harris-Foulkes estimate   =    -198.65912717 Ry
     estimated scf accuracy    <       0.00000006 Ry

     The total energy is the sum of the following terms:

     one-electron contribution =     -27.39748194 Ry
     hartree contribution      =      30.40187591 Ry
     xc contribution           =     -31.55834409 Ry
     ewald contribution        =    -170.10502774 Ry
     smearing contrib. (-TS)   =      -0.00014939 Ry

     convergence has been achieved in   5 iterations

     Writing output data file Pd-kp-conv.save/
 
     init_run     :      0.49s CPU      0.54s WALL (       1 calls)
     electrons    :      2.46s CPU      3.03s WALL (       1 calls)

     Called by init_run:
     wfcinit      :      0.17s CPU      0.20s WALL (       1 calls)
     potinit      :      0.00s CPU      0.02s WALL (       1 calls)
     hinit0       :      0.30s CPU      0.31s WALL (       1 calls)

     Called by electrons:
     c_bands      :      2.07s CPU      2.22s WALL (       5 calls)
     sum_band     :      0.35s CPU      0.39s WALL (       5 calls)
     v_of_rho     :      0.01s CPU      0.02s WALL (       6 calls)
     newd         :      0.03s CPU      0.03s WALL (       6 calls)
     mix_rho      :      0.00s CPU      0.00s WALL (       5 calls)

     Called by c_bands:
     init_us_2    :      0.05s CPU      0.06s WALL (     792 calls)
     cegterg      :      1.92s CPU      2.07s WALL (     360 calls)

     Called by sum_band:
     sum_band:bec :      0.00s CPU      0.00s WALL (     360 calls)
     addusdens    :      0.02s CPU      0.03s WALL (       5 calls)

     Called by *egterg:
     h_psi        :      1.57s CPU      1.70s WALL (    1274 calls)
     s_psi        :      0.02s CPU      0.03s WALL (    1274 calls)
     g_psi        :      0.02s CPU      0.02s WALL (     842 calls)
     cdiaghg      :      0.30s CPU      0.32s WALL (    1202 calls)

     Called by h_psi:
     h_psi:pot    :      1.56s CPU      1.69s WALL (    1274 calls)
     h_psi:calbec :      0.04s CPU      0.04s WALL (    1274 calls)
     vloc_psi     :      1.49s CPU      1.61s WALL (    1274 calls)
     add_vuspsi   :      0.03s CPU      0.03s WALL (    1274 calls)

     General routines
     calbec       :      0.04s CPU      0.05s WALL (    1634 calls)
     fft          :      0.01s CPU      0.01s WALL (      67 calls)
     ffts         :      0.00s CPU      0.00s WALL (       5 calls)
     fftw         :      1.53s CPU      1.65s WALL (   27780 calls)
 
     Parallel routines
     fft_scatt_xy :      0.28s CPU      0.30s WALL (   27852 calls)
     fft_scatt_yz :      0.39s CPU      0.43s WALL (   27852 calls)
 
     PWSCF        :     3.05s CPU         3.91s WALL

 
   This run was terminated on:  22:49:44   2Dec2021            

=------------------------------------------------------------------------------=
   JOB DONE.
=------------------------------------------------------------------------------=
