
     Program PWSCF v.6.3 starts on  2Dec2021 at 22:50:27 

     This program is part of the open-source Quantum ESPRESSO suite
     for quantum simulation of materials; please cite
         "P. Giannozzi et al., J. Phys.:Condens. Matter 21 395502 (2009);
         "P. Giannozzi et al., J. Phys.:Condens. Matter 29 465901 (2017);
          URL http://www.quantum-espresso.org", 
     in publications or presentations arising from this work. More details at
     http://www.quantum-espresso.org/quote

     Parallel version (MPI & OpenMP), running on       2 processor cores
     Number of MPI processes:                 2
     Threads/MPI process:                     1

     MPI processes distributed on     1 nodes
     R & G space division:  proc/nbgrp/npool/nimage =       2
     Reading input from pw-input.in

     Current dimensions of program PWSCF are:
     Max number of different atomic species (ntypx) = 10
     Max number of k-points (npk) =  40000
     Max angular momentum in pseudopotentials (lmaxx) =  3

     Subspace diagonalization in iterative solution of the eigenvalue problem:
     a serial algorithm will be used

 
     Parallelization info
     --------------------
     sticks:   dense  smooth     PW     G-vecs:    dense   smooth      PW
     Min         147     147     48                 1643     1643     322
     Max         148     148     49                 1644     1644     323
     Sum         295     295     97                 3287     3287     645
 

     Title: 
     Pd-kp-conv                                                                 


     bravais-lattice index     =            2
     lattice parameter (alat)  =       7.8000  a.u.
     unit-cell volume          =     118.6380 (a.u.)^3
     number of atoms/cell      =            1
     number of atomic types    =            1
     number of electrons       =        16.00
     number of Kohn-Sham states=           12
     kinetic-energy cutoff     =      35.0000  Ry
     charge density cutoff     =     140.0000  Ry
     convergence threshold     =      1.0E-07
     mixing beta               =       0.7000
     number of iterations used =            8  plain     mixing
     Exchange-correlation      =  SLA  PW   PBX  PBC ( 1  4  3  4 0 0)

     celldm(1)=   7.800000  celldm(2)=   0.000000  celldm(3)=   0.000000
     celldm(4)=   0.000000  celldm(5)=   0.000000  celldm(6)=   0.000000

     crystal axes: (cart. coord. in units of alat)
               a(1) = (  -0.500000   0.000000   0.500000 )  
               a(2) = (   0.000000   0.500000   0.500000 )  
               a(3) = (  -0.500000   0.500000   0.000000 )  

     reciprocal axes: (cart. coord. in units 2 pi/alat)
               b(1) = ( -1.000000 -1.000000  1.000000 )  
               b(2) = (  1.000000  1.000000  1.000000 )  
               b(3) = ( -1.000000  1.000000 -1.000000 )  


     PseudoPot. # 1 for Pd read from file:
     ./pd_pbe_v1.4.uspp.F.UPF
     MD5 check sum: 2d733d2bc2cbfd217af676df1668a4bc
     Pseudo is Ultrasoft + core correction, Zval = 16.0
     Generated by new atomic code, or converted to UPF format
     Using radial grid of  887 points,  6 beta functions with: 
                l(1) =   0
                l(2) =   0
                l(3) =   1
                l(4) =   1
                l(5) =   2
                l(6) =   2
     Q(r) pseudized with  8 coefficients,  rinner =    1.130   1.130   1.130
                                                       1.130   1.130

     atomic species   valence    mass     pseudopotential
        Pd            16.00   106.40000     Pd( 1.00)

     48 Sym. Ops., with inversion, found



   Cartesian axes

     site n.     atom                  positions (alat units)
         1           Pd  tau(   1) = (   0.0000000   0.0000000   0.0000000  )

     number of k points=    72  Marzari-Vanderbilt smearing, width (Ry)=  0.0350
                       cart. coord. in units 2pi/alat
        k(    1) = (   0.0000000   0.0000000   0.0000000), wk =   0.0011574
        k(    2) = (  -0.0833333   0.0833333  -0.0833333), wk =   0.0092593
        k(    3) = (  -0.1666667   0.1666667  -0.1666667), wk =   0.0092593
        k(    4) = (  -0.2500000   0.2500000  -0.2500000), wk =   0.0092593
        k(    5) = (  -0.3333333   0.3333333  -0.3333333), wk =   0.0092593
        k(    6) = (  -0.4166667   0.4166667  -0.4166667), wk =   0.0092593
        k(    7) = (   0.5000000  -0.5000000   0.5000000), wk =   0.0046296
        k(    8) = (   0.0000000   0.1666667   0.0000000), wk =   0.0069444
        k(    9) = (  -0.0833333   0.2500000  -0.0833333), wk =   0.0277778
        k(   10) = (  -0.1666667   0.3333333  -0.1666667), wk =   0.0277778
        k(   11) = (  -0.2500000   0.4166667  -0.2500000), wk =   0.0277778
        k(   12) = (  -0.3333333   0.5000000  -0.3333333), wk =   0.0277778
        k(   13) = (   0.5833333  -0.4166667   0.5833333), wk =   0.0277778
        k(   14) = (   0.5000000  -0.3333333   0.5000000), wk =   0.0277778
        k(   15) = (   0.4166667  -0.2500000   0.4166667), wk =   0.0277778
        k(   16) = (   0.3333333  -0.1666667   0.3333333), wk =   0.0277778
        k(   17) = (   0.2500000  -0.0833333   0.2500000), wk =   0.0277778
        k(   18) = (   0.1666667  -0.0000000   0.1666667), wk =   0.0138889
        k(   19) = (   0.0000000   0.3333333   0.0000000), wk =   0.0069444
        k(   20) = (  -0.0833333   0.4166667  -0.0833333), wk =   0.0277778
        k(   21) = (  -0.1666667   0.5000000  -0.1666667), wk =   0.0277778
        k(   22) = (  -0.2500000   0.5833333  -0.2500000), wk =   0.0277778
        k(   23) = (   0.6666667  -0.3333333   0.6666667), wk =   0.0277778
        k(   24) = (   0.5833333  -0.2500000   0.5833333), wk =   0.0277778
        k(   25) = (   0.5000000  -0.1666667   0.5000000), wk =   0.0277778
        k(   26) = (   0.4166667  -0.0833333   0.4166667), wk =   0.0277778
        k(   27) = (   0.3333333   0.0000000   0.3333333), wk =   0.0138889
        k(   28) = (   0.0000000   0.5000000   0.0000000), wk =   0.0069444
        k(   29) = (  -0.0833333   0.5833333  -0.0833333), wk =   0.0277778
        k(   30) = (  -0.1666667   0.6666667  -0.1666667), wk =   0.0277778
        k(   31) = (   0.7500000  -0.2500000   0.7500000), wk =   0.0277778
        k(   32) = (   0.6666667  -0.1666667   0.6666667), wk =   0.0277778
        k(   33) = (   0.5833333  -0.0833333   0.5833333), wk =   0.0277778
        k(   34) = (   0.5000000   0.0000000   0.5000000), wk =   0.0138889
        k(   35) = (   0.0000000   0.6666667   0.0000000), wk =   0.0069444
        k(   36) = (  -0.0833333   0.7500000  -0.0833333), wk =   0.0277778
        k(   37) = (   0.8333333  -0.1666667   0.8333333), wk =   0.0277778
        k(   38) = (   0.7500000  -0.0833333   0.7500000), wk =   0.0277778
        k(   39) = (   0.6666667  -0.0000000   0.6666667), wk =   0.0138889
        k(   40) = (   0.0000000   0.8333333   0.0000000), wk =   0.0069444
        k(   41) = (   0.9166667  -0.0833333   0.9166667), wk =   0.0277778
        k(   42) = (   0.8333333   0.0000000   0.8333333), wk =   0.0138889
        k(   43) = (   0.0000000  -1.0000000   0.0000000), wk =   0.0034722
        k(   44) = (  -0.1666667   0.3333333   0.0000000), wk =   0.0277778
        k(   45) = (  -0.2500000   0.4166667  -0.0833333), wk =   0.0555556
        k(   46) = (  -0.3333333   0.5000000  -0.1666667), wk =   0.0555556
        k(   47) = (   0.5833333  -0.4166667   0.7500000), wk =   0.0555556
        k(   48) = (   0.5000000  -0.3333333   0.6666667), wk =   0.0277778
        k(   49) = (  -0.1666667   0.5000000   0.0000000), wk =   0.0277778
        k(   50) = (  -0.2500000   0.5833333  -0.0833333), wk =   0.0555556
        k(   51) = (   0.6666667  -0.3333333   0.8333333), wk =   0.0555556
        k(   52) = (   0.5833333  -0.2500000   0.7500000), wk =   0.0555556
        k(   53) = (   0.5000000  -0.1666667   0.6666667), wk =   0.0555556
        k(   54) = (   0.4166667  -0.0833333   0.5833333), wk =   0.0555556
        k(   55) = (   0.3333333   0.0000000   0.5000000), wk =   0.0277778
        k(   56) = (  -0.1666667   0.6666667  -0.0000000), wk =   0.0277778
        k(   57) = (   0.7500000  -0.2500000   0.9166667), wk =   0.0555556
        k(   58) = (   0.6666667  -0.1666667   0.8333333), wk =   0.0555556
        k(   59) = (   0.5833333  -0.0833333   0.7500000), wk =   0.0555556
        k(   60) = (   0.5000000   0.0000000   0.6666667), wk =   0.0277778
        k(   61) = (   0.8333333  -0.1666667   1.0000000), wk =   0.0277778
        k(   62) = (   0.7500000  -0.0833333   0.9166667), wk =   0.0555556
        k(   63) = (   0.6666667   0.0000000   0.8333333), wk =   0.0277778
        k(   64) = (  -0.1666667  -1.0000000  -0.0000000), wk =   0.0138889
        k(   65) = (   0.6666667  -0.3333333   1.0000000), wk =   0.0277778
        k(   66) = (   0.5833333  -0.2500000   0.9166667), wk =   0.0555556
        k(   67) = (   0.5000000  -0.1666667   0.8333333), wk =   0.0277778
        k(   68) = (   0.6666667  -0.1666667   1.0000000), wk =   0.0277778
        k(   69) = (   0.5833333  -0.0833333   0.9166667), wk =   0.0555556
        k(   70) = (   0.5000000   0.0000000   0.8333333), wk =   0.0277778
        k(   71) = (  -0.3333333  -1.0000000   0.0000000), wk =   0.0138889
        k(   72) = (  -0.5000000  -1.0000000   0.0000000), wk =   0.0069444

     Dense  grid:     3287 G-vectors     FFT dimensions: (  24,  24,  24)

     Estimated max dynamical RAM per process >       9.85 MB

     Estimated total dynamical RAM >      19.70 MB

     Initial potential from superposition of free atoms
     Check: negative starting charge=   -0.079046

     starting charge   15.49999, renormalised to   16.00000

     negative rho (up, down):  8.160E-02 0.000E+00
     Starting wfcs are   12 randomized atomic wfcs

     total cpu time spent up to now is        0.8 secs

     Self-consistent Calculation

     iteration #  1     ecut=    35.00 Ry     beta= 0.70
     Davidson diagonalization with overlap
     ethr =  1.00E-02,  avg # of iterations =  3.6

     negative rho (up, down):  8.026E-02 0.000E+00

     total cpu time spent up to now is        1.7 secs

     total energy              =    -198.05163158 Ry
     Harris-Foulkes estimate   =    -199.06147716 Ry
     estimated scf accuracy    <       1.38032835 Ry

     iteration #  2     ecut=    35.00 Ry     beta= 0.70
     Davidson diagonalization with overlap
     ethr =  8.63E-03,  avg # of iterations =  2.0

     negative rho (up, down):  8.153E-02 0.000E+00

     total cpu time spent up to now is        2.4 secs

     total energy              =    -198.36612832 Ry
     Harris-Foulkes estimate   =    -199.16334469 Ry
     estimated scf accuracy    <       1.65591857 Ry

     iteration #  3     ecut=    35.00 Ry     beta= 0.70
     Davidson diagonalization with overlap
     ethr =  8.63E-03,  avg # of iterations =  2.0

     negative rho (up, down):  8.163E-02 0.000E+00

     total cpu time spent up to now is        3.1 secs

     total energy              =    -198.69108022 Ry
     Harris-Foulkes estimate   =    -198.69163964 Ry
     estimated scf accuracy    <       0.00125268 Ry

     iteration #  4     ecut=    35.00 Ry     beta= 0.70
     Davidson diagonalization with overlap
     ethr =  7.83E-06,  avg # of iterations =  2.6

     negative rho (up, down):  8.176E-02 0.000E+00

     total cpu time spent up to now is        3.9 secs

     total energy              =    -198.69158520 Ry
     Harris-Foulkes estimate   =    -198.69158365 Ry
     estimated scf accuracy    <       0.00000230 Ry

     iteration #  5     ecut=    35.00 Ry     beta= 0.70
     Davidson diagonalization with overlap
     ethr =  1.44E-08,  avg # of iterations =  2.0

     negative rho (up, down):  8.180E-02 0.000E+00

     total cpu time spent up to now is        4.6 secs

     total energy              =    -198.69158577 Ry
     Harris-Foulkes estimate   =    -198.69158561 Ry
     estimated scf accuracy    <       0.00000011 Ry

     iteration #  6     ecut=    35.00 Ry     beta= 0.70
     Davidson diagonalization with overlap
     ethr =  7.06E-10,  avg # of iterations =  2.0

     negative rho (up, down):  8.180E-02 0.000E+00

     total cpu time spent up to now is        5.3 secs

     End of self-consistent calculation

          k = 0.0000 0.0000 0.0000 (   411 PWs)   bands (ev):

   -34.6661 -34.6661 -34.6661   8.7361  12.4789  12.4789  12.4789  13.6862
    13.6862  32.0820  35.8300  35.8300

          k =-0.0833 0.0833-0.0833 (   411 PWs)   bands (ev):

   -34.6802 -34.6681 -34.6681   8.9525  12.4185  12.5444  12.5444  13.6601
    13.6601  32.1461  34.2317  35.9476

          k =-0.1667 0.1667-0.1667 (   408 PWs)   bands (ev):

   -34.7192 -34.6738 -34.6738   9.5481  12.3145  12.6767  12.6767  13.6481
    13.6481  30.7504  33.0050  36.1749

          k =-0.2500 0.2500-0.2500 (   410 PWs)   bands (ev):

   -34.7726 -34.6817 -34.6817  10.2606  12.4786  12.7071  12.7071  13.8127
    13.8127  27.7626  32.7096  36.1103

          k =-0.3333 0.3333-0.3333 (   419 PWs)   bands (ev):

   -34.8257 -34.6898 -34.6898  10.5788  12.6060  12.6060  13.4417  14.1479
    14.1479  24.7278  32.0625  35.4183

          k =-0.4167 0.4167-0.4167 (   416 PWs)   bands (ev):

   -34.8642 -34.6955 -34.6955  10.5746  12.4976  12.4976  14.4587  14.4587
    15.0004  22.0456  31.5084  34.6178

          k = 0.5000-0.5000 0.5000 (   410 PWs)   bands (ev):

   -34.8779 -34.6976 -34.6976  10.5480  12.4544  12.4544  14.5833  14.5833
    16.0056  20.6811  31.3041  34.2928

          k = 0.0000 0.1667 0.0000 (   407 PWs)   bands (ev):

   -34.6796 -34.6713 -34.6713   9.0248  12.3467  12.5965  12.5965  13.5543
    13.7418  32.2491  34.7689  35.2108

          k =-0.0833 0.2500-0.0833 (   409 PWs)   bands (ev):

   -34.7088 -34.6782 -34.6753   9.4987  12.2041  12.7357  12.7404  13.4529
    13.7959  31.7567  33.0202  34.6470

          k =-0.1667 0.3333-0.1667 (   411 PWs)   bands (ev):

   -34.7566 -34.6866 -34.6820  10.2125  12.1607  12.7568  12.8270  13.6206
    13.9464  28.9254  32.7555  34.1383

          k =-0.2500 0.4167-0.2500 (   415 PWs)   bands (ev):

   -34.8085 -34.6947 -34.6911  10.6818  12.5694  12.6495  12.7695  14.2312
    14.2351  25.8383  32.2122  33.6487

          k =-0.3333 0.5000-0.3333 (   419 PWs)   bands (ev):

   -34.8508 -34.7001 -34.6999  10.7232  12.4354  12.6542  13.4475  14.5054
    15.3302  22.9594  31.6023  33.3455

          k = 0.5833-0.4167 0.5833 (   413 PWs)   bands (ev):

   -34.8721 -34.7062 -34.7009  10.6846  12.3629  12.5742  13.9380  14.5914
    16.6304  20.8881  31.2225  33.3521

          k = 0.5000-0.3333 0.5000 (   411 PWs)   bands (ev):

   -34.8675 -34.7080 -34.6975  10.7000  12.3926  12.5735  13.9372  14.4268
    16.3042  21.4153  31.1509  33.0523

          k = 0.4167-0.2500 0.4167 (   413 PWs)   bands (ev):

   -34.8381 -34.7050 -34.6907  10.7460  12.5014  12.6573  13.3367  14.0666
    15.1107  23.8893  31.3576  33.4530

          k = 0.3333-0.1667 0.3333 (   411 PWs)   bands (ev):

   -34.7914 -34.6977 -34.6822  10.5995  12.4095  12.7178  12.7823  13.6609
    14.3733  26.8698  31.7359  34.3967

          k = 0.2500-0.0833 0.2500 (   402 PWs)   bands (ev):

   -34.7399 -34.6877 -34.6741   9.9724  12.1853  12.7565  12.7973  13.4486
    13.9401  29.9358  32.1106  35.1239

          k = 0.1667-0.0000 0.1667 (   411 PWs)   bands (ev):

   -34.6995 -34.6769 -34.6691   9.2993  12.3023  12.6388  12.6700  13.5265
    13.7445  32.0847  32.8857  35.0620

          k = 0.0000 0.3333 0.0000 (   407 PWs)   bands (ev):

   -34.7173 -34.6862 -34.6862   9.8200  12.0002  12.9353  12.9353  13.2603
    13.8951  32.6614  33.3675  33.4115

          k =-0.0833 0.4167-0.0833 (   415 PWs)   bands (ev):

   -34.7521 -34.6957 -34.6942  10.4105  11.8201  12.8855  13.1141  13.5246
    14.0341  30.3233  32.4582  32.7543

          k =-0.1667 0.5000-0.1667 (   416 PWs)   bands (ev):

   -34.7958 -34.7045 -34.7043  10.9322  11.8839  12.6338  13.1263  14.2979
    14.3855  27.1915  31.8069  32.0467

          k =-0.2500 0.5833-0.2500 (   419 PWs)   bands (ev):

   -34.8343 -34.7171 -34.7095  11.0198  12.1972  12.6297  13.0246  14.5505
    15.7343  24.1668  30.9949  31.5572

          k = 0.6667-0.3333 0.6667 (   409 PWs)   bands (ev):

   -34.8570 -34.7285 -34.7097  11.0024  12.1480  12.9177  13.0592  14.6153
    17.4337  21.5852  29.9945  31.8549

          k = 0.5833-0.2500 0.5833 (   412 PWs)   bands (ev):

   -34.8589 -34.7357 -34.7055  11.0408  12.1504  12.8660  13.2241  14.4217
    17.9513  21.0484  29.2668  32.6248

          k = 0.5000-0.1667 0.5000 (   418 PWs)   bands (ev):

   -34.8403 -34.7355 -34.6977  11.1382  12.2574  12.8996  12.9214  14.0250
    16.5340  23.3509  28.9415  32.9986

          k = 0.4167-0.0833 0.4167 (   414 PWs)   bands (ev):

   -34.8072 -34.7264 -34.6880  11.1650  12.1666  12.5710  13.0181  13.5519
    15.3336  26.2580  29.0267  33.9079

          k = 0.3333 0.0000 0.3333 (   417 PWs)   bands (ev):

   -34.7706 -34.7091 -34.6795  10.6657  12.0088  12.7097  13.0741  13.2519
    14.4903  29.0778  29.6494  35.3205

          k = 0.0000 0.5000 0.0000 (   415 PWs)   bands (ev):

   -34.7686 -34.7064 -34.7064  10.7190  11.5593  13.2899  13.4554  13.4554
    14.1100  31.1273  31.1273  31.9318

          k =-0.0833 0.5833-0.0833 (   421 PWs)   bands (ev):

   -34.7991 -34.7180 -34.7161  10.9951  11.4053  13.1738  13.6101  14.3171
    14.4084  28.6197  30.2142  30.6910

          k =-0.1667 0.6667-0.1667 (   423 PWs)   bands (ev):

   -34.8274 -34.7340 -34.7219  11.0831  11.5208  12.9919  13.5469  14.5782
    15.9548  25.6093  29.1801  29.8262

          k = 0.7500-0.2500 0.7500 (   416 PWs)   bands (ev):

   -34.8429 -34.7526 -34.7224  11.1243  11.7542  12.8704  13.4248  14.6488
    17.9107  22.8204  27.8492  30.0733

          k = 0.6667-0.1667 0.6667 (   412 PWs)   bands (ev):

   -34.8424 -34.7688 -34.7173  11.2668  11.9256  12.7658  13.3200  14.4535
    19.6469  20.9869  26.8030  30.9874

          k = 0.5833-0.0833 0.5833 (   414 PWs)   bands (ev):

   -34.8305 -34.7736 -34.7083  11.4960  12.0671  12.5170  13.2626  14.0666
    18.1481  23.1357  26.1588  32.4734

          k = 0.5000 0.0000 0.5000 (   413 PWs)   bands (ev):

   -34.8186 -34.7571 -34.6976  11.6544  12.0286  12.3577  13.2217  13.6665
    16.5883  25.9516  26.0456  33.3864

          k = 0.0000 0.6667 0.0000 (   432 PWs)   bands (ev):

   -34.8187 -34.7270 -34.7270  10.8880  11.1473  14.0655  14.0655  14.3319
    14.5615  28.9071  29.0314  29.0314

          k =-0.0833 0.7500-0.0833 (   422 PWs)   bands (ev):

   -34.8383 -34.7391 -34.7336  10.8619  11.0600  13.9257  14.1118  14.5784
    16.0873  26.8960  27.3867  28.4162

          k = 0.8333-0.1667 0.8333 (   417 PWs)   bands (ev):

   -34.8457 -34.7593 -34.7347  10.9160  11.2068  13.5725  13.9898  14.6903
    18.0847  24.3684  25.9057  28.5022

          k = 0.7500-0.0833 0.7500 (   416 PWs)   bands (ev):

   -34.8361 -34.7848 -34.7297  11.0760  11.5275  13.1272  13.8289  14.5318
    20.3486  22.0236  24.7512  29.3095

          k = 0.6667-0.0000 0.6667 (   403 PWs)   bands (ev):

   -34.8104 -34.8097 -34.7199  11.3365  11.9134  12.6324  13.6054  14.2500
    19.9485  22.5769  24.2948  30.7081

          k = 0.0000 0.8333 0.0000 (   424 PWs)   bands (ev):

   -34.8543 -34.7416 -34.7416  10.6625  10.8642  14.4999  14.5965  14.5965
    16.6497  25.5165  27.5457  27.5457

          k = 0.9167-0.0833 0.9167 (   421 PWs)   bands (ev):

   -34.8604 -34.7514 -34.7437  10.6612  10.8669  14.4158  14.4286  14.7506
    18.0623  24.2441  26.1996  27.4014

          k = 0.8333 0.0000 0.8333 (   420 PWs)   bands (ev):

   -34.8516 -34.7696 -34.7393  10.8215  11.0994  13.8221  14.2274  14.6660
    19.5987  23.5359  24.3529  28.0345

          k = 0.0000-1.0000 0.0000 (   412 PWs)   bands (ev):

   -34.8673 -34.7465 -34.7465  10.5503  10.7648  14.5650  14.8159  14.8159
    18.0030  23.7222  27.0001  27.0001

          k =-0.1667 0.3333 0.0000 (   408 PWs)   bands (ev):

   -34.7366 -34.6923 -34.6793  10.0522  12.0286  12.8022  12.9400  13.3810
    13.9799  31.0717  31.3322  34.7186

          k =-0.2500 0.4167-0.0833 (   414 PWs)   bands (ev):

   -34.7786 -34.7065 -34.6862  10.7361  11.9868  12.6466  13.0513  13.5988
    14.4478  28.1469  30.7569  33.9733

          k =-0.3333 0.5000-0.1667 (   413 PWs)   bands (ev):

   -34.8216 -34.7170 -34.6950  11.0026  12.4196  12.4684  12.9711  14.0688
    15.2999  25.0851  30.4409  32.6978

          k = 0.5833-0.4167 0.7500 (   417 PWs)   bands (ev):

   -34.8534 -34.7233 -34.7027  10.9600  12.2508  12.8085  13.1621  14.4182
    16.6503  22.3140  30.4037  31.7174

          k = 0.5000-0.3333 0.6667 (   412 PWs)   bands (ev):

   -34.8648 -34.7251 -34.7057  10.9271  12.1887  12.7830  13.4039  14.5292
    17.7556  20.7399  30.5472  31.2299

          k =-0.1667 0.5000 0.0000 (   415 PWs)   bands (ev):

   -34.7808 -34.7133 -34.6997  10.9177  11.6375  12.7545  13.4507  13.7274
    14.4376  29.4203  29.8201  32.4593

          k =-0.2500 0.5833-0.0833 (   414 PWs)   bands (ev):

   -34.8128 -34.7294 -34.7077  11.2319  11.7148  12.5488  13.4777  14.1418
    15.4362  26.5047  29.2080  30.9731

          k = 0.6667-0.3333 0.8333 (   417 PWs)   bands (ev):

   -34.8380 -34.7428 -34.7148  11.2295  11.9599  12.5391  13.3426  14.4685
    16.9976  23.5814  29.1776  29.6277

          k = 0.5833-0.2500 0.7500 (   415 PWs)   bands (ev):

   -34.8490 -34.7528 -34.7164  11.2629  11.9410  12.7738  13.2025  14.5219
    18.8299  21.1893  28.5315  29.6402

          k = 0.5000-0.1667 0.6667 (   415 PWs)   bands (ev):

   -34.8439 -34.7566 -34.7118  11.3606  11.9700  12.7109  13.1842  14.3342
    18.2998  21.9741  27.8005  30.5079

          k = 0.4167-0.0833 0.5833 (   415 PWs)   bands (ev):

   -34.8262 -34.7502 -34.7029  11.4848  12.1332  12.2512  13.3013  13.9538
    16.6532  24.6691  27.5272  31.6149

          k = 0.3333 0.0000 0.5000 (   416 PWs)   bands (ev):

   -34.8026 -34.7319 -34.6933  11.3771  11.8342  12.4073  13.4389  13.4803
    15.3747  27.4470  27.9174  32.8665

          k =-0.1667 0.6667-0.0000 (   422 PWs)   bands (ev):

   -34.8214 -34.7343 -34.7229  11.0813  11.2650  13.2020  14.0609  14.2158
    15.5467  27.8178  28.0984  29.0571

          k = 0.7500-0.2500 0.9167 (   417 PWs)   bands (ev):

   -34.8362 -34.7522 -34.7292  11.1259  11.3761  13.0179  13.9417  14.5097
    17.2319  25.1059  27.4594  27.9313

          k = 0.6667-0.1667 0.8333 (   415 PWs)   bands (ev):

   -34.8375 -34.7731 -34.7298  11.2170  11.6278  12.8026  13.7095  14.5863
    19.3253  22.4978  26.2545  28.2982

          k = 0.5833-0.0833 0.7500 (   415 PWs)   bands (ev):

   -34.8262 -34.7906 -34.7240  11.4318  11.8609  12.5156  13.5422  14.4021
    20.1229  21.8682  25.3018  29.2195

          k = 0.5000 0.0000 0.6667 (   414 PWs)   bands (ev):

   -34.8224 -34.7822 -34.7138  11.7232  12.0389  12.1048  13.4879  14.0896
    18.2546  24.3655  24.9518  30.4064

          k = 0.8333-0.1667 1.0000 (   416 PWs)   bands (ev):

   -34.8493 -34.7494 -34.7406  10.8368  11.0058  13.8290  14.4087  14.5948
    17.4919  25.5139  26.7742  26.8226

          k = 0.7500-0.0833 0.9167 (   419 PWs)   bands (ev):

   -34.8467 -34.7679 -34.7417  10.9438  11.1788  13.4836  14.1393  14.7178
    19.3639  24.0057  24.8144  27.0858

          k = 0.6667 0.0000 0.8333 (   419 PWs)   bands (ev):

   -34.8301 -34.7917 -34.7351  11.1557  11.5357  12.9650  13.8512  14.5930
    21.1957  22.0875  24.0278  27.9792

          k =-0.1667-1.0000-0.0000 (   420 PWs)   bands (ev):

   -34.8595 -34.7550 -34.7473  10.7176  10.9134  14.1583  14.3794  14.8149
    18.8837  23.7046  26.2731  26.3367

          k = 0.6667-0.3333 1.0000 (   417 PWs)   bands (ev):

   -34.8250 -34.7546 -34.7160  11.5773  11.6016  12.3480  13.8417  14.0564
    16.8413  26.1367  26.2954  29.5261

          k = 0.5833-0.2500 0.9167 (   414 PWs)   bands (ev):

   -34.8307 -34.7732 -34.7247  11.5739  11.7776  12.2950  13.6355  14.3966
    18.6158  23.4058  26.3792  28.2608

          k = 0.5000-0.1667 0.8333 (   416 PWs)   bands (ev):

   -34.8323 -34.7801 -34.7284  11.6549  11.6792  12.4069  13.5041  14.5257
    20.4332  21.2292  26.7937  27.4750

          k = 0.6667-0.1667 1.0000 (   412 PWs)   bands (ev):

   -34.8352 -34.7710 -34.7382  11.2639  11.4225  12.8023  13.9781  14.5898
    18.9571  25.0555  25.0786  26.4016

          k = 0.5833-0.0833 0.9167 (   410 PWs)   bands (ev):

   -34.8236 -34.7916 -34.7414  11.3679  11.7089  12.4975  13.7235  14.7058
    21.0213  22.6474  24.7875  26.1140

          k = 0.5000 0.0000 0.8333 (   408 PWs)   bands (ev):

   -34.8147 -34.8005 -34.7354  11.5261  12.0081  12.0966  13.6411  14.5856
    20.4924  23.1159  24.3588  27.0284

          k =-0.3333-1.0000 0.0000 (   418 PWs)   bands (ev):

   -34.8375 -34.7772 -34.7479  11.1247  11.3562  13.0581  13.9354  14.8156
    20.6384  23.6745  24.6140  25.3865

          k =-0.5000-1.0000 0.0000 (   412 PWs)   bands (ev):

   -34.8074 -34.8074 -34.7480  11.3911  12.0834  12.0834  13.6478  14.8156
    22.6333  22.6333  23.6631  25.0115

     the Fermi energy is    14.6841 ev

!    total energy              =    -198.69158578 Ry
     Harris-Foulkes estimate   =    -198.69158578 Ry
     estimated scf accuracy    <          5.3E-10 Ry

     The total energy is the sum of the following terms:

     one-electron contribution =     -57.29851470 Ry
     hartree contribution      =      40.34325118 Ry
     xc contribution           =     -31.26067051 Ry
     ewald contribution        =    -150.47752455 Ry
     smearing contrib. (-TS)   =       0.00187279 Ry

     convergence has been achieved in   6 iterations

     Writing output data file Pd-kp-conv.save/
 
     init_run     :      0.62s CPU      0.68s WALL (       1 calls)
     electrons    :      4.25s CPU      4.89s WALL (       1 calls)

     Called by init_run:
     wfcinit      :      0.28s CPU      0.31s WALL (       1 calls)
     potinit      :      0.01s CPU      0.02s WALL (       1 calls)
     hinit0       :      0.32s CPU      0.33s WALL (       1 calls)

     Called by electrons:
     c_bands      :      3.50s CPU      3.73s WALL (       6 calls)
     sum_band     :      0.68s CPU      0.71s WALL (       6 calls)
     v_of_rho     :      0.03s CPU      0.03s WALL (       7 calls)
     newd         :      0.05s CPU      0.05s WALL (       7 calls)
     mix_rho      :      0.00s CPU      0.00s WALL (       6 calls)

     Called by c_bands:
     init_us_2    :      0.09s CPU      0.10s WALL (     936 calls)
     cegterg      :      3.26s CPU      3.48s WALL (     432 calls)

     Called by sum_band:
     sum_band:bec :      0.00s CPU      0.00s WALL (     432 calls)
     addusdens    :      0.04s CPU      0.05s WALL (       6 calls)

     Called by *egterg:
     h_psi        :      2.83s CPU      3.03s WALL (    1527 calls)
     s_psi        :      0.04s CPU      0.04s WALL (    1527 calls)
     g_psi        :      0.03s CPU      0.03s WALL (    1023 calls)
     cdiaghg      :      0.37s CPU      0.39s WALL (    1455 calls)

     Called by h_psi:
     h_psi:pot    :      2.82s CPU      3.02s WALL (    1527 calls)
     h_psi:calbec :      0.06s CPU      0.06s WALL (    1527 calls)
     vloc_psi     :      2.71s CPU      2.90s WALL (    1527 calls)
     add_vuspsi   :      0.04s CPU      0.04s WALL (    1527 calls)

     General routines
     calbec       :      0.07s CPU      0.07s WALL (    1959 calls)
     fft          :      0.01s CPU      0.01s WALL (      78 calls)
     ffts         :      0.00s CPU      0.00s WALL (       6 calls)
     fftw         :      2.79s CPU      2.97s WALL (   32528 calls)
 
     Parallel routines
     fft_scatt_xy :      0.52s CPU      0.56s WALL (   32612 calls)
     fft_scatt_yz :      0.58s CPU      0.63s WALL (   32612 calls)
 
     PWSCF        :     4.98s CPU         5.91s WALL

 
   This run was terminated on:  22:50:33   2Dec2021            

=------------------------------------------------------------------------------=
   JOB DONE.
=------------------------------------------------------------------------------=
