
     Program PWSCF v.6.3 starts on  2Dec2021 at 22:51:12 

     This program is part of the open-source Quantum ESPRESSO suite
     for quantum simulation of materials; please cite
         "P. Giannozzi et al., J. Phys.:Condens. Matter 21 395502 (2009);
         "P. Giannozzi et al., J. Phys.:Condens. Matter 29 465901 (2017);
          URL http://www.quantum-espresso.org", 
     in publications or presentations arising from this work. More details at
     http://www.quantum-espresso.org/quote

     Parallel version (MPI & OpenMP), running on       2 processor cores
     Number of MPI processes:                 2
     Threads/MPI process:                     1

     MPI processes distributed on     1 nodes
     R & G space division:  proc/nbgrp/npool/nimage =       2
     Reading input from pw-input.in

     Current dimensions of program PWSCF are:
     Max number of different atomic species (ntypx) = 10
     Max number of k-points (npk) =  40000
     Max angular momentum in pseudopotentials (lmaxx) =  3

     Subspace diagonalization in iterative solution of the eigenvalue problem:
     a serial algorithm will be used

 
     Parallelization info
     --------------------
     sticks:   dense  smooth     PW     G-vecs:    dense   smooth      PW
     Min         174     174     60                 2142     2142     434
     Max         175     175     61                 2143     2143     435
     Sum         349     349    121                 4285     4285     869
 

     Title: 
     Pd-kp-conv                                                                 


     bravais-lattice index     =            2
     lattice parameter (alat)  =       8.5000  a.u.
     unit-cell volume          =     153.5312 (a.u.)^3
     number of atoms/cell      =            1
     number of atomic types    =            1
     number of electrons       =        16.00
     number of Kohn-Sham states=           12
     kinetic-energy cutoff     =      35.0000  Ry
     charge density cutoff     =     140.0000  Ry
     convergence threshold     =      1.0E-07
     mixing beta               =       0.7000
     number of iterations used =            8  plain     mixing
     Exchange-correlation      =  SLA  PW   PBX  PBC ( 1  4  3  4 0 0)

     celldm(1)=   8.500000  celldm(2)=   0.000000  celldm(3)=   0.000000
     celldm(4)=   0.000000  celldm(5)=   0.000000  celldm(6)=   0.000000

     crystal axes: (cart. coord. in units of alat)
               a(1) = (  -0.500000   0.000000   0.500000 )  
               a(2) = (   0.000000   0.500000   0.500000 )  
               a(3) = (  -0.500000   0.500000   0.000000 )  

     reciprocal axes: (cart. coord. in units 2 pi/alat)
               b(1) = ( -1.000000 -1.000000  1.000000 )  
               b(2) = (  1.000000  1.000000  1.000000 )  
               b(3) = ( -1.000000  1.000000 -1.000000 )  


     PseudoPot. # 1 for Pd read from file:
     ./pd_pbe_v1.4.uspp.F.UPF
     MD5 check sum: 2d733d2bc2cbfd217af676df1668a4bc
     Pseudo is Ultrasoft + core correction, Zval = 16.0
     Generated by new atomic code, or converted to UPF format
     Using radial grid of  887 points,  6 beta functions with: 
                l(1) =   0
                l(2) =   0
                l(3) =   1
                l(4) =   1
                l(5) =   2
                l(6) =   2
     Q(r) pseudized with  8 coefficients,  rinner =    1.130   1.130   1.130
                                                       1.130   1.130

     atomic species   valence    mass     pseudopotential
        Pd            16.00   106.40000     Pd( 1.00)

     48 Sym. Ops., with inversion, found



   Cartesian axes

     site n.     atom                  positions (alat units)
         1           Pd  tau(   1) = (   0.0000000   0.0000000   0.0000000  )

     number of k points=    72  Marzari-Vanderbilt smearing, width (Ry)=  0.0350
                       cart. coord. in units 2pi/alat
        k(    1) = (   0.0000000   0.0000000   0.0000000), wk =   0.0011574
        k(    2) = (  -0.0833333   0.0833333  -0.0833333), wk =   0.0092593
        k(    3) = (  -0.1666667   0.1666667  -0.1666667), wk =   0.0092593
        k(    4) = (  -0.2500000   0.2500000  -0.2500000), wk =   0.0092593
        k(    5) = (  -0.3333333   0.3333333  -0.3333333), wk =   0.0092593
        k(    6) = (  -0.4166667   0.4166667  -0.4166667), wk =   0.0092593
        k(    7) = (   0.5000000  -0.5000000   0.5000000), wk =   0.0046296
        k(    8) = (   0.0000000   0.1666667   0.0000000), wk =   0.0069444
        k(    9) = (  -0.0833333   0.2500000  -0.0833333), wk =   0.0277778
        k(   10) = (  -0.1666667   0.3333333  -0.1666667), wk =   0.0277778
        k(   11) = (  -0.2500000   0.4166667  -0.2500000), wk =   0.0277778
        k(   12) = (  -0.3333333   0.5000000  -0.3333333), wk =   0.0277778
        k(   13) = (   0.5833333  -0.4166667   0.5833333), wk =   0.0277778
        k(   14) = (   0.5000000  -0.3333333   0.5000000), wk =   0.0277778
        k(   15) = (   0.4166667  -0.2500000   0.4166667), wk =   0.0277778
        k(   16) = (   0.3333333  -0.1666667   0.3333333), wk =   0.0277778
        k(   17) = (   0.2500000  -0.0833333   0.2500000), wk =   0.0277778
        k(   18) = (   0.1666667  -0.0000000   0.1666667), wk =   0.0138889
        k(   19) = (   0.0000000   0.3333333   0.0000000), wk =   0.0069444
        k(   20) = (  -0.0833333   0.4166667  -0.0833333), wk =   0.0277778
        k(   21) = (  -0.1666667   0.5000000  -0.1666667), wk =   0.0277778
        k(   22) = (  -0.2500000   0.5833333  -0.2500000), wk =   0.0277778
        k(   23) = (   0.6666667  -0.3333333   0.6666667), wk =   0.0277778
        k(   24) = (   0.5833333  -0.2500000   0.5833333), wk =   0.0277778
        k(   25) = (   0.5000000  -0.1666667   0.5000000), wk =   0.0277778
        k(   26) = (   0.4166667  -0.0833333   0.4166667), wk =   0.0277778
        k(   27) = (   0.3333333   0.0000000   0.3333333), wk =   0.0138889
        k(   28) = (   0.0000000   0.5000000   0.0000000), wk =   0.0069444
        k(   29) = (  -0.0833333   0.5833333  -0.0833333), wk =   0.0277778
        k(   30) = (  -0.1666667   0.6666667  -0.1666667), wk =   0.0277778
        k(   31) = (   0.7500000  -0.2500000   0.7500000), wk =   0.0277778
        k(   32) = (   0.6666667  -0.1666667   0.6666667), wk =   0.0277778
        k(   33) = (   0.5833333  -0.0833333   0.5833333), wk =   0.0277778
        k(   34) = (   0.5000000   0.0000000   0.5000000), wk =   0.0138889
        k(   35) = (   0.0000000   0.6666667   0.0000000), wk =   0.0069444
        k(   36) = (  -0.0833333   0.7500000  -0.0833333), wk =   0.0277778
        k(   37) = (   0.8333333  -0.1666667   0.8333333), wk =   0.0277778
        k(   38) = (   0.7500000  -0.0833333   0.7500000), wk =   0.0277778
        k(   39) = (   0.6666667  -0.0000000   0.6666667), wk =   0.0138889
        k(   40) = (   0.0000000   0.8333333   0.0000000), wk =   0.0069444
        k(   41) = (   0.9166667  -0.0833333   0.9166667), wk =   0.0277778
        k(   42) = (   0.8333333   0.0000000   0.8333333), wk =   0.0138889
        k(   43) = (   0.0000000  -1.0000000   0.0000000), wk =   0.0034722
        k(   44) = (  -0.1666667   0.3333333   0.0000000), wk =   0.0277778
        k(   45) = (  -0.2500000   0.4166667  -0.0833333), wk =   0.0555556
        k(   46) = (  -0.3333333   0.5000000  -0.1666667), wk =   0.0555556
        k(   47) = (   0.5833333  -0.4166667   0.7500000), wk =   0.0555556
        k(   48) = (   0.5000000  -0.3333333   0.6666667), wk =   0.0277778
        k(   49) = (  -0.1666667   0.5000000   0.0000000), wk =   0.0277778
        k(   50) = (  -0.2500000   0.5833333  -0.0833333), wk =   0.0555556
        k(   51) = (   0.6666667  -0.3333333   0.8333333), wk =   0.0555556
        k(   52) = (   0.5833333  -0.2500000   0.7500000), wk =   0.0555556
        k(   53) = (   0.5000000  -0.1666667   0.6666667), wk =   0.0555556
        k(   54) = (   0.4166667  -0.0833333   0.5833333), wk =   0.0555556
        k(   55) = (   0.3333333   0.0000000   0.5000000), wk =   0.0277778
        k(   56) = (  -0.1666667   0.6666667  -0.0000000), wk =   0.0277778
        k(   57) = (   0.7500000  -0.2500000   0.9166667), wk =   0.0555556
        k(   58) = (   0.6666667  -0.1666667   0.8333333), wk =   0.0555556
        k(   59) = (   0.5833333  -0.0833333   0.7500000), wk =   0.0555556
        k(   60) = (   0.5000000   0.0000000   0.6666667), wk =   0.0277778
        k(   61) = (   0.8333333  -0.1666667   1.0000000), wk =   0.0277778
        k(   62) = (   0.7500000  -0.0833333   0.9166667), wk =   0.0555556
        k(   63) = (   0.6666667   0.0000000   0.8333333), wk =   0.0277778
        k(   64) = (  -0.1666667  -1.0000000  -0.0000000), wk =   0.0138889
        k(   65) = (   0.6666667  -0.3333333   1.0000000), wk =   0.0277778
        k(   66) = (   0.5833333  -0.2500000   0.9166667), wk =   0.0555556
        k(   67) = (   0.5000000  -0.1666667   0.8333333), wk =   0.0277778
        k(   68) = (   0.6666667  -0.1666667   1.0000000), wk =   0.0277778
        k(   69) = (   0.5833333  -0.0833333   0.9166667), wk =   0.0555556
        k(   70) = (   0.5000000   0.0000000   0.8333333), wk =   0.0277778
        k(   71) = (  -0.3333333  -1.0000000   0.0000000), wk =   0.0138889
        k(   72) = (  -0.5000000  -1.0000000   0.0000000), wk =   0.0069444

     Dense  grid:     4285 G-vectors     FFT dimensions: (  24,  24,  24)

     Estimated max dynamical RAM per process >      12.42 MB

     Estimated total dynamical RAM >      24.84 MB

     Check: negative/imaginary core charge=   -0.000001    0.000000

     Initial potential from superposition of free atoms
     Check: negative starting charge=   -0.084050

     starting charge   15.49999, renormalised to   16.00000

     negative rho (up, down):  8.676E-02 0.000E+00
     Starting wfcs are   12 randomized atomic wfcs

     total cpu time spent up to now is        0.8 secs

     Self-consistent Calculation

     iteration #  1     ecut=    35.00 Ry     beta= 0.70
     Davidson diagonalization with overlap
     ethr =  1.00E-02,  avg # of iterations =  3.3

     negative rho (up, down):  8.376E-02 0.000E+00

     total cpu time spent up to now is        1.7 secs

     total energy              =    -197.72951125 Ry
     Harris-Foulkes estimate   =    -199.06462593 Ry
     estimated scf accuracy    <       1.79785367 Ry

     iteration #  2     ecut=    35.00 Ry     beta= 0.70
     Davidson diagonalization with overlap
     ethr =  1.00E-02,  avg # of iterations =  2.0

     negative rho (up, down):  8.603E-02 0.000E+00

     total cpu time spent up to now is        3.0 secs

     total energy              =    -198.19952835 Ry
     Harris-Foulkes estimate   =    -199.48335605 Ry
     estimated scf accuracy    <       2.78928513 Ry

     iteration #  3     ecut=    35.00 Ry     beta= 0.70
     Davidson diagonalization with overlap
     ethr =  1.00E-02,  avg # of iterations =  2.0

     negative rho (up, down):  8.609E-02 0.000E+00

     total cpu time spent up to now is        3.7 secs

     total energy              =    -198.64088584 Ry
     Harris-Foulkes estimate   =    -198.64205410 Ry
     estimated scf accuracy    <       0.00360365 Ry

     iteration #  4     ecut=    35.00 Ry     beta= 0.70
     Davidson diagonalization with overlap
     ethr =  2.25E-05,  avg # of iterations =  2.5

     negative rho (up, down):  8.614E-02 0.000E+00

     total cpu time spent up to now is        4.5 secs

     total energy              =    -198.64141915 Ry
     Harris-Foulkes estimate   =    -198.64144627 Ry
     estimated scf accuracy    <       0.00009946 Ry

     iteration #  5     ecut=    35.00 Ry     beta= 0.70
     Davidson diagonalization with overlap
     ethr =  6.22E-07,  avg # of iterations =  2.0

     negative rho (up, down):  8.614E-02 0.000E+00

     total cpu time spent up to now is        5.2 secs

     total energy              =    -198.64143107 Ry
     Harris-Foulkes estimate   =    -198.64143117 Ry
     estimated scf accuracy    <       0.00000021 Ry

     iteration #  6     ecut=    35.00 Ry     beta= 0.70
     Davidson diagonalization with overlap
     ethr =  1.30E-09,  avg # of iterations =  2.2

     negative rho (up, down):  8.613E-02 0.000E+00

     total cpu time spent up to now is        6.0 secs

     total energy              =    -198.64143119 Ry
     Harris-Foulkes estimate   =    -198.64143124 Ry
     estimated scf accuracy    <       0.00000012 Ry

     iteration #  7     ecut=    35.00 Ry     beta= 0.70
     Davidson diagonalization with overlap
     ethr =  7.46E-10,  avg # of iterations =  2.0

     negative rho (up, down):  8.613E-02 0.000E+00

     total cpu time spent up to now is        6.8 secs

     End of self-consistent calculation

          k = 0.0000 0.0000 0.0000 (   537 PWs)   bands (ev):

   -38.9361 -38.9361 -38.9361   5.5352   8.4535   8.4535   8.4535   9.2388
     9.2388  26.3784  28.6817  28.6817

          k =-0.0833 0.0833-0.0833 (   534 PWs)   bands (ev):

   -38.9411 -38.9368 -38.9368   5.7109   8.4175   8.4972   8.4972   9.2241
     9.2241  26.1473  27.3109  28.6358

          k =-0.1667 0.1667-0.1667 (   540 PWs)   bands (ev):

   -38.9551 -38.9389 -38.9389   6.2016   8.3602   8.5862   8.5862   9.2200
     9.2200  23.8541  26.9289  28.4561

          k =-0.2500 0.2500-0.2500 (   543 PWs)   bands (ev):

   -38.9740 -38.9419 -38.9419   6.8170   8.5091   8.6087   8.6087   9.3289
     9.3289  21.0103  26.6848  28.0576

          k =-0.3333 0.3333-0.3333 (   531 PWs)   bands (ev):

   -38.9926 -38.9447 -38.9447   7.1266   8.5463   8.5463   9.3159   9.5454
     9.5454  18.2750  26.1865  27.4715

          k =-0.4167 0.4167-0.4167 (   547 PWs)   bands (ev):

   -39.0067 -38.9472 -38.9472   7.1499   8.4756   8.4756   9.7408   9.7408
    10.6995  15.8501  25.7681  26.9454

          k = 0.5000-0.5000 0.5000 (   544 PWs)   bands (ev):

   -39.0119 -38.9478 -38.9478   7.1358   8.4481   8.4481   9.8189   9.8189
    11.7312  14.4855  25.6135  26.7381

          k = 0.0000 0.1667 0.0000 (   536 PWs)   bands (ev):

   -38.9409 -38.9380 -38.9380   5.7696   8.3705   8.5317   8.5317   9.1580
     9.2751  26.3446  27.7974  27.7974

          k =-0.0833 0.2500-0.0833 (   542 PWs)   bands (ev):

   -38.9514 -38.9405 -38.9395   6.1587   8.2829   8.6261   8.6282   9.0970
     9.3124  24.9113  26.6683  27.0735

          k =-0.1667 0.3333-0.1667 (   541 PWs)   bands (ev):

   -38.9682 -38.9436 -38.9420   6.7620   8.2685   8.6474   8.6877   9.2188
     9.4121  22.0744  26.4730  26.4749

          k =-0.2500 0.4167-0.2500 (   538 PWs)   bands (ev):

   -38.9867 -38.9466 -38.9453   7.1910   8.5278   8.6464   8.6526   9.5989
     9.6817  19.2753  26.0276  26.0952

          k =-0.3333 0.5000-0.3333 (   539 PWs)   bands (ev):

   -39.0019 -38.9486 -38.9486   7.2550   8.4412   8.5794   9.1897   9.7699
    10.6822  16.7086  25.6285  25.8339

          k = 0.5833-0.4167 0.5833 (   541 PWs)   bands (ev):

   -39.0098 -38.9509 -38.9490   7.2354   8.3943   8.5279   9.4824   9.8240
    12.0106  14.7360  25.1322  26.0490

          k = 0.5000-0.3333 0.5000 (   540 PWs)   bands (ev):

   -39.0080 -38.9515 -38.9478   7.2448   8.4127   8.5273   9.4978   9.7211
    11.6206  15.2709  24.7747  26.1155

          k = 0.4167-0.2500 0.4167 (   537 PWs)   bands (ev):

   -38.9972 -38.9504 -38.9453   7.2636   8.4808   8.5814   9.1549   9.4940
    10.3743  17.5371  24.7163  26.6217

          k = 0.3333-0.1667 0.3333 (   538 PWs)   bands (ev):

   -38.9806 -38.9476 -38.9421   7.1058   8.4472   8.6501   8.6604   9.2342
     9.7218  20.1979  24.9199  27.4639

          k = 0.2500-0.0833 0.2500 (   545 PWs)   bands (ev):

   -38.9625 -38.9441 -38.9392   6.5542   8.2777   8.6465   8.6656   9.0943
     9.4122  23.0313  25.2903  28.1768

          k = 0.1667-0.0000 0.1667 (   537 PWs)   bands (ev):

   -38.9479 -38.9400 -38.9372   5.9943   8.3455   8.5598   8.5827   9.1417
     9.2801  25.6677  25.8763  28.0152

          k = 0.0000 0.3333 0.0000 (   540 PWs)   bands (ev):

   -38.9545 -38.9433 -38.9433   6.4259   8.1503   8.7574   8.7574   8.9805
     9.3763  25.9486  25.9486  26.2772

          k =-0.0833 0.4167-0.0833 (   541 PWs)   bands (ev):

   -38.9666 -38.9469 -38.9464   6.9268   8.0356   8.7358   8.8765   9.1679
     9.4667  23.3389  25.0931  26.2235

          k =-0.1667 0.5000-0.1667 (   537 PWs)   bands (ev):

   -38.9821 -38.9502 -38.9501   7.3846   8.0946   8.5761   8.8869   9.6373
     9.8077  20.5033  24.5398  25.4502

          k =-0.2500 0.5833-0.2500 (   535 PWs)   bands (ev):

   -38.9960 -38.9548 -38.9520   7.4766   8.3183   8.5986   8.8232   9.7982
    10.9092  17.8393  24.2072  24.3539

          k = 0.6667-0.3333 0.6667 (   540 PWs)   bands (ev):

   -39.0046 -38.9589 -38.9523   7.4675   8.2717   8.7546   8.9087   9.8382
    12.4219  15.5165  23.1674  24.6129

          k = 0.5833-0.2500 0.5833 (   535 PWs)   bands (ev):

   -39.0051 -38.9613 -38.9507   7.4930   8.2693   8.7225   9.0291   9.7181
    12.9226  14.9583  22.4557  25.3589

          k = 0.5000-0.1667 0.5000 (   541 PWs)   bands (ev):

   -38.9984 -38.9613 -38.9479   7.5566   8.3317   8.7446   8.8452   9.4674
    11.5074  17.0914  22.1214  26.5663

          k = 0.4167-0.0833 0.4167 (   539 PWs)   bands (ev):

   -38.9863 -38.9580 -38.9444   7.5558   8.2777   8.5688   8.8203   9.1635
    10.4495  19.6592  22.1568  27.2445

          k = 0.3333 0.0000 0.3333 (   537 PWs)   bands (ev):

   -38.9731 -38.9517 -38.9411   7.1298   8.1650   8.6302   8.8479   8.9737
     9.7985  22.2514  22.6777  28.3695

          k = 0.0000 0.5000 0.0000 (   528 PWs)   bands (ev):

   -38.9723 -38.9506 -38.9506   7.2095   7.8637   9.0571   9.1017   9.1017
     9.5163  24.0046  24.0046  25.2586

          k =-0.0833 0.5833-0.0833 (   541 PWs)   bands (ev):

   -38.9835 -38.9551 -38.9544   7.4626   7.7629   8.9582   9.2026   9.6493
     9.8594  21.8177  23.2722  23.6605

          k =-0.1667 0.6667-0.1667 (   537 PWs)   bands (ev):

   -38.9937 -38.9608 -38.9566   7.5427   7.8579   8.8389   9.1636   9.8155
    11.0924  19.1757  22.2365  22.9718

          k = 0.7500-0.2500 0.7500 (   538 PWs)   bands (ev):

   -38.9995 -38.9676 -38.9567   7.5699   8.0277   8.7598   9.0869   9.8603
    12.7059  16.7500  21.0491  23.1684

          k = 0.6667-0.1667 0.6667 (   534 PWs)   bands (ev):

   -38.9993 -38.9733 -38.9550   7.6633   8.1442   8.6977   9.0210   9.7380
    14.3473  14.9482  20.1469  23.8752

          k = 0.5833-0.0833 0.5833 (   534 PWs)   bands (ev):

   -38.9950 -38.9749 -38.9517   7.8141   8.2315   8.5470   8.9858   9.4923
    12.8329  16.9627  19.5984  25.0323

          k = 0.5000 0.0000 0.5000 (   540 PWs)   bands (ev):

   -38.9906 -38.9690 -38.9480   7.9168   8.1878   8.4470   8.9598   9.2336
    11.4724  19.3910  19.5101  26.5188

          k = 0.0000 0.6667 0.0000 (   540 PWs)   bands (ev):

   -38.9905 -38.9583 -38.9583   7.4114   7.5897   9.4964   9.4964   9.6587
    10.1523  21.8385  22.3494  22.3494

          k =-0.0833 0.7500-0.0833 (   533 PWs)   bands (ev):

   -38.9977 -38.9626 -38.9607   7.4066   7.5327   9.4474   9.5250   9.8157
    11.3335  20.0812  20.8611  21.8798

          k = 0.8333-0.1667 0.8333 (   528 PWs)   bands (ev):

   -39.0005 -38.9698 -38.9611   7.4437   7.6430   9.2273   9.4498   9.8866
    12.9334  18.0993  19.3303  21.9450

          k = 0.7500-0.0833 0.7500 (   533 PWs)   bands (ev):

   -38.9971 -38.9790 -38.9595   7.5490   7.8709   8.9338   9.3501   9.7864
    14.8084  16.1272  18.2454  22.5547

          k = 0.6667-0.0000 0.6667 (   528 PWs)   bands (ev):

   -38.9881 -38.9878 -38.9560   7.7183   8.1434   8.6013   9.2090   9.6074
    14.3650  16.6771  17.8113  23.6305

          k = 0.0000 0.8333 0.0000 (   540 PWs)   bands (ev):

   -39.0038 -38.9637 -38.9637   7.2749   7.3987   9.7663   9.8296   9.8296
    11.9873  18.7097  21.2233  21.2233

          k = 0.9167-0.0833 0.9167 (   537 PWs)   bands (ev):

   -39.0058 -38.9673 -38.9645   7.2787   7.4008   9.7233   9.7440   9.9244
    13.1721  17.5215  20.0232  21.1156

          k = 0.8333 0.0000 0.8333 (   534 PWs)   bands (ev):

   -39.0027 -38.9735 -38.9630   7.3851   7.5673   9.3861   9.6012   9.8702
    14.3955  16.9357  18.2917  21.5857

          k = 0.0000-1.0000 0.0000 (   524 PWs)   bands (ev):

   -39.0082 -38.9656 -38.9656   7.2029   7.3304   9.8063   9.9649   9.9649
    13.3129  16.9684  20.8197  20.8197

          k =-0.1667 0.3333 0.0000 (   541 PWs)   bands (ev):

   -38.9612 -38.9455 -38.9411   6.6186   8.1715   8.6765   8.7599   9.0584
     9.4364  24.1073  24.3487  27.9040

          k =-0.2500 0.4167-0.0833 (   539 PWs)   bands (ev):

   -38.9760 -38.9508 -38.9436   7.2003   8.1543   8.5834   8.8373   9.2076
     9.7731  21.3552  23.7579  27.0648

          k =-0.3333 0.5000-0.1667 (   532 PWs)   bands (ev):

   -38.9914 -38.9546 -38.9467   7.4493   8.4319   8.5175   8.7948   9.5101
    10.4759  18.6223  23.5021  25.8201

          k = 0.5833-0.4167 0.7500 (   538 PWs)   bands (ev):

   -39.0030 -38.9569 -38.9496   7.4326   8.3296   8.6862   8.9889   9.7207
    11.7133  16.1597  23.5577  24.7643

          k = 0.5000-0.3333 0.6667 (   540 PWs)   bands (ev):

   -39.0072 -38.9576 -38.9509   7.4115   8.2892   8.6674   9.1462   9.7854
    12.8789  14.6022  23.9200  24.0484

          k =-0.1667 0.5000 0.0000 (   542 PWs)   bands (ev):

   -38.9770 -38.9533 -38.9485   7.3640   7.9161   8.6574   9.0973   9.3085
     9.7725  22.5288  22.8376  25.4061

          k =-0.2500 0.5833-0.0833 (   535 PWs)   bands (ev):

   -38.9884 -38.9591 -38.9514   7.6343   7.9840   8.5259   9.1233   9.5580
    10.5916  19.9175  22.3226  23.9666

          k = 0.6667-0.3333 0.8333 (   541 PWs)   bands (ev):

   -38.9977 -38.9640 -38.9541   7.6358   8.1641   8.5325   9.0393   9.7520
    11.9138  17.3654  22.2329  22.8131

          k = 0.5833-0.2500 0.7500 (   540 PWs)   bands (ev):

   -39.0018 -38.9676 -38.9547   7.6558   8.1444   8.7078   8.9478   9.7813
    13.5818  15.1791  21.6726  22.8052

          k = 0.5000-0.1667 0.6667 (   537 PWs)   bands (ev):

   -38.9998 -38.9689 -38.9530   7.7209   8.1591   8.6739   8.9370   9.6644
    13.0359  15.9118  21.0633  23.5502

          k = 0.4167-0.0833 0.5833 (   536 PWs)   bands (ev):

   -38.9933 -38.9666 -38.9497   7.8072   8.2516   8.3686   9.0165   9.4267
    11.5565  18.2843  20.8203  24.5916

          k = 0.3333 0.0000 0.5000 (   535 PWs)   bands (ev):

   -38.9846 -38.9599 -38.9462   7.7163   8.0521   8.4372   9.1117   9.1149
    10.4841  20.7486  21.1247  25.8222

          k =-0.1667 0.6667-0.0000 (   535 PWs)   bands (ev):

   -38.9916 -38.9608 -38.9568   7.5510   7.6693   8.9741   9.4930   9.6104
    10.7617  21.0596  21.4357  22.1885

          k = 0.7500-0.2500 0.9167 (   534 PWs)   bands (ev):

   -38.9971 -38.9673 -38.9591   7.5841   7.7581   8.8534   9.4280   9.7775
    12.1430  18.7546  20.6299  21.3876

          k = 0.6667-0.1667 0.8333 (   536 PWs)   bands (ev):

   -38.9977 -38.9748 -38.9595   7.6434   7.9392   8.7122   9.2776   9.8220
    13.8849  16.5066  19.5973  21.6428

          k = 0.5833-0.0833 0.7500 (   534 PWs)   bands (ev):

   -38.9936 -38.9810 -38.9574   7.7861   8.1019   8.5236   9.1687   9.7062
    14.5424  15.9382  18.7960  22.3759

          k = 0.5000 0.0000 0.6667 (   539 PWs)   bands (ev):

   -38.9923 -38.9780 -38.9537   7.9739   8.2326   8.2409   9.1380   9.5075
    12.9017  18.1353  18.4691  23.4058

          k = 0.8333-0.1667 1.0000 (   532 PWs)   bands (ev):

   -39.0018 -38.9664 -38.9633   7.3981   7.4941   9.3774   9.7222   9.8291
    12.5154  18.7334  20.4332  20.5150

          k = 0.7500-0.0833 0.9167 (   531 PWs)   bands (ev):

   -39.0009 -38.9729 -38.9637   7.4717   7.6192   9.1634   9.5498   9.9043
    14.0739  17.4952  18.6081  20.6846

          k = 0.6667 0.0000 0.8333 (   530 PWs)   bands (ev):

   -38.9950 -38.9814 -38.9614   7.6104   7.8720   8.8237   9.3669   9.8265
    15.6083  16.1446  17.5741  21.3661

          k =-0.1667-1.0000-0.0000 (   532 PWs)   bands (ev):

   -39.0055 -38.9684 -38.9658   7.3210   7.4314   9.5892   9.6949   9.9651
    13.8910  16.9851  20.0658  20.1312

          k = 0.6667-0.3333 1.0000 (   535 PWs)   bands (ev):

   -38.9929 -38.9680 -38.9545   7.8978   7.9060   8.3960   9.3749   9.4887
    11.7362  19.5746  19.7925  22.6275

          k = 0.5833-0.2500 0.9167 (   538 PWs)   bands (ev):

   -38.9953 -38.9748 -38.9577   7.8901   8.0352   8.3701   9.2338   9.7046
    13.2363  17.2532  19.7921  21.5281

          k = 0.5000-0.1667 0.8333 (   534 PWs)   bands (ev):

   -38.9958 -38.9773 -38.9589   7.9476   7.9619   8.4552   9.1454   9.7845
    14.9735  15.2016  20.0359  20.9491

          k = 0.6667-0.1667 1.0000 (   528 PWs)   bands (ev):

   -38.9968 -38.9740 -38.9624   7.6991   7.7777   8.7103   9.4532   9.8259
    13.5812  18.4949  18.8545  19.9506

          k = 0.5833-0.0833 0.9167 (   532 PWs)   bands (ev):

   -38.9928 -38.9815 -38.9637   7.7696   7.9767   8.5075   9.2876   9.8967
    15.3262  16.6494  18.2928  19.7342

          k = 0.5000 0.0000 0.8333 (   530 PWs)   bands (ev):

   -38.9896 -38.9845 -38.9616   7.8787   8.1793   8.2360   9.2353   9.8219
    14.8145  17.1641  17.8953  20.4558

          k =-0.3333-1.0000 0.0000 (   530 PWs)   bands (ev):

   -38.9977 -38.9763 -38.9660   7.6064   7.7328   8.8838   9.4214   9.9646
    15.1958  17.0375  18.5092  19.1540

          k =-0.5000-1.0000 0.0000 (   524 PWs)   bands (ev):

   -38.9870 -38.9870 -38.9660   7.7928   8.2273   8.2273   9.2399   9.9650
    16.8028  16.8028  17.0800  18.7517

     the Fermi energy is     9.9414 ev

!    total energy              =    -198.64143121 Ry
     Harris-Foulkes estimate   =    -198.64143121 Ry
     estimated scf accuracy    <          1.5E-09 Ry

     The total energy is the sum of the following terms:

     one-electron contribution =     -77.18255017 Ry
     hartree contribution      =      47.79708209 Ry
     xc contribution           =     -31.17666863 Ry
     ewald contribution        =    -138.08525782 Ry
     smearing contrib. (-TS)   =       0.00596332 Ry

     convergence has been achieved in   7 iterations

     Writing output data file Pd-kp-conv.save/
 
     init_run     :      0.65s CPU      0.72s WALL (       1 calls)
     electrons    :      5.31s CPU      5.98s WALL (       1 calls)

     Called by init_run:
     wfcinit      :      0.28s CPU      0.32s WALL (       1 calls)
     potinit      :      0.01s CPU      0.02s WALL (       1 calls)
     hinit0       :      0.34s CPU      0.34s WALL (       1 calls)

     Called by electrons:
     c_bands      :      4.33s CPU      4.92s WALL (       7 calls)
     sum_band     :      0.88s CPU      0.94s WALL (       7 calls)
     v_of_rho     :      0.04s CPU      0.04s WALL (       8 calls)
     newd         :      0.06s CPU      0.07s WALL (       8 calls)
     mix_rho      :      0.00s CPU      0.01s WALL (       7 calls)

     Called by c_bands:
     init_us_2    :      0.13s CPU      0.14s WALL (    1080 calls)
     cegterg      :      3.97s CPU      4.22s WALL (     504 calls)

     Called by sum_band:
     sum_band:bec :      0.01s CPU      0.01s WALL (     504 calls)
     addusdens    :      0.06s CPU      0.07s WALL (       7 calls)

     Called by *egterg:
     h_psi        :      3.41s CPU      3.63s WALL (    1731 calls)
     s_psi        :      0.05s CPU      0.06s WALL (    1731 calls)
     g_psi        :      0.04s CPU      0.04s WALL (    1155 calls)
     cdiaghg      :      0.40s CPU      0.42s WALL (    1659 calls)

     Called by h_psi:
     h_psi:pot    :      3.40s CPU      3.61s WALL (    1731 calls)
     h_psi:calbec :      0.07s CPU      0.08s WALL (    1731 calls)
     vloc_psi     :      3.26s CPU      3.46s WALL (    1731 calls)
     add_vuspsi   :      0.05s CPU      0.06s WALL (    1731 calls)

     General routines
     calbec       :      0.09s CPU      0.09s WALL (    2235 calls)
     fft          :      0.02s CPU      0.02s WALL (      89 calls)
     ffts         :      0.00s CPU      0.00s WALL (       7 calls)
     fftw         :      3.40s CPU      3.61s WALL (   37122 calls)
 
     Parallel routines
     fft_scatt_xy :      0.61s CPU      0.65s WALL (   37218 calls)
     fft_scatt_yz :      0.81s CPU      0.87s WALL (   37218 calls)
 
     PWSCF        :     6.08s CPU         7.07s WALL

 
   This run was terminated on:  22:51:19   2Dec2021            

=------------------------------------------------------------------------------=
   JOB DONE.
=------------------------------------------------------------------------------=
