
     Program PWSCF v.6.3 starts on  2Dec2021 at 23:29:42 

     This program is part of the open-source Quantum ESPRESSO suite
     for quantum simulation of materials; please cite
         "P. Giannozzi et al., J. Phys.:Condens. Matter 21 395502 (2009);
         "P. Giannozzi et al., J. Phys.:Condens. Matter 29 465901 (2017);
          URL http://www.quantum-espresso.org", 
     in publications or presentations arising from this work. More details at
     http://www.quantum-espresso.org/quote

     Parallel version (MPI & OpenMP), running on       2 processor cores
     Number of MPI processes:                 2
     Threads/MPI process:                     1

     MPI processes distributed on     1 nodes
     R & G space division:  proc/nbgrp/npool/nimage =       2
     Reading input from pw-input.in

     Current dimensions of program PWSCF are:
     Max number of different atomic species (ntypx) = 10
     Max number of k-points (npk) =  40000
     Max angular momentum in pseudopotentials (lmaxx) =  3

     Subspace diagonalization in iterative solution of the eigenvalue problem:
     a serial algorithm will be used

 
     Parallelization info
     --------------------
     sticks:   dense  smooth     PW     G-vecs:    dense   smooth      PW
     Min         156     156     54                 1917     1917     373
     Max         157     157     55                 1922     1922     376
     Sum         313     313    109                 3839     3839     749
 

     Title: 
     Pd-kp-conv                                                                 


     bravais-lattice index     =            2
     lattice parameter (alat)  =       8.2000  a.u.
     unit-cell volume          =     137.8420 (a.u.)^3
     number of atoms/cell      =            1
     number of atomic types    =            1
     number of electrons       =        16.00
     number of Kohn-Sham states=           12
     kinetic-energy cutoff     =      35.0000  Ry
     charge density cutoff     =     140.0000  Ry
     convergence threshold     =      1.0E-07
     mixing beta               =       0.7000
     number of iterations used =            8  plain     mixing
     Exchange-correlation      =  SLA  PW   PBX  PBC ( 1  4  3  4 0 0)

     celldm(1)=   8.200000  celldm(2)=   0.000000  celldm(3)=   0.000000
     celldm(4)=   0.000000  celldm(5)=   0.000000  celldm(6)=   0.000000

     crystal axes: (cart. coord. in units of alat)
               a(1) = (  -0.500000   0.000000   0.500000 )  
               a(2) = (   0.000000   0.500000   0.500000 )  
               a(3) = (  -0.500000   0.500000   0.000000 )  

     reciprocal axes: (cart. coord. in units 2 pi/alat)
               b(1) = ( -1.000000 -1.000000  1.000000 )  
               b(2) = (  1.000000  1.000000  1.000000 )  
               b(3) = ( -1.000000  1.000000 -1.000000 )  


     PseudoPot. # 1 for Pd read from file:
     ./pd_pbe_v1.4.uspp.F.UPF
     MD5 check sum: 2d733d2bc2cbfd217af676df1668a4bc
     Pseudo is Ultrasoft + core correction, Zval = 16.0
     Generated by new atomic code, or converted to UPF format
     Using radial grid of  887 points,  6 beta functions with: 
                l(1) =   0
                l(2) =   0
                l(3) =   1
                l(4) =   1
                l(5) =   2
                l(6) =   2
     Q(r) pseudized with  8 coefficients,  rinner =    1.130   1.130   1.130
                                                       1.130   1.130

     atomic species   valence    mass     pseudopotential
        Pd            16.00   106.40000     Pd( 1.00)

     48 Sym. Ops., with inversion, found



   Cartesian axes

     site n.     atom                  positions (alat units)
         1           Pd  tau(   1) = (   0.0000000   0.0000000   0.0000000  )

     number of k points=   413  Marzari-Vanderbilt smearing, width (Ry)=  0.0400

     Number of k-points >= 100: set verbosity='high' to print them.

     Dense  grid:     3839 G-vectors     FFT dimensions: (  24,  24,  24)

     Estimated max dynamical RAM per process >      26.33 MB

     Estimated total dynamical RAM >      52.67 MB

     Initial potential from superposition of free atoms
     Check: negative starting charge=   -0.082129

     starting charge   15.49999, renormalised to   16.00000

     negative rho (up, down):  8.478E-02 0.000E+00
     Starting wfcs are   12 randomized atomic wfcs

     total cpu time spent up to now is        1.9 secs

     Self-consistent Calculation

     iteration #  1     ecut=    35.00 Ry     beta= 0.70
     Davidson diagonalization with overlap
     ethr =  1.00E-02,  avg # of iterations =  3.4

     negative rho (up, down):  8.199E-02 0.000E+00

     total cpu time spent up to now is        7.4 secs

     total energy              =    -197.86776031 Ry
     Harris-Foulkes estimate   =    -199.06960878 Ry
     estimated scf accuracy    <       1.62818320 Ry

     iteration #  2     ecut=    35.00 Ry     beta= 0.70
     Davidson diagonalization with overlap
     ethr =  1.00E-02,  avg # of iterations =  2.0

     negative rho (up, down):  8.426E-02 0.000E+00

     total cpu time spent up to now is       12.1 secs

     total energy              =    -198.23958957 Ry
     Harris-Foulkes estimate   =    -199.34449122 Ry
     estimated scf accuracy    <       2.38136651 Ry

     iteration #  3     ecut=    35.00 Ry     beta= 0.70
     Davidson diagonalization with overlap
     ethr =  1.00E-02,  avg # of iterations =  2.0

     negative rho (up, down):  8.430E-02 0.000E+00

     total cpu time spent up to now is       16.3 secs

     total energy              =    -198.66461683 Ry
     Harris-Foulkes estimate   =    -198.66462204 Ry
     estimated scf accuracy    <       0.00007065 Ry

     iteration #  4     ecut=    35.00 Ry     beta= 0.70
     Davidson diagonalization with overlap
     ethr =  4.42E-07,  avg # of iterations =  3.1

     negative rho (up, down):  8.440E-02 0.000E+00

     total cpu time spent up to now is       21.8 secs

     total energy              =    -198.66479886 Ry
     Harris-Foulkes estimate   =    -198.66479956 Ry
     estimated scf accuracy    <       0.00000760 Ry

     iteration #  5     ecut=    35.00 Ry     beta= 0.70
     Davidson diagonalization with overlap
     ethr =  4.75E-08,  avg # of iterations =  1.0

     negative rho (up, down):  8.440E-02 0.000E+00

     total cpu time spent up to now is       25.3 secs

     End of self-consistent calculation

     Number of k-points >= 100: set verbosity='high' to print the bands.

     the Fermi energy is    11.7723 ev

!    total energy              =    -198.66479910 Ry
     Harris-Foulkes estimate   =    -198.66479909 Ry
     estimated scf accuracy    <       0.00000005 Ry

     The total energy is the sum of the following terms:

     one-electron contribution =     -68.97506549 Ry
     hartree contribution      =      44.64317169 Ry
     xc contribution           =     -31.20162164 Ry
     ewald contribution        =    -143.13715749 Ry
     smearing contrib. (-TS)   =       0.00587383 Ry

     convergence has been achieved in   5 iterations

     Writing output data file Pd-kp-conv.save/
 
     init_run     :      1.71s CPU      1.83s WALL (       1 calls)
     electrons    :     21.45s CPU     23.33s WALL (       1 calls)

     Called by init_run:
     wfcinit      :      1.34s CPU      1.43s WALL (       1 calls)
     potinit      :      0.01s CPU      0.02s WALL (       1 calls)
     hinit0       :      0.35s CPU      0.35s WALL (       1 calls)

     Called by electrons:
     c_bands      :     18.25s CPU     19.85s WALL (       5 calls)
     sum_band     :      3.15s CPU      3.34s WALL (       5 calls)
     v_of_rho     :      0.03s CPU      0.03s WALL (       6 calls)
     newd         :      0.04s CPU      0.05s WALL (       6 calls)
     mix_rho      :      0.00s CPU      0.00s WALL (       5 calls)

     Called by c_bands:
     init_us_2    :      0.49s CPU      0.53s WALL (    4543 calls)
     cegterg      :     16.89s CPU     17.86s WALL (    2065 calls)

     Called by sum_band:
     sum_band:bec :      0.02s CPU      0.02s WALL (    2065 calls)
     addusdens    :      0.04s CPU      0.05s WALL (       5 calls)

     Called by *egterg:
     h_psi        :     14.54s CPU     15.42s WALL (    7237 calls)
     s_psi        :      0.21s CPU      0.22s WALL (    7237 calls)
     g_psi        :      0.16s CPU      0.17s WALL (    4759 calls)
     cdiaghg      :      1.84s CPU      1.93s WALL (    6824 calls)

     Called by h_psi:
     h_psi:pot    :     14.47s CPU     15.34s WALL (    7237 calls)
     h_psi:calbec :      0.29s CPU      0.31s WALL (    7237 calls)
     vloc_psi     :     13.92s CPU     14.75s WALL (    7237 calls)
     add_vuspsi   :      0.21s CPU      0.23s WALL (    7237 calls)

     General routines
     calbec       :      0.34s CPU      0.36s WALL (    9302 calls)
     fft          :      0.01s CPU      0.01s WALL (      67 calls)
     ffts         :      0.00s CPU      0.00s WALL (       5 calls)
     fftw         :     14.20s CPU     15.04s WALL (  162828 calls)
 
     Parallel routines
     fft_scatt_xy :      2.60s CPU      2.77s WALL (  162900 calls)
     fft_scatt_yz :      3.07s CPU      3.28s WALL (  162900 calls)
 
     PWSCF        :    23.41s CPU        26.82s WALL

 
   This run was terminated on:  23:30: 8   2Dec2021            

=------------------------------------------------------------------------------=
   JOB DONE.
=------------------------------------------------------------------------------=
