
     Program PWSCF v.6.3 starts on  2Dec2021 at 22:47:31 

     This program is part of the open-source Quantum ESPRESSO suite
     for quantum simulation of materials; please cite
         "P. Giannozzi et al., J. Phys.:Condens. Matter 21 395502 (2009);
         "P. Giannozzi et al., J. Phys.:Condens. Matter 29 465901 (2017);
          URL http://www.quantum-espresso.org", 
     in publications or presentations arising from this work. More details at
     http://www.quantum-espresso.org/quote

     Parallel version (MPI & OpenMP), running on       2 processor cores
     Number of MPI processes:                 2
     Threads/MPI process:                     1

     MPI processes distributed on     1 nodes
     R & G space division:  proc/nbgrp/npool/nimage =       2
     Reading input from pw-input.in

     Current dimensions of program PWSCF are:
     Max number of different atomic species (ntypx) = 10
     Max number of k-points (npk) =  40000
     Max angular momentum in pseudopotentials (lmaxx) =  3

     Subspace diagonalization in iterative solution of the eigenvalue problem:
     a serial algorithm will be used

 
     Parallelization info
     --------------------
     sticks:   dense  smooth     PW     G-vecs:    dense   smooth      PW
     Min         132     132     45                 1445     1445     304
     Max         133     133     46                 1446     1446     305
     Sum         265     265     91                 2891     2891     609
 

     Title: 
     Pd-kp-conv                                                                 


     bravais-lattice index     =            2
     lattice parameter (alat)  =       7.5000  a.u.
     unit-cell volume          =     105.4688 (a.u.)^3
     number of atoms/cell      =            1
     number of atomic types    =            1
     number of electrons       =        16.00
     number of Kohn-Sham states=           12
     kinetic-energy cutoff     =      35.0000  Ry
     charge density cutoff     =     140.0000  Ry
     convergence threshold     =      1.0E-07
     mixing beta               =       0.7000
     number of iterations used =            8  plain     mixing
     Exchange-correlation      =  SLA  PW   PBX  PBC ( 1  4  3  4 0 0)

     celldm(1)=   7.500000  celldm(2)=   0.000000  celldm(3)=   0.000000
     celldm(4)=   0.000000  celldm(5)=   0.000000  celldm(6)=   0.000000

     crystal axes: (cart. coord. in units of alat)
               a(1) = (  -0.500000   0.000000   0.500000 )  
               a(2) = (   0.000000   0.500000   0.500000 )  
               a(3) = (  -0.500000   0.500000   0.000000 )  

     reciprocal axes: (cart. coord. in units 2 pi/alat)
               b(1) = ( -1.000000 -1.000000  1.000000 )  
               b(2) = (  1.000000  1.000000  1.000000 )  
               b(3) = ( -1.000000  1.000000 -1.000000 )  


     PseudoPot. # 1 for Pd read from file:
     ./pd_pbe_v1.4.uspp.F.UPF
     MD5 check sum: 2d733d2bc2cbfd217af676df1668a4bc
     Pseudo is Ultrasoft + core correction, Zval = 16.0
     Generated by new atomic code, or converted to UPF format
     Using radial grid of  887 points,  6 beta functions with: 
                l(1) =   0
                l(2) =   0
                l(3) =   1
                l(4) =   1
                l(5) =   2
                l(6) =   2
     Q(r) pseudized with  8 coefficients,  rinner =    1.130   1.130   1.130
                                                       1.130   1.130

     atomic species   valence    mass     pseudopotential
        Pd            16.00   106.40000     Pd( 1.00)

     48 Sym. Ops., with inversion, found



   Cartesian axes

     site n.     atom                  positions (alat units)
         1           Pd  tau(   1) = (   0.0000000   0.0000000   0.0000000  )

     number of k points=    16  Marzari-Vanderbilt smearing, width (Ry)=  0.0350
                       cart. coord. in units 2pi/alat
        k(    1) = (   0.0000000   0.0000000   0.0000000), wk =   0.0092593
        k(    2) = (  -0.1666667   0.1666667  -0.1666667), wk =   0.0740741
        k(    3) = (  -0.3333333   0.3333333  -0.3333333), wk =   0.0740741
        k(    4) = (   0.5000000  -0.5000000   0.5000000), wk =   0.0370370
        k(    5) = (   0.0000000   0.3333333   0.0000000), wk =   0.0555556
        k(    6) = (  -0.1666667   0.5000000  -0.1666667), wk =   0.2222222
        k(    7) = (   0.6666667  -0.3333333   0.6666667), wk =   0.2222222
        k(    8) = (   0.5000000  -0.1666667   0.5000000), wk =   0.2222222
        k(    9) = (   0.3333333   0.0000000   0.3333333), wk =   0.1111111
        k(   10) = (   0.0000000   0.6666667   0.0000000), wk =   0.0555556
        k(   11) = (   0.8333333  -0.1666667   0.8333333), wk =   0.2222222
        k(   12) = (   0.6666667  -0.0000000   0.6666667), wk =   0.1111111
        k(   13) = (   0.0000000  -1.0000000   0.0000000), wk =   0.0277778
        k(   14) = (   0.6666667  -0.3333333   1.0000000), wk =   0.2222222
        k(   15) = (   0.5000000  -0.1666667   0.8333333), wk =   0.2222222
        k(   16) = (  -0.3333333  -1.0000000   0.0000000), wk =   0.1111111

     Dense  grid:     2891 G-vectors     FFT dimensions: (  20,  20,  20)

     Estimated max dynamical RAM per process >       6.76 MB

     Estimated total dynamical RAM >      13.52 MB

     Initial potential from superposition of free atoms
     Check: negative starting charge=   -0.084664

     starting charge   15.49999, renormalised to   16.00000

     negative rho (up, down):  8.740E-02 0.000E+00
     Starting wfcs are   12 randomized atomic wfcs

     total cpu time spent up to now is        0.5 secs

     Self-consistent Calculation

     iteration #  1     ecut=    35.00 Ry     beta= 0.70
     Davidson diagonalization with overlap
     ethr =  1.00E-02,  avg # of iterations =  3.6

     negative rho (up, down):  8.672E-02 0.000E+00

     total cpu time spent up to now is        0.7 secs

     total energy              =    -198.17874285 Ry
     Harris-Foulkes estimate   =    -199.04420724 Ry
     estimated scf accuracy    <       1.19167468 Ry

     iteration #  2     ecut=    35.00 Ry     beta= 0.70
     Davidson diagonalization with overlap
     ethr =  7.45E-03,  avg # of iterations =  2.0

     negative rho (up, down):  8.789E-02 0.000E+00

     total cpu time spent up to now is        0.8 secs

     total energy              =    -198.45576299 Ry
     Harris-Foulkes estimate   =    -199.04224176 Ry
     estimated scf accuracy    <       1.17576783 Ry

     iteration #  3     ecut=    35.00 Ry     beta= 0.70
     Davidson diagonalization with overlap
     ethr =  7.35E-03,  avg # of iterations =  2.0

     negative rho (up, down):  8.824E-02 0.000E+00

     total cpu time spent up to now is        1.0 secs

     total energy              =    -198.69974828 Ry
     Harris-Foulkes estimate   =    -198.70168138 Ry
     estimated scf accuracy    <       0.00398408 Ry

     iteration #  4     ecut=    35.00 Ry     beta= 0.70
     Davidson diagonalization with overlap
     ethr =  2.49E-05,  avg # of iterations =  2.4

     negative rho (up, down):  8.840E-02 0.000E+00

     total cpu time spent up to now is        1.1 secs

     total energy              =    -198.70087219 Ry
     Harris-Foulkes estimate   =    -198.70090859 Ry
     estimated scf accuracy    <       0.00008511 Ry

     iteration #  5     ecut=    35.00 Ry     beta= 0.70
     Davidson diagonalization with overlap
     ethr =  5.32E-07,  avg # of iterations =  2.0

     negative rho (up, down):  8.847E-02 0.000E+00

     total cpu time spent up to now is        1.2 secs

     total energy              =    -198.70088776 Ry
     Harris-Foulkes estimate   =    -198.70088748 Ry
     estimated scf accuracy    <       0.00000033 Ry

     iteration #  6     ecut=    35.00 Ry     beta= 0.70
     Davidson diagonalization with overlap
     ethr =  2.04E-09,  avg # of iterations =  2.4

     negative rho (up, down):  8.847E-02 0.000E+00

     total cpu time spent up to now is        1.4 secs

     End of self-consistent calculation

          k = 0.0000 0.0000 0.0000 (   339 PWs)   bands (ev):

   -32.3334 -32.3334 -32.3334  10.5618  14.6473  14.6473  14.6473  16.1095
    16.1095  35.0692  39.4948  39.4948

          k =-0.1667 0.1667-0.1667 (   362 PWs)   bands (ev):

   -32.4175 -32.3458 -32.3458  11.4508  14.4423  14.8823  14.8823  16.0531
    16.0531  34.3850  36.1864  40.1632

          k =-0.3333 0.3333-0.3333 (   359 PWs)   bands (ev):

   -32.5818 -32.3697 -32.3697  12.4718  14.7934  14.7934  15.7299  16.6621
    16.6621  28.2960  35.1611  39.6734

          k = 0.5000-0.5000 0.5000 (   368 PWs)   bands (ev):

   -32.6633 -32.3816 -32.3816  12.3904  14.6091  14.6091  17.1982  17.1982
    18.4178  24.1343  34.2933  38.2908

          k = 0.0000 0.3333 0.0000 (   355 PWs)   bands (ev):

   -32.4146 -32.3647 -32.3647  11.7486  14.0637  15.1919  15.1919  15.5772
    16.3600  36.0192  36.8272  37.3901

          k =-0.1667 0.5000-0.1667 (   366 PWs)   bands (ev):

   -32.5353 -32.3932 -32.3923  12.8934  13.9298  14.8236  15.4204  16.8471
    16.9035  30.8418  35.5080  35.7443

          k = 0.6667-0.3333 0.6667 (   368 PWs)   bands (ev):

   -32.6303 -32.4302 -32.4007  12.9109  14.2266  15.1630  15.3156  17.2379
    20.2357  24.9772  33.5620  35.7644

          k = 0.5000-0.1667 0.5000 (   373 PWs)   bands (ev):

   -32.6042 -32.4408 -32.3819  13.0836  14.3641  15.1408  15.1442  16.5103
    19.3427  26.8347  32.6074  36.4869

          k = 0.3333 0.0000 0.3333 (   369 PWs)   bands (ev):

   -32.4967 -32.4001 -32.3544  12.6602  14.0729  14.9118  15.3577  15.5657
    17.0661  32.7049  33.4444  39.0664

          k = 0.0000 0.6667 0.0000 (   355 PWs)   bands (ev):

   -32.5701 -32.4267 -32.4267  12.7727  13.0439  16.5616  16.5616  16.8921
    17.0188  32.6646  32.6646  32.6908

          k = 0.8333-0.1667 0.8333 (   368 PWs)   bands (ev):

   -32.6124 -32.4774 -32.4389  12.7700  13.1146  15.9398  16.4648  17.3296
    20.9699  27.7722  29.5660  32.0670

          k = 0.6667-0.0000 0.6667 (   375 PWs)   bands (ev):

   -32.5579 -32.5565 -32.4164  13.2687  13.9500  14.8171  15.9906  16.7858
    23.0468  25.8851  27.8664  34.5596

          k = 0.0000-1.0000 0.0000 (   360 PWs)   bands (ev):

   -32.6458 -32.4575 -32.4575  12.3334  12.5910  17.1738  17.4836  17.4836
    20.6415  27.4542  30.3526  30.3526

          k = 0.6667-0.3333 1.0000 (   367 PWs)   bands (ev):

   -32.5800 -32.4701 -32.4102  13.5655  13.5885  14.4887  16.2745  16.5497
    19.6950  29.7027  29.8968  33.2634

          k = 0.5000-0.1667 0.8333 (   370 PWs)   bands (ev):

   -32.5914 -32.5098 -32.4293  13.6306  13.6937  14.5467  15.8681  17.1256
    23.4961  24.5693  30.5010  31.0473

          k =-0.3333-1.0000 0.0000 (   374 PWs)   bands (ev):

   -32.5994 -32.5051 -32.4598  13.0042  13.2982  15.3242  16.3925  17.4836
    23.6970  27.3178  27.9851  28.8174

     the Fermi energy is    17.2266 ev

!    total energy              =    -198.70088785 Ry
     Harris-Foulkes estimate   =    -198.70088786 Ry
     estimated scf accuracy    <       0.00000002 Ry

     The total energy is the sum of the following terms:

     one-electron contribution =     -47.87888260 Ry
     hartree contribution      =      36.99011204 Ry
     xc contribution           =     -31.31769690 Ry
     ewald contribution        =    -156.49662553 Ry
     smearing contrib. (-TS)   =       0.00220515 Ry

     convergence has been achieved in   6 iterations

     Writing output data file Pd-kp-conv.save/
 
     init_run     :      0.38s CPU      0.41s WALL (       1 calls)
     electrons    :      0.78s CPU      1.23s WALL (       1 calls)

     Called by init_run:
     wfcinit      :      0.05s CPU      0.05s WALL (       1 calls)
     potinit      :      0.01s CPU      0.02s WALL (       1 calls)
     hinit0       :      0.32s CPU      0.32s WALL (       1 calls)

     Called by electrons:
     c_bands      :      0.60s CPU      0.66s WALL (       6 calls)
     sum_band     :      0.13s CPU      0.14s WALL (       6 calls)
     v_of_rho     :      0.02s CPU      0.02s WALL (       7 calls)
     newd         :      0.04s CPU      0.04s WALL (       7 calls)
     mix_rho      :      0.00s CPU      0.00s WALL (       6 calls)

     Called by c_bands:
     init_us_2    :      0.02s CPU      0.02s WALL (     208 calls)
     cegterg      :      0.55s CPU      0.60s WALL (      96 calls)

     Called by sum_band:
     sum_band:bec :      0.00s CPU      0.00s WALL (      96 calls)
     addusdens    :      0.03s CPU      0.04s WALL (       6 calls)

     Called by *egterg:
     h_psi        :      0.44s CPU      0.48s WALL (     343 calls)
     s_psi        :      0.01s CPU      0.01s WALL (     343 calls)
     g_psi        :      0.01s CPU      0.01s WALL (     231 calls)
     cdiaghg      :      0.08s CPU      0.09s WALL (     327 calls)

     Called by h_psi:
     h_psi:pot    :      0.43s CPU      0.48s WALL (     343 calls)
     h_psi:calbec :      0.01s CPU      0.01s WALL (     343 calls)
     vloc_psi     :      0.41s CPU      0.45s WALL (     343 calls)
     add_vuspsi   :      0.01s CPU      0.01s WALL (     343 calls)

     General routines
     calbec       :      0.01s CPU      0.02s WALL (     439 calls)
     fft          :      0.01s CPU      0.01s WALL (      78 calls)
     ffts         :      0.00s CPU      0.00s WALL (       6 calls)
     fftw         :      0.42s CPU      0.46s WALL (    7232 calls)
 
     Parallel routines
     fft_scatt_xy :      0.08s CPU      0.08s WALL (    7316 calls)
     fft_scatt_yz :      0.11s CPU      0.12s WALL (    7316 calls)
 
     PWSCF        :     1.25s CPU         1.83s WALL

 
   This run was terminated on:  22:47:33   2Dec2021            

=------------------------------------------------------------------------------=
   JOB DONE.
=------------------------------------------------------------------------------=
