
     Program PWSCF v.6.3 starts on  2Dec2021 at 22:47:52 

     This program is part of the open-source Quantum ESPRESSO suite
     for quantum simulation of materials; please cite
         "P. Giannozzi et al., J. Phys.:Condens. Matter 21 395502 (2009);
         "P. Giannozzi et al., J. Phys.:Condens. Matter 29 465901 (2017);
          URL http://www.quantum-espresso.org", 
     in publications or presentations arising from this work. More details at
     http://www.quantum-espresso.org/quote

     Parallel version (MPI & OpenMP), running on       2 processor cores
     Number of MPI processes:                 2
     Threads/MPI process:                     1

     MPI processes distributed on     1 nodes
     R & G space division:  proc/nbgrp/npool/nimage =       2
     Reading input from pw-input.in

     Current dimensions of program PWSCF are:
     Max number of different atomic species (ntypx) = 10
     Max number of k-points (npk) =  40000
     Max angular momentum in pseudopotentials (lmaxx) =  3

     Subspace diagonalization in iterative solution of the eigenvalue problem:
     a serial algorithm will be used

 
     Parallelization info
     --------------------
     sticks:   dense  smooth     PW     G-vecs:    dense   smooth      PW
     Min         156     156     54                 1917     1917     373
     Max         157     157     55                 1922     1922     376
     Sum         313     313    109                 3839     3839     749
 

     Title: 
     Pd-kp-conv                                                                 


     bravais-lattice index     =            2
     lattice parameter (alat)  =       8.2000  a.u.
     unit-cell volume          =     137.8420 (a.u.)^3
     number of atoms/cell      =            1
     number of atomic types    =            1
     number of electrons       =        16.00
     number of Kohn-Sham states=           12
     kinetic-energy cutoff     =      35.0000  Ry
     charge density cutoff     =     140.0000  Ry
     convergence threshold     =      1.0E-07
     mixing beta               =       0.7000
     number of iterations used =            8  plain     mixing
     Exchange-correlation      =  SLA  PW   PBX  PBC ( 1  4  3  4 0 0)

     celldm(1)=   8.200000  celldm(2)=   0.000000  celldm(3)=   0.000000
     celldm(4)=   0.000000  celldm(5)=   0.000000  celldm(6)=   0.000000

     crystal axes: (cart. coord. in units of alat)
               a(1) = (  -0.500000   0.000000   0.500000 )  
               a(2) = (   0.000000   0.500000   0.500000 )  
               a(3) = (  -0.500000   0.500000   0.000000 )  

     reciprocal axes: (cart. coord. in units 2 pi/alat)
               b(1) = ( -1.000000 -1.000000  1.000000 )  
               b(2) = (  1.000000  1.000000  1.000000 )  
               b(3) = ( -1.000000  1.000000 -1.000000 )  


     PseudoPot. # 1 for Pd read from file:
     ./pd_pbe_v1.4.uspp.F.UPF
     MD5 check sum: 2d733d2bc2cbfd217af676df1668a4bc
     Pseudo is Ultrasoft + core correction, Zval = 16.0
     Generated by new atomic code, or converted to UPF format
     Using radial grid of  887 points,  6 beta functions with: 
                l(1) =   0
                l(2) =   0
                l(3) =   1
                l(4) =   1
                l(5) =   2
                l(6) =   2
     Q(r) pseudized with  8 coefficients,  rinner =    1.130   1.130   1.130
                                                       1.130   1.130

     atomic species   valence    mass     pseudopotential
        Pd            16.00   106.40000     Pd( 1.00)

     48 Sym. Ops., with inversion, found



   Cartesian axes

     site n.     atom                  positions (alat units)
         1           Pd  tau(   1) = (   0.0000000   0.0000000   0.0000000  )

     number of k points=    16  Marzari-Vanderbilt smearing, width (Ry)=  0.0350
                       cart. coord. in units 2pi/alat
        k(    1) = (   0.0000000   0.0000000   0.0000000), wk =   0.0092593
        k(    2) = (  -0.1666667   0.1666667  -0.1666667), wk =   0.0740741
        k(    3) = (  -0.3333333   0.3333333  -0.3333333), wk =   0.0740741
        k(    4) = (   0.5000000  -0.5000000   0.5000000), wk =   0.0370370
        k(    5) = (   0.0000000   0.3333333   0.0000000), wk =   0.0555556
        k(    6) = (  -0.1666667   0.5000000  -0.1666667), wk =   0.2222222
        k(    7) = (   0.6666667  -0.3333333   0.6666667), wk =   0.2222222
        k(    8) = (   0.5000000  -0.1666667   0.5000000), wk =   0.2222222
        k(    9) = (   0.3333333   0.0000000   0.3333333), wk =   0.1111111
        k(   10) = (   0.0000000   0.6666667   0.0000000), wk =   0.0555556
        k(   11) = (   0.8333333  -0.1666667   0.8333333), wk =   0.2222222
        k(   12) = (   0.6666667  -0.0000000   0.6666667), wk =   0.1111111
        k(   13) = (   0.0000000  -1.0000000   0.0000000), wk =   0.0277778
        k(   14) = (   0.6666667  -0.3333333   1.0000000), wk =   0.2222222
        k(   15) = (   0.5000000  -0.1666667   0.8333333), wk =   0.2222222
        k(   16) = (  -0.3333333  -1.0000000   0.0000000), wk =   0.1111111

     Dense  grid:     3839 G-vectors     FFT dimensions: (  24,  24,  24)

     Estimated max dynamical RAM per process >       8.81 MB

     Estimated total dynamical RAM >      17.63 MB

     Initial potential from superposition of free atoms
     Check: negative starting charge=   -0.082129

     starting charge   15.49999, renormalised to   16.00000

     negative rho (up, down):  8.478E-02 0.000E+00
     Starting wfcs are   12 randomized atomic wfcs

     total cpu time spent up to now is        0.5 secs

     Self-consistent Calculation

     iteration #  1     ecut=    35.00 Ry     beta= 0.70
     Davidson diagonalization with overlap
     ethr =  1.00E-02,  avg # of iterations =  3.2

     negative rho (up, down):  8.197E-02 0.000E+00

     total cpu time spent up to now is        0.8 secs

     total energy              =    -197.86742888 Ry
     Harris-Foulkes estimate   =    -199.07203708 Ry
     estimated scf accuracy    <       1.63153941 Ry

     iteration #  2     ecut=    35.00 Ry     beta= 0.70
     Davidson diagonalization with overlap
     ethr =  1.00E-02,  avg # of iterations =  2.0

     negative rho (up, down):  8.424E-02 0.000E+00

     total cpu time spent up to now is        1.0 secs

     total energy              =    -198.23966252 Ry
     Harris-Foulkes estimate   =    -199.34992024 Ry
     estimated scf accuracy    <       2.39463146 Ry

     iteration #  3     ecut=    35.00 Ry     beta= 0.70
     Davidson diagonalization with overlap
     ethr =  1.00E-02,  avg # of iterations =  2.0

     negative rho (up, down):  8.433E-02 0.000E+00

     total cpu time spent up to now is        1.2 secs

     total energy              =    -198.66396599 Ry
     Harris-Foulkes estimate   =    -198.66401376 Ry
     estimated scf accuracy    <       0.00014239 Ry

     iteration #  4     ecut=    35.00 Ry     beta= 0.70
     Davidson diagonalization with overlap
     ethr =  8.90E-07,  avg # of iterations =  3.8

     negative rho (up, down):  8.443E-02 0.000E+00

     total cpu time spent up to now is        1.4 secs

     total energy              =    -198.66422500 Ry
     Harris-Foulkes estimate   =    -198.66422455 Ry
     estimated scf accuracy    <       0.00000396 Ry

     iteration #  5     ecut=    35.00 Ry     beta= 0.70
     Davidson diagonalization with overlap
     ethr =  2.47E-08,  avg # of iterations =  1.1

     negative rho (up, down):  8.444E-02 0.000E+00

     total cpu time spent up to now is        1.6 secs

     End of self-consistent calculation

          k = 0.0000 0.0000 0.0000 (   531 PWs)   bands (ev):

   -37.3495 -37.3495 -37.3495   6.7472   9.9747   9.9747   9.9747  10.9125
    10.9125  28.6303  31.5282  31.5282

          k =-0.1667 0.1667-0.1667 (   489 PWs)   bands (ev):

   -37.3786 -37.3536 -37.3536   7.4699   9.8589  10.1326  10.1326  10.8884
    10.8884  26.5520  29.3280  31.5048

          k =-0.3333 0.3333-0.3333 (   492 PWs)   bands (ev):

   -37.4377 -37.3628 -37.3628   8.4371  10.0814  10.0814  10.8848  11.2768
    11.2768  20.7425  28.5013  30.5648

          k = 0.5000-0.5000 0.5000 (   476 PWs)   bands (ev):

   -37.4666 -37.3672 -37.3672   8.4327   9.9641   9.9641  11.6094  11.6094
    13.3613  16.8368  27.8584  29.6941

          k = 0.0000 0.3333 0.0000 (   488 PWs)   bands (ev):

   -37.3776 -37.3605 -37.3605   7.7126   9.6098  10.3361  10.3361  10.5967
    11.0768  28.7842  28.8559  28.8559

          k =-0.1667 0.5000-0.1667 (   481 PWs)   bands (ev):

   -37.4208 -37.3708 -37.3708   8.7322   9.5333  10.1125  10.4882  11.3894
    11.5365  23.0799  27.3540  28.0580

          k = 0.6667-0.3333 0.6667 (   478 PWs)   bands (ev):

   -37.4551 -37.3843 -37.3740   8.8102   9.7431  10.3280  10.4825  11.6333
    14.3234  17.8214  25.8437  27.4216

          k = 0.5000-0.1667 0.5000 (   483 PWs)   bands (ev):

   -37.4457 -37.3880 -37.3672   8.9164   9.8203  10.3154  10.3935  11.1843
    13.4055  19.4773  24.7658  29.0175

          k = 0.3333 0.0000 0.3333 (   487 PWs)   bands (ev):

   -37.4069 -37.3732 -37.3571   8.4715   9.6234  10.1736  10.4437  10.5885
    11.5641  24.9131  25.3657  31.0806

          k = 0.0000 0.6667 0.0000 (   480 PWs)   bands (ev):

   -37.4336 -37.3834 -37.3834   8.7347   8.9429  11.2174  11.2174  11.4148
    11.8285  24.5847  24.9345  24.9345

          k = 0.8333-0.1667 0.8333 (   480 PWs)   bands (ev):

   -37.4492 -37.4016 -37.3879   8.7656   8.9971  10.8708  11.1592  11.6901
    14.8883  20.5240  21.8345  24.4823

          k = 0.6667-0.0000 0.6667 (   480 PWs)   bands (ev):

   -37.4295 -37.4294 -37.3797   9.0934   9.5751  10.1281  10.8680  11.3537
    16.4944  18.9188  20.2937  26.3662

          k = 0.0000-1.0000 0.0000 (   468 PWs)   bands (ev):

   -37.4613 -37.3947 -37.3947   8.4782   8.6375  11.5917  11.7854  11.7854
    15.1028  19.5477  23.2153  23.2153

          k = 0.6667-0.3333 1.0000 (   481 PWs)   bands (ev):

   -37.4373 -37.3988 -37.3774   9.3025   9.3037   9.8941  11.0595  11.2088
    13.6650  22.1103  22.2812  25.2940

          k = 0.5000-0.1667 0.8333 (   478 PWs)   bands (ev):

   -37.4415 -37.4128 -37.3843   9.3636   9.3664   9.9532  10.7912  11.5671
    17.0455  17.5029  22.6345  23.4596

          k =-0.3333-1.0000 0.0000 (   478 PWs)   bands (ev):

   -37.4447 -37.4114 -37.3951   8.9453   9.1089  10.4640  11.1228  11.7862
    17.2634  19.5847  20.8495  21.5447

     the Fermi energy is    11.6927 ev

!    total energy              =    -198.66422516 Ry
     Harris-Foulkes estimate   =    -198.66422512 Ry
     estimated scf accuracy    <       0.00000005 Ry

     The total energy is the sum of the following terms:

     one-electron contribution =     -68.93984470 Ry
     hartree contribution      =      44.60484701 Ry
     xc contribution           =     -31.19555506 Ry
     ewald contribution        =    -143.13715749 Ry
     smearing contrib. (-TS)   =       0.00348508 Ry

     convergence has been achieved in   5 iterations

     Writing output data file Pd-kp-conv.save/
 
     init_run     :      0.43s CPU      0.44s WALL (       1 calls)
     electrons    :      0.96s CPU      1.41s WALL (       1 calls)

     Called by init_run:
     wfcinit      :      0.07s CPU      0.07s WALL (       1 calls)
     potinit      :      0.01s CPU      0.01s WALL (       1 calls)
     hinit0       :      0.33s CPU      0.34s WALL (       1 calls)

     Called by electrons:
     c_bands      :      0.74s CPU      0.79s WALL (       5 calls)
     sum_band     :      0.16s CPU      0.17s WALL (       5 calls)
     v_of_rho     :      0.03s CPU      0.03s WALL (       6 calls)
     newd         :      0.04s CPU      0.05s WALL (       6 calls)
     mix_rho      :      0.00s CPU      0.00s WALL (       5 calls)

     Called by c_bands:
     init_us_2    :      0.02s CPU      0.02s WALL (     176 calls)
     cegterg      :      0.69s CPU      0.73s WALL (      80 calls)

     Called by sum_band:
     sum_band:bec :      0.00s CPU      0.00s WALL (      80 calls)
     addusdens    :      0.04s CPU      0.04s WALL (       5 calls)

     Called by *egterg:
     h_psi        :      0.60s CPU      0.64s WALL (     289 calls)
     s_psi        :      0.01s CPU      0.01s WALL (     289 calls)
     g_psi        :      0.01s CPU      0.01s WALL (     193 calls)
     cdiaghg      :      0.08s CPU      0.08s WALL (     273 calls)

     Called by h_psi:
     h_psi:pot    :      0.60s CPU      0.63s WALL (     289 calls)
     h_psi:calbec :      0.01s CPU      0.01s WALL (     289 calls)
     vloc_psi     :      0.57s CPU      0.61s WALL (     289 calls)
     add_vuspsi   :      0.01s CPU      0.01s WALL (     289 calls)

     General routines
     calbec       :      0.01s CPU      0.02s WALL (     369 calls)
     fft          :      0.01s CPU      0.01s WALL (      67 calls)
     ffts         :      0.00s CPU      0.00s WALL (       5 calls)
     fftw         :      0.58s CPU      0.61s WALL (    6314 calls)
 
     Parallel routines
     fft_scatt_xy :      0.11s CPU      0.11s WALL (    6386 calls)
     fft_scatt_yz :      0.13s CPU      0.14s WALL (    6386 calls)
 
     PWSCF        :     1.47s CPU         2.03s WALL

 
   This run was terminated on:  22:47:54   2Dec2021            

=------------------------------------------------------------------------------=
   JOB DONE.
=------------------------------------------------------------------------------=
