
     Program PWSCF v.6.3 starts on  2Dec2021 at 21:35:52 

     This program is part of the open-source Quantum ESPRESSO suite
     for quantum simulation of materials; please cite
         "P. Giannozzi et al., J. Phys.:Condens. Matter 21 395502 (2009);
         "P. Giannozzi et al., J. Phys.:Condens. Matter 29 465901 (2017);
          URL http://www.quantum-espresso.org", 
     in publications or presentations arising from this work. More details at
     http://www.quantum-espresso.org/quote

     Parallel version (MPI & OpenMP), running on       2 processor cores
     Number of MPI processes:                 2
     Threads/MPI process:                     1

     MPI processes distributed on     1 nodes
     R & G space division:  proc/nbgrp/npool/nimage =       2
     Reading input from pw-input.in

     Current dimensions of program PWSCF are:
     Max number of different atomic species (ntypx) = 10
     Max number of k-points (npk) =  40000
     Max angular momentum in pseudopotentials (lmaxx) =  3

     Subspace diagonalization in iterative solution of the eigenvalue problem:
     a serial algorithm will be used

 
     Parallelization info
     --------------------
     sticks:   dense  smooth     PW     G-vecs:    dense   smooth      PW
     Min          99      99     30                  957      957     168
     Max         100     100     31                  960      960     171
     Sum         199     199     61                 1917     1917     339
 

     Title: 
     Pd-kp-conv                                                                 


     bravais-lattice index     =            2
     lattice parameter (alat)  =       6.5000  a.u.
     unit-cell volume          =      68.6562 (a.u.)^3
     number of atoms/cell      =            1
     number of atomic types    =            1
     number of electrons       =        16.00
     number of Kohn-Sham states=           12
     kinetic-energy cutoff     =      35.0000  Ry
     charge density cutoff     =     140.0000  Ry
     convergence threshold     =      1.0E-07
     mixing beta               =       0.7000
     number of iterations used =            8  plain     mixing
     Exchange-correlation      =  SLA  PW   PBX  PBC ( 1  4  3  4 0 0)

     celldm(1)=   6.500000  celldm(2)=   0.000000  celldm(3)=   0.000000
     celldm(4)=   0.000000  celldm(5)=   0.000000  celldm(6)=   0.000000

     crystal axes: (cart. coord. in units of alat)
               a(1) = (  -0.500000   0.000000   0.500000 )  
               a(2) = (   0.000000   0.500000   0.500000 )  
               a(3) = (  -0.500000   0.500000   0.000000 )  

     reciprocal axes: (cart. coord. in units 2 pi/alat)
               b(1) = ( -1.000000 -1.000000  1.000000 )  
               b(2) = (  1.000000  1.000000  1.000000 )  
               b(3) = ( -1.000000  1.000000 -1.000000 )  


     PseudoPot. # 1 for Pd read from file:
     ./pd_pbe_v1.4.uspp.F.UPF
     MD5 check sum: 2d733d2bc2cbfd217af676df1668a4bc
     Pseudo is Ultrasoft + core correction, Zval = 16.0
     Generated by new atomic code, or converted to UPF format
     Using radial grid of  887 points,  6 beta functions with: 
                l(1) =   0
                l(2) =   0
                l(3) =   1
                l(4) =   1
                l(5) =   2
                l(6) =   2
     Q(r) pseudized with  8 coefficients,  rinner =    1.130   1.130   1.130
                                                       1.130   1.130

     atomic species   valence    mass     pseudopotential
        Pd            16.00   106.40000     Pd( 1.00)

     48 Sym. Ops., with inversion, found



   Cartesian axes

     site n.     atom                  positions (alat units)
         1           Pd  tau(   1) = (   0.0000000   0.0000000   0.0000000  )

     number of k points=     4  Marzari-Vanderbilt smearing, width (Ry)=  0.0200
                       cart. coord. in units 2pi/alat
        k(    1) = (   0.0000000   0.0000000   0.0000000), wk =   0.0740741
        k(    2) = (  -0.3333333   0.3333333  -0.3333333), wk =   0.5925926
        k(    3) = (   0.0000000   0.6666667   0.0000000), wk =   0.4444444
        k(    4) = (   0.6666667  -0.0000000   0.6666667), wk =   0.8888889

     Dense  grid:     1917 G-vectors     FFT dimensions: (  18,  18,  18)

     Estimated max dynamical RAM per process >       4.46 MB

     Estimated total dynamical RAM >       8.91 MB

     Initial potential from superposition of free atoms
     Check: negative starting charge=   -0.084237

     starting charge   15.49999, renormalised to   16.00000

     negative rho (up, down):  8.695E-02 0.000E+00
     Starting wfcs are   12 randomized atomic wfcs

     total cpu time spent up to now is        0.4 secs

     Self-consistent Calculation

     iteration #  1     ecut=    35.00 Ry     beta= 0.70
     Davidson diagonalization with overlap
     ethr =  1.00E-02,  avg # of iterations =  3.8

     negative rho (up, down):  9.002E-02 0.000E+00

     total cpu time spent up to now is        0.5 secs

     total energy              =    -198.23432409 Ry
     Harris-Foulkes estimate   =    -198.64449010 Ry
     estimated scf accuracy    <       0.59281549 Ry

     iteration #  2     ecut=    35.00 Ry     beta= 0.70
     Davidson diagonalization with overlap
     ethr =  3.71E-03,  avg # of iterations =  2.0

     negative rho (up, down):  9.082E-02 0.000E+00

     total cpu time spent up to now is        0.5 secs

     total energy              =    -198.39046634 Ry
     Harris-Foulkes estimate   =    -198.51787113 Ry
     estimated scf accuracy    <       0.21997176 Ry

     iteration #  3     ecut=    35.00 Ry     beta= 0.70
     Davidson diagonalization with overlap
     ethr =  1.37E-03,  avg # of iterations =  2.0

     negative rho (up, down):  9.182E-02 0.000E+00

     total cpu time spent up to now is        0.6 secs

     total energy              =    -198.43312186 Ry
     Harris-Foulkes estimate   =    -198.43377189 Ry
     estimated scf accuracy    <       0.00147194 Ry

     iteration #  4     ecut=    35.00 Ry     beta= 0.70
     Davidson diagonalization with overlap
     ethr =  9.20E-06,  avg # of iterations =  2.0

     negative rho (up, down):  9.175E-02 0.000E+00

     total cpu time spent up to now is        0.6 secs

     total energy              =    -198.43348866 Ry
     Harris-Foulkes estimate   =    -198.43374482 Ry
     estimated scf accuracy    <       0.00079207 Ry

     iteration #  5     ecut=    35.00 Ry     beta= 0.70
     Davidson diagonalization with overlap
     ethr =  4.95E-06,  avg # of iterations =  1.0

     negative rho (up, down):  9.180E-02 0.000E+00

     total cpu time spent up to now is        0.7 secs

     total energy              =    -198.43357346 Ry
     Harris-Foulkes estimate   =    -198.43357663 Ry
     estimated scf accuracy    <       0.00001620 Ry

     iteration #  6     ecut=    35.00 Ry     beta= 0.70
     Davidson diagonalization with overlap
     ethr =  1.01E-07,  avg # of iterations =  1.2

     negative rho (up, down):  9.182E-02 0.000E+00

     total cpu time spent up to now is        0.7 secs

     total energy              =    -198.43357319 Ry
     Harris-Foulkes estimate   =    -198.43357446 Ry
     estimated scf accuracy    <       0.00000328 Ry

     iteration #  7     ecut=    35.00 Ry     beta= 0.70
     Davidson diagonalization with overlap
     ethr =  2.05E-08,  avg # of iterations =  1.5

     negative rho (up, down):  9.182E-02 0.000E+00

     total cpu time spent up to now is        0.7 secs

     End of self-consistent calculation

          k = 0.0000 0.0000 0.0000 (   259 PWs)   bands (ev):

   -20.4139 -20.4139 -20.4139  20.0108  25.2101  25.2101  25.2101  28.0926
    28.0926  48.4199  55.5738  55.5738

          k =-0.3333 0.3333-0.3333 (   238 PWs)   bands (ev):

   -21.5380 -20.5617 -20.5617  21.7868  25.4271  25.4271  27.2980  29.1752
    29.1752  45.3817  49.5941  59.3726

          k = 0.0000 0.6667 0.0000 (   238 PWs)   bands (ev):

   -21.4772 -20.8158 -20.8158  21.8782  22.0923  28.9838  28.9838  29.4619
    29.6742  50.0079  50.0079  50.2434

          k = 0.6667-0.0000 0.6667 (   236 PWs)   bands (ev):

   -21.4146 -21.4026 -20.7633  22.5015  23.9853  25.6381  27.7200  29.4477
    38.4317  42.6246  45.2049  53.0276

     the Fermi energy is    29.4547 ev

!    total energy              =    -198.43357377 Ry
     Harris-Foulkes estimate   =    -198.43357384 Ry
     estimated scf accuracy    <       0.00000009 Ry

     The total energy is the sum of the following terms:

     one-electron contribution =     -12.00387909 Ry
     hartree contribution      =      25.94780498 Ry
     xc contribution           =     -31.80464799 Ry
     ewald contribution        =    -180.57302943 Ry
     smearing contrib. (-TS)   =       0.00017776 Ry

     convergence has been achieved in   7 iterations

     Writing output data file Pd-kp-conv.save/
 
     init_run     :      0.31s CPU      0.34s WALL (       1 calls)
     electrons    :      0.28s CPU      0.33s WALL (       1 calls)

     Called by init_run:
     wfcinit      :      0.01s CPU      0.02s WALL (       1 calls)
     potinit      :      0.00s CPU      0.01s WALL (       1 calls)
     hinit0       :      0.29s CPU      0.29s WALL (       1 calls)

     Called by electrons:
     c_bands      :      0.16s CPU      0.18s WALL (       7 calls)
     sum_band     :      0.07s CPU      0.07s WALL (       7 calls)
     v_of_rho     :      0.02s CPU      0.02s WALL (       8 calls)
     newd         :      0.04s CPU      0.04s WALL (       8 calls)
     mix_rho      :      0.00s CPU      0.00s WALL (       7 calls)

     Called by c_bands:
     init_us_2    :      0.00s CPU      0.00s WALL (      60 calls)
     cegterg      :      0.15s CPU      0.16s WALL (      28 calls)

     Called by sum_band:
     sum_band:bec :      0.00s CPU      0.00s WALL (      28 calls)
     addusdens    :      0.04s CPU      0.04s WALL (       7 calls)

     Called by *egterg:
     h_psi        :      0.11s CPU      0.13s WALL (      86 calls)
     s_psi        :      0.00s CPU      0.00s WALL (      86 calls)
     g_psi        :      0.00s CPU      0.00s WALL (      54 calls)
     cdiaghg      :      0.02s CPU      0.03s WALL (      82 calls)

     Called by h_psi:
     h_psi:pot    :      0.11s CPU      0.12s WALL (      86 calls)
     h_psi:calbec :      0.00s CPU      0.00s WALL (      86 calls)
     vloc_psi     :      0.10s CPU      0.12s WALL (      86 calls)
     add_vuspsi   :      0.00s CPU      0.00s WALL (      86 calls)

     General routines
     calbec       :      0.00s CPU      0.00s WALL (     114 calls)
     fft          :      0.01s CPU      0.01s WALL (      89 calls)
     ffts         :      0.00s CPU      0.00s WALL (       7 calls)
     fftw         :      0.11s CPU      0.12s WALL (    1990 calls)
 
     Parallel routines
     fft_scatt_xy :      0.02s CPU      0.02s WALL (    2086 calls)
     fft_scatt_yz :      0.03s CPU      0.04s WALL (    2086 calls)
 
     PWSCF        :     0.68s CPU         0.83s WALL

 
   This run was terminated on:  21:35:53   2Dec2021            

=------------------------------------------------------------------------------=
   JOB DONE.
=------------------------------------------------------------------------------=
