
     Program PWSCF v.6.3 starts on  2Dec2021 at 21:35:55 

     This program is part of the open-source Quantum ESPRESSO suite
     for quantum simulation of materials; please cite
         "P. Giannozzi et al., J. Phys.:Condens. Matter 21 395502 (2009);
         "P. Giannozzi et al., J. Phys.:Condens. Matter 29 465901 (2017);
          URL http://www.quantum-espresso.org", 
     in publications or presentations arising from this work. More details at
     http://www.quantum-espresso.org/quote

     Parallel version (MPI & OpenMP), running on       2 processor cores
     Number of MPI processes:                 2
     Threads/MPI process:                     1

     MPI processes distributed on     1 nodes
     R & G space division:  proc/nbgrp/npool/nimage =       2
     Reading input from pw-input.in

     Current dimensions of program PWSCF are:
     Max number of different atomic species (ntypx) = 10
     Max number of k-points (npk) =  40000
     Max angular momentum in pseudopotentials (lmaxx) =  3

     Subspace diagonalization in iterative solution of the eigenvalue problem:
     a serial algorithm will be used

 
     Parallelization info
     --------------------
     sticks:   dense  smooth     PW     G-vecs:    dense   smooth      PW
     Min         105     105     36                 1042     1042     205
     Max         106     106     37                 1043     1043     206
     Sum         211     211     73                 2085     2085     411
 

     Title: 
     Pd-kp-conv                                                                 


     bravais-lattice index     =            2
     lattice parameter (alat)  =       6.7000  a.u.
     unit-cell volume          =      75.1908 (a.u.)^3
     number of atoms/cell      =            1
     number of atomic types    =            1
     number of electrons       =        16.00
     number of Kohn-Sham states=           12
     kinetic-energy cutoff     =      35.0000  Ry
     charge density cutoff     =     140.0000  Ry
     convergence threshold     =      1.0E-07
     mixing beta               =       0.7000
     number of iterations used =            8  plain     mixing
     Exchange-correlation      =  SLA  PW   PBX  PBC ( 1  4  3  4 0 0)

     celldm(1)=   6.700000  celldm(2)=   0.000000  celldm(3)=   0.000000
     celldm(4)=   0.000000  celldm(5)=   0.000000  celldm(6)=   0.000000

     crystal axes: (cart. coord. in units of alat)
               a(1) = (  -0.500000   0.000000   0.500000 )  
               a(2) = (   0.000000   0.500000   0.500000 )  
               a(3) = (  -0.500000   0.500000   0.000000 )  

     reciprocal axes: (cart. coord. in units 2 pi/alat)
               b(1) = ( -1.000000 -1.000000  1.000000 )  
               b(2) = (  1.000000  1.000000  1.000000 )  
               b(3) = ( -1.000000  1.000000 -1.000000 )  


     PseudoPot. # 1 for Pd read from file:
     ./pd_pbe_v1.4.uspp.F.UPF
     MD5 check sum: 2d733d2bc2cbfd217af676df1668a4bc
     Pseudo is Ultrasoft + core correction, Zval = 16.0
     Generated by new atomic code, or converted to UPF format
     Using radial grid of  887 points,  6 beta functions with: 
                l(1) =   0
                l(2) =   0
                l(3) =   1
                l(4) =   1
                l(5) =   2
                l(6) =   2
     Q(r) pseudized with  8 coefficients,  rinner =    1.130   1.130   1.130
                                                       1.130   1.130

     atomic species   valence    mass     pseudopotential
        Pd            16.00   106.40000     Pd( 1.00)

     48 Sym. Ops., with inversion, found



   Cartesian axes

     site n.     atom                  positions (alat units)
         1           Pd  tau(   1) = (   0.0000000   0.0000000   0.0000000  )

     number of k points=     4  Marzari-Vanderbilt smearing, width (Ry)=  0.0200
                       cart. coord. in units 2pi/alat
        k(    1) = (   0.0000000   0.0000000   0.0000000), wk =   0.0740741
        k(    2) = (  -0.3333333   0.3333333  -0.3333333), wk =   0.5925926
        k(    3) = (   0.0000000   0.6666667   0.0000000), wk =   0.4444444
        k(    4) = (   0.6666667  -0.0000000   0.6666667), wk =   0.8888889

     Dense  grid:     2085 G-vectors     FFT dimensions: (  18,  18,  18)

     Estimated max dynamical RAM per process >       4.78 MB

     Estimated total dynamical RAM >       9.55 MB

     Initial potential from superposition of free atoms
     Check: negative starting charge=   -0.084526

     starting charge   15.49999, renormalised to   16.00000

     negative rho (up, down):  8.725E-02 0.000E+00
     Starting wfcs are   12 randomized atomic wfcs

     total cpu time spent up to now is        0.4 secs

     Self-consistent Calculation

     iteration #  1     ecut=    35.00 Ry     beta= 0.70
     Davidson diagonalization with overlap
     ethr =  1.00E-02,  avg # of iterations =  3.8

     negative rho (up, down):  8.964E-02 0.000E+00

     total cpu time spent up to now is        0.5 secs

     total energy              =    -198.26717453 Ry
     Harris-Foulkes estimate   =    -198.76901654 Ry
     estimated scf accuracy    <       0.71588441 Ry

     iteration #  2     ecut=    35.00 Ry     beta= 0.70
     Davidson diagonalization with overlap
     ethr =  4.47E-03,  avg # of iterations =  2.0

     negative rho (up, down):  9.047E-02 0.000E+00

     total cpu time spent up to now is        0.5 secs

     total energy              =    -198.46692017 Ry
     Harris-Foulkes estimate   =    -198.63640877 Ry
     estimated scf accuracy    <       0.29502624 Ry

     iteration #  3     ecut=    35.00 Ry     beta= 0.70
     Davidson diagonalization with overlap
     ethr =  1.84E-03,  avg # of iterations =  2.0

     negative rho (up, down):  9.122E-02 0.000E+00

     total cpu time spent up to now is        0.6 secs

     total energy              =    -198.52030214 Ry
     Harris-Foulkes estimate   =    -198.52061312 Ry
     estimated scf accuracy    <       0.00084460 Ry

     iteration #  4     ecut=    35.00 Ry     beta= 0.70
     Davidson diagonalization with overlap
     ethr =  5.28E-06,  avg # of iterations =  2.2

     negative rho (up, down):  9.123E-02 0.000E+00

     total cpu time spent up to now is        0.6 secs

     total energy              =    -198.52049949 Ry
     Harris-Foulkes estimate   =    -198.52063269 Ry
     estimated scf accuracy    <       0.00031022 Ry

     iteration #  5     ecut=    35.00 Ry     beta= 0.70
     Davidson diagonalization with overlap
     ethr =  1.94E-06,  avg # of iterations =  1.8

     negative rho (up, down):  9.132E-02 0.000E+00

     total cpu time spent up to now is        0.7 secs

     total energy              =    -198.52056337 Ry
     Harris-Foulkes estimate   =    -198.52057481 Ry
     estimated scf accuracy    <       0.00002601 Ry

     iteration #  6     ecut=    35.00 Ry     beta= 0.70
     Davidson diagonalization with overlap
     ethr =  1.63E-07,  avg # of iterations =  2.0

     negative rho (up, down):  9.133E-02 0.000E+00

     total cpu time spent up to now is        0.7 secs

     total energy              =    -198.52056937 Ry
     Harris-Foulkes estimate   =    -198.52057097 Ry
     estimated scf accuracy    <       0.00000447 Ry

     iteration #  7     ecut=    35.00 Ry     beta= 0.70
     Davidson diagonalization with overlap
     ethr =  2.79E-08,  avg # of iterations =  1.2

     negative rho (up, down):  9.133E-02 0.000E+00

     total cpu time spent up to now is        0.7 secs

     End of self-consistent calculation

          k = 0.0000 0.0000 0.0000 (   259 PWs)   bands (ev):

   -23.4418 -23.4418 -23.4418  17.5637  22.5972  22.5972  22.5972  25.0874
    25.0874  45.2429  51.7568  51.7568

          k =-0.3333 0.3333-0.3333 (   256 PWs)   bands (ev):

   -24.2699 -23.5534 -23.5534  19.4601  22.7924  22.7924  24.3379  26.0334
    26.0334  41.2448  45.9806  54.6007

          k = 0.0000 0.6667 0.0000 (   266 PWs)   bands (ev):

   -24.2270 -23.7413 -23.7413  19.6187  19.8791  25.8670  25.8670  26.2771
    26.4463  45.7193  45.7193  45.9706

          k = 0.6667-0.0000 0.6667 (   268 PWs)   bands (ev):

   -24.1812 -24.1736 -23.7035  20.2350  21.4629  22.9212  24.7863  26.2696
    34.5588  38.3637  40.8876  48.4471

     the Fermi energy is    26.2792 ev

!    total energy              =    -198.52057010 Ry
     Harris-Foulkes estimate   =    -198.52057012 Ry
     estimated scf accuracy    <       0.00000002 Ry

     The total energy is the sum of the following terms:

     one-electron contribution =     -19.78343003 Ry
     hartree contribution      =      28.10522285 Ry
     xc contribution           =     -31.65896768 Ry
     ewald contribution        =    -175.18278975 Ry
     smearing contrib. (-TS)   =      -0.00060550 Ry

     convergence has been achieved in   7 iterations

     Writing output data file Pd-kp-conv.save/
 
     init_run     :      0.31s CPU      0.33s WALL (       1 calls)
     electrons    :      0.27s CPU      0.31s WALL (       1 calls)

     Called by init_run:
     wfcinit      :      0.01s CPU      0.01s WALL (       1 calls)
     potinit      :      0.00s CPU      0.01s WALL (       1 calls)
     hinit0       :      0.29s CPU      0.30s WALL (       1 calls)

     Called by electrons:
     c_bands      :      0.16s CPU      0.17s WALL (       7 calls)
     sum_band     :      0.06s CPU      0.07s WALL (       7 calls)
     v_of_rho     :      0.02s CPU      0.02s WALL (       8 calls)
     newd         :      0.04s CPU      0.04s WALL (       8 calls)
     mix_rho      :      0.00s CPU      0.00s WALL (       7 calls)

     Called by c_bands:
     init_us_2    :      0.00s CPU      0.00s WALL (      60 calls)
     cegterg      :      0.14s CPU      0.16s WALL (      28 calls)

     Called by sum_band:
     sum_band:bec :      0.00s CPU      0.00s WALL (      28 calls)
     addusdens    :      0.03s CPU      0.03s WALL (       7 calls)

     Called by *egterg:
     h_psi        :      0.11s CPU      0.12s WALL (      92 calls)
     s_psi        :      0.00s CPU      0.00s WALL (      92 calls)
     g_psi        :      0.00s CPU      0.00s WALL (      60 calls)
     cdiaghg      :      0.03s CPU      0.03s WALL (      88 calls)

     Called by h_psi:
     h_psi:pot    :      0.11s CPU      0.12s WALL (      92 calls)
     h_psi:calbec :      0.00s CPU      0.00s WALL (      92 calls)
     vloc_psi     :      0.10s CPU      0.12s WALL (      92 calls)
     add_vuspsi   :      0.00s CPU      0.00s WALL (      92 calls)

     General routines
     calbec       :      0.00s CPU      0.00s WALL (     120 calls)
     fft          :      0.01s CPU      0.01s WALL (      89 calls)
     ffts         :      0.00s CPU      0.00s WALL (       7 calls)
     fftw         :      0.11s CPU      0.12s WALL (    2026 calls)
 
     Parallel routines
     fft_scatt_xy :      0.02s CPU      0.02s WALL (    2122 calls)
     fft_scatt_yz :      0.03s CPU      0.04s WALL (    2122 calls)
 
     PWSCF        :     0.66s CPU         0.79s WALL

 
   This run was terminated on:  21:35:55   2Dec2021            

=------------------------------------------------------------------------------=
   JOB DONE.
=------------------------------------------------------------------------------=
