
     Program PWSCF v.6.3 starts on  2Dec2021 at 23:21:55 

     This program is part of the open-source Quantum ESPRESSO suite
     for quantum simulation of materials; please cite
         "P. Giannozzi et al., J. Phys.:Condens. Matter 21 395502 (2009);
         "P. Giannozzi et al., J. Phys.:Condens. Matter 29 465901 (2017);
          URL http://www.quantum-espresso.org", 
     in publications or presentations arising from this work. More details at
     http://www.quantum-espresso.org/quote

     Parallel version (MPI & OpenMP), running on       2 processor cores
     Number of MPI processes:                 2
     Threads/MPI process:                     1

     MPI processes distributed on     1 nodes
     R & G space division:  proc/nbgrp/npool/nimage =       2
     Reading input from pw-input.in

     Current dimensions of program PWSCF are:
     Max number of different atomic species (ntypx) = 10
     Max number of k-points (npk) =  40000
     Max angular momentum in pseudopotentials (lmaxx) =  3

     Subspace diagonalization in iterative solution of the eigenvalue problem:
     a serial algorithm will be used

 
     Parallelization info
     --------------------
     sticks:   dense  smooth     PW     G-vecs:    dense   smooth      PW
     Min         156     156     54                 1917     1917     373
     Max         157     157     55                 1922     1922     376
     Sum         313     313    109                 3839     3839     749
 

     Title: 
     Pd-kp-conv                                                                 


     bravais-lattice index     =            2
     lattice parameter (alat)  =       8.2000  a.u.
     unit-cell volume          =     137.8420 (a.u.)^3
     number of atoms/cell      =            1
     number of atomic types    =            1
     number of electrons       =        16.00
     number of Kohn-Sham states=           12
     kinetic-energy cutoff     =      35.0000  Ry
     charge density cutoff     =     140.0000  Ry
     convergence threshold     =      1.0E-07
     mixing beta               =       0.7000
     number of iterations used =            8  plain     mixing
     Exchange-correlation      =  SLA  PW   PBX  PBC ( 1  4  3  4 0 0)

     celldm(1)=   8.200000  celldm(2)=   0.000000  celldm(3)=   0.000000
     celldm(4)=   0.000000  celldm(5)=   0.000000  celldm(6)=   0.000000

     crystal axes: (cart. coord. in units of alat)
               a(1) = (  -0.500000   0.000000   0.500000 )  
               a(2) = (   0.000000   0.500000   0.500000 )  
               a(3) = (  -0.500000   0.500000   0.000000 )  

     reciprocal axes: (cart. coord. in units 2 pi/alat)
               b(1) = ( -1.000000 -1.000000  1.000000 )  
               b(2) = (  1.000000  1.000000  1.000000 )  
               b(3) = ( -1.000000  1.000000 -1.000000 )  


     PseudoPot. # 1 for Pd read from file:
     ./pd_pbe_v1.4.uspp.F.UPF
     MD5 check sum: 2d733d2bc2cbfd217af676df1668a4bc
     Pseudo is Ultrasoft + core correction, Zval = 16.0
     Generated by new atomic code, or converted to UPF format
     Using radial grid of  887 points,  6 beta functions with: 
                l(1) =   0
                l(2) =   0
                l(3) =   1
                l(4) =   1
                l(5) =   2
                l(6) =   2
     Q(r) pseudized with  8 coefficients,  rinner =    1.130   1.130   1.130
                                                       1.130   1.130

     atomic species   valence    mass     pseudopotential
        Pd            16.00   106.40000     Pd( 1.00)

     48 Sym. Ops., with inversion, found



   Cartesian axes

     site n.     atom                  positions (alat units)
         1           Pd  tau(   1) = (   0.0000000   0.0000000   0.0000000  )

     number of k points=   195  Marzari-Vanderbilt smearing, width (Ry)=  0.0400

     Number of k-points >= 100: set verbosity='high' to print them.

     Dense  grid:     3839 G-vectors     FFT dimensions: (  24,  24,  24)

     Estimated max dynamical RAM per process >      16.71 MB

     Estimated total dynamical RAM >      33.43 MB

     Initial potential from superposition of free atoms
     Check: negative starting charge=   -0.082129

     starting charge   15.49999, renormalised to   16.00000

     negative rho (up, down):  8.478E-02 0.000E+00
     Starting wfcs are   12 randomized atomic wfcs

     total cpu time spent up to now is        1.2 secs

     Self-consistent Calculation

     iteration #  1     ecut=    35.00 Ry     beta= 0.70
     Davidson diagonalization with overlap
     ethr =  1.00E-02,  avg # of iterations =  3.4

     negative rho (up, down):  8.198E-02 0.000E+00

     total cpu time spent up to now is        3.9 secs

     total energy              =    -197.86741824 Ry
     Harris-Foulkes estimate   =    -199.06962537 Ry
     estimated scf accuracy    <       1.62864877 Ry

     iteration #  2     ecut=    35.00 Ry     beta= 0.70
     Davidson diagonalization with overlap
     ethr =  1.00E-02,  avg # of iterations =  2.0

     negative rho (up, down):  8.426E-02 0.000E+00

     total cpu time spent up to now is        6.1 secs

     total energy              =    -198.23951971 Ry
     Harris-Foulkes estimate   =    -199.34483278 Ry
     estimated scf accuracy    <       2.38231155 Ry

     iteration #  3     ecut=    35.00 Ry     beta= 0.70
     Davidson diagonalization with overlap
     ethr =  1.00E-02,  avg # of iterations =  2.0

     negative rho (up, down):  8.430E-02 0.000E+00

     total cpu time spent up to now is        8.3 secs

     total energy              =    -198.66461578 Ry
     Harris-Foulkes estimate   =    -198.66462044 Ry
     estimated scf accuracy    <       0.00007009 Ry

     iteration #  4     ecut=    35.00 Ry     beta= 0.70
     Davidson diagonalization with overlap
     ethr =  4.38E-07,  avg # of iterations =  3.2

     negative rho (up, down):  8.440E-02 0.000E+00

     total cpu time spent up to now is       11.0 secs

     total energy              =    -198.66479671 Ry
     Harris-Foulkes estimate   =    -198.66479741 Ry
     estimated scf accuracy    <       0.00000762 Ry

     iteration #  5     ecut=    35.00 Ry     beta= 0.70
     Davidson diagonalization with overlap
     ethr =  4.76E-08,  avg # of iterations =  1.0

     negative rho (up, down):  8.440E-02 0.000E+00

     total cpu time spent up to now is       12.6 secs

     End of self-consistent calculation

     Number of k-points >= 100: set verbosity='high' to print the bands.

     the Fermi energy is    11.7724 ev

!    total energy              =    -198.66479694 Ry
     Harris-Foulkes estimate   =    -198.66479693 Ry
     estimated scf accuracy    <       0.00000005 Ry

     The total energy is the sum of the following terms:

     one-electron contribution =     -68.97521330 Ry
     hartree contribution      =      44.64335438 Ry
     xc contribution           =     -31.20165178 Ry
     ewald contribution        =    -143.13715749 Ry
     smearing contrib. (-TS)   =       0.00587125 Ry

     convergence has been achieved in   5 iterations

     Writing output data file Pd-kp-conv.save/
 
     init_run     :      1.01s CPU      1.09s WALL (       1 calls)
     electrons    :     10.26s CPU     11.45s WALL (       1 calls)

     Called by init_run:
     wfcinit      :      0.66s CPU      0.70s WALL (       1 calls)
     potinit      :      0.01s CPU      0.02s WALL (       1 calls)
     hinit0       :      0.33s CPU      0.34s WALL (       1 calls)

     Called by electrons:
     c_bands      :      8.68s CPU      9.39s WALL (       5 calls)
     sum_band     :      1.52s CPU      1.60s WALL (       5 calls)
     v_of_rho     :      0.03s CPU      0.03s WALL (       6 calls)
     newd         :      0.04s CPU      0.05s WALL (       6 calls)
     mix_rho      :      0.00s CPU      0.00s WALL (       5 calls)

     Called by c_bands:
     init_us_2    :      0.24s CPU      0.26s WALL (    2145 calls)
     cegterg      :      8.03s CPU      8.47s WALL (     975 calls)

     Called by sum_band:
     sum_band:bec :      0.01s CPU      0.01s WALL (     975 calls)
     addusdens    :      0.04s CPU      0.05s WALL (       5 calls)

     Called by *egterg:
     h_psi        :      6.93s CPU      7.32s WALL (    3428 calls)
     s_psi        :      0.10s CPU      0.11s WALL (    3428 calls)
     g_psi        :      0.08s CPU      0.08s WALL (    2258 calls)
     cdiaghg      :      0.87s CPU      0.91s WALL (    3233 calls)

     Called by h_psi:
     h_psi:pot    :      6.89s CPU      7.28s WALL (    3428 calls)
     h_psi:calbec :      0.14s CPU      0.15s WALL (    3428 calls)
     vloc_psi     :      6.63s CPU      7.00s WALL (    3428 calls)
     add_vuspsi   :      0.10s CPU      0.11s WALL (    3428 calls)

     General routines
     calbec       :      0.16s CPU      0.18s WALL (    4403 calls)
     fft          :      0.01s CPU      0.01s WALL (      67 calls)
     ffts         :      0.00s CPU      0.00s WALL (       5 calls)
     fftw         :      6.76s CPU      7.12s WALL (   76906 calls)
 
     Parallel routines
     fft_scatt_xy :      1.23s CPU      1.31s WALL (   76978 calls)
     fft_scatt_yz :      1.46s CPU      1.56s WALL (   76978 calls)
 
     PWSCF        :    11.43s CPU        13.48s WALL

 
   This run was terminated on:  23:22: 8   2Dec2021            

=------------------------------------------------------------------------------=
   JOB DONE.
=------------------------------------------------------------------------------=
