
     Program PWSCF v.6.3 starts on  2Dec2021 at 22:40:11 

     This program is part of the open-source Quantum ESPRESSO suite
     for quantum simulation of materials; please cite
         "P. Giannozzi et al., J. Phys.:Condens. Matter 21 395502 (2009);
         "P. Giannozzi et al., J. Phys.:Condens. Matter 29 465901 (2017);
          URL http://www.quantum-espresso.org", 
     in publications or presentations arising from this work. More details at
     http://www.quantum-espresso.org/quote

     Parallel version (MPI & OpenMP), running on       2 processor cores
     Number of MPI processes:                 2
     Threads/MPI process:                     1

     MPI processes distributed on     1 nodes
     R & G space division:  proc/nbgrp/npool/nimage =       2
     Reading input from pw-input.in

     Current dimensions of program PWSCF are:
     Max number of different atomic species (ntypx) = 10
     Max number of k-points (npk) =  40000
     Max angular momentum in pseudopotentials (lmaxx) =  3

     Subspace diagonalization in iterative solution of the eigenvalue problem:
     a serial algorithm will be used

 
     Parallelization info
     --------------------
     sticks:   dense  smooth     PW     G-vecs:    dense   smooth      PW
     Min         150     150     54                 1738     1738     362
     Max         151     151     55                 1741     1741     363
     Sum         301     301    109                 3479     3479     725
 

     Title: 
     Pd-kp-conv                                                                 


     bravais-lattice index     =            2
     lattice parameter (alat)  =       7.9000  a.u.
     unit-cell volume          =     123.2598 (a.u.)^3
     number of atoms/cell      =            1
     number of atomic types    =            1
     number of electrons       =        16.00
     number of Kohn-Sham states=           12
     kinetic-energy cutoff     =      35.0000  Ry
     charge density cutoff     =     140.0000  Ry
     convergence threshold     =      1.0E-07
     mixing beta               =       0.7000
     number of iterations used =            8  plain     mixing
     Exchange-correlation      =  SLA  PW   PBX  PBC ( 1  4  3  4 0 0)

     celldm(1)=   7.900000  celldm(2)=   0.000000  celldm(3)=   0.000000
     celldm(4)=   0.000000  celldm(5)=   0.000000  celldm(6)=   0.000000

     crystal axes: (cart. coord. in units of alat)
               a(1) = (  -0.500000   0.000000   0.500000 )  
               a(2) = (   0.000000   0.500000   0.500000 )  
               a(3) = (  -0.500000   0.500000   0.000000 )  

     reciprocal axes: (cart. coord. in units 2 pi/alat)
               b(1) = ( -1.000000 -1.000000  1.000000 )  
               b(2) = (  1.000000  1.000000  1.000000 )  
               b(3) = ( -1.000000  1.000000 -1.000000 )  


     PseudoPot. # 1 for Pd read from file:
     ./pd_pbe_v1.4.uspp.F.UPF
     MD5 check sum: 2d733d2bc2cbfd217af676df1668a4bc
     Pseudo is Ultrasoft + core correction, Zval = 16.0
     Generated by new atomic code, or converted to UPF format
     Using radial grid of  887 points,  6 beta functions with: 
                l(1) =   0
                l(2) =   0
                l(3) =   1
                l(4) =   1
                l(5) =   2
                l(6) =   2
     Q(r) pseudized with  8 coefficients,  rinner =    1.130   1.130   1.130
                                                       1.130   1.130

     atomic species   valence    mass     pseudopotential
        Pd            16.00   106.40000     Pd( 1.00)

     48 Sym. Ops., with inversion, found



   Cartesian axes

     site n.     atom                  positions (alat units)
         1           Pd  tau(   1) = (   0.0000000   0.0000000   0.0000000  )

     number of k points=   413  Marzari-Vanderbilt smearing, width (Ry)=  0.0300

     Number of k-points >= 100: set verbosity='high' to print them.

     Dense  grid:     3479 G-vectors     FFT dimensions: (  24,  24,  24)

     Estimated max dynamical RAM per process >      23.72 MB

     Estimated total dynamical RAM >      47.44 MB

     Initial potential from superposition of free atoms
     Check: negative starting charge=   -0.079301

     starting charge   15.49999, renormalised to   16.00000

     negative rho (up, down):  8.186E-02 0.000E+00
     Starting wfcs are   12 randomized atomic wfcs

     total cpu time spent up to now is        1.9 secs

     Self-consistent Calculation

     iteration #  1     ecut=    35.00 Ry     beta= 0.70
     Davidson diagonalization with overlap
     ethr =  1.00E-02,  avg # of iterations =  3.5

     negative rho (up, down):  7.989E-02 0.000E+00

     total cpu time spent up to now is        7.1 secs

     total energy              =    -198.00652598 Ry
     Harris-Foulkes estimate   =    -199.06526235 Ry
     estimated scf accuracy    <       1.44374389 Ry

     iteration #  2     ecut=    35.00 Ry     beta= 0.70
     Davidson diagonalization with overlap
     ethr =  9.02E-03,  avg # of iterations =  2.0

     negative rho (up, down):  8.154E-02 0.000E+00

     total cpu time spent up to now is       11.9 secs

     total energy              =    -198.33073362 Ry
     Harris-Foulkes estimate   =    -199.20949468 Ry
     estimated scf accuracy    <       1.84811095 Ry

     iteration #  3     ecut=    35.00 Ry     beta= 0.70
     Davidson diagonalization with overlap
     ethr =  9.02E-03,  avg # of iterations =  2.0

     negative rho (up, down):  8.164E-02 0.000E+00

     total cpu time spent up to now is       16.0 secs

     total energy              =    -198.68592107 Ry
     Harris-Foulkes estimate   =    -198.68630443 Ry
     estimated scf accuracy    <       0.00087251 Ry

     iteration #  4     ecut=    35.00 Ry     beta= 0.70
     Davidson diagonalization with overlap
     ethr =  5.45E-06,  avg # of iterations =  2.6

     negative rho (up, down):  8.175E-02 0.000E+00

     total cpu time spent up to now is       20.6 secs

     total energy              =    -198.68631575 Ry
     Harris-Foulkes estimate   =    -198.68631444 Ry
     estimated scf accuracy    <       0.00000148 Ry

     iteration #  5     ecut=    35.00 Ry     beta= 0.70
     Davidson diagonalization with overlap
     ethr =  9.22E-09,  avg # of iterations =  2.0

     negative rho (up, down):  8.178E-02 0.000E+00

     total cpu time spent up to now is       24.7 secs

     End of self-consistent calculation

     Number of k-points >= 100: set verbosity='high' to print the bands.

     the Fermi energy is    13.8877 ev

!    total energy              =    -198.68631603 Ry
     Harris-Foulkes estimate   =    -198.68631595 Ry
     estimated scf accuracy    <       0.00000007 Ry

     The total energy is the sum of the following terms:

     one-electron contribution =     -60.30685680 Ry
     hartree contribution      =      41.43624816 Ry
     xc contribution           =     -31.24417610 Ry
     ewald contribution        =    -148.57274574 Ry
     smearing contrib. (-TS)   =       0.00121445 Ry

     convergence has been achieved in   5 iterations

     Writing output data file Pd-kp-conv.save/
 
     init_run     :      1.64s CPU      1.77s WALL (       1 calls)
     electrons    :     20.86s CPU     22.79s WALL (       1 calls)

     Called by init_run:
     wfcinit      :      1.29s CPU      1.40s WALL (       1 calls)
     potinit      :      0.01s CPU      0.02s WALL (       1 calls)
     hinit0       :      0.33s CPU      0.34s WALL (       1 calls)

     Called by electrons:
     c_bands      :     17.73s CPU     19.38s WALL (       5 calls)
     sum_band     :      3.08s CPU      3.28s WALL (       5 calls)
     v_of_rho     :      0.03s CPU      0.03s WALL (       6 calls)
     newd         :      0.04s CPU      0.05s WALL (       6 calls)
     mix_rho      :      0.00s CPU      0.00s WALL (       5 calls)

     Called by c_bands:
     init_us_2    :      0.44s CPU      0.48s WALL (    4543 calls)
     cegterg      :     16.48s CPU     17.51s WALL (    2065 calls)

     Called by sum_band:
     sum_band:bec :      0.02s CPU      0.02s WALL (    2065 calls)
     addusdens    :      0.04s CPU      0.05s WALL (       5 calls)

     Called by *egterg:
     h_psi        :     14.26s CPU     15.19s WALL (    7461 calls)
     s_psi        :      0.19s CPU      0.21s WALL (    7461 calls)
     g_psi        :      0.14s CPU      0.15s WALL (    4983 calls)
     cdiaghg      :      1.81s CPU      1.91s WALL (    7048 calls)

     Called by h_psi:
     h_psi:pot    :     14.20s CPU     15.13s WALL (    7461 calls)
     h_psi:calbec :      0.27s CPU      0.29s WALL (    7461 calls)
     vloc_psi     :     13.67s CPU     14.56s WALL (    7461 calls)
     add_vuspsi   :      0.20s CPU      0.22s WALL (    7461 calls)

     General routines
     calbec       :      0.31s CPU      0.34s WALL (    9526 calls)
     fft          :      0.01s CPU      0.01s WALL (      67 calls)
     ffts         :      0.00s CPU      0.00s WALL (       5 calls)
     fftw         :     13.98s CPU     14.87s WALL (  161264 calls)
 
     Parallel routines
     fft_scatt_xy :      2.55s CPU      2.73s WALL (  161336 calls)
     fft_scatt_yz :      3.02s CPU      3.25s WALL (  161336 calls)
 
     PWSCF        :    22.73s CPU        26.18s WALL

 
   This run was terminated on:  22:40:37   2Dec2021            

=------------------------------------------------------------------------------=
   JOB DONE.
=------------------------------------------------------------------------------=
