
     Program PWSCF v.6.3 starts on  2Dec2021 at 22:40:38 

     This program is part of the open-source Quantum ESPRESSO suite
     for quantum simulation of materials; please cite
         "P. Giannozzi et al., J. Phys.:Condens. Matter 21 395502 (2009);
         "P. Giannozzi et al., J. Phys.:Condens. Matter 29 465901 (2017);
          URL http://www.quantum-espresso.org", 
     in publications or presentations arising from this work. More details at
     http://www.quantum-espresso.org/quote

     Parallel version (MPI & OpenMP), running on       2 processor cores
     Number of MPI processes:                 2
     Threads/MPI process:                     1

     MPI processes distributed on     1 nodes
     R & G space division:  proc/nbgrp/npool/nimage =       2
     Reading input from pw-input.in

     Current dimensions of program PWSCF are:
     Max number of different atomic species (ntypx) = 10
     Max number of k-points (npk) =  40000
     Max angular momentum in pseudopotentials (lmaxx) =  3

     Subspace diagonalization in iterative solution of the eigenvalue problem:
     a serial algorithm will be used

 
     Parallelization info
     --------------------
     sticks:   dense  smooth     PW     G-vecs:    dense   smooth      PW
     Min         156     156     54                 1763     1763     362
     Max         157     157     55                 1764     1764     363
     Sum         313     313    109                 3527     3527     725
 

     Title: 
     Pd-kp-conv                                                                 


     bravais-lattice index     =            2
     lattice parameter (alat)  =       8.0000  a.u.
     unit-cell volume          =     128.0000 (a.u.)^3
     number of atoms/cell      =            1
     number of atomic types    =            1
     number of electrons       =        16.00
     number of Kohn-Sham states=           12
     kinetic-energy cutoff     =      35.0000  Ry
     charge density cutoff     =     140.0000  Ry
     convergence threshold     =      1.0E-07
     mixing beta               =       0.7000
     number of iterations used =            8  plain     mixing
     Exchange-correlation      =  SLA  PW   PBX  PBC ( 1  4  3  4 0 0)

     celldm(1)=   8.000000  celldm(2)=   0.000000  celldm(3)=   0.000000
     celldm(4)=   0.000000  celldm(5)=   0.000000  celldm(6)=   0.000000

     crystal axes: (cart. coord. in units of alat)
               a(1) = (  -0.500000   0.000000   0.500000 )  
               a(2) = (   0.000000   0.500000   0.500000 )  
               a(3) = (  -0.500000   0.500000   0.000000 )  

     reciprocal axes: (cart. coord. in units 2 pi/alat)
               b(1) = ( -1.000000 -1.000000  1.000000 )  
               b(2) = (  1.000000  1.000000  1.000000 )  
               b(3) = ( -1.000000  1.000000 -1.000000 )  


     PseudoPot. # 1 for Pd read from file:
     ./pd_pbe_v1.4.uspp.F.UPF
     MD5 check sum: 2d733d2bc2cbfd217af676df1668a4bc
     Pseudo is Ultrasoft + core correction, Zval = 16.0
     Generated by new atomic code, or converted to UPF format
     Using radial grid of  887 points,  6 beta functions with: 
                l(1) =   0
                l(2) =   0
                l(3) =   1
                l(4) =   1
                l(5) =   2
                l(6) =   2
     Q(r) pseudized with  8 coefficients,  rinner =    1.130   1.130   1.130
                                                       1.130   1.130

     atomic species   valence    mass     pseudopotential
        Pd            16.00   106.40000     Pd( 1.00)

     48 Sym. Ops., with inversion, found



   Cartesian axes

     site n.     atom                  positions (alat units)
         1           Pd  tau(   1) = (   0.0000000   0.0000000   0.0000000  )

     number of k points=   413  Marzari-Vanderbilt smearing, width (Ry)=  0.0300

     Number of k-points >= 100: set verbosity='high' to print them.

     Dense  grid:     3527 G-vectors     FFT dimensions: (  24,  24,  24)

     Estimated max dynamical RAM per process >      24.49 MB

     Estimated total dynamical RAM >      48.99 MB

     Check: negative/imaginary core charge=   -0.000001    0.000000

     Initial potential from superposition of free atoms
     Check: negative starting charge=   -0.080332

     starting charge   15.49999, renormalised to   16.00000

     negative rho (up, down):  8.292E-02 0.000E+00
     Starting wfcs are   12 randomized atomic wfcs

     total cpu time spent up to now is        2.0 secs

     Self-consistent Calculation

     iteration #  1     ecut=    35.00 Ry     beta= 0.70
     Davidson diagonalization with overlap
     ethr =  1.00E-02,  avg # of iterations =  3.4

     negative rho (up, down):  8.035E-02 0.000E+00

     total cpu time spent up to now is        7.7 secs

     total energy              =    -197.96162797 Ry
     Harris-Foulkes estimate   =    -199.06778009 Ry
     estimated scf accuracy    <       1.50498622 Ry

     iteration #  2     ecut=    35.00 Ry     beta= 0.70
     Davidson diagonalization with overlap
     ethr =  9.41E-03,  avg # of iterations =  2.0

     negative rho (up, down):  8.254E-02 0.000E+00

     total cpu time spent up to now is       12.4 secs

     total energy              =    -198.29567760 Ry
     Harris-Foulkes estimate   =    -199.25453275 Ry
     estimated scf accuracy    <       2.03847874 Ry

     iteration #  3     ecut=    35.00 Ry     beta= 0.70
     Davidson diagonalization with overlap
     ethr =  9.41E-03,  avg # of iterations =  2.0

     negative rho (up, down):  8.261E-02 0.000E+00

     total cpu time spent up to now is       16.6 secs

     total energy              =    -198.67977977 Ry
     Harris-Foulkes estimate   =    -198.68002302 Ry
     estimated scf accuracy    <       0.00056431 Ry

     iteration #  4     ecut=    35.00 Ry     beta= 0.70
     Davidson diagonalization with overlap
     ethr =  3.53E-06,  avg # of iterations =  2.7

     negative rho (up, down):  8.272E-02 0.000E+00

     total cpu time spent up to now is       21.6 secs

     total energy              =    -198.68009467 Ry
     Harris-Foulkes estimate   =    -198.68009382 Ry
     estimated scf accuracy    <       0.00000189 Ry

     iteration #  5     ecut=    35.00 Ry     beta= 0.70
     Davidson diagonalization with overlap
     ethr =  1.18E-08,  avg # of iterations =  1.8

     negative rho (up, down):  8.274E-02 0.000E+00

     total cpu time spent up to now is       25.3 secs

     End of self-consistent calculation

     Number of k-points >= 100: set verbosity='high' to print the bands.

     the Fermi energy is    13.1373 ev

!    total energy              =    -198.68009482 Ry
     Harris-Foulkes estimate   =    -198.68009478 Ry
     estimated scf accuracy    <       0.00000005 Ry

     The total energy is the sum of the following terms:

     one-electron contribution =     -63.25357665 Ry
     hartree contribution      =      42.51620281 Ry
     xc contribution           =     -31.22870922 Ry
     ewald contribution        =    -146.71558644 Ry
     smearing contrib. (-TS)   =       0.00157466 Ry

     convergence has been achieved in   5 iterations

     Writing output data file Pd-kp-conv.save/
 
     init_run     :      1.77s CPU      1.89s WALL (       1 calls)
     electrons    :     21.06s CPU     23.04s WALL (       1 calls)

     Called by init_run:
     wfcinit      :      1.41s CPU      1.51s WALL (       1 calls)
     potinit      :      0.01s CPU      0.02s WALL (       1 calls)
     hinit0       :      0.33s CPU      0.34s WALL (       1 calls)

     Called by electrons:
     c_bands      :     17.86s CPU     19.59s WALL (       5 calls)
     sum_band     :      3.14s CPU      3.32s WALL (       5 calls)
     v_of_rho     :      0.03s CPU      0.03s WALL (       6 calls)
     newd         :      0.04s CPU      0.05s WALL (       6 calls)
     mix_rho      :      0.00s CPU      0.00s WALL (       5 calls)

     Called by c_bands:
     init_us_2    :      0.46s CPU      0.50s WALL (    4543 calls)
     cegterg      :     16.57s CPU     17.61s WALL (    2065 calls)

     Called by sum_band:
     sum_band:bec :      0.02s CPU      0.02s WALL (    2065 calls)
     addusdens    :      0.04s CPU      0.04s WALL (       5 calls)

     Called by *egterg:
     h_psi        :     14.43s CPU     15.34s WALL (    7413 calls)
     s_psi        :      0.20s CPU      0.21s WALL (    7413 calls)
     g_psi        :      0.15s CPU      0.15s WALL (    4935 calls)
     cdiaghg      :      1.81s CPU      1.91s WALL (    7000 calls)

     Called by h_psi:
     h_psi:pot    :     14.36s CPU     15.27s WALL (    7413 calls)
     h_psi:calbec :      0.28s CPU      0.30s WALL (    7413 calls)
     vloc_psi     :     13.83s CPU     14.70s WALL (    7413 calls)
     add_vuspsi   :      0.21s CPU      0.22s WALL (    7413 calls)

     General routines
     calbec       :      0.32s CPU      0.35s WALL (    9478 calls)
     fft          :      0.01s CPU      0.01s WALL (      67 calls)
     ffts         :      0.00s CPU      0.00s WALL (       5 calls)
     fftw         :     14.16s CPU     15.01s WALL (  161528 calls)
 
     Parallel routines
     fft_scatt_xy :      2.57s CPU      2.74s WALL (  161600 calls)
     fft_scatt_yz :      3.10s CPU      3.33s WALL (  161600 calls)
 
     PWSCF        :    23.06s CPU        27.07s WALL

 
   This run was terminated on:  22:41: 5   2Dec2021            

=------------------------------------------------------------------------------=
   JOB DONE.
=------------------------------------------------------------------------------=
