
     Program PWSCF v.6.3 starts on  2Dec2021 at 21:37:42 

     This program is part of the open-source Quantum ESPRESSO suite
     for quantum simulation of materials; please cite
         "P. Giannozzi et al., J. Phys.:Condens. Matter 21 395502 (2009);
         "P. Giannozzi et al., J. Phys.:Condens. Matter 29 465901 (2017);
          URL http://www.quantum-espresso.org", 
     in publications or presentations arising from this work. More details at
     http://www.quantum-espresso.org/quote

     Parallel version (MPI & OpenMP), running on       2 processor cores
     Number of MPI processes:                 2
     Threads/MPI process:                     1

     MPI processes distributed on     1 nodes
     R & G space division:  proc/nbgrp/npool/nimage =       2
     Reading input from pw-input.in

     Current dimensions of program PWSCF are:
     Max number of different atomic species (ntypx) = 10
     Max number of k-points (npk) =  40000
     Max angular momentum in pseudopotentials (lmaxx) =  3

     Subspace diagonalization in iterative solution of the eigenvalue problem:
     a serial algorithm will be used

 
     Parallelization info
     --------------------
     sticks:   dense  smooth     PW     G-vecs:    dense   smooth      PW
     Min         141     141     45                 1559     1559     304
     Max         142     142     46                 1560     1560     305
     Sum         283     283     91                 3119     3119     609
 

     Title: 
     Pd-kp-conv                                                                 


     bravais-lattice index     =            2
     lattice parameter (alat)  =       7.6000  a.u.
     unit-cell volume          =     109.7440 (a.u.)^3
     number of atoms/cell      =            1
     number of atomic types    =            1
     number of electrons       =        16.00
     number of Kohn-Sham states=           12
     kinetic-energy cutoff     =      35.0000  Ry
     charge density cutoff     =     140.0000  Ry
     convergence threshold     =      1.0E-07
     mixing beta               =       0.7000
     number of iterations used =            8  plain     mixing
     Exchange-correlation      =  SLA  PW   PBX  PBC ( 1  4  3  4 0 0)

     celldm(1)=   7.600000  celldm(2)=   0.000000  celldm(3)=   0.000000
     celldm(4)=   0.000000  celldm(5)=   0.000000  celldm(6)=   0.000000

     crystal axes: (cart. coord. in units of alat)
               a(1) = (  -0.500000   0.000000   0.500000 )  
               a(2) = (   0.000000   0.500000   0.500000 )  
               a(3) = (  -0.500000   0.500000   0.000000 )  

     reciprocal axes: (cart. coord. in units 2 pi/alat)
               b(1) = ( -1.000000 -1.000000  1.000000 )  
               b(2) = (  1.000000  1.000000  1.000000 )  
               b(3) = ( -1.000000  1.000000 -1.000000 )  


     PseudoPot. # 1 for Pd read from file:
     ./pd_pbe_v1.4.uspp.F.UPF
     MD5 check sum: 2d733d2bc2cbfd217af676df1668a4bc
     Pseudo is Ultrasoft + core correction, Zval = 16.0
     Generated by new atomic code, or converted to UPF format
     Using radial grid of  887 points,  6 beta functions with: 
                l(1) =   0
                l(2) =   0
                l(3) =   1
                l(4) =   1
                l(5) =   2
                l(6) =   2
     Q(r) pseudized with  8 coefficients,  rinner =    1.130   1.130   1.130
                                                       1.130   1.130

     atomic species   valence    mass     pseudopotential
        Pd            16.00   106.40000     Pd( 1.00)

     48 Sym. Ops., with inversion, found



   Cartesian axes

     site n.     atom                  positions (alat units)
         1           Pd  tau(   1) = (   0.0000000   0.0000000   0.0000000  )

     number of k points=    16  Marzari-Vanderbilt smearing, width (Ry)=  0.0200
                       cart. coord. in units 2pi/alat
        k(    1) = (   0.0000000   0.0000000   0.0000000), wk =   0.0092593
        k(    2) = (  -0.1666667   0.1666667  -0.1666667), wk =   0.0740741
        k(    3) = (  -0.3333333   0.3333333  -0.3333333), wk =   0.0740741
        k(    4) = (   0.5000000  -0.5000000   0.5000000), wk =   0.0370370
        k(    5) = (   0.0000000   0.3333333   0.0000000), wk =   0.0555556
        k(    6) = (  -0.1666667   0.5000000  -0.1666667), wk =   0.2222222
        k(    7) = (   0.6666667  -0.3333333   0.6666667), wk =   0.2222222
        k(    8) = (   0.5000000  -0.1666667   0.5000000), wk =   0.2222222
        k(    9) = (   0.3333333   0.0000000   0.3333333), wk =   0.1111111
        k(   10) = (   0.0000000   0.6666667   0.0000000), wk =   0.0555556
        k(   11) = (   0.8333333  -0.1666667   0.8333333), wk =   0.2222222
        k(   12) = (   0.6666667  -0.0000000   0.6666667), wk =   0.1111111
        k(   13) = (   0.0000000  -1.0000000   0.0000000), wk =   0.0277778
        k(   14) = (   0.6666667  -0.3333333   1.0000000), wk =   0.2222222
        k(   15) = (   0.5000000  -0.1666667   0.8333333), wk =   0.2222222
        k(   16) = (  -0.3333333  -1.0000000   0.0000000), wk =   0.1111111

     Dense  grid:     3119 G-vectors     FFT dimensions: (  24,  24,  24)

     Estimated max dynamical RAM per process >       7.37 MB

     Estimated total dynamical RAM >      14.74 MB

     Initial potential from superposition of free atoms
     Check: negative starting charge=   -0.079189

     starting charge   15.49999, renormalised to   16.00000

     negative rho (up, down):  8.174E-02 0.000E+00
     Starting wfcs are   12 randomized atomic wfcs

     total cpu time spent up to now is        0.5 secs

     Self-consistent Calculation

     iteration #  1     ecut=    35.00 Ry     beta= 0.70
     Davidson diagonalization with overlap
     ethr =  1.00E-02,  avg # of iterations =  3.6

     negative rho (up, down):  8.050E-02 0.000E+00

     total cpu time spent up to now is        0.8 secs

     total energy              =    -198.13890576 Ry
     Harris-Foulkes estimate   =    -199.05385649 Ry
     estimated scf accuracy    <       1.25656249 Ry

     iteration #  2     ecut=    35.00 Ry     beta= 0.70
     Davidson diagonalization with overlap
     ethr =  7.85E-03,  avg # of iterations =  2.0

     negative rho (up, down):  8.184E-02 0.000E+00

     total cpu time spent up to now is        1.0 secs

     total energy              =    -198.43043634 Ry
     Harris-Foulkes estimate   =    -199.08618658 Ry
     estimated scf accuracy    <       1.33163814 Ry

     iteration #  3     ecut=    35.00 Ry     beta= 0.70
     Davidson diagonalization with overlap
     ethr =  7.85E-03,  avg # of iterations =  2.0

     negative rho (up, down):  8.209E-02 0.000E+00

     total cpu time spent up to now is        1.1 secs

     total energy              =    -198.69827262 Ry
     Harris-Foulkes estimate   =    -198.70035623 Ry
     estimated scf accuracy    <       0.00434655 Ry

     iteration #  4     ecut=    35.00 Ry     beta= 0.70
     Davidson diagonalization with overlap
     ethr =  2.72E-05,  avg # of iterations =  2.5

     negative rho (up, down):  8.223E-02 0.000E+00

     total cpu time spent up to now is        1.3 secs

     total energy              =    -198.69945674 Ry
     Harris-Foulkes estimate   =    -198.69950319 Ry
     estimated scf accuracy    <       0.00010722 Ry

     iteration #  5     ecut=    35.00 Ry     beta= 0.70
     Davidson diagonalization with overlap
     ethr =  6.70E-07,  avg # of iterations =  2.1

     negative rho (up, down):  8.230E-02 0.000E+00

     total cpu time spent up to now is        1.5 secs

     total energy              =    -198.69947730 Ry
     Harris-Foulkes estimate   =    -198.69947698 Ry
     estimated scf accuracy    <       0.00000023 Ry

     iteration #  6     ecut=    35.00 Ry     beta= 0.70
     Davidson diagonalization with overlap
     ethr =  1.47E-09,  avg # of iterations =  2.6

     negative rho (up, down):  8.230E-02 0.000E+00

     total cpu time spent up to now is        1.7 secs

     total energy              =    -198.69947737 Ry
     Harris-Foulkes estimate   =    -198.69947742 Ry
     estimated scf accuracy    <       0.00000013 Ry

     iteration #  7     ecut=    35.00 Ry     beta= 0.70
     Davidson diagonalization with overlap
     ethr =  8.38E-10,  avg # of iterations =  1.9

     negative rho (up, down):  8.230E-02 0.000E+00

     total cpu time spent up to now is        1.9 secs

     End of self-consistent calculation

          k = 0.0000 0.0000 0.0000 (   387 PWs)   bands (ev):

   -33.2014 -33.2014 -33.2014   9.9122  13.8553  13.8553  13.8553  15.2227
    15.2227  34.0305  38.2251  38.2251

          k =-0.1667 0.1667-0.1667 (   368 PWs)   bands (ev):

   -33.2731 -33.2116 -33.2116  10.7735  13.6679  14.0779  14.0779  15.1756
    15.1756  33.1142  35.0805  38.7775

          k =-0.3333 0.3333-0.3333 (   389 PWs)   bands (ev):

   -33.4151 -33.2328 -33.2328  11.7891  13.9954  13.9954  14.9097  15.7432
    15.7432  27.0280  34.0824  38.1789

          k = 0.5000-0.5000 0.5000 (   392 PWs)   bands (ev):

   -33.4853 -33.2432 -33.2432  11.7228  13.8229  13.8229  16.2412  16.2412
    17.5631  22.8961  33.2556  36.8921

          k = 0.0000 0.3333 0.0000 (   371 PWs)   bands (ev):

   -33.2708 -33.2281 -33.2281  11.0622  13.3121  14.3683  14.3683  14.7331
    15.4597  34.8453  35.6237  35.9959

          k =-0.1667 0.5000-0.1667 (   383 PWs)   bands (ev):

   -33.3750 -33.2529 -33.2521  12.1895  13.1876  14.0269  14.5829  15.9153
    15.9900  29.5518  34.2968  34.3572

          k = 0.6667-0.3333 0.6667 (   381 PWs)   bands (ev):

   -33.4569 -33.2846 -33.2594  12.2192  13.4714  14.3443  14.4975  16.2783
    19.2310  23.7657  32.3173  34.3887

          k = 0.5000-0.1667 0.5000 (   389 PWs)   bands (ev):

   -33.4344 -33.2938 -33.2432  12.3793  13.5972  14.3239  14.3406  15.6021
    18.3297  25.5936  31.3179  35.2664

          k = 0.3333 0.0000 0.3333 (   377 PWs)   bands (ev):

   -33.3415 -33.2586 -33.2192  11.9487  13.3217  14.1111  14.5240  14.7221
    16.1278  31.4356  32.1025  37.7521

          k = 0.0000 0.6667 0.0000 (   387 PWs)   bands (ev):

   -33.4053 -33.2820 -33.2820  12.0929  12.3542  15.6491  15.6491  15.9553
    16.1394  31.3576  31.3843  31.3843

          k = 0.8333-0.1667 0.8333 (   382 PWs)   bands (ev):

   -33.4415 -33.3255 -33.2922  12.0988  12.4217  15.0792  15.5622  16.3643
    19.9368  26.5705  28.2643  30.8114

          k = 0.6667-0.0000 0.6667 (   383 PWs)   bands (ev):

   -33.3946 -33.3934 -33.2729  12.5672  13.2123  14.0225  15.1207  15.8590
    21.9417  24.7032  26.5991  33.2009

          k = 0.0000-1.0000 0.0000 (   388 PWs)   bands (ev):

   -33.4705 -33.3089 -33.3089  11.6890  11.9257  16.2176  16.5052  16.5052
    19.7052  26.1245  29.1738  29.1738

          k = 0.6667-0.3333 1.0000 (   386 PWs)   bands (ev):

   -33.4136 -33.3193 -33.2675  12.8478  12.8653  13.7118  15.3880  15.6383
    18.6666  28.4450  28.6167  31.9458

          k = 0.5000-0.1667 0.8333 (   386 PWs)   bands (ev):

   -33.4234 -33.3535 -33.2842  12.9149  12.9621  13.7691  15.0059  16.1742
    22.4017  23.3785  29.1892  29.7830

          k =-0.3333-1.0000 0.0000 (   388 PWs)   bands (ev):

   -33.4302 -33.3496 -33.3103  12.3244  12.5912  14.5003  15.4963  16.5072
    22.6051  26.0259  26.7891  27.6009

     the Fermi energy is    16.2625 ev

!    total energy              =    -198.69947739 Ry
     Harris-Foulkes estimate   =    -198.69947739 Ry
     estimated scf accuracy    <          1.5E-09 Ry

     The total energy is the sum of the following terms:

     one-electron contribution =     -51.04343923 Ry
     hartree contribution      =      38.07023546 Ry
     xc contribution           =     -31.28881475 Ry
     ewald contribution        =    -154.43745938 Ry
     smearing contrib. (-TS)   =       0.00000051 Ry

     convergence has been achieved in   7 iterations

     Writing output data file Pd-kp-conv.save/
 
     init_run     :      0.40s CPU      0.43s WALL (       1 calls)
     electrons    :      1.21s CPU      1.64s WALL (       1 calls)

     Called by init_run:
     wfcinit      :      0.06s CPU      0.07s WALL (       1 calls)
     potinit      :      0.01s CPU      0.02s WALL (       1 calls)
     hinit0       :      0.32s CPU      0.32s WALL (       1 calls)

     Called by electrons:
     c_bands      :      0.93s CPU      1.02s WALL (       7 calls)
     sum_band     :      0.21s CPU      0.22s WALL (       7 calls)
     v_of_rho     :      0.03s CPU      0.04s WALL (       8 calls)
     newd         :      0.05s CPU      0.05s WALL (       8 calls)
     mix_rho      :      0.00s CPU      0.00s WALL (       7 calls)

     Called by c_bands:
     init_us_2    :      0.02s CPU      0.02s WALL (     240 calls)
     cegterg      :      0.87s CPU      0.92s WALL (     112 calls)

     Called by sum_band:
     sum_band:bec :      0.00s CPU      0.00s WALL (     112 calls)
     addusdens    :      0.05s CPU      0.05s WALL (       7 calls)

     Called by *egterg:
     h_psi        :      0.74s CPU      0.78s WALL (     395 calls)
     s_psi        :      0.01s CPU      0.01s WALL (     395 calls)
     g_psi        :      0.01s CPU      0.01s WALL (     267 calls)
     cdiaghg      :      0.11s CPU      0.11s WALL (     379 calls)

     Called by h_psi:
     h_psi:pot    :      0.74s CPU      0.78s WALL (     395 calls)
     h_psi:calbec :      0.02s CPU      0.02s WALL (     395 calls)
     vloc_psi     :      0.71s CPU      0.75s WALL (     395 calls)
     add_vuspsi   :      0.01s CPU      0.01s WALL (     395 calls)

     General routines
     calbec       :      0.02s CPU      0.02s WALL (     507 calls)
     fft          :      0.01s CPU      0.01s WALL (      89 calls)
     ffts         :      0.00s CPU      0.00s WALL (       7 calls)
     fftw         :      0.72s CPU      0.76s WALL (    8344 calls)
 
     Parallel routines
     fft_scatt_xy :      0.14s CPU      0.14s WALL (    8440 calls)
     fft_scatt_yz :      0.15s CPU      0.16s WALL (    8440 calls)
 
     PWSCF        :     1.70s CPU         2.29s WALL

 
   This run was terminated on:  21:37:45   2Dec2021            

=------------------------------------------------------------------------------=
   JOB DONE.
=------------------------------------------------------------------------------=
