
     Program PWSCF v.6.3 starts on  2Dec2021 at 21:48:51 

     This program is part of the open-source Quantum ESPRESSO suite
     for quantum simulation of materials; please cite
         "P. Giannozzi et al., J. Phys.:Condens. Matter 21 395502 (2009);
         "P. Giannozzi et al., J. Phys.:Condens. Matter 29 465901 (2017);
          URL http://www.quantum-espresso.org", 
     in publications or presentations arising from this work. More details at
     http://www.quantum-espresso.org/quote

     Parallel version (MPI & OpenMP), running on       2 processor cores
     Number of MPI processes:                 2
     Threads/MPI process:                     1

     MPI processes distributed on     1 nodes
     R & G space division:  proc/nbgrp/npool/nimage =       2
     Reading input from pw-input.in

     Current dimensions of program PWSCF are:
     Max number of different atomic species (ntypx) = 10
     Max number of k-points (npk) =  40000
     Max angular momentum in pseudopotentials (lmaxx) =  3

     Subspace diagonalization in iterative solution of the eigenvalue problem:
     a serial algorithm will be used

 
     Parallelization info
     --------------------
     sticks:   dense  smooth     PW     G-vecs:    dense   smooth      PW
     Min          99      99     36                  957      957     205
     Max         100     100     37                  960      960     206
     Sum         199     199     73                 1917     1917     411
 

     Title: 
     Pd-kp-conv                                                                 


     bravais-lattice index     =            2
     lattice parameter (alat)  =       6.5000  a.u.
     unit-cell volume          =      68.6562 (a.u.)^3
     number of atoms/cell      =            1
     number of atomic types    =            1
     number of electrons       =        16.00
     number of Kohn-Sham states=           12
     kinetic-energy cutoff     =      35.0000  Ry
     charge density cutoff     =     140.0000  Ry
     convergence threshold     =      1.0E-07
     mixing beta               =       0.7000
     number of iterations used =            8  plain     mixing
     Exchange-correlation      =  SLA  PW   PBX  PBC ( 1  4  3  4 0 0)

     celldm(1)=   6.500000  celldm(2)=   0.000000  celldm(3)=   0.000000
     celldm(4)=   0.000000  celldm(5)=   0.000000  celldm(6)=   0.000000

     crystal axes: (cart. coord. in units of alat)
               a(1) = (  -0.500000   0.000000   0.500000 )  
               a(2) = (   0.000000   0.500000   0.500000 )  
               a(3) = (  -0.500000   0.500000   0.000000 )  

     reciprocal axes: (cart. coord. in units 2 pi/alat)
               b(1) = ( -1.000000 -1.000000  1.000000 )  
               b(2) = (  1.000000  1.000000  1.000000 )  
               b(3) = ( -1.000000  1.000000 -1.000000 )  


     PseudoPot. # 1 for Pd read from file:
     ./pd_pbe_v1.4.uspp.F.UPF
     MD5 check sum: 2d733d2bc2cbfd217af676df1668a4bc
     Pseudo is Ultrasoft + core correction, Zval = 16.0
     Generated by new atomic code, or converted to UPF format
     Using radial grid of  887 points,  6 beta functions with: 
                l(1) =   0
                l(2) =   0
                l(3) =   1
                l(4) =   1
                l(5) =   2
                l(6) =   2
     Q(r) pseudized with  8 coefficients,  rinner =    1.130   1.130   1.130
                                                       1.130   1.130

     atomic species   valence    mass     pseudopotential
        Pd            16.00   106.40000     Pd( 1.00)

     48 Sym. Ops., with inversion, found



   Cartesian axes

     site n.     atom                  positions (alat units)
         1           Pd  tau(   1) = (   0.0000000   0.0000000   0.0000000  )

     number of k points=   413  Marzari-Vanderbilt smearing, width (Ry)=  0.0200

     Number of k-points >= 100: set verbosity='high' to print them.

     Dense  grid:     1917 G-vectors     FFT dimensions: (  18,  18,  18)

     Estimated max dynamical RAM per process >      13.44 MB

     Estimated total dynamical RAM >      26.88 MB

     Initial potential from superposition of free atoms
     Check: negative starting charge=   -0.084237

     starting charge   15.49999, renormalised to   16.00000

     negative rho (up, down):  8.695E-02 0.000E+00
     Starting wfcs are   12 randomized atomic wfcs

     total cpu time spent up to now is        1.2 secs

     Self-consistent Calculation

     iteration #  1     ecut=    35.00 Ry     beta= 0.70
     Davidson diagonalization with overlap
     ethr =  1.00E-02,  avg # of iterations =  3.5

     negative rho (up, down):  8.928E-02 0.000E+00

     total cpu time spent up to now is        4.7 secs

     total energy              =    -198.34438142 Ry
     Harris-Foulkes estimate   =    -198.71953075 Ry
     estimated scf accuracy    <       0.53762100 Ry

     iteration #  2     ecut=    35.00 Ry     beta= 0.70
     Davidson diagonalization with overlap
     ethr =  3.36E-03,  avg # of iterations =  2.0

     negative rho (up, down):  9.021E-02 0.000E+00

     total cpu time spent up to now is        7.2 secs

     total energy              =    -198.49670085 Ry
     Harris-Foulkes estimate   =    -198.60094214 Ry
     estimated scf accuracy    <       0.17603385 Ry

     iteration #  3     ecut=    35.00 Ry     beta= 0.70
     Davidson diagonalization with overlap
     ethr =  1.10E-03,  avg # of iterations =  2.0

     negative rho (up, down):  9.100E-02 0.000E+00

     total cpu time spent up to now is        9.8 secs

     total energy              =    -198.53631839 Ry
     Harris-Foulkes estimate   =    -198.53654298 Ry
     estimated scf accuracy    <       0.00062434 Ry

     iteration #  4     ecut=    35.00 Ry     beta= 0.70
     Davidson diagonalization with overlap
     ethr =  3.90E-06,  avg # of iterations =  2.2

     negative rho (up, down):  9.112E-02 0.000E+00

     total cpu time spent up to now is       12.5 secs

     total energy              =    -198.53643472 Ry
     Harris-Foulkes estimate   =    -198.53643906 Ry
     estimated scf accuracy    <       0.00000774 Ry

     iteration #  5     ecut=    35.00 Ry     beta= 0.70
     Davidson diagonalization with overlap
     ethr =  4.84E-08,  avg # of iterations =  2.0

     negative rho (up, down):  9.114E-02 0.000E+00

     total cpu time spent up to now is       14.9 secs

     total energy              =    -198.53643678 Ry
     Harris-Foulkes estimate   =    -198.53643683 Ry
     estimated scf accuracy    <       0.00000013 Ry

     iteration #  6     ecut=    35.00 Ry     beta= 0.70
     Davidson diagonalization with overlap
     ethr =  8.05E-10,  avg # of iterations =  2.0

     negative rho (up, down):  9.114E-02 0.000E+00

     total cpu time spent up to now is       17.3 secs

     End of self-consistent calculation

     Number of k-points >= 100: set verbosity='high' to print the bands.

     the Fermi energy is    30.4461 ev

!    total energy              =    -198.53643681 Ry
     Harris-Foulkes estimate   =    -198.53643681 Ry
     estimated scf accuracy    <          7.7E-10 Ry

     The total energy is the sum of the following terms:

     one-electron contribution =     -12.17972496 Ry
     hartree contribution      =      26.03522731 Ry
     xc contribution           =     -31.81890290 Ry
     ewald contribution        =    -180.57302943 Ry
     smearing contrib. (-TS)   =      -0.00000682 Ry

     convergence has been achieved in   6 iterations

     Writing output data file Pd-kp-conv.save/
 
     init_run     :      1.03s CPU      1.14s WALL (       1 calls)
     electrons    :     13.99s CPU     16.11s WALL (       1 calls)

     Called by init_run:
     wfcinit      :      0.72s CPU      0.81s WALL (       1 calls)
     potinit      :      0.00s CPU      0.02s WALL (       1 calls)
     hinit0       :      0.30s CPU      0.30s WALL (       1 calls)

     Called by electrons:
     c_bands      :     12.01s CPU     13.61s WALL (       6 calls)
     sum_band     :      1.95s CPU      2.12s WALL (       6 calls)
     v_of_rho     :      0.01s CPU      0.02s WALL (       7 calls)
     newd         :      0.03s CPU      0.03s WALL (       7 calls)
     mix_rho      :      0.00s CPU      0.00s WALL (       6 calls)

     Called by c_bands:
     init_us_2    :      0.30s CPU      0.33s WALL (    5369 calls)
     cegterg      :     11.12s CPU     12.10s WALL (    2478 calls)

     Called by sum_band:
     sum_band:bec :      0.02s CPU      0.02s WALL (    2478 calls)
     addusdens    :      0.03s CPU      0.03s WALL (       6 calls)

     Called by *egterg:
     h_psi        :      8.57s CPU      9.39s WALL (    8531 calls)
     s_psi        :      0.15s CPU      0.16s WALL (    8531 calls)
     g_psi        :      0.09s CPU      0.10s WALL (    5640 calls)
     cdiaghg      :      1.97s CPU      2.11s WALL (    8118 calls)

     Called by h_psi:
     h_psi:pot    :      8.52s CPU      9.33s WALL (    8531 calls)
     h_psi:calbec :      0.22s CPU      0.24s WALL (    8531 calls)
     vloc_psi     :      8.09s CPU      8.85s WALL (    8531 calls)
     add_vuspsi   :      0.16s CPU      0.17s WALL (    8531 calls)

     General routines
     calbec       :      0.25s CPU      0.28s WALL (   11009 calls)
     fft          :      0.01s CPU      0.01s WALL (      78 calls)
     ffts         :      0.00s CPU      0.00s WALL (       6 calls)
     fftw         :      8.43s CPU      9.23s WALL (  186602 calls)
 
     Parallel routines
     fft_scatt_xy :      1.52s CPU      1.66s WALL (  186686 calls)
     fft_scatt_yz :      2.21s CPU      2.45s WALL (  186686 calls)
 
     PWSCF        :    15.28s CPU        19.40s WALL

 
   This run was terminated on:  21:49:10   2Dec2021            

=------------------------------------------------------------------------------=
   JOB DONE.
=------------------------------------------------------------------------------=
