
     Program PWSCF v.6.3 starts on  2Dec2021 at 21:57: 2 

     This program is part of the open-source Quantum ESPRESSO suite
     for quantum simulation of materials; please cite
         "P. Giannozzi et al., J. Phys.:Condens. Matter 21 395502 (2009);
         "P. Giannozzi et al., J. Phys.:Condens. Matter 29 465901 (2017);
          URL http://www.quantum-espresso.org", 
     in publications or presentations arising from this work. More details at
     http://www.quantum-espresso.org/quote

     Parallel version (MPI & OpenMP), running on       2 processor cores
     Number of MPI processes:                 2
     Threads/MPI process:                     1

     MPI processes distributed on     1 nodes
     R & G space division:  proc/nbgrp/npool/nimage =       2
     Reading input from pw-input.in

     Current dimensions of program PWSCF are:
     Max number of different atomic species (ntypx) = 10
     Max number of k-points (npk) =  40000
     Max angular momentum in pseudopotentials (lmaxx) =  3

     Subspace diagonalization in iterative solution of the eigenvalue problem:
     a serial algorithm will be used

 
     Parallelization info
     --------------------
     sticks:   dense  smooth     PW     G-vecs:    dense   smooth      PW
     Min         174     174     60                 2142     2142     434
     Max         175     175     61                 2143     2143     435
     Sum         349     349    121                 4285     4285     869
 

     Title: 
     Pd-kp-conv                                                                 


     bravais-lattice index     =            2
     lattice parameter (alat)  =       8.5000  a.u.
     unit-cell volume          =     153.5312 (a.u.)^3
     number of atoms/cell      =            1
     number of atomic types    =            1
     number of electrons       =        16.00
     number of Kohn-Sham states=           12
     kinetic-energy cutoff     =      35.0000  Ry
     charge density cutoff     =     140.0000  Ry
     convergence threshold     =      1.0E-07
     mixing beta               =       0.7000
     number of iterations used =            8  plain     mixing
     Exchange-correlation      =  SLA  PW   PBX  PBC ( 1  4  3  4 0 0)

     celldm(1)=   8.500000  celldm(2)=   0.000000  celldm(3)=   0.000000
     celldm(4)=   0.000000  celldm(5)=   0.000000  celldm(6)=   0.000000

     crystal axes: (cart. coord. in units of alat)
               a(1) = (  -0.500000   0.000000   0.500000 )  
               a(2) = (   0.000000   0.500000   0.500000 )  
               a(3) = (  -0.500000   0.500000   0.000000 )  

     reciprocal axes: (cart. coord. in units 2 pi/alat)
               b(1) = ( -1.000000 -1.000000  1.000000 )  
               b(2) = (  1.000000  1.000000  1.000000 )  
               b(3) = ( -1.000000  1.000000 -1.000000 )  


     PseudoPot. # 1 for Pd read from file:
     ./pd_pbe_v1.4.uspp.F.UPF
     MD5 check sum: 2d733d2bc2cbfd217af676df1668a4bc
     Pseudo is Ultrasoft + core correction, Zval = 16.0
     Generated by new atomic code, or converted to UPF format
     Using radial grid of  887 points,  6 beta functions with: 
                l(1) =   0
                l(2) =   0
                l(3) =   1
                l(4) =   1
                l(5) =   2
                l(6) =   2
     Q(r) pseudized with  8 coefficients,  rinner =    1.130   1.130   1.130
                                                       1.130   1.130

     atomic species   valence    mass     pseudopotential
        Pd            16.00   106.40000     Pd( 1.00)

     48 Sym. Ops., with inversion, found



   Cartesian axes

     site n.     atom                  positions (alat units)
         1           Pd  tau(   1) = (   0.0000000   0.0000000   0.0000000  )

     number of k points=   413  Marzari-Vanderbilt smearing, width (Ry)=  0.0200

     Number of k-points >= 100: set verbosity='high' to print them.

     Dense  grid:     4285 G-vectors     FFT dimensions: (  24,  24,  24)

     Estimated max dynamical RAM per process >      29.15 MB

     Estimated total dynamical RAM >      58.30 MB

     Check: negative/imaginary core charge=   -0.000001    0.000000

     Initial potential from superposition of free atoms
     Check: negative starting charge=   -0.084050

     starting charge   15.49999, renormalised to   16.00000

     negative rho (up, down):  8.676E-02 0.000E+00
     Starting wfcs are   12 randomized atomic wfcs

     total cpu time spent up to now is        2.0 secs

     Self-consistent Calculation

     iteration #  1     ecut=    35.00 Ry     beta= 0.70
     Davidson diagonalization with overlap
     ethr =  1.00E-02,  avg # of iterations =  3.3

     negative rho (up, down):  8.375E-02 0.000E+00

     total cpu time spent up to now is        7.8 secs

     total energy              =    -197.73177744 Ry
     Harris-Foulkes estimate   =    -199.06396803 Ry
     estimated scf accuracy    <       1.79386517 Ry

     iteration #  2     ecut=    35.00 Ry     beta= 0.70
     Davidson diagonalization with overlap
     ethr =  1.00E-02,  avg # of iterations =  2.0

     negative rho (up, down):  8.603E-02 0.000E+00

     total cpu time spent up to now is       12.7 secs

     total energy              =    -198.20211412 Ry
     Harris-Foulkes estimate   =    -199.48876411 Ry
     estimated scf accuracy    <       2.79924080 Ry

     iteration #  3     ecut=    35.00 Ry     beta= 0.70
     Davidson diagonalization with overlap
     ethr =  1.00E-02,  avg # of iterations =  2.0

     negative rho (up, down):  8.609E-02 0.000E+00

     total cpu time spent up to now is       17.1 secs

     total energy              =    -198.64249040 Ry
     Harris-Foulkes estimate   =    -198.64377089 Ry
     estimated scf accuracy    <       0.00395683 Ry

     iteration #  4     ecut=    35.00 Ry     beta= 0.70
     Davidson diagonalization with overlap
     ethr =  2.47E-05,  avg # of iterations =  2.1

     negative rho (up, down):  8.613E-02 0.000E+00

     total cpu time spent up to now is       21.1 secs

     total energy              =    -198.64305541 Ry
     Harris-Foulkes estimate   =    -198.64308409 Ry
     estimated scf accuracy    <       0.00010698 Ry

     iteration #  5     ecut=    35.00 Ry     beta= 0.70
     Davidson diagonalization with overlap
     ethr =  6.69E-07,  avg # of iterations =  2.1

     negative rho (up, down):  8.612E-02 0.000E+00

     total cpu time spent up to now is       25.2 secs

     total energy              =    -198.64306790 Ry
     Harris-Foulkes estimate   =    -198.64306809 Ry
     estimated scf accuracy    <       0.00000036 Ry

     iteration #  6     ecut=    35.00 Ry     beta= 0.70
     Davidson diagonalization with overlap
     ethr =  2.25E-09,  avg # of iterations =  2.2

     negative rho (up, down):  8.612E-02 0.000E+00

     total cpu time spent up to now is       29.6 secs

     total energy              =    -198.64306807 Ry
     Harris-Foulkes estimate   =    -198.64306816 Ry
     estimated scf accuracy    <       0.00000024 Ry

     iteration #  7     ecut=    35.00 Ry     beta= 0.70
     Davidson diagonalization with overlap
     ethr =  1.49E-09,  avg # of iterations =  1.8

     negative rho (up, down):  8.612E-02 0.000E+00

     total cpu time spent up to now is       33.6 secs

     End of self-consistent calculation

     Number of k-points >= 100: set verbosity='high' to print the bands.

     the Fermi energy is     9.9133 ev

!    total energy              =    -198.64306811 Ry
     Harris-Foulkes estimate   =    -198.64306811 Ry
     estimated scf accuracy    <          1.8E-09 Ry

     The total energy is the sum of the following terms:

     one-electron contribution =     -77.20098562 Ry
     hartree contribution      =      47.82297068 Ry
     xc contribution           =     -31.18079669 Ry
     ewald contribution        =    -138.08525782 Ry
     smearing contrib. (-TS)   =       0.00100133 Ry

     convergence has been achieved in   7 iterations

     Writing output data file Pd-kp-conv.save/
 
     init_run     :      1.75s CPU      1.89s WALL (       1 calls)
     electrons    :     29.05s CPU     31.58s WALL (       1 calls)

     Called by init_run:
     wfcinit      :      1.37s CPU      1.49s WALL (       1 calls)
     potinit      :      0.01s CPU      0.02s WALL (       1 calls)
     hinit0       :      0.35s CPU      0.35s WALL (       1 calls)

     Called by electrons:
     c_bands      :     24.43s CPU     26.33s WALL (       7 calls)
     sum_band     :      4.52s CPU      4.78s WALL (       7 calls)
     v_of_rho     :      0.03s CPU      0.04s WALL (       8 calls)
     newd         :      0.06s CPU      0.07s WALL (       8 calls)
     mix_rho      :      0.00s CPU      0.00s WALL (       7 calls)

     Called by c_bands:
     init_us_2    :      0.74s CPU      0.79s WALL (    6195 calls)
     cegterg      :     22.34s CPU     23.60s WALL (    2891 calls)

     Called by sum_band:
     sum_band:bec :      0.03s CPU      0.03s WALL (    2891 calls)
     addusdens    :      0.07s CPU      0.07s WALL (       7 calls)

     Called by *egterg:
     h_psi        :     19.05s CPU     20.16s WALL (    9701 calls)
     s_psi        :      0.29s CPU      0.31s WALL (    9701 calls)
     g_psi        :      0.22s CPU      0.23s WALL (    6397 calls)
     cdiaghg      :      2.22s CPU      2.34s WALL (    9288 calls)

     Called by h_psi:
     h_psi:pot    :     18.96s CPU     20.06s WALL (    9701 calls)
     h_psi:calbec :      0.39s CPU      0.42s WALL (    9701 calls)
     vloc_psi     :     18.20s CPU     19.24s WALL (    9701 calls)
     add_vuspsi   :      0.30s CPU      0.32s WALL (    9701 calls)

     General routines
     calbec       :      0.48s CPU      0.51s WALL (   12592 calls)
     fft          :      0.02s CPU      0.02s WALL (      89 calls)
     ffts         :      0.00s CPU      0.00s WALL (       7 calls)
     fftw         :     18.88s CPU     19.94s WALL (  211282 calls)
 
     Parallel routines
     fft_scatt_xy :      3.38s CPU      3.59s WALL (  211378 calls)
     fft_scatt_yz :      4.29s CPU      4.57s WALL (  211378 calls)
 
     PWSCF        :    31.04s CPU        35.05s WALL

 
   This run was terminated on:  21:57:38   2Dec2021            

=------------------------------------------------------------------------------=
   JOB DONE.
=------------------------------------------------------------------------------=
