
     Program PWSCF v.6.3 starts on  2Dec2021 at 21:37: 0 

     This program is part of the open-source Quantum ESPRESSO suite
     for quantum simulation of materials; please cite
         "P. Giannozzi et al., J. Phys.:Condens. Matter 21 395502 (2009);
         "P. Giannozzi et al., J. Phys.:Condens. Matter 29 465901 (2017);
          URL http://www.quantum-espresso.org", 
     in publications or presentations arising from this work. More details at
     http://www.quantum-espresso.org/quote

     Parallel version (MPI & OpenMP), running on       2 processor cores
     Number of MPI processes:                 2
     Threads/MPI process:                     1

     MPI processes distributed on     1 nodes
     R & G space division:  proc/nbgrp/npool/nimage =       2
     Reading input from pw-input.in

     Current dimensions of program PWSCF are:
     Max number of different atomic species (ntypx) = 10
     Max number of k-points (npk) =  40000
     Max angular momentum in pseudopotentials (lmaxx) =  3

     Subspace diagonalization in iterative solution of the eigenvalue problem:
     a serial algorithm will be used

 
     Parallelization info
     --------------------
     sticks:   dense  smooth     PW     G-vecs:    dense   smooth      PW
     Min         150     150     48                 1738     1738     322
     Max         151     151     49                 1741     1741     323
     Sum         301     301     97                 3479     3479     645
 

     Title: 
     Pd-kp-conv                                                                 


     bravais-lattice index     =            2
     lattice parameter (alat)  =       7.9000  a.u.
     unit-cell volume          =     123.2598 (a.u.)^3
     number of atoms/cell      =            1
     number of atomic types    =            1
     number of electrons       =        16.00
     number of Kohn-Sham states=           12
     kinetic-energy cutoff     =      35.0000  Ry
     charge density cutoff     =     140.0000  Ry
     convergence threshold     =      1.0E-07
     mixing beta               =       0.7000
     number of iterations used =            8  plain     mixing
     Exchange-correlation      =  SLA  PW   PBX  PBC ( 1  4  3  4 0 0)

     celldm(1)=   7.900000  celldm(2)=   0.000000  celldm(3)=   0.000000
     celldm(4)=   0.000000  celldm(5)=   0.000000  celldm(6)=   0.000000

     crystal axes: (cart. coord. in units of alat)
               a(1) = (  -0.500000   0.000000   0.500000 )  
               a(2) = (   0.000000   0.500000   0.500000 )  
               a(3) = (  -0.500000   0.500000   0.000000 )  

     reciprocal axes: (cart. coord. in units 2 pi/alat)
               b(1) = ( -1.000000 -1.000000  1.000000 )  
               b(2) = (  1.000000  1.000000  1.000000 )  
               b(3) = ( -1.000000  1.000000 -1.000000 )  


     PseudoPot. # 1 for Pd read from file:
     ./pd_pbe_v1.4.uspp.F.UPF
     MD5 check sum: 2d733d2bc2cbfd217af676df1668a4bc
     Pseudo is Ultrasoft + core correction, Zval = 16.0
     Generated by new atomic code, or converted to UPF format
     Using radial grid of  887 points,  6 beta functions with: 
                l(1) =   0
                l(2) =   0
                l(3) =   1
                l(4) =   1
                l(5) =   2
                l(6) =   2
     Q(r) pseudized with  8 coefficients,  rinner =    1.130   1.130   1.130
                                                       1.130   1.130

     atomic species   valence    mass     pseudopotential
        Pd            16.00   106.40000     Pd( 1.00)

     48 Sym. Ops., with inversion, found



   Cartesian axes

     site n.     atom                  positions (alat units)
         1           Pd  tau(   1) = (   0.0000000   0.0000000   0.0000000  )

     number of k points=     8  Marzari-Vanderbilt smearing, width (Ry)=  0.0200
                       cart. coord. in units 2pi/alat
        k(    1) = (   0.0000000   0.0000000   0.0000000), wk =   0.0312500
        k(    2) = (  -0.2500000   0.2500000  -0.2500000), wk =   0.2500000
        k(    3) = (   0.5000000  -0.5000000   0.5000000), wk =   0.1250000
        k(    4) = (   0.0000000   0.5000000   0.0000000), wk =   0.1875000
        k(    5) = (   0.7500000  -0.2500000   0.7500000), wk =   0.7500000
        k(    6) = (   0.5000000   0.0000000   0.5000000), wk =   0.3750000
        k(    7) = (   0.0000000  -1.0000000   0.0000000), wk =   0.0937500
        k(    8) = (  -0.5000000  -1.0000000   0.0000000), wk =   0.1875000

     Dense  grid:     3479 G-vectors     FFT dimensions: (  24,  24,  24)

     Estimated max dynamical RAM per process >       7.77 MB

     Estimated total dynamical RAM >      15.55 MB

     Initial potential from superposition of free atoms
     Check: negative starting charge=   -0.079301

     starting charge   15.49999, renormalised to   16.00000

     negative rho (up, down):  8.186E-02 0.000E+00
     Starting wfcs are   12 randomized atomic wfcs

     total cpu time spent up to now is        0.5 secs

     Self-consistent Calculation

     iteration #  1     ecut=    35.00 Ry     beta= 0.70
     Davidson diagonalization with overlap
     ethr =  1.00E-02,  avg # of iterations =  3.4

     negative rho (up, down):  7.990E-02 0.000E+00

     total cpu time spent up to now is        0.7 secs

     total energy              =    -197.99057524 Ry
     Harris-Foulkes estimate   =    -199.06896889 Ry
     estimated scf accuracy    <       1.47138955 Ry

     iteration #  2     ecut=    35.00 Ry     beta= 0.70
     Davidson diagonalization with overlap
     ethr =  9.20E-03,  avg # of iterations =  2.0

     negative rho (up, down):  8.155E-02 0.000E+00

     total cpu time spent up to now is        0.8 secs

     total energy              =    -198.30068043 Ry
     Harris-Foulkes estimate   =    -199.22981682 Ry
     estimated scf accuracy    <       1.97573886 Ry

     iteration #  3     ecut=    35.00 Ry     beta= 0.70
     Davidson diagonalization with overlap
     ethr =  9.20E-03,  avg # of iterations =  2.0

     negative rho (up, down):  8.161E-02 0.000E+00

     total cpu time spent up to now is        0.9 secs

     total energy              =    -198.69701930 Ry
     Harris-Foulkes estimate   =    -198.69720844 Ry
     estimated scf accuracy    <       0.00047199 Ry

     iteration #  4     ecut=    35.00 Ry     beta= 0.70
     Davidson diagonalization with overlap
     ethr =  2.95E-06,  avg # of iterations =  2.9

     negative rho (up, down):  8.170E-02 0.000E+00

     total cpu time spent up to now is        1.0 secs

     total energy              =    -198.69738931 Ry
     Harris-Foulkes estimate   =    -198.69739130 Ry
     estimated scf accuracy    <       0.00000857 Ry

     iteration #  5     ecut=    35.00 Ry     beta= 0.70
     Davidson diagonalization with overlap
     ethr =  5.35E-08,  avg # of iterations =  2.0

     negative rho (up, down):  8.171E-02 0.000E+00

     total cpu time spent up to now is        1.1 secs

     total energy              =    -198.69739087 Ry
     Harris-Foulkes estimate   =    -198.69739091 Ry
     estimated scf accuracy    <       0.00000020 Ry

     iteration #  6     ecut=    35.00 Ry     beta= 0.70
     Davidson diagonalization with overlap
     ethr =  1.27E-09,  avg # of iterations =  2.4

     negative rho (up, down):  8.171E-02 0.000E+00

     total cpu time spent up to now is        1.2 secs

     End of self-consistent calculation

          k = 0.0000 0.0000 0.0000 (   411 PWs)   bands (ev):

   -35.3153 -35.3153 -35.3153   8.2038  11.8597  11.8597  11.8597  12.9985
    12.9985  31.1718  34.7035  34.7035

          k =-0.2500 0.2500-0.2500 (   429 PWs)   bands (ev):

   -35.4081 -35.3293 -35.3293   9.6977  11.8563  12.0748  12.0748  13.1167
    13.1167  26.6700  31.7472  34.8156

          k = 0.5000-0.5000 0.5000 (   434 PWs)   bands (ev):

   -35.4996 -35.3433 -35.3433  10.0147  11.8375  11.8375  13.8394  13.8394
    15.2969  19.6723  30.3949  33.0792

          k = 0.0000 0.5000 0.0000 (   431 PWs)   bands (ev):

   -35.4045 -35.3510 -35.3510  10.1486  10.9909  12.6242  12.7792  12.7792
    13.3970  29.9716  29.9716  30.8763

          k = 0.7500-0.2500 0.7500 (   431 PWs)   bands (ev):

   -35.4690 -35.3909 -35.3649  10.5747  11.1787  12.2280  12.7531  13.9010
    17.0648  21.8282  26.7496  28.9514

          k = 0.5000 0.0000 0.5000 (   423 PWs)   bands (ev):

   -35.4478 -35.3945 -35.3433  11.0645  11.4350  11.7495  12.5643  12.9783
    15.7651  24.8875  24.9771  32.3138

          k = 0.0000-1.0000 0.0000 (   444 PWs)   bands (ev):

   -35.4905 -35.3864 -35.3864  10.0351  10.2378  13.8201  14.0551  14.0551
    17.2261  22.6250  25.9945  25.9945

          k =-0.5000-1.0000 0.0000 (   444 PWs)   bands (ev):

   -35.4386 -35.4386 -35.3873  10.8364  11.4848  11.4848  12.9637  14.0561
    21.6771  21.6771  22.5922  23.9936

     the Fermi energy is    14.0291 ev

!    total energy              =    -198.69739089 Ry
     Harris-Foulkes estimate   =    -198.69739090 Ry
     estimated scf accuracy    <          3.8E-09 Ry

     The total energy is the sum of the following terms:

     one-electron contribution =     -60.36102607 Ry
     hartree contribution      =      41.49147634 Ry
     xc contribution           =     -31.25271003 Ry
     ewald contribution        =    -148.57274574 Ry
     smearing contrib. (-TS)   =      -0.00238540 Ry

     convergence has been achieved in   6 iterations

     Writing output data file Pd-kp-conv.save/
 
     init_run     :      0.37s CPU      0.42s WALL (       1 calls)
     electrons    :      0.63s CPU      0.72s WALL (       1 calls)

     Called by init_run:
     wfcinit      :      0.03s CPU      0.05s WALL (       1 calls)
     potinit      :      0.01s CPU      0.02s WALL (       1 calls)
     hinit0       :      0.33s CPU      0.33s WALL (       1 calls)

     Called by electrons:
     c_bands      :      0.44s CPU      0.47s WALL (       6 calls)
     sum_band     :      0.13s CPU      0.13s WALL (       6 calls)
     v_of_rho     :      0.03s CPU      0.07s WALL (       7 calls)
     newd         :      0.05s CPU      0.05s WALL (       7 calls)
     mix_rho      :      0.00s CPU      0.00s WALL (       6 calls)

     Called by c_bands:
     init_us_2    :      0.01s CPU      0.01s WALL (     104 calls)
     cegterg      :      0.41s CPU      0.44s WALL (      48 calls)

     Called by sum_band:
     sum_band:bec :      0.00s CPU      0.00s WALL (      48 calls)
     addusdens    :      0.05s CPU      0.05s WALL (       6 calls)

     Called by *egterg:
     h_psi        :      0.35s CPU      0.38s WALL (     173 calls)
     s_psi        :      0.00s CPU      0.01s WALL (     173 calls)
     g_psi        :      0.00s CPU      0.00s WALL (     117 calls)
     cdiaghg      :      0.05s CPU      0.05s WALL (     165 calls)

     Called by h_psi:
     h_psi:pot    :      0.34s CPU      0.37s WALL (     173 calls)
     h_psi:calbec :      0.01s CPU      0.01s WALL (     173 calls)
     vloc_psi     :      0.33s CPU      0.36s WALL (     173 calls)
     add_vuspsi   :      0.00s CPU      0.01s WALL (     173 calls)

     General routines
     calbec       :      0.01s CPU      0.01s WALL (     221 calls)
     fft          :      0.01s CPU      0.02s WALL (      78 calls)
     ffts         :      0.00s CPU      0.00s WALL (       6 calls)
     fftw         :      0.34s CPU      0.37s WALL (    3666 calls)
 
     Parallel routines
     fft_scatt_xy :      0.07s CPU      0.07s WALL (    3750 calls)
     fft_scatt_yz :      0.07s CPU      0.08s WALL (    3750 calls)
 
     PWSCF        :     1.09s CPU         1.62s WALL

 
   This run was terminated on:  21:37: 2   2Dec2021            

=------------------------------------------------------------------------------=
   JOB DONE.
=------------------------------------------------------------------------------=
