
     Program PWSCF v.6.3 starts on  2Dec2021 at 21:36:48 

     This program is part of the open-source Quantum ESPRESSO suite
     for quantum simulation of materials; please cite
         "P. Giannozzi et al., J. Phys.:Condens. Matter 21 395502 (2009);
         "P. Giannozzi et al., J. Phys.:Condens. Matter 29 465901 (2017);
          URL http://www.quantum-espresso.org", 
     in publications or presentations arising from this work. More details at
     http://www.quantum-espresso.org/quote

     Parallel version (MPI & OpenMP), running on       2 processor cores
     Number of MPI processes:                 2
     Threads/MPI process:                     1

     MPI processes distributed on     1 nodes
     R & G space division:  proc/nbgrp/npool/nimage =       2
     Reading input from pw-input.in

     Current dimensions of program PWSCF are:
     Max number of different atomic species (ntypx) = 10
     Max number of k-points (npk) =  40000
     Max angular momentum in pseudopotentials (lmaxx) =  3

     Subspace diagonalization in iterative solution of the eigenvalue problem:
     a serial algorithm will be used

 
     Parallelization info
     --------------------
     sticks:   dense  smooth     PW     G-vecs:    dense   smooth      PW
     Min         126     126     42                 1369     1369     267
     Max         127     127     43                 1372     1372     270
     Sum         253     253     85                 2741     2741     537
 

     Title: 
     Pd-kp-conv                                                                 


     bravais-lattice index     =            2
     lattice parameter (alat)  =       7.4000  a.u.
     unit-cell volume          =     101.3060 (a.u.)^3
     number of atoms/cell      =            1
     number of atomic types    =            1
     number of electrons       =        16.00
     number of Kohn-Sham states=           12
     kinetic-energy cutoff     =      35.0000  Ry
     charge density cutoff     =     140.0000  Ry
     convergence threshold     =      1.0E-07
     mixing beta               =       0.7000
     number of iterations used =            8  plain     mixing
     Exchange-correlation      =  SLA  PW   PBX  PBC ( 1  4  3  4 0 0)

     celldm(1)=   7.400000  celldm(2)=   0.000000  celldm(3)=   0.000000
     celldm(4)=   0.000000  celldm(5)=   0.000000  celldm(6)=   0.000000

     crystal axes: (cart. coord. in units of alat)
               a(1) = (  -0.500000   0.000000   0.500000 )  
               a(2) = (   0.000000   0.500000   0.500000 )  
               a(3) = (  -0.500000   0.500000   0.000000 )  

     reciprocal axes: (cart. coord. in units 2 pi/alat)
               b(1) = ( -1.000000 -1.000000  1.000000 )  
               b(2) = (  1.000000  1.000000  1.000000 )  
               b(3) = ( -1.000000  1.000000 -1.000000 )  


     PseudoPot. # 1 for Pd read from file:
     ./pd_pbe_v1.4.uspp.F.UPF
     MD5 check sum: 2d733d2bc2cbfd217af676df1668a4bc
     Pseudo is Ultrasoft + core correction, Zval = 16.0
     Generated by new atomic code, or converted to UPF format
     Using radial grid of  887 points,  6 beta functions with: 
                l(1) =   0
                l(2) =   0
                l(3) =   1
                l(4) =   1
                l(5) =   2
                l(6) =   2
     Q(r) pseudized with  8 coefficients,  rinner =    1.130   1.130   1.130
                                                       1.130   1.130

     atomic species   valence    mass     pseudopotential
        Pd            16.00   106.40000     Pd( 1.00)

     48 Sym. Ops., with inversion, found



   Cartesian axes

     site n.     atom                  positions (alat units)
         1           Pd  tau(   1) = (   0.0000000   0.0000000   0.0000000  )

     number of k points=     8  Marzari-Vanderbilt smearing, width (Ry)=  0.0200
                       cart. coord. in units 2pi/alat
        k(    1) = (   0.0000000   0.0000000   0.0000000), wk =   0.0312500
        k(    2) = (  -0.2500000   0.2500000  -0.2500000), wk =   0.2500000
        k(    3) = (   0.5000000  -0.5000000   0.5000000), wk =   0.1250000
        k(    4) = (   0.0000000   0.5000000   0.0000000), wk =   0.1875000
        k(    5) = (   0.7500000  -0.2500000   0.7500000), wk =   0.7500000
        k(    6) = (   0.5000000   0.0000000   0.5000000), wk =   0.3750000
        k(    7) = (   0.0000000  -1.0000000   0.0000000), wk =   0.0937500
        k(    8) = (  -0.5000000  -1.0000000   0.0000000), wk =   0.1875000

     Dense  grid:     2741 G-vectors     FFT dimensions: (  20,  20,  20)

     Estimated max dynamical RAM per process >       6.21 MB

     Estimated total dynamical RAM >      12.42 MB

     Initial potential from superposition of free atoms
     Check: negative starting charge=   -0.084791

     starting charge   15.49999, renormalised to   16.00000

     negative rho (up, down):  8.753E-02 0.000E+00
     Starting wfcs are   12 randomized atomic wfcs

     total cpu time spent up to now is        0.5 secs

     Self-consistent Calculation

     iteration #  1     ecut=    35.00 Ry     beta= 0.70
     Davidson diagonalization with overlap
     ethr =  1.00E-02,  avg # of iterations =  3.5

     negative rho (up, down):  8.695E-02 0.000E+00

     total cpu time spent up to now is        0.6 secs

     total energy              =    -198.21375515 Ry
     Harris-Foulkes estimate   =    -199.03036954 Ry
     estimated scf accuracy    <       1.12853945 Ry

     iteration #  2     ecut=    35.00 Ry     beta= 0.70
     Davidson diagonalization with overlap
     ethr =  7.05E-03,  avg # of iterations =  2.0

     negative rho (up, down):  8.823E-02 0.000E+00

     total cpu time spent up to now is        0.7 secs

     total energy              =    -198.52137882 Ry
     Harris-Foulkes estimate   =    -199.00081061 Ry
     estimated scf accuracy    <       0.92693893 Ry

     iteration #  3     ecut=    35.00 Ry     beta= 0.70
     Davidson diagonalization with overlap
     ethr =  5.79E-03,  avg # of iterations =  2.0

     negative rho (up, down):  8.835E-02 0.000E+00

     total cpu time spent up to now is        0.8 secs

     total energy              =    -198.71182131 Ry
     Harris-Foulkes estimate   =    -198.71182949 Ry
     estimated scf accuracy    <       0.00006680 Ry

     iteration #  4     ecut=    35.00 Ry     beta= 0.70
     Davidson diagonalization with overlap
     ethr =  4.18E-07,  avg # of iterations =  3.2

     negative rho (up, down):  8.848E-02 0.000E+00

     total cpu time spent up to now is        0.9 secs

     total energy              =    -198.71202957 Ry
     Harris-Foulkes estimate   =    -198.71202850 Ry
     estimated scf accuracy    <       0.00000474 Ry

     iteration #  5     ecut=    35.00 Ry     beta= 0.70
     Davidson diagonalization with overlap
     ethr =  2.96E-08,  avg # of iterations =  2.0

     negative rho (up, down):  8.850E-02 0.000E+00

     total cpu time spent up to now is        0.9 secs

     End of self-consistent calculation

          k = 0.0000 0.0000 0.0000 (   339 PWs)   bands (ev):

   -31.2449 -31.2449 -31.2449  11.2677  15.5886  15.5886  15.5886  17.1701
    17.1701  36.1541  40.8240  40.8240

          k =-0.2500 0.2500-0.2500 (   350 PWs)   bands (ev):

   -31.4397 -31.2728 -31.2728  12.9567  15.5473  15.8775  15.8775  17.3187
    17.3187  32.8208  37.0493  41.9967

          k = 0.5000-0.5000 0.5000 (   344 PWs)   bands (ev):

   -31.6304 -31.3002 -31.3002  13.1658  15.5466  15.5466  18.3464  18.3464
    19.3409  25.5232  35.3773  39.7752

          k = 0.0000 0.5000 0.0000 (   351 PWs)   bands (ev):

   -31.4320 -31.3175 -31.3175  13.4583  14.3833  16.5803  16.8456  16.8456
    17.7216  36.4477  36.4477  36.7547

          k = 0.7500-0.2500 0.7500 (   354 PWs)   bands (ev):

   -31.5660 -31.4010 -31.3451  13.8428  14.6107  16.0532  16.8017  18.4318
    21.9905  27.4982  32.9632  35.2435

          k = 0.5000 0.0000 0.5000 (   363 PWs)   bands (ev):

   -31.5221 -31.4094 -31.3009  14.5470  14.9860  15.3673  16.5318  17.1223
    20.6294  30.8928  31.1068  38.2407

          k = 0.0000-1.0000 0.0000 (   342 PWs)   bands (ev):

   -31.6100 -31.3893 -31.3893  13.0903  13.3762  18.3218  18.6502  18.6502
    21.6538  28.9322  31.6116  31.6116

          k =-0.5000-1.0000 0.0000 (   360 PWs)   bands (ev):

   -31.5004 -31.5004 -31.3925  14.1368  15.0543  15.0543  17.0804  18.6502
    27.1613  27.1613  28.6467  29.8491

     the Fermi energy is    18.5710 ev

!    total energy              =    -198.71203007 Ry
     Harris-Foulkes estimate   =    -198.71203002 Ry
     estimated scf accuracy    <       0.00000007 Ry

     The total energy is the sum of the following terms:

     one-electron contribution =     -44.78280893 Ry
     hartree contribution      =      36.06029530 Ry
     xc contribution           =     -31.37623646 Ry
     ewald contribution        =    -158.61144480 Ry
     smearing contrib. (-TS)   =      -0.00183519 Ry

     convergence has been achieved in   5 iterations

     Writing output data file Pd-kp-conv.save/
 
     init_run     :      0.35s CPU      0.38s WALL (       1 calls)
     electrons    :      0.41s CPU      0.50s WALL (       1 calls)

     Called by init_run:
     wfcinit      :      0.02s CPU      0.03s WALL (       1 calls)
     potinit      :      0.01s CPU      0.02s WALL (       1 calls)
     hinit0       :      0.31s CPU      0.32s WALL (       1 calls)

     Called by electrons:
     c_bands      :      0.29s CPU      0.32s WALL (       5 calls)
     sum_band     :      0.07s CPU      0.08s WALL (       5 calls)
     v_of_rho     :      0.02s CPU      0.02s WALL (       6 calls)
     newd         :      0.03s CPU      0.04s WALL (       6 calls)
     mix_rho      :      0.00s CPU      0.00s WALL (       5 calls)

     Called by c_bands:
     init_us_2    :      0.01s CPU      0.01s WALL (      88 calls)
     cegterg      :      0.27s CPU      0.29s WALL (      40 calls)

     Called by sum_band:
     sum_band:bec :      0.00s CPU      0.00s WALL (      40 calls)
     addusdens    :      0.03s CPU      0.03s WALL (       5 calls)

     Called by *egterg:
     h_psi        :      0.21s CPU      0.23s WALL (     150 calls)
     s_psi        :      0.00s CPU      0.00s WALL (     150 calls)
     g_psi        :      0.00s CPU      0.00s WALL (     102 calls)
     cdiaghg      :      0.04s CPU      0.05s WALL (     142 calls)

     Called by h_psi:
     h_psi:pot    :      0.21s CPU      0.23s WALL (     150 calls)
     h_psi:calbec :      0.01s CPU      0.01s WALL (     150 calls)
     vloc_psi     :      0.20s CPU      0.22s WALL (     150 calls)
     add_vuspsi   :      0.00s CPU      0.00s WALL (     150 calls)

     General routines
     calbec       :      0.01s CPU      0.01s WALL (     190 calls)
     fft          :      0.01s CPU      0.01s WALL (      67 calls)
     ffts         :      0.00s CPU      0.00s WALL (       5 calls)
     fftw         :      0.20s CPU      0.22s WALL (    3132 calls)
 
     Parallel routines
     fft_scatt_xy :      0.04s CPU      0.04s WALL (    3204 calls)
     fft_scatt_yz :      0.05s CPU      0.06s WALL (    3204 calls)
 
     PWSCF        :     0.85s CPU         1.35s WALL

 
   This run was terminated on:  21:36:49   2Dec2021            

=------------------------------------------------------------------------------=
   JOB DONE.
=------------------------------------------------------------------------------=
