
     Program PWSCF v.6.3 starts on  2Dec2021 at 21:37: 5 

     This program is part of the open-source Quantum ESPRESSO suite
     for quantum simulation of materials; please cite
         "P. Giannozzi et al., J. Phys.:Condens. Matter 21 395502 (2009);
         "P. Giannozzi et al., J. Phys.:Condens. Matter 29 465901 (2017);
          URL http://www.quantum-espresso.org", 
     in publications or presentations arising from this work. More details at
     http://www.quantum-espresso.org/quote

     Parallel version (MPI & OpenMP), running on       2 processor cores
     Number of MPI processes:                 2
     Threads/MPI process:                     1

     MPI processes distributed on     1 nodes
     R & G space division:  proc/nbgrp/npool/nimage =       2
     Reading input from pw-input.in

     Current dimensions of program PWSCF are:
     Max number of different atomic species (ntypx) = 10
     Max number of k-points (npk) =  40000
     Max angular momentum in pseudopotentials (lmaxx) =  3

     Subspace diagonalization in iterative solution of the eigenvalue problem:
     a serial algorithm will be used

 
     Parallelization info
     --------------------
     sticks:   dense  smooth     PW     G-vecs:    dense   smooth      PW
     Min         156     156     54                 1859     1859     362
     Max         157     157     55                 1860     1860     363
     Sum         313     313    109                 3719     3719     725
 

     Title: 
     Pd-kp-conv                                                                 


     bravais-lattice index     =            2
     lattice parameter (alat)  =       8.1000  a.u.
     unit-cell volume          =     132.8602 (a.u.)^3
     number of atoms/cell      =            1
     number of atomic types    =            1
     number of electrons       =        16.00
     number of Kohn-Sham states=           12
     kinetic-energy cutoff     =      35.0000  Ry
     charge density cutoff     =     140.0000  Ry
     convergence threshold     =      1.0E-07
     mixing beta               =       0.7000
     number of iterations used =            8  plain     mixing
     Exchange-correlation      =  SLA  PW   PBX  PBC ( 1  4  3  4 0 0)

     celldm(1)=   8.100000  celldm(2)=   0.000000  celldm(3)=   0.000000
     celldm(4)=   0.000000  celldm(5)=   0.000000  celldm(6)=   0.000000

     crystal axes: (cart. coord. in units of alat)
               a(1) = (  -0.500000   0.000000   0.500000 )  
               a(2) = (   0.000000   0.500000   0.500000 )  
               a(3) = (  -0.500000   0.500000   0.000000 )  

     reciprocal axes: (cart. coord. in units 2 pi/alat)
               b(1) = ( -1.000000 -1.000000  1.000000 )  
               b(2) = (  1.000000  1.000000  1.000000 )  
               b(3) = ( -1.000000  1.000000 -1.000000 )  


     PseudoPot. # 1 for Pd read from file:
     ./pd_pbe_v1.4.uspp.F.UPF
     MD5 check sum: 2d733d2bc2cbfd217af676df1668a4bc
     Pseudo is Ultrasoft + core correction, Zval = 16.0
     Generated by new atomic code, or converted to UPF format
     Using radial grid of  887 points,  6 beta functions with: 
                l(1) =   0
                l(2) =   0
                l(3) =   1
                l(4) =   1
                l(5) =   2
                l(6) =   2
     Q(r) pseudized with  8 coefficients,  rinner =    1.130   1.130   1.130
                                                       1.130   1.130

     atomic species   valence    mass     pseudopotential
        Pd            16.00   106.40000     Pd( 1.00)

     48 Sym. Ops., with inversion, found



   Cartesian axes

     site n.     atom                  positions (alat units)
         1           Pd  tau(   1) = (   0.0000000   0.0000000   0.0000000  )

     number of k points=     8  Marzari-Vanderbilt smearing, width (Ry)=  0.0200
                       cart. coord. in units 2pi/alat
        k(    1) = (   0.0000000   0.0000000   0.0000000), wk =   0.0312500
        k(    2) = (  -0.2500000   0.2500000  -0.2500000), wk =   0.2500000
        k(    3) = (   0.5000000  -0.5000000   0.5000000), wk =   0.1250000
        k(    4) = (   0.0000000   0.5000000   0.0000000), wk =   0.1875000
        k(    5) = (   0.7500000  -0.2500000   0.7500000), wk =   0.7500000
        k(    6) = (   0.5000000   0.0000000   0.5000000), wk =   0.3750000
        k(    7) = (   0.0000000  -1.0000000   0.0000000), wk =   0.0937500
        k(    8) = (  -0.5000000  -1.0000000   0.0000000), wk =   0.1875000

     Dense  grid:     3719 G-vectors     FFT dimensions: (  24,  24,  24)

     Estimated max dynamical RAM per process >       8.22 MB

     Estimated total dynamical RAM >      16.45 MB

     Initial potential from superposition of free atoms
     Check: negative starting charge=   -0.081280

     starting charge   15.49999, renormalised to   16.00000

     negative rho (up, down):  8.390E-02 0.000E+00
     Starting wfcs are   12 randomized atomic wfcs

     total cpu time spent up to now is        0.5 secs

     Self-consistent Calculation

     iteration #  1     ecut=    35.00 Ry     beta= 0.70
     Davidson diagonalization with overlap
     ethr =  1.00E-02,  avg # of iterations =  2.9

     negative rho (up, down):  8.123E-02 0.000E+00

     total cpu time spent up to now is        0.7 secs

     total energy              =    -197.89737370 Ry
     Harris-Foulkes estimate   =    -199.07244355 Ry
     estimated scf accuracy    <       1.59608147 Ry

     iteration #  2     ecut=    35.00 Ry     beta= 0.70
     Davidson diagonalization with overlap
     ethr =  9.98E-03,  avg # of iterations =  2.0

     negative rho (up, down):  8.347E-02 0.000E+00

     total cpu time spent up to now is        0.8 secs

     total energy              =    -198.26542754 Ry
     Harris-Foulkes estimate   =    -199.32579589 Ry
     estimated scf accuracy    <       2.27615564 Ry

     iteration #  3     ecut=    35.00 Ry     beta= 0.70
     Davidson diagonalization with overlap
     ethr =  9.98E-03,  avg # of iterations =  2.0

     negative rho (up, down):  8.350E-02 0.000E+00

     total cpu time spent up to now is        0.9 secs

     total energy              =    -198.68379740 Ry
     Harris-Foulkes estimate   =    -198.68380236 Ry
     estimated scf accuracy    <       0.00013010 Ry

     iteration #  4     ecut=    35.00 Ry     beta= 0.70
     Davidson diagonalization with overlap
     ethr =  8.13E-07,  avg # of iterations =  3.6

     negative rho (up, down):  8.357E-02 0.000E+00

     total cpu time spent up to now is        1.0 secs

     total energy              =    -198.68414697 Ry
     Harris-Foulkes estimate   =    -198.68414806 Ry
     estimated scf accuracy    <       0.00000993 Ry

     iteration #  5     ecut=    35.00 Ry     beta= 0.70
     Davidson diagonalization with overlap
     ethr =  6.21E-08,  avg # of iterations =  1.1

     negative rho (up, down):  8.358E-02 0.000E+00

     total cpu time spent up to now is        1.1 secs

     total energy              =    -198.68414717 Ry
     Harris-Foulkes estimate   =    -198.68414721 Ry
     estimated scf accuracy    <       0.00000027 Ry

     iteration #  6     ecut=    35.00 Ry     beta= 0.70
     Davidson diagonalization with overlap
     ethr =  1.66E-09,  avg # of iterations =  1.8

     negative rho (up, down):  8.358E-02 0.000E+00

     total cpu time spent up to now is        1.2 secs

     End of self-consistent calculation

          k = 0.0000 0.0000 0.0000 (   459 PWs)   bands (ev):

   -36.6505 -36.6505 -36.6505   7.2123  10.6133  10.6133  10.6133  11.6186
    11.6186  29.4480  32.5562  32.5562

          k =-0.2500 0.2500-0.2500 (   477 PWs)   bands (ev):

   -36.7199 -36.6615 -36.6615   8.6326  10.6286  10.8048  10.8048  11.7246
    11.7246  24.6007  29.9245  32.3629

          k = 0.5000-0.5000 0.5000 (   464 PWs)   bands (ev):

   -36.7878 -36.6720 -36.6720   8.9619  10.5971  10.5971  12.3588  12.3588
    13.9780  17.7552  28.6744  30.7835

          k = 0.0000 0.5000 0.0000 (   456 PWs)   bands (ev):

   -36.7168 -36.6772 -36.6772   9.0642   9.8515  11.3152  11.4293  11.4293
    11.9691  27.7933  27.7933  28.8630

          k = 0.7500-0.2500 0.7500 (   459 PWs)   bands (ev):

   -36.7653 -36.7072 -36.6878   9.4785  10.0287  10.9572  11.4087  12.4117
    15.4534  19.9570  24.6645  26.8391

          k = 0.5000 0.0000 0.5000 (   463 PWs)   bands (ev):

   -36.7493 -36.7101 -36.6717   9.9105  10.2477  10.5410  11.2438  11.6033
    14.1762  22.8761  22.9606  30.6789

          k = 0.0000-1.0000 0.0000 (   468 PWs)   bands (ev):

   -36.7816 -36.7041 -36.7041   9.0037   9.1795  12.3406  12.5461  12.5461
    15.7794  20.5419  24.1058  24.1058

          k =-0.5000-1.0000 0.0000 (   464 PWs)   bands (ev):

   -36.7428 -36.7428 -36.7044   9.7271  10.2939  10.2939  11.5975  12.5475
    19.8773  19.8773  20.5719  22.0629

     the Fermi energy is    12.5357 ev

!    total energy              =    -198.68414720 Ry
     Harris-Foulkes estimate   =    -198.68414720 Ry
     estimated scf accuracy    <          2.4E-09 Ry

     The total energy is the sum of the following terms:

     one-electron contribution =     -66.18282630 Ry
     hartree contribution      =      43.62602677 Ry
     xc contribution           =     -31.22063726 Ry
     ewald contribution        =    -144.90428288 Ry
     smearing contrib. (-TS)   =      -0.00242753 Ry

     convergence has been achieved in   6 iterations

     Writing output data file Pd-kp-conv.save/
 
     init_run     :      0.38s CPU      0.42s WALL (       1 calls)
     electrons    :      0.64s CPU      0.72s WALL (       1 calls)

     Called by init_run:
     wfcinit      :      0.03s CPU      0.05s WALL (       1 calls)
     potinit      :      0.01s CPU      0.02s WALL (       1 calls)
     hinit0       :      0.33s CPU      0.33s WALL (       1 calls)

     Called by electrons:
     c_bands      :      0.44s CPU      0.47s WALL (       6 calls)
     sum_band     :      0.12s CPU      0.14s WALL (       6 calls)
     v_of_rho     :      0.03s CPU      0.03s WALL (       7 calls)
     newd         :      0.05s CPU      0.05s WALL (       7 calls)
     mix_rho      :      0.00s CPU      0.00s WALL (       6 calls)

     Called by c_bands:
     init_us_2    :      0.01s CPU      0.01s WALL (     104 calls)
     cegterg      :      0.41s CPU      0.43s WALL (      48 calls)

     Called by sum_band:
     sum_band:bec :      0.00s CPU      0.00s WALL (      48 calls)
     addusdens    :      0.05s CPU      0.05s WALL (       6 calls)

     Called by *egterg:
     h_psi        :      0.36s CPU      0.38s WALL (     163 calls)
     s_psi        :      0.00s CPU      0.01s WALL (     163 calls)
     g_psi        :      0.00s CPU      0.00s WALL (     107 calls)
     cdiaghg      :      0.04s CPU      0.05s WALL (     155 calls)

     Called by h_psi:
     h_psi:pot    :      0.36s CPU      0.38s WALL (     163 calls)
     h_psi:calbec :      0.01s CPU      0.01s WALL (     163 calls)
     vloc_psi     :      0.34s CPU      0.36s WALL (     163 calls)
     add_vuspsi   :      0.01s CPU      0.01s WALL (     163 calls)

     General routines
     calbec       :      0.01s CPU      0.01s WALL (     211 calls)
     fft          :      0.01s CPU      0.01s WALL (      78 calls)
     ffts         :      0.00s CPU      0.00s WALL (       6 calls)
     fftw         :      0.35s CPU      0.37s WALL (    3610 calls)
 
     Parallel routines
     fft_scatt_xy :      0.07s CPU      0.07s WALL (    3694 calls)
     fft_scatt_yz :      0.08s CPU      0.09s WALL (    3694 calls)
 
     PWSCF        :     1.11s CPU         1.64s WALL

 
   This run was terminated on:  21:37: 6   2Dec2021            

=------------------------------------------------------------------------------=
   JOB DONE.
=------------------------------------------------------------------------------=
