
     Program PWSCF v.6.3 starts on 29Nov2021 at 12:41:36 

     This program is part of the open-source Quantum ESPRESSO suite
     for quantum simulation of materials; please cite
         "P. Giannozzi et al., J. Phys.:Condens. Matter 21 395502 (2009);
         "P. Giannozzi et al., J. Phys.:Condens. Matter 29 465901 (2017);
          URL http://www.quantum-espresso.org", 
     in publications or presentations arising from this work. More details at
     http://www.quantum-espresso.org/quote

     Parallel version (MPI & OpenMP), running on       2 processor cores
     Number of MPI processes:                 2
     Threads/MPI process:                     1

     MPI processes distributed on     1 nodes
     R & G space division:  proc/nbgrp/npool/nimage =       2
     Reading input from pw-input.in

     Current dimensions of program PWSCF are:
     Max number of different atomic species (ntypx) = 10
     Max number of k-points (npk) =  40000
     Max angular momentum in pseudopotentials (lmaxx) =  3

     gamma-point specific algorithms are used

     Subspace diagonalization in iterative solution of the eigenvalue problem:
     a serial algorithm will be used

 
     Parallelization info
     --------------------
     sticks:   dense  smooth     PW     G-vecs:    dense   smooth      PW
     Min       10663   10663   2667              1170254  1170254  146249
     Max       10666   10666   2670              1170255  1170255  146250
     Sum       21329   21329   5337              2340509  2340509  292499
 

     Title: 
     CHFBr2-mol-scf                                                             


     bravais-lattice index     =            0
     lattice parameter (alat)  =      47.2432  a.u.
     unit-cell volume          =  105442.7279 (a.u.)^3
     number of atoms/cell      =            5
     number of atomic types    =            4
     number of electrons       =        26.00
     number of Kohn-Sham states=           13
     kinetic-energy cutoff     =      30.0000  Ry
     charge density cutoff     =     120.0000  Ry
     convergence threshold     =      1.0E-07
     mixing beta               =       0.7000
     number of iterations used =            8  plain     mixing
     Exchange-correlation      =  SLA  PW   PBX  PBC ( 1  4  3  4 0 0)

     celldm(1)=  47.243153  celldm(2)=   0.000000  celldm(3)=   0.000000
     celldm(4)=   0.000000  celldm(5)=   0.000000  celldm(6)=   0.000000

     crystal axes: (cart. coord. in units of alat)
               a(1) = (   1.000000   0.000000   0.000000 )  
               a(2) = (   0.000000   1.000000   0.000000 )  
               a(3) = (   0.000000   0.000000   1.000000 )  

     reciprocal axes: (cart. coord. in units 2 pi/alat)
               b(1) = (  1.000000  0.000000  0.000000 )  
               b(2) = (  0.000000  1.000000  0.000000 )  
               b(3) = (  0.000000  0.000000  1.000000 )  


     PseudoPot. # 1 for H  read from file:
     ./h_pbe_v1.4.uspp.F.UPF
     MD5 check sum: 761ae9a214b05c3daf00ab9f6b793d6f
     Pseudo is Ultrasoft, Zval =  1.0
     Generated by new atomic code, or converted to UPF format
     Using radial grid of  615 points,  2 beta functions with: 
                l(1) =   0
                l(2) =   0
     Q(r) pseudized with  8 coefficients,  rinner =    0.700

     PseudoPot. # 2 for C  read from file:
     ./c_pbe_v1.2.uspp.F.UPF
     MD5 check sum: d1aef80898a10debaa0f26306b886e00
     Pseudo is Ultrasoft + core correction, Zval =  4.0
     Generated by new atomic code, or converted to UPF format
     Using radial grid of  721 points,  4 beta functions with: 
                l(1) =   0
                l(2) =   0
                l(3) =   1
                l(4) =   1
     Q(r) pseudized with  8 coefficients,  rinner =    1.100   1.100   1.100


     PseudoPot. # 3 for F  read from file:
     ./f_pbe_v1.4.uspp.F.UPF
     MD5 check sum: 4c38b6a325caf53ec0e86aed9459de46
     Pseudo is Ultrasoft, Zval =  7.0
     Generated by new atomic code, or converted to UPF format
     Using radial grid of  799 points,  4 beta functions with: 
                l(1) =   0
                l(2) =   0
                l(3) =   1
                l(4) =   1
     Q(r) pseudized with  8 coefficients,  rinner =    0.950   0.950   0.950


     PseudoPot. # 4 for Br read from file:
     ./br_pbe_v1.4.uspp.F.UPF
     MD5 check sum: d3ffb7b29f6225aa16fe06858fb2a80b
     Pseudo is Ultrasoft + core correction, Zval =  7.0
     Generated by new atomic code, or converted to UPF format
     Using radial grid of  879 points,  6 beta functions with: 
                l(1) =   0
                l(2) =   0
                l(3) =   1
                l(4) =   1
                l(5) =   2
                l(6) =   2
     Q(r) pseudized with  8 coefficients,  rinner =    1.100   1.100   1.100
                                                       1.100   1.100

     atomic species   valence    mass     pseudopotential
        H              1.00     1.00000     H ( 1.00)
        C              4.00    12.00000     C ( 1.00)
        F              7.00    19.00000     F ( 1.00)
        Br             7.00    80.00000     Br( 1.00)

      2 Sym. Ops. (no inversion) found



   Cartesian axes

     site n.     atom                  positions (alat units)
         1           C   tau(   1) = (  -0.0041264   0.0311774   0.0000000  )
         2           H   tau(   2) = (  -0.0401373   0.0552753   0.0000000  )
         3           F   tau(   3) = (   0.0393048   0.0633858   0.0000000  )
         4           Br  tau(   4) = (  -0.0041264  -0.0116116   0.0635012  )
         5           Br  tau(   5) = (  -0.0041264  -0.0116116  -0.0635012  )

     number of k points=     1
                       cart. coord. in units 2pi/alat
        k(    1) = (   0.0000000   0.0000000   0.0000000), wk =   2.0000000

     Dense  grid:  1170255 G-vectors     FFT dimensions: ( 180, 180, 180)

     Estimated max dynamical RAM per process >       2.22 GB

     Estimated total dynamical RAM >       4.45 GB

     Initial potential from superposition of free atoms
     Check: negative starting charge=   -0.090174

     starting charge   25.99991, renormalised to   26.00000

     negative rho (up, down):  9.017E-02 0.000E+00
     Starting wfcs are   17 randomized atomic wfcs

     total cpu time spent up to now is       11.4 secs

     Self-consistent Calculation

     iteration #  1     ecut=    30.00 Ry     beta= 0.70
     Davidson diagonalization with overlap
     ethr =  1.00E-02,  avg # of iterations =  2.0

     Threshold (ethr) on eigenvalues was too large:
     Diagonalizing with lowered threshold

     Davidson diagonalization with overlap
     ethr =  6.80E-04,  avg # of iterations =  1.0

     negative rho (up, down):  1.170E-01 0.000E+00

     total cpu time spent up to now is       39.4 secs

     total energy              =    -154.89862042 Ry
     Harris-Foulkes estimate   =    -154.98835462 Ry
     estimated scf accuracy    <       0.17765062 Ry

     iteration #  2     ecut=    30.00 Ry     beta= 0.70
     Davidson diagonalization with overlap
     ethr =  6.83E-04,  avg # of iterations =  3.0

     negative rho (up, down):  1.264E-01 0.000E+00

     total cpu time spent up to now is       57.6 secs

     total energy              =    -154.90921544 Ry
     Harris-Foulkes estimate   =    -154.94840942 Ry
     estimated scf accuracy    <       0.06432513 Ry

     iteration #  3     ecut=    30.00 Ry     beta= 0.70
     Davidson diagonalization with overlap
     ethr =  2.47E-04,  avg # of iterations =  3.0

     negative rho (up, down):  1.366E-01 0.000E+00

     total cpu time spent up to now is       76.0 secs

     total energy              =    -154.92827271 Ry
     Harris-Foulkes estimate   =    -154.93567429 Ry
     estimated scf accuracy    <       0.01585940 Ry

     iteration #  4     ecut=    30.00 Ry     beta= 0.70
     Davidson diagonalization with overlap
     ethr =  6.10E-05,  avg # of iterations =  2.0

     negative rho (up, down):  1.386E-01 0.000E+00

     total cpu time spent up to now is       93.8 secs

     total energy              =    -154.93131218 Ry
     Harris-Foulkes estimate   =    -154.93136725 Ry
     estimated scf accuracy    <       0.00013303 Ry

     iteration #  5     ecut=    30.00 Ry     beta= 0.70
     Davidson diagonalization with overlap
     ethr =  5.12E-07,  avg # of iterations =  3.0

     negative rho (up, down):  1.394E-01 0.000E+00

     total cpu time spent up to now is      113.0 secs

     total energy              =    -154.93140293 Ry
     Harris-Foulkes estimate   =    -154.93142663 Ry
     estimated scf accuracy    <       0.00005181 Ry

     iteration #  6     ecut=    30.00 Ry     beta= 0.70
     Davidson diagonalization with overlap
     ethr =  1.99E-07,  avg # of iterations =  2.0

     negative rho (up, down):  1.396E-01 0.000E+00

     total cpu time spent up to now is      130.8 secs

     total energy              =    -154.93141145 Ry
     Harris-Foulkes estimate   =    -154.93141531 Ry
     estimated scf accuracy    <       0.00000781 Ry

     iteration #  7     ecut=    30.00 Ry     beta= 0.70
     Davidson diagonalization with overlap
     ethr =  3.00E-08,  avg # of iterations =  2.0

     negative rho (up, down):  1.397E-01 0.000E+00

     total cpu time spent up to now is      148.8 secs

     total energy              =    -154.93141325 Ry
     Harris-Foulkes estimate   =    -154.93141341 Ry
     estimated scf accuracy    <       0.00000037 Ry

     iteration #  8     ecut=    30.00 Ry     beta= 0.70
     Davidson diagonalization with overlap
     ethr =  1.43E-09,  avg # of iterations =  3.0

     negative rho (up, down):  1.397E-01 0.000E+00

     total cpu time spent up to now is      166.6 secs

     End of self-consistent calculation

          k = 0.0000 0.0000 0.0000 (146250 PWs)   bands (ev):

   -31.7407 -21.8883 -20.4915 -16.8531 -13.8038 -12.7005 -12.5239  -9.6315
    -9.4268  -7.9608  -7.4631  -7.4035  -7.0372

     highest occupied level (ev):    -7.0372

!    total energy              =    -154.93141332 Ry
     Harris-Foulkes estimate   =    -154.93141335 Ry
     estimated scf accuracy    <       0.00000004 Ry

     The total energy is the sum of the following terms:

     one-electron contribution =    -347.07698312 Ry
     hartree contribution      =     176.85100352 Ry
     xc contribution           =     -65.76683877 Ry
     ewald contribution        =      81.06140505 Ry

     convergence has been achieved in   8 iterations

     Writing output data file CHFBr2-mol-scf.save/
 
     init_run     :     10.22s CPU     11.22s WALL (       1 calls)
     electrons    :    143.35s CPU    155.37s WALL (       1 calls)

     Called by init_run:
     wfcinit      :      1.85s CPU      1.94s WALL (       1 calls)
     potinit      :      2.61s CPU      2.79s WALL (       1 calls)
     hinit0       :      2.06s CPU      2.16s WALL (       1 calls)

     Called by electrons:
     c_bands      :     38.71s CPU     39.53s WALL (       9 calls)
     sum_band     :     58.36s CPU     63.85s WALL (       9 calls)
     v_of_rho     :     19.06s CPU     19.98s WALL (       9 calls)
     newd         :     29.37s CPU     34.45s WALL (       9 calls)
     mix_rho      :      2.63s CPU      2.80s WALL (       9 calls)

     Called by c_bands:
     init_us_2    :      1.17s CPU      1.19s WALL (      19 calls)
     regterg      :     34.87s CPU     35.67s WALL (       9 calls)

     Called by sum_band:
     sum_band:bec :      0.00s CPU      0.00s WALL (       9 calls)
     addusdens    :     47.42s CPU     52.50s WALL (       9 calls)

     Called by *egterg:
     h_psi        :     33.57s CPU     34.21s WALL (      31 calls)
     s_psi        :      0.85s CPU      0.85s WALL (      31 calls)
     g_psi        :      0.24s CPU      0.24s WALL (      21 calls)
     rdiaghg      :      0.01s CPU      0.01s WALL (      29 calls)

     Called by h_psi:
     h_psi:pot    :     33.45s CPU     34.07s WALL (      31 calls)
     h_psi:calbec :      0.55s CPU      0.55s WALL (      31 calls)
     vloc_psi     :     32.04s CPU     32.67s WALL (      31 calls)
     add_vuspsi   :      0.85s CPU      0.85s WALL (      31 calls)

     General routines
     calbec       :      0.73s CPU      0.73s WALL (      40 calls)
     fft          :     14.08s CPU     14.99s WALL (      83 calls)
     ffts         :      1.49s CPU      1.55s WALL (       9 calls)
     fftw         :     32.44s CPU     33.16s WALL (     423 calls)
 
     Parallel routines
     fft_scatt_xy :      8.67s CPU      8.70s WALL (     515 calls)
     fft_scatt_yz :     11.38s CPU     12.94s WALL (     515 calls)
 
     PWSCF        :  2m33.78s CPU     2m47.43s WALL

 
   This run was terminated on:  12:44:23  29Nov2021            

=------------------------------------------------------------------------------=
   JOB DONE.
=------------------------------------------------------------------------------=
