
     Program PWSCF v.6.3 starts on  2Dec2021 at 22:23:12 

     This program is part of the open-source Quantum ESPRESSO suite
     for quantum simulation of materials; please cite
         "P. Giannozzi et al., J. Phys.:Condens. Matter 21 395502 (2009);
         "P. Giannozzi et al., J. Phys.:Condens. Matter 29 465901 (2017);
          URL http://www.quantum-espresso.org", 
     in publications or presentations arising from this work. More details at
     http://www.quantum-espresso.org/quote

     Parallel version (MPI & OpenMP), running on       2 processor cores
     Number of MPI processes:                 2
     Threads/MPI process:                     1

     MPI processes distributed on     1 nodes
     R & G space division:  proc/nbgrp/npool/nimage =       2
     Reading input from pw-input.in

     Current dimensions of program PWSCF are:
     Max number of different atomic species (ntypx) = 10
     Max number of k-points (npk) =  40000
     Max angular momentum in pseudopotentials (lmaxx) =  3

     Subspace diagonalization in iterative solution of the eigenvalue problem:
     a serial algorithm will be used

 
     Parallelization info
     --------------------
     sticks:   dense  smooth     PW     G-vecs:    dense   smooth      PW
     Min         105     105     36                  994      994     205
     Max         106     106     37                  995      995     206
     Sum         211     211     73                 1989     1989     411
 

     Title: 
     Pd-kp-conv                                                                 


     bravais-lattice index     =            2
     lattice parameter (alat)  =       6.6000  a.u.
     unit-cell volume          =      71.8740 (a.u.)^3
     number of atoms/cell      =            1
     number of atomic types    =            1
     number of electrons       =        16.00
     number of Kohn-Sham states=           12
     kinetic-energy cutoff     =      35.0000  Ry
     charge density cutoff     =     140.0000  Ry
     convergence threshold     =      1.0E-07
     mixing beta               =       0.7000
     number of iterations used =            8  plain     mixing
     Exchange-correlation      =  SLA  PW   PBX  PBC ( 1  4  3  4 0 0)

     celldm(1)=   6.600000  celldm(2)=   0.000000  celldm(3)=   0.000000
     celldm(4)=   0.000000  celldm(5)=   0.000000  celldm(6)=   0.000000

     crystal axes: (cart. coord. in units of alat)
               a(1) = (  -0.500000   0.000000   0.500000 )  
               a(2) = (   0.000000   0.500000   0.500000 )  
               a(3) = (  -0.500000   0.500000   0.000000 )  

     reciprocal axes: (cart. coord. in units 2 pi/alat)
               b(1) = ( -1.000000 -1.000000  1.000000 )  
               b(2) = (  1.000000  1.000000  1.000000 )  
               b(3) = ( -1.000000  1.000000 -1.000000 )  


     PseudoPot. # 1 for Pd read from file:
     ./pd_pbe_v1.4.uspp.F.UPF
     MD5 check sum: 2d733d2bc2cbfd217af676df1668a4bc
     Pseudo is Ultrasoft + core correction, Zval = 16.0
     Generated by new atomic code, or converted to UPF format
     Using radial grid of  887 points,  6 beta functions with: 
                l(1) =   0
                l(2) =   0
                l(3) =   1
                l(4) =   1
                l(5) =   2
                l(6) =   2
     Q(r) pseudized with  8 coefficients,  rinner =    1.130   1.130   1.130
                                                       1.130   1.130

     atomic species   valence    mass     pseudopotential
        Pd            16.00   106.40000     Pd( 1.00)

     48 Sym. Ops., with inversion, found



   Cartesian axes

     site n.     atom                  positions (alat units)
         1           Pd  tau(   1) = (   0.0000000   0.0000000   0.0000000  )

     number of k points=    16  Marzari-Vanderbilt smearing, width (Ry)=  0.0300
                       cart. coord. in units 2pi/alat
        k(    1) = (   0.0000000   0.0000000   0.0000000), wk =   0.0092593
        k(    2) = (  -0.1666667   0.1666667  -0.1666667), wk =   0.0740741
        k(    3) = (  -0.3333333   0.3333333  -0.3333333), wk =   0.0740741
        k(    4) = (   0.5000000  -0.5000000   0.5000000), wk =   0.0370370
        k(    5) = (   0.0000000   0.3333333   0.0000000), wk =   0.0555556
        k(    6) = (  -0.1666667   0.5000000  -0.1666667), wk =   0.2222222
        k(    7) = (   0.6666667  -0.3333333   0.6666667), wk =   0.2222222
        k(    8) = (   0.5000000  -0.1666667   0.5000000), wk =   0.2222222
        k(    9) = (   0.3333333   0.0000000   0.3333333), wk =   0.1111111
        k(   10) = (   0.0000000   0.6666667   0.0000000), wk =   0.0555556
        k(   11) = (   0.8333333  -0.1666667   0.8333333), wk =   0.2222222
        k(   12) = (   0.6666667  -0.0000000   0.6666667), wk =   0.1111111
        k(   13) = (   0.0000000  -1.0000000   0.0000000), wk =   0.0277778
        k(   14) = (   0.6666667  -0.3333333   1.0000000), wk =   0.2222222
        k(   15) = (   0.5000000  -0.1666667   0.8333333), wk =   0.2222222
        k(   16) = (  -0.3333333  -1.0000000   0.0000000), wk =   0.1111111

     Dense  grid:     1989 G-vectors     FFT dimensions: (  18,  18,  18)

     Estimated max dynamical RAM per process >       4.87 MB

     Estimated total dynamical RAM >       9.74 MB

     Initial potential from superposition of free atoms
     Check: negative starting charge=   -0.084505

     starting charge   15.49999, renormalised to   16.00000

     negative rho (up, down):  8.723E-02 0.000E+00
     Starting wfcs are   12 randomized atomic wfcs

     total cpu time spent up to now is        0.5 secs

     Self-consistent Calculation

     iteration #  1     ecut=    35.00 Ry     beta= 0.70
     Davidson diagonalization with overlap
     ethr =  1.00E-02,  avg # of iterations =  3.6

     negative rho (up, down):  8.927E-02 0.000E+00

     total cpu time spent up to now is        0.6 secs

     total energy              =    -198.36358582 Ry
     Harris-Foulkes estimate   =    -198.79065285 Ry
     estimated scf accuracy    <       0.60832975 Ry

     iteration #  2     ecut=    35.00 Ry     beta= 0.70
     Davidson diagonalization with overlap
     ethr =  3.80E-03,  avg # of iterations =  2.0

     negative rho (up, down):  9.021E-02 0.000E+00

     total cpu time spent up to now is        0.8 secs

     total energy              =    -198.52923773 Ry
     Harris-Foulkes estimate   =    -198.65755042 Ry
     estimated scf accuracy    <       0.21900942 Ry

     iteration #  3     ecut=    35.00 Ry     beta= 0.70
     Davidson diagonalization with overlap
     ethr =  1.37E-03,  avg # of iterations =  2.0

     negative rho (up, down):  9.106E-02 0.000E+00

     total cpu time spent up to now is        0.9 secs

     total energy              =    -198.58149175 Ry
     Harris-Foulkes estimate   =    -198.58203571 Ry
     estimated scf accuracy    <       0.00126145 Ry

     iteration #  4     ecut=    35.00 Ry     beta= 0.70
     Davidson diagonalization with overlap
     ethr =  7.88E-06,  avg # of iterations =  2.0

     negative rho (up, down):  9.119E-02 0.000E+00

     total cpu time spent up to now is        1.0 secs

     total energy              =    -198.58174065 Ry
     Harris-Foulkes estimate   =    -198.58175408 Ry
     estimated scf accuracy    <       0.00002347 Ry

     iteration #  5     ecut=    35.00 Ry     beta= 0.70
     Davidson diagonalization with overlap
     ethr =  1.47E-07,  avg # of iterations =  2.0

     negative rho (up, down):  9.122E-02 0.000E+00

     total cpu time spent up to now is        1.1 secs

     End of self-consistent calculation

          k = 0.0000 0.0000 0.0000 (   259 PWs)   bands (ev):

   -21.9751 -21.9751 -21.9751  18.7509  23.8592  23.8592  23.8592  26.5749
    26.5749  46.7804  53.6472  53.6472

          k =-0.1667 0.1667-0.1667 (   262 PWs)   bands (ev):

   -22.3052 -22.0182 -22.0182  19.9546  23.4918  24.2746  24.2746  26.4314
    26.4314  48.4180  48.8945  55.5155

          k =-0.3333 0.3333-0.3333 (   256 PWs)   bands (ev):

   -22.9394 -22.1037 -22.1037  20.5852  24.0825  24.0825  25.7727  27.5665
    27.5665  43.2814  47.7215  56.9236

          k = 0.5000-0.5000 0.5000 (   242 PWs)   bands (ev):

   -23.2444 -22.1453 -22.1453  20.2281  23.7422  23.7422  28.6336  28.6336
    29.0736  39.2421  46.0581  54.1915

          k = 0.0000 0.3333 0.0000 (   254 PWs)   bands (ev):

   -22.2940 -22.0915 -22.0915  20.3709  22.7497  24.8453  24.8453  25.5095
    27.0385  49.2988  50.5160  53.2137

          k =-0.1667 0.5000-0.1667 (   253 PWs)   bands (ev):

   -22.7590 -22.1966 -22.1919  21.3252  22.6870  24.1710  25.2405  27.8669
    27.9521  45.9055  49.5947  52.0506

          k = 0.6667-0.3333 0.6667 (   251 PWs)   bands (ev):

   -23.1167 -22.3370 -22.2191  21.0335  22.9930  24.7401  25.0783  28.7083
    32.5470  39.7141  47.3617  51.8285

          k = 0.5000-0.1667 0.5000 (   254 PWs)   bands (ev):

   -23.0192 -22.3795 -22.1469  21.4091  23.2513  24.6859  24.7945  27.2608
    31.7180  41.8420  47.2923  50.9203

          k = 0.3333 0.0000 0.3333 (   255 PWs)   bands (ev):

   -22.6114 -22.2266 -22.0461  21.5127  22.8080  24.2868  25.1211  25.4674
    28.3088  47.0147  49.0855  53.9349

          k = 0.0000 0.6667 0.0000 (   246 PWs)   bands (ev):

   -22.8882 -22.3215 -22.3215  20.7435  20.9504  27.3698  27.3698  27.8214
    28.0429  47.8094  47.8094  48.0808

          k = 0.8333-0.1667 0.8333 (   245 PWs)   bands (ev):

   -23.0411 -22.5170 -22.3634  20.5157  21.1423  26.2004  27.1705  28.8931
    33.6815  42.0143  45.1911  46.9305

          k = 0.6667-0.0000 0.6667 (   256 PWs)   bands (ev):

   -22.8345 -22.8251 -22.2771  21.3500  22.6968  24.2292  26.2409  27.8004
    36.4427  40.4158  43.0044  50.6808

          k = 0.0000-1.0000 0.0000 (   254 PWs)   bands (ev):

   -23.1653 -22.4351 -22.4351  19.7542  20.1886  28.5925  29.1892  29.1892
    32.2785  43.4822  44.2583  44.2583

          k = 0.6667-0.3333 1.0000 (   249 PWs)   bands (ev):

   -22.9240 -22.4920 -22.2576  21.9837  22.0069  23.6774  26.7861  27.3444
    32.2732  44.5191  45.3561  48.6017

          k = 0.5000-0.1667 0.8333 (   250 PWs)   bands (ev):

   -22.9616 -22.6452 -22.3297  21.9238  22.2983  23.7453  26.0115  28.4638
    36.9168  38.9890  46.0490  46.1242

          k =-0.3333-1.0000 0.0000 (   250 PWs)   bands (ev):

   -22.9873 -22.6226 -22.4473  20.8794  21.4951  25.1069  26.9939  29.1931
    37.1518  42.3428  42.6354  43.5119

     the Fermi energy is    28.6463 ev

!    total energy              =    -198.58174599 Ry
     Harris-Foulkes estimate   =    -198.58174599 Ry
     estimated scf accuracy    <       0.00000005 Ry

     The total energy is the sum of the following terms:

     one-electron contribution =     -16.04806335 Ry
     hartree contribution      =      27.02986018 Ry
     xc contribution           =     -31.72621503 Ry
     ewald contribution        =    -177.83707445 Ry
     smearing contrib. (-TS)   =      -0.00025334 Ry

     convergence has been achieved in   5 iterations

     Writing output data file Pd-kp-conv.save/
 
     init_run     :      0.34s CPU      0.37s WALL (       1 calls)
     electrons    :      0.57s CPU      0.83s WALL (       1 calls)

     Called by init_run:
     wfcinit      :      0.03s CPU      0.04s WALL (       1 calls)
     potinit      :      0.00s CPU      0.01s WALL (       1 calls)
     hinit0       :      0.29s CPU      0.30s WALL (       1 calls)

     Called by electrons:
     c_bands      :      0.44s CPU      0.48s WALL (       5 calls)
     sum_band     :      0.09s CPU      0.10s WALL (       5 calls)
     v_of_rho     :      0.01s CPU      0.01s WALL (       6 calls)
     newd         :      0.02s CPU      0.03s WALL (       6 calls)
     mix_rho      :      0.00s CPU      0.00s WALL (       5 calls)

     Called by c_bands:
     init_us_2    :      0.01s CPU      0.01s WALL (     176 calls)
     cegterg      :      0.41s CPU      0.44s WALL (      80 calls)

     Called by sum_band:
     sum_band:bec :      0.00s CPU      0.00s WALL (      80 calls)
     addusdens    :      0.02s CPU      0.02s WALL (       5 calls)

     Called by *egterg:
     h_psi        :      0.32s CPU      0.35s WALL (     281 calls)
     s_psi        :      0.01s CPU      0.01s WALL (     281 calls)
     g_psi        :      0.00s CPU      0.00s WALL (     185 calls)
     cdiaghg      :      0.07s CPU      0.08s WALL (     265 calls)

     Called by h_psi:
     h_psi:pot    :      0.32s CPU      0.35s WALL (     281 calls)
     h_psi:calbec :      0.01s CPU      0.01s WALL (     281 calls)
     vloc_psi     :      0.30s CPU      0.33s WALL (     281 calls)
     add_vuspsi   :      0.01s CPU      0.01s WALL (     281 calls)

     General routines
     calbec       :      0.01s CPU      0.01s WALL (     361 calls)
     fft          :      0.01s CPU      0.01s WALL (      67 calls)
     ffts         :      0.00s CPU      0.00s WALL (       5 calls)
     fftw         :      0.31s CPU      0.34s WALL (    6138 calls)
 
     Parallel routines
     fft_scatt_xy :      0.06s CPU      0.06s WALL (    6210 calls)
     fft_scatt_yz :      0.08s CPU      0.09s WALL (    6210 calls)
 
     PWSCF        :     1.00s CPU         1.53s WALL

 
   This run was terminated on:  22:23:13   2Dec2021            

=------------------------------------------------------------------------------=
   JOB DONE.
=------------------------------------------------------------------------------=
