
     Program PWSCF v.6.3 starts on  2Dec2021 at 22:24: 2 

     This program is part of the open-source Quantum ESPRESSO suite
     for quantum simulation of materials; please cite
         "P. Giannozzi et al., J. Phys.:Condens. Matter 21 395502 (2009);
         "P. Giannozzi et al., J. Phys.:Condens. Matter 29 465901 (2017);
          URL http://www.quantum-espresso.org", 
     in publications or presentations arising from this work. More details at
     http://www.quantum-espresso.org/quote

     Parallel version (MPI & OpenMP), running on       2 processor cores
     Number of MPI processes:                 2
     Threads/MPI process:                     1

     MPI processes distributed on     1 nodes
     R & G space division:  proc/nbgrp/npool/nimage =       2
     Reading input from pw-input.in

     Current dimensions of program PWSCF are:
     Max number of different atomic species (ntypx) = 10
     Max number of k-points (npk) =  40000
     Max angular momentum in pseudopotentials (lmaxx) =  3

     Subspace diagonalization in iterative solution of the eigenvalue problem:
     a serial algorithm will be used

 
     Parallelization info
     --------------------
     sticks:   dense  smooth     PW     G-vecs:    dense   smooth      PW
     Min         174     174     60                 2142     2142     434
     Max         175     175     61                 2143     2143     435
     Sum         349     349    121                 4285     4285     869
 

     Title: 
     Pd-kp-conv                                                                 


     bravais-lattice index     =            2
     lattice parameter (alat)  =       8.5000  a.u.
     unit-cell volume          =     153.5312 (a.u.)^3
     number of atoms/cell      =            1
     number of atomic types    =            1
     number of electrons       =        16.00
     number of Kohn-Sham states=           12
     kinetic-energy cutoff     =      35.0000  Ry
     charge density cutoff     =     140.0000  Ry
     convergence threshold     =      1.0E-07
     mixing beta               =       0.7000
     number of iterations used =            8  plain     mixing
     Exchange-correlation      =  SLA  PW   PBX  PBC ( 1  4  3  4 0 0)

     celldm(1)=   8.500000  celldm(2)=   0.000000  celldm(3)=   0.000000
     celldm(4)=   0.000000  celldm(5)=   0.000000  celldm(6)=   0.000000

     crystal axes: (cart. coord. in units of alat)
               a(1) = (  -0.500000   0.000000   0.500000 )  
               a(2) = (   0.000000   0.500000   0.500000 )  
               a(3) = (  -0.500000   0.500000   0.000000 )  

     reciprocal axes: (cart. coord. in units 2 pi/alat)
               b(1) = ( -1.000000 -1.000000  1.000000 )  
               b(2) = (  1.000000  1.000000  1.000000 )  
               b(3) = ( -1.000000  1.000000 -1.000000 )  


     PseudoPot. # 1 for Pd read from file:
     ./pd_pbe_v1.4.uspp.F.UPF
     MD5 check sum: 2d733d2bc2cbfd217af676df1668a4bc
     Pseudo is Ultrasoft + core correction, Zval = 16.0
     Generated by new atomic code, or converted to UPF format
     Using radial grid of  887 points,  6 beta functions with: 
                l(1) =   0
                l(2) =   0
                l(3) =   1
                l(4) =   1
                l(5) =   2
                l(6) =   2
     Q(r) pseudized with  8 coefficients,  rinner =    1.130   1.130   1.130
                                                       1.130   1.130

     atomic species   valence    mass     pseudopotential
        Pd            16.00   106.40000     Pd( 1.00)

     48 Sym. Ops., with inversion, found



   Cartesian axes

     site n.     atom                  positions (alat units)
         1           Pd  tau(   1) = (   0.0000000   0.0000000   0.0000000  )

     number of k points=    16  Marzari-Vanderbilt smearing, width (Ry)=  0.0300
                       cart. coord. in units 2pi/alat
        k(    1) = (   0.0000000   0.0000000   0.0000000), wk =   0.0092593
        k(    2) = (  -0.1666667   0.1666667  -0.1666667), wk =   0.0740741
        k(    3) = (  -0.3333333   0.3333333  -0.3333333), wk =   0.0740741
        k(    4) = (   0.5000000  -0.5000000   0.5000000), wk =   0.0370370
        k(    5) = (   0.0000000   0.3333333   0.0000000), wk =   0.0555556
        k(    6) = (  -0.1666667   0.5000000  -0.1666667), wk =   0.2222222
        k(    7) = (   0.6666667  -0.3333333   0.6666667), wk =   0.2222222
        k(    8) = (   0.5000000  -0.1666667   0.5000000), wk =   0.2222222
        k(    9) = (   0.3333333   0.0000000   0.3333333), wk =   0.1111111
        k(   10) = (   0.0000000   0.6666667   0.0000000), wk =   0.0555556
        k(   11) = (   0.8333333  -0.1666667   0.8333333), wk =   0.2222222
        k(   12) = (   0.6666667  -0.0000000   0.6666667), wk =   0.1111111
        k(   13) = (   0.0000000  -1.0000000   0.0000000), wk =   0.0277778
        k(   14) = (   0.6666667  -0.3333333   1.0000000), wk =   0.2222222
        k(   15) = (   0.5000000  -0.1666667   0.8333333), wk =   0.2222222
        k(   16) = (  -0.3333333  -1.0000000   0.0000000), wk =   0.1111111

     Dense  grid:     4285 G-vectors     FFT dimensions: (  24,  24,  24)

     Estimated max dynamical RAM per process >       9.67 MB

     Estimated total dynamical RAM >      19.34 MB

     Check: negative/imaginary core charge=   -0.000001    0.000000

     Initial potential from superposition of free atoms
     Check: negative starting charge=   -0.084050

     starting charge   15.49999, renormalised to   16.00000

     negative rho (up, down):  8.676E-02 0.000E+00
     Starting wfcs are   12 randomized atomic wfcs

     total cpu time spent up to now is        0.6 secs

     Self-consistent Calculation

     iteration #  1     ecut=    35.00 Ry     beta= 0.70
     Davidson diagonalization with overlap
     ethr =  1.00E-02,  avg # of iterations =  3.1

     negative rho (up, down):  8.375E-02 0.000E+00

     total cpu time spent up to now is        0.8 secs

     total energy              =    -197.72806312 Ry
     Harris-Foulkes estimate   =    -199.06654355 Ry
     estimated scf accuracy    <       1.80196466 Ry

     iteration #  2     ecut=    35.00 Ry     beta= 0.70
     Davidson diagonalization with overlap
     ethr =  1.00E-02,  avg # of iterations =  2.0

     negative rho (up, down):  8.603E-02 0.000E+00

     total cpu time spent up to now is        1.0 secs

     total energy              =    -198.19974819 Ry
     Harris-Foulkes estimate   =    -199.48982881 Ry
     estimated scf accuracy    <       2.80484846 Ry

     iteration #  3     ecut=    35.00 Ry     beta= 0.70
     Davidson diagonalization with overlap
     ethr =  1.00E-02,  avg # of iterations =  2.0

     negative rho (up, down):  8.612E-02 0.000E+00

     total cpu time spent up to now is        1.2 secs

     total energy              =    -198.64021085 Ry
     Harris-Foulkes estimate   =    -198.64112411 Ry
     estimated scf accuracy    <       0.00281753 Ry

     iteration #  4     ecut=    35.00 Ry     beta= 0.70
     Davidson diagonalization with overlap
     ethr =  1.76E-05,  avg # of iterations =  3.1

     negative rho (up, down):  8.618E-02 0.000E+00

     total cpu time spent up to now is        1.4 secs

     total energy              =    -198.64068385 Ry
     Harris-Foulkes estimate   =    -198.64069911 Ry
     estimated scf accuracy    <       0.00006394 Ry

     iteration #  5     ecut=    35.00 Ry     beta= 0.70
     Davidson diagonalization with overlap
     ethr =  4.00E-07,  avg # of iterations =  2.1

     negative rho (up, down):  8.617E-02 0.000E+00

     total cpu time spent up to now is        1.6 secs

     total energy              =    -198.64069063 Ry
     Harris-Foulkes estimate   =    -198.64069079 Ry
     estimated scf accuracy    <       0.00000032 Ry

     iteration #  6     ecut=    35.00 Ry     beta= 0.70
     Davidson diagonalization with overlap
     ethr =  2.01E-09,  avg # of iterations =  2.1

     negative rho (up, down):  8.617E-02 0.000E+00

     total cpu time spent up to now is        1.8 secs

     End of self-consistent calculation

          k = 0.0000 0.0000 0.0000 (   537 PWs)   bands (ev):

   -38.9702 -38.9702 -38.9702   5.5310   8.4297   8.4297   8.4297   9.2124
     9.2124  26.3771  28.6775  28.6775

          k =-0.1667 0.1667-0.1667 (   540 PWs)   bands (ev):

   -38.9892 -38.9730 -38.9730   6.1969   8.3376   8.5621   8.5621   9.1938
     9.1938  23.8469  26.9264  28.4498

          k =-0.3333 0.3333-0.3333 (   531 PWs)   bands (ev):

   -39.0266 -38.9788 -38.9788   7.1128   8.5221   8.5221   9.3041   9.5189
     9.5189  18.2654  26.1838  27.4648

          k = 0.5000-0.5000 0.5000 (   544 PWs)   bands (ev):

   -39.0459 -38.9819 -38.9819   7.1187   8.4241   8.4241   9.7918   9.7918
    11.7273  14.4713  25.6112  26.7325

          k = 0.0000 0.3333 0.0000 (   540 PWs)   bands (ev):

   -38.9885 -38.9774 -38.9774   6.4211   8.1275   8.7332   8.7332   8.9555
     9.3496  25.9417  25.9417  26.2723

          k =-0.1667 0.5000-0.1667 (   537 PWs)   bands (ev):

   -39.0162 -38.9843 -38.9842   7.3727   8.0744   8.5529   8.8622   9.6104
     9.7873  20.4950  24.5330  25.4433

          k = 0.6667-0.3333 0.6667 (   540 PWs)   bands (ev):

   -39.0385 -38.9930 -38.9864   7.4493   8.2488   8.7300   8.8872   9.8111
    12.4106  15.5057  23.1598  24.6064

          k = 0.5000-0.1667 0.5000 (   541 PWs)   bands (ev):

   -39.0323 -38.9954 -38.9820   7.5392   8.3084   8.7199   8.8254   9.4413
    11.4923  17.0815  22.1136  26.5591

          k = 0.3333 0.0000 0.3333 (   537 PWs)   bands (ev):

   -39.0072 -38.9857 -38.9752   7.1231   8.1427   8.6067   8.8233   8.9482
     9.7737  22.2442  22.6691  28.3652

          k = 0.0000 0.6667 0.0000 (   540 PWs)   bands (ev):

   -39.0245 -38.9924 -38.9924   7.3945   7.5683   9.4707   9.4707   9.6314
    10.1417  21.8294  22.3435  22.3435

          k = 0.8333-0.1667 0.8333 (   528 PWs)   bands (ev):

   -39.0344 -39.0039 -38.9952   7.4237   7.6224   9.2044   9.4235   9.8595
    12.9232  18.0921  19.3201  21.9394

          k = 0.6667-0.0000 0.6667 (   528 PWs)   bands (ev):

   -39.0221 -39.0218 -38.9901   7.6974   8.1230   8.5795   9.1832   9.5812
    14.3548  16.6680  17.8011  23.6238

          k = 0.0000-1.0000 0.0000 (   524 PWs)   bands (ev):

   -39.0422 -38.9996 -38.9996   7.1836   7.3097   9.7787   9.9379   9.9379
    13.3091  16.9556  20.8150  20.8150

          k = 0.6667-0.3333 1.0000 (   535 PWs)   bands (ev):

   -39.0269 -39.0021 -38.9886   7.8764   7.8875   8.3748   9.3495   9.4629
    11.7215  19.5671  19.7838  22.6188

          k = 0.5000-0.1667 0.8333 (   534 PWs)   bands (ev):

   -39.0298 -39.0114 -38.9930   7.9274   7.9403   8.4338   9.1199   9.7579
    14.9639  15.1911  20.0281  20.9399

          k =-0.3333-1.0000 0.0000 (   530 PWs)   bands (ev):

   -39.0317 -39.0103 -39.0000   7.5861   7.7118   8.8613   9.3951   9.9376
    15.1880  17.0274  18.5016  19.1445

     the Fermi energy is     9.8752 ev

!    total energy              =    -198.64069073 Ry
     Harris-Foulkes estimate   =    -198.64069079 Ry
     estimated scf accuracy    <       0.00000008 Ry

     The total energy is the sum of the following terms:

     one-electron contribution =     -77.14800170 Ry
     hartree contribution      =      47.76014753 Ry
     xc contribution           =     -31.17100733 Ry
     ewald contribution        =    -138.08525782 Ry
     smearing contrib. (-TS)   =       0.00342859 Ry

     convergence has been achieved in   6 iterations

     Writing output data file Pd-kp-conv.save/
 
     init_run     :      0.44s CPU      0.46s WALL (       1 calls)
     electrons    :      1.14s CPU      1.56s WALL (       1 calls)

     Called by init_run:
     wfcinit      :      0.07s CPU      0.08s WALL (       1 calls)
     potinit      :      0.01s CPU      0.02s WALL (       1 calls)
     hinit0       :      0.34s CPU      0.34s WALL (       1 calls)

     Called by electrons:
     c_bands      :      0.86s CPU      0.91s WALL (       6 calls)
     sum_band     :      0.20s CPU      0.22s WALL (       6 calls)
     v_of_rho     :      0.03s CPU      0.03s WALL (       7 calls)
     newd         :      0.06s CPU      0.06s WALL (       7 calls)
     mix_rho      :      0.00s CPU      0.00s WALL (       6 calls)

     Called by c_bands:
     init_us_2    :      0.03s CPU      0.03s WALL (     208 calls)
     cegterg      :      0.79s CPU      0.83s WALL (      96 calls)

     Called by sum_band:
     sum_band:bec :      0.00s CPU      0.00s WALL (      96 calls)
     addusdens    :      0.05s CPU      0.05s WALL (       6 calls)

     Called by *egterg:
     h_psi        :      0.68s CPU      0.72s WALL (     341 calls)
     s_psi        :      0.01s CPU      0.01s WALL (     341 calls)
     g_psi        :      0.01s CPU      0.01s WALL (     229 calls)
     cdiaghg      :      0.08s CPU      0.09s WALL (     325 calls)

     Called by h_psi:
     h_psi:pot    :      0.68s CPU      0.72s WALL (     341 calls)
     h_psi:calbec :      0.01s CPU      0.02s WALL (     341 calls)
     vloc_psi     :      0.65s CPU      0.69s WALL (     341 calls)
     add_vuspsi   :      0.01s CPU      0.01s WALL (     341 calls)

     General routines
     calbec       :      0.02s CPU      0.02s WALL (     437 calls)
     fft          :      0.01s CPU      0.01s WALL (      78 calls)
     ffts         :      0.00s CPU      0.00s WALL (       6 calls)
     fftw         :      0.67s CPU      0.71s WALL (    7216 calls)
 
     Parallel routines
     fft_scatt_xy :      0.12s CPU      0.13s WALL (    7300 calls)
     fft_scatt_yz :      0.16s CPU      0.17s WALL (    7300 calls)
 
     PWSCF        :     1.67s CPU         2.22s WALL

 
   This run was terminated on:  22:24: 4   2Dec2021            

=------------------------------------------------------------------------------=
   JOB DONE.
=------------------------------------------------------------------------------=
