
     Program PWSCF v.6.3 starts on  2Dec2021 at 22: 0:46 

     This program is part of the open-source Quantum ESPRESSO suite
     for quantum simulation of materials; please cite
         "P. Giannozzi et al., J. Phys.:Condens. Matter 21 395502 (2009);
         "P. Giannozzi et al., J. Phys.:Condens. Matter 29 465901 (2017);
          URL http://www.quantum-espresso.org", 
     in publications or presentations arising from this work. More details at
     http://www.quantum-espresso.org/quote

     Parallel version (MPI & OpenMP), running on       2 processor cores
     Number of MPI processes:                 2
     Threads/MPI process:                     1

     MPI processes distributed on     1 nodes
     R & G space division:  proc/nbgrp/npool/nimage =       2
     Reading input from pw-input.in

     Current dimensions of program PWSCF are:
     Max number of different atomic species (ntypx) = 10
     Max number of k-points (npk) =  40000
     Max angular momentum in pseudopotentials (lmaxx) =  3

     Subspace diagonalization in iterative solution of the eigenvalue problem:
     a serial algorithm will be used

 
     Parallelization info
     --------------------
     sticks:   dense  smooth     PW     G-vecs:    dense   smooth      PW
     Min         132     132     45                 1445     1445     304
     Max         133     133     46                 1446     1446     305
     Sum         265     265     91                 2891     2891     609
 

     Title: 
     Pd-kp-conv                                                                 


     bravais-lattice index     =            2
     lattice parameter (alat)  =       7.5000  a.u.
     unit-cell volume          =     105.4688 (a.u.)^3
     number of atoms/cell      =            1
     number of atomic types    =            1
     number of electrons       =        16.00
     number of Kohn-Sham states=           12
     kinetic-energy cutoff     =      35.0000  Ry
     charge density cutoff     =     140.0000  Ry
     convergence threshold     =      1.0E-07
     mixing beta               =       0.7000
     number of iterations used =            8  plain     mixing
     Exchange-correlation      =  SLA  PW   PBX  PBC ( 1  4  3  4 0 0)

     celldm(1)=   7.500000  celldm(2)=   0.000000  celldm(3)=   0.000000
     celldm(4)=   0.000000  celldm(5)=   0.000000  celldm(6)=   0.000000

     crystal axes: (cart. coord. in units of alat)
               a(1) = (  -0.500000   0.000000   0.500000 )  
               a(2) = (   0.000000   0.500000   0.500000 )  
               a(3) = (  -0.500000   0.500000   0.000000 )  

     reciprocal axes: (cart. coord. in units 2 pi/alat)
               b(1) = ( -1.000000 -1.000000  1.000000 )  
               b(2) = (  1.000000  1.000000  1.000000 )  
               b(3) = ( -1.000000  1.000000 -1.000000 )  


     PseudoPot. # 1 for Pd read from file:
     ./pd_pbe_v1.4.uspp.F.UPF
     MD5 check sum: 2d733d2bc2cbfd217af676df1668a4bc
     Pseudo is Ultrasoft + core correction, Zval = 16.0
     Generated by new atomic code, or converted to UPF format
     Using radial grid of  887 points,  6 beta functions with: 
                l(1) =   0
                l(2) =   0
                l(3) =   1
                l(4) =   1
                l(5) =   2
                l(6) =   2
     Q(r) pseudized with  8 coefficients,  rinner =    1.130   1.130   1.130
                                                       1.130   1.130

     atomic species   valence    mass     pseudopotential
        Pd            16.00   106.40000     Pd( 1.00)

     48 Sym. Ops., with inversion, found



   Cartesian axes

     site n.     atom                  positions (alat units)
         1           Pd  tau(   1) = (   0.0000000   0.0000000   0.0000000  )

     number of k points=    35  Marzari-Vanderbilt smearing, width (Ry)=  0.0250
                       cart. coord. in units 2pi/alat
        k(    1) = (   0.0000000   0.0000000   0.0000000), wk =   0.0027435
        k(    2) = (  -0.1111111   0.1111111  -0.1111111), wk =   0.0219479
        k(    3) = (  -0.2222222   0.2222222  -0.2222222), wk =   0.0219479
        k(    4) = (  -0.3333333   0.3333333  -0.3333333), wk =   0.0219479
        k(    5) = (  -0.4444444   0.4444444  -0.4444444), wk =   0.0219479
        k(    6) = (   0.0000000   0.2222222   0.0000000), wk =   0.0164609
        k(    7) = (  -0.1111111   0.3333333  -0.1111111), wk =   0.0658436
        k(    8) = (  -0.2222222   0.4444444  -0.2222222), wk =   0.0658436
        k(    9) = (  -0.3333333   0.5555556  -0.3333333), wk =   0.0658436
        k(   10) = (   0.5555556  -0.3333333   0.5555556), wk =   0.0658436
        k(   11) = (   0.4444444  -0.2222222   0.4444444), wk =   0.0658436
        k(   12) = (   0.3333333  -0.1111111   0.3333333), wk =   0.0658436
        k(   13) = (   0.2222222  -0.0000000   0.2222222), wk =   0.0329218
        k(   14) = (   0.0000000   0.4444444   0.0000000), wk =   0.0164609
        k(   15) = (  -0.1111111   0.5555556  -0.1111111), wk =   0.0658436
        k(   16) = (  -0.2222222   0.6666667  -0.2222222), wk =   0.0658436
        k(   17) = (   0.6666667  -0.2222222   0.6666667), wk =   0.0658436
        k(   18) = (   0.5555556  -0.1111111   0.5555556), wk =   0.0658436
        k(   19) = (   0.4444444   0.0000000   0.4444444), wk =   0.0329218
        k(   20) = (   0.0000000   0.6666667   0.0000000), wk =   0.0164609
        k(   21) = (  -0.1111111   0.7777778  -0.1111111), wk =   0.0658436
        k(   22) = (   0.7777778  -0.1111111   0.7777778), wk =   0.0658436
        k(   23) = (   0.6666667  -0.0000000   0.6666667), wk =   0.0329218
        k(   24) = (   0.0000000   0.8888889   0.0000000), wk =   0.0164609
        k(   25) = (   0.8888889   0.0000000   0.8888889), wk =   0.0329218
        k(   26) = (  -0.2222222   0.4444444   0.0000000), wk =   0.0658436
        k(   27) = (  -0.3333333   0.5555556  -0.1111111), wk =   0.1316872
        k(   28) = (   0.5555556  -0.3333333   0.7777778), wk =   0.1316872
        k(   29) = (  -0.2222222   0.6666667   0.0000000), wk =   0.0658436
        k(   30) = (   0.6666667  -0.2222222   0.8888889), wk =   0.1316872
        k(   31) = (   0.5555556  -0.1111111   0.7777778), wk =   0.1316872
        k(   32) = (   0.4444444   0.0000000   0.6666667), wk =   0.0658436
        k(   33) = (   0.7777778  -0.1111111   1.0000000), wk =   0.0658436
        k(   34) = (   0.6666667  -0.0000000   0.8888889), wk =   0.0658436
        k(   35) = (   0.5555556  -0.1111111   1.0000000), wk =   0.0658436

     Dense  grid:     2891 G-vectors     FFT dimensions: (  20,  20,  20)

     Estimated max dynamical RAM per process >       7.40 MB

     Estimated total dynamical RAM >      14.80 MB

     Initial potential from superposition of free atoms
     Check: negative starting charge=   -0.084664

     starting charge   15.49999, renormalised to   16.00000

     negative rho (up, down):  8.740E-02 0.000E+00
     Starting wfcs are   12 randomized atomic wfcs

     total cpu time spent up to now is        0.5 secs

     Self-consistent Calculation

     iteration #  1     ecut=    35.00 Ry     beta= 0.70
     Davidson diagonalization with overlap
     ethr =  1.00E-02,  avg # of iterations =  3.7

     negative rho (up, down):  8.675E-02 0.000E+00

     total cpu time spent up to now is        0.8 secs

     total energy              =    -198.17717854 Ry
     Harris-Foulkes estimate   =    -199.03876292 Ry
     estimated scf accuracy    <       1.18688829 Ry

     iteration #  2     ecut=    35.00 Ry     beta= 0.70
     Davidson diagonalization with overlap
     ethr =  7.42E-03,  avg # of iterations =  2.0

     negative rho (up, down):  8.793E-02 0.000E+00

     total cpu time spent up to now is        1.1 secs

     total energy              =    -198.46567209 Ry
     Harris-Foulkes estimate   =    -199.03988598 Ry
     estimated scf accuracy    <       1.14579593 Ry

     iteration #  3     ecut=    35.00 Ry     beta= 0.70
     Davidson diagonalization with overlap
     ethr =  7.16E-03,  avg # of iterations =  2.0

     negative rho (up, down):  8.820E-02 0.000E+00

     total cpu time spent up to now is        1.3 secs

     total energy              =    -198.70052591 Ry
     Harris-Foulkes estimate   =    -198.70159963 Ry
     estimated scf accuracy    <       0.00228956 Ry

     iteration #  4     ecut=    35.00 Ry     beta= 0.70
     Davidson diagonalization with overlap
     ethr =  1.43E-05,  avg # of iterations =  2.3

     negative rho (up, down):  8.836E-02 0.000E+00

     total cpu time spent up to now is        1.6 secs

     total energy              =    -198.70127261 Ry
     Harris-Foulkes estimate   =    -198.70127509 Ry
     estimated scf accuracy    <       0.00001425 Ry

     iteration #  5     ecut=    35.00 Ry     beta= 0.70
     Davidson diagonalization with overlap
     ethr =  8.91E-08,  avg # of iterations =  2.0

     negative rho (up, down):  8.842E-02 0.000E+00

     total cpu time spent up to now is        1.9 secs

     total energy              =    -198.70127524 Ry
     Harris-Foulkes estimate   =    -198.70127495 Ry
     estimated scf accuracy    <       0.00000032 Ry

     iteration #  6     ecut=    35.00 Ry     beta= 0.70
     Davidson diagonalization with overlap
     ethr =  2.03E-09,  avg # of iterations =  2.0

     negative rho (up, down):  8.843E-02 0.000E+00

     total cpu time spent up to now is        2.1 secs

     End of self-consistent calculation

          k = 0.0000 0.0000 0.0000 (   339 PWs)   bands (ev):

   -32.2840 -32.2840 -32.2840  10.5652  14.6785  14.6785  14.6785  16.1470
    16.1470  35.0661  39.4969  39.4969

          k =-0.1111 0.1111-0.1111 (   359 PWs)   bands (ev):

   -32.3238 -32.2899 -32.2899  10.9834  14.5536  14.8082  14.8082  16.0936
    16.0936  35.2635  37.0354  39.8401

          k =-0.2222 0.2222-0.2222 (   359 PWs)   bands (ev):

   -32.4224 -32.3042 -32.3042  11.9798  14.5222  14.9608  14.9608  16.1895
    16.1895  32.4724  36.0355  40.4069

          k =-0.3333 0.3333-0.3333 (   359 PWs)   bands (ev):

   -32.5330 -32.3204 -32.3204  12.4882  14.8258  14.8258  15.7433  16.6992
    16.6992  28.3103  35.1601  39.6825

          k =-0.4444 0.4444-0.4444 (   368 PWs)   bands (ev):

   -32.6049 -32.3309 -32.3309  12.4296  14.6650  14.6650  17.1664  17.1664
    17.9140  24.8225  34.3963  38.4791

          k = 0.0000 0.2222 0.0000 (   355 PWs)   bands (ev):

   -32.3227 -32.2988 -32.2988  11.1235  14.3969  14.9243  14.9243  15.8639
    16.2634  35.5331  37.7834  38.6319

          k =-0.1111 0.3333-0.1111 (   360 PWs)   bands (ev):

   -32.3957 -32.3157 -32.3104  11.9636  14.1522  15.0814  15.1654  15.8535
    16.4188  34.0884  36.1836  37.7981

          k =-0.2222 0.4444-0.2222 (   368 PWs)   bands (ev):

   -32.4982 -32.3325 -32.3288  12.7169  14.5137  14.7851  15.1425  16.8302
    16.8382  29.8987  35.5194  37.0840

          k =-0.3333 0.5556-0.3333 (   371 PWs)   bands (ev):

   -32.5789 -32.3485 -32.3414  12.7154  14.5042  14.9605  15.6330  17.2246
    18.6601  25.9238  34.5730  36.7722

          k = 0.5556-0.3333 0.5556 (   370 PWs)   bands (ev):

   -32.6011 -32.3603 -32.3382  12.6841  14.4493  14.8681  16.1325  17.1415
    19.8470  24.2600  34.1060  36.5044

          k = 0.4444-0.2222 0.4444 (   363 PWs)   bands (ev):

   -32.5552 -32.3579 -32.3245  12.7878  14.6100  14.9584  15.4948  16.5735
    18.2794  27.2031  34.2101  36.8176

          k = 0.3333-0.1111 0.3333 (   366 PWs)   bands (ev):

   -32.4638 -32.3413 -32.3069  12.6058  14.3320  14.9429  15.1586  15.8989
    17.0366  31.3338  34.7025  38.3699

          k = 0.2222-0.0000 0.2222 (   361 PWs)   bands (ev):

   -32.3722 -32.3144 -32.2932  11.6268  14.3276  14.9972  15.0102  15.8211
    16.3533  35.1556  35.2016  38.7302

          k = 0.0000 0.4444 0.0000 (   355 PWs)   bands (ev):

   -32.4171 -32.3357 -32.3357  12.4342  13.7399  15.5098  15.6233  15.6233
    16.5677  35.8220  35.8220  35.9701

          k =-0.1111 0.5556-0.1111 (   359 PWs)   bands (ev):

   -32.4861 -32.3586 -32.3551  12.9772  13.5334  15.1980  15.8356  16.9086
    16.9607  31.8525  34.5405  34.9232

          k =-0.2222 0.6667-0.2222 (   370 PWs)   bands (ev):

   -32.5483 -32.3907 -32.3646  13.0462  13.8647  15.0063  15.6878  17.2842
    19.2868  27.6225  33.0950  34.1915

          k = 0.6667-0.2222 0.6667 (   372 PWs)   bands (ev):

   -32.5699 -32.4217 -32.3599  13.1481  14.0442  15.1001  15.5110  17.1716
    21.9374  24.3769  31.5645  35.0887

          k = 0.5556-0.1111 0.5556 (   374 PWs)   bands (ev):

   -32.5473 -32.4307 -32.3432  13.4245  14.1942  14.8385  15.4578  16.5647
    20.5305  26.6474  30.7113  36.5440

          k = 0.4444 0.0000 0.4444 (   367 PWs)   bands (ev):

   -32.5056 -32.3987 -32.3222  13.5316  14.0502  14.6463  15.5218  15.8588
    18.5235  30.4701  30.9905  37.3685

          k = 0.0000 0.6667 0.0000 (   355 PWs)   bands (ev):

   -32.5213 -32.3775 -32.3775  12.7930  13.0702  16.5965  16.5965  16.9315
    17.0325  32.6727  32.6727  32.7042

          k =-0.1111 0.7778-0.1111 (   368 PWs)   bands (ev):

   -32.5588 -32.4060 -32.3898  12.7467  12.9932  16.2676  16.6099  17.3137
    19.4689  29.6056  30.5471  31.9158

          k = 0.7778-0.1111 0.7778 (   367 PWs)   bands (ev):

   -32.5566 -32.4547 -32.3854  12.9032  13.3772  15.6225  16.3740  17.2680
    22.6207  26.0746  28.7357  32.6029

          k = 0.6667-0.0000 0.6667 (   375 PWs)   bands (ev):

   -32.5091 -32.5077 -32.3672  13.2949  13.9743  14.8439  16.0265  16.8218
    23.0624  25.9001  27.8816  34.5697

          k = 0.0000 0.8889 0.0000 (   367 PWs)   bands (ev):

   -32.5883 -32.4049 -32.4049  12.4211  12.6685  17.1787  17.3949  17.3949
    19.9485  28.3630  30.6418  30.6418

          k = 0.8889 0.0000 0.8889 (   365 PWs)   bands (ev):

   -32.5862 -32.4255 -32.4032  12.5176  12.7855  16.8257  17.0127  17.4377
    21.6300  27.4183  28.8409  30.9025

          k =-0.2222 0.4444 0.0000 (   362 PWs)   bands (ev):

   -32.4538 -32.3535 -32.3206  12.8166  13.8668  14.8710  15.6265  15.9118
    17.0731  32.9108  33.5744  37.4312

          k =-0.3333 0.5556-0.1111 (   367 PWs)   bands (ev):

   -32.5242 -32.3863 -32.3377  13.2458  14.2403  14.4845  15.5876  16.5579
    18.5459  28.9496  32.7918  35.4963

          k = 0.5556-0.3333 0.7778 (   370 PWs)   bands (ev):

   -32.5724 -32.4017 -32.3524  13.1465  14.1356  15.0891  15.4023  17.0696
    20.7593  25.1605  32.9491  34.0101

          k =-0.2222 0.6667 0.0000 (   371 PWs)   bands (ev):

   -32.5282 -32.3981 -32.3682  13.1775  13.3174  15.1645  16.5866  16.6384
    18.7274  30.8341  31.1928  32.9301

          k = 0.6667-0.2222 0.8889 (   371 PWs)   bands (ev):

   -32.5487 -32.4373 -32.3809  13.2300  13.6125  14.9012  16.2255  17.1602
    21.3283  27.0274  30.8438  31.2640

          k = 0.5556-0.1111 0.7778 (   374 PWs)   bands (ev):

   -32.5385 -32.4690 -32.3765  13.4905  13.8601  14.6372  15.9238  17.0885
    23.3499  24.9036  29.4660  32.2354

          k = 0.4444 0.0000 0.6667 (   373 PWs)   bands (ev):

   -32.5303 -32.4495 -32.3574  13.9544  14.0015  14.0253  15.9807  16.6017
    20.7345  28.5437  28.8448  33.8364

          k = 0.7778-0.1111 1.0000 (   367 PWs)   bands (ev):

   -32.5701 -32.4270 -32.4044  12.7628  12.9774  16.0503  16.8545  17.3935
    21.5535  28.3258  29.4409  29.6427

          k = 0.6667-0.0000 0.8889 (   378 PWs)   bands (ev):

   -32.5455 -32.4687 -32.3996  13.0439  13.4214  15.3045  16.3844  17.3857
    24.0052  26.2084  27.6225  30.5224

          k = 0.5556-0.1111 1.0000 (   371 PWs)   bands (ev):

   -32.5234 -32.4825 -32.4022  13.3813  13.8845  14.4611  16.1399  17.3889
    23.9761  26.8678  27.8870  29.3928

     the Fermi energy is    17.2830 ev

!    total energy              =    -198.70127530 Ry
     Harris-Foulkes estimate   =    -198.70127530 Ry
     estimated scf accuracy    <          2.2E-09 Ry

     The total energy is the sum of the following terms:

     one-electron contribution =     -47.91252982 Ry
     hartree contribution      =      37.03350308 Ry
     xc contribution           =     -31.32540409 Ry
     ewald contribution        =    -156.49662553 Ry
     smearing contrib. (-TS)   =      -0.00021894 Ry

     convergence has been achieved in   6 iterations

     Writing output data file Pd-kp-conv.save/
 
     init_run     :      0.37s CPU      0.40s WALL (       1 calls)
     electrons    :      1.47s CPU      1.66s WALL (       1 calls)

     Called by init_run:
     wfcinit      :      0.08s CPU      0.10s WALL (       1 calls)
     potinit      :      0.00s CPU      0.01s WALL (       1 calls)
     hinit0       :      0.28s CPU      0.28s WALL (       1 calls)

     Called by electrons:
     c_bands      :      1.20s CPU      1.31s WALL (       6 calls)
     sum_band     :      0.23s CPU      0.25s WALL (       6 calls)
     v_of_rho     :      0.02s CPU      0.02s WALL (       7 calls)
     newd         :      0.03s CPU      0.03s WALL (       7 calls)
     mix_rho      :      0.00s CPU      0.00s WALL (       6 calls)

     Called by c_bands:
     init_us_2    :      0.04s CPU      0.04s WALL (     455 calls)
     cegterg      :      1.10s CPU      1.20s WALL (     210 calls)

     Called by sum_band:
     sum_band:bec :      0.00s CPU      0.00s WALL (     210 calls)
     addusdens    :      0.03s CPU      0.03s WALL (       6 calls)

     Called by *egterg:
     h_psi        :      0.82s CPU      0.91s WALL (     737 calls)
     s_psi        :      0.02s CPU      0.02s WALL (     737 calls)
     g_psi        :      0.01s CPU      0.01s WALL (     492 calls)
     cdiaghg      :      0.19s CPU      0.20s WALL (     702 calls)

     Called by h_psi:
     h_psi:pot    :      0.82s CPU      0.90s WALL (     737 calls)
     h_psi:calbec :      0.03s CPU      0.03s WALL (     737 calls)
     vloc_psi     :      0.76s CPU      0.84s WALL (     737 calls)
     add_vuspsi   :      0.02s CPU      0.03s WALL (     737 calls)

     General routines
     calbec       :      0.04s CPU      0.04s WALL (     947 calls)
     fft          :      0.01s CPU      0.01s WALL (      78 calls)
     ffts         :      0.00s CPU      0.00s WALL (       6 calls)
     fftw         :      0.81s CPU      0.89s WALL (   15672 calls)
 
     Parallel routines
     fft_scatt_xy :      0.14s CPU      0.15s WALL (   15756 calls)
     fft_scatt_yz :      0.26s CPU      0.29s WALL (   15756 calls)
 
     PWSCF        :     1.92s CPU         2.34s WALL

 
   This run was terminated on:  22: 0:48   2Dec2021            

=------------------------------------------------------------------------------=
   JOB DONE.
=------------------------------------------------------------------------------=
