
     Program PWSCF v.6.3 starts on  2Dec2021 at 22: 2: 5 

     This program is part of the open-source Quantum ESPRESSO suite
     for quantum simulation of materials; please cite
         "P. Giannozzi et al., J. Phys.:Condens. Matter 21 395502 (2009);
         "P. Giannozzi et al., J. Phys.:Condens. Matter 29 465901 (2017);
          URL http://www.quantum-espresso.org", 
     in publications or presentations arising from this work. More details at
     http://www.quantum-espresso.org/quote

     Parallel version (MPI & OpenMP), running on       2 processor cores
     Number of MPI processes:                 2
     Threads/MPI process:                     1

     MPI processes distributed on     1 nodes
     R & G space division:  proc/nbgrp/npool/nimage =       2
     Reading input from pw-input.in

     Current dimensions of program PWSCF are:
     Max number of different atomic species (ntypx) = 10
     Max number of k-points (npk) =  40000
     Max angular momentum in pseudopotentials (lmaxx) =  3

     Subspace diagonalization in iterative solution of the eigenvalue problem:
     a serial algorithm will be used

 
     Parallelization info
     --------------------
     sticks:   dense  smooth     PW     G-vecs:    dense   smooth      PW
     Min         126     126     45                 1365     1365     280
     Max         127     127     46                 1368     1368     281
     Sum         253     253     91                 2733     2733     561
 

     Title: 
     Pd-kp-conv                                                                 


     bravais-lattice index     =            2
     lattice parameter (alat)  =       7.3000  a.u.
     unit-cell volume          =      97.2542 (a.u.)^3
     number of atoms/cell      =            1
     number of atomic types    =            1
     number of electrons       =        16.00
     number of Kohn-Sham states=           12
     kinetic-energy cutoff     =      35.0000  Ry
     charge density cutoff     =     140.0000  Ry
     convergence threshold     =      1.0E-07
     mixing beta               =       0.7000
     number of iterations used =            8  plain     mixing
     Exchange-correlation      =  SLA  PW   PBX  PBC ( 1  4  3  4 0 0)

     celldm(1)=   7.300000  celldm(2)=   0.000000  celldm(3)=   0.000000
     celldm(4)=   0.000000  celldm(5)=   0.000000  celldm(6)=   0.000000

     crystal axes: (cart. coord. in units of alat)
               a(1) = (  -0.500000   0.000000   0.500000 )  
               a(2) = (   0.000000   0.500000   0.500000 )  
               a(3) = (  -0.500000   0.500000   0.000000 )  

     reciprocal axes: (cart. coord. in units 2 pi/alat)
               b(1) = ( -1.000000 -1.000000  1.000000 )  
               b(2) = (  1.000000  1.000000  1.000000 )  
               b(3) = ( -1.000000  1.000000 -1.000000 )  


     PseudoPot. # 1 for Pd read from file:
     ./pd_pbe_v1.4.uspp.F.UPF
     MD5 check sum: 2d733d2bc2cbfd217af676df1668a4bc
     Pseudo is Ultrasoft + core correction, Zval = 16.0
     Generated by new atomic code, or converted to UPF format
     Using radial grid of  887 points,  6 beta functions with: 
                l(1) =   0
                l(2) =   0
                l(3) =   1
                l(4) =   1
                l(5) =   2
                l(6) =   2
     Q(r) pseudized with  8 coefficients,  rinner =    1.130   1.130   1.130
                                                       1.130   1.130

     atomic species   valence    mass     pseudopotential
        Pd            16.00   106.40000     Pd( 1.00)

     48 Sym. Ops., with inversion, found



   Cartesian axes

     site n.     atom                  positions (alat units)
         1           Pd  tau(   1) = (   0.0000000   0.0000000   0.0000000  )

     number of k points=    72  Marzari-Vanderbilt smearing, width (Ry)=  0.0250
                       cart. coord. in units 2pi/alat
        k(    1) = (   0.0000000   0.0000000   0.0000000), wk =   0.0011574
        k(    2) = (  -0.0833333   0.0833333  -0.0833333), wk =   0.0092593
        k(    3) = (  -0.1666667   0.1666667  -0.1666667), wk =   0.0092593
        k(    4) = (  -0.2500000   0.2500000  -0.2500000), wk =   0.0092593
        k(    5) = (  -0.3333333   0.3333333  -0.3333333), wk =   0.0092593
        k(    6) = (  -0.4166667   0.4166667  -0.4166667), wk =   0.0092593
        k(    7) = (   0.5000000  -0.5000000   0.5000000), wk =   0.0046296
        k(    8) = (   0.0000000   0.1666667   0.0000000), wk =   0.0069444
        k(    9) = (  -0.0833333   0.2500000  -0.0833333), wk =   0.0277778
        k(   10) = (  -0.1666667   0.3333333  -0.1666667), wk =   0.0277778
        k(   11) = (  -0.2500000   0.4166667  -0.2500000), wk =   0.0277778
        k(   12) = (  -0.3333333   0.5000000  -0.3333333), wk =   0.0277778
        k(   13) = (   0.5833333  -0.4166667   0.5833333), wk =   0.0277778
        k(   14) = (   0.5000000  -0.3333333   0.5000000), wk =   0.0277778
        k(   15) = (   0.4166667  -0.2500000   0.4166667), wk =   0.0277778
        k(   16) = (   0.3333333  -0.1666667   0.3333333), wk =   0.0277778
        k(   17) = (   0.2500000  -0.0833333   0.2500000), wk =   0.0277778
        k(   18) = (   0.1666667  -0.0000000   0.1666667), wk =   0.0138889
        k(   19) = (   0.0000000   0.3333333   0.0000000), wk =   0.0069444
        k(   20) = (  -0.0833333   0.4166667  -0.0833333), wk =   0.0277778
        k(   21) = (  -0.1666667   0.5000000  -0.1666667), wk =   0.0277778
        k(   22) = (  -0.2500000   0.5833333  -0.2500000), wk =   0.0277778
        k(   23) = (   0.6666667  -0.3333333   0.6666667), wk =   0.0277778
        k(   24) = (   0.5833333  -0.2500000   0.5833333), wk =   0.0277778
        k(   25) = (   0.5000000  -0.1666667   0.5000000), wk =   0.0277778
        k(   26) = (   0.4166667  -0.0833333   0.4166667), wk =   0.0277778
        k(   27) = (   0.3333333   0.0000000   0.3333333), wk =   0.0138889
        k(   28) = (   0.0000000   0.5000000   0.0000000), wk =   0.0069444
        k(   29) = (  -0.0833333   0.5833333  -0.0833333), wk =   0.0277778
        k(   30) = (  -0.1666667   0.6666667  -0.1666667), wk =   0.0277778
        k(   31) = (   0.7500000  -0.2500000   0.7500000), wk =   0.0277778
        k(   32) = (   0.6666667  -0.1666667   0.6666667), wk =   0.0277778
        k(   33) = (   0.5833333  -0.0833333   0.5833333), wk =   0.0277778
        k(   34) = (   0.5000000   0.0000000   0.5000000), wk =   0.0138889
        k(   35) = (   0.0000000   0.6666667   0.0000000), wk =   0.0069444
        k(   36) = (  -0.0833333   0.7500000  -0.0833333), wk =   0.0277778
        k(   37) = (   0.8333333  -0.1666667   0.8333333), wk =   0.0277778
        k(   38) = (   0.7500000  -0.0833333   0.7500000), wk =   0.0277778
        k(   39) = (   0.6666667  -0.0000000   0.6666667), wk =   0.0138889
        k(   40) = (   0.0000000   0.8333333   0.0000000), wk =   0.0069444
        k(   41) = (   0.9166667  -0.0833333   0.9166667), wk =   0.0277778
        k(   42) = (   0.8333333   0.0000000   0.8333333), wk =   0.0138889
        k(   43) = (   0.0000000  -1.0000000   0.0000000), wk =   0.0034722
        k(   44) = (  -0.1666667   0.3333333   0.0000000), wk =   0.0277778
        k(   45) = (  -0.2500000   0.4166667  -0.0833333), wk =   0.0555556
        k(   46) = (  -0.3333333   0.5000000  -0.1666667), wk =   0.0555556
        k(   47) = (   0.5833333  -0.4166667   0.7500000), wk =   0.0555556
        k(   48) = (   0.5000000  -0.3333333   0.6666667), wk =   0.0277778
        k(   49) = (  -0.1666667   0.5000000   0.0000000), wk =   0.0277778
        k(   50) = (  -0.2500000   0.5833333  -0.0833333), wk =   0.0555556
        k(   51) = (   0.6666667  -0.3333333   0.8333333), wk =   0.0555556
        k(   52) = (   0.5833333  -0.2500000   0.7500000), wk =   0.0555556
        k(   53) = (   0.5000000  -0.1666667   0.6666667), wk =   0.0555556
        k(   54) = (   0.4166667  -0.0833333   0.5833333), wk =   0.0555556
        k(   55) = (   0.3333333   0.0000000   0.5000000), wk =   0.0277778
        k(   56) = (  -0.1666667   0.6666667  -0.0000000), wk =   0.0277778
        k(   57) = (   0.7500000  -0.2500000   0.9166667), wk =   0.0555556
        k(   58) = (   0.6666667  -0.1666667   0.8333333), wk =   0.0555556
        k(   59) = (   0.5833333  -0.0833333   0.7500000), wk =   0.0555556
        k(   60) = (   0.5000000   0.0000000   0.6666667), wk =   0.0277778
        k(   61) = (   0.8333333  -0.1666667   1.0000000), wk =   0.0277778
        k(   62) = (   0.7500000  -0.0833333   0.9166667), wk =   0.0555556
        k(   63) = (   0.6666667   0.0000000   0.8333333), wk =   0.0277778
        k(   64) = (  -0.1666667  -1.0000000  -0.0000000), wk =   0.0138889
        k(   65) = (   0.6666667  -0.3333333   1.0000000), wk =   0.0277778
        k(   66) = (   0.5833333  -0.2500000   0.9166667), wk =   0.0555556
        k(   67) = (   0.5000000  -0.1666667   0.8333333), wk =   0.0277778
        k(   68) = (   0.6666667  -0.1666667   1.0000000), wk =   0.0277778
        k(   69) = (   0.5833333  -0.0833333   0.9166667), wk =   0.0555556
        k(   70) = (   0.5000000   0.0000000   0.8333333), wk =   0.0277778
        k(   71) = (  -0.3333333  -1.0000000   0.0000000), wk =   0.0138889
        k(   72) = (  -0.5000000  -1.0000000   0.0000000), wk =   0.0069444

     Dense  grid:     2733 G-vectors     FFT dimensions: (  20,  20,  20)

     Estimated max dynamical RAM per process >       8.16 MB

     Estimated total dynamical RAM >      16.32 MB

     Initial potential from superposition of free atoms
     Check: negative starting charge=   -0.084718

     starting charge   15.49999, renormalised to   16.00000

     negative rho (up, down):  8.745E-02 0.000E+00
     Starting wfcs are   12 randomized atomic wfcs

     total cpu time spent up to now is        0.5 secs

     Self-consistent Calculation

     iteration #  1     ecut=    35.00 Ry     beta= 0.70
     Davidson diagonalization with overlap
     ethr =  1.00E-02,  avg # of iterations =  3.6

     negative rho (up, down):  8.698E-02 0.000E+00

     total cpu time spent up to now is        1.2 secs

     total energy              =    -198.24930160 Ry
     Harris-Foulkes estimate   =    -199.00998963 Ry
     estimated scf accuracy    <       1.05399497 Ry

     iteration #  2     ecut=    35.00 Ry     beta= 0.70
     Davidson diagonalization with overlap
     ethr =  6.59E-03,  avg # of iterations =  2.0

     negative rho (up, down):  8.821E-02 0.000E+00

     total cpu time spent up to now is        1.7 secs

     total energy              =    -198.51489811 Ry
     Harris-Foulkes estimate   =    -198.95895349 Ry
     estimated scf accuracy    <       0.86032460 Ry

     iteration #  3     ecut=    35.00 Ry     beta= 0.70
     Davidson diagonalization with overlap
     ethr =  5.38E-03,  avg # of iterations =  2.0

     negative rho (up, down):  8.858E-02 0.000E+00

     total cpu time spent up to now is        2.2 secs

     total energy              =    -198.69819301 Ry
     Harris-Foulkes estimate   =    -198.69928828 Ry
     estimated scf accuracy    <       0.00229551 Ry

     iteration #  4     ecut=    35.00 Ry     beta= 0.70
     Davidson diagonalization with overlap
     ethr =  1.43E-05,  avg # of iterations =  2.2

     negative rho (up, down):  8.874E-02 0.000E+00

     total cpu time spent up to now is        2.7 secs

     total energy              =    -198.69886527 Ry
     Harris-Foulkes estimate   =    -198.69888126 Ry
     estimated scf accuracy    <       0.00003722 Ry

     iteration #  5     ecut=    35.00 Ry     beta= 0.70
     Davidson diagonalization with overlap
     ethr =  2.33E-07,  avg # of iterations =  2.0

     negative rho (up, down):  8.879E-02 0.000E+00

     total cpu time spent up to now is        3.2 secs

     total energy              =    -198.69887299 Ry
     Harris-Foulkes estimate   =    -198.69887279 Ry
     estimated scf accuracy    <       0.00000013 Ry

     iteration #  6     ecut=    35.00 Ry     beta= 0.70
     Davidson diagonalization with overlap
     ethr =  8.31E-10,  avg # of iterations =  2.2

     negative rho (up, down):  8.880E-02 0.000E+00

     total cpu time spent up to now is        3.8 secs

     End of self-consistent calculation

          k = 0.0000 0.0000 0.0000 (   331 PWs)   bands (ev):

   -30.4191 -30.4191 -30.4191  11.9899  16.3699  16.3699  16.3699  18.0444
    18.0444  37.2783  42.1915  42.1915

          k =-0.0833 0.0833-0.0833 (   332 PWs)   bands (ev):

   -30.4496 -30.4234 -30.4234  12.2466  16.2812  16.4584  16.4584  18.0044
    18.0044  37.5138  40.5051  42.4524

          k =-0.1667 0.1667-0.1667 (   332 PWs)   bands (ev):

   -30.5320 -30.4350 -30.4350  12.9391  16.1301  16.6367  16.6367  17.9796
    17.9796  37.0972  38.5432  43.1052

          k =-0.2500 0.2500-0.2500 (   344 PWs)   bands (ev):

   -30.6443 -30.4511 -30.4511  13.7029  16.3458  16.6735  16.6735  18.2026
    18.2026  34.2062  38.2518  43.6094

          k =-0.3333 0.3333-0.3333 (   344 PWs)   bands (ev):

   -30.7549 -30.4670 -30.4670  13.9574  16.5312  16.5312  17.5215  18.6747
    18.6747  31.0529  37.4693  42.8881

          k =-0.4167 0.4167-0.4167 (   344 PWs)   bands (ev):

   -30.8352 -30.4785 -30.4785  13.8912  16.3800  16.3800  19.1186  19.1186
    19.2668  28.2242  36.7650  41.7464

          k = 0.5000-0.5000 0.5000 (   344 PWs)   bands (ev):

   -30.8643 -30.4828 -30.4828  13.8415  16.3199  16.3199  19.2978  19.2978
    20.2911  26.8470  36.5053  41.2848

          k = 0.0000 0.1667 0.0000 (   335 PWs)   bands (ev):

   -30.4487 -30.4304 -30.4304  12.3325  16.1812  16.5280  16.5280  17.8515
    18.1205  37.6288  40.9413  41.8551

          k =-0.0833 0.2500-0.0833 (   334 PWs)   bands (ev):

   -30.5101 -30.4443 -30.4384  12.8869  15.9794  16.7161  16.7245  17.7010
    18.1925  37.8334  38.9127  41.5872

          k =-0.1667 0.3333-0.1667 (   337 PWs)   bands (ev):

   -30.6103 -30.4615 -30.4520  13.6835  15.9191  16.7337  16.8405  17.9244
    18.3968  35.3977  38.4859  41.3471

          k =-0.2500 0.4167-0.2500 (   337 PWs)   bands (ev):

   -30.7189 -30.4774 -30.4702  14.1171  16.4819  16.5520  16.7572  18.7185
    18.8017  32.2186  37.8376  40.8876

          k =-0.3333 0.5000-0.3333 (   342 PWs)   bands (ev):

   -30.8069 -30.4883 -30.4877  14.0897  16.2854  16.5953  17.5907  19.1867
    19.9840  29.1600  37.0672  40.4368

          k = 0.5833-0.4167 0.5833 (   342 PWs)   bands (ev):

   -30.8516 -30.5012 -30.4897  14.0174  16.1849  16.4835  18.2699  19.3099
    21.3072  27.0212  36.6385  40.3330

          k = 0.5000-0.3333 0.5000 (   342 PWs)   bands (ev):

   -30.8419 -30.5052 -30.4828  14.0422  16.2271  16.4816  18.2480  19.0711
    21.0343  27.5515  36.6681  39.8957

          k = 0.4167-0.2500 0.4167 (   344 PWs)   bands (ev):

   -30.7805 -30.4992 -30.4691  14.1384  16.3816  16.5965  17.4209  18.5573
    19.8459  30.1552  37.1120  40.2881

          k = 0.3333-0.1667 0.3333 (   339 PWs)   bands (ev):

   -30.6832 -30.4844 -30.4517  14.0665  16.2597  16.6665  16.7723  17.9863
    18.9642  33.2974  37.7512  41.2848

          k = 0.2500-0.0833 0.2500 (   333 PWs)   bands (ev):

   -30.5760 -30.4642 -30.4355  13.4266  15.9508  16.7392  16.7994  17.6917
    18.3835  36.3719  38.1494  41.7661

          k = 0.1667-0.0000 0.1667 (   333 PWs)   bands (ev):

   -30.4903 -30.4420 -30.4253  12.6549  16.1159  16.5854  16.6280  17.8105
    18.1197  37.7780  39.1530  41.6643

          k = 0.0000 0.3333 0.0000 (   335 PWs)   bands (ev):

   -30.5283 -30.4609 -30.4609  13.2570  15.6957  16.9904  16.9904  17.4236
    18.3326  38.5232  39.3989  40.3806

          k =-0.0833 0.4167-0.0833 (   338 PWs)   bands (ev):

   -30.6006 -30.4804 -30.4774  13.9150  15.4482  16.9074  17.2348  17.7847
    18.5241  36.8509  38.8174  39.4397

          k =-0.1667 0.5000-0.1667 (   335 PWs)   bands (ev):

   -30.6919 -30.4985 -30.4975  14.4306  15.5457  16.5619  17.2483  18.8930
    18.9031  33.6353  38.1080  38.7435

          k =-0.2500 0.5833-0.2500 (   334 PWs)   bands (ev):

   -30.7719 -30.5242 -30.5078  14.4558  15.9319  16.5598  17.1037  19.2528
    20.5397  30.3855  37.0894  38.4260

          k = 0.6667-0.3333 0.6667 (   335 PWs)   bands (ev):

   -30.8194 -30.5481 -30.5084  14.4164  15.8705  16.9521  17.1030  19.3436
    22.4409  27.6297  36.2082  38.7342

          k = 0.5833-0.2500 0.5833 (   344 PWs)   bands (ev):

   -30.8235 -30.5631 -30.4994  14.4702  15.8773  16.8792  17.3109  19.0631
    23.0007  27.1177  35.6009  38.8535

          k = 0.5000-0.1667 0.5000 (   347 PWs)   bands (ev):

   -30.7846 -30.5629 -30.4830  14.6173  16.0317  16.8984  16.9254  18.4978
    21.5686  29.5459  35.3794  39.1145

          k = 0.4167-0.0833 0.4167 (   338 PWs)   bands (ev):

   -30.7156 -30.5443 -30.4633  14.7227  15.9360  16.4443  17.0906  17.8348
    20.1966  32.6554  35.5702  40.1414

          k = 0.3333 0.0000 0.3333 (   341 PWs)   bands (ev):

   -30.6395 -30.5084 -30.4461  14.2216  15.7073  16.6582  17.1791  17.4118
    19.1260  35.4217  36.3475  41.9067

          k = 0.0000 0.5000 0.0000 (   343 PWs)   bands (ev):

   -30.6352 -30.5027 -30.5027  14.2108  15.0896  17.4370  17.7039  17.7039
    18.6312  37.9227  37.9227  38.0743

          k =-0.0833 0.5833-0.0833 (   337 PWs)   bands (ev):

   -30.6984 -30.5264 -30.5220  14.4513  14.8855  17.2901  17.9182  18.9121
    18.9221  35.1103  36.8606  37.2152

          k =-0.1667 0.6667-0.1667 (   336 PWs)   bands (ev):

   -30.7569 -30.5595 -30.5335  14.4914  15.0406  17.0449  17.8268  19.2931
    20.8040  31.8506  35.7445  36.3898

          k = 0.7500-0.2500 0.7500 (   346 PWs)   bands (ev):

   -30.7894 -30.5989 -30.5344  14.5330  15.3365  16.8758  17.6514  19.3907
    23.1027  28.7938  34.3636  36.6800

          k = 0.6667-0.1667 0.6667 (   346 PWs)   bands (ev):

   -30.7883 -30.6328 -30.5238  14.7266  15.5655  16.7251  17.5030  19.1085
    24.9580  26.9560  33.2321  37.7938

          k = 0.5833-0.0833 0.5833 (   341 PWs)   bands (ev):

   -30.7634 -30.6427 -30.5050  15.0483  15.7619  16.3809  17.4220  18.5580
    23.4535  29.2574  32.5245  39.2982

          k = 0.5000 0.0000 0.5000 (   339 PWs)   bands (ev):

   -30.7390 -30.6084 -30.4829  15.3062  15.7377  16.1421  17.3636  17.9984
    21.7078  32.2559  32.5081  39.5793

          k = 0.0000 0.6667 0.0000 (   335 PWs)   bands (ev):

   -30.7387 -30.5440 -30.5440  14.2497  14.5374  18.5559  18.5559  18.9428
    18.9438  35.4357  35.4357  35.5596

          k =-0.0833 0.7500-0.0833 (   335 PWs)   bands (ev):

   -30.7797 -30.5698 -30.5578  14.1740  14.4221  18.3075  18.6208  19.2903
    20.8457  33.2319  33.9066  34.6784

          k = 0.8333-0.1667 0.8333 (   338 PWs)   bands (ev):

   -30.7950 -30.6122 -30.5598  14.2267  14.6184  17.8190  18.4447  19.4507
    23.2378  30.3753  32.4061  34.7854

          k = 0.7500-0.0833 0.7500 (   345 PWs)   bands (ev):

   -30.7742 -30.6664 -30.5495  14.4362  15.0465  17.2159  18.2122  19.2207
    25.8708  27.7860  31.1607  35.7921

          k = 0.6667-0.0000 0.6667 (   347 PWs)   bands (ev):

   -30.7213 -30.7191 -30.5296  14.7911  15.5602  16.5503  17.8943  18.8176
    25.4635  28.4773  30.6255  37.5046

          k = 0.0000 0.8333 0.0000 (   335 PWs)   bands (ev):

   -30.8131 -30.5743 -30.5743  13.8938  14.1601  19.1807  19.3097  19.3097
    21.2831  32.1711  33.5935  33.5935

          k = 0.9167-0.0833 0.9167 (   340 PWs)   bands (ev):

   -30.8255 -30.5952 -30.5786  13.8803  14.1658  19.0065  19.0733  19.5344
    22.9627  30.8427  32.1371  33.4120

          k = 0.8333 0.0000 0.8333 (   343 PWs)   bands (ev):

   -30.8066 -30.6335 -30.5695  14.0895  14.4784  18.1620  18.7810  19.4112
    24.8411  29.7217  30.5154  34.2143

          k = 0.0000-1.0000 0.0000 (   342 PWs)   bands (ev):

   -30.8402 -30.5855 -30.5855  13.7314  14.0271  19.2692  19.6253  19.6253
    22.6914  30.3574  32.9002  32.9002

          k =-0.1667 0.3333 0.0000 (   334 PWs)   bands (ev):

   -30.5686 -30.4736 -30.4464  13.5244  15.7344  16.7992  16.9954  17.5946
    18.4433  37.4005  37.7801  41.1124

          k =-0.2500 0.4167-0.0833 (   336 PWs)   bands (ev):

   -30.6562 -30.5028 -30.4600  14.2705  15.6835  16.5724  17.1443  17.8896
    19.0659  34.6175  37.2597  40.5374

          k =-0.3333 0.5000-0.1667 (   337 PWs)   bands (ev):

   -30.7459 -30.5245 -30.4778  14.4744  16.2568  16.3231  17.0258  18.5443
    20.1086  31.4074  36.8088  39.1919

          k = 0.5833-0.4167 0.7500 (   342 PWs)   bands (ev):

   -30.8120 -30.5371 -30.4934  14.3767  16.0194  16.8005  17.2288  19.0526
    21.5952  28.4348  36.5210  38.3846

          k = 0.5000-0.3333 0.6667 (   342 PWs)   bands (ev):

   -30.8361 -30.5408 -30.4997  14.3247  15.9327  16.7674  17.5496  19.2185
    22.6891  26.8333  36.4340  38.1567

          k =-0.1667 0.5000 0.0000 (   335 PWs)   bands (ev):

   -30.6605 -30.5168 -30.4884  14.4541  15.1988  16.7268  17.6983  18.0541
    19.0502  35.8603  36.5502  39.0616

          k =-0.2500 0.5833-0.0833 (   338 PWs)   bands (ev):

   -30.7272 -30.5504 -30.5046  14.7334  15.3136  16.4502  17.7263  18.6447
    20.2679  32.8782  35.7728  37.5634

          k = 0.6667-0.3333 0.8333 (   333 PWs)   bands (ev):

   -30.7793 -30.5776 -30.5187  14.6968  15.6091  16.4377  17.5347  19.1256
    22.0793  29.6990  35.6518  36.2406

          k = 0.5833-0.2500 0.7500 (   344 PWs)   bands (ev):

   -30.8024 -30.5988 -30.5220  14.7427  15.5824  16.7297  17.3395  19.2063
    24.0656  27.1693  35.0019  36.2352

          k = 0.5000-0.1667 0.6667 (   343 PWs)   bands (ev):

   -30.7918 -30.6071 -30.5121  14.8824  15.6217  16.6393  17.3133  18.9356
    23.5506  28.0086  34.2497  37.0874

          k = 0.4167-0.0833 0.5833 (   341 PWs)   bands (ev):

   -30.7548 -30.5939 -30.4939  15.0614  15.8585  16.0303  17.4722  18.3931
    21.7545  30.9324  33.9948  38.1302

          k = 0.3333 0.0000 0.5000 (   338 PWs)   bands (ev):

   -30.7058 -30.5556 -30.4744  15.0131  15.4708  16.2306  17.6593  17.7384
    20.2463  33.8050  34.5636  39.3672

          k =-0.1667 0.6667-0.0000 (   336 PWs)   bands (ev):

   -30.7444 -30.5598 -30.5360  14.4955  14.6975  17.3279  18.5483  18.7425
    20.3345  34.1858  34.5491  35.6854

          k = 0.7500-0.2500 0.9167 (   337 PWs)   bands (ev):

   -30.7750 -30.5974 -30.5490  14.5188  14.8445  17.0767  18.3674  19.1852
    22.3247  31.2524  34.0679  34.2501

          k = 0.6667-0.1667 0.8333 (   346 PWs)   bands (ev):

   -30.7776 -30.6415 -30.5500  14.6328  15.1763  16.7823  18.0415  19.2970
    24.7451  28.3846  32.7348  34.7215

          k = 0.5833-0.0833 0.7500 (   345 PWs)   bands (ev):

   -30.7538 -30.6786 -30.5373  14.9202  15.4939  16.3919  17.8073  19.0332
    25.6333  27.7811  31.6506  35.8038

          k = 0.5000 0.0000 0.6667 (   339 PWs)   bands (ev):

   -30.7462 -30.6610 -30.5161  15.3245  15.7354  15.8412  17.7278  18.5913
    23.5991  30.5559  31.2281  37.0523

          k = 0.8333-0.1667 1.0000 (   336 PWs)   bands (ev):

   -30.8024 -30.5911 -30.5725  14.1188  14.3522  18.1825  19.0309  19.3078
    22.4761  32.1067  32.8897  32.9092

          k = 0.7500-0.0833 0.9167 (   344 PWs)   bands (ev):

   -30.7966 -30.6300 -30.5747  14.2513  14.5863  17.7018  18.6490  19.4858
    24.6574  30.1434  31.0952  33.2576

          k = 0.6667 0.0000 0.8333 (   344 PWs)   bands (ev):

   -30.7614 -30.6804 -30.5608  14.5343  15.0640  16.9979  18.2396  19.3065
    26.7976  27.8406  30.4149  34.3663

          k =-0.1667-1.0000-0.0000 (   346 PWs)   bands (ev):

   -30.8233 -30.6027 -30.5863  13.9500  14.2299  18.6366  18.9997  19.6260
    23.9113  30.2894  32.2443  32.2986

          k = 0.6667-0.3333 1.0000 (   343 PWs)   bands (ev):

   -30.7520 -30.6029 -30.5215  15.1295  15.1580  16.1829  18.2145  18.5416
    21.9532  32.4249  32.6864  36.1086

          k = 0.5833-0.2500 0.9167 (   344 PWs)   bands (ev):

   -30.7637 -30.6418 -30.5393  15.1129  15.3773  16.1063  17.9337  19.0233
    23.9830  29.4643  32.7511  34.7694

          k = 0.5000-0.1667 0.8333 (   346 PWs)   bands (ev):

   -30.7665 -30.6564 -30.5469  15.1862  15.2869  16.2423  17.7530  19.2097
    25.8964  27.1705  33.3484  33.7925

          k = 0.6667-0.1667 1.0000 (   345 PWs)   bands (ev):

   -30.7728 -30.6372 -30.5678  14.6729  14.9191  16.7824  18.4128  19.2999
    24.3226  31.1816  31.3336  32.7608

          k = 0.5833-0.0833 0.9167 (   344 PWs)   bands (ev):

   -30.7480 -30.6804 -30.5746  14.8043  15.3064  16.3696  18.0552  19.4676
    26.6633  28.5303  31.1658  32.3414

          k = 0.5000 0.0000 0.8333 (   343 PWs)   bands (ev):

   -30.7294 -30.6995 -30.5621  15.0115  15.7175  15.8291  17.9400  19.2941
    26.1101  29.0293  30.6471  33.4316

          k =-0.3333-1.0000 0.0000 (   344 PWs)   bands (ev):

   -30.7769 -30.6496 -30.5880  14.4818  14.8315  17.1240  18.3565  19.6276
    26.0928  30.1268  30.5868  31.4683

          k =-0.5000-1.0000 0.0000 (   328 PWs)   bands (ev):

   -30.7130 -30.7130 -30.5880  14.8313  15.8128  15.8128  17.9504  19.6310
    28.4198  28.4198  30.0275  31.1741

     the Fermi energy is    19.3421 ev

!    total energy              =    -198.69887301 Ry
     Harris-Foulkes estimate   =    -198.69887302 Ry
     estimated scf accuracy    <       0.00000002 Ry

     The total energy is the sum of the following terms:

     one-electron contribution =     -41.36315759 Ry
     hartree contribution      =      34.83757741 Ry
     xc contribution           =     -31.38890092 Ry
     ewald contribution        =    -160.78420429 Ry
     smearing contrib. (-TS)   =      -0.00018763 Ry

     convergence has been achieved in   6 iterations

     Writing output data file Pd-kp-conv.save/
 
     init_run     :      0.42s CPU      0.46s WALL (       1 calls)
     electrons    :      2.96s CPU      3.26s WALL (       1 calls)

     Called by init_run:
     wfcinit      :      0.14s CPU      0.16s WALL (       1 calls)
     potinit      :      0.00s CPU      0.01s WALL (       1 calls)
     hinit0       :      0.27s CPU      0.27s WALL (       1 calls)

     Called by electrons:
     c_bands      :      2.49s CPU      2.69s WALL (       6 calls)
     sum_band     :      0.42s CPU      0.46s WALL (       6 calls)
     v_of_rho     :      0.02s CPU      0.02s WALL (       7 calls)
     newd         :      0.03s CPU      0.03s WALL (       7 calls)
     mix_rho      :      0.00s CPU      0.00s WALL (       6 calls)

     Called by c_bands:
     init_us_2    :      0.07s CPU      0.08s WALL (     936 calls)
     cegterg      :      2.31s CPU      2.49s WALL (     432 calls)

     Called by sum_band:
     sum_band:bec :      0.00s CPU      0.01s WALL (     432 calls)
     addusdens    :      0.03s CPU      0.03s WALL (       6 calls)

     Called by *egterg:
     h_psi        :      1.72s CPU      1.87s WALL (    1515 calls)
     s_psi        :      0.04s CPU      0.05s WALL (    1515 calls)
     g_psi        :      0.02s CPU      0.02s WALL (    1011 calls)
     cdiaghg      :      0.39s CPU      0.41s WALL (    1443 calls)

     Called by h_psi:
     h_psi:pot    :      1.71s CPU      1.86s WALL (    1515 calls)
     h_psi:calbec :      0.06s CPU      0.07s WALL (    1515 calls)
     vloc_psi     :      1.60s CPU      1.73s WALL (    1515 calls)
     add_vuspsi   :      0.05s CPU      0.05s WALL (    1515 calls)

     General routines
     calbec       :      0.07s CPU      0.08s WALL (    1947 calls)
     fft          :      0.01s CPU      0.01s WALL (      78 calls)
     ffts         :      0.00s CPU      0.00s WALL (       6 calls)
     fftw         :      1.69s CPU      1.84s WALL (   32864 calls)
 
     Parallel routines
     fft_scatt_xy :      0.29s CPU      0.31s WALL (   32948 calls)
     fft_scatt_yz :      0.54s CPU      0.60s WALL (   32948 calls)
 
     PWSCF        :     3.47s CPU         4.17s WALL

 
   This run was terminated on:  22: 2: 9   2Dec2021            

=------------------------------------------------------------------------------=
   JOB DONE.
=------------------------------------------------------------------------------=
