
     Program PWSCF v.6.3 starts on  2Dec2021 at 22: 3: 9 

     This program is part of the open-source Quantum ESPRESSO suite
     for quantum simulation of materials; please cite
         "P. Giannozzi et al., J. Phys.:Condens. Matter 21 395502 (2009);
         "P. Giannozzi et al., J. Phys.:Condens. Matter 29 465901 (2017);
          URL http://www.quantum-espresso.org", 
     in publications or presentations arising from this work. More details at
     http://www.quantum-espresso.org/quote

     Parallel version (MPI & OpenMP), running on       2 processor cores
     Number of MPI processes:                 2
     Threads/MPI process:                     1

     MPI processes distributed on     1 nodes
     R & G space division:  proc/nbgrp/npool/nimage =       2
     Reading input from pw-input.in

     Current dimensions of program PWSCF are:
     Max number of different atomic species (ntypx) = 10
     Max number of k-points (npk) =  40000
     Max angular momentum in pseudopotentials (lmaxx) =  3

     Subspace diagonalization in iterative solution of the eigenvalue problem:
     a serial algorithm will be used

 
     Parallelization info
     --------------------
     sticks:   dense  smooth     PW     G-vecs:    dense   smooth      PW
     Min         174     174     60                 2055     2055     434
     Max         175     175     61                 2056     2056     435
     Sum         349     349    121                 4111     4111     869
 

     Title: 
     Pd-kp-conv                                                                 


     bravais-lattice index     =            2
     lattice parameter (alat)  =       8.4000  a.u.
     unit-cell volume          =     148.1760 (a.u.)^3
     number of atoms/cell      =            1
     number of atomic types    =            1
     number of electrons       =        16.00
     number of Kohn-Sham states=           12
     kinetic-energy cutoff     =      35.0000  Ry
     charge density cutoff     =     140.0000  Ry
     convergence threshold     =      1.0E-07
     mixing beta               =       0.7000
     number of iterations used =            8  plain     mixing
     Exchange-correlation      =  SLA  PW   PBX  PBC ( 1  4  3  4 0 0)

     celldm(1)=   8.400000  celldm(2)=   0.000000  celldm(3)=   0.000000
     celldm(4)=   0.000000  celldm(5)=   0.000000  celldm(6)=   0.000000

     crystal axes: (cart. coord. in units of alat)
               a(1) = (  -0.500000   0.000000   0.500000 )  
               a(2) = (   0.000000   0.500000   0.500000 )  
               a(3) = (  -0.500000   0.500000   0.000000 )  

     reciprocal axes: (cart. coord. in units 2 pi/alat)
               b(1) = ( -1.000000 -1.000000  1.000000 )  
               b(2) = (  1.000000  1.000000  1.000000 )  
               b(3) = ( -1.000000  1.000000 -1.000000 )  


     PseudoPot. # 1 for Pd read from file:
     ./pd_pbe_v1.4.uspp.F.UPF
     MD5 check sum: 2d733d2bc2cbfd217af676df1668a4bc
     Pseudo is Ultrasoft + core correction, Zval = 16.0
     Generated by new atomic code, or converted to UPF format
     Using radial grid of  887 points,  6 beta functions with: 
                l(1) =   0
                l(2) =   0
                l(3) =   1
                l(4) =   1
                l(5) =   2
                l(6) =   2
     Q(r) pseudized with  8 coefficients,  rinner =    1.130   1.130   1.130
                                                       1.130   1.130

     atomic species   valence    mass     pseudopotential
        Pd            16.00   106.40000     Pd( 1.00)

     48 Sym. Ops., with inversion, found



   Cartesian axes

     site n.     atom                  positions (alat units)
         1           Pd  tau(   1) = (   0.0000000   0.0000000   0.0000000  )

     number of k points=    72  Marzari-Vanderbilt smearing, width (Ry)=  0.0250
                       cart. coord. in units 2pi/alat
        k(    1) = (   0.0000000   0.0000000   0.0000000), wk =   0.0011574
        k(    2) = (  -0.0833333   0.0833333  -0.0833333), wk =   0.0092593
        k(    3) = (  -0.1666667   0.1666667  -0.1666667), wk =   0.0092593
        k(    4) = (  -0.2500000   0.2500000  -0.2500000), wk =   0.0092593
        k(    5) = (  -0.3333333   0.3333333  -0.3333333), wk =   0.0092593
        k(    6) = (  -0.4166667   0.4166667  -0.4166667), wk =   0.0092593
        k(    7) = (   0.5000000  -0.5000000   0.5000000), wk =   0.0046296
        k(    8) = (   0.0000000   0.1666667   0.0000000), wk =   0.0069444
        k(    9) = (  -0.0833333   0.2500000  -0.0833333), wk =   0.0277778
        k(   10) = (  -0.1666667   0.3333333  -0.1666667), wk =   0.0277778
        k(   11) = (  -0.2500000   0.4166667  -0.2500000), wk =   0.0277778
        k(   12) = (  -0.3333333   0.5000000  -0.3333333), wk =   0.0277778
        k(   13) = (   0.5833333  -0.4166667   0.5833333), wk =   0.0277778
        k(   14) = (   0.5000000  -0.3333333   0.5000000), wk =   0.0277778
        k(   15) = (   0.4166667  -0.2500000   0.4166667), wk =   0.0277778
        k(   16) = (   0.3333333  -0.1666667   0.3333333), wk =   0.0277778
        k(   17) = (   0.2500000  -0.0833333   0.2500000), wk =   0.0277778
        k(   18) = (   0.1666667  -0.0000000   0.1666667), wk =   0.0138889
        k(   19) = (   0.0000000   0.3333333   0.0000000), wk =   0.0069444
        k(   20) = (  -0.0833333   0.4166667  -0.0833333), wk =   0.0277778
        k(   21) = (  -0.1666667   0.5000000  -0.1666667), wk =   0.0277778
        k(   22) = (  -0.2500000   0.5833333  -0.2500000), wk =   0.0277778
        k(   23) = (   0.6666667  -0.3333333   0.6666667), wk =   0.0277778
        k(   24) = (   0.5833333  -0.2500000   0.5833333), wk =   0.0277778
        k(   25) = (   0.5000000  -0.1666667   0.5000000), wk =   0.0277778
        k(   26) = (   0.4166667  -0.0833333   0.4166667), wk =   0.0277778
        k(   27) = (   0.3333333   0.0000000   0.3333333), wk =   0.0138889
        k(   28) = (   0.0000000   0.5000000   0.0000000), wk =   0.0069444
        k(   29) = (  -0.0833333   0.5833333  -0.0833333), wk =   0.0277778
        k(   30) = (  -0.1666667   0.6666667  -0.1666667), wk =   0.0277778
        k(   31) = (   0.7500000  -0.2500000   0.7500000), wk =   0.0277778
        k(   32) = (   0.6666667  -0.1666667   0.6666667), wk =   0.0277778
        k(   33) = (   0.5833333  -0.0833333   0.5833333), wk =   0.0277778
        k(   34) = (   0.5000000   0.0000000   0.5000000), wk =   0.0138889
        k(   35) = (   0.0000000   0.6666667   0.0000000), wk =   0.0069444
        k(   36) = (  -0.0833333   0.7500000  -0.0833333), wk =   0.0277778
        k(   37) = (   0.8333333  -0.1666667   0.8333333), wk =   0.0277778
        k(   38) = (   0.7500000  -0.0833333   0.7500000), wk =   0.0277778
        k(   39) = (   0.6666667  -0.0000000   0.6666667), wk =   0.0138889
        k(   40) = (   0.0000000   0.8333333   0.0000000), wk =   0.0069444
        k(   41) = (   0.9166667  -0.0833333   0.9166667), wk =   0.0277778
        k(   42) = (   0.8333333   0.0000000   0.8333333), wk =   0.0138889
        k(   43) = (   0.0000000  -1.0000000   0.0000000), wk =   0.0034722
        k(   44) = (  -0.1666667   0.3333333   0.0000000), wk =   0.0277778
        k(   45) = (  -0.2500000   0.4166667  -0.0833333), wk =   0.0555556
        k(   46) = (  -0.3333333   0.5000000  -0.1666667), wk =   0.0555556
        k(   47) = (   0.5833333  -0.4166667   0.7500000), wk =   0.0555556
        k(   48) = (   0.5000000  -0.3333333   0.6666667), wk =   0.0277778
        k(   49) = (  -0.1666667   0.5000000   0.0000000), wk =   0.0277778
        k(   50) = (  -0.2500000   0.5833333  -0.0833333), wk =   0.0555556
        k(   51) = (   0.6666667  -0.3333333   0.8333333), wk =   0.0555556
        k(   52) = (   0.5833333  -0.2500000   0.7500000), wk =   0.0555556
        k(   53) = (   0.5000000  -0.1666667   0.6666667), wk =   0.0555556
        k(   54) = (   0.4166667  -0.0833333   0.5833333), wk =   0.0555556
        k(   55) = (   0.3333333   0.0000000   0.5000000), wk =   0.0277778
        k(   56) = (  -0.1666667   0.6666667  -0.0000000), wk =   0.0277778
        k(   57) = (   0.7500000  -0.2500000   0.9166667), wk =   0.0555556
        k(   58) = (   0.6666667  -0.1666667   0.8333333), wk =   0.0555556
        k(   59) = (   0.5833333  -0.0833333   0.7500000), wk =   0.0555556
        k(   60) = (   0.5000000   0.0000000   0.6666667), wk =   0.0277778
        k(   61) = (   0.8333333  -0.1666667   1.0000000), wk =   0.0277778
        k(   62) = (   0.7500000  -0.0833333   0.9166667), wk =   0.0555556
        k(   63) = (   0.6666667   0.0000000   0.8333333), wk =   0.0277778
        k(   64) = (  -0.1666667  -1.0000000  -0.0000000), wk =   0.0138889
        k(   65) = (   0.6666667  -0.3333333   1.0000000), wk =   0.0277778
        k(   66) = (   0.5833333  -0.2500000   0.9166667), wk =   0.0555556
        k(   67) = (   0.5000000  -0.1666667   0.8333333), wk =   0.0277778
        k(   68) = (   0.6666667  -0.1666667   1.0000000), wk =   0.0277778
        k(   69) = (   0.5833333  -0.0833333   0.9166667), wk =   0.0555556
        k(   70) = (   0.5000000   0.0000000   0.8333333), wk =   0.0277778
        k(   71) = (  -0.3333333  -1.0000000   0.0000000), wk =   0.0138889
        k(   72) = (  -0.5000000  -1.0000000   0.0000000), wk =   0.0069444

     Dense  grid:     4111 G-vectors     FFT dimensions: (  24,  24,  24)

     Estimated max dynamical RAM per process >      12.00 MB

     Estimated total dynamical RAM >      24.00 MB

     Check: negative/imaginary core charge=   -0.000001    0.000000

     Initial potential from superposition of free atoms
     Check: negative starting charge=   -0.083520

     starting charge   15.49999, renormalised to   16.00000

     negative rho (up, down):  8.621E-02 0.000E+00
     Starting wfcs are   12 randomized atomic wfcs

     total cpu time spent up to now is        0.7 secs

     Self-consistent Calculation

     iteration #  1     ecut=    35.00 Ry     beta= 0.70
     Davidson diagonalization with overlap
     ethr =  1.00E-02,  avg # of iterations =  3.3

     negative rho (up, down):  8.326E-02 0.000E+00

     total cpu time spent up to now is        1.5 secs

     total energy              =    -197.77911504 Ry
     Harris-Foulkes estimate   =    -199.06639630 Ry
     estimated scf accuracy    <       1.73686084 Ry

     iteration #  2     ecut=    35.00 Ry     beta= 0.70
     Davidson diagonalization with overlap
     ethr =  1.00E-02,  avg # of iterations =  2.0

     negative rho (up, down):  8.555E-02 0.000E+00

     total cpu time spent up to now is        2.3 secs

     total energy              =    -198.21318031 Ry
     Harris-Foulkes estimate   =    -199.43993023 Ry
     estimated scf accuracy    <       2.66283208 Ry

     iteration #  3     ecut=    35.00 Ry     beta= 0.70
     Davidson diagonalization with overlap
     ethr =  1.00E-02,  avg # of iterations =  2.0

     negative rho (up, down):  8.560E-02 0.000E+00

     total cpu time spent up to now is        3.0 secs

     total energy              =    -198.65043893 Ry
     Harris-Foulkes estimate   =    -198.65090239 Ry
     estimated scf accuracy    <       0.00150038 Ry

     iteration #  4     ecut=    35.00 Ry     beta= 0.70
     Davidson diagonalization with overlap
     ethr =  9.38E-06,  avg # of iterations =  2.8

     negative rho (up, down):  8.567E-02 0.000E+00

     total cpu time spent up to now is        3.8 secs

     total energy              =    -198.65074841 Ry
     Harris-Foulkes estimate   =    -198.65075948 Ry
     estimated scf accuracy    <       0.00004605 Ry

     iteration #  5     ecut=    35.00 Ry     beta= 0.70
     Davidson diagonalization with overlap
     ethr =  2.88E-07,  avg # of iterations =  1.7

     negative rho (up, down):  8.567E-02 0.000E+00

     total cpu time spent up to now is        4.5 secs

     total energy              =    -198.65075286 Ry
     Harris-Foulkes estimate   =    -198.65075292 Ry
     estimated scf accuracy    <       0.00000013 Ry

     iteration #  6     ecut=    35.00 Ry     beta= 0.70
     Davidson diagonalization with overlap
     ethr =  8.23E-10,  avg # of iterations =  2.3

     negative rho (up, down):  8.566E-02 0.000E+00

     total cpu time spent up to now is        5.3 secs

     End of self-consistent calculation

          k = 0.0000 0.0000 0.0000 (   531 PWs)   bands (ev):

   -38.4055 -38.4055 -38.4055   5.9199   8.9559   8.9559   8.9559   9.7908
     9.7908  27.1008  29.6010  29.6010

          k =-0.0833 0.0833-0.0833 (   531 PWs)   bands (ev):

   -38.4114 -38.4064 -38.4064   6.1005   8.9171   9.0022   9.0022   9.7746
     9.7746  26.9234  28.1803  29.5750

          k =-0.1667 0.1667-0.1667 (   525 PWs)   bands (ev):

   -38.4271 -38.4089 -38.4089   6.6047   8.8560   9.0963   9.0963   9.7700
     9.7700  24.7216  27.6992  29.4383

          k =-0.2500 0.2500-0.2500 (   522 PWs)   bands (ev):

   -38.4494 -38.4122 -38.4122   7.2355   9.0020   9.1205   9.1205   9.8863
     9.8863  21.8450  27.4465  29.0653

          k =-0.3333 0.3333-0.3333 (   516 PWs)   bands (ev):

   -38.4713 -38.4155 -38.4155   7.5529   9.0537   9.0537   9.8218  10.1158
    10.1158  19.0638  26.9284  28.4634

          k =-0.4167 0.4167-0.4167 (   522 PWs)   bands (ev):

   -38.4874 -38.4180 -38.4180   7.5764   8.9790   8.9790  10.3249  10.3249
    11.2251  16.6020  26.4933  27.9075

          k = 0.5000-0.5000 0.5000 (   502 PWs)   bands (ev):

   -38.4928 -38.4186 -38.4186   7.5629   8.9504   8.9504  10.4094  10.4094
    12.2485  15.2416  26.3326  27.6871

          k = 0.0000 0.1667 0.0000 (   532 PWs)   bands (ev):

   -38.4112 -38.4078 -38.4078   6.1609   8.8673   9.0386   9.0386   9.7037
     9.8293  27.0930  28.7418  28.7418

          k =-0.0833 0.2500-0.0833 (   526 PWs)   bands (ev):

   -38.4229 -38.4107 -38.4095   6.5607   8.7739   9.1388   9.1412   9.6396
     9.8686  25.7836  27.4715  28.0270

          k =-0.1667 0.3333-0.1667 (   527 PWs)   bands (ev):

   -38.4428 -38.4142 -38.4124   7.1796   8.7548   9.1604   9.2039   9.7650
     9.9747  22.9253  27.2744  27.4285

          k =-0.2500 0.4167-0.2500 (   517 PWs)   bands (ev):

   -38.4641 -38.4176 -38.4161   7.6205   9.0333   9.1440   9.1664  10.1734
    10.2422  20.0808  26.8695  26.9746

          k =-0.3333 0.5000-0.3333 (   521 PWs)   bands (ev):

   -38.4819 -38.4200 -38.4198   7.6863   8.9411   9.0884   9.7206  10.3559
    11.2475  17.4690  26.3859  26.7693

          k = 0.5833-0.4167 0.5833 (   520 PWs)   bands (ev):

   -38.4908 -38.4225 -38.4203   7.6660   8.8908   9.0339  10.0384  10.4134
    12.5686  15.4839  25.9313  26.9330

          k = 0.5000-0.3333 0.5000 (   516 PWs)   bands (ev):

   -38.4887 -38.4233 -38.4188   7.6758   8.9107   9.0336  10.0520  10.3039
    12.1879  16.0163  25.6155  26.9455

          k = 0.4167-0.2500 0.4167 (   515 PWs)   bands (ev):

   -38.4765 -38.4220 -38.4159   7.6954   8.9840   9.0912   9.6751  10.0613
    10.9519  18.3117  25.5786  27.4462

          k = 0.3333-0.1667 0.3333 (   522 PWs)   bands (ev):

   -38.4571 -38.4188 -38.4125   7.5328   8.9418   9.1559   9.1749   9.7840
    10.2962  21.0197  25.7946  28.3085

          k = 0.2500-0.0833 0.2500 (   523 PWs)   bands (ev):

   -38.4358 -38.4146 -38.4091   6.9667   8.7673   9.1592   9.1808   9.6367
     9.9739  23.8941  26.1643  29.0358

          k = 0.1667-0.0000 0.1667 (   533 PWs)   bands (ev):

   -38.4193 -38.4102 -38.4070   6.3918   8.8401   9.0685   9.0924   9.6862
     9.8335  26.4949  26.7710  28.8895

          k = 0.0000 0.3333 0.0000 (   528 PWs)   bands (ev):

   -38.4265 -38.4141 -38.4141   6.8348   8.6323   9.2780   9.2780   9.5143
     9.9357  26.8809  26.8809  27.0832

          k =-0.0833 0.4167-0.0833 (   522 PWs)   bands (ev):

   -38.4408 -38.4179 -38.4174   7.3484   8.5108   9.2535   9.4047   9.7081
    10.0336  24.2108  26.0084  27.0468

          k =-0.1667 0.5000-0.1667 (   522 PWs)   bands (ev):

   -38.4589 -38.4219 -38.4216   7.8203   8.5679   9.0824   9.4148  10.2143
    10.3713  21.3278  25.4406  26.2949

          k =-0.2500 0.5833-0.2500 (   519 PWs)   bands (ev):

   -38.4751 -38.4271 -38.4238   7.9176   8.8043   9.0999   9.3467  10.3859
    11.4982  18.6126  25.0762  25.2472

          k = 0.6667-0.3333 0.6667 (   524 PWs)   bands (ev):

   -38.4847 -38.4320 -38.4242   7.9089   8.7575   9.2735   9.4253  10.4290
    13.0319  16.2533  24.0284  25.5122

          k = 0.5833-0.2500 0.5833 (   524 PWs)   bands (ev):

   -38.4855 -38.4349 -38.4224   7.9356   8.7553   9.2390   9.5515  10.2999
    13.5327  15.6977  23.3064  26.2827

          k = 0.5000-0.1667 0.5000 (   520 PWs)   bands (ev):

   -38.4776 -38.4346 -38.4190   8.0024   8.8236   9.2632   9.3529  10.0325
    12.1194  17.8541  22.9691  27.2756

          k = 0.4167-0.0833 0.4167 (   522 PWs)   bands (ev):

   -38.4638 -38.4309 -38.4150   8.0000   8.7634   9.0680   9.3438   9.7092
    11.0477  20.4702  23.0085  28.0804

          k = 0.3333 0.0000 0.3333 (   521 PWs)   bands (ev):

   -38.4484 -38.4235 -38.4113   7.5584   8.6468   9.1392   9.3742   9.5071
    10.3777  23.1054  23.5389  29.2366

          k = 0.0000 0.5000 0.0000 (   528 PWs)   bands (ev):

   -38.4478 -38.4226 -38.4226   7.6374   8.3273   9.5803   9.6421   9.6421
    10.0843  24.8872  24.8872  26.1148

          k =-0.0833 0.5833-0.0833 (   519 PWs)   bands (ev):

   -38.4604 -38.4274 -38.4264   7.8992   8.2208   9.4824   9.7509  10.2271
    10.4177  22.6612  24.1317  24.5466

          k =-0.1667 0.6667-0.1667 (   523 PWs)   bands (ev):

   -38.4724 -38.4341 -38.4291   7.9853   8.3165   9.3555   9.7085  10.4038
    11.6852  19.9672  23.1000  23.8203

          k = 0.7500-0.2500 0.7500 (   516 PWs)   bands (ev):

   -38.4789 -38.4418 -38.4294   8.0157   8.4950   9.2722   9.6266  10.4517
    13.3400  17.4915  21.8896  24.0234

          k = 0.6667-0.1667 0.6667 (   518 PWs)   bands (ev):

   -38.4788 -38.4485 -38.4274   8.1144   8.6180   9.2045   9.5560  10.3214
    14.9893  15.6860  20.9666  24.7559

          k = 0.5833-0.0833 0.5833 (   519 PWs)   bands (ev):

   -38.4738 -38.4503 -38.4236   8.2740   8.7121   9.0418   9.5180  10.0593
    13.4800  17.7145  20.4048  25.9540

          k = 0.5000 0.0000 0.5000 (   524 PWs)   bands (ev):

   -38.4687 -38.4437 -38.4191   8.3809   8.6681   8.9349   9.4910   9.7840
    12.0957  20.2009  20.3074  27.4890

          k = 0.0000 0.6667 0.0000 (   512 PWs)   bands (ev):

   -38.4687 -38.4309 -38.4309   7.8444   8.0389  10.0634  10.0634  10.2376
    10.6908  22.7207  23.1764  23.1764

          k =-0.0833 0.7500-0.0833 (   515 PWs)   bands (ev):

   -38.4770 -38.4362 -38.4339   7.8394   7.9766  10.0036  10.0941  10.4042
    11.9114  20.9296  21.6583  22.6888

          k = 0.8333-0.1667 0.8333 (   513 PWs)   bands (ev):

   -38.4802 -38.4446 -38.4344   7.8805   8.0904   9.7668  10.0130  10.4795
    13.5595  18.8764  20.1295  22.7564

          k = 0.7500-0.0833 0.7500 (   514 PWs)   bands (ev):

   -38.4762 -38.4552 -38.4325   7.9924   8.3288   9.4556   9.9063  10.3739
    15.4836  16.8500  19.0380  23.3902

          k = 0.6667-0.0000 0.6667 (   528 PWs)   bands (ev):

   -38.4659 -38.4657 -38.4287   8.1720   8.6136   9.1030   9.7548  10.1813
    15.0471  17.3926  18.6051  24.5056

          k = 0.0000 0.8333 0.0000 (   504 PWs)   bands (ev):

   -38.4835 -38.4372 -38.4372   7.7012   7.8359  10.3519  10.4202  10.4202
    12.5562  19.5442  22.0063  22.0063

          k = 0.9167-0.0833 0.9167 (   510 PWs)   bands (ev):

   -38.4863 -38.4413 -38.4383   7.7041   7.8377  10.3067  10.3236  10.5199
    13.7659  18.3438  20.7861  21.8941

          k = 0.8333 0.0000 0.8333 (   508 PWs)   bands (ev):

   -38.4826 -38.4488 -38.4364   7.8178   8.0108   9.9380  10.1746  10.4636
    15.0246  17.7508  19.0307  22.3838

          k = 0.0000-1.0000 0.0000 (   524 PWs)   bands (ev):

   -38.4894 -38.4398 -38.4398   7.6235   7.7628  10.3927  10.5621  10.5621
    13.8816  17.7951  21.5854  21.5854

          k =-0.1667 0.3333 0.0000 (   520 PWs)   bands (ev):

   -38.4343 -38.4165 -38.4111   7.0328   8.6555   9.1923   9.2810   9.5961
     9.9992  24.9875  25.2243  28.7589

          k =-0.2500 0.4167-0.0833 (   521 PWs)   bands (ev):

   -38.4518 -38.4225 -38.4141   7.6304   8.6339   9.0917   9.3622   9.7531
    10.3503  22.1958  24.6340  27.9313

          k =-0.3333 0.5000-0.1667 (   521 PWs)   bands (ev):

   -38.4698 -38.4270 -38.4179   7.8891   8.9302   9.0093   9.3148  10.0746
    11.0656  19.4135  24.3725  26.6883

          k = 0.5833-0.4167 0.7500 (   515 PWs)   bands (ev):

   -38.4829 -38.4296 -38.4210   7.8726   8.8209   9.2012   9.5087  10.3027
    12.3140  16.9077  24.4256  25.6315

          k = 0.5000-0.3333 0.6667 (   518 PWs)   bands (ev):

   -38.4878 -38.4304 -38.4223   7.8503   8.7782   9.1813   9.6769  10.3727
    13.4667  15.3509  24.8284  24.8730

          k =-0.1667 0.5000 0.0000 (   519 PWs)   bands (ev):

   -38.4527 -38.4252 -38.4198   7.7978   8.3840   9.1688   9.6396   9.8567
    10.3478  23.3900  23.6996  26.2949

          k =-0.2500 0.5833-0.0833 (   521 PWs)   bands (ev):

   -38.4662 -38.4321 -38.4232   8.0806   8.4502   9.0276   9.6648  10.1260
    11.1834  20.7284  23.1765  24.8413

          k = 0.6667-0.3333 0.8333 (   516 PWs)   bands (ev):

   -38.4767 -38.4376 -38.4261   8.0852   8.6402   9.0317   9.5750  10.3362
    12.5329  18.1249  23.0991  23.6541

          k = 0.5833-0.2500 0.7500 (   520 PWs)   bands (ev):

   -38.4814 -38.4419 -38.4268   8.1068   8.6208   9.2144   9.4777  10.3683
    14.2216  15.9087  22.5248  23.6492

          k = 0.5000-0.1667 0.6667 (   523 PWs)   bands (ev):

   -38.4794 -38.4435 -38.4250   8.1750   8.6373   9.1769   9.4659  10.2424
    13.6771  16.6480  21.8965  24.4152

          k = 0.4167-0.0833 0.5833 (   520 PWs)   bands (ev):

   -38.4717 -38.4407 -38.4213   8.2649   8.7378   8.8522   9.5500   9.9881
    12.1774  19.0654  21.6475  25.4722

          k = 0.3333 0.0000 0.5000 (   525 PWs)   bands (ev):

   -38.4619 -38.4332 -38.4172   8.1648   8.5260   8.9335   9.6500   9.6575
    11.0828  21.5797  21.9573  26.7113

          k =-0.1667 0.6667-0.0000 (   522 PWs)   bands (ev):

   -38.4699 -38.4342 -38.4295   7.9907   8.1212   9.4998  10.0592  10.1812
    11.3442  21.9042  22.2561  23.0329

          k = 0.7500-0.2500 0.9167 (   516 PWs)   bands (ev):

   -38.4761 -38.4416 -38.4322   8.0286   8.2120   9.3716   9.9879  10.3628
    12.7618  19.5374  21.4690  22.1948

          k = 0.6667-0.1667 0.8333 (   514 PWs)   bands (ev):

   -38.4768 -38.4503 -38.4324   8.0924   8.4012   9.2222   9.8286  10.4112
    14.5480  17.2389  20.4139  22.4636

          k = 0.5833-0.0833 0.7500 (   515 PWs)   bands (ev):

   -38.4722 -38.4575 -38.4300   8.2439   8.5717   9.0215   9.7130  10.2874
    15.2255  16.6578  19.5932  23.2211

          k = 0.5000 0.0000 0.6667 (   515 PWs)   bands (ev):

   -38.4704 -38.4540 -38.4257   8.4438   8.7075   8.7242   9.6796  10.0758
    13.5533  18.8937  19.2667  24.2746

          k = 0.8333-0.1667 1.0000 (   511 PWs)   bands (ev):

   -38.4816 -38.4405 -38.4370   7.8303   7.9362   9.9298  10.3021  10.4189
    13.1202  19.5655  21.2151  21.2934

          k = 0.7500-0.0833 0.9167 (   509 PWs)   bands (ev):

   -38.4806 -38.4482 -38.4374   7.9084   8.0661   9.7010  10.1190  10.4991
    14.7169  18.3000  19.3619  21.4742

          k = 0.6667 0.0000 0.8333 (   517 PWs)   bands (ev):

   -38.4739 -38.4580 -38.4347   8.0560   8.3304   9.3390   9.9239  10.4157
    16.2852  16.8803  18.3568  22.1813

          k =-0.1667-1.0000-0.0000 (   508 PWs)   bands (ev):

   -38.4859 -38.4430 -38.4396   7.7481   7.8701  10.1581  10.2746  10.5627
    14.4948  17.8087  20.8320  20.8979

          k = 0.6667-0.3333 1.0000 (   512 PWs)   bands (ev):

   -38.4712 -38.4425 -38.4265   8.3627   8.3641   8.8892   9.9298  10.0554
    12.3575  20.3863  20.5880  23.4817

          k = 0.5833-0.2500 0.9167 (   514 PWs)   bands (ev):

   -38.4738 -38.4503 -38.4303   8.3518   8.5043   8.8598   9.7817  10.2854
    13.8915  18.0050  20.6031  22.3571

          k = 0.5000-0.1667 0.8333 (   520 PWs)   bands (ev):

   -38.4747 -38.4532 -38.4320   8.4136   8.4259   8.9478   9.6874  10.3710
    15.6353  15.9390  20.8664  21.7526

          k = 0.6667-0.1667 1.0000 (   505 PWs)   bands (ev):

   -38.4756 -38.4494 -38.4358   8.1467   8.2352   9.2201  10.0153  10.4147
    14.2356  19.3052  19.6164  20.7390

          k = 0.5833-0.0833 0.9167 (   512 PWs)   bands (ev):

   -38.4712 -38.4580 -38.4373   8.2219   8.4436   9.0048   9.8392  10.4912
    16.0225  17.3838  19.0847  20.5167

          k = 0.5000 0.0000 0.8333 (   511 PWs)   bands (ev):

   -38.4674 -38.4617 -38.4349   8.3371   8.6573   8.7181   9.7829  10.4115
    15.5083  17.8884  18.6882  21.2626

          k =-0.3333-1.0000 0.0000 (   508 PWs)   bands (ev):

   -38.4769 -38.4520 -38.4399   8.0481   8.1880   9.4035   9.9819  10.5642
    15.8553  17.8534  19.2572  19.9185

          k =-0.5000-1.0000 0.0000 (   516 PWs)   bands (ev):

   -38.4646 -38.4646 -38.4403   8.2439   8.7086   8.7086   9.7874  10.5639
    17.5124  17.5124  17.8912  19.5163

     the Fermi energy is    10.4924 ev

!    total energy              =    -198.65075291 Ry
     Harris-Foulkes estimate   =    -198.65075295 Ry
     estimated scf accuracy    <       0.00000006 Ry

     The total energy is the sum of the following terms:

     one-electron contribution =     -74.50428399 Ry
     hartree contribution      =      46.76653961 Ry
     xc contribution           =     -31.18557169 Ry
     ewald contribution        =    -139.72912994 Ry
     smearing contrib. (-TS)   =       0.00169309 Ry

     convergence has been achieved in   6 iterations

     Writing output data file Pd-kp-conv.save/
 
     init_run     :      0.56s CPU      0.61s WALL (       1 calls)
     electrons    :      4.19s CPU      4.65s WALL (       1 calls)

     Called by init_run:
     wfcinit      :      0.24s CPU      0.27s WALL (       1 calls)
     potinit      :      0.01s CPU      0.01s WALL (       1 calls)
     hinit0       :      0.30s CPU      0.30s WALL (       1 calls)

     Called by electrons:
     c_bands      :      3.48s CPU      3.85s WALL (       6 calls)
     sum_band     :      0.64s CPU      0.69s WALL (       6 calls)
     v_of_rho     :      0.03s CPU      0.03s WALL (       7 calls)
     newd         :      0.04s CPU      0.05s WALL (       7 calls)
     mix_rho      :      0.00s CPU      0.00s WALL (       6 calls)

     Called by c_bands:
     init_us_2    :      0.10s CPU      0.11s WALL (     936 calls)
     cegterg      :      3.21s CPU      3.42s WALL (     432 calls)

     Called by sum_band:
     sum_band:bec :      0.00s CPU      0.01s WALL (     432 calls)
     addusdens    :      0.05s CPU      0.05s WALL (       6 calls)

     Called by *egterg:
     h_psi        :      2.61s CPU      2.79s WALL (    1515 calls)
     s_psi        :      0.06s CPU      0.07s WALL (    1515 calls)
     g_psi        :      0.03s CPU      0.03s WALL (    1011 calls)
     cdiaghg      :      0.39s CPU      0.41s WALL (    1443 calls)

     Called by h_psi:
     h_psi:pot    :      2.59s CPU      2.77s WALL (    1515 calls)
     h_psi:calbec :      0.08s CPU      0.08s WALL (    1515 calls)
     vloc_psi     :      2.44s CPU      2.61s WALL (    1515 calls)
     add_vuspsi   :      0.06s CPU      0.07s WALL (    1515 calls)

     General routines
     calbec       :      0.10s CPU      0.10s WALL (    1947 calls)
     fft          :      0.01s CPU      0.01s WALL (      78 calls)
     ffts         :      0.00s CPU      0.00s WALL (       6 calls)
     fftw         :      2.59s CPU      2.77s WALL (   32544 calls)
 
     Parallel routines
     fft_scatt_xy :      0.43s CPU      0.46s WALL (   32628 calls)
     fft_scatt_yz :      0.76s CPU      0.82s WALL (   32628 calls)
 
     PWSCF        :     4.82s CPU         5.73s WALL

 
   This run was terminated on:  22: 3:15   2Dec2021            

=------------------------------------------------------------------------------=
   JOB DONE.
=------------------------------------------------------------------------------=
