
     Program PWSCF v.6.3 starts on  2Dec2021 at 22: 2:51 

     This program is part of the open-source Quantum ESPRESSO suite
     for quantum simulation of materials; please cite
         "P. Giannozzi et al., J. Phys.:Condens. Matter 21 395502 (2009);
         "P. Giannozzi et al., J. Phys.:Condens. Matter 29 465901 (2017);
          URL http://www.quantum-espresso.org", 
     in publications or presentations arising from this work. More details at
     http://www.quantum-espresso.org/quote

     Parallel version (MPI & OpenMP), running on       2 processor cores
     Number of MPI processes:                 2
     Threads/MPI process:                     1

     MPI processes distributed on     1 nodes
     R & G space division:  proc/nbgrp/npool/nimage =       2
     Reading input from pw-input.in

     Current dimensions of program PWSCF are:
     Max number of different atomic species (ntypx) = 10
     Max number of k-points (npk) =  40000
     Max angular momentum in pseudopotentials (lmaxx) =  3

     Subspace diagonalization in iterative solution of the eigenvalue problem:
     a serial algorithm will be used

 
     Parallelization info
     --------------------
     sticks:   dense  smooth     PW     G-vecs:    dense   smooth      PW
     Min         156     156     54                 1859     1859     362
     Max         157     157     55                 1860     1860     363
     Sum         313     313    109                 3719     3719     725
 

     Title: 
     Pd-kp-conv                                                                 


     bravais-lattice index     =            2
     lattice parameter (alat)  =       8.1000  a.u.
     unit-cell volume          =     132.8602 (a.u.)^3
     number of atoms/cell      =            1
     number of atomic types    =            1
     number of electrons       =        16.00
     number of Kohn-Sham states=           12
     kinetic-energy cutoff     =      35.0000  Ry
     charge density cutoff     =     140.0000  Ry
     convergence threshold     =      1.0E-07
     mixing beta               =       0.7000
     number of iterations used =            8  plain     mixing
     Exchange-correlation      =  SLA  PW   PBX  PBC ( 1  4  3  4 0 0)

     celldm(1)=   8.100000  celldm(2)=   0.000000  celldm(3)=   0.000000
     celldm(4)=   0.000000  celldm(5)=   0.000000  celldm(6)=   0.000000

     crystal axes: (cart. coord. in units of alat)
               a(1) = (  -0.500000   0.000000   0.500000 )  
               a(2) = (   0.000000   0.500000   0.500000 )  
               a(3) = (  -0.500000   0.500000   0.000000 )  

     reciprocal axes: (cart. coord. in units 2 pi/alat)
               b(1) = ( -1.000000 -1.000000  1.000000 )  
               b(2) = (  1.000000  1.000000  1.000000 )  
               b(3) = ( -1.000000  1.000000 -1.000000 )  


     PseudoPot. # 1 for Pd read from file:
     ./pd_pbe_v1.4.uspp.F.UPF
     MD5 check sum: 2d733d2bc2cbfd217af676df1668a4bc
     Pseudo is Ultrasoft + core correction, Zval = 16.0
     Generated by new atomic code, or converted to UPF format
     Using radial grid of  887 points,  6 beta functions with: 
                l(1) =   0
                l(2) =   0
                l(3) =   1
                l(4) =   1
                l(5) =   2
                l(6) =   2
     Q(r) pseudized with  8 coefficients,  rinner =    1.130   1.130   1.130
                                                       1.130   1.130

     atomic species   valence    mass     pseudopotential
        Pd            16.00   106.40000     Pd( 1.00)

     48 Sym. Ops., with inversion, found



   Cartesian axes

     site n.     atom                  positions (alat units)
         1           Pd  tau(   1) = (   0.0000000   0.0000000   0.0000000  )

     number of k points=    72  Marzari-Vanderbilt smearing, width (Ry)=  0.0250
                       cart. coord. in units 2pi/alat
        k(    1) = (   0.0000000   0.0000000   0.0000000), wk =   0.0011574
        k(    2) = (  -0.0833333   0.0833333  -0.0833333), wk =   0.0092593
        k(    3) = (  -0.1666667   0.1666667  -0.1666667), wk =   0.0092593
        k(    4) = (  -0.2500000   0.2500000  -0.2500000), wk =   0.0092593
        k(    5) = (  -0.3333333   0.3333333  -0.3333333), wk =   0.0092593
        k(    6) = (  -0.4166667   0.4166667  -0.4166667), wk =   0.0092593
        k(    7) = (   0.5000000  -0.5000000   0.5000000), wk =   0.0046296
        k(    8) = (   0.0000000   0.1666667   0.0000000), wk =   0.0069444
        k(    9) = (  -0.0833333   0.2500000  -0.0833333), wk =   0.0277778
        k(   10) = (  -0.1666667   0.3333333  -0.1666667), wk =   0.0277778
        k(   11) = (  -0.2500000   0.4166667  -0.2500000), wk =   0.0277778
        k(   12) = (  -0.3333333   0.5000000  -0.3333333), wk =   0.0277778
        k(   13) = (   0.5833333  -0.4166667   0.5833333), wk =   0.0277778
        k(   14) = (   0.5000000  -0.3333333   0.5000000), wk =   0.0277778
        k(   15) = (   0.4166667  -0.2500000   0.4166667), wk =   0.0277778
        k(   16) = (   0.3333333  -0.1666667   0.3333333), wk =   0.0277778
        k(   17) = (   0.2500000  -0.0833333   0.2500000), wk =   0.0277778
        k(   18) = (   0.1666667  -0.0000000   0.1666667), wk =   0.0138889
        k(   19) = (   0.0000000   0.3333333   0.0000000), wk =   0.0069444
        k(   20) = (  -0.0833333   0.4166667  -0.0833333), wk =   0.0277778
        k(   21) = (  -0.1666667   0.5000000  -0.1666667), wk =   0.0277778
        k(   22) = (  -0.2500000   0.5833333  -0.2500000), wk =   0.0277778
        k(   23) = (   0.6666667  -0.3333333   0.6666667), wk =   0.0277778
        k(   24) = (   0.5833333  -0.2500000   0.5833333), wk =   0.0277778
        k(   25) = (   0.5000000  -0.1666667   0.5000000), wk =   0.0277778
        k(   26) = (   0.4166667  -0.0833333   0.4166667), wk =   0.0277778
        k(   27) = (   0.3333333   0.0000000   0.3333333), wk =   0.0138889
        k(   28) = (   0.0000000   0.5000000   0.0000000), wk =   0.0069444
        k(   29) = (  -0.0833333   0.5833333  -0.0833333), wk =   0.0277778
        k(   30) = (  -0.1666667   0.6666667  -0.1666667), wk =   0.0277778
        k(   31) = (   0.7500000  -0.2500000   0.7500000), wk =   0.0277778
        k(   32) = (   0.6666667  -0.1666667   0.6666667), wk =   0.0277778
        k(   33) = (   0.5833333  -0.0833333   0.5833333), wk =   0.0277778
        k(   34) = (   0.5000000   0.0000000   0.5000000), wk =   0.0138889
        k(   35) = (   0.0000000   0.6666667   0.0000000), wk =   0.0069444
        k(   36) = (  -0.0833333   0.7500000  -0.0833333), wk =   0.0277778
        k(   37) = (   0.8333333  -0.1666667   0.8333333), wk =   0.0277778
        k(   38) = (   0.7500000  -0.0833333   0.7500000), wk =   0.0277778
        k(   39) = (   0.6666667  -0.0000000   0.6666667), wk =   0.0138889
        k(   40) = (   0.0000000   0.8333333   0.0000000), wk =   0.0069444
        k(   41) = (   0.9166667  -0.0833333   0.9166667), wk =   0.0277778
        k(   42) = (   0.8333333   0.0000000   0.8333333), wk =   0.0138889
        k(   43) = (   0.0000000  -1.0000000   0.0000000), wk =   0.0034722
        k(   44) = (  -0.1666667   0.3333333   0.0000000), wk =   0.0277778
        k(   45) = (  -0.2500000   0.4166667  -0.0833333), wk =   0.0555556
        k(   46) = (  -0.3333333   0.5000000  -0.1666667), wk =   0.0555556
        k(   47) = (   0.5833333  -0.4166667   0.7500000), wk =   0.0555556
        k(   48) = (   0.5000000  -0.3333333   0.6666667), wk =   0.0277778
        k(   49) = (  -0.1666667   0.5000000   0.0000000), wk =   0.0277778
        k(   50) = (  -0.2500000   0.5833333  -0.0833333), wk =   0.0555556
        k(   51) = (   0.6666667  -0.3333333   0.8333333), wk =   0.0555556
        k(   52) = (   0.5833333  -0.2500000   0.7500000), wk =   0.0555556
        k(   53) = (   0.5000000  -0.1666667   0.6666667), wk =   0.0555556
        k(   54) = (   0.4166667  -0.0833333   0.5833333), wk =   0.0555556
        k(   55) = (   0.3333333   0.0000000   0.5000000), wk =   0.0277778
        k(   56) = (  -0.1666667   0.6666667  -0.0000000), wk =   0.0277778
        k(   57) = (   0.7500000  -0.2500000   0.9166667), wk =   0.0555556
        k(   58) = (   0.6666667  -0.1666667   0.8333333), wk =   0.0555556
        k(   59) = (   0.5833333  -0.0833333   0.7500000), wk =   0.0555556
        k(   60) = (   0.5000000   0.0000000   0.6666667), wk =   0.0277778
        k(   61) = (   0.8333333  -0.1666667   1.0000000), wk =   0.0277778
        k(   62) = (   0.7500000  -0.0833333   0.9166667), wk =   0.0555556
        k(   63) = (   0.6666667   0.0000000   0.8333333), wk =   0.0277778
        k(   64) = (  -0.1666667  -1.0000000  -0.0000000), wk =   0.0138889
        k(   65) = (   0.6666667  -0.3333333   1.0000000), wk =   0.0277778
        k(   66) = (   0.5833333  -0.2500000   0.9166667), wk =   0.0555556
        k(   67) = (   0.5000000  -0.1666667   0.8333333), wk =   0.0277778
        k(   68) = (   0.6666667  -0.1666667   1.0000000), wk =   0.0277778
        k(   69) = (   0.5833333  -0.0833333   0.9166667), wk =   0.0555556
        k(   70) = (   0.5000000   0.0000000   0.8333333), wk =   0.0277778
        k(   71) = (  -0.3333333  -1.0000000   0.0000000), wk =   0.0138889
        k(   72) = (  -0.5000000  -1.0000000   0.0000000), wk =   0.0069444

     Dense  grid:     3719 G-vectors     FFT dimensions: (  24,  24,  24)

     Estimated max dynamical RAM per process >      10.94 MB

     Estimated total dynamical RAM >      21.88 MB

     Initial potential from superposition of free atoms
     Check: negative starting charge=   -0.081280

     starting charge   15.49999, renormalised to   16.00000

     negative rho (up, down):  8.390E-02 0.000E+00
     Starting wfcs are   12 randomized atomic wfcs

     total cpu time spent up to now is        0.6 secs

     Self-consistent Calculation

     iteration #  1     ecut=    35.00 Ry     beta= 0.70
     Davidson diagonalization with overlap
     ethr =  1.00E-02,  avg # of iterations =  3.4

     negative rho (up, down):  8.121E-02 0.000E+00

     total cpu time spent up to now is        1.4 secs

     total energy              =    -197.91776489 Ry
     Harris-Foulkes estimate   =    -199.06867971 Ry
     estimated scf accuracy    <       1.56246051 Ry

     iteration #  2     ecut=    35.00 Ry     beta= 0.70
     Davidson diagonalization with overlap
     ethr =  9.77E-03,  avg # of iterations =  2.0

     negative rho (up, down):  8.344E-02 0.000E+00

     total cpu time spent up to now is        2.2 secs

     total energy              =    -198.26392731 Ry
     Harris-Foulkes estimate   =    -199.30043998 Ry
     estimated scf accuracy    <       2.22469803 Ry

     iteration #  3     ecut=    35.00 Ry     beta= 0.70
     Davidson diagonalization with overlap
     ethr =  9.77E-03,  avg # of iterations =  2.0

     negative rho (up, down):  8.349E-02 0.000E+00

     total cpu time spent up to now is        2.9 secs

     total energy              =    -198.67326176 Ry
     Harris-Foulkes estimate   =    -198.67338616 Ry
     estimated scf accuracy    <       0.00030627 Ry

     iteration #  4     ecut=    35.00 Ry     beta= 0.70
     Davidson diagonalization with overlap
     ethr =  1.91E-06,  avg # of iterations =  3.1

     negative rho (up, down):  8.360E-02 0.000E+00

     total cpu time spent up to now is        3.8 secs

     total energy              =    -198.67353339 Ry
     Harris-Foulkes estimate   =    -198.67353297 Ry
     estimated scf accuracy    <       0.00000326 Ry

     iteration #  5     ecut=    35.00 Ry     beta= 0.70
     Davidson diagonalization with overlap
     ethr =  2.04E-08,  avg # of iterations =  1.3

     negative rho (up, down):  8.362E-02 0.000E+00

     total cpu time spent up to now is        4.4 secs

     End of self-consistent calculation

          k = 0.0000 0.0000 0.0000 (   459 PWs)   bands (ev):

   -36.6872 -36.6872 -36.6872   7.2065  10.5877  10.5877  10.5877  11.5891
    11.5891  29.4432  32.5503  32.5503

          k =-0.0833 0.0833-0.0833 (   477 PWs)   bands (ev):

   -36.6971 -36.6888 -36.6888   7.4036  10.5374  10.6416  10.6416  11.5669
    11.5669  29.3976  31.0213  32.5913

          k =-0.1667 0.1667-0.1667 (   483 PWs)   bands (ev):

   -36.7222 -36.6931 -36.6931   7.9506  10.4554  10.7516  10.7516  11.5576
    11.5576  27.5436  30.1946  32.6131

          k =-0.2500 0.2500-0.2500 (   477 PWs)   bands (ev):

   -36.7565 -36.6983 -36.6983   8.6234  10.6078  10.7784  10.7784  11.6955
    11.6955  24.5898  29.9181  32.3545

          k =-0.3333 0.3333-0.3333 (   468 PWs)   bands (ev):

   -36.7902 -36.7035 -36.7035   8.9493  10.6962  10.6962  11.4889  11.9732
    11.9732  21.6748  29.3385  31.7054

          k =-0.4167 0.4167-0.4167 (   470 PWs)   bands (ev):

   -36.8152 -36.7074 -36.7074   8.9631  10.6062  10.6062  12.2273  12.2273
    12.9629  19.0996  28.8490  31.0439

          k = 0.5000-0.5000 0.5000 (   464 PWs)   bands (ev):

   -36.8242 -36.7087 -36.7087   8.9434  10.5708  10.5708  12.3288  12.3288
    13.9720  17.7386  28.6685  30.7778

          k = 0.0000 0.1667 0.0000 (   487 PWs)   bands (ev):

   -36.6969 -36.6912 -36.6912   7.4695  10.4782  10.6832  10.6832  11.4797
    11.6334  29.5177  31.5983  31.7922

          k =-0.0833 0.2500-0.0833 (   476 PWs)   bands (ev):

   -36.7154 -36.6957 -36.6939   7.9038  10.3625  10.8013  10.8054  11.3982
    11.6792  28.6016  30.0743  31.1291

          k =-0.1667 0.3333-0.1667 (   475 PWs)   bands (ev):

   -36.7462 -36.7014 -36.6984   8.5691  10.3309  10.8227  10.8789  11.5432
    11.8039  25.7154  29.8547  30.5546

          k =-0.2500 0.4167-0.2500 (   468 PWs)   bands (ev):

   -36.7793 -36.7066 -36.7043   9.0310  10.6690  10.7622  10.8320  12.0434
    12.0785  22.7401  29.3787  30.0779

          k =-0.3333 0.5000-0.3333 (   466 PWs)   bands (ev):

   -36.8066 -36.7101 -36.7100   9.0902  10.5588  10.7375  11.4446  12.2650
    13.1197  19.9920  28.8379  29.8312

          k = 0.5833-0.4167 0.5833 (   463 PWs)   bands (ev):

   -36.8205 -36.7140 -36.7109   9.0627  10.4983  10.6714  11.8410  12.3350
    14.4269  17.9639  28.4478  29.8980

          k = 0.5000-0.3333 0.5000 (   459 PWs)   bands (ev):

   -36.8174 -36.7152 -36.7086   9.0749  10.5224  10.6712  11.8491  12.2017
    14.0722  18.4923  28.2692  29.7373

          k = 0.4167-0.2500 0.4167 (   467 PWs)   bands (ev):

   -36.7983 -36.7133 -36.7042   9.1046  10.6113  10.7397  11.3675  11.9069
    12.8586  20.8786  28.3345  30.1956

          k = 0.3333-0.1667 0.3333 (   466 PWs)   bands (ev):

   -36.7684 -36.7084 -36.6985   8.9426  10.5453  10.8016  10.8427  11.5722
    12.1729  23.7273  28.6092  31.1085

          k = 0.2500-0.0833 0.2500 (   475 PWs)   bands (ev):

   -36.7357 -36.7019 -36.6934   8.3421  10.3491  10.8220  10.8527  11.3940
    11.8007  26.7126  28.9775  31.8604

          k = 0.1667-0.0000 0.1667 (   477 PWs)   bands (ev):

   -36.7094 -36.6948 -36.6898   7.7207  10.4426  10.7207  10.7469  11.4576
    11.6370  29.1443  29.6573  31.7624

          k = 0.0000 0.3333 0.0000 (   471 PWs)   bands (ev):

   -36.7210 -36.7008 -36.7008   8.2002  10.1934  10.9678  10.9678  11.2432
    11.7609  29.7002  29.9276  29.9276

          k =-0.0833 0.4167-0.0833 (   471 PWs)   bands (ev):

   -36.7432 -36.7072 -36.7062   8.7514  10.0451  10.9319  11.1177  11.4689
    11.8758  27.0605  29.0078  29.7200

          k =-0.1667 0.5000-0.1667 (   462 PWs)   bands (ev):

   -36.7710 -36.7129 -36.7127   9.2534  10.1026  10.7250  11.1297  12.0939
    12.2199  24.0429  28.3973  29.0023

          k =-0.2500 0.5833-0.2500 (   462 PWs)   bands (ev):

   -36.7960 -36.7210 -36.7162   9.3524  10.3765  10.7302  11.0466  12.3015
    13.4437  21.1719  27.8724  28.1784

          k = 0.6667-0.3333 0.6667 (   458 PWs)   bands (ev):

   -36.8108 -36.7284 -36.7165   9.3407  10.3292  10.9584  11.1051  12.3542
    15.0525  18.7004  26.8274  28.4611

          k = 0.5833-0.2500 0.5833 (   458 PWs)   bands (ev):

   -36.8120 -36.7329 -36.7137   9.3725  10.3293  10.9165  11.2494  12.1975
    15.5582  18.1531  26.0878  29.3099

          k = 0.5000-0.1667 0.5000 (   461 PWs)   bands (ev):

   -36.7998 -36.7328 -36.7085   9.4523  10.4141  10.9448  11.0024  11.8733
    14.1437  20.3822  25.7474  29.9525

          k = 0.4167-0.0833 0.4167 (   465 PWs)   bands (ev):

   -36.7784 -36.7270 -36.7023   9.4581  10.3378  10.6874  11.0422  11.4831
    13.0163  23.1456  25.8036  30.8051

          k = 0.3333 0.0000 0.3333 (   475 PWs)   bands (ev):

   -36.7550 -36.7159 -36.6968   8.9825  10.2040  10.7899  11.0834  11.2359
    12.2695  25.8943  26.3702  32.0726

          k = 0.0000 0.5000 0.0000 (   456 PWs)   bands (ev):

   -36.7534 -36.7139 -36.7139   9.0535   9.8278  11.2930  11.4024  11.4024
    11.9388  27.7851  27.7851  28.8518

          k =-0.0833 0.5833-0.0833 (   460 PWs)   bands (ev):

   -36.7731 -36.7217 -36.7203   9.3282   9.6983  11.1871  11.5317  12.1092
    12.2534  25.4285  26.9546  27.4247

          k =-0.1667 0.6667-0.1667 (   463 PWs)   bands (ev):

   -36.7916 -36.7319 -36.7242   9.4207   9.8017  11.0352  11.4800  12.3237
    13.6452  22.5764  25.9292  26.6076

          k = 0.7500-0.2500 0.7500 (   459 PWs)   bands (ev):

   -36.8018 -36.7438 -36.7245   9.4571  10.0056  10.9344  11.3808  12.3816
    15.4383  19.9461  24.6528  26.8316

          k = 0.6667-0.1667 0.6667 (   458 PWs)   bands (ev):

   -36.8016 -36.7542 -36.7213   9.5754  10.1503  10.8508  11.2952  12.2232
    17.1242  18.1255  23.6673  27.6483

          k = 0.5833-0.0833 0.5833 (   458 PWs)   bands (ev):

   -36.7936 -36.7573 -36.7154   9.7658  10.2661  10.6484  11.2490  11.9067
    15.6226  20.2072  23.0648  28.9806

          k = 0.5000 0.0000 0.5000 (   463 PWs)   bands (ev):

   -36.7858 -36.7468 -36.7084   9.8923  10.2245  10.5182  11.2156  11.5756
    14.1560  22.8657  22.9486  30.6696

          k = 0.0000 0.6667 0.0000 (   472 PWs)   bands (ev):

   -36.7861 -36.7275 -36.7275   9.2529   9.4823  11.9071  11.9071  12.1206
    12.4702  25.6038  25.8929  25.8929

          k =-0.0833 0.7500-0.0833 (   462 PWs)   bands (ev):

   -36.7989 -36.7355 -36.7318   9.2410   9.4081  11.8135  11.9447  12.3233
    13.8271  23.7109  24.2938  25.3465

          k = 0.8333-0.1667 0.8333 (   466 PWs)   bands (ev):

   -36.8039 -36.7485 -36.7326   9.2892   9.5355  11.5234  11.8454  12.4154
    15.6355  21.4260  22.7841  25.4226

          k = 0.7500-0.0833 0.7500 (   465 PWs)   bands (ev):

   -36.7977 -36.7647 -36.7295   9.4237   9.8111  11.1515  11.7152  12.2866
    17.7190  19.2376  21.6669  26.1359

          k = 0.6667-0.0000 0.6667 (   456 PWs)   bands (ev):

   -36.7810 -36.7807 -36.7231   9.6400  10.1409  10.7355  11.5331  12.0554
    17.3031  19.7715  21.2300  27.3825

          k = 0.0000 0.8333 0.0000 (   460 PWs)   bands (ev):

   -36.8093 -36.7371 -36.7371   9.0751   9.2427  12.2585  12.3411  12.3411
    14.4387  22.2995  24.5778  24.5778

          k = 0.9167-0.0833 0.9167 (   460 PWs)   bands (ev):

   -36.8134 -36.7434 -36.7385   9.0772   9.2445  12.2026  12.2088  12.4647
    15.7376  21.0628  23.2958  24.4510

          k = 0.8333 0.0000 0.8333 (   464 PWs)   bands (ev):

   -36.8077 -36.7550 -36.7357   9.2129   9.4431  11.7304  12.0408  12.3952
    17.1195  20.4330  21.4768  25.0059

          k = 0.0000-1.0000 0.0000 (   468 PWs)   bands (ev):

   -36.8181 -36.7408 -36.7408   8.9823   9.1572  12.3095  12.5164  12.5164
    15.7739  20.5263  24.1003  24.1003

          k =-0.1667 0.3333 0.0000 (   473 PWs)   bands (ev):

   -36.7334 -36.7049 -36.6966   8.4144  10.2180  10.8608  10.9713  11.3424
    11.8324  27.8445  28.0788  31.5442

          k =-0.2500 0.4167-0.0833 (   471 PWs)   bands (ev):

   -36.7602 -36.7141 -36.7011   9.0557  10.1862  10.7358  11.0664  11.5268
    12.2354  24.9576  27.4935  30.7502

          k =-0.3333 0.5000-0.1667 (   466 PWs)   bands (ev):

   -36.7878 -36.7210 -36.7069   9.3265  10.5453  10.6081  11.0037  11.9155
    13.0096  22.0297  27.2113  29.5012

          k = 0.5833-0.4167 0.7500 (   462 PWs)   bands (ev):

   -36.8083 -36.7250 -36.7119   9.3006  10.4103  10.8691  11.1972  12.1970
    14.3026  19.3903  27.2403  28.4631

          k = 0.5000-0.3333 0.6667 (   462 PWs)   bands (ev):

   -36.8159 -36.7263 -36.7139   9.2738  10.3584  10.8464  11.3999  12.2847
    15.4276  17.8272  27.5425  27.8057

          k =-0.1667 0.5000 0.0000 (   466 PWs)   bands (ev):

   -36.7615 -36.7186 -36.7099   9.2314   9.8923  10.8264  11.3985  11.6419
    12.2289  26.2033  26.5345  29.1796

          k =-0.2500 0.5833-0.0833 (   464 PWs)   bands (ev):

   -36.7822 -36.7291 -36.7151   9.5366   9.9618  10.6557  11.4247  11.9760
    13.1356  23.4008  25.9780  27.7003

          k = 0.6667-0.3333 0.8333 (   463 PWs)   bands (ev):

   -36.7986 -36.7375 -36.7197   9.5408  10.1790  10.6527  11.3148  12.2377
    14.5814  20.6382  25.9336  26.4198

          k = 0.5833-0.2500 0.7500 (   464 PWs)   bands (ev):

   -36.8058 -36.7440 -36.7208   9.5678  10.1605  10.8597  11.1982  12.2794
    16.3379  18.3327  25.3190  26.4255

          k = 0.5000-0.1667 0.6667 (   465 PWs)   bands (ev):

   -36.8025 -36.7465 -36.7178   9.6491  10.1827  10.8108  11.1837  12.1262
    15.7996  19.0934  24.6349  27.2499

          k = 0.4167-0.0833 0.5833 (   463 PWs)   bands (ev):

   -36.7907 -36.7423 -36.7119   9.7532  10.3111  10.4240  11.2828  11.8167
    14.2298  21.6488  24.3706  28.3439

          k = 0.3333 0.0000 0.5000 (   464 PWs)   bands (ev):

   -36.7754 -36.7304 -36.7057   9.6424  10.0591  10.5419  11.3988  11.4226
    13.0541  24.3068  24.7080  29.5973

          k =-0.1667 0.6667-0.0000 (   464 PWs)   bands (ev):

   -36.7877 -36.7322 -36.7249   9.4212   9.5802  11.2098  11.9033  12.0397
    13.2717  24.6619  24.9596  25.8195

          k = 0.7500-0.2500 0.9167 (   463 PWs)   bands (ev):

   -36.7975 -36.7437 -36.7290   9.4650   9.6790  11.0561  11.8105  12.2708
    14.8120  22.1148  24.2386  24.8516

          k = 0.6667-0.1667 0.8333 (   465 PWs)   bands (ev):

   -36.7985 -36.7571 -36.7294   9.5416   9.8963  10.8769  11.6188  12.3314
    16.7425  19.6622  23.1110  25.1657

          k = 0.5833-0.0833 0.7500 (   461 PWs)   bands (ev):

   -36.7912 -36.7683 -36.7255   9.7225  10.0945  10.6375  11.4809  12.1814
    17.4810  19.0492  22.2278  26.0011

          k = 0.5000 0.0000 0.6667 (   471 PWs)   bands (ev):

   -36.7886 -36.7631 -36.7191   9.9626  10.2482  10.2885  11.4375  11.9249
    15.7106  21.4086  21.8959  27.1244

          k = 0.8333-0.1667 1.0000 (   461 PWs)   bands (ev):

   -36.8061 -36.7421 -36.7364   9.2251   9.3611  11.7294  12.1918  12.3392
    15.1258  22.3124  23.7897  23.8552

          k = 0.7500-0.0833 0.9167 (   464 PWs)   bands (ev):

   -36.8045 -36.7539 -36.7371   9.3176   9.5096  11.4479  11.9708  12.4385
    16.8495  20.9488  21.8624  24.0736

          k = 0.6667 0.0000 0.8333 (   460 PWs)   bands (ev):

   -36.7938 -36.7690 -36.7326   9.4954   9.8156  11.0153  11.7355  12.3376
    18.5369  19.2930  20.9612  24.8661

          k =-0.1667-1.0000-0.0000 (   460 PWs)   bands (ev):

   -36.8128 -36.7458 -36.7407   9.1267   9.2831  12.0027  12.1631  12.5174
    16.5055  20.5275  23.3537  23.4196

          k = 0.6667-0.3333 1.0000 (   467 PWs)   bands (ev):

   -36.7902 -36.7453 -36.7204   9.8509   9.8637  10.4883  11.7336  11.8986
    14.4135  23.0537  23.2188  26.2872

          k = 0.5833-0.2500 0.9167 (   463 PWs)   bands (ev):

   -36.7940 -36.7572 -36.7259   9.8449  10.0214  10.4480  11.5600  12.1779
    16.0601  20.4928  23.2758  25.0889

          k = 0.5000-0.1667 0.8333 (   464 PWs)   bands (ev):

   -36.7951 -36.7616 -36.7284   9.9241   9.9254  10.5478  11.4494  12.2828
    17.8356  18.3757  23.6067  24.4003

          k = 0.6667-0.1667 1.0000 (   471 PWs)   bands (ev):

   -36.7972 -36.7561 -36.7349   9.5919   9.7120  10.8751  11.8412  12.3347
    16.4028  21.9714  22.1350  23.3470

          k = 0.5833-0.0833 0.9167 (   463 PWs)   bands (ev):

   -36.7897 -36.7691 -36.7368   9.6812   9.9558  10.6201  11.6315  12.4288
    18.3234  19.8112  21.7108  23.1006

          k = 0.5000 0.0000 0.8333 (   464 PWs)   bands (ev):

   -36.7839 -36.7748 -36.7331   9.8164  10.2070  10.2819  11.5631  12.3313
    17.8020  20.2909  21.3070  23.9255

          k =-0.3333-1.0000 0.0000 (   462 PWs)   bands (ev):

   -36.7985 -36.7600 -36.7409   9.4761   9.6565  11.0928  11.8047  12.5180
    18.0490  20.5431  21.7287  22.4436

          k =-0.5000-1.0000 0.0000 (   464 PWs)   bands (ev):

   -36.7793 -36.7793 -36.7411   9.7041  10.2708  10.2708  11.5690  12.5178
    19.8667  19.8667  20.5623  22.0474

     the Fermi energy is    12.4048 ev

!    total energy              =    -198.67353355 Ry
     Harris-Foulkes estimate   =    -198.67353351 Ry
     estimated scf accuracy    <       0.00000005 Ry

     The total energy is the sum of the following terms:

     one-electron contribution =     -66.14493002 Ry
     hartree contribution      =      43.59024668 Ry
     xc contribution           =     -31.21539438 Ry
     ewald contribution        =    -144.90428288 Ry
     smearing contrib. (-TS)   =       0.00082705 Ry

     convergence has been achieved in   5 iterations

     Writing output data file Pd-kp-conv.save/
 
     init_run     :      0.51s CPU      0.54s WALL (       1 calls)
     electrons    :      3.53s CPU      3.81s WALL (       1 calls)

     Called by init_run:
     wfcinit      :      0.20s CPU      0.22s WALL (       1 calls)
     potinit      :      0.01s CPU      0.01s WALL (       1 calls)
     hinit0       :      0.29s CPU      0.29s WALL (       1 calls)

     Called by electrons:
     c_bands      :      2.94s CPU      3.12s WALL (       5 calls)
     sum_band     :      0.53s CPU      0.56s WALL (       5 calls)
     v_of_rho     :      0.03s CPU      0.03s WALL (       6 calls)
     newd         :      0.04s CPU      0.04s WALL (       6 calls)
     mix_rho      :      0.00s CPU      0.00s WALL (       5 calls)

     Called by c_bands:
     init_us_2    :      0.08s CPU      0.09s WALL (     792 calls)
     cegterg      :      2.73s CPU      2.89s WALL (     360 calls)

     Called by sum_band:
     sum_band:bec :      0.00s CPU      0.00s WALL (     360 calls)
     addusdens    :      0.04s CPU      0.04s WALL (       5 calls)

     Called by *egterg:
     h_psi        :      2.21s CPU      2.35s WALL (    1284 calls)
     s_psi        :      0.05s CPU      0.05s WALL (    1284 calls)
     g_psi        :      0.03s CPU      0.03s WALL (     852 calls)
     cdiaghg      :      0.35s CPU      0.37s WALL (    1212 calls)

     Called by h_psi:
     h_psi:pot    :      2.20s CPU      2.34s WALL (    1284 calls)
     h_psi:calbec :      0.06s CPU      0.07s WALL (    1284 calls)
     vloc_psi     :      2.08s CPU      2.21s WALL (    1284 calls)
     add_vuspsi   :      0.05s CPU      0.05s WALL (    1284 calls)

     General routines
     calbec       :      0.08s CPU      0.08s WALL (    1644 calls)
     fft          :      0.01s CPU      0.01s WALL (      67 calls)
     ffts         :      0.00s CPU      0.00s WALL (       5 calls)
     fftw         :      2.19s CPU      2.32s WALL (   28286 calls)
 
     Parallel routines
     fft_scatt_xy :      0.37s CPU      0.40s WALL (   28358 calls)
     fft_scatt_yz :      0.61s CPU      0.65s WALL (   28358 calls)
 
     PWSCF        :     4.11s CPU         4.83s WALL

 
   This run was terminated on:  22: 2:56   2Dec2021            

=------------------------------------------------------------------------------=
   JOB DONE.
=------------------------------------------------------------------------------=
