
     Program PWSCF v.6.3 starts on  2Dec2021 at 22: 3:16 

     This program is part of the open-source Quantum ESPRESSO suite
     for quantum simulation of materials; please cite
         "P. Giannozzi et al., J. Phys.:Condens. Matter 21 395502 (2009);
         "P. Giannozzi et al., J. Phys.:Condens. Matter 29 465901 (2017);
          URL http://www.quantum-espresso.org", 
     in publications or presentations arising from this work. More details at
     http://www.quantum-espresso.org/quote

     Parallel version (MPI & OpenMP), running on       2 processor cores
     Number of MPI processes:                 2
     Threads/MPI process:                     1

     MPI processes distributed on     1 nodes
     R & G space division:  proc/nbgrp/npool/nimage =       2
     Reading input from pw-input.in

     Current dimensions of program PWSCF are:
     Max number of different atomic species (ntypx) = 10
     Max number of k-points (npk) =  40000
     Max angular momentum in pseudopotentials (lmaxx) =  3

     Subspace diagonalization in iterative solution of the eigenvalue problem:
     a serial algorithm will be used

 
     Parallelization info
     --------------------
     sticks:   dense  smooth     PW     G-vecs:    dense   smooth      PW
     Min         174     174     60                 2142     2142     434
     Max         175     175     61                 2143     2143     435
     Sum         349     349    121                 4285     4285     869
 

     Title: 
     Pd-kp-conv                                                                 


     bravais-lattice index     =            2
     lattice parameter (alat)  =       8.5000  a.u.
     unit-cell volume          =     153.5312 (a.u.)^3
     number of atoms/cell      =            1
     number of atomic types    =            1
     number of electrons       =        16.00
     number of Kohn-Sham states=           12
     kinetic-energy cutoff     =      35.0000  Ry
     charge density cutoff     =     140.0000  Ry
     convergence threshold     =      1.0E-07
     mixing beta               =       0.7000
     number of iterations used =            8  plain     mixing
     Exchange-correlation      =  SLA  PW   PBX  PBC ( 1  4  3  4 0 0)

     celldm(1)=   8.500000  celldm(2)=   0.000000  celldm(3)=   0.000000
     celldm(4)=   0.000000  celldm(5)=   0.000000  celldm(6)=   0.000000

     crystal axes: (cart. coord. in units of alat)
               a(1) = (  -0.500000   0.000000   0.500000 )  
               a(2) = (   0.000000   0.500000   0.500000 )  
               a(3) = (  -0.500000   0.500000   0.000000 )  

     reciprocal axes: (cart. coord. in units 2 pi/alat)
               b(1) = ( -1.000000 -1.000000  1.000000 )  
               b(2) = (  1.000000  1.000000  1.000000 )  
               b(3) = ( -1.000000  1.000000 -1.000000 )  


     PseudoPot. # 1 for Pd read from file:
     ./pd_pbe_v1.4.uspp.F.UPF
     MD5 check sum: 2d733d2bc2cbfd217af676df1668a4bc
     Pseudo is Ultrasoft + core correction, Zval = 16.0
     Generated by new atomic code, or converted to UPF format
     Using radial grid of  887 points,  6 beta functions with: 
                l(1) =   0
                l(2) =   0
                l(3) =   1
                l(4) =   1
                l(5) =   2
                l(6) =   2
     Q(r) pseudized with  8 coefficients,  rinner =    1.130   1.130   1.130
                                                       1.130   1.130

     atomic species   valence    mass     pseudopotential
        Pd            16.00   106.40000     Pd( 1.00)

     48 Sym. Ops., with inversion, found



   Cartesian axes

     site n.     atom                  positions (alat units)
         1           Pd  tau(   1) = (   0.0000000   0.0000000   0.0000000  )

     number of k points=    72  Marzari-Vanderbilt smearing, width (Ry)=  0.0250
                       cart. coord. in units 2pi/alat
        k(    1) = (   0.0000000   0.0000000   0.0000000), wk =   0.0011574
        k(    2) = (  -0.0833333   0.0833333  -0.0833333), wk =   0.0092593
        k(    3) = (  -0.1666667   0.1666667  -0.1666667), wk =   0.0092593
        k(    4) = (  -0.2500000   0.2500000  -0.2500000), wk =   0.0092593
        k(    5) = (  -0.3333333   0.3333333  -0.3333333), wk =   0.0092593
        k(    6) = (  -0.4166667   0.4166667  -0.4166667), wk =   0.0092593
        k(    7) = (   0.5000000  -0.5000000   0.5000000), wk =   0.0046296
        k(    8) = (   0.0000000   0.1666667   0.0000000), wk =   0.0069444
        k(    9) = (  -0.0833333   0.2500000  -0.0833333), wk =   0.0277778
        k(   10) = (  -0.1666667   0.3333333  -0.1666667), wk =   0.0277778
        k(   11) = (  -0.2500000   0.4166667  -0.2500000), wk =   0.0277778
        k(   12) = (  -0.3333333   0.5000000  -0.3333333), wk =   0.0277778
        k(   13) = (   0.5833333  -0.4166667   0.5833333), wk =   0.0277778
        k(   14) = (   0.5000000  -0.3333333   0.5000000), wk =   0.0277778
        k(   15) = (   0.4166667  -0.2500000   0.4166667), wk =   0.0277778
        k(   16) = (   0.3333333  -0.1666667   0.3333333), wk =   0.0277778
        k(   17) = (   0.2500000  -0.0833333   0.2500000), wk =   0.0277778
        k(   18) = (   0.1666667  -0.0000000   0.1666667), wk =   0.0138889
        k(   19) = (   0.0000000   0.3333333   0.0000000), wk =   0.0069444
        k(   20) = (  -0.0833333   0.4166667  -0.0833333), wk =   0.0277778
        k(   21) = (  -0.1666667   0.5000000  -0.1666667), wk =   0.0277778
        k(   22) = (  -0.2500000   0.5833333  -0.2500000), wk =   0.0277778
        k(   23) = (   0.6666667  -0.3333333   0.6666667), wk =   0.0277778
        k(   24) = (   0.5833333  -0.2500000   0.5833333), wk =   0.0277778
        k(   25) = (   0.5000000  -0.1666667   0.5000000), wk =   0.0277778
        k(   26) = (   0.4166667  -0.0833333   0.4166667), wk =   0.0277778
        k(   27) = (   0.3333333   0.0000000   0.3333333), wk =   0.0138889
        k(   28) = (   0.0000000   0.5000000   0.0000000), wk =   0.0069444
        k(   29) = (  -0.0833333   0.5833333  -0.0833333), wk =   0.0277778
        k(   30) = (  -0.1666667   0.6666667  -0.1666667), wk =   0.0277778
        k(   31) = (   0.7500000  -0.2500000   0.7500000), wk =   0.0277778
        k(   32) = (   0.6666667  -0.1666667   0.6666667), wk =   0.0277778
        k(   33) = (   0.5833333  -0.0833333   0.5833333), wk =   0.0277778
        k(   34) = (   0.5000000   0.0000000   0.5000000), wk =   0.0138889
        k(   35) = (   0.0000000   0.6666667   0.0000000), wk =   0.0069444
        k(   36) = (  -0.0833333   0.7500000  -0.0833333), wk =   0.0277778
        k(   37) = (   0.8333333  -0.1666667   0.8333333), wk =   0.0277778
        k(   38) = (   0.7500000  -0.0833333   0.7500000), wk =   0.0277778
        k(   39) = (   0.6666667  -0.0000000   0.6666667), wk =   0.0138889
        k(   40) = (   0.0000000   0.8333333   0.0000000), wk =   0.0069444
        k(   41) = (   0.9166667  -0.0833333   0.9166667), wk =   0.0277778
        k(   42) = (   0.8333333   0.0000000   0.8333333), wk =   0.0138889
        k(   43) = (   0.0000000  -1.0000000   0.0000000), wk =   0.0034722
        k(   44) = (  -0.1666667   0.3333333   0.0000000), wk =   0.0277778
        k(   45) = (  -0.2500000   0.4166667  -0.0833333), wk =   0.0555556
        k(   46) = (  -0.3333333   0.5000000  -0.1666667), wk =   0.0555556
        k(   47) = (   0.5833333  -0.4166667   0.7500000), wk =   0.0555556
        k(   48) = (   0.5000000  -0.3333333   0.6666667), wk =   0.0277778
        k(   49) = (  -0.1666667   0.5000000   0.0000000), wk =   0.0277778
        k(   50) = (  -0.2500000   0.5833333  -0.0833333), wk =   0.0555556
        k(   51) = (   0.6666667  -0.3333333   0.8333333), wk =   0.0555556
        k(   52) = (   0.5833333  -0.2500000   0.7500000), wk =   0.0555556
        k(   53) = (   0.5000000  -0.1666667   0.6666667), wk =   0.0555556
        k(   54) = (   0.4166667  -0.0833333   0.5833333), wk =   0.0555556
        k(   55) = (   0.3333333   0.0000000   0.5000000), wk =   0.0277778
        k(   56) = (  -0.1666667   0.6666667  -0.0000000), wk =   0.0277778
        k(   57) = (   0.7500000  -0.2500000   0.9166667), wk =   0.0555556
        k(   58) = (   0.6666667  -0.1666667   0.8333333), wk =   0.0555556
        k(   59) = (   0.5833333  -0.0833333   0.7500000), wk =   0.0555556
        k(   60) = (   0.5000000   0.0000000   0.6666667), wk =   0.0277778
        k(   61) = (   0.8333333  -0.1666667   1.0000000), wk =   0.0277778
        k(   62) = (   0.7500000  -0.0833333   0.9166667), wk =   0.0555556
        k(   63) = (   0.6666667   0.0000000   0.8333333), wk =   0.0277778
        k(   64) = (  -0.1666667  -1.0000000  -0.0000000), wk =   0.0138889
        k(   65) = (   0.6666667  -0.3333333   1.0000000), wk =   0.0277778
        k(   66) = (   0.5833333  -0.2500000   0.9166667), wk =   0.0555556
        k(   67) = (   0.5000000  -0.1666667   0.8333333), wk =   0.0277778
        k(   68) = (   0.6666667  -0.1666667   1.0000000), wk =   0.0277778
        k(   69) = (   0.5833333  -0.0833333   0.9166667), wk =   0.0555556
        k(   70) = (   0.5000000   0.0000000   0.8333333), wk =   0.0277778
        k(   71) = (  -0.3333333  -1.0000000   0.0000000), wk =   0.0138889
        k(   72) = (  -0.5000000  -1.0000000   0.0000000), wk =   0.0069444

     Dense  grid:     4285 G-vectors     FFT dimensions: (  24,  24,  24)

     Estimated max dynamical RAM per process >      12.42 MB

     Estimated total dynamical RAM >      24.84 MB

     Check: negative/imaginary core charge=   -0.000001    0.000000

     Initial potential from superposition of free atoms
     Check: negative starting charge=   -0.084050

     starting charge   15.49999, renormalised to   16.00000

     negative rho (up, down):  8.676E-02 0.000E+00
     Starting wfcs are   12 randomized atomic wfcs

     total cpu time spent up to now is        0.7 secs

     Self-consistent Calculation

     iteration #  1     ecut=    35.00 Ry     beta= 0.70
     Davidson diagonalization with overlap
     ethr =  1.00E-02,  avg # of iterations =  3.3

     negative rho (up, down):  8.376E-02 0.000E+00

     total cpu time spent up to now is        1.5 secs

     total energy              =    -197.73253404 Ry
     Harris-Foulkes estimate   =    -199.06413594 Ry
     estimated scf accuracy    <       1.79310450 Ry

     iteration #  2     ecut=    35.00 Ry     beta= 0.70
     Davidson diagonalization with overlap
     ethr =  1.00E-02,  avg # of iterations =  2.0

     negative rho (up, down):  8.604E-02 0.000E+00

     total cpu time spent up to now is        2.3 secs

     total energy              =    -198.20157625 Ry
     Harris-Foulkes estimate   =    -199.48581454 Ry
     estimated scf accuracy    <       2.79278986 Ry

     iteration #  3     ecut=    35.00 Ry     beta= 0.70
     Davidson diagonalization with overlap
     ethr =  1.00E-02,  avg # of iterations =  2.0

     negative rho (up, down):  8.609E-02 0.000E+00

     total cpu time spent up to now is        3.0 secs

     total energy              =    -198.64214940 Ry
     Harris-Foulkes estimate   =    -198.64332213 Ry
     estimated scf accuracy    <       0.00362715 Ry

     iteration #  4     ecut=    35.00 Ry     beta= 0.70
     Davidson diagonalization with overlap
     ethr =  2.27E-05,  avg # of iterations =  2.5

     negative rho (up, down):  8.614E-02 0.000E+00

     total cpu time spent up to now is        3.7 secs

     total energy              =    -198.64268434 Ry
     Harris-Foulkes estimate   =    -198.64271173 Ry
     estimated scf accuracy    <       0.00010063 Ry

     iteration #  5     ecut=    35.00 Ry     beta= 0.70
     Davidson diagonalization with overlap
     ethr =  6.29E-07,  avg # of iterations =  2.0

     negative rho (up, down):  8.613E-02 0.000E+00

     total cpu time spent up to now is        4.4 secs

     total energy              =    -198.64269637 Ry
     Harris-Foulkes estimate   =    -198.64269648 Ry
     estimated scf accuracy    <       0.00000021 Ry

     iteration #  6     ecut=    35.00 Ry     beta= 0.70
     Davidson diagonalization with overlap
     ethr =  1.32E-09,  avg # of iterations =  2.3

     negative rho (up, down):  8.613E-02 0.000E+00

     total cpu time spent up to now is        5.3 secs

     total energy              =    -198.64269649 Ry
     Harris-Foulkes estimate   =    -198.64269655 Ry
     estimated scf accuracy    <       0.00000015 Ry

     iteration #  7     ecut=    35.00 Ry     beta= 0.70
     Davidson diagonalization with overlap
     ethr =  9.24E-10,  avg # of iterations =  2.0

     negative rho (up, down):  8.613E-02 0.000E+00

     total cpu time spent up to now is        6.1 secs

     End of self-consistent calculation

          k = 0.0000 0.0000 0.0000 (   537 PWs)   bands (ev):

   -38.9208 -38.9208 -38.9208   5.5366   8.4638   8.4638   8.4638   9.2500
     9.2500  26.3784  28.6829  28.6829

          k =-0.0833 0.0833-0.0833 (   534 PWs)   bands (ev):

   -38.9258 -38.9216 -38.9216   5.7123   8.4278   8.5076   8.5076   9.2353
     9.2353  26.1483  27.3119  28.6374

          k =-0.1667 0.1667-0.1667 (   540 PWs)   bands (ev):

   -38.9399 -38.9237 -38.9237   6.2032   8.3700   8.5966   8.5966   9.2311
     9.2311  23.8567  26.9291  28.4585

          k =-0.2500 0.2500-0.2500 (   543 PWs)   bands (ev):

   -38.9588 -38.9267 -38.9267   6.8199   8.5173   8.6192   8.6192   9.3401
     9.3401  21.0135  26.6850  28.0605

          k =-0.3333 0.3333-0.3333 (   531 PWs)   bands (ev):

   -38.9774 -38.9295 -38.9295   7.1324   8.5566   8.5566   9.3207   9.5568
     9.5568  18.2788  26.1863  27.4744

          k =-0.4167 0.4167-0.4167 (   547 PWs)   bands (ev):

   -38.9915 -38.9319 -38.9319   7.1570   8.4859   8.4859   9.7524   9.7524
    10.7022  15.8548  25.7678  26.9480

          k = 0.5000-0.5000 0.5000 (   544 PWs)   bands (ev):

   -38.9967 -38.9326 -38.9326   7.1432   8.4584   8.4584   9.8306   9.8306
    11.7322  14.4916  25.6131  26.7405

          k = 0.0000 0.1667 0.0000 (   536 PWs)   bands (ev):

   -38.9256 -38.9228 -38.9228   5.7710   8.3807   8.5421   8.5421   9.1691
     9.2864  26.3451  27.7995  27.7995

          k =-0.0833 0.2500-0.0833 (   542 PWs)   bands (ev):

   -38.9361 -38.9253 -38.9243   6.1602   8.2929   8.6366   8.6386   9.1080
     9.3237  24.9137  26.6691  27.0760

          k =-0.1667 0.3333-0.1667 (   541 PWs)   bands (ev):

   -38.9530 -38.9284 -38.9268   6.7642   8.2778   8.6578   8.6982   9.2295
     9.4234  22.0774  26.4758  26.4759

          k =-0.2500 0.4167-0.2500 (   538 PWs)   bands (ev):

   -38.9715 -38.9314 -38.9301   7.1961   8.5379   8.6543   8.6631   9.6104
     9.6909  19.2788  26.0304  26.0958

          k =-0.3333 0.5000-0.3333 (   539 PWs)   bands (ev):

   -38.9867 -38.9334 -38.9334   7.2619   8.4514   8.5898   9.1988   9.7815
    10.6878  16.7128  25.6289  25.8366

          k = 0.5833-0.4167 0.5833 (   541 PWs)   bands (ev):

   -38.9946 -38.9356 -38.9337   7.2429   8.4044   8.5382   9.4928   9.8357
    12.0134  14.7415  25.1334  26.0506

          k = 0.5000-0.3333 0.5000 (   540 PWs)   bands (ev):

   -38.9928 -38.9363 -38.9326   7.2521   8.4228   8.5377   9.5079   9.7327
    11.6243  15.2759  24.7766  26.1164

          k = 0.4167-0.2500 0.4167 (   537 PWs)   bands (ev):

   -38.9820 -38.9352 -38.9301   7.2701   8.4910   8.5918   9.1629   9.5053
    10.3819  17.5410  24.7186  26.6224

          k = 0.3333-0.1667 0.3333 (   538 PWs)   bands (ev):

   -38.9654 -38.9324 -38.9269   7.1097   8.4561   8.6594   8.6709   9.2452
     9.7324  20.2013  24.9223  27.4647

          k = 0.2500-0.0833 0.2500 (   545 PWs)   bands (ev):

   -38.9473 -38.9288 -38.9239   6.5560   8.2874   8.6568   8.6761   9.1053
     9.4233  23.0341  25.2926  28.1777

          k = 0.1667-0.0000 0.1667 (   537 PWs)   bands (ev):

   -38.9327 -38.9247 -38.9220   5.9957   8.3556   8.5702   8.5930   9.1528
     9.2914  25.6697  25.8781  28.0162

          k = 0.0000 0.3333 0.0000 (   540 PWs)   bands (ev):

   -38.9392 -38.9281 -38.9281   6.4274   8.1602   8.7680   8.7680   8.9911
     9.3876  25.9513  25.9513  26.2790

          k =-0.0833 0.4167-0.0833 (   541 PWs)   bands (ev):

   -38.9514 -38.9317 -38.9312   6.9290   8.0452   8.7462   8.8871   9.1780
     9.4781  23.3417  25.0959  26.2251

          k =-0.1667 0.5000-0.1667 (   537 PWs)   bands (ev):

   -38.9669 -38.9349 -38.9348   7.3894   8.1032   8.5861   8.8975   9.6488
     9.8164  20.5065  24.5425  25.4522

          k =-0.2500 0.5833-0.2500 (   535 PWs)   bands (ev):

   -38.9808 -38.9395 -38.9368   7.4838   8.3277   8.6073   8.8338   9.8098
    10.9157  17.8430  24.2099  24.3566

          k = 0.6667-0.3333 0.6667 (   540 PWs)   bands (ev):

   -38.9894 -38.9437 -38.9370   7.4754   8.2814   8.7652   8.9179   9.8499
    12.4264  15.5209  23.1703  24.6156

          k = 0.5833-0.2500 0.5833 (   535 PWs)   bands (ev):

   -38.9899 -38.9461 -38.9354   7.5009   8.2791   8.7330   9.0384   9.7297
    12.9265  14.9634  22.4586  25.3617

          k = 0.5000-0.1667 0.5000 (   541 PWs)   bands (ev):

   -38.9832 -38.9461 -38.9326   7.5640   8.3417   8.7551   8.8536   9.4787
    11.5138  17.0954  22.1244  26.5693

          k = 0.4167-0.0833 0.4167 (   539 PWs)   bands (ev):

   -38.9711 -38.9428 -38.9291   7.5612   8.2868   8.5779   8.8310   9.1744
    10.4585  19.6626  22.1599  27.2453

          k = 0.3333 0.0000 0.3333 (   537 PWs)   bands (ev):

   -38.9579 -38.9364 -38.9259   7.1324   8.1746   8.6402   8.8586   8.9845
     9.8091  22.2539  22.6813  28.3702

          k = 0.0000 0.5000 0.0000 (   528 PWs)   bands (ev):

   -38.9571 -38.9353 -38.9353   7.2129   7.8732   9.0655   9.1125   9.1125
     9.5278  24.0073  24.0073  25.2609

          k =-0.0833 0.5833-0.0833 (   541 PWs)   bands (ev):

   -38.9683 -38.9398 -38.9391   7.4682   7.7722   8.9674   9.2135   9.6609
     9.8671  21.8206  23.2747  23.6636

          k =-0.1667 0.6667-0.1667 (   537 PWs)   bands (ev):

   -38.9785 -38.9456 -38.9413   7.5506   7.8666   8.8480   9.1746   9.8272
    11.0985  19.1788  22.2398  22.9744

          k = 0.7500-0.2500 0.7500 (   538 PWs)   bands (ev):

   -38.9843 -38.9524 -38.9415   7.5783   8.0366   8.7691   9.0978   9.8720
    12.7109  16.7535  21.0526  23.1709

          k = 0.6667-0.1667 0.6667 (   534 PWs)   bands (ev):

   -38.9841 -38.9581 -38.9397   7.6719   8.1532   8.7070   9.0318   9.7495
    14.3510  14.9531  20.1503  23.8779

          k = 0.5833-0.0833 0.5833 (   534 PWs)   bands (ev):

   -38.9798 -38.9597 -38.9365   7.8225   8.2406   8.5558   8.9965   9.5036
    12.8381  16.9667  19.6018  25.0353

          k = 0.5000 0.0000 0.5000 (   540 PWs)   bands (ev):

   -38.9754 -38.9538 -38.9327   7.9241   8.1971   8.4555   8.9706   9.2446
    11.4795  19.3940  19.5140  26.5220

          k = 0.0000 0.6667 0.0000 (   540 PWs)   bands (ev):

   -38.9753 -38.9431 -38.9431   7.4182   7.5989   9.5076   9.5076   9.6703
    10.1567  21.8420  22.3518  22.3518

          k =-0.0833 0.7500-0.0833 (   533 PWs)   bands (ev):

   -38.9825 -38.9474 -38.9455   7.4143   7.5417   9.4578   9.5363   9.8274
    11.3378  20.0845  20.8641  21.8821

          k = 0.8333-0.1667 0.8333 (   528 PWs)   bands (ev):

   -38.9853 -38.9546 -38.9459   7.4521   7.6517   9.2372   9.4610   9.8983
    12.9376  18.1023  19.3342  21.9473

          k = 0.7500-0.0833 0.7500 (   533 PWs)   bands (ev):

   -38.9819 -38.9638 -38.9443   7.5577   7.8795   8.9435   9.3612   9.7980
    14.8124  16.1305  18.2495  22.5572

          k = 0.6667-0.0000 0.6667 (   528 PWs)   bands (ev):

   -38.9728 -38.9726 -38.9408   7.7273   8.1519   8.6107   9.2199   9.6188
    14.3692  16.6809  17.8152  23.6333

          k = 0.0000 0.8333 0.0000 (   540 PWs)   bands (ev):

   -38.9886 -38.9484 -38.9484   7.2827   7.4077   9.7780   9.8412   9.8412
    11.9900  18.7139  21.2253  21.2253

          k = 0.9167-0.0833 0.9167 (   537 PWs)   bands (ev):

   -38.9906 -38.9521 -38.9493   7.2868   7.4097   9.7350   9.7551   9.9362
    13.1746  17.5260  20.0256  21.1176

          k = 0.8333 0.0000 0.8333 (   534 PWs)   bands (ev):

   -38.9875 -38.9583 -38.9478   7.3935   7.5761   9.3964   9.6126   9.8819
    14.3984  16.9400  18.2949  21.5879

          k = 0.0000-1.0000 0.0000 (   524 PWs)   bands (ev):

   -38.9930 -38.9503 -38.9503   7.2109   7.3393   9.8181   9.9767   9.9767
    13.3144  16.9735  20.8215  20.8215

          k =-0.1667 0.3333 0.0000 (   541 PWs)   bands (ev):

   -38.9459 -38.9303 -38.9258   6.6203   8.1814   8.6869   8.7704   9.0691
     9.4476  24.1096  24.3518  27.9052

          k =-0.2500 0.4167-0.0833 (   539 PWs)   bands (ev):

   -38.9608 -38.9356 -38.9283   7.2035   8.1635   8.5936   8.8479   9.2182
     9.7836  21.3583  23.7608  27.0663

          k =-0.3333 0.5000-0.1667 (   532 PWs)   bands (ev):

   -38.9762 -38.9394 -38.9315   7.4557   8.4420   8.5258   8.8051   9.5211
    10.4840  18.6259  23.5049  25.8220

          k = 0.5833-0.4167 0.7500 (   538 PWs)   bands (ev):

   -38.9878 -38.9417 -38.9344   7.4401   8.3395   8.6966   8.9980   9.7322
    11.7186  16.1640  23.5604  24.7666

          k = 0.5000-0.3333 0.6667 (   540 PWs)   bands (ev):

   -38.9920 -38.9424 -38.9356   7.4192   8.2991   8.6778   9.1557   9.7970
    12.8820  14.6078  23.9230  24.0506

          k =-0.1667 0.5000 0.0000 (   542 PWs)   bands (ev):

   -38.9617 -38.9381 -38.9333   7.3676   7.9256   8.6673   9.1082   9.3186
     9.7828  22.5313  22.8409  25.4086

          k =-0.2500 0.5833-0.0833 (   535 PWs)   bands (ev):

   -38.9732 -38.9439 -38.9361   7.6410   7.9925   8.5354   9.1341   9.5691
    10.5993  19.9207  22.3256  23.9695

          k = 0.6667-0.3333 0.8333 (   541 PWs)   bands (ev):

   -38.9825 -38.9487 -38.9389   7.6439   8.1732   8.5415   9.0499   9.7635
    11.9195  17.3690  22.2359  22.8160

          k = 0.5833-0.2500 0.7500 (   540 PWs)   bands (ev):

   -38.9866 -38.9523 -38.9395   7.6641   8.1537   8.7170   8.9584   9.7929
    13.5860  15.1836  21.6757  22.8080

          k = 0.5000-0.1667 0.6667 (   537 PWs)   bands (ev):

   -38.9846 -38.9537 -38.9377   7.7291   8.1687   8.6829   8.9476   9.6758
    13.0407  15.9160  21.0665  23.5530

          k = 0.4167-0.0833 0.5833 (   536 PWs)   bands (ev):

   -38.9781 -38.9513 -38.9344   7.8148   8.2613   8.3769   9.0271   9.4378
    11.5632  18.2879  20.8235  24.5943

          k = 0.3333 0.0000 0.5000 (   535 PWs)   bands (ev):

   -38.9694 -38.9447 -38.9309   7.7209   8.0615   8.4472   9.1221   9.1258
    10.4930  20.7513  21.1284  25.8245

          k =-0.1667 0.6667-0.0000 (   535 PWs)   bands (ev):

   -38.9764 -38.9456 -38.9416   7.5580   7.6785   8.9836   9.5042   9.6215
    10.7680  21.0622  21.4387  22.1917

          k = 0.7500-0.2500 0.9167 (   534 PWs)   bands (ev):

   -38.9819 -38.9521 -38.9439   7.5925   7.7669   8.8629   9.4390   9.7891
    12.1481  18.7576  20.6333  21.3904

          k = 0.6667-0.1667 0.8333 (   536 PWs)   bands (ev):

   -38.9825 -38.9596 -38.9443   7.6521   7.9480   8.7216   9.2886   9.8336
    13.8893  16.5100  19.6009  21.6456

          k = 0.5833-0.0833 0.7500 (   534 PWs)   bands (ev):

   -38.9784 -38.9658 -38.9422   7.7950   8.1105   8.5330   9.1796   9.7177
    14.5465  15.9423  18.7996  22.3789

          k = 0.5000 0.0000 0.6667 (   539 PWs)   bands (ev):

   -38.9771 -38.9628 -38.9385   7.9829   8.2408   8.2501   9.1488   9.5188
    12.9069  18.1392  18.4724  23.4087

          k = 0.8333-0.1667 1.0000 (   532 PWs)   bands (ev):

   -38.9866 -38.9512 -38.9480   7.4061   7.5031   9.3879   9.7337   9.8407
    12.5192  18.7371  20.4358  20.5175

          k = 0.7500-0.0833 0.9167 (   531 PWs)   bands (ev):

   -38.9857 -38.9577 -38.9485   7.4801   7.6280   9.1734   9.5611   9.9160
    14.0775  17.4988  18.6116  20.6872

          k = 0.6667 0.0000 0.8333 (   530 PWs)   bands (ev):

   -38.9798 -38.9662 -38.9461   7.6191   7.8807   8.8334   9.3780   9.8381
    15.6118  16.1480  17.5783  21.3689

          k =-0.1667-1.0000-0.0000 (   532 PWs)   bands (ev):

   -38.9903 -38.9532 -38.9505   7.3291   7.4404   9.6000   9.7065   9.9769
    13.8934  16.9899  20.0683  20.1335

          k = 0.6667-0.3333 1.0000 (   535 PWs)   bands (ev):

   -38.9777 -38.9528 -38.9392   7.9070   7.9136   8.4051   9.3858   9.4999
    11.7423  19.5774  19.7961  22.6306

          k = 0.5833-0.2500 0.9167 (   538 PWs)   bands (ev):

   -38.9801 -38.9596 -38.9424   7.8988   8.0443   8.3790   9.2447   9.7160
    13.2412  17.2568  19.7953  21.5313

          k = 0.5000-0.1667 0.8333 (   534 PWs)   bands (ev):

   -38.9806 -38.9621 -38.9437   7.9563   7.9710   8.4644   9.1562   9.7961
    14.9773  15.2061  20.0391  20.9524

          k = 0.6667-0.1667 1.0000 (   528 PWs)   bands (ev):

   -38.9816 -38.9587 -38.9471   7.7075   7.7868   8.7198   9.4643   9.8375
    13.5856  18.4978  18.8578  19.9542

          k = 0.5833-0.0833 0.9167 (   532 PWs)   bands (ev):

   -38.9776 -38.9663 -38.9485   7.7783   7.9857   8.5169   9.2985   9.9084
    15.3301  16.6528  18.2963  19.7376

          k = 0.5000 0.0000 0.8333 (   530 PWs)   bands (ev):

   -38.9744 -38.9693 -38.9463   7.8876   8.1881   8.2452   9.2462   9.8335
    14.8186  17.1677  17.8988  20.4592

          k =-0.3333-1.0000 0.0000 (   530 PWs)   bands (ev):

   -38.9825 -38.9610 -38.9508   7.6148   7.7418   8.8936   9.4325   9.9764
    15.1991  17.0415  18.5124  19.1573

          k =-0.5000-1.0000 0.0000 (   524 PWs)   bands (ev):

   -38.9718 -38.9718 -38.9508   7.8014   8.2365   8.2365   9.2507   9.9767
    16.8063  16.8063  17.0835  18.7556

     the Fermi energy is     9.9172 ev

!    total energy              =    -198.64269652 Ry
     Harris-Foulkes estimate   =    -198.64269652 Ry
     estimated scf accuracy    <          1.4E-09 Ry

     The total energy is the sum of the following terms:

     one-electron contribution =     -77.19183495 Ry
     hartree contribution      =      47.81131572 Ry
     xc contribution           =     -31.17897653 Ry
     ewald contribution        =    -138.08525782 Ry
     smearing contrib. (-TS)   =       0.00205707 Ry

     convergence has been achieved in   7 iterations

     Writing output data file Pd-kp-conv.save/
 
     init_run     :      0.53s CPU      0.57s WALL (       1 calls)
     electrons    :      4.87s CPU      5.44s WALL (       1 calls)

     Called by init_run:
     wfcinit      :      0.21s CPU      0.23s WALL (       1 calls)
     potinit      :      0.00s CPU      0.02s WALL (       1 calls)
     hinit0       :      0.30s CPU      0.30s WALL (       1 calls)

     Called by electrons:
     c_bands      :      4.02s CPU      4.48s WALL (       7 calls)
     sum_band     :      0.76s CPU      0.83s WALL (       7 calls)
     v_of_rho     :      0.03s CPU      0.04s WALL (       8 calls)
     newd         :      0.06s CPU      0.06s WALL (       8 calls)
     mix_rho      :      0.00s CPU      0.00s WALL (       7 calls)

     Called by c_bands:
     init_us_2    :      0.12s CPU      0.13s WALL (    1080 calls)
     cegterg      :      3.69s CPU      3.92s WALL (     504 calls)

     Called by sum_band:
     sum_band:bec :      0.01s CPU      0.01s WALL (     504 calls)
     addusdens    :      0.06s CPU      0.06s WALL (       7 calls)

     Called by *egterg:
     h_psi        :      2.95s CPU      3.13s WALL (    1729 calls)
     s_psi        :      0.07s CPU      0.08s WALL (    1729 calls)
     g_psi        :      0.04s CPU      0.04s WALL (    1153 calls)
     cdiaghg      :      0.44s CPU      0.46s WALL (    1657 calls)

     Called by h_psi:
     h_psi:pot    :      2.93s CPU      3.12s WALL (    1729 calls)
     h_psi:calbec :      0.09s CPU      0.09s WALL (    1729 calls)
     vloc_psi     :      2.76s CPU      2.93s WALL (    1729 calls)
     add_vuspsi   :      0.07s CPU      0.08s WALL (    1729 calls)

     General routines
     calbec       :      0.11s CPU      0.12s WALL (    2233 calls)
     fft          :      0.01s CPU      0.01s WALL (      89 calls)
     ffts         :      0.00s CPU      0.00s WALL (       7 calls)
     fftw         :      2.94s CPU      3.14s WALL (   37066 calls)
 
     Parallel routines
     fft_scatt_xy :      0.49s CPU      0.52s WALL (   37162 calls)
     fft_scatt_yz :      0.87s CPU      0.95s WALL (   37162 calls)
 
     PWSCF        :     5.50s CPU         6.45s WALL

 
   This run was terminated on:  22: 3:22   2Dec2021            

=------------------------------------------------------------------------------=
   JOB DONE.
=------------------------------------------------------------------------------=
