
     Program PWSCF v.6.3 starts on  2Dec2021 at 21:59:22 

     This program is part of the open-source Quantum ESPRESSO suite
     for quantum simulation of materials; please cite
         "P. Giannozzi et al., J. Phys.:Condens. Matter 21 395502 (2009);
         "P. Giannozzi et al., J. Phys.:Condens. Matter 29 465901 (2017);
          URL http://www.quantum-espresso.org", 
     in publications or presentations arising from this work. More details at
     http://www.quantum-espresso.org/quote

     Parallel version (MPI & OpenMP), running on       2 processor cores
     Number of MPI processes:                 2
     Threads/MPI process:                     1

     MPI processes distributed on     1 nodes
     R & G space division:  proc/nbgrp/npool/nimage =       2
     Reading input from pw-input.in

     Current dimensions of program PWSCF are:
     Max number of different atomic species (ntypx) = 10
     Max number of k-points (npk) =  40000
     Max angular momentum in pseudopotentials (lmaxx) =  3

     Subspace diagonalization in iterative solution of the eigenvalue problem:
     a serial algorithm will be used

 
     Parallelization info
     --------------------
     sticks:   dense  smooth     PW     G-vecs:    dense   smooth      PW
     Min         174     174     60                 2142     2142     410
     Max         175     175     61                 2143     2143     411
     Sum         349     349    121                 4285     4285     821
 

     Title: 
     Pd-kp-conv                                                                 


     bravais-lattice index     =            2
     lattice parameter (alat)  =       8.5000  a.u.
     unit-cell volume          =     153.5312 (a.u.)^3
     number of atoms/cell      =            1
     number of atomic types    =            1
     number of electrons       =        16.00
     number of Kohn-Sham states=           12
     kinetic-energy cutoff     =      35.0000  Ry
     charge density cutoff     =     140.0000  Ry
     convergence threshold     =      1.0E-07
     mixing beta               =       0.7000
     number of iterations used =            8  plain     mixing
     Exchange-correlation      =  SLA  PW   PBX  PBC ( 1  4  3  4 0 0)

     celldm(1)=   8.500000  celldm(2)=   0.000000  celldm(3)=   0.000000
     celldm(4)=   0.000000  celldm(5)=   0.000000  celldm(6)=   0.000000

     crystal axes: (cart. coord. in units of alat)
               a(1) = (  -0.500000   0.000000   0.500000 )  
               a(2) = (   0.000000   0.500000   0.500000 )  
               a(3) = (  -0.500000   0.500000   0.000000 )  

     reciprocal axes: (cart. coord. in units 2 pi/alat)
               b(1) = ( -1.000000 -1.000000  1.000000 )  
               b(2) = (  1.000000  1.000000  1.000000 )  
               b(3) = ( -1.000000  1.000000 -1.000000 )  


     PseudoPot. # 1 for Pd read from file:
     ./pd_pbe_v1.4.uspp.F.UPF
     MD5 check sum: 2d733d2bc2cbfd217af676df1668a4bc
     Pseudo is Ultrasoft + core correction, Zval = 16.0
     Generated by new atomic code, or converted to UPF format
     Using radial grid of  887 points,  6 beta functions with: 
                l(1) =   0
                l(2) =   0
                l(3) =   1
                l(4) =   1
                l(5) =   2
                l(6) =   2
     Q(r) pseudized with  8 coefficients,  rinner =    1.130   1.130   1.130
                                                       1.130   1.130

     atomic species   valence    mass     pseudopotential
        Pd            16.00   106.40000     Pd( 1.00)

     48 Sym. Ops., with inversion, found



   Cartesian axes

     site n.     atom                  positions (alat units)
         1           Pd  tau(   1) = (   0.0000000   0.0000000   0.0000000  )

     number of k points=     8  Marzari-Vanderbilt smearing, width (Ry)=  0.0250
                       cart. coord. in units 2pi/alat
        k(    1) = (   0.0000000   0.0000000   0.0000000), wk =   0.0312500
        k(    2) = (  -0.2500000   0.2500000  -0.2500000), wk =   0.2500000
        k(    3) = (   0.5000000  -0.5000000   0.5000000), wk =   0.1250000
        k(    4) = (   0.0000000   0.5000000   0.0000000), wk =   0.1875000
        k(    5) = (   0.7500000  -0.2500000   0.7500000), wk =   0.7500000
        k(    6) = (   0.5000000   0.0000000   0.5000000), wk =   0.3750000
        k(    7) = (   0.0000000  -1.0000000   0.0000000), wk =   0.0937500
        k(    8) = (  -0.5000000  -1.0000000   0.0000000), wk =   0.1875000

     Dense  grid:     4285 G-vectors     FFT dimensions: (  24,  24,  24)

     Estimated max dynamical RAM per process >       9.28 MB

     Estimated total dynamical RAM >      18.55 MB

     Check: negative/imaginary core charge=   -0.000001    0.000000

     Initial potential from superposition of free atoms
     Check: negative starting charge=   -0.084050

     starting charge   15.49999, renormalised to   16.00000

     negative rho (up, down):  8.676E-02 0.000E+00
     Starting wfcs are   12 randomized atomic wfcs

     total cpu time spent up to now is        0.4 secs

     Self-consistent Calculation

     iteration #  1     ecut=    35.00 Ry     beta= 0.70
     Davidson diagonalization with overlap
     ethr =  1.00E-02,  avg # of iterations =  2.9

     negative rho (up, down):  8.378E-02 0.000E+00

     total cpu time spent up to now is        0.6 secs

     total energy              =    -197.70915037 Ry
     Harris-Foulkes estimate   =    -199.06848424 Ry
     estimated scf accuracy    <       1.83080108 Ry

     iteration #  2     ecut=    35.00 Ry     beta= 0.70
     Davidson diagonalization with overlap
     ethr =  1.00E-02,  avg # of iterations =  2.0

     negative rho (up, down):  8.607E-02 0.000E+00

     total cpu time spent up to now is        0.7 secs

     total energy              =    -198.20020361 Ry
     Harris-Foulkes estimate   =    -199.51490783 Ry
     estimated scf accuracy    <       2.86029599 Ry

     iteration #  3     ecut=    35.00 Ry     beta= 0.70
     Davidson diagonalization with overlap
     ethr =  1.00E-02,  avg # of iterations =  2.0

     negative rho (up, down):  8.613E-02 0.000E+00

     total cpu time spent up to now is        0.8 secs

     total energy              =    -198.65256503 Ry
     Harris-Foulkes estimate   =    -198.65392382 Ry
     estimated scf accuracy    <       0.00428187 Ry

     iteration #  4     ecut=    35.00 Ry     beta= 0.70
     Davidson diagonalization with overlap
     ethr =  2.68E-05,  avg # of iterations =  2.4

     negative rho (up, down):  8.613E-02 0.000E+00

     total cpu time spent up to now is        0.9 secs

     total energy              =    -198.65314679 Ry
     Harris-Foulkes estimate   =    -198.65323289 Ry
     estimated scf accuracy    <       0.00024961 Ry

     iteration #  5     ecut=    35.00 Ry     beta= 0.70
     Davidson diagonalization with overlap
     ethr =  1.56E-06,  avg # of iterations =  2.8

     negative rho (up, down):  8.612E-02 0.000E+00

     total cpu time spent up to now is        1.0 secs

     total energy              =    -198.65318197 Ry
     Harris-Foulkes estimate   =    -198.65318195 Ry
     estimated scf accuracy    <       0.00000018 Ry

     iteration #  6     ecut=    35.00 Ry     beta= 0.70
     Davidson diagonalization with overlap
     ethr =  1.10E-09,  avg # of iterations =  2.4

     negative rho (up, down):  8.612E-02 0.000E+00

     total cpu time spent up to now is        1.1 secs

     End of self-consistent calculation

          k = 0.0000 0.0000 0.0000 (   537 PWs)   bands (ev):

   -38.9285 -38.9285 -38.9285   5.5381   8.4592   8.4592   8.4592   9.2461
     9.2461  26.3819  28.6855  28.6855

          k =-0.2500 0.2500-0.2500 (   543 PWs)   bands (ev):

   -38.9664 -38.9343 -38.9343   6.8203   8.5143   8.6149   8.6149   9.3359
     9.3359  21.0142  26.6901  28.0600

          k = 0.5000-0.5000 0.5000 (   544 PWs)   bands (ev):

   -39.0043 -38.9402 -38.9402   7.1404   8.4545   8.4545   9.8259   9.8259
    11.7348  14.4893  25.6195  26.7392

          k = 0.0000 0.5000 0.0000 (   528 PWs)   bands (ev):

   -38.9647 -38.9430 -38.9430   7.2135   7.8691   9.0630   9.1076   9.1076
     9.5238  24.0071  24.0071  25.2640

          k = 0.7500-0.2500 0.7500 (   538 PWs)   bands (ev):

   -38.9919 -38.9600 -38.9491   7.5753   8.0340   8.7652   9.0937   9.8672
    12.7101  16.7533  21.0532  23.1706

          k = 0.5000 0.0000 0.5000 (   540 PWs)   bands (ev):

   -38.9830 -38.9614 -38.9404   7.9214   8.1932   8.4535   8.9670   9.2396
    11.4775  19.3949  19.5132  26.5212

          k = 0.0000-1.0000 0.0000 (   524 PWs)   bands (ev):

   -39.0006 -38.9580 -38.9580   7.2093   7.3356   9.8141   9.9714   9.9714
    13.3150  16.9729  20.8216  20.8216

          k =-0.5000-1.0000 0.0000 (   524 PWs)   bands (ev):

   -38.9794 -38.9794 -38.9584   7.7995   8.2327   8.2327   9.2471   9.9714
    16.8057  16.8057  17.0825  18.7582

     the Fermi energy is     9.9933 ev

!    total energy              =    -198.65318201 Ry
     Harris-Foulkes estimate   =    -198.65318205 Ry
     estimated scf accuracy    <       0.00000007 Ry

     The total energy is the sum of the following terms:

     one-electron contribution =     -77.19176304 Ry
     hartree contribution      =      47.80143754 Ry
     xc contribution           =     -31.17687496 Ry
     ewald contribution        =    -138.08525782 Ry
     smearing contrib. (-TS)   =      -0.00072373 Ry

     convergence has been achieved in   6 iterations

     Writing output data file Pd-kp-conv.save/
 
     init_run     :      0.34s CPU      0.38s WALL (       1 calls)
     electrons    :      0.57s CPU      0.66s WALL (       1 calls)

     Called by init_run:
     wfcinit      :      0.03s CPU      0.04s WALL (       1 calls)
     potinit      :      0.01s CPU      0.01s WALL (       1 calls)
     hinit0       :      0.30s CPU      0.30s WALL (       1 calls)

     Called by electrons:
     c_bands      :      0.39s CPU      0.42s WALL (       6 calls)
     sum_band     :      0.12s CPU      0.13s WALL (       6 calls)
     v_of_rho     :      0.03s CPU      0.03s WALL (       7 calls)
     newd         :      0.05s CPU      0.05s WALL (       7 calls)
     mix_rho      :      0.00s CPU      0.00s WALL (       6 calls)

     Called by c_bands:
     init_us_2    :      0.01s CPU      0.01s WALL (     104 calls)
     cegterg      :      0.36s CPU      0.39s WALL (      48 calls)

     Called by sum_band:
     sum_band:bec :      0.00s CPU      0.00s WALL (      48 calls)
     addusdens    :      0.05s CPU      0.05s WALL (       6 calls)

     Called by *egterg:
     h_psi        :      0.29s CPU      0.31s WALL (     171 calls)
     s_psi        :      0.01s CPU      0.01s WALL (     171 calls)
     g_psi        :      0.00s CPU      0.00s WALL (     115 calls)
     cdiaghg      :      0.04s CPU      0.05s WALL (     163 calls)

     Called by h_psi:
     h_psi:pot    :      0.29s CPU      0.31s WALL (     171 calls)
     h_psi:calbec :      0.01s CPU      0.01s WALL (     171 calls)
     vloc_psi     :      0.27s CPU      0.29s WALL (     171 calls)
     add_vuspsi   :      0.01s CPU      0.01s WALL (     171 calls)

     General routines
     calbec       :      0.01s CPU      0.01s WALL (     219 calls)
     fft          :      0.01s CPU      0.01s WALL (      78 calls)
     ffts         :      0.00s CPU      0.00s WALL (       6 calls)
     fftw         :      0.29s CPU      0.31s WALL (    3586 calls)
 
     Parallel routines
     fft_scatt_xy :      0.05s CPU      0.05s WALL (    3670 calls)
     fft_scatt_yz :      0.09s CPU      0.10s WALL (    3670 calls)
 
     PWSCF        :     0.98s CPU         1.20s WALL

 
   This run was terminated on:  21:59:23   2Dec2021            

=------------------------------------------------------------------------------=
   JOB DONE.
=------------------------------------------------------------------------------=
