
     Program PWSCF v.6.3 starts on  2Dec2021 at 21:39:52 

     This program is part of the open-source Quantum ESPRESSO suite
     for quantum simulation of materials; please cite
         "P. Giannozzi et al., J. Phys.:Condens. Matter 21 395502 (2009);
         "P. Giannozzi et al., J. Phys.:Condens. Matter 29 465901 (2017);
          URL http://www.quantum-espresso.org", 
     in publications or presentations arising from this work. More details at
     http://www.quantum-espresso.org/quote

     Parallel version (MPI & OpenMP), running on       2 processor cores
     Number of MPI processes:                 2
     Threads/MPI process:                     1

     MPI processes distributed on     1 nodes
     R & G space division:  proc/nbgrp/npool/nimage =       2
     Reading input from pw-input.in

     Current dimensions of program PWSCF are:
     Max number of different atomic species (ntypx) = 10
     Max number of k-points (npk) =  40000
     Max angular momentum in pseudopotentials (lmaxx) =  3

     Subspace diagonalization in iterative solution of the eigenvalue problem:
     a serial algorithm will be used

 
     Parallelization info
     --------------------
     sticks:   dense  smooth     PW     G-vecs:    dense   smooth      PW
     Min         120     120     42                 1210     1210     264
     Max         121     121     43                 1211     1211     267
     Sum         241     241     85                 2421     2421     531
 

     Title: 
     Pd-kp-conv                                                                 


     bravais-lattice index     =            2
     lattice parameter (alat)  =       7.0000  a.u.
     unit-cell volume          =      85.7500 (a.u.)^3
     number of atoms/cell      =            1
     number of atomic types    =            1
     number of electrons       =        16.00
     number of Kohn-Sham states=           12
     kinetic-energy cutoff     =      35.0000  Ry
     charge density cutoff     =     140.0000  Ry
     convergence threshold     =      1.0E-07
     mixing beta               =       0.7000
     number of iterations used =            8  plain     mixing
     Exchange-correlation      =  SLA  PW   PBX  PBC ( 1  4  3  4 0 0)

     celldm(1)=   7.000000  celldm(2)=   0.000000  celldm(3)=   0.000000
     celldm(4)=   0.000000  celldm(5)=   0.000000  celldm(6)=   0.000000

     crystal axes: (cart. coord. in units of alat)
               a(1) = (  -0.500000   0.000000   0.500000 )  
               a(2) = (   0.000000   0.500000   0.500000 )  
               a(3) = (  -0.500000   0.500000   0.000000 )  

     reciprocal axes: (cart. coord. in units 2 pi/alat)
               b(1) = ( -1.000000 -1.000000  1.000000 )  
               b(2) = (  1.000000  1.000000  1.000000 )  
               b(3) = ( -1.000000  1.000000 -1.000000 )  


     PseudoPot. # 1 for Pd read from file:
     ./pd_pbe_v1.4.uspp.F.UPF
     MD5 check sum: 2d733d2bc2cbfd217af676df1668a4bc
     Pseudo is Ultrasoft + core correction, Zval = 16.0
     Generated by new atomic code, or converted to UPF format
     Using radial grid of  887 points,  6 beta functions with: 
                l(1) =   0
                l(2) =   0
                l(3) =   1
                l(4) =   1
                l(5) =   2
                l(6) =   2
     Q(r) pseudized with  8 coefficients,  rinner =    1.130   1.130   1.130
                                                       1.130   1.130

     atomic species   valence    mass     pseudopotential
        Pd            16.00   106.40000     Pd( 1.00)

     48 Sym. Ops., with inversion, found



   Cartesian axes

     site n.     atom                  positions (alat units)
         1           Pd  tau(   1) = (   0.0000000   0.0000000   0.0000000  )

     number of k points=    72  Marzari-Vanderbilt smearing, width (Ry)=  0.0200
                       cart. coord. in units 2pi/alat
        k(    1) = (   0.0000000   0.0000000   0.0000000), wk =   0.0011574
        k(    2) = (  -0.0833333   0.0833333  -0.0833333), wk =   0.0092593
        k(    3) = (  -0.1666667   0.1666667  -0.1666667), wk =   0.0092593
        k(    4) = (  -0.2500000   0.2500000  -0.2500000), wk =   0.0092593
        k(    5) = (  -0.3333333   0.3333333  -0.3333333), wk =   0.0092593
        k(    6) = (  -0.4166667   0.4166667  -0.4166667), wk =   0.0092593
        k(    7) = (   0.5000000  -0.5000000   0.5000000), wk =   0.0046296
        k(    8) = (   0.0000000   0.1666667   0.0000000), wk =   0.0069444
        k(    9) = (  -0.0833333   0.2500000  -0.0833333), wk =   0.0277778
        k(   10) = (  -0.1666667   0.3333333  -0.1666667), wk =   0.0277778
        k(   11) = (  -0.2500000   0.4166667  -0.2500000), wk =   0.0277778
        k(   12) = (  -0.3333333   0.5000000  -0.3333333), wk =   0.0277778
        k(   13) = (   0.5833333  -0.4166667   0.5833333), wk =   0.0277778
        k(   14) = (   0.5000000  -0.3333333   0.5000000), wk =   0.0277778
        k(   15) = (   0.4166667  -0.2500000   0.4166667), wk =   0.0277778
        k(   16) = (   0.3333333  -0.1666667   0.3333333), wk =   0.0277778
        k(   17) = (   0.2500000  -0.0833333   0.2500000), wk =   0.0277778
        k(   18) = (   0.1666667  -0.0000000   0.1666667), wk =   0.0138889
        k(   19) = (   0.0000000   0.3333333   0.0000000), wk =   0.0069444
        k(   20) = (  -0.0833333   0.4166667  -0.0833333), wk =   0.0277778
        k(   21) = (  -0.1666667   0.5000000  -0.1666667), wk =   0.0277778
        k(   22) = (  -0.2500000   0.5833333  -0.2500000), wk =   0.0277778
        k(   23) = (   0.6666667  -0.3333333   0.6666667), wk =   0.0277778
        k(   24) = (   0.5833333  -0.2500000   0.5833333), wk =   0.0277778
        k(   25) = (   0.5000000  -0.1666667   0.5000000), wk =   0.0277778
        k(   26) = (   0.4166667  -0.0833333   0.4166667), wk =   0.0277778
        k(   27) = (   0.3333333   0.0000000   0.3333333), wk =   0.0138889
        k(   28) = (   0.0000000   0.5000000   0.0000000), wk =   0.0069444
        k(   29) = (  -0.0833333   0.5833333  -0.0833333), wk =   0.0277778
        k(   30) = (  -0.1666667   0.6666667  -0.1666667), wk =   0.0277778
        k(   31) = (   0.7500000  -0.2500000   0.7500000), wk =   0.0277778
        k(   32) = (   0.6666667  -0.1666667   0.6666667), wk =   0.0277778
        k(   33) = (   0.5833333  -0.0833333   0.5833333), wk =   0.0277778
        k(   34) = (   0.5000000   0.0000000   0.5000000), wk =   0.0138889
        k(   35) = (   0.0000000   0.6666667   0.0000000), wk =   0.0069444
        k(   36) = (  -0.0833333   0.7500000  -0.0833333), wk =   0.0277778
        k(   37) = (   0.8333333  -0.1666667   0.8333333), wk =   0.0277778
        k(   38) = (   0.7500000  -0.0833333   0.7500000), wk =   0.0277778
        k(   39) = (   0.6666667  -0.0000000   0.6666667), wk =   0.0138889
        k(   40) = (   0.0000000   0.8333333   0.0000000), wk =   0.0069444
        k(   41) = (   0.9166667  -0.0833333   0.9166667), wk =   0.0277778
        k(   42) = (   0.8333333   0.0000000   0.8333333), wk =   0.0138889
        k(   43) = (   0.0000000  -1.0000000   0.0000000), wk =   0.0034722
        k(   44) = (  -0.1666667   0.3333333   0.0000000), wk =   0.0277778
        k(   45) = (  -0.2500000   0.4166667  -0.0833333), wk =   0.0555556
        k(   46) = (  -0.3333333   0.5000000  -0.1666667), wk =   0.0555556
        k(   47) = (   0.5833333  -0.4166667   0.7500000), wk =   0.0555556
        k(   48) = (   0.5000000  -0.3333333   0.6666667), wk =   0.0277778
        k(   49) = (  -0.1666667   0.5000000   0.0000000), wk =   0.0277778
        k(   50) = (  -0.2500000   0.5833333  -0.0833333), wk =   0.0555556
        k(   51) = (   0.6666667  -0.3333333   0.8333333), wk =   0.0555556
        k(   52) = (   0.5833333  -0.2500000   0.7500000), wk =   0.0555556
        k(   53) = (   0.5000000  -0.1666667   0.6666667), wk =   0.0555556
        k(   54) = (   0.4166667  -0.0833333   0.5833333), wk =   0.0555556
        k(   55) = (   0.3333333   0.0000000   0.5000000), wk =   0.0277778
        k(   56) = (  -0.1666667   0.6666667  -0.0000000), wk =   0.0277778
        k(   57) = (   0.7500000  -0.2500000   0.9166667), wk =   0.0555556
        k(   58) = (   0.6666667  -0.1666667   0.8333333), wk =   0.0555556
        k(   59) = (   0.5833333  -0.0833333   0.7500000), wk =   0.0555556
        k(   60) = (   0.5000000   0.0000000   0.6666667), wk =   0.0277778
        k(   61) = (   0.8333333  -0.1666667   1.0000000), wk =   0.0277778
        k(   62) = (   0.7500000  -0.0833333   0.9166667), wk =   0.0555556
        k(   63) = (   0.6666667   0.0000000   0.8333333), wk =   0.0277778
        k(   64) = (  -0.1666667  -1.0000000  -0.0000000), wk =   0.0138889
        k(   65) = (   0.6666667  -0.3333333   1.0000000), wk =   0.0277778
        k(   66) = (   0.5833333  -0.2500000   0.9166667), wk =   0.0555556
        k(   67) = (   0.5000000  -0.1666667   0.8333333), wk =   0.0277778
        k(   68) = (   0.6666667  -0.1666667   1.0000000), wk =   0.0277778
        k(   69) = (   0.5833333  -0.0833333   0.9166667), wk =   0.0555556
        k(   70) = (   0.5000000   0.0000000   0.8333333), wk =   0.0277778
        k(   71) = (  -0.3333333  -1.0000000   0.0000000), wk =   0.0138889
        k(   72) = (  -0.5000000  -1.0000000   0.0000000), wk =   0.0069444

     Dense  grid:     2421 G-vectors     FFT dimensions: (  20,  20,  20)

     Estimated max dynamical RAM per process >       7.34 MB

     Estimated total dynamical RAM >      14.67 MB

     Initial potential from superposition of free atoms
     Check: negative starting charge=   -0.083349

     starting charge   15.49999, renormalised to   16.00000

     negative rho (up, down):  8.604E-02 0.000E+00
     Starting wfcs are   12 randomized atomic wfcs

     total cpu time spent up to now is        0.6 secs

     Self-consistent Calculation

     iteration #  1     ecut=    35.00 Ry     beta= 0.70
     Davidson diagonalization with overlap
     ethr =  1.00E-02,  avg # of iterations =  3.5

     negative rho (up, down):  8.606E-02 0.000E+00

     total cpu time spent up to now is        1.3 secs

     total energy              =    -198.33075795 Ry
     Harris-Foulkes estimate   =    -198.94235019 Ry
     estimated scf accuracy    <       0.85610085 Ry

     iteration #  2     ecut=    35.00 Ry     beta= 0.70
     Davidson diagonalization with overlap
     ethr =  5.35E-03,  avg # of iterations =  2.0

     negative rho (up, down):  8.731E-02 0.000E+00

     total cpu time spent up to now is        1.8 secs

     total energy              =    -198.55949679 Ry
     Harris-Foulkes estimate   =    -198.83948048 Ry
     estimated scf accuracy    <       0.51580360 Ry

     iteration #  3     ecut=    35.00 Ry     beta= 0.70
     Davidson diagonalization with overlap
     ethr =  3.22E-03,  avg # of iterations =  2.0

     negative rho (up, down):  8.784E-02 0.000E+00

     total cpu time spent up to now is        2.3 secs

     total energy              =    -198.67431237 Ry
     Harris-Foulkes estimate   =    -198.67518093 Ry
     estimated scf accuracy    <       0.00183901 Ry

     iteration #  4     ecut=    35.00 Ry     beta= 0.70
     Davidson diagonalization with overlap
     ethr =  1.15E-05,  avg # of iterations =  2.2

     negative rho (up, down):  8.799E-02 0.000E+00

     total cpu time spent up to now is        2.9 secs

     total energy              =    -198.67478512 Ry
     Harris-Foulkes estimate   =    -198.67480120 Ry
     estimated scf accuracy    <       0.00003303 Ry

     iteration #  5     ecut=    35.00 Ry     beta= 0.70
     Davidson diagonalization with overlap
     ethr =  2.06E-07,  avg # of iterations =  2.0

     negative rho (up, down):  8.802E-02 0.000E+00

     total cpu time spent up to now is        3.4 secs

     End of self-consistent calculation

          k = 0.0000 0.0000 0.0000 (   307 PWs)   bands (ev):

   -27.2035 -27.2035 -27.2035  14.5014  19.2523  19.2523  19.2523  21.3089
    21.3089  40.9803  46.6752  46.6752

          k =-0.0833 0.0833-0.0833 (   307 PWs)   bands (ev):

   -27.2519 -27.2101 -27.2101  14.7893  19.1416  19.3591  19.3591  21.2548
    21.2548  41.3248  44.9269  47.0314

          k =-0.1667 0.1667-0.1667 (   310 PWs)   bands (ev):

   -27.3828 -27.2283 -27.2283  15.5507  18.9560  19.5735  19.5735  21.2148
    21.2148  41.6019  42.5052  47.9757

          k =-0.2500 0.2500-0.2500 (   302 PWs)   bands (ev):

   -27.5585 -27.2526 -27.2526  16.3195  19.2434  19.6153  19.6153  21.4869
    21.4869  38.8838  42.2748  48.9841

          k =-0.3333 0.3333-0.3333 (   302 PWs)   bands (ev):

   -27.7314 -27.2769 -27.2769  16.4843  19.4384  19.4384  20.6175  22.0705
    22.0705  35.7627  41.3814  48.3153

          k =-0.4167 0.4167-0.4167 (   296 PWs)   bands (ev):

   -27.8560 -27.2944 -27.2944  16.3568  19.2532  19.2532  22.5163  22.6257
    22.6257  32.9013  40.5327  46.8757

          k = 0.5000-0.5000 0.5000 (   302 PWs)   bands (ev):

   -27.9014 -27.3010 -27.3010  16.2873  19.1796  19.1796  22.8494  22.8494
    23.5713  31.5256  40.2209  46.3035

          k = 0.0000 0.1667 0.0000 (   307 PWs)   bands (ev):

   -27.2507 -27.2210 -27.2210  14.8856  19.0181  19.4445  19.4445  21.0615
    21.4000  41.4632  45.3111  46.5185

          k =-0.0833 0.2500-0.0833 (   305 PWs)   bands (ev):

   -27.3480 -27.2426 -27.2335  15.4997  18.7684  19.6695  19.6820  20.8690
    21.4847  42.0318  43.1965  46.5029

          k =-0.1667 0.3333-0.1667 (   300 PWs)   bands (ev):

   -27.5054 -27.2691 -27.2543  16.3387  18.7083  19.6833  19.8211  21.1409
    21.7308  40.0653  42.6173  46.5691

          k =-0.2500 0.4167-0.2500 (   298 PWs)   bands (ev):

   -27.6751 -27.2934 -27.2825  16.6964  19.3851  19.4784  19.7152  22.0916
    22.2306  36.9380  41.9110  46.1952

          k =-0.3333 0.5000-0.3333 (   298 PWs)   bands (ev):

   -27.8120 -27.3102 -27.3090  16.5958  19.1300  19.5154  20.7019  22.7117
    23.5179  33.8338  40.9891  45.6033

          k = 0.5833-0.4167 0.5833 (   296 PWs)   bands (ev):

   -27.8813 -27.3299 -27.3117  16.4934  19.0086  19.3777  21.5110  22.8646
    24.8961  31.6723  40.4930  45.3939

          k = 0.5000-0.3333 0.5000 (   297 PWs)   bands (ev):

   -27.8664 -27.3365 -27.3009  16.5261  19.0606  19.3745  21.4754  22.5647
    24.6570  32.2044  40.5620  44.9133

          k = 0.4167-0.2500 0.4167 (   297 PWs)   bands (ev):

   -27.7709 -27.3274 -27.2796  16.6696  19.2524  19.5153  20.5004  21.9227
    23.4351  34.8549  41.1558  45.3836

          k = 0.3333-0.1667 0.3333 (   299 PWs)   bands (ev):

   -27.6193 -27.3049 -27.2533  16.6868  19.1399  19.6023  19.7315  21.2155
    22.4179  38.0093  42.0008  46.4587

          k = 0.2500-0.0833 0.2500 (   303 PWs)   bands (ev):

   -27.4516 -27.2739 -27.2288  16.0815  18.7376  19.6961  19.7683  20.8545
    21.7141  40.9719  42.3841  46.6113

          k = 0.1667-0.0000 0.1667 (   307 PWs)   bands (ev):

   -27.3166 -27.2391 -27.2131  15.2440  18.9361  19.5115  19.5650  21.0080
    21.3945  41.7891  43.5523  46.3917

          k = 0.0000 0.3333 0.0000 (   303 PWs)   bands (ev):

   -27.3766 -27.2686 -27.2686  15.9043  18.4191  20.0042  20.0042  20.5246
    21.6582  42.7175  43.7178  45.3908

          k =-0.0833 0.4167-0.0833 (   301 PWs)   bands (ev):

   -27.4898 -27.2988 -27.2942  16.5984  18.1203  19.8936  20.3007  20.9709
    21.8923  41.5216  43.2188  44.5361

          k =-0.1667 0.5000-0.1667 (   298 PWs)   bands (ev):

   -27.6324 -27.3269 -27.3249  17.0595  18.2698  19.4780  20.3147  22.3056
    22.3469  38.3781  42.5091  43.8474

          k =-0.2500 0.5833-0.2500 (   300 PWs)   bands (ev):

   -27.7570 -27.3673 -27.3405  17.0102  18.6953  19.5000  20.1337  22.7950
    24.1802  35.0441  41.4237  43.4757

          k = 0.6667-0.3333 0.6667 (   301 PWs)   bands (ev):

   -27.8311 -27.4047 -27.3414  16.9507  18.6146  19.9450  20.1321  22.9058
    26.2500  32.2015  40.5863  43.7725

          k = 0.5833-0.2500 0.5833 (   297 PWs)   bands (ev):

   -27.8372 -27.4278 -27.3269  17.0194  18.6244  19.8556  20.3744  22.5535
    26.8539  31.7147  40.1082  43.4645

          k = 0.5000-0.1667 0.5000 (   299 PWs)   bands (ev):

   -27.7765 -27.4275 -27.3013  17.2111  18.8157  19.8878  19.9110  21.8482
    25.3992  34.2127  40.0311  43.6013

          k = 0.4167-0.0833 0.4167 (   303 PWs)   bands (ev):

   -27.6697 -27.3991 -27.2712  17.3999  18.7449  19.3222  20.1132  21.0283
    23.8792  37.3836  40.3619  44.7092

          k = 0.3333 0.0000 0.3333 (   303 PWs)   bands (ev):

   -27.5507 -27.3428 -27.2447  16.9466  18.4387  19.5877  20.2290  20.5067
    22.6179  39.9592  41.2692  46.7936

          k = 0.0000 0.5000 0.0000 (   303 PWs)   bands (ev):

   -27.5437 -27.3332 -27.3332  16.8583  17.6825  20.5512  20.8742  20.8742
    22.0255  42.5212  42.9171  42.9171

          k =-0.0833 0.5833-0.0833 (   305 PWs)   bands (ev):

   -27.6424 -27.3701 -27.3630  17.0352  17.4441  20.3749  21.1353  22.3086
    22.3846  39.8713  41.7638  41.9570

          k =-0.1667 0.6667-0.1667 (   305 PWs)   bands (ev):

   -27.7330 -27.4220 -27.3808  17.0092  17.6403  20.0807  21.0192  22.8452
    24.4843  36.4917  40.5212  41.2337

          k = 0.7500-0.2500 0.7500 (   298 PWs)   bands (ev):

   -27.7830 -27.4837 -27.3814  17.0462  17.9863  19.8746  20.8018  22.9677
    27.0494  33.2776  39.1441  41.5526

          k = 0.6667-0.1667 0.6667 (   296 PWs)   bands (ev):

   -27.7813 -27.5372 -27.3649  17.2791  18.2652  19.6862  20.6158  22.6100
    28.9990  31.4609  37.9863  42.8147

          k = 0.5833-0.0833 0.5833 (   295 PWs)   bands (ev):

   -27.7429 -27.5529 -27.3357  17.6780  18.5028  19.2719  20.5136  21.9230
    27.4830  33.8825  37.2544  43.8273

          k = 0.5000 0.0000 0.5000 (   295 PWs)   bands (ev):

   -27.7051 -27.4992 -27.3013  18.0390  18.4884  18.9625  20.4427  21.2315
    25.6019  36.9045  37.3856  44.0390

          k = 0.0000 0.6667 0.0000 (   310 PWs)   bands (ev):

   -27.7051 -27.3973 -27.3973  16.7414  17.0188  21.9188  21.9188  22.2747
    22.4112  40.1662  40.1662  40.3978

          k =-0.0833 0.7500-0.0833 (   309 PWs)   bands (ev):

   -27.7682 -27.4374 -27.4186  16.6138  16.8868  21.5939  21.9999  22.8409
    24.4714  37.8361  38.8114  39.3034

          k = 0.8333-0.1667 0.8333 (   303 PWs)   bands (ev):

   -27.7915 -27.5042 -27.4214  16.6562  17.1309  21.0034  21.7786  23.0408
    27.1659  34.8200  37.2765  39.4269

          k = 0.7500-0.0833 0.7500 (   298 PWs)   bands (ev):

   -27.7586 -27.5896 -27.4050  16.8994  17.6540  20.2779  21.4886  22.7509
    30.0713  32.0969  35.9635  40.5878

          k = 0.6667-0.0000 0.6667 (   284 PWs)   bands (ev):

   -27.6759 -27.6720 -27.3734  17.3279  18.2818  19.4784  21.0952  22.2478
    29.6237  32.9698  35.3469  42.5362

          k = 0.0000 0.8333 0.0000 (   310 PWs)   bands (ev):

   -27.8197 -27.4440 -27.4440  16.2660  16.5704  22.7065  22.8588  22.8588
    24.8130  37.1422  38.0556  38.0556

          k = 0.9167-0.0833 0.9167 (   302 PWs)   bands (ev):

   -27.8385 -27.4766 -27.4504  16.2396  16.5820  22.4555  22.5682  23.1458
    26.7127  35.7754  36.5396  37.8457

          k = 0.8333 0.0000 0.8333 (   300 PWs)   bands (ev):

   -27.8090 -27.5374 -27.4362  16.4821  16.9669  21.4169  22.1972  22.9898
    28.8543  34.1241  35.3282  38.7813

          k = 0.0000-1.0000 0.0000 (   302 PWs)   bands (ev):

   -27.8611 -27.4611 -27.4611  16.0617  16.4133  22.8173  23.2600  23.2600
    26.2741  35.3415  37.2465  37.2465

          k =-0.1667 0.3333 0.0000 (   298 PWs)   bands (ev):

   -27.4400 -27.2884 -27.2455  16.1961  18.4675  19.7654  20.0088  20.7370
    21.7906  41.8659  42.3461  45.8061

          k =-0.2500 0.4167-0.0833 (   302 PWs)   bands (ev):

   -27.5768 -27.3341 -27.2665  16.9604  18.4258  19.4777  20.1872  21.0957
    22.5433  39.3176  41.9327  45.4225

          k =-0.3333 0.5000-0.1667 (   302 PWs)   bands (ev):

   -27.7169 -27.3677 -27.2939  17.0697  19.0866  19.2179  20.0395  21.8984
    23.7512  36.1211  41.3007  44.0456

          k = 0.5833-0.4167 0.7500 (   298 PWs)   bands (ev):

   -27.8193 -27.3869 -27.3177  16.9184  18.7980  19.7617  20.2790  22.5374
    25.3598  33.0610  40.7910  43.3319

          k = 0.5000-0.3333 0.6667 (   296 PWs)   bands (ev):

   -27.8567 -27.3929 -27.3275  16.8504  18.6920  19.7203  20.6571  22.7489
    26.4649  31.4451  40.6015  43.2144

          k =-0.1667 0.5000 0.0000 (   302 PWs)   bands (ev):

   -27.5834 -27.3556 -27.3111  17.1381  17.8173  19.6788  20.8658  21.2958
    22.5245  40.4962  41.5293  43.9135

          k =-0.2500 0.5833-0.0833 (   305 PWs)   bands (ev):

   -27.6873 -27.4078 -27.3357  17.3394  17.9844  19.3547  20.8971  22.0233
    23.9309  37.5980  40.5920  42.3721

          k = 0.6667-0.3333 0.8333 (   301 PWs)   bands (ev):

   -27.7681 -27.4509 -27.3577  17.2659  18.3042  19.3485  20.6583  22.6273
    25.9424  34.2907  40.3133  41.1539

          k = 0.5833-0.2500 0.7500 (   298 PWs)   bands (ev):

   -27.8037 -27.4840 -27.3624  17.3239  18.2671  19.6881  20.4171  22.7321
    28.0487  31.6892  39.6806  41.1368

          k = 0.5000-0.1667 0.6667 (   298 PWs)   bands (ev):

   -27.7873 -27.4970 -27.3469  17.5016  18.3105  19.5791  20.3837  22.3913
    27.5419  32.5736  38.9841  41.8774

          k = 0.4167-0.0833 0.5833 (   300 PWs)   bands (ev):

   -27.7299 -27.4763 -27.3187  17.7294  18.5992  18.8625  20.5791  21.7159
    25.6346  35.6213  38.7839  42.8094

          k = 0.3333 0.0000 0.5000 (   302 PWs)   bands (ev):

   -27.6542 -27.4165 -27.2884  17.7754  18.1558  19.0532  20.8081  20.9139
    23.9367  38.4425  39.5380  44.0623

          k =-0.1667 0.6667-0.0000 (   308 PWs)   bands (ev):

   -27.7139 -27.4222 -27.3847  17.0278  17.2168  20.4170  21.9107  22.1410
    23.9727  38.8481  39.3429  40.5634

          k = 0.7500-0.2500 0.9167 (   301 PWs)   bands (ev):

   -27.7608 -27.4811 -27.4047  17.0178  17.4017  20.1131  21.6811  22.7034
    26.2032  35.8210  38.9024  38.9910

          k = 0.6667-0.1667 0.8333 (   294 PWs)   bands (ev):

   -27.7639 -27.5504 -27.4059  17.1446  17.8044  19.7578  21.2776  22.8468
    28.8651  32.8003  37.5546  39.4871

          k = 0.5833-0.0833 0.7500 (   294 PWs)   bands (ev):

   -27.7271 -27.6088 -27.3862  17.4825  18.2003  19.2853  20.9861  22.5147
    29.7967  32.2633  36.3840  40.6720

          k = 0.5000 0.0000 0.6667 (   300 PWs)   bands (ev):

   -27.7162 -27.5815 -27.3534  17.9726  18.5050  18.6174  20.8871  21.9635
    27.6587  35.2452  35.8831  41.8973

          k = 0.8333-0.1667 1.0000 (   304 PWs)   bands (ev):

   -27.8030 -27.4706 -27.4415  16.5308  16.8062  21.4444  22.5062  22.8571
    26.2811  36.9629  37.4210  37.4722

          k = 0.7500-0.0833 0.9167 (   297 PWs)   bands (ev):

   -27.7933 -27.5317 -27.4445  16.6781  17.0958  20.8615  22.0308  23.0835
    28.6959  34.6017  35.9087  37.8325

          k = 0.6667 0.0000 0.8333 (   296 PWs)   bands (ev):

   -27.7384 -27.6116 -27.4228  17.0116  17.6791  20.0144  21.5193  22.8571
    31.0685  32.1353  35.2060  39.1081

          k =-0.1667-1.0000-0.0000 (   300 PWs)   bands (ev):

   -27.8346 -27.4884 -27.4626  16.3200  16.6615  21.9998  22.4733  23.2610
    27.7642  35.2209  36.6590  36.7114

          k = 0.6667-0.3333 1.0000 (   305 PWs)   bands (ev):

   -27.7251 -27.4899 -27.3620  17.7667  17.7831  19.0412  21.4874  21.9031
    25.8440  37.0607  37.4886  40.9272

          k = 0.5833-0.2500 0.9167 (   297 PWs)   bands (ev):

   -27.7428 -27.5508 -27.3897  17.7258  18.0418  18.9512  21.1424  22.5019
    28.0631  34.0189  37.4813  39.5857

          k = 0.5000-0.1667 0.8333 (   294 PWs)   bands (ev):

   -27.7467 -27.5737 -27.4016  17.7838  17.9692  19.1042  20.9198  22.7350
    30.0510  31.6467  38.2205  38.4796

          k = 0.6667-0.1667 1.0000 (   297 PWs)   bands (ev):

   -27.7564 -27.5431 -27.4342  17.1833  17.4993  19.7569  21.7333  22.8490
    28.4064  35.7567  35.9503  37.5435

          k = 0.5833-0.0833 0.9167 (   297 PWs)   bands (ev):

   -27.7176 -27.6112 -27.4451  17.3320  17.9736  19.2577  21.2878  23.0598
    30.9396  32.9457  35.9349  36.9942

          k = 0.5000 0.0000 0.8333 (   297 PWs)   bands (ev):

   -27.6889 -27.6412 -27.4255  17.5758  18.4806  18.6041  21.1450  22.8413
    30.3565  33.5075  35.3277  38.2050

          k =-0.3333-1.0000 0.0000 (   294 PWs)   bands (ev):

   -27.7623 -27.5625 -27.4658  16.9494  17.3958  20.1650  21.6619  23.2630
    30.2498  34.9225  35.0551  36.0231

          k =-0.5000-1.0000 0.0000 (   308 PWs)   bands (ev):

   -27.6632 -27.6632 -27.4679  17.3626  18.5824  18.5824  21.1506  23.2620
    32.7951  32.7951  34.7489  35.8021

     the Fermi energy is    22.8609 ev

!    total energy              =    -198.67479206 Ry
     Harris-Foulkes estimate   =    -198.67479197 Ry
     estimated scf accuracy    <       0.00000006 Ry

     The total energy is the sum of the following terms:

     one-electron contribution =     -30.99866037 Ry
     hartree contribution      =      31.50724511 Ry
     xc contribution           =     -31.50865228 Ry
     ewald contribution        =    -167.67495590 Ry
     smearing contrib. (-TS)   =       0.00023138 Ry

     convergence has been achieved in   5 iterations

     Writing output data file Pd-kp-conv.save/
 
     init_run     :      0.51s CPU      0.55s WALL (       1 calls)
     electrons    :      2.49s CPU      3.08s WALL (       1 calls)

     Called by init_run:
     wfcinit      :      0.19s CPU      0.21s WALL (       1 calls)
     potinit      :      0.01s CPU      0.02s WALL (       1 calls)
     hinit0       :      0.30s CPU      0.31s WALL (       1 calls)

     Called by electrons:
     c_bands      :      2.08s CPU      2.27s WALL (       5 calls)
     sum_band     :      0.37s CPU      0.40s WALL (       5 calls)
     v_of_rho     :      0.02s CPU      0.02s WALL (       6 calls)
     newd         :      0.03s CPU      0.03s WALL (       6 calls)
     mix_rho      :      0.00s CPU      0.00s WALL (       5 calls)

     Called by c_bands:
     init_us_2    :      0.06s CPU      0.06s WALL (     792 calls)
     cegterg      :      1.93s CPU      2.11s WALL (     360 calls)

     Called by sum_band:
     sum_band:bec :      0.00s CPU      0.00s WALL (     360 calls)
     addusdens    :      0.03s CPU      0.03s WALL (       5 calls)

     Called by *egterg:
     h_psi        :      1.59s CPU      1.74s WALL (    1276 calls)
     s_psi        :      0.03s CPU      0.03s WALL (    1276 calls)
     g_psi        :      0.02s CPU      0.02s WALL (     844 calls)
     cdiaghg      :      0.29s CPU      0.32s WALL (    1204 calls)

     Called by h_psi:
     h_psi:pot    :      1.58s CPU      1.73s WALL (    1276 calls)
     h_psi:calbec :      0.04s CPU      0.04s WALL (    1276 calls)
     vloc_psi     :      1.50s CPU      1.65s WALL (    1276 calls)
     add_vuspsi   :      0.03s CPU      0.03s WALL (    1276 calls)

     General routines
     calbec       :      0.04s CPU      0.05s WALL (    1636 calls)
     fft          :      0.01s CPU      0.01s WALL (      67 calls)
     ffts         :      0.00s CPU      0.00s WALL (       5 calls)
     fftw         :      1.54s CPU      1.68s WALL (   27744 calls)
 
     Parallel routines
     fft_scatt_xy :      0.28s CPU      0.30s WALL (   27816 calls)
     fft_scatt_yz :      0.40s CPU      0.44s WALL (   27816 calls)
 
     PWSCF        :     3.12s CPU         3.98s WALL

 
   This run was terminated on:  21:39:56   2Dec2021            

=------------------------------------------------------------------------------=
   JOB DONE.
=------------------------------------------------------------------------------=
