
     Program PWSCF v.6.3 starts on  2Dec2021 at 21:40:53 

     This program is part of the open-source Quantum ESPRESSO suite
     for quantum simulation of materials; please cite
         "P. Giannozzi et al., J. Phys.:Condens. Matter 21 395502 (2009);
         "P. Giannozzi et al., J. Phys.:Condens. Matter 29 465901 (2017);
          URL http://www.quantum-espresso.org", 
     in publications or presentations arising from this work. More details at
     http://www.quantum-espresso.org/quote

     Parallel version (MPI & OpenMP), running on       2 processor cores
     Number of MPI processes:                 2
     Threads/MPI process:                     1

     MPI processes distributed on     1 nodes
     R & G space division:  proc/nbgrp/npool/nimage =       2
     Reading input from pw-input.in

     Current dimensions of program PWSCF are:
     Max number of different atomic species (ntypx) = 10
     Max number of k-points (npk) =  40000
     Max angular momentum in pseudopotentials (lmaxx) =  3

     Subspace diagonalization in iterative solution of the eigenvalue problem:
     a serial algorithm will be used

 
     Parallelization info
     --------------------
     sticks:   dense  smooth     PW     G-vecs:    dense   smooth      PW
     Min         156     156     54                 1859     1859     362
     Max         157     157     55                 1860     1860     363
     Sum         313     313    109                 3719     3719     725
 

     Title: 
     Pd-kp-conv                                                                 


     bravais-lattice index     =            2
     lattice parameter (alat)  =       8.1000  a.u.
     unit-cell volume          =     132.8602 (a.u.)^3
     number of atoms/cell      =            1
     number of atomic types    =            1
     number of electrons       =        16.00
     number of Kohn-Sham states=           12
     kinetic-energy cutoff     =      35.0000  Ry
     charge density cutoff     =     140.0000  Ry
     convergence threshold     =      1.0E-07
     mixing beta               =       0.7000
     number of iterations used =            8  plain     mixing
     Exchange-correlation      =  SLA  PW   PBX  PBC ( 1  4  3  4 0 0)

     celldm(1)=   8.100000  celldm(2)=   0.000000  celldm(3)=   0.000000
     celldm(4)=   0.000000  celldm(5)=   0.000000  celldm(6)=   0.000000

     crystal axes: (cart. coord. in units of alat)
               a(1) = (  -0.500000   0.000000   0.500000 )  
               a(2) = (   0.000000   0.500000   0.500000 )  
               a(3) = (  -0.500000   0.500000   0.000000 )  

     reciprocal axes: (cart. coord. in units 2 pi/alat)
               b(1) = ( -1.000000 -1.000000  1.000000 )  
               b(2) = (  1.000000  1.000000  1.000000 )  
               b(3) = ( -1.000000  1.000000 -1.000000 )  


     PseudoPot. # 1 for Pd read from file:
     ./pd_pbe_v1.4.uspp.F.UPF
     MD5 check sum: 2d733d2bc2cbfd217af676df1668a4bc
     Pseudo is Ultrasoft + core correction, Zval = 16.0
     Generated by new atomic code, or converted to UPF format
     Using radial grid of  887 points,  6 beta functions with: 
                l(1) =   0
                l(2) =   0
                l(3) =   1
                l(4) =   1
                l(5) =   2
                l(6) =   2
     Q(r) pseudized with  8 coefficients,  rinner =    1.130   1.130   1.130
                                                       1.130   1.130

     atomic species   valence    mass     pseudopotential
        Pd            16.00   106.40000     Pd( 1.00)

     48 Sym. Ops., with inversion, found



   Cartesian axes

     site n.     atom                  positions (alat units)
         1           Pd  tau(   1) = (   0.0000000   0.0000000   0.0000000  )

     number of k points=    72  Marzari-Vanderbilt smearing, width (Ry)=  0.0200
                       cart. coord. in units 2pi/alat
        k(    1) = (   0.0000000   0.0000000   0.0000000), wk =   0.0011574
        k(    2) = (  -0.0833333   0.0833333  -0.0833333), wk =   0.0092593
        k(    3) = (  -0.1666667   0.1666667  -0.1666667), wk =   0.0092593
        k(    4) = (  -0.2500000   0.2500000  -0.2500000), wk =   0.0092593
        k(    5) = (  -0.3333333   0.3333333  -0.3333333), wk =   0.0092593
        k(    6) = (  -0.4166667   0.4166667  -0.4166667), wk =   0.0092593
        k(    7) = (   0.5000000  -0.5000000   0.5000000), wk =   0.0046296
        k(    8) = (   0.0000000   0.1666667   0.0000000), wk =   0.0069444
        k(    9) = (  -0.0833333   0.2500000  -0.0833333), wk =   0.0277778
        k(   10) = (  -0.1666667   0.3333333  -0.1666667), wk =   0.0277778
        k(   11) = (  -0.2500000   0.4166667  -0.2500000), wk =   0.0277778
        k(   12) = (  -0.3333333   0.5000000  -0.3333333), wk =   0.0277778
        k(   13) = (   0.5833333  -0.4166667   0.5833333), wk =   0.0277778
        k(   14) = (   0.5000000  -0.3333333   0.5000000), wk =   0.0277778
        k(   15) = (   0.4166667  -0.2500000   0.4166667), wk =   0.0277778
        k(   16) = (   0.3333333  -0.1666667   0.3333333), wk =   0.0277778
        k(   17) = (   0.2500000  -0.0833333   0.2500000), wk =   0.0277778
        k(   18) = (   0.1666667  -0.0000000   0.1666667), wk =   0.0138889
        k(   19) = (   0.0000000   0.3333333   0.0000000), wk =   0.0069444
        k(   20) = (  -0.0833333   0.4166667  -0.0833333), wk =   0.0277778
        k(   21) = (  -0.1666667   0.5000000  -0.1666667), wk =   0.0277778
        k(   22) = (  -0.2500000   0.5833333  -0.2500000), wk =   0.0277778
        k(   23) = (   0.6666667  -0.3333333   0.6666667), wk =   0.0277778
        k(   24) = (   0.5833333  -0.2500000   0.5833333), wk =   0.0277778
        k(   25) = (   0.5000000  -0.1666667   0.5000000), wk =   0.0277778
        k(   26) = (   0.4166667  -0.0833333   0.4166667), wk =   0.0277778
        k(   27) = (   0.3333333   0.0000000   0.3333333), wk =   0.0138889
        k(   28) = (   0.0000000   0.5000000   0.0000000), wk =   0.0069444
        k(   29) = (  -0.0833333   0.5833333  -0.0833333), wk =   0.0277778
        k(   30) = (  -0.1666667   0.6666667  -0.1666667), wk =   0.0277778
        k(   31) = (   0.7500000  -0.2500000   0.7500000), wk =   0.0277778
        k(   32) = (   0.6666667  -0.1666667   0.6666667), wk =   0.0277778
        k(   33) = (   0.5833333  -0.0833333   0.5833333), wk =   0.0277778
        k(   34) = (   0.5000000   0.0000000   0.5000000), wk =   0.0138889
        k(   35) = (   0.0000000   0.6666667   0.0000000), wk =   0.0069444
        k(   36) = (  -0.0833333   0.7500000  -0.0833333), wk =   0.0277778
        k(   37) = (   0.8333333  -0.1666667   0.8333333), wk =   0.0277778
        k(   38) = (   0.7500000  -0.0833333   0.7500000), wk =   0.0277778
        k(   39) = (   0.6666667  -0.0000000   0.6666667), wk =   0.0138889
        k(   40) = (   0.0000000   0.8333333   0.0000000), wk =   0.0069444
        k(   41) = (   0.9166667  -0.0833333   0.9166667), wk =   0.0277778
        k(   42) = (   0.8333333   0.0000000   0.8333333), wk =   0.0138889
        k(   43) = (   0.0000000  -1.0000000   0.0000000), wk =   0.0034722
        k(   44) = (  -0.1666667   0.3333333   0.0000000), wk =   0.0277778
        k(   45) = (  -0.2500000   0.4166667  -0.0833333), wk =   0.0555556
        k(   46) = (  -0.3333333   0.5000000  -0.1666667), wk =   0.0555556
        k(   47) = (   0.5833333  -0.4166667   0.7500000), wk =   0.0555556
        k(   48) = (   0.5000000  -0.3333333   0.6666667), wk =   0.0277778
        k(   49) = (  -0.1666667   0.5000000   0.0000000), wk =   0.0277778
        k(   50) = (  -0.2500000   0.5833333  -0.0833333), wk =   0.0555556
        k(   51) = (   0.6666667  -0.3333333   0.8333333), wk =   0.0555556
        k(   52) = (   0.5833333  -0.2500000   0.7500000), wk =   0.0555556
        k(   53) = (   0.5000000  -0.1666667   0.6666667), wk =   0.0555556
        k(   54) = (   0.4166667  -0.0833333   0.5833333), wk =   0.0555556
        k(   55) = (   0.3333333   0.0000000   0.5000000), wk =   0.0277778
        k(   56) = (  -0.1666667   0.6666667  -0.0000000), wk =   0.0277778
        k(   57) = (   0.7500000  -0.2500000   0.9166667), wk =   0.0555556
        k(   58) = (   0.6666667  -0.1666667   0.8333333), wk =   0.0555556
        k(   59) = (   0.5833333  -0.0833333   0.7500000), wk =   0.0555556
        k(   60) = (   0.5000000   0.0000000   0.6666667), wk =   0.0277778
        k(   61) = (   0.8333333  -0.1666667   1.0000000), wk =   0.0277778
        k(   62) = (   0.7500000  -0.0833333   0.9166667), wk =   0.0555556
        k(   63) = (   0.6666667   0.0000000   0.8333333), wk =   0.0277778
        k(   64) = (  -0.1666667  -1.0000000  -0.0000000), wk =   0.0138889
        k(   65) = (   0.6666667  -0.3333333   1.0000000), wk =   0.0277778
        k(   66) = (   0.5833333  -0.2500000   0.9166667), wk =   0.0555556
        k(   67) = (   0.5000000  -0.1666667   0.8333333), wk =   0.0277778
        k(   68) = (   0.6666667  -0.1666667   1.0000000), wk =   0.0277778
        k(   69) = (   0.5833333  -0.0833333   0.9166667), wk =   0.0555556
        k(   70) = (   0.5000000   0.0000000   0.8333333), wk =   0.0277778
        k(   71) = (  -0.3333333  -1.0000000   0.0000000), wk =   0.0138889
        k(   72) = (  -0.5000000  -1.0000000   0.0000000), wk =   0.0069444

     Dense  grid:     3719 G-vectors     FFT dimensions: (  24,  24,  24)

     Estimated max dynamical RAM per process >      10.94 MB

     Estimated total dynamical RAM >      21.88 MB

     Initial potential from superposition of free atoms
     Check: negative starting charge=   -0.081280

     starting charge   15.49999, renormalised to   16.00000

     negative rho (up, down):  8.390E-02 0.000E+00
     Starting wfcs are   12 randomized atomic wfcs

     total cpu time spent up to now is        0.8 secs

     Self-consistent Calculation

     iteration #  1     ecut=    35.00 Ry     beta= 0.70
     Davidson diagonalization with overlap
     ethr =  1.00E-02,  avg # of iterations =  3.4

     negative rho (up, down):  8.121E-02 0.000E+00

     total cpu time spent up to now is        1.7 secs

     total energy              =    -197.91809178 Ry
     Harris-Foulkes estimate   =    -199.06835227 Ry
     estimated scf accuracy    <       1.56157570 Ry

     iteration #  2     ecut=    35.00 Ry     beta= 0.70
     Davidson diagonalization with overlap
     ethr =  9.76E-03,  avg # of iterations =  2.0

     negative rho (up, down):  8.344E-02 0.000E+00

     total cpu time spent up to now is        2.5 secs

     total energy              =    -198.26373321 Ry
     Harris-Foulkes estimate   =    -199.30133820 Ry
     estimated scf accuracy    <       2.22821040 Ry

     iteration #  3     ecut=    35.00 Ry     beta= 0.70
     Davidson diagonalization with overlap
     ethr =  9.76E-03,  avg # of iterations =  2.0

     negative rho (up, down):  8.350E-02 0.000E+00

     total cpu time spent up to now is        3.2 secs

     total energy              =    -198.67335072 Ry
     Harris-Foulkes estimate   =    -198.67348910 Ry
     estimated scf accuracy    <       0.00033846 Ry

     iteration #  4     ecut=    35.00 Ry     beta= 0.70
     Davidson diagonalization with overlap
     ethr =  2.12E-06,  avg # of iterations =  3.1

     negative rho (up, down):  8.361E-02 0.000E+00

     total cpu time spent up to now is        4.2 secs

     total energy              =    -198.67362824 Ry
     Harris-Foulkes estimate   =    -198.67362782 Ry
     estimated scf accuracy    <       0.00000332 Ry

     iteration #  5     ecut=    35.00 Ry     beta= 0.70
     Davidson diagonalization with overlap
     ethr =  2.07E-08,  avg # of iterations =  1.3

     negative rho (up, down):  8.362E-02 0.000E+00

     total cpu time spent up to now is        4.8 secs

     End of self-consistent calculation

          k = 0.0000 0.0000 0.0000 (   459 PWs)   bands (ev):

   -36.6860 -36.6860 -36.6860   7.2066  10.5884  10.5884  10.5884  11.5900
    11.5900  29.4430  32.5504  32.5504

          k =-0.0833 0.0833-0.0833 (   477 PWs)   bands (ev):

   -36.6959 -36.6876 -36.6876   7.4037  10.5381  10.6423  10.6423  11.5678
    11.5678  29.3975  31.0214  32.5915

          k =-0.1667 0.1667-0.1667 (   483 PWs)   bands (ev):

   -36.7210 -36.6919 -36.6919   7.9507  10.4561  10.7524  10.7524  11.5585
    11.5585  27.5438  30.1945  32.6133

          k =-0.2500 0.2500-0.2500 (   477 PWs)   bands (ev):

   -36.7553 -36.6971 -36.6971   8.6236  10.6083  10.7792  10.7792  11.6964
    11.6964  24.5900  29.9180  32.3547

          k =-0.3333 0.3333-0.3333 (   468 PWs)   bands (ev):

   -36.7890 -36.7023 -36.7023   8.9496  10.6970  10.6970  11.4892  11.9741
    11.9741  21.6751  29.3384  31.7056

          k =-0.4167 0.4167-0.4167 (   470 PWs)   bands (ev):

   -36.8140 -36.7062 -36.7062   8.9636  10.6069  10.6069  12.2282  12.2282
    12.9631  19.0999  28.8489  31.0440

          k = 0.5000-0.5000 0.5000 (   464 PWs)   bands (ev):

   -36.8231 -36.7075 -36.7075   8.9438  10.5715  10.5715  12.3297  12.3297
    13.9721  17.7390  28.6684  30.7779

          k = 0.0000 0.1667 0.0000 (   487 PWs)   bands (ev):

   -36.6957 -36.6900 -36.6900   7.4696  10.4789  10.6839  10.6839  11.4806
    11.6343  29.5176  31.5983  31.7924

          k =-0.0833 0.2500-0.0833 (   476 PWs)   bands (ev):

   -36.7143 -36.6945 -36.6927   7.9039  10.3631  10.8021  10.8061  11.3991
    11.6800  28.6017  30.0743  31.1293

          k =-0.1667 0.3333-0.1667 (   475 PWs)   bands (ev):

   -36.7450 -36.7002 -36.6972   8.5692  10.3315  10.8234  10.8796  11.5441
    11.8048  25.7156  29.8547  30.5548

          k =-0.2500 0.4167-0.2500 (   468 PWs)   bands (ev):

   -36.7781 -36.7054 -36.7031   9.0313  10.6697  10.7628  10.8327  12.0443
    12.0792  22.7404  29.3786  30.0781

          k =-0.3333 0.5000-0.3333 (   466 PWs)   bands (ev):

   -36.8054 -36.7089 -36.7088   9.0907  10.5595  10.7383  11.4452  12.2658
    13.1202  19.9923  28.8378  29.8314

          k = 0.5833-0.4167 0.5833 (   463 PWs)   bands (ev):

   -36.8193 -36.7129 -36.7097   9.0632  10.4990  10.6722  11.8417  12.3358
    14.4271  17.9643  28.4478  29.8981

          k = 0.5000-0.3333 0.5000 (   459 PWs)   bands (ev):

   -36.8162 -36.7141 -36.7074   9.0754  10.5232  10.6720  11.8498  12.2026
    14.0725  18.4927  28.2693  29.7373

          k = 0.4167-0.2500 0.4167 (   467 PWs)   bands (ev):

   -36.7971 -36.7121 -36.7031   9.1051  10.6120  10.7405  11.3680  11.9078
    12.8592  20.8789  28.3346  30.1956

          k = 0.3333-0.1667 0.3333 (   466 PWs)   bands (ev):

   -36.7672 -36.7072 -36.6973   8.9429  10.5459  10.8023  10.8435  11.5730
    12.1737  23.7276  28.6093  31.1086

          k = 0.2500-0.0833 0.2500 (   475 PWs)   bands (ev):

   -36.7345 -36.7008 -36.6922   8.3422  10.3498  10.8228  10.8534  11.3949
    11.8015  26.7128  28.9776  31.8604

          k = 0.1667-0.0000 0.1667 (   477 PWs)   bands (ev):

   -36.7082 -36.6936 -36.6886   7.7208  10.4433  10.7214  10.7476  11.4584
    11.6379  29.1443  29.6574  31.7625

          k = 0.0000 0.3333 0.0000 (   471 PWs)   bands (ev):

   -36.7198 -36.6997 -36.6997   8.2002  10.1941  10.9685  10.9685  11.2440
    11.7618  29.7003  29.9278  29.9278

          k =-0.0833 0.4167-0.0833 (   471 PWs)   bands (ev):

   -36.7420 -36.7060 -36.7050   8.7515  10.0457  10.9326  11.1185  11.4696
    11.8767  27.0607  29.0080  29.7200

          k =-0.1667 0.5000-0.1667 (   462 PWs)   bands (ev):

   -36.7698 -36.7117 -36.7115   9.2537  10.1032  10.7258  11.1305  12.0947
    12.2205  24.0431  28.3975  29.0024

          k =-0.2500 0.5833-0.2500 (   462 PWs)   bands (ev):

   -36.7948 -36.7198 -36.7150   9.3528  10.3772  10.7307  11.0474  12.3024
    13.4442  21.1722  27.8726  28.1786

          k = 0.6667-0.3333 0.6667 (   458 PWs)   bands (ev):

   -36.8097 -36.7272 -36.7153   9.3412  10.3299  10.9592  11.1057  12.3551
    15.0528  18.7008  26.8276  28.4613

          k = 0.5833-0.2500 0.5833 (   458 PWs)   bands (ev):

   -36.8109 -36.7318 -36.7125   9.3730  10.3300  10.9173  11.2500  12.1984
    15.5585  18.1534  26.0880  29.3101

          k = 0.5000-0.1667 0.5000 (   461 PWs)   bands (ev):

   -36.7986 -36.7316 -36.7074   9.4527  10.4148  10.9456  11.0030  11.8741
    14.1442  20.3825  25.7476  29.9525

          k = 0.4167-0.0833 0.4167 (   465 PWs)   bands (ev):

   -36.7773 -36.7258 -36.7011   9.4584  10.3384  10.6880  11.0430  11.4839
    13.0170  23.1459  25.8038  30.8051

          k = 0.3333 0.0000 0.3333 (   475 PWs)   bands (ev):

   -36.7539 -36.7147 -36.6957   8.9827  10.2046  10.7906  11.0841  11.2367
    12.2704  25.8945  26.3704  32.0727

          k = 0.0000 0.5000 0.0000 (   456 PWs)   bands (ev):

   -36.7522 -36.7127 -36.7127   9.0537   9.8284  11.2936  11.4031  11.4031
    11.9397  27.7853  27.7853  28.8520

          k =-0.0833 0.5833-0.0833 (   460 PWs)   bands (ev):

   -36.7719 -36.7205 -36.7192   9.3286   9.6989  11.1877  11.5324  12.1101
    12.2540  25.4287  26.9548  27.4249

          k =-0.1667 0.6667-0.1667 (   463 PWs)   bands (ev):

   -36.7905 -36.7308 -36.7230   9.4213   9.8024  11.0358  11.4808  12.3246
    13.6457  22.5766  25.9294  26.6078

          k = 0.7500-0.2500 0.7500 (   459 PWs)   bands (ev):

   -36.8007 -36.7427 -36.7233   9.4577  10.0063  10.9350  11.3816  12.3825
    15.4387  19.9464  24.6531  26.8318

          k = 0.6667-0.1667 0.6667 (   458 PWs)   bands (ev):

   -36.8004 -36.7531 -36.7201   9.5759  10.1510  10.8514  11.2960  12.2240
    17.1244  18.1258  23.6676  27.6485

          k = 0.5833-0.0833 0.5833 (   458 PWs)   bands (ev):

   -36.7925 -36.7561 -36.7142   9.7664  10.2668  10.6490  11.2498  11.9075
    15.6230  20.2075  23.0650  28.9809

          k = 0.5000 0.0000 0.5000 (   463 PWs)   bands (ev):

   -36.7846 -36.7456 -36.7073   9.8928  10.2251  10.5189  11.2165  11.5764
    14.1566  22.8660  22.9489  30.6698

          k = 0.0000 0.6667 0.0000 (   472 PWs)   bands (ev):

   -36.7850 -36.7263 -36.7263   9.2534   9.4829  11.9078  11.9078  12.1215
    12.4705  25.6041  25.8931  25.8931

          k =-0.0833 0.7500-0.0833 (   462 PWs)   bands (ev):

   -36.7977 -36.7343 -36.7307   9.2416   9.4087  11.8142  11.9455  12.3242
    13.8275  23.7112  24.2941  25.3467

          k = 0.8333-0.1667 0.8333 (   466 PWs)   bands (ev):

   -36.8027 -36.7473 -36.7314   9.2898   9.5361  11.5240  11.8463  12.4163
    15.6358  21.4262  22.7844  25.4228

          k = 0.7500-0.0833 0.7500 (   465 PWs)   bands (ev):

   -36.7965 -36.7635 -36.7283   9.4243   9.8117  11.1521  11.7161  12.2874
    17.7192  19.2379  21.6672  26.1361

          k = 0.6667-0.0000 0.6667 (   456 PWs)   bands (ev):

   -36.7798 -36.7795 -36.7219   9.6407  10.1415  10.7361  11.5340  12.0562
    17.3034  19.7718  21.2303  27.3827

          k = 0.0000 0.8333 0.0000 (   460 PWs)   bands (ev):

   -36.8081 -36.7359 -36.7359   9.0757   9.2433  12.2594  12.3420  12.3420
    14.4389  22.2999  24.5780  24.5780

          k = 0.9167-0.0833 0.9167 (   460 PWs)   bands (ev):

   -36.8122 -36.7423 -36.7373   9.0778   9.2451  12.2035  12.2096  12.4655
    15.7378  21.0631  23.2959  24.4511

          k = 0.8333 0.0000 0.8333 (   464 PWs)   bands (ev):

   -36.8065 -36.7538 -36.7345   9.2135   9.4437  11.7311  12.0417  12.3961
    17.1197  20.4333  21.4771  25.0060

          k = 0.0000-1.0000 0.0000 (   468 PWs)   bands (ev):

   -36.8169 -36.7396 -36.7396   8.9829   9.1578  12.3104  12.5173  12.5173
    15.7740  20.5267  24.1004  24.1004

          k =-0.1667 0.3333 0.0000 (   473 PWs)   bands (ev):

   -36.7322 -36.7037 -36.6954   8.4145  10.2187  10.8616  10.9720  11.3432
    11.8333  27.8447  28.0790  31.5443

          k =-0.2500 0.4167-0.0833 (   471 PWs)   bands (ev):

   -36.7590 -36.7130 -36.6999   9.0559  10.1868  10.7366  11.0671  11.5276
    12.2362  24.9578  27.4937  30.7503

          k =-0.3333 0.5000-0.1667 (   466 PWs)   bands (ev):

   -36.7866 -36.7199 -36.7057   9.3269  10.5460  10.6087  11.0045  11.9163
    13.0103  22.0300  27.2115  29.5013

          k = 0.5833-0.4167 0.7500 (   462 PWs)   bands (ev):

   -36.8072 -36.7238 -36.7107   9.3011  10.4111  10.8699  11.1978  12.1979
    14.3031  19.3906  27.2405  28.4633

          k = 0.5000-0.3333 0.6667 (   462 PWs)   bands (ev):

   -36.8147 -36.7251 -36.7128   9.2743  10.3591  10.8472  11.4005  12.2856
    15.4279  17.8277  27.5426  27.8059

          k =-0.1667 0.5000 0.0000 (   466 PWs)   bands (ev):

   -36.7603 -36.7174 -36.7087   9.2317   9.8929  10.8271  11.3992  11.6427
    12.2296  26.2035  26.5348  29.1798

          k =-0.2500 0.5833-0.0833 (   464 PWs)   bands (ev):

   -36.7810 -36.7279 -36.7139   9.5370   9.9624  10.6564  11.4255  11.9768
    13.1362  23.4011  25.9782  27.7005

          k = 0.6667-0.3333 0.8333 (   463 PWs)   bands (ev):

   -36.7974 -36.7363 -36.7185   9.5413  10.1797  10.6533  11.3156  12.2386
    14.5818  20.6385  25.9338  26.4200

          k = 0.5833-0.2500 0.7500 (   464 PWs)   bands (ev):

   -36.8047 -36.7429 -36.7196   9.5683  10.1612  10.8603  11.1990  12.2803
    16.3382  18.3330  25.3193  26.4257

          k = 0.5000-0.1667 0.6667 (   465 PWs)   bands (ev):

   -36.8013 -36.7453 -36.7166   9.6497  10.1834  10.8114  11.1845  12.1270
    15.7999  19.0938  24.6352  27.2501

          k = 0.4167-0.0833 0.5833 (   463 PWs)   bands (ev):

   -36.7896 -36.7412 -36.7107   9.7537  10.3118  10.4246  11.2836  11.8175
    14.2303  21.6491  24.3709  28.3441

          k = 0.3333 0.0000 0.5000 (   464 PWs)   bands (ev):

   -36.7743 -36.7293 -36.7045   9.6427  10.0597  10.5427  11.3997  11.4234
    13.0548  24.3070  24.7083  29.5974

          k =-0.1667 0.6667-0.0000 (   464 PWs)   bands (ev):

   -36.7866 -36.7311 -36.7237   9.4217   9.5809  11.2105  11.9040  12.0406
    13.2722  24.6621  24.9598  25.8198

          k = 0.7500-0.2500 0.9167 (   463 PWs)   bands (ev):

   -36.7964 -36.7426 -36.7278   9.4656   9.6796  11.0568  11.8114  12.2717
    14.8124  22.1150  24.2389  24.8518

          k = 0.6667-0.1667 0.8333 (   465 PWs)   bands (ev):

   -36.7973 -36.7560 -36.7283   9.5422   9.8969  10.8775  11.6197  12.3322
    16.7428  19.6624  23.1112  25.1659

          k = 0.5833-0.0833 0.7500 (   461 PWs)   bands (ev):

   -36.7900 -36.7672 -36.7243   9.7232  10.0951  10.6381  11.4818  12.1822
    17.4813  19.0495  22.2280  26.0013

          k = 0.5000 0.0000 0.6667 (   471 PWs)   bands (ev):

   -36.7875 -36.7620 -36.7179   9.9632  10.2488  10.2891  11.4384  11.9257
    15.7110  21.4089  21.8961  27.1246

          k = 0.8333-0.1667 1.0000 (   461 PWs)   bands (ev):

   -36.8050 -36.7410 -36.7353   9.2257   9.3617  11.7301  12.1927  12.3401
    15.1261  22.3127  23.7899  23.8554

          k = 0.7500-0.0833 0.9167 (   464 PWs)   bands (ev):

   -36.8034 -36.7528 -36.7359   9.3182   9.5102  11.4486  11.9717  12.4393
    16.8498  20.9491  21.8627  24.0738

          k = 0.6667 0.0000 0.8333 (   460 PWs)   bands (ev):

   -36.7926 -36.7678 -36.7314   9.4960   9.8162  11.0159  11.7364  12.3385
    18.5372  19.2933  20.9615  24.8663

          k =-0.1667-1.0000-0.0000 (   460 PWs)   bands (ev):

   -36.8116 -36.7446 -36.7395   9.1273   9.2837  12.0034  12.1641  12.5182
    16.5056  20.5279  23.3538  23.4197

          k = 0.6667-0.3333 1.0000 (   467 PWs)   bands (ev):

   -36.7890 -36.7441 -36.7193   9.8515   9.8643  10.4889  11.7344  11.8994
    14.4139  23.0539  23.2191  26.2874

          k = 0.5833-0.2500 0.9167 (   463 PWs)   bands (ev):

   -36.7928 -36.7561 -36.7248   9.8455  10.0221  10.4486  11.5609  12.1787
    16.0605  20.4931  23.2760  25.0891

          k = 0.5000-0.1667 0.8333 (   464 PWs)   bands (ev):

   -36.7939 -36.7604 -36.7272   9.9248   9.9259  10.5484  11.4502  12.2837
    17.8359  18.3761  23.6070  24.4006

          k = 0.6667-0.1667 1.0000 (   471 PWs)   bands (ev):

   -36.7960 -36.7549 -36.7337   9.5925   9.7126  10.8758  11.8420  12.3355
    16.4031  21.9716  22.1352  23.3473

          k = 0.5833-0.0833 0.9167 (   463 PWs)   bands (ev):

   -36.7886 -36.7679 -36.7356   9.6819   9.9564  10.6208  11.6323  12.4296
    18.3237  19.8114  21.7111  23.1008

          k = 0.5000 0.0000 0.8333 (   464 PWs)   bands (ev):

   -36.7827 -36.7737 -36.7319   9.8170  10.2076  10.2825  11.5640  12.3321
    17.8023  20.2912  21.3073  23.9257

          k =-0.3333-1.0000 0.0000 (   462 PWs)   bands (ev):

   -36.7973 -36.7588 -36.7398   9.4768   9.6571  11.0934  11.8056  12.5188
    18.0492  20.5434  21.7289  22.4439

          k =-0.5000-1.0000 0.0000 (   464 PWs)   bands (ev):

   -36.7781 -36.7781 -36.7399   9.7047  10.2714  10.2714  11.5699  12.5187
    19.8669  19.8669  20.5626  22.0478

     the Fermi energy is    12.3881 ev

!    total energy              =    -198.67362840 Ry
     Harris-Foulkes estimate   =    -198.67362836 Ry
     estimated scf accuracy    <       0.00000005 Ry

     The total energy is the sum of the following terms:

     one-electron contribution =     -66.14489465 Ry
     hartree contribution      =      43.59096862 Ry
     xc contribution           =     -31.21552653 Ry
     ewald contribution        =    -144.90428288 Ry
     smearing contrib. (-TS)   =       0.00010705 Ry

     convergence has been achieved in   5 iterations

     Writing output data file Pd-kp-conv.save/
 
     init_run     :      0.63s CPU      0.68s WALL (       1 calls)
     electrons    :      3.80s CPU      4.39s WALL (       1 calls)

     Called by init_run:
     wfcinit      :      0.28s CPU      0.30s WALL (       1 calls)
     potinit      :      0.01s CPU      0.02s WALL (       1 calls)
     hinit0       :      0.33s CPU      0.33s WALL (       1 calls)

     Called by electrons:
     c_bands      :      3.15s CPU      3.34s WALL (       5 calls)
     sum_band     :      0.59s CPU      0.62s WALL (       5 calls)
     v_of_rho     :      0.03s CPU      0.03s WALL (       6 calls)
     newd         :      0.04s CPU      0.05s WALL (       6 calls)
     mix_rho      :      0.00s CPU      0.00s WALL (       5 calls)

     Called by c_bands:
     init_us_2    :      0.08s CPU      0.09s WALL (     792 calls)
     cegterg      :      2.92s CPU      3.11s WALL (     360 calls)

     Called by sum_band:
     sum_band:bec :      0.00s CPU      0.00s WALL (     360 calls)
     addusdens    :      0.04s CPU      0.05s WALL (       5 calls)

     Called by *egterg:
     h_psi        :      2.57s CPU      2.73s WALL (    1282 calls)
     s_psi        :      0.04s CPU      0.04s WALL (    1282 calls)
     g_psi        :      0.03s CPU      0.03s WALL (     850 calls)
     cdiaghg      :      0.31s CPU      0.34s WALL (    1210 calls)

     Called by h_psi:
     h_psi:pot    :      2.56s CPU      2.71s WALL (    1282 calls)
     h_psi:calbec :      0.05s CPU      0.05s WALL (    1282 calls)
     vloc_psi     :      2.46s CPU      2.61s WALL (    1282 calls)
     add_vuspsi   :      0.04s CPU      0.04s WALL (    1282 calls)

     General routines
     calbec       :      0.06s CPU      0.06s WALL (    1642 calls)
     fft          :      0.01s CPU      0.01s WALL (      67 calls)
     ffts         :      0.00s CPU      0.00s WALL (       5 calls)
     fftw         :      2.51s CPU      2.66s WALL (   28266 calls)
 
     Parallel routines
     fft_scatt_xy :      0.46s CPU      0.49s WALL (   28338 calls)
     fft_scatt_yz :      0.55s CPU      0.59s WALL (   28338 calls)
 
     PWSCF        :     4.55s CPU         5.44s WALL

 
   This run was terminated on:  21:40:59   2Dec2021            

=------------------------------------------------------------------------------=
   JOB DONE.
=------------------------------------------------------------------------------=
