
     Program PWSCF v.6.3 starts on  2Dec2021 at 21:58:24 

     This program is part of the open-source Quantum ESPRESSO suite
     for quantum simulation of materials; please cite
         "P. Giannozzi et al., J. Phys.:Condens. Matter 21 395502 (2009);
         "P. Giannozzi et al., J. Phys.:Condens. Matter 29 465901 (2017);
          URL http://www.quantum-espresso.org", 
     in publications or presentations arising from this work. More details at
     http://www.quantum-espresso.org/quote

     Parallel version (MPI & OpenMP), running on       2 processor cores
     Number of MPI processes:                 2
     Threads/MPI process:                     1

     MPI processes distributed on     1 nodes
     R & G space division:  proc/nbgrp/npool/nimage =       2
     Reading input from pw-input.in

     Current dimensions of program PWSCF are:
     Max number of different atomic species (ntypx) = 10
     Max number of k-points (npk) =  40000
     Max angular momentum in pseudopotentials (lmaxx) =  3

     Subspace diagonalization in iterative solution of the eigenvalue problem:
     a serial algorithm will be used

 
     Parallelization info
     --------------------
     sticks:   dense  smooth     PW     G-vecs:    dense   smooth      PW
     Min         132     132     42                 1445     1445     267
     Max         133     133     43                 1446     1446     270
     Sum         265     265     85                 2891     2891     537
 

     Title: 
     Pd-kp-conv                                                                 


     bravais-lattice index     =            2
     lattice parameter (alat)  =       7.5000  a.u.
     unit-cell volume          =     105.4688 (a.u.)^3
     number of atoms/cell      =            1
     number of atomic types    =            1
     number of electrons       =        16.00
     number of Kohn-Sham states=           12
     kinetic-energy cutoff     =      35.0000  Ry
     charge density cutoff     =     140.0000  Ry
     convergence threshold     =      1.0E-07
     mixing beta               =       0.7000
     number of iterations used =            8  plain     mixing
     Exchange-correlation      =  SLA  PW   PBX  PBC ( 1  4  3  4 0 0)

     celldm(1)=   7.500000  celldm(2)=   0.000000  celldm(3)=   0.000000
     celldm(4)=   0.000000  celldm(5)=   0.000000  celldm(6)=   0.000000

     crystal axes: (cart. coord. in units of alat)
               a(1) = (  -0.500000   0.000000   0.500000 )  
               a(2) = (   0.000000   0.500000   0.500000 )  
               a(3) = (  -0.500000   0.500000   0.000000 )  

     reciprocal axes: (cart. coord. in units 2 pi/alat)
               b(1) = ( -1.000000 -1.000000  1.000000 )  
               b(2) = (  1.000000  1.000000  1.000000 )  
               b(3) = ( -1.000000  1.000000 -1.000000 )  


     PseudoPot. # 1 for Pd read from file:
     ./pd_pbe_v1.4.uspp.F.UPF
     MD5 check sum: 2d733d2bc2cbfd217af676df1668a4bc
     Pseudo is Ultrasoft + core correction, Zval = 16.0
     Generated by new atomic code, or converted to UPF format
     Using radial grid of  887 points,  6 beta functions with: 
                l(1) =   0
                l(2) =   0
                l(3) =   1
                l(4) =   1
                l(5) =   2
                l(6) =   2
     Q(r) pseudized with  8 coefficients,  rinner =    1.130   1.130   1.130
                                                       1.130   1.130

     atomic species   valence    mass     pseudopotential
        Pd            16.00   106.40000     Pd( 1.00)

     48 Sym. Ops., with inversion, found



   Cartesian axes

     site n.     atom                  positions (alat units)
         1           Pd  tau(   1) = (   0.0000000   0.0000000   0.0000000  )

     number of k points=     4  Marzari-Vanderbilt smearing, width (Ry)=  0.0250
                       cart. coord. in units 2pi/alat
        k(    1) = (   0.0000000   0.0000000   0.0000000), wk =   0.0740741
        k(    2) = (  -0.3333333   0.3333333  -0.3333333), wk =   0.5925926
        k(    3) = (   0.0000000   0.6666667   0.0000000), wk =   0.4444444
        k(    4) = (   0.6666667  -0.0000000   0.6666667), wk =   0.8888889

     Dense  grid:     2891 G-vectors     FFT dimensions: (  20,  20,  20)

     Estimated max dynamical RAM per process >       6.36 MB

     Estimated total dynamical RAM >      12.71 MB

     Initial potential from superposition of free atoms
     Check: negative starting charge=   -0.084664

     starting charge   15.49999, renormalised to   16.00000

     negative rho (up, down):  8.740E-02 0.000E+00
     Starting wfcs are   12 randomized atomic wfcs

     total cpu time spent up to now is        0.4 secs

     Self-consistent Calculation

     iteration #  1     ecut=    35.00 Ry     beta= 0.70
     Davidson diagonalization with overlap
     ethr =  1.00E-02,  avg # of iterations =  4.0

     negative rho (up, down):  8.695E-02 0.000E+00

     total cpu time spent up to now is        0.5 secs

     total energy              =    -198.12883135 Ry
     Harris-Foulkes estimate   =    -199.00923733 Ry
     estimated scf accuracy    <       1.21490605 Ry

     iteration #  2     ecut=    35.00 Ry     beta= 0.70
     Davidson diagonalization with overlap
     ethr =  7.59E-03,  avg # of iterations =  2.0

     negative rho (up, down):  8.803E-02 0.000E+00

     total cpu time spent up to now is        0.5 secs

     total energy              =    -198.35915495 Ry
     Harris-Foulkes estimate   =    -199.03181306 Ry
     estimated scf accuracy    <       1.39555020 Ry

     iteration #  3     ecut=    35.00 Ry     beta= 0.70
     Davidson diagonalization with overlap
     ethr =  7.59E-03,  avg # of iterations =  2.0

     negative rho (up, down):  8.864E-02 0.000E+00

     total cpu time spent up to now is        0.5 secs

     total energy              =    -198.63801264 Ry
     Harris-Foulkes estimate   =    -198.64651630 Ry
     estimated scf accuracy    <       0.01564028 Ry

     iteration #  4     ecut=    35.00 Ry     beta= 0.70
     Davidson diagonalization with overlap
     ethr =  9.78E-05,  avg # of iterations =  2.0

     negative rho (up, down):  8.861E-02 0.000E+00

     total cpu time spent up to now is        0.6 secs

     total energy              =    -198.64368990 Ry
     Harris-Foulkes estimate   =    -198.64548446 Ry
     estimated scf accuracy    <       0.00649941 Ry

     iteration #  5     ecut=    35.00 Ry     beta= 0.70
     Davidson diagonalization with overlap
     ethr =  4.06E-05,  avg # of iterations =  1.0

     negative rho (up, down):  8.861E-02 0.000E+00

     total cpu time spent up to now is        0.6 secs

     total energy              =    -198.64367802 Ry
     Harris-Foulkes estimate   =    -198.64409120 Ry
     estimated scf accuracy    <       0.00099626 Ry

     iteration #  6     ecut=    35.00 Ry     beta= 0.70
     Davidson diagonalization with overlap
     ethr =  6.23E-06,  avg # of iterations =  2.0

     negative rho (up, down):  8.865E-02 0.000E+00

     total cpu time spent up to now is        0.7 secs

     total energy              =    -198.64386481 Ry
     Harris-Foulkes estimate   =    -198.64387614 Ry
     estimated scf accuracy    <       0.00001644 Ry

     iteration #  7     ecut=    35.00 Ry     beta= 0.70
     Davidson diagonalization with overlap
     ethr =  1.03E-07,  avg # of iterations =  2.0

     negative rho (up, down):  8.866E-02 0.000E+00

     total cpu time spent up to now is        0.7 secs

     total energy              =    -198.64386430 Ry
     Harris-Foulkes estimate   =    -198.64388154 Ry
     estimated scf accuracy    <       0.00003785 Ry

     iteration #  8     ecut=    35.00 Ry     beta= 0.70
     Davidson diagonalization with overlap
     ethr =  1.03E-07,  avg # of iterations =  2.0

     negative rho (up, down):  8.867E-02 0.000E+00

     total cpu time spent up to now is        0.8 secs

     total energy              =    -198.64387266 Ry
     Harris-Foulkes estimate   =    -198.64387376 Ry
     estimated scf accuracy    <       0.00000263 Ry

     iteration #  9     ecut=    35.00 Ry     beta= 0.70
     Davidson diagonalization with overlap
     ethr =  1.65E-08,  avg # of iterations =  2.0

     negative rho (up, down):  8.867E-02 0.000E+00

     total cpu time spent up to now is        0.8 secs

     End of self-consistent calculation

          k = 0.0000 0.0000 0.0000 (   339 PWs)   bands (ev):

   -32.3225 -32.3225 -32.3225  10.5542  14.6595  14.6595  14.6595  16.0939
    16.0939  35.0762  39.4742  39.4742

          k =-0.3333 0.3333-0.3333 (   359 PWs)   bands (ev):

   -32.5712 -32.3588 -32.3588  12.4756  14.7919  14.7919  15.7274  16.6610
    16.6610  28.2935  35.1460  39.6749

          k = 0.0000 0.6667 0.0000 (   355 PWs)   bands (ev):

   -32.5594 -32.4159 -32.4159  12.7559  13.0544  16.5757  16.5757  16.8756
    17.0135  32.6603  32.6603  32.6734

          k = 0.6667-0.0000 0.6667 (   375 PWs)   bands (ev):

   -32.5473 -32.5459 -32.4056  13.2671  13.9423  14.8279  15.9743  16.8007
    23.0439  25.8916  27.8516  34.5539

     the Fermi energy is    16.8897 ev

!    total energy              =    -198.64387316 Ry
     Harris-Foulkes estimate   =    -198.64387321 Ry
     estimated scf accuracy    <       0.00000007 Ry

     The total energy is the sum of the following terms:

     one-electron contribution =     -47.81703249 Ry
     hartree contribution      =      36.99601281 Ry
     xc contribution           =     -31.32153003 Ry
     ewald contribution        =    -156.49662553 Ry
     smearing contrib. (-TS)   =      -0.00469792 Ry

     convergence has been achieved in   9 iterations

     Writing output data file Pd-kp-conv.save/
 
     init_run     :      0.30s CPU      0.32s WALL (       1 calls)
     electrons    :      0.36s CPU      0.41s WALL (       1 calls)

     Called by init_run:
     wfcinit      :      0.01s CPU      0.02s WALL (       1 calls)
     potinit      :      0.00s CPU      0.01s WALL (       1 calls)
     hinit0       :      0.27s CPU      0.28s WALL (       1 calls)

     Called by electrons:
     c_bands      :      0.21s CPU      0.23s WALL (       9 calls)
     sum_band     :      0.09s CPU      0.09s WALL (       9 calls)
     v_of_rho     :      0.03s CPU      0.03s WALL (      10 calls)
     newd         :      0.05s CPU      0.05s WALL (      10 calls)
     mix_rho      :      0.00s CPU      0.00s WALL (       9 calls)

     Called by c_bands:
     init_us_2    :      0.01s CPU      0.01s WALL (      76 calls)
     cegterg      :      0.19s CPU      0.21s WALL (      36 calls)

     Called by sum_band:
     sum_band:bec :      0.00s CPU      0.00s WALL (      36 calls)
     addusdens    :      0.05s CPU      0.05s WALL (       9 calls)

     Called by *egterg:
     h_psi        :      0.14s CPU      0.15s WALL (     116 calls)
     s_psi        :      0.00s CPU      0.00s WALL (     116 calls)
     g_psi        :      0.00s CPU      0.00s WALL (      76 calls)
     cdiaghg      :      0.03s CPU      0.03s WALL (     112 calls)

     Called by h_psi:
     h_psi:pot    :      0.14s CPU      0.15s WALL (     116 calls)
     h_psi:calbec :      0.01s CPU      0.01s WALL (     116 calls)
     vloc_psi     :      0.13s CPU      0.14s WALL (     116 calls)
     add_vuspsi   :      0.00s CPU      0.00s WALL (     116 calls)

     General routines
     calbec       :      0.01s CPU      0.01s WALL (     152 calls)
     fft          :      0.01s CPU      0.01s WALL (     111 calls)
     ffts         :      0.00s CPU      0.00s WALL (       9 calls)
     fftw         :      0.14s CPU      0.15s WALL (    2590 calls)
 
     Parallel routines
     fft_scatt_xy :      0.03s CPU      0.03s WALL (    2710 calls)
     fft_scatt_yz :      0.05s CPU      0.05s WALL (    2710 calls)
 
     PWSCF        :     0.71s CPU         0.87s WALL

 
   This run was terminated on:  21:58:25   2Dec2021            

=------------------------------------------------------------------------------=
   JOB DONE.
=------------------------------------------------------------------------------=
