
     Program PWSCF v.6.3 starts on  2Dec2021 at 20:29:51 

     This program is part of the open-source Quantum ESPRESSO suite
     for quantum simulation of materials; please cite
         "P. Giannozzi et al., J. Phys.:Condens. Matter 21 395502 (2009);
         "P. Giannozzi et al., J. Phys.:Condens. Matter 29 465901 (2017);
          URL http://www.quantum-espresso.org", 
     in publications or presentations arising from this work. More details at
     http://www.quantum-espresso.org/quote

     Parallel version (MPI & OpenMP), running on       2 processor cores
     Number of MPI processes:                 2
     Threads/MPI process:                     1

     MPI processes distributed on     1 nodes
     R & G space division:  proc/nbgrp/npool/nimage =       2
     Reading input from pw-input.in

     Current dimensions of program PWSCF are:
     Max number of different atomic species (ntypx) = 10
     Max number of k-points (npk) =  40000
     Max angular momentum in pseudopotentials (lmaxx) =  3

     Subspace diagonalization in iterative solution of the eigenvalue problem:
     a serial algorithm will be used

 
     Parallelization info
     --------------------
     sticks:   dense  smooth     PW     G-vecs:    dense   smooth      PW
     Min         147     147     48                 1643     1643     322
     Max         148     148     49                 1644     1644     323
     Sum         295     295     97                 3287     3287     645
 

     Title: 
     Pd-kp-conv                                                                 


     bravais-lattice index     =            2
     lattice parameter (alat)  =       7.8000  a.u.
     unit-cell volume          =     118.6380 (a.u.)^3
     number of atoms/cell      =            1
     number of atomic types    =            1
     number of electrons       =        16.00
     number of Kohn-Sham states=           12
     kinetic-energy cutoff     =      35.0000  Ry
     charge density cutoff     =     140.0000  Ry
     convergence threshold     =      1.0E-07
     mixing beta               =       0.7000
     number of iterations used =            8  plain     mixing
     Exchange-correlation      =  SLA  PW   PBX  PBC ( 1  4  3  4 0 0)

     celldm(1)=   7.800000  celldm(2)=   0.000000  celldm(3)=   0.000000
     celldm(4)=   0.000000  celldm(5)=   0.000000  celldm(6)=   0.000000

     crystal axes: (cart. coord. in units of alat)
               a(1) = (  -0.500000   0.000000   0.500000 )  
               a(2) = (   0.000000   0.500000   0.500000 )  
               a(3) = (  -0.500000   0.500000   0.000000 )  

     reciprocal axes: (cart. coord. in units 2 pi/alat)
               b(1) = ( -1.000000 -1.000000  1.000000 )  
               b(2) = (  1.000000  1.000000  1.000000 )  
               b(3) = ( -1.000000  1.000000 -1.000000 )  


     PseudoPot. # 1 for Pd read from file:
     ./pd_pbe_v1.4.uspp.F.UPF
     MD5 check sum: 2d733d2bc2cbfd217af676df1668a4bc
     Pseudo is Ultrasoft + core correction, Zval = 16.0
     Generated by new atomic code, or converted to UPF format
     Using radial grid of  887 points,  6 beta functions with: 
                l(1) =   0
                l(2) =   0
                l(3) =   1
                l(4) =   1
                l(5) =   2
                l(6) =   2
     Q(r) pseudized with  8 coefficients,  rinner =    1.130   1.130   1.130
                                                       1.130   1.130

     atomic species   valence    mass     pseudopotential
        Pd            16.00   106.40000     Pd( 1.00)

     48 Sym. Ops., with inversion, found



   Cartesian axes

     site n.     atom                  positions (alat units)
         1           Pd  tau(   1) = (   0.0000000   0.0000000   0.0000000  )

     number of k points=    16  Marzari-Vanderbilt smearing, width (Ry)=  0.0050
                       cart. coord. in units 2pi/alat
        k(    1) = (   0.0000000   0.0000000   0.0000000), wk =   0.0092593
        k(    2) = (  -0.1666667   0.1666667  -0.1666667), wk =   0.0740741
        k(    3) = (  -0.3333333   0.3333333  -0.3333333), wk =   0.0740741
        k(    4) = (   0.5000000  -0.5000000   0.5000000), wk =   0.0370370
        k(    5) = (   0.0000000   0.3333333   0.0000000), wk =   0.0555556
        k(    6) = (  -0.1666667   0.5000000  -0.1666667), wk =   0.2222222
        k(    7) = (   0.6666667  -0.3333333   0.6666667), wk =   0.2222222
        k(    8) = (   0.5000000  -0.1666667   0.5000000), wk =   0.2222222
        k(    9) = (   0.3333333   0.0000000   0.3333333), wk =   0.1111111
        k(   10) = (   0.0000000   0.6666667   0.0000000), wk =   0.0555556
        k(   11) = (   0.8333333  -0.1666667   0.8333333), wk =   0.2222222
        k(   12) = (   0.6666667  -0.0000000   0.6666667), wk =   0.1111111
        k(   13) = (   0.0000000  -1.0000000   0.0000000), wk =   0.0277778
        k(   14) = (   0.6666667  -0.3333333   1.0000000), wk =   0.2222222
        k(   15) = (   0.5000000  -0.1666667   0.8333333), wk =   0.2222222
        k(   16) = (  -0.3333333  -1.0000000   0.0000000), wk =   0.1111111

     Dense  grid:     3287 G-vectors     FFT dimensions: (  24,  24,  24)

     Estimated max dynamical RAM per process >       7.73 MB

     Estimated total dynamical RAM >      15.46 MB

     Initial potential from superposition of free atoms
     Check: negative starting charge=   -0.079046

     starting charge   15.49999, renormalised to   16.00000

     negative rho (up, down):  8.160E-02 0.000E+00
     Starting wfcs are   12 randomized atomic wfcs

     total cpu time spent up to now is        0.5 secs

     Self-consistent Calculation

     iteration #  1     ecut=    35.00 Ry     beta= 0.70
     Davidson diagonalization with overlap
     ethr =  1.00E-02,  avg # of iterations =  3.5

     negative rho (up, down):  8.029E-02 0.000E+00

     total cpu time spent up to now is        0.8 secs

     total energy              =    -198.04239464 Ry
     Harris-Foulkes estimate   =    -199.06594910 Ry
     estimated scf accuracy    <       1.39882633 Ry

     iteration #  2     ecut=    35.00 Ry     beta= 0.70
     Davidson diagonalization with overlap
     ethr =  8.74E-03,  avg # of iterations =  2.0

     negative rho (up, down):  8.157E-02 0.000E+00

     total cpu time spent up to now is        1.0 secs

     total energy              =    -198.37877453 Ry
     Harris-Foulkes estimate   =    -199.18136445 Ry
     estimated scf accuracy    <       1.66317295 Ry

     iteration #  3     ecut=    35.00 Ry     beta= 0.70
     Davidson diagonalization with overlap
     ethr =  8.74E-03,  avg # of iterations =  2.0

     negative rho (up, down):  8.172E-02 0.000E+00

     total cpu time spent up to now is        1.1 secs

     total energy              =    -198.69019582 Ry
     Harris-Foulkes estimate   =    -198.69135678 Ry
     estimated scf accuracy    <       0.00254198 Ry

     iteration #  4     ecut=    35.00 Ry     beta= 0.70
     Davidson diagonalization with overlap
     ethr =  1.59E-05,  avg # of iterations =  2.8

     negative rho (up, down):  8.182E-02 0.000E+00

     total cpu time spent up to now is        1.3 secs

     total energy              =    -198.69103355 Ry
     Harris-Foulkes estimate   =    -198.69112621 Ry
     estimated scf accuracy    <       0.00022936 Ry

     iteration #  5     ecut=    35.00 Ry     beta= 0.70
     Davidson diagonalization with overlap
     ethr =  1.43E-06,  avg # of iterations =  1.8

     negative rho (up, down):  8.190E-02 0.000E+00

     total cpu time spent up to now is        1.5 secs

     total energy              =    -198.69107646 Ry
     Harris-Foulkes estimate   =    -198.69107857 Ry
     estimated scf accuracy    <       0.00000423 Ry

     iteration #  6     ecut=    35.00 Ry     beta= 0.70
     Davidson diagonalization with overlap
     ethr =  2.65E-08,  avg # of iterations =  2.0

     negative rho (up, down):  8.189E-02 0.000E+00

     total cpu time spent up to now is        1.7 secs

     total energy              =    -198.69107755 Ry
     Harris-Foulkes estimate   =    -198.69107938 Ry
     estimated scf accuracy    <       0.00000515 Ry

     iteration #  7     ecut=    35.00 Ry     beta= 0.70
     Davidson diagonalization with overlap
     ethr =  2.65E-08,  avg # of iterations =  1.6

     negative rho (up, down):  8.189E-02 0.000E+00

     total cpu time spent up to now is        2.2 secs

     End of self-consistent calculation

          k = 0.0000 0.0000 0.0000 (   411 PWs)   bands (ev):

   -34.7439 -34.7439 -34.7439   8.7297  12.4273  12.4273  12.4273  13.6275
    13.6275  32.0836  35.8262  35.8262

          k =-0.1667 0.1667-0.1667 (   408 PWs)   bands (ev):

   -34.7968 -34.7517 -34.7517   9.5405  12.2661  12.6244  12.6244  13.5900
    13.5900  30.7375  33.0051  36.1647

          k =-0.3333 0.3333-0.3333 (   419 PWs)   bands (ev):

   -34.9029 -34.7676 -34.7676  10.5510  12.5536  12.5536  13.4186  14.0889
    14.0889  24.7056  32.0627  35.4033

          k = 0.5000-0.5000 0.5000 (   410 PWs)   bands (ev):

   -34.9549 -34.7754 -34.7754  10.5132  12.4026  12.4026  14.5224  14.5224
    16.0001  20.6475  31.3058  34.2811

          k = 0.0000 0.3333 0.0000 (   407 PWs)   bands (ev):

   -34.7949 -34.7640 -34.7640   9.8123  11.9514  12.8825  12.8825  13.2058
    13.8355  32.6539  33.3631  33.3979

          k =-0.1667 0.5000-0.1667 (   416 PWs)   bands (ev):

   -34.8731 -34.7823 -34.7820  10.9088  11.8424  12.5841  13.0723  14.2377
    14.3397  27.1732  31.7919  32.0370

          k = 0.6667-0.3333 0.6667 (   409 PWs)   bands (ev):

   -34.9341 -34.8061 -34.7874  10.9651  12.1001  12.8643  13.0158  14.5543
    17.4067  21.5589  29.9804  31.8405

          k = 0.5000-0.1667 0.5000 (   418 PWs)   bands (ev):

   -34.9175 -34.8131 -34.7754  11.1030  12.2078  12.8461  12.8828  13.9670
    16.4968  23.3273  28.9250  32.9938

          k = 0.3333 0.0000 0.3333 (   417 PWs)   bands (ev):

   -34.8481 -34.7868 -34.7574  10.6536  11.9616  12.6593  13.0203  13.1962
    14.4348  29.0649  29.6295  35.3149

          k = 0.0000 0.6667 0.0000 (   432 PWs)   bands (ev):

   -34.8959 -34.8046 -34.8046  10.8549  11.1027  14.0085  14.0085  14.2707
    14.5390  28.8867  29.0186  29.0186

          k = 0.8333-0.1667 0.8333 (   417 PWs)   bands (ev):

   -34.9229 -34.8368 -34.8123  10.8757  11.1646  13.5250  13.9315  14.6292
    18.0598  24.3531  25.8816  28.4901

          k = 0.6667-0.0000 0.6667 (   403 PWs)   bands (ev):

   -34.8877 -34.8870 -34.7975  11.2930  11.8729  12.5871  13.5488  14.1915
    19.9244  22.5539  24.2720  30.6926

          k = 0.0000-1.0000 0.0000 (   412 PWs)   bands (ev):

   -34.9443 -34.8241 -34.8241  10.5120  10.7218  14.5028  14.7549  14.7549
    17.9956  23.6923  26.9911  26.9911

          k = 0.6667-0.3333 1.0000 (   417 PWs)   bands (ev):

   -34.9022 -34.8321 -34.7937  11.5409  11.5569  12.3039  13.7863  13.9992
    16.8054  26.1210  26.2747  29.5081

          k = 0.5000-0.1667 0.8333 (   416 PWs)   bands (ev):

   -34.9094 -34.8575 -34.8061  11.6109  11.6376  12.3627  13.4485  14.4661
    20.4099  21.2042  26.7761  27.4550

          k =-0.3333-1.0000 0.0000 (   418 PWs)   bands (ev):

   -34.9146 -34.8547 -34.8255  11.0841  11.3127  13.0110  13.8777  14.7547
    20.6187  23.6518  24.5966  25.3662

     the Fermi energy is    14.5390 ev

!    total energy              =    -198.69107833 Ry
     Harris-Foulkes estimate   =    -198.69107833 Ry
     estimated scf accuracy    <          3.6E-10 Ry

     The total energy is the sum of the following terms:

     one-electron contribution =     -57.23612974 Ry
     hartree contribution      =      40.27114132 Ry
     xc contribution           =     -31.24850667 Ry
     ewald contribution        =    -150.47752455 Ry
     smearing contrib. (-TS)   =      -0.00005870 Ry

     convergence has been achieved in   7 iterations

     Writing output data file Pd-kp-conv.save/
 
     init_run     :      0.40s CPU      0.44s WALL (       1 calls)
     electrons    :      1.25s CPU      1.66s WALL (       1 calls)

     Called by init_run:
     wfcinit      :      0.06s CPU      0.07s WALL (       1 calls)
     potinit      :      0.01s CPU      0.02s WALL (       1 calls)
     hinit0       :      0.32s CPU      0.32s WALL (       1 calls)

     Called by electrons:
     c_bands      :      0.93s CPU      1.00s WALL (       7 calls)
     sum_band     :      0.22s CPU      0.23s WALL (       7 calls)
     v_of_rho     :      0.04s CPU      0.04s WALL (       8 calls)
     newd         :      0.05s CPU      0.05s WALL (       8 calls)
     mix_rho      :      0.00s CPU      0.00s WALL (       7 calls)

     Called by c_bands:
     init_us_2    :      0.02s CPU      0.03s WALL (     240 calls)
     cegterg      :      0.86s CPU      0.91s WALL (     112 calls)

     Called by sum_band:
     sum_band:bec :      0.00s CPU      0.00s WALL (     112 calls)
     addusdens    :      0.05s CPU      0.05s WALL (       7 calls)

     Called by *egterg:
     h_psi        :      0.74s CPU      0.79s WALL (     378 calls)
     s_psi        :      0.01s CPU      0.01s WALL (     378 calls)
     g_psi        :      0.01s CPU      0.01s WALL (     250 calls)
     cdiaghg      :      0.09s CPU      0.10s WALL (     362 calls)

     Called by h_psi:
     h_psi:pot    :      0.74s CPU      0.79s WALL (     378 calls)
     h_psi:calbec :      0.01s CPU      0.02s WALL (     378 calls)
     vloc_psi     :      0.71s CPU      0.76s WALL (     378 calls)
     add_vuspsi   :      0.01s CPU      0.01s WALL (     378 calls)

     General routines
     calbec       :      0.02s CPU      0.02s WALL (     490 calls)
     fft          :      0.01s CPU      0.02s WALL (      89 calls)
     ffts         :      0.00s CPU      0.00s WALL (       7 calls)
     fftw         :      0.73s CPU      0.77s WALL (    8206 calls)
 
     Parallel routines
     fft_scatt_xy :      0.14s CPU      0.15s WALL (    8302 calls)
     fft_scatt_yz :      0.16s CPU      0.17s WALL (    8302 calls)
 
     PWSCF        :     1.74s CPU         2.27s WALL

 
   This run was terminated on:  20:29:53   2Dec2021            

=------------------------------------------------------------------------------=
   JOB DONE.
=------------------------------------------------------------------------------=
