
     Program PWSCF v.6.3 starts on  2Dec2021 at 20:29:57 

     This program is part of the open-source Quantum ESPRESSO suite
     for quantum simulation of materials; please cite
         "P. Giannozzi et al., J. Phys.:Condens. Matter 21 395502 (2009);
         "P. Giannozzi et al., J. Phys.:Condens. Matter 29 465901 (2017);
          URL http://www.quantum-espresso.org", 
     in publications or presentations arising from this work. More details at
     http://www.quantum-espresso.org/quote

     Parallel version (MPI & OpenMP), running on       2 processor cores
     Number of MPI processes:                 2
     Threads/MPI process:                     1

     MPI processes distributed on     1 nodes
     R & G space division:  proc/nbgrp/npool/nimage =       2
     Reading input from pw-input.in

     Current dimensions of program PWSCF are:
     Max number of different atomic species (ntypx) = 10
     Max number of k-points (npk) =  40000
     Max angular momentum in pseudopotentials (lmaxx) =  3

     Subspace diagonalization in iterative solution of the eigenvalue problem:
     a serial algorithm will be used

 
     Parallelization info
     --------------------
     sticks:   dense  smooth     PW     G-vecs:    dense   smooth      PW
     Min         156     156     54                 1763     1763     362
     Max         157     157     55                 1764     1764     363
     Sum         313     313    109                 3527     3527     725
 

     Title: 
     Pd-kp-conv                                                                 


     bravais-lattice index     =            2
     lattice parameter (alat)  =       8.0000  a.u.
     unit-cell volume          =     128.0000 (a.u.)^3
     number of atoms/cell      =            1
     number of atomic types    =            1
     number of electrons       =        16.00
     number of Kohn-Sham states=           12
     kinetic-energy cutoff     =      35.0000  Ry
     charge density cutoff     =     140.0000  Ry
     convergence threshold     =      1.0E-07
     mixing beta               =       0.7000
     number of iterations used =            8  plain     mixing
     Exchange-correlation      =  SLA  PW   PBX  PBC ( 1  4  3  4 0 0)

     celldm(1)=   8.000000  celldm(2)=   0.000000  celldm(3)=   0.000000
     celldm(4)=   0.000000  celldm(5)=   0.000000  celldm(6)=   0.000000

     crystal axes: (cart. coord. in units of alat)
               a(1) = (  -0.500000   0.000000   0.500000 )  
               a(2) = (   0.000000   0.500000   0.500000 )  
               a(3) = (  -0.500000   0.500000   0.000000 )  

     reciprocal axes: (cart. coord. in units 2 pi/alat)
               b(1) = ( -1.000000 -1.000000  1.000000 )  
               b(2) = (  1.000000  1.000000  1.000000 )  
               b(3) = ( -1.000000  1.000000 -1.000000 )  


     PseudoPot. # 1 for Pd read from file:
     ./pd_pbe_v1.4.uspp.F.UPF
     MD5 check sum: 2d733d2bc2cbfd217af676df1668a4bc
     Pseudo is Ultrasoft + core correction, Zval = 16.0
     Generated by new atomic code, or converted to UPF format
     Using radial grid of  887 points,  6 beta functions with: 
                l(1) =   0
                l(2) =   0
                l(3) =   1
                l(4) =   1
                l(5) =   2
                l(6) =   2
     Q(r) pseudized with  8 coefficients,  rinner =    1.130   1.130   1.130
                                                       1.130   1.130

     atomic species   valence    mass     pseudopotential
        Pd            16.00   106.40000     Pd( 1.00)

     48 Sym. Ops., with inversion, found



   Cartesian axes

     site n.     atom                  positions (alat units)
         1           Pd  tau(   1) = (   0.0000000   0.0000000   0.0000000  )

     number of k points=    16  Marzari-Vanderbilt smearing, width (Ry)=  0.0050
                       cart. coord. in units 2pi/alat
        k(    1) = (   0.0000000   0.0000000   0.0000000), wk =   0.0092593
        k(    2) = (  -0.1666667   0.1666667  -0.1666667), wk =   0.0740741
        k(    3) = (  -0.3333333   0.3333333  -0.3333333), wk =   0.0740741
        k(    4) = (   0.5000000  -0.5000000   0.5000000), wk =   0.0370370
        k(    5) = (   0.0000000   0.3333333   0.0000000), wk =   0.0555556
        k(    6) = (  -0.1666667   0.5000000  -0.1666667), wk =   0.2222222
        k(    7) = (   0.6666667  -0.3333333   0.6666667), wk =   0.2222222
        k(    8) = (   0.5000000  -0.1666667   0.5000000), wk =   0.2222222
        k(    9) = (   0.3333333   0.0000000   0.3333333), wk =   0.1111111
        k(   10) = (   0.0000000   0.6666667   0.0000000), wk =   0.0555556
        k(   11) = (   0.8333333  -0.1666667   0.8333333), wk =   0.2222222
        k(   12) = (   0.6666667  -0.0000000   0.6666667), wk =   0.1111111
        k(   13) = (   0.0000000  -1.0000000   0.0000000), wk =   0.0277778
        k(   14) = (   0.6666667  -0.3333333   1.0000000), wk =   0.2222222
        k(   15) = (   0.5000000  -0.1666667   0.8333333), wk =   0.2222222
        k(   16) = (  -0.3333333  -1.0000000   0.0000000), wk =   0.1111111

     Dense  grid:     3527 G-vectors     FFT dimensions: (  24,  24,  24)

     Estimated max dynamical RAM per process >       8.21 MB

     Estimated total dynamical RAM >      16.42 MB

     Check: negative/imaginary core charge=   -0.000001    0.000000

     Initial potential from superposition of free atoms
     Check: negative starting charge=   -0.080332

     starting charge   15.49999, renormalised to   16.00000

     negative rho (up, down):  8.292E-02 0.000E+00
     Starting wfcs are   12 randomized atomic wfcs

     total cpu time spent up to now is        0.5 secs

     Self-consistent Calculation

     iteration #  1     ecut=    35.00 Ry     beta= 0.70
     Davidson diagonalization with overlap
     ethr =  1.00E-02,  avg # of iterations =  3.3

     negative rho (up, down):  8.034E-02 0.000E+00

     total cpu time spent up to now is        0.8 secs

     total energy              =    -197.95291610 Ry
     Harris-Foulkes estimate   =    -199.07186236 Ry
     estimated scf accuracy    <       1.52205683 Ry

     iteration #  2     ecut=    35.00 Ry     beta= 0.70
     Davidson diagonalization with overlap
     ethr =  9.51E-03,  avg # of iterations =  2.0

     negative rho (up, down):  8.253E-02 0.000E+00

     total cpu time spent up to now is        1.0 secs

     total energy              =    -198.27859319 Ry
     Harris-Foulkes estimate   =    -199.27170262 Ry
     estimated scf accuracy    <       2.12658634 Ry

     iteration #  3     ecut=    35.00 Ry     beta= 0.70
     Davidson diagonalization with overlap
     ethr =  9.51E-03,  avg # of iterations =  2.0

     negative rho (up, down):  8.265E-02 0.000E+00

     total cpu time spent up to now is        1.2 secs

     total energy              =    -198.67857480 Ry
     Harris-Foulkes estimate   =    -198.67939285 Ry
     estimated scf accuracy    <       0.00185850 Ry

     iteration #  4     ecut=    35.00 Ry     beta= 0.70
     Davidson diagonalization with overlap
     ethr =  1.16E-05,  avg # of iterations =  2.9

     negative rho (up, down):  8.277E-02 0.000E+00

     total cpu time spent up to now is        1.4 secs

     total energy              =    -198.67920479 Ry
     Harris-Foulkes estimate   =    -198.67920647 Ry
     estimated scf accuracy    <       0.00000660 Ry

     iteration #  5     ecut=    35.00 Ry     beta= 0.70
     Davidson diagonalization with overlap
     ethr =  4.13E-08,  avg # of iterations =  2.0

     negative rho (up, down):  8.280E-02 0.000E+00

     total cpu time spent up to now is        1.5 secs

     End of self-consistent calculation

          k = 0.0000 0.0000 0.0000 (   459 PWs)   bands (ev):

   -36.1136 -36.1136 -36.1136   7.6812  11.1433  11.1433  11.1433  12.2027
    12.2027  30.2894  33.6002  33.6002

          k =-0.1667 0.1667-0.1667 (   456 PWs)   bands (ev):

   -36.1534 -36.1194 -36.1194   8.4460  11.0043  11.3193  11.3193  12.1707
    12.1707  28.5564  31.0939  33.7463

          k =-0.3333 0.3333-0.3333 (   450 PWs)   bands (ev):

   -36.2320 -36.1315 -36.1315   9.4414  11.2584  11.2584  12.0860  12.6119
    12.6119  22.6216  30.2089  32.8747

          k = 0.5000-0.5000 0.5000 (   434 PWs)   bands (ev):

   -36.2712 -36.1369 -36.1369   9.4231  11.1272  11.1272  12.9906  12.9906
    14.6074  18.6395  29.5123  31.8894

          k = 0.0000 0.3333 0.0000 (   451 PWs)   bands (ev):

   -36.1521 -36.1285 -36.1285   8.7025  10.7270  11.5468  11.5468  11.8358
    12.3870  31.0253  31.0257  31.2815

          k =-0.1667 0.5000-0.1667 (   445 PWs)   bands (ev):

   -36.2099 -36.1424 -36.1423   9.7639  10.6325  11.2888  11.7170  12.7402
    12.8664  25.0257  29.4673  29.9671

          k = 0.6667-0.3333 0.6667 (   448 PWs)   bands (ev):

   -36.2557 -36.1605 -36.1468   9.8358  10.8657  11.5337  11.6868  13.0178
    15.7809  19.5885  27.8281  29.5271

          k = 0.5000-0.1667 0.5000 (   446 PWs)   bands (ev):

   -36.2429 -36.1655 -36.1375   9.9569  10.9572  11.5198  11.5767  12.5057
    14.8667  21.3002  26.7493  30.9192

          k = 0.3333 0.0000 0.3333 (   457 PWs)   bands (ev):

   -36.1914 -36.1458 -36.1239   9.5020  10.7367  11.3562  11.6701  11.8271
    12.9257  26.8977  27.3939  33.1008

          k = 0.0000 0.6667 0.0000 (   444 PWs)   bands (ev):

   -36.2268 -36.1592 -36.1592   9.7435   9.9742  12.5434  12.5434  12.7692
    13.1113  26.6390  26.8781  26.8781

          k = 0.8333-0.1667 0.8333 (   445 PWs)   bands (ev):

   -36.2475 -36.1830 -36.1651   9.7717  10.0313  12.1326  12.4764  13.0829
    16.3876  22.3471  23.7495  26.3897

          k = 0.6667-0.0000 0.6667 (   443 PWs)   bands (ev):

   -36.2213 -36.2206 -36.1543  10.1414  10.6682  11.2979  12.1410  12.7018
    18.1186  20.6370  22.1802  28.4244

          k = 0.0000-1.0000 0.0000 (   444 PWs)   bands (ev):

   -36.2633 -36.1743 -36.1743   9.4487   9.6324  12.9695  13.1928  13.1928
    16.4703  21.5123  25.0131  25.0131

          k = 0.6667-0.3333 1.0000 (   452 PWs)   bands (ev):

   -36.2317 -36.1799 -36.1512  10.3669  10.3776  11.0404  12.3543  12.5340
    15.1492  24.0187  24.1743  27.3005

          k = 0.5000-0.1667 0.8333 (   442 PWs)   bands (ev):

   -36.2373 -36.1986 -36.1601  10.4367  10.4465  11.1004  12.0545  12.9423
    18.6354  19.2568  24.6013  25.3581

          k =-0.3333-1.0000 0.0000 (   444 PWs)   bands (ev):

   -36.2414 -36.1967 -36.1745   9.9649  10.1609  11.6760  12.4307  13.1928
    18.8490  21.5154  22.6271  23.3576

     the Fermi energy is    13.0099 ev

!    total energy              =    -198.67920629 Ry
     Harris-Foulkes estimate   =    -198.67920622 Ry
     estimated scf accuracy    <       0.00000006 Ry

     The total energy is the sum of the following terms:

     one-electron contribution =     -63.19954751 Ry
     hartree contribution      =      42.45444398 Ry
     xc contribution           =     -31.21853052 Ry
     ewald contribution        =    -146.71558644 Ry
     smearing contrib. (-TS)   =       0.00001420 Ry

     convergence has been achieved in   5 iterations

     Writing output data file Pd-kp-conv.save/
 
     init_run     :      0.41s CPU      0.45s WALL (       1 calls)
     electrons    :      0.94s CPU      1.35s WALL (       1 calls)

     Called by init_run:
     wfcinit      :      0.06s CPU      0.08s WALL (       1 calls)
     potinit      :      0.01s CPU      0.02s WALL (       1 calls)
     hinit0       :      0.33s CPU      0.33s WALL (       1 calls)

     Called by electrons:
     c_bands      :      0.73s CPU      0.76s WALL (       5 calls)
     sum_band     :      0.16s CPU      0.17s WALL (       5 calls)
     v_of_rho     :      0.03s CPU      0.03s WALL (       6 calls)
     newd         :      0.04s CPU      0.05s WALL (       6 calls)
     mix_rho      :      0.00s CPU      0.00s WALL (       5 calls)

     Called by c_bands:
     init_us_2    :      0.02s CPU      0.02s WALL (     176 calls)
     cegterg      :      0.68s CPU      0.71s WALL (      80 calls)

     Called by sum_band:
     sum_band:bec :      0.00s CPU      0.00s WALL (      80 calls)
     addusdens    :      0.04s CPU      0.04s WALL (       5 calls)

     Called by *egterg:
     h_psi        :      0.59s CPU      0.62s WALL (     292 calls)
     s_psi        :      0.01s CPU      0.01s WALL (     292 calls)
     g_psi        :      0.01s CPU      0.01s WALL (     196 calls)
     cdiaghg      :      0.08s CPU      0.08s WALL (     276 calls)

     Called by h_psi:
     h_psi:pot    :      0.59s CPU      0.62s WALL (     292 calls)
     h_psi:calbec :      0.01s CPU      0.01s WALL (     292 calls)
     vloc_psi     :      0.57s CPU      0.60s WALL (     292 calls)
     add_vuspsi   :      0.01s CPU      0.01s WALL (     292 calls)

     General routines
     calbec       :      0.01s CPU      0.01s WALL (     372 calls)
     fft          :      0.01s CPU      0.01s WALL (      67 calls)
     ffts         :      0.00s CPU      0.00s WALL (       5 calls)
     fftw         :      0.57s CPU      0.60s WALL (    6186 calls)
 
     Parallel routines
     fft_scatt_xy :      0.11s CPU      0.11s WALL (    6258 calls)
     fft_scatt_yz :      0.13s CPU      0.13s WALL (    6258 calls)
 
     PWSCF        :     1.44s CPU         2.00s WALL

 
   This run was terminated on:  20:29:59   2Dec2021            

=------------------------------------------------------------------------------=
   JOB DONE.
=------------------------------------------------------------------------------=
