 *******************************************************************************
 ** Site#: 22750        For non-commercial use only    Version 18.151L 64BITS **
 *******************************************************************************
 ** Cite this program as: MOPAC2016, Version: 18.151L, James J. P. Stewart,   **
 ** Stewart Computational Chemistry, web-site: HTTP://OpenMOPAC.net.          **
 *******************************************************************************
 **                                                                           **
 **                                MOPAC2016                                  **
 **                                                                           **
 *******************************************************************************

                              AM1 CALCULATION RESULTS

 *******************************************************************************
 *  CALCULATION DONE:                                Tue Nov  2 13:53:14 2021  *
 *  AM1        - The AM1 Hamiltonian to be used
 *
 *
 *
 *                 CHARGE ON SYSTEM = 0
 *
 *
 *
 *  PRECISE    - CRITERIA TO BE INCREASED BY 100 TIMES
 *  XYZ        - CARTESIAN COORDINATE SYSTEM TO BE USED
 *  T=         - A TIME OF 172800.0 SECONDS REQUESTED
 *  DUMP=N     - RESTART FILE WRITTEN EVERY  7200.000 SECONDS
 *******************************************************************************
CHARGE=0 AM1 PRECISE XYZ
 CF
 Se parte de MP2
   ATOM   CHEMICAL          X               Y               Z
  NUMBER   SYMBOL      (ANGSTROMS)     (ANGSTROMS)     (ANGSTROMS)
 
     1       C          0.00000000  *   0.00000000  *  -0.76527400  *
     2       F          0.00000000  *   0.00000000  *   0.51018300  *
 


          CARTESIAN COORDINATES 

    NO.       ATOM           X           Y           Z

     1         C          0.0000      0.0000     -0.7653
     2         F          0.0000      0.0000      0.5102

  C: (AM1): M.J.S. DEWAR ET AL, J. AM. CHEM. SOC. 107 3902-3909 (1985)
  F: (AM1): M.J.S. DEWAR AND E. G. ZOEBISCH, THEOCHEM, 180, 1 (1988).

           Empirical Formula: C F  =     2 atoms



      MOLECULAR POINT GROUP   :   C*v 


          UHF CALCULATION, NO. OF ALPHA ELECTRONS =    6
                           NO. OF BETA  ELECTRONS =    5

          Geometry optimization using EF

          DIAGONAL MATRIX USED AS START HESSIAN

 CYCLE:     1 TIME:   0.004 TIME LEFT:  2.00D  GRAD.:    33.713 HEAT:  37.79432
 CYCLE:     2 TIME:   0.012 TIME LEFT:  2.00D  GRAD.:    28.406 HEAT:  37.72656
 CYCLE:     3 TIME:   0.004 TIME LEFT:  2.00D  GRAD.:     0.851 HEAT:  37.59490
 CYCLE:     4 TIME:   0.004 TIME LEFT:  2.00D  GRAD.:     0.002 HEAT:  37.59478

     GRADIENT =  0.00160  IS LESS THAN CUTOFF =  0.05000



 -------------------------------------------------------------------------------
 CHARGE=0 AM1 PRECISE XYZ
 CF
 Se parte de MP2


     GEOMETRY OPTIMISED USING EIGENVECTOR FOLLOWING (EF).     
     SCF FIELD WAS ACHIEVED                                   


                              AM1 CALCULATION
                                                       MOPAC2016 (Version: 18.151L)
                                                       Tue Nov  2 13:53:14 2021




          FINAL HEAT OF FORMATION =         37.59478 KCAL/MOL =     157.29657 KJ/MOL


          TOTAL ENERGY            =       -609.70576 EV
          ELECTRONIC ENERGY       =       -871.78318 EV  POINT GROUP:     C*v 
          CORE-CORE REPULSION     =        262.07742 EV
          COSMO AREA              =         58.92 SQUARE ANGSTROMS
          COSMO VOLUME            =         41.31 CUBIC ANGSTROMS

          GRADIENT NORM           =          0.00160 = 0.00113 PER ATOM
          IONIZATION POTENTIAL    =          9.221114 EV
          ALPHA SOMO LUMO (EV)    =         -9.221 -0.149
          BETA  SOMO LUMO (EV)    =        -13.269  0.409
          NO. OF ALPHA ELECTRONS  =          6
          NO. OF BETA  ELECTRONS  =          5
          MOLECULAR WEIGHT        =         31.0094

          MOLECULAR DIMENSIONS (Angstroms)

            Atom       Atom       Distance
            F     2    C     1     1.25889
            F     2    C     1     0.00000
            C     1    F     2     0.00000


          SCF CALCULATIONS        =          8
 
          WALL-CLOCK TIME         =          0.059 SECONDS
          COMPUTATION TIME        =          0.028 SECONDS




   ATOM   CHEMICAL          X               Y               Z
  NUMBER   SYMBOL      (ANGSTROMS)     (ANGSTROMS)     (ANGSTROMS)
 
     1       C          0.00000000  *   0.00000000  *  -0.75698999  *
     2       F          0.00000000  *   0.00000000  *   0.50189899  *

                             CARTESIAN COORDINATES

   1    C        0.000000000     0.000000000    -0.756989988
   2    F        0.000000000     0.000000000     0.501898988


           Empirical Formula: C F  =     2 atoms



      MOLECULAR POINT GROUP   :   C*v 


          ALPHA EIGENVALUES  
 -53.04109 -24.28832 -18.22095 -17.51100 -14.31619  -9.22111  -0.14873   4.37900


           BETA EIGENVALUES 
 -52.59793 -23.22298 -17.46418 -17.17594 -13.26868   0.40901   1.41240   5.09437


              NET ATOMIC CHARGES AND DIPOLE CONTRIBUTIONS

  ATOM NO.   TYPE          CHARGE      No. of ELECS.   s-Pop       p-Pop       
    1          C           0.038712        3.9613     1.88597     2.07532
    2          F          -0.038712        7.0387     1.87801     5.16070
 DIPOLE           X         Y         Z       TOTAL
 POINT-CHG.     0.000     0.000    -0.234     0.234
 HYBRID        -0.000    -0.000     1.078     1.078
 SUM           -0.000    -0.000     0.844     0.844


          ATOMIC ORBITAL ELECTRON POPULATIONS

     Atom    s        px        py        pz   
    1  C   1.88597   1.10030   0.25052   0.72451
    2  F   1.87801   1.89970   1.74948   1.51152


                    (SZ)    =    0.500000
                    (S**2)  =    0.751686


          ATOMIC ORBITAL SPIN POPULATIONS

    Atom   Total    s     px     py     pz   
         Atomic
    1  C  0.9176  0.016  0.900  0.014 -0.012
    2  F  0.0824  0.003  0.100 -0.014 -0.006
 *******************************************************************************
 ** Site#: 22750        For non-commercial use only    Version 18.151L 64BITS **
 *******************************************************************************
 ** Cite this program as: MOPAC2016, Version: 18.151L, James J. P. Stewart,   **
 ** Stewart Computational Chemistry, web-site: HTTP://OpenMOPAC.net.          **
 *******************************************************************************
 **                                                                           **
 **                                MOPAC2016                                  **
 **                                                                           **
 *******************************************************************************

                              AM1 CALCULATION RESULTS

 *******************************************************************************
 *  CALCULATION DONE:                                Tue Nov  2 13:53:14 2021  *
 *  AM1        - The AM1 Hamiltonian to be used
 *
 *
 *
 *                 CHARGE ON SYSTEM = 0
 *
 *
 *
 *  OLDGEO     - PREVIOUS GEOMETRY TO BE USED
 *  FORCE      - FORCE CALCULATION SPECIFIED
 *  T=         - A TIME OF 172800.0 SECONDS REQUESTED
 *  DUMP=N     - RESTART FILE WRITTEN EVERY  7200.000 SECONDS
 *******************************************************************************
FORCE OLDGEO CHARGE=0 AM1
 CF
 Se parte de MP2
   ATOM   CHEMICAL          X               Y               Z
  NUMBER   SYMBOL      (ANGSTROMS)     (ANGSTROMS)     (ANGSTROMS)
 
     1       C          0.00000000  *   0.00000000  *  -0.75698999  *
     2       F          0.00000000  *   0.00000000  *   0.50189899  *
 


          CARTESIAN COORDINATES 

    NO.       ATOM           X           Y           Z

     1         C          0.0000      0.0000     -0.7570
     2         F          0.0000      0.0000      0.5019

  C: (AM1): M.J.S. DEWAR ET AL, J. AM. CHEM. SOC. 107 3902-3909 (1985)
  F: (AM1): M.J.S. DEWAR AND E. G. ZOEBISCH, THEOCHEM, 180, 1 (1988).

           Empirical Formula: C F  =     2 atoms



      MOLECULAR POINT GROUP   :   C*v 


          UHF CALCULATION, NO. OF ALPHA ELECTRONS =    6
                           NO. OF BETA  ELECTRONS =    5


          HEAT OF FORMATION =      37.594782 KCALS/MOLE


          CARTESIAN COORDINATE DERIVATIVES

   NUMBER  ATOM         X            Y            Z

     1       C      0.002524     0.000000     0.000000
     2       F     -0.002524     0.000000     0.000000
 


          GRADIENT NORM =   0.00357


          TIME FOR SCF CALCULATION =    0.00

          TIME FOR DERIVATIVES     =    0.00

          MOLECULAR WEIGHT =   31.01



          ROTATIONAL CONSTANTS IN CM(-1)

          A =    0.00000000   B =    1.44550255   C =    1.44550255



           PRINCIPAL MOMENTS OF INERTIA IN UNITS OF 10**(-40)*GRAM-CM**2

          A =        0.0000   B =       19.3654   C =       19.3654


          ORIENTATION OF MOLECULE IN FORCE CALCULATION

    NO.       ATOM         X         Y         Z

     1          C      -0.7713    0.0000    0.0000
     2          F       0.4876    0.0000    0.0000


    FIRST DERIVATIVES WILL BE USED IN THE CALCULATION OF SECOND DERIVATIVES

          ESTIMATED TIME TO COMPLETE CALCULATION =        0.05 SECONDS

    FOR POINT-GROUP C*v  THERE ARE  84 UNIQUE SYMMETRY FUNCTIONS.

 STEP:   1 TIME =     0.00 SECS, INTEGRAL =      0.00 TIME LEFT: 172799.99
 STEP:   2 TIME =     0.00 SECS, INTEGRAL =      0.01 TIME LEFT: 172799.99
 STEP:   3 TIME =     0.00 SECS, INTEGRAL =      0.01 TIME LEFT: 172799.99
 STEP:   4 TIME =     0.00 SECS, INTEGRAL =      0.01 TIME LEFT: 172799.98
 STEP:   5 TIME =     0.00 SECS, INTEGRAL =      0.02 TIME LEFT: 172799.98
 STEP:   6 TIME =     0.00 SECS, INTEGRAL =      0.02 TIME LEFT: 172799.98

(To convert to Hartree/Bohr^2, multiply by (10^(-21) x N x a0^2)/(4.184 x 627.51) =  0.0642)


           FORCE MATRIX IN MILLIDYNES/ANGSTROM


                  C  1       F  2
 ------------------------------
     C    1  10.300162
     F    2  10.300577  10.300993


          HEAT OF FORMATION =      37.594782 KCALS/MOLE

          ZERO POINT ENERGY       2.203 KCAL/MOL


           NORMAL COORDINATE ANALYSIS (Total motion = 1 Angstrom)


   Root No.       1

                 1 Sig 

                1541.4
  
           1    0.6127
           2   -0.0000
           3   -0.0000
           4   -0.3873
           5    0.0000
           6    0.0000


           MASS-WEIGHTED COORDINATE ANALYSIS (NORMAL COORDINATES)


   Root No.       1

                 1 Sig 

                1541.4
  
           1    0.7827
           2   -0.0000
           3   -0.0000
           4   -0.6224
           5    0.0000
           6    0.0000


          DESCRIPTION OF VIBRATIONS


 VIBRATION    1    1Sig      ATOM PAIR     ENERGY CONTRIBUTION    RADIAL
 FREQ.      1541.36         C 1 -- F 2        +100.0% (100.0%)    100.0%
 T-DIPOLE    3.9159
 TRAVEL      0.0549
 RED. MASS   7.3587
 EFF. MASS  14.5282

           FORCE CONSTANT IN CARTESIAN COORDINATES (Millidynes/A)

    ATOM   CHEMICAL       X               Y               Z
   NUMBER   SYMBOL  FORCE CONSTANT  FORCE CONSTANT  FORCE CONSTANT

      1       C       10.300575        0.004307        0.004307
      2       F       10.300575        0.004307        0.004307

 **********************
 *                    *
 * JOB ENDED NORMALLY *
 *                    *
 **********************



 TOTAL JOB TIME:             0.21 SECONDS

 == MOPAC DONE ==
