 *******************************************************************************
 ** Site#: 22750        For non-commercial use only    Version 18.151L 64BITS **
 *******************************************************************************
 ** Cite this program as: MOPAC2016, Version: 18.151L, James J. P. Stewart,   **
 ** Stewart Computational Chemistry, web-site: HTTP://OpenMOPAC.net.          **
 *******************************************************************************
 **                                                                           **
 **                                MOPAC2016                                  **
 **                                                                           **
 *******************************************************************************

                              AM1 CALCULATION RESULTS

 *******************************************************************************
 *  CALCULATION DONE:                                Tue Nov  2 13:52:13 2021  *
 *  AM1        - The AM1 Hamiltonian to be used
 *
 *
 *
 *                 CHARGE ON SYSTEM = 0
 *
 *
 *
 *  PRECISE    - CRITERIA TO BE INCREASED BY 100 TIMES
 *  XYZ        - CARTESIAN COORDINATE SYSTEM TO BE USED
 *  T=         - A TIME OF 172800.0 SECONDS REQUESTED
 *  DUMP=N     - RESTART FILE WRITTEN EVERY  7200.000 SECONDS
 *******************************************************************************
CHARGE=0 AM1 PRECISE XYZ
 CFBr2
 Se parte de MP2
   ATOM   CHEMICAL          X               Y               Z
  NUMBER   SYMBOL      (ANGSTROMS)     (ANGSTROMS)     (ANGSTROMS)
 
     1       C         -0.09105500  *   0.68556800  *   0.00000000  *
     2       F          0.76891200  *   1.69736700  *   0.00000000  *
     3      Br         -0.09105500  *  -0.27699600  *   1.60105000  *
     4      Br         -0.09105500  *  -0.27699600  *  -1.60105000  *
 


          CARTESIAN COORDINATES 

    NO.       ATOM           X           Y           Z

     1         C         -0.0911      0.6856      0.0000
     2         F          0.7689      1.6974      0.0000
     3        Br         -0.0911     -0.2770      1.6011
     4        Br         -0.0911     -0.2770     -1.6011

  C: (AM1): M.J.S. DEWAR ET AL, J. AM. CHEM. SOC. 107 3902-3909 (1985)
  F: (AM1): M.J.S. DEWAR AND E. G. ZOEBISCH, THEOCHEM, 180, 1 (1988).
 Br: (AM1): M.J.S. DEWAR AND E. G. ZOEBISCH, THEOCHEM, 180, 1 (1988).

           Empirical Formula: C F Br2  =     4 atoms



      MOLECULAR POINT GROUP   :   Cs  


          UHF CALCULATION, NO. OF ALPHA ELECTRONS =   13
                           NO. OF BETA  ELECTRONS =   12

          Geometry optimization using EF

          DIAGONAL MATRIX USED AS START HESSIAN

 CYCLE:     1 TIME:   0.012 TIME LEFT:  2.00D  GRAD.:    69.334 HEAT: -6.582203
 CYCLE:     2 TIME:   0.008 TIME LEFT:  2.00D  GRAD.:    95.745 HEAT: -11.49191
 CYCLE:     3 TIME:   0.012 TIME LEFT:  2.00D  GRAD.:    69.281 HEAT: -13.48302
 CYCLE:     4 TIME:   0.012 TIME LEFT:  2.00D  GRAD.:    14.847 HEAT: -15.33104
 CYCLE:     5 TIME:   0.008 TIME LEFT:  2.00D  GRAD.:    33.271 HEAT: -15.74544
 CYCLE:     6 TIME:   0.008 TIME LEFT:  2.00D  GRAD.:     4.209 HEAT: -16.04825
 CYCLE:     7 TIME:   0.008 TIME LEFT:  2.00D  GRAD.:     1.226 HEAT: -16.07165
 CYCLE:     8 TIME:   0.008 TIME LEFT:  2.00D  GRAD.:     0.918 HEAT: -16.08023
 CYCLE:     9 TIME:   0.008 TIME LEFT:  2.00D  GRAD.:     0.113 HEAT: -16.08049
 CYCLE:    10 TIME:   0.008 TIME LEFT:  2.00D  GRAD.:     0.060 HEAT: -16.08050
 CYCLE:    11 TIME:   0.008 TIME LEFT:  2.00D  GRAD.:     0.018 HEAT: -16.08050

     GRADIENT =  0.01847  IS LESS THAN CUTOFF =  0.05000



 -------------------------------------------------------------------------------
 CHARGE=0 AM1 PRECISE XYZ
 CFBr2
 Se parte de MP2


     GEOMETRY OPTIMISED USING EIGENVECTOR FOLLOWING (EF).     
     SCF FIELD WAS ACHIEVED                                   


                              AM1 CALCULATION
                                                       MOPAC2016 (Version: 18.151L)
                                                       Tue Nov  2 13:52:13 2021




          FINAL HEAT OF FORMATION =        -16.08050 KCAL/MOL =     -67.28082 KJ/MOL


          TOTAL ENERGY            =      -1318.98087 EV
          ELECTRONIC ENERGY       =      -2646.27008 EV  POINT GROUP:     C2v 
          CORE-CORE REPULSION     =       1327.28921 EV
          COSMO AREA              =        114.03 SQUARE ANGSTROMS
          COSMO VOLUME            =        100.71 CUBIC ANGSTROMS

          GRADIENT NORM           =          0.01847 = 0.00923 PER ATOM
          IONIZATION POTENTIAL    =          9.962074 EV
          ALPHA SOMO LUMO (EV)    =         -9.962 -1.224
          BETA  SOMO LUMO (EV)    =        -11.476 -0.467
          NO. OF ALPHA ELECTRONS  =         13
          NO. OF BETA  ELECTRONS  =         12
          MOLECULAR WEIGHT        =        190.8174

          MOLECULAR DIMENSIONS (Angstroms)

            Atom       Atom       Distance
           Br     4   Br     3     3.17503
           Br     3    F     2     2.31036
            F     2    C     1     0.00021


          SCF CALCULATIONS        =         14
 
          WALL-CLOCK TIME         =          0.129 SECONDS
          COMPUTATION TIME        =          0.069 SECONDS




   ATOM   CHEMICAL          X               Y               Z
  NUMBER   SYMBOL      (ANGSTROMS)     (ANGSTROMS)     (ANGSTROMS)
 
     1       C          0.22271098  *   0.61131752  *  -0.00000198  *
     2       F          0.71368580  *   1.84812460  *   0.00000034  *
     3      Br         -0.13841544  *  -0.29935793  *   1.58751729  *
     4      Br         -0.13841535  *  -0.29935772  *  -1.58751669  *

                             CARTESIAN COORDINATES

   1    C        0.222710983     0.611317515    -0.000001981
   2    F        0.713685796     1.848124601     0.000000337
   3   Br       -0.138415437    -0.299357933     1.587517289
   4   Br       -0.138415350    -0.299357715    -1.587516685


           Empirical Formula: C F Br2  =     4 atoms



      MOLECULAR POINT GROUP   :   C2v 


          ALPHA EIGENVALUES  
 -51.10595 -34.22046 -32.39565 -25.51434 -18.30887 -18.16327 -17.86421 -13.42700
 -13.40019 -12.39662 -12.03135 -11.47221  -9.96207  -1.22410   0.21346   3.30372


           BETA EIGENVALUES 
 -50.64925 -33.91053 -32.42505 -24.53240 -18.09656 -17.97568 -16.67611 -13.32930
 -12.61946 -12.41604 -11.76557 -11.47614  -0.46652  -0.41200   0.67107   3.94787


              NET ATOMIC CHARGES AND DIPOLE CONTRIBUTIONS

  ATOM NO.   TYPE          CHARGE      No. of ELECS.   s-Pop       p-Pop       
    1          C          -0.234726        4.2347     1.29052     2.94420
    2          F          -0.024743        7.0247     1.90946     5.11528
    3         Br           0.129734        6.8703     1.96854     4.90172
    4         Br           0.129736        6.8703     1.96854     4.90172
 DIPOLE           X         Y         Z       TOTAL
 POINT-CHG.    -0.508    -1.282    -0.000     1.379
 HYBRID         0.295     0.742     0.000     0.798
 SUM           -0.214    -0.540    -0.000     0.581


          ATOMIC ORBITAL ELECTRON POPULATIONS

     Atom    s        px        py        pz   
    1  C   1.29052   1.14021   0.85853   0.94547
    2  F   1.90946   1.81009   1.35556   1.94963
    3 Br   1.96854   1.91764   1.71196   1.27212
    4 Br   1.96854   1.91764   1.71196   1.27212


                    (SZ)    =    0.500000
                    (S**2)  =    0.763315


          ATOMIC ORBITAL SPIN POPULATIONS

    Atom   Total    s     px     py     pz   
         Atomic
    1  C  0.9720  0.067  0.702  0.137  0.067
    2  F  0.0850  0.003  0.087 -0.010  0.005
    3 Br -0.0285  0.002  0.034 -0.019 -0.045
    4 Br -0.0285  0.002  0.034 -0.019 -0.045
 *******************************************************************************
 ** Site#: 22750        For non-commercial use only    Version 18.151L 64BITS **
 *******************************************************************************
 ** Cite this program as: MOPAC2016, Version: 18.151L, James J. P. Stewart,   **
 ** Stewart Computational Chemistry, web-site: HTTP://OpenMOPAC.net.          **
 *******************************************************************************
 **                                                                           **
 **                                MOPAC2016                                  **
 **                                                                           **
 *******************************************************************************

                              AM1 CALCULATION RESULTS

 *******************************************************************************
 *  CALCULATION DONE:                                Tue Nov  2 13:52:13 2021  *
 *  AM1        - The AM1 Hamiltonian to be used
 *
 *
 *
 *                 CHARGE ON SYSTEM = 0
 *
 *
 *
 *  OLDGEO     - PREVIOUS GEOMETRY TO BE USED
 *  FORCE      - FORCE CALCULATION SPECIFIED
 *  T=         - A TIME OF 172800.0 SECONDS REQUESTED
 *  DUMP=N     - RESTART FILE WRITTEN EVERY  7200.000 SECONDS
 *******************************************************************************
FORCE OLDGEO CHARGE=0 AM1
 CFBr2
 Se parte de MP2
   ATOM   CHEMICAL          X               Y               Z
  NUMBER   SYMBOL      (ANGSTROMS)     (ANGSTROMS)     (ANGSTROMS)
 
     1       C          0.22271098  *   0.61131752  *  -0.00000198  *
     2       F          0.71368580  *   1.84812460  *   0.00000034  *
     3      Br         -0.13841544  *  -0.29935793  *   1.58751729  *
     4      Br         -0.13841535  *  -0.29935772  *  -1.58751669  *
 


          CARTESIAN COORDINATES 

    NO.       ATOM           X           Y           Z

     1         C          0.2227      0.6113     -0.0000
     2         F          0.7137      1.8481      0.0000
     3        Br         -0.1384     -0.2994      1.5875
     4        Br         -0.1384     -0.2994     -1.5875

  C: (AM1): M.J.S. DEWAR ET AL, J. AM. CHEM. SOC. 107 3902-3909 (1985)
  F: (AM1): M.J.S. DEWAR AND E. G. ZOEBISCH, THEOCHEM, 180, 1 (1988).
 Br: (AM1): M.J.S. DEWAR AND E. G. ZOEBISCH, THEOCHEM, 180, 1 (1988).

           Empirical Formula: C F Br2  =     4 atoms



      MOLECULAR POINT GROUP   :   C2v 


          UHF CALCULATION, NO. OF ALPHA ELECTRONS =   13
                           NO. OF BETA  ELECTRONS =   12


 ALL CONVERGERS ARE NOW FORCED ON
 SHIFT=10, PULAY ON, CAMP-KING ON
 AND ITERATION COUNTER RESET




          HEAT OF FORMATION =     -16.080501 KCALS/MOLE


          CARTESIAN COORDINATE DERIVATIVES

   NUMBER  ATOM         X            Y            Z

     1       C     -0.006645    -0.001428    -0.012319
     2       F      0.004587     0.000195     0.005040
     3      Br      0.000730    -0.001514     0.003640
     4      Br      0.001327     0.002747     0.003639
 


          GRADIENT NORM =   0.01682


          TIME FOR SCF CALCULATION =    0.08

          TIME FOR DERIVATIVES     =    0.00

          MOLECULAR WEIGHT =  190.82



          ROTATIONAL CONSTANTS IN CM(-1)

          A =    0.17432777   B =    0.04185634   C =    0.03375235



           PRINCIPAL MOMENTS OF INERTIA IN UNITS OF 10**(-40)*GRAM-CM**2

          A =      160.5755   B =      668.7821   C =      829.3577


          ORIENTATION OF MOLECULE IN FORCE CALCULATION

    NO.       ATOM         X         Y         Z

     1          C       0.6880   -0.0000   -0.0003
     2          F       2.0187   -0.0000   -0.0003
     3         Br      -0.2917    1.5875   -0.0003
     4         Br      -0.2917   -1.5875    0.0004


    FIRST DERIVATIVES WILL BE USED IN THE CALCULATION OF SECOND DERIVATIVES

          ESTIMATED TIME TO COMPLETE CALCULATION =        1.97 SECONDS

    FOR POINT-GROUP C2v  THERE ARE   4 UNIQUE SYMMETRY FUNCTIONS.



 ALL CONVERGERS ARE NOW FORCED ON
 SHIFT=10, PULAY ON, CAMP-KING ON
 AND ITERATION COUNTER RESET


 STEP:   1 TIME =     0.06 SECS, INTEGRAL =      0.06 TIME LEFT: 172799.86
 STEP:   2 TIME =     0.00 SECS, INTEGRAL =      0.06 TIME LEFT: 172799.86
 STEP:   3 TIME =     0.01 SECS, INTEGRAL =      0.07 TIME LEFT: 172799.85
 STEP:   4 TIME =     0.00 SECS, INTEGRAL =      0.07 TIME LEFT: 172799.84
 STEP:   5 TIME =     0.00 SECS, INTEGRAL =      0.08 TIME LEFT: 172799.84
 STEP:   6 TIME =     0.01 SECS, INTEGRAL =      0.09 TIME LEFT: 172799.83
 STEP:   7 TIME =     0.01 SECS, INTEGRAL =      0.09 TIME LEFT: 172799.82
 STEP:   8 TIME =     0.00 SECS, INTEGRAL =      0.10 TIME LEFT: 172799.82
 STEP:   9 TIME =     0.00 SECS, INTEGRAL =      0.10 TIME LEFT: 172799.82
 STEP:  10                       INTEGRAL =      0.10 TIME LEFT: 172799.82
 STEP:  11                       INTEGRAL =      0.10 TIME LEFT: 172799.82
 STEP:  12                       INTEGRAL =      0.10 TIME LEFT: 172799.82

(To convert to Hartree/Bohr^2, multiply by (10^(-21) x N x a0^2)/(4.184 x 627.51) =  0.0642)


           FORCE MATRIX IN MILLIDYNES/ANGSTROM


                  C  1       F  2      Br  3      Br  4
 ------------------------------------------------------
     C    1  10.790320
     F    2   8.579219  10.044817
    Br    3   2.267129   1.098848   3.557485
    Br    4   2.266742   1.098904   0.586566   3.557485


          HEAT OF FORMATION =     -16.080501 KCALS/MOLE

          ZERO POINT ENERGY       5.019 KCAL/MOL


           NORMAL COORDINATE ANALYSIS (Total motion = 1 Angstrom)


   Root No.       1         2         3         4         5         6

                 1 A1      1 B1      1 B2      2 A1      2 B2      3 A1  

                 179.6     252.2     344.8     465.8     805.1    1463.3
  
           1    0.2522    0.0001   -0.0000    0.3723    0.0000    0.6163
           2   -0.0000    0.0002   -0.0162   -0.0000    0.8101   -0.0000
           3   -0.0000    0.7382    0.0000   -0.0001   -0.0002   -0.0001
           4    0.2454   -0.0000    0.0000    0.3939   -0.0000   -0.3767
           5   -0.0000   -0.0000    0.6947   -0.0000   -0.0749    0.0000
           6   -0.0001   -0.1979   -0.0002   -0.0001    0.0000    0.0000
           7   -0.0481   -0.0000    0.1194   -0.0748    0.0246   -0.0015
           8   -0.2466   -0.0000   -0.0814    0.0898   -0.0520    0.0031
           9    0.0001   -0.0320    0.0000   -0.0000   -0.0000    0.0000
          10   -0.0481   -0.0000   -0.1194   -0.0748   -0.0246   -0.0015
          11    0.2466   -0.0000   -0.0814   -0.0898   -0.0520   -0.0031
          12   -0.0000   -0.0320    0.0000    0.0000    0.0000    0.0000


           MASS-WEIGHTED COORDINATE ANALYSIS (NORMAL COORDINATES)


   Root No.       1         2         3         4         5         6

                 1 A1      1 B1      1 B2      2 A1      2 B2      3 A1  

                 179.6     252.2     344.8     465.8     805.1    1463.3
  
           1    0.2524    0.0002   -0.0000    0.4949    0.0000    0.7927
           2   -0.0000    0.0002   -0.0159   -0.0000    0.9620   -0.0000
           3   -0.0000    0.9372    0.0000   -0.0001   -0.0002   -0.0002
           4    0.3088   -0.0001    0.0000    0.6586   -0.0000   -0.6094
           5   -0.0000   -0.0001    0.8561   -0.0000   -0.1118    0.0000
           6   -0.0001   -0.3160   -0.0002   -0.0001    0.0000    0.0000
           7   -0.1242   -0.0000    0.3019   -0.2565    0.0754   -0.0051
           8   -0.6364   -0.0000   -0.2057    0.3080   -0.1592    0.0103
           9    0.0002   -0.1046    0.0000   -0.0000   -0.0000    0.0000
          10   -0.1242   -0.0000   -0.3019   -0.2565   -0.0754   -0.0051
          11    0.6364   -0.0000   -0.2056   -0.3080   -0.1592   -0.0103
          12   -0.0001   -0.1046    0.0001    0.0001    0.0001    0.0000


          DESCRIPTION OF VIBRATIONS


 VIBRATION    1    1A1       ATOM PAIR     ENERGY CONTRIBUTION    RADIAL
 FREQ.       179.64         C 1 -- Br4         +36.4% (171.7%)     21.6%
 T-DIPOLE    0.1454         C 1 -- Br3         +36.4% (171.7%)     21.6%
 TRAVEL      0.0655        Br3 -- Br4         +17.8% (120.0%)    100.0%
 RED. MASS  28.4725         C 1 -- F 2          +9.4% ( 87.1%)    100.0%
 EFF. MASS  87.6163

 VIBRATION    2    1B1       ATOM PAIR     ENERGY CONTRIBUTION    RADIAL
 FREQ.       252.20         C 1 -- F 2         +37.7% ( 97.8%)      0.0%
 T-DIPOLE    1.5470         C 1 -- Br4         +31.2% ( 88.9%)      0.0%
 TRAVEL      0.1407         C 1 -- Br3         +31.2% ( 88.9%)      0.0%
 RED. MASS   9.4732
 EFF. MASS  13.5038

 VIBRATION    3    1B2       ATOM PAIR     ENERGY CONTRIBUTION    RADIAL
 FREQ.       344.82         C 1 -- F 2         +69.2% ( 77.8%)      0.0%
 T-DIPOLE    0.6099        Br3 -- Br4         +15.8% ( 37.2%)      0.0%
 TRAVEL      0.0774         C 1 -- Br3          +7.5% ( 25.6%)     80.6%
 RED. MASS  13.0499         C 1 -- Br4          +7.5% ( 25.6%)     80.6%
 EFF. MASS  32.6314

 VIBRATION    4    2A1       ATOM PAIR     ENERGY CONTRIBUTION    RADIAL
 FREQ.       465.77         C 1 -- Br4         +42.7% (132.1%)     65.4%
 T-DIPOLE    0.5488         C 1 -- Br3         +42.7% (132.1%)     65.4%
 TRAVEL      0.0664         C 1 -- F 2         +11.7% ( 69.1%)    100.0%
 RED. MASS   8.4198        Br3 -- Br4          +2.9% ( 34.7%)    100.0%
 EFF. MASS  32.8249

 VIBRATION    5    2B2       ATOM PAIR     ENERGY CONTRIBUTION    RADIAL
 FREQ.       805.14         C 1 -- Br4         +33.7% ( 95.8%)     78.2%
 T-DIPOLE    3.0385         C 1 -- Br3         +33.7% ( 95.8%)     78.2%
 TRAVEL      0.0757         C 1 -- F 2         +32.4% ( 93.9%)      0.0%
 RED. MASS  10.4432        Br3 -- Br4          +0.2% (  7.8%)      0.0%
 EFF. MASS  14.6161

 VIBRATION    6    3A1       ATOM PAIR     ENERGY CONTRIBUTION    RADIAL
 FREQ.      1463.29         C 1 -- F 2         +54.8% (100.0%)    100.0%
 T-DIPOLE    3.5340         C 1 -- Br4         +22.6% ( 64.2%)     28.7%
 TRAVEL      0.0565         C 1 -- Br3         +22.6% ( 64.2%)     28.7%
 RED. MASS   7.3627
 EFF. MASS  14.4411

           FORCE CONSTANT IN CARTESIAN COORDINATES (Millidynes/A)

    ATOM   CHEMICAL       X               Y               Z
   NUMBER   SYMBOL  FORCE CONSTANT  FORCE CONSTANT  FORCE CONSTANT

      1       C        9.912509        4.245600        0.395410
      2       F        9.987753        1.066052        0.068389
      3      Br        1.382022        2.605394        0.029818
      4      Br        1.382031        2.605385        0.029818

 **********************
 *                    *
 * JOB ENDED NORMALLY *
 *                    *
 **********************



 TOTAL JOB TIME:             0.52 SECONDS

 == MOPAC DONE ==
