INTEL Compilers version 18.2.199
load intel/2018 (LD_LIBRARY_PATH)
---------------------------------

Job running at 1 node(s): belvis17

jue dic  2 20:50:51 CET 2021

---------------------------------
!!
Current step
Calculation for the value:
3
6.5
!!
mv: no se puede efectuar `stat' sobre «prefix.save»: No existe el fichero o el directorio
mv: no se puede efectuar `stat' sobre «prefix.xml»: No existe el fichero o el directorio
!!
3
End of step
1
!!


!!
Current step
Calculation for the value:
3
6.6
!!
mkdir: no se puede crear el directorio «kp-3»: El fichero ya existe
mv: no se puede efectuar `stat' sobre «prefix.save»: No existe el fichero o el directorio
mv: no se puede efectuar `stat' sobre «prefix.xml»: No existe el fichero o el directorio
!!
3
End of step
2
!!


!!
Current step
Calculation for the value:
3
6.7
!!
mkdir: no se puede crear el directorio «kp-3»: El fichero ya existe
mv: no se puede efectuar `stat' sobre «prefix.save»: No existe el fichero o el directorio
mv: no se puede efectuar `stat' sobre «prefix.xml»: No existe el fichero o el directorio
!!
3
End of step
3
!!


!!
Current step
Calculation for the value:
3
6.8
!!
mkdir: no se puede crear el directorio «kp-3»: El fichero ya existe
mv: no se puede efectuar `stat' sobre «prefix.save»: No existe el fichero o el directorio
mv: no se puede efectuar `stat' sobre «prefix.xml»: No existe el fichero o el directorio
!!
3
End of step
4
!!


!!
Current step
Calculation for the value:
3
6.9
!!
mkdir: no se puede crear el directorio «kp-3»: El fichero ya existe
mv: no se puede efectuar `stat' sobre «prefix.save»: No existe el fichero o el directorio
mv: no se puede efectuar `stat' sobre «prefix.xml»: No existe el fichero o el directorio
!!
3
End of step
5
!!


!!
Current step
Calculation for the value:
3
7.0
!!
mkdir: no se puede crear el directorio «kp-3»: El fichero ya existe
mv: no se puede efectuar `stat' sobre «prefix.save»: No existe el fichero o el directorio
mv: no se puede efectuar `stat' sobre «prefix.xml»: No existe el fichero o el directorio
!!
3
End of step
6
!!


!!
Current step
Calculation for the value:
3
7.1
!!
mkdir: no se puede crear el directorio «kp-3»: El fichero ya existe
mv: no se puede efectuar `stat' sobre «prefix.save»: No existe el fichero o el directorio
mv: no se puede efectuar `stat' sobre «prefix.xml»: No existe el fichero o el directorio
!!
3
End of step
7
!!


!!
Current step
Calculation for the value:
3
7.2
!!
mkdir: no se puede crear el directorio «kp-3»: El fichero ya existe
mv: no se puede efectuar `stat' sobre «prefix.save»: No existe el fichero o el directorio
mv: no se puede efectuar `stat' sobre «prefix.xml»: No existe el fichero o el directorio
!!
3
End of step
8
!!


!!
Current step
Calculation for the value:
3
7.3
!!
mkdir: no se puede crear el directorio «kp-3»: El fichero ya existe
mv: no se puede efectuar `stat' sobre «prefix.save»: No existe el fichero o el directorio
mv: no se puede efectuar `stat' sobre «prefix.xml»: No existe el fichero o el directorio
!!
3
End of step
9
!!


!!
Current step
Calculation for the value:
3
7.4
!!
mkdir: no se puede crear el directorio «kp-3»: El fichero ya existe
mv: no se puede efectuar `stat' sobre «prefix.save»: No existe el fichero o el directorio
mv: no se puede efectuar `stat' sobre «prefix.xml»: No existe el fichero o el directorio
!!
3
End of step
10
!!


!!
Current step
Calculation for the value:
3
7.5
!!
mkdir: no se puede crear el directorio «kp-3»: El fichero ya existe
mv: no se puede efectuar `stat' sobre «prefix.save»: No existe el fichero o el directorio
mv: no se puede efectuar `stat' sobre «prefix.xml»: No existe el fichero o el directorio
!!
3
End of step
11
!!


!!
Current step
Calculation for the value:
3
7.6
!!
mkdir: no se puede crear el directorio «kp-3»: El fichero ya existe
mv: no se puede efectuar `stat' sobre «prefix.save»: No existe el fichero o el directorio
mv: no se puede efectuar `stat' sobre «prefix.xml»: No existe el fichero o el directorio
!!
3
End of step
12
!!


!!
Current step
Calculation for the value:
3
7.7
!!
mkdir: no se puede crear el directorio «kp-3»: El fichero ya existe
mv: no se puede efectuar `stat' sobre «prefix.save»: No existe el fichero o el directorio
mv: no se puede efectuar `stat' sobre «prefix.xml»: No existe el fichero o el directorio
!!
3
End of step
13
!!


!!
Current step
Calculation for the value:
3
7.8
!!
mkdir: no se puede crear el directorio «kp-3»: El fichero ya existe
mv: no se puede efectuar `stat' sobre «prefix.save»: No existe el fichero o el directorio
mv: no se puede efectuar `stat' sobre «prefix.xml»: No existe el fichero o el directorio
!!
3
End of step
14
!!


!!
Current step
Calculation for the value:
3
7.9
!!
mkdir: no se puede crear el directorio «kp-3»: El fichero ya existe
mv: no se puede efectuar `stat' sobre «prefix.save»: No existe el fichero o el directorio
mv: no se puede efectuar `stat' sobre «prefix.xml»: No existe el fichero o el directorio
!!
3
End of step
15
!!


!!
Current step
Calculation for the value:
3
8.0
!!
mkdir: no se puede crear el directorio «kp-3»: El fichero ya existe
mv: no se puede efectuar `stat' sobre «prefix.save»: No existe el fichero o el directorio
mv: no se puede efectuar `stat' sobre «prefix.xml»: No existe el fichero o el directorio
!!
3
End of step
16
!!


!!
Current step
Calculation for the value:
3
8.1
!!
mkdir: no se puede crear el directorio «kp-3»: El fichero ya existe
mv: no se puede efectuar `stat' sobre «prefix.save»: No existe el fichero o el directorio
mv: no se puede efectuar `stat' sobre «prefix.xml»: No existe el fichero o el directorio
!!
3
End of step
17
!!


!!
Current step
Calculation for the value:
3
8.2
!!
mkdir: no se puede crear el directorio «kp-3»: El fichero ya existe
mv: no se puede efectuar `stat' sobre «prefix.save»: No existe el fichero o el directorio
mv: no se puede efectuar `stat' sobre «prefix.xml»: No existe el fichero o el directorio
!!
3
End of step
18
!!


!!
Current step
Calculation for the value:
3
8.3
!!
mkdir: no se puede crear el directorio «kp-3»: El fichero ya existe
mv: no se puede efectuar `stat' sobre «prefix.save»: No existe el fichero o el directorio
mv: no se puede efectuar `stat' sobre «prefix.xml»: No existe el fichero o el directorio
!!
3
End of step
19
!!


!!
Current step
Calculation for the value:
3
8.4
!!
mkdir: no se puede crear el directorio «kp-3»: El fichero ya existe
mv: no se puede efectuar `stat' sobre «prefix.save»: No existe el fichero o el directorio
mv: no se puede efectuar `stat' sobre «prefix.xml»: No existe el fichero o el directorio
!!
3
End of step
20
!!


!!
Current step
Calculation for the value:
3
8.5
!!
mkdir: no se puede crear el directorio «kp-3»: El fichero ya existe
mv: no se puede efectuar `stat' sobre «prefix.save»: No existe el fichero o el directorio
mv: no se puede efectuar `stat' sobre «prefix.xml»: No existe el fichero o el directorio
!!
3
End of step
21
!!


!!
Current step
Calculation for the value:
4
6.5
!!
mv: no se puede efectuar `stat' sobre «prefix.save»: No existe el fichero o el directorio
mv: no se puede efectuar `stat' sobre «prefix.xml»: No existe el fichero o el directorio
!!
4
End of step
1
!!


!!
Current step
Calculation for the value:
4
6.6
!!
mkdir: no se puede crear el directorio «kp-4»: El fichero ya existe
mv: no se puede efectuar `stat' sobre «prefix.save»: No existe el fichero o el directorio
mv: no se puede efectuar `stat' sobre «prefix.xml»: No existe el fichero o el directorio
!!
4
End of step
2
!!


!!
Current step
Calculation for the value:
4
6.7
!!
mkdir: no se puede crear el directorio «kp-4»: El fichero ya existe
mv: no se puede efectuar `stat' sobre «prefix.save»: No existe el fichero o el directorio
mv: no se puede efectuar `stat' sobre «prefix.xml»: No existe el fichero o el directorio
!!
4
End of step
3
!!


!!
Current step
Calculation for the value:
4
6.8
!!
mkdir: no se puede crear el directorio «kp-4»: El fichero ya existe
mv: no se puede efectuar `stat' sobre «prefix.save»: No existe el fichero o el directorio
mv: no se puede efectuar `stat' sobre «prefix.xml»: No existe el fichero o el directorio
!!
4
End of step
4
!!


!!
Current step
Calculation for the value:
4
6.9
!!
mkdir: no se puede crear el directorio «kp-4»: El fichero ya existe
mv: no se puede efectuar `stat' sobre «prefix.save»: No existe el fichero o el directorio
mv: no se puede efectuar `stat' sobre «prefix.xml»: No existe el fichero o el directorio
!!
4
End of step
5
!!


!!
Current step
Calculation for the value:
4
7.0
!!
mkdir: no se puede crear el directorio «kp-4»: El fichero ya existe
mv: no se puede efectuar `stat' sobre «prefix.save»: No existe el fichero o el directorio
mv: no se puede efectuar `stat' sobre «prefix.xml»: No existe el fichero o el directorio
!!
4
End of step
6
!!


!!
Current step
Calculation for the value:
4
7.1
!!
mkdir: no se puede crear el directorio «kp-4»: El fichero ya existe
mv: no se puede efectuar `stat' sobre «prefix.save»: No existe el fichero o el directorio
mv: no se puede efectuar `stat' sobre «prefix.xml»: No existe el fichero o el directorio
!!
4
End of step
7
!!


!!
Current step
Calculation for the value:
4
7.2
!!
mkdir: no se puede crear el directorio «kp-4»: El fichero ya existe
mv: no se puede efectuar `stat' sobre «prefix.save»: No existe el fichero o el directorio
mv: no se puede efectuar `stat' sobre «prefix.xml»: No existe el fichero o el directorio
!!
4
End of step
8
!!


!!
Current step
Calculation for the value:
4
7.3
!!
mkdir: no se puede crear el directorio «kp-4»: El fichero ya existe
mv: no se puede efectuar `stat' sobre «prefix.save»: No existe el fichero o el directorio
mv: no se puede efectuar `stat' sobre «prefix.xml»: No existe el fichero o el directorio
!!
4
End of step
9
!!


!!
Current step
Calculation for the value:
4
7.4
!!
mkdir: no se puede crear el directorio «kp-4»: El fichero ya existe
mv: no se puede efectuar `stat' sobre «prefix.save»: No existe el fichero o el directorio
mv: no se puede efectuar `stat' sobre «prefix.xml»: No existe el fichero o el directorio
!!
4
End of step
10
!!


!!
Current step
Calculation for the value:
4
7.5
!!
mkdir: no se puede crear el directorio «kp-4»: El fichero ya existe
mv: no se puede efectuar `stat' sobre «prefix.save»: No existe el fichero o el directorio
mv: no se puede efectuar `stat' sobre «prefix.xml»: No existe el fichero o el directorio
!!
4
End of step
11
!!


!!
Current step
Calculation for the value:
4
7.6
!!
mkdir: no se puede crear el directorio «kp-4»: El fichero ya existe
mv: no se puede efectuar `stat' sobre «prefix.save»: No existe el fichero o el directorio
mv: no se puede efectuar `stat' sobre «prefix.xml»: No existe el fichero o el directorio
!!
4
End of step
12
!!


!!
Current step
Calculation for the value:
4
7.7
!!
mkdir: no se puede crear el directorio «kp-4»: El fichero ya existe
mv: no se puede efectuar `stat' sobre «prefix.save»: No existe el fichero o el directorio
mv: no se puede efectuar `stat' sobre «prefix.xml»: No existe el fichero o el directorio
!!
4
End of step
13
!!


!!
Current step
Calculation for the value:
4
7.8
!!
mkdir: no se puede crear el directorio «kp-4»: El fichero ya existe
mv: no se puede efectuar `stat' sobre «prefix.save»: No existe el fichero o el directorio
mv: no se puede efectuar `stat' sobre «prefix.xml»: No existe el fichero o el directorio
!!
4
End of step
14
!!


!!
Current step
Calculation for the value:
4
7.9
!!
mkdir: no se puede crear el directorio «kp-4»: El fichero ya existe
mv: no se puede efectuar `stat' sobre «prefix.save»: No existe el fichero o el directorio
mv: no se puede efectuar `stat' sobre «prefix.xml»: No existe el fichero o el directorio
!!
4
End of step
15
!!


!!
Current step
Calculation for the value:
4
8.0
!!
mkdir: no se puede crear el directorio «kp-4»: El fichero ya existe
mv: no se puede efectuar `stat' sobre «prefix.save»: No existe el fichero o el directorio
mv: no se puede efectuar `stat' sobre «prefix.xml»: No existe el fichero o el directorio
!!
4
End of step
16
!!


!!
Current step
Calculation for the value:
4
8.1
!!
mkdir: no se puede crear el directorio «kp-4»: El fichero ya existe
mv: no se puede efectuar `stat' sobre «prefix.save»: No existe el fichero o el directorio
mv: no se puede efectuar `stat' sobre «prefix.xml»: No existe el fichero o el directorio
!!
4
End of step
17
!!


!!
Current step
Calculation for the value:
4
8.2
!!
mkdir: no se puede crear el directorio «kp-4»: El fichero ya existe
mv: no se puede efectuar `stat' sobre «prefix.save»: No existe el fichero o el directorio
mv: no se puede efectuar `stat' sobre «prefix.xml»: No existe el fichero o el directorio
!!
4
End of step
18
!!


!!
Current step
Calculation for the value:
4
8.3
!!
mkdir: no se puede crear el directorio «kp-4»: El fichero ya existe
mv: no se puede efectuar `stat' sobre «prefix.save»: No existe el fichero o el directorio
mv: no se puede efectuar `stat' sobre «prefix.xml»: No existe el fichero o el directorio
!!
4
End of step
19
!!


!!
Current step
Calculation for the value:
4
8.4
!!
mkdir: no se puede crear el directorio «kp-4»: El fichero ya existe
mv: no se puede efectuar `stat' sobre «prefix.save»: No existe el fichero o el directorio
mv: no se puede efectuar `stat' sobre «prefix.xml»: No existe el fichero o el directorio
!!
4
End of step
20
!!


!!
Current step
Calculation for the value:
4
8.5
!!
mkdir: no se puede crear el directorio «kp-4»: El fichero ya existe
mv: no se puede efectuar `stat' sobre «prefix.save»: No existe el fichero o el directorio
mv: no se puede efectuar `stat' sobre «prefix.xml»: No existe el fichero o el directorio
!!
4
End of step
21
!!


!!
Current step
Calculation for the value:
6
6.5
!!
mv: no se puede efectuar `stat' sobre «prefix.save»: No existe el fichero o el directorio
mv: no se puede efectuar `stat' sobre «prefix.xml»: No existe el fichero o el directorio
!!
6
End of step
1
!!


!!
Current step
Calculation for the value:
6
6.6
!!
mkdir: no se puede crear el directorio «kp-6»: El fichero ya existe
mv: no se puede efectuar `stat' sobre «prefix.save»: No existe el fichero o el directorio
mv: no se puede efectuar `stat' sobre «prefix.xml»: No existe el fichero o el directorio
!!
6
End of step
2
!!


!!
Current step
Calculation for the value:
6
6.7
!!
mkdir: no se puede crear el directorio «kp-6»: El fichero ya existe
mv: no se puede efectuar `stat' sobre «prefix.save»: No existe el fichero o el directorio
mv: no se puede efectuar `stat' sobre «prefix.xml»: No existe el fichero o el directorio
!!
6
End of step
3
!!


!!
Current step
Calculation for the value:
6
6.8
!!
mkdir: no se puede crear el directorio «kp-6»: El fichero ya existe
mv: no se puede efectuar `stat' sobre «prefix.save»: No existe el fichero o el directorio
mv: no se puede efectuar `stat' sobre «prefix.xml»: No existe el fichero o el directorio
!!
6
End of step
4
!!


!!
Current step
Calculation for the value:
6
6.9
!!
mkdir: no se puede crear el directorio «kp-6»: El fichero ya existe
mv: no se puede efectuar `stat' sobre «prefix.save»: No existe el fichero o el directorio
mv: no se puede efectuar `stat' sobre «prefix.xml»: No existe el fichero o el directorio
!!
6
End of step
5
!!


!!
Current step
Calculation for the value:
6
7.0
!!
mkdir: no se puede crear el directorio «kp-6»: El fichero ya existe
mv: no se puede efectuar `stat' sobre «prefix.save»: No existe el fichero o el directorio
mv: no se puede efectuar `stat' sobre «prefix.xml»: No existe el fichero o el directorio
!!
6
End of step
6
!!


!!
Current step
Calculation for the value:
6
7.1
!!
mkdir: no se puede crear el directorio «kp-6»: El fichero ya existe
mv: no se puede efectuar `stat' sobre «prefix.save»: No existe el fichero o el directorio
mv: no se puede efectuar `stat' sobre «prefix.xml»: No existe el fichero o el directorio
!!
6
End of step
7
!!


!!
Current step
Calculation for the value:
6
7.2
!!
mkdir: no se puede crear el directorio «kp-6»: El fichero ya existe
mv: no se puede efectuar `stat' sobre «prefix.save»: No existe el fichero o el directorio
mv: no se puede efectuar `stat' sobre «prefix.xml»: No existe el fichero o el directorio
!!
6
End of step
8
!!


!!
Current step
Calculation for the value:
6
7.3
!!
mkdir: no se puede crear el directorio «kp-6»: El fichero ya existe
mv: no se puede efectuar `stat' sobre «prefix.save»: No existe el fichero o el directorio
mv: no se puede efectuar `stat' sobre «prefix.xml»: No existe el fichero o el directorio
!!
6
End of step
9
!!


!!
Current step
Calculation for the value:
6
7.4
!!
mkdir: no se puede crear el directorio «kp-6»: El fichero ya existe
mv: no se puede efectuar `stat' sobre «prefix.save»: No existe el fichero o el directorio
mv: no se puede efectuar `stat' sobre «prefix.xml»: No existe el fichero o el directorio
!!
6
End of step
10
!!


!!
Current step
Calculation for the value:
6
7.5
!!
mkdir: no se puede crear el directorio «kp-6»: El fichero ya existe
mv: no se puede efectuar `stat' sobre «prefix.save»: No existe el fichero o el directorio
mv: no se puede efectuar `stat' sobre «prefix.xml»: No existe el fichero o el directorio
!!
6
End of step
11
!!


!!
Current step
Calculation for the value:
6
7.6
!!
mkdir: no se puede crear el directorio «kp-6»: El fichero ya existe
mv: no se puede efectuar `stat' sobre «prefix.save»: No existe el fichero o el directorio
mv: no se puede efectuar `stat' sobre «prefix.xml»: No existe el fichero o el directorio
!!
6
End of step
12
!!


!!
Current step
Calculation for the value:
6
7.7
!!
mkdir: no se puede crear el directorio «kp-6»: El fichero ya existe
mv: no se puede efectuar `stat' sobre «prefix.save»: No existe el fichero o el directorio
mv: no se puede efectuar `stat' sobre «prefix.xml»: No existe el fichero o el directorio
!!
6
End of step
13
!!


!!
Current step
Calculation for the value:
6
7.8
!!
mkdir: no se puede crear el directorio «kp-6»: El fichero ya existe
mv: no se puede efectuar `stat' sobre «prefix.save»: No existe el fichero o el directorio
mv: no se puede efectuar `stat' sobre «prefix.xml»: No existe el fichero o el directorio
!!
6
End of step
14
!!


!!
Current step
Calculation for the value:
6
7.9
!!
mkdir: no se puede crear el directorio «kp-6»: El fichero ya existe
mv: no se puede efectuar `stat' sobre «prefix.save»: No existe el fichero o el directorio
mv: no se puede efectuar `stat' sobre «prefix.xml»: No existe el fichero o el directorio
!!
6
End of step
15
!!


!!
Current step
Calculation for the value:
6
8.0
!!
mkdir: no se puede crear el directorio «kp-6»: El fichero ya existe
mv: no se puede efectuar `stat' sobre «prefix.save»: No existe el fichero o el directorio
mv: no se puede efectuar `stat' sobre «prefix.xml»: No existe el fichero o el directorio
!!
6
End of step
16
!!


!!
Current step
Calculation for the value:
6
8.1
!!
mkdir: no se puede crear el directorio «kp-6»: El fichero ya existe
mv: no se puede efectuar `stat' sobre «prefix.save»: No existe el fichero o el directorio
mv: no se puede efectuar `stat' sobre «prefix.xml»: No existe el fichero o el directorio
!!
6
End of step
17
!!


!!
Current step
Calculation for the value:
6
8.2
!!
mkdir: no se puede crear el directorio «kp-6»: El fichero ya existe
mv: no se puede efectuar `stat' sobre «prefix.save»: No existe el fichero o el directorio
mv: no se puede efectuar `stat' sobre «prefix.xml»: No existe el fichero o el directorio
!!
6
End of step
18
!!


!!
Current step
Calculation for the value:
6
8.3
!!
mkdir: no se puede crear el directorio «kp-6»: El fichero ya existe
mv: no se puede efectuar `stat' sobre «prefix.save»: No existe el fichero o el directorio
mv: no se puede efectuar `stat' sobre «prefix.xml»: No existe el fichero o el directorio
!!
6
End of step
19
!!


!!
Current step
Calculation for the value:
6
8.4
!!
mkdir: no se puede crear el directorio «kp-6»: El fichero ya existe
mv: no se puede efectuar `stat' sobre «prefix.save»: No existe el fichero o el directorio
mv: no se puede efectuar `stat' sobre «prefix.xml»: No existe el fichero o el directorio
!!
6
End of step
20
!!


!!
Current step
Calculation for the value:
6
8.5
!!
mkdir: no se puede crear el directorio «kp-6»: El fichero ya existe
mv: no se puede efectuar `stat' sobre «prefix.save»: No existe el fichero o el directorio
mv: no se puede efectuar `stat' sobre «prefix.xml»: No existe el fichero o el directorio
!!
6
End of step
21
!!


!!
Current step
Calculation for the value:
9
6.5
!!
mv: no se puede efectuar `stat' sobre «prefix.save»: No existe el fichero o el directorio
mv: no se puede efectuar `stat' sobre «prefix.xml»: No existe el fichero o el directorio
!!
9
End of step
1
!!


!!
Current step
Calculation for the value:
9
6.6
!!
mkdir: no se puede crear el directorio «kp-9»: El fichero ya existe
mv: no se puede efectuar `stat' sobre «prefix.save»: No existe el fichero o el directorio
mv: no se puede efectuar `stat' sobre «prefix.xml»: No existe el fichero o el directorio
!!
9
End of step
2
!!


!!
Current step
Calculation for the value:
9
6.7
!!
mkdir: no se puede crear el directorio «kp-9»: El fichero ya existe
mv: no se puede efectuar `stat' sobre «prefix.save»: No existe el fichero o el directorio
mv: no se puede efectuar `stat' sobre «prefix.xml»: No existe el fichero o el directorio
!!
9
End of step
3
!!


!!
Current step
Calculation for the value:
9
6.8
!!
mkdir: no se puede crear el directorio «kp-9»: El fichero ya existe
mv: no se puede efectuar `stat' sobre «prefix.save»: No existe el fichero o el directorio
mv: no se puede efectuar `stat' sobre «prefix.xml»: No existe el fichero o el directorio
!!
9
End of step
4
!!


!!
Current step
Calculation for the value:
9
6.9
!!
mkdir: no se puede crear el directorio «kp-9»: El fichero ya existe
mv: no se puede efectuar `stat' sobre «prefix.save»: No existe el fichero o el directorio
mv: no se puede efectuar `stat' sobre «prefix.xml»: No existe el fichero o el directorio
!!
9
End of step
5
!!


!!
Current step
Calculation for the value:
9
7.0
!!
mkdir: no se puede crear el directorio «kp-9»: El fichero ya existe
mv: no se puede efectuar `stat' sobre «prefix.save»: No existe el fichero o el directorio
mv: no se puede efectuar `stat' sobre «prefix.xml»: No existe el fichero o el directorio
!!
9
End of step
6
!!


!!
Current step
Calculation for the value:
9
7.1
!!
mkdir: no se puede crear el directorio «kp-9»: El fichero ya existe
mv: no se puede efectuar `stat' sobre «prefix.save»: No existe el fichero o el directorio
mv: no se puede efectuar `stat' sobre «prefix.xml»: No existe el fichero o el directorio
!!
9
End of step
7
!!


!!
Current step
Calculation for the value:
9
7.2
!!
mkdir: no se puede crear el directorio «kp-9»: El fichero ya existe
mv: no se puede efectuar `stat' sobre «prefix.save»: No existe el fichero o el directorio
mv: no se puede efectuar `stat' sobre «prefix.xml»: No existe el fichero o el directorio
!!
9
End of step
8
!!


!!
Current step
Calculation for the value:
9
7.3
!!
mkdir: no se puede crear el directorio «kp-9»: El fichero ya existe
mv: no se puede efectuar `stat' sobre «prefix.save»: No existe el fichero o el directorio
mv: no se puede efectuar `stat' sobre «prefix.xml»: No existe el fichero o el directorio
!!
9
End of step
9
!!


!!
Current step
Calculation for the value:
9
7.4
!!
mkdir: no se puede crear el directorio «kp-9»: El fichero ya existe
mv: no se puede efectuar `stat' sobre «prefix.save»: No existe el fichero o el directorio
mv: no se puede efectuar `stat' sobre «prefix.xml»: No existe el fichero o el directorio
!!
9
End of step
10
!!


!!
Current step
Calculation for the value:
9
7.5
!!
mkdir: no se puede crear el directorio «kp-9»: El fichero ya existe
mv: no se puede efectuar `stat' sobre «prefix.save»: No existe el fichero o el directorio
mv: no se puede efectuar `stat' sobre «prefix.xml»: No existe el fichero o el directorio
!!
9
End of step
11
!!


!!
Current step
Calculation for the value:
9
7.6
!!
mkdir: no se puede crear el directorio «kp-9»: El fichero ya existe
mv: no se puede efectuar `stat' sobre «prefix.save»: No existe el fichero o el directorio
mv: no se puede efectuar `stat' sobre «prefix.xml»: No existe el fichero o el directorio
!!
9
End of step
12
!!


!!
Current step
Calculation for the value:
9
7.7
!!
mkdir: no se puede crear el directorio «kp-9»: El fichero ya existe
mv: no se puede efectuar `stat' sobre «prefix.save»: No existe el fichero o el directorio
mv: no se puede efectuar `stat' sobre «prefix.xml»: No existe el fichero o el directorio
!!
9
End of step
13
!!


!!
Current step
Calculation for the value:
9
7.8
!!
mkdir: no se puede crear el directorio «kp-9»: El fichero ya existe
mv: no se puede efectuar `stat' sobre «prefix.save»: No existe el fichero o el directorio
mv: no se puede efectuar `stat' sobre «prefix.xml»: No existe el fichero o el directorio
!!
9
End of step
14
!!


!!
Current step
Calculation for the value:
9
7.9
!!
mkdir: no se puede crear el directorio «kp-9»: El fichero ya existe
mv: no se puede efectuar `stat' sobre «prefix.save»: No existe el fichero o el directorio
mv: no se puede efectuar `stat' sobre «prefix.xml»: No existe el fichero o el directorio
!!
9
End of step
15
!!


!!
Current step
Calculation for the value:
9
8.0
!!
mkdir: no se puede crear el directorio «kp-9»: El fichero ya existe
mv: no se puede efectuar `stat' sobre «prefix.save»: No existe el fichero o el directorio
mv: no se puede efectuar `stat' sobre «prefix.xml»: No existe el fichero o el directorio
!!
9
End of step
16
!!


!!
Current step
Calculation for the value:
9
8.1
!!
mkdir: no se puede crear el directorio «kp-9»: El fichero ya existe
mv: no se puede efectuar `stat' sobre «prefix.save»: No existe el fichero o el directorio
mv: no se puede efectuar `stat' sobre «prefix.xml»: No existe el fichero o el directorio
!!
9
End of step
17
!!


!!
Current step
Calculation for the value:
9
8.2
!!
mkdir: no se puede crear el directorio «kp-9»: El fichero ya existe
mv: no se puede efectuar `stat' sobre «prefix.save»: No existe el fichero o el directorio
mv: no se puede efectuar `stat' sobre «prefix.xml»: No existe el fichero o el directorio
!!
9
End of step
18
!!


!!
Current step
Calculation for the value:
9
8.3
!!
mkdir: no se puede crear el directorio «kp-9»: El fichero ya existe
mv: no se puede efectuar `stat' sobre «prefix.save»: No existe el fichero o el directorio
mv: no se puede efectuar `stat' sobre «prefix.xml»: No existe el fichero o el directorio
!!
9
End of step
19
!!


!!
Current step
Calculation for the value:
9
8.4
!!
mkdir: no se puede crear el directorio «kp-9»: El fichero ya existe
mv: no se puede efectuar `stat' sobre «prefix.save»: No existe el fichero o el directorio
mv: no se puede efectuar `stat' sobre «prefix.xml»: No existe el fichero o el directorio
!!
9
End of step
20
!!


!!
Current step
Calculation for the value:
9
8.5
!!
mkdir: no se puede crear el directorio «kp-9»: El fichero ya existe
mv: no se puede efectuar `stat' sobre «prefix.save»: No existe el fichero o el directorio
mv: no se puede efectuar `stat' sobre «prefix.xml»: No existe el fichero o el directorio
!!
9
End of step
21
!!


!!
Current step
Calculation for the value:
12
6.5
!!
mv: no se puede efectuar `stat' sobre «prefix.save»: No existe el fichero o el directorio
mv: no se puede efectuar `stat' sobre «prefix.xml»: No existe el fichero o el directorio
!!
12
End of step
1
!!


!!
Current step
Calculation for the value:
12
6.6
!!
mkdir: no se puede crear el directorio «kp-12»: El fichero ya existe
mv: no se puede efectuar `stat' sobre «prefix.save»: No existe el fichero o el directorio
mv: no se puede efectuar `stat' sobre «prefix.xml»: No existe el fichero o el directorio
!!
12
End of step
2
!!


!!
Current step
Calculation for the value:
12
6.7
!!
mkdir: no se puede crear el directorio «kp-12»: El fichero ya existe
mv: no se puede efectuar `stat' sobre «prefix.save»: No existe el fichero o el directorio
mv: no se puede efectuar `stat' sobre «prefix.xml»: No existe el fichero o el directorio
!!
12
End of step
3
!!


!!
Current step
Calculation for the value:
12
6.8
!!
mkdir: no se puede crear el directorio «kp-12»: El fichero ya existe
mv: no se puede efectuar `stat' sobre «prefix.save»: No existe el fichero o el directorio
mv: no se puede efectuar `stat' sobre «prefix.xml»: No existe el fichero o el directorio
!!
12
End of step
4
!!


!!
Current step
Calculation for the value:
12
6.9
!!
mkdir: no se puede crear el directorio «kp-12»: El fichero ya existe
mv: no se puede efectuar `stat' sobre «prefix.save»: No existe el fichero o el directorio
mv: no se puede efectuar `stat' sobre «prefix.xml»: No existe el fichero o el directorio
!!
12
End of step
5
!!


!!
Current step
Calculation for the value:
12
7.0
!!
mkdir: no se puede crear el directorio «kp-12»: El fichero ya existe
mv: no se puede efectuar `stat' sobre «prefix.save»: No existe el fichero o el directorio
mv: no se puede efectuar `stat' sobre «prefix.xml»: No existe el fichero o el directorio
!!
12
End of step
6
!!


!!
Current step
Calculation for the value:
12
7.1
!!
mkdir: no se puede crear el directorio «kp-12»: El fichero ya existe
mv: no se puede efectuar `stat' sobre «prefix.save»: No existe el fichero o el directorio
mv: no se puede efectuar `stat' sobre «prefix.xml»: No existe el fichero o el directorio
!!
12
End of step
7
!!


!!
Current step
Calculation for the value:
12
7.2
!!
mkdir: no se puede crear el directorio «kp-12»: El fichero ya existe
mv: no se puede efectuar `stat' sobre «prefix.save»: No existe el fichero o el directorio
mv: no se puede efectuar `stat' sobre «prefix.xml»: No existe el fichero o el directorio
!!
12
End of step
8
!!


!!
Current step
Calculation for the value:
12
7.3
!!
mkdir: no se puede crear el directorio «kp-12»: El fichero ya existe
mv: no se puede efectuar `stat' sobre «prefix.save»: No existe el fichero o el directorio
mv: no se puede efectuar `stat' sobre «prefix.xml»: No existe el fichero o el directorio
!!
12
End of step
9
!!


!!
Current step
Calculation for the value:
12
7.4
!!
mkdir: no se puede crear el directorio «kp-12»: El fichero ya existe
mv: no se puede efectuar `stat' sobre «prefix.save»: No existe el fichero o el directorio
mv: no se puede efectuar `stat' sobre «prefix.xml»: No existe el fichero o el directorio
!!
12
End of step
10
!!


!!
Current step
Calculation for the value:
12
7.5
!!
mkdir: no se puede crear el directorio «kp-12»: El fichero ya existe
mv: no se puede efectuar `stat' sobre «prefix.save»: No existe el fichero o el directorio
mv: no se puede efectuar `stat' sobre «prefix.xml»: No existe el fichero o el directorio
!!
12
End of step
11
!!


!!
Current step
Calculation for the value:
12
7.6
!!
mkdir: no se puede crear el directorio «kp-12»: El fichero ya existe
mv: no se puede efectuar `stat' sobre «prefix.save»: No existe el fichero o el directorio
mv: no se puede efectuar `stat' sobre «prefix.xml»: No existe el fichero o el directorio
!!
12
End of step
12
!!


!!
Current step
Calculation for the value:
12
7.7
!!
mkdir: no se puede crear el directorio «kp-12»: El fichero ya existe
mv: no se puede efectuar `stat' sobre «prefix.save»: No existe el fichero o el directorio
mv: no se puede efectuar `stat' sobre «prefix.xml»: No existe el fichero o el directorio
!!
12
End of step
13
!!


!!
Current step
Calculation for the value:
12
7.8
!!
mkdir: no se puede crear el directorio «kp-12»: El fichero ya existe
mv: no se puede efectuar `stat' sobre «prefix.save»: No existe el fichero o el directorio
mv: no se puede efectuar `stat' sobre «prefix.xml»: No existe el fichero o el directorio
!!
12
End of step
14
!!


!!
Current step
Calculation for the value:
12
7.9
!!
mkdir: no se puede crear el directorio «kp-12»: El fichero ya existe
mv: no se puede efectuar `stat' sobre «prefix.save»: No existe el fichero o el directorio
mv: no se puede efectuar `stat' sobre «prefix.xml»: No existe el fichero o el directorio
!!
12
End of step
15
!!


!!
Current step
Calculation for the value:
12
8.0
!!
mkdir: no se puede crear el directorio «kp-12»: El fichero ya existe
mv: no se puede efectuar `stat' sobre «prefix.save»: No existe el fichero o el directorio
mv: no se puede efectuar `stat' sobre «prefix.xml»: No existe el fichero o el directorio
!!
12
End of step
16
!!


!!
Current step
Calculation for the value:
12
8.1
!!
mkdir: no se puede crear el directorio «kp-12»: El fichero ya existe
mv: no se puede efectuar `stat' sobre «prefix.save»: No existe el fichero o el directorio
mv: no se puede efectuar `stat' sobre «prefix.xml»: No existe el fichero o el directorio
!!
12
End of step
17
!!


!!
Current step
Calculation for the value:
12
8.2
!!
mkdir: no se puede crear el directorio «kp-12»: El fichero ya existe
mv: no se puede efectuar `stat' sobre «prefix.save»: No existe el fichero o el directorio
mv: no se puede efectuar `stat' sobre «prefix.xml»: No existe el fichero o el directorio
!!
12
End of step
18
!!


!!
Current step
Calculation for the value:
12
8.3
!!
mkdir: no se puede crear el directorio «kp-12»: El fichero ya existe
mv: no se puede efectuar `stat' sobre «prefix.save»: No existe el fichero o el directorio
mv: no se puede efectuar `stat' sobre «prefix.xml»: No existe el fichero o el directorio
!!
12
End of step
19
!!


!!
Current step
Calculation for the value:
12
8.4
!!
mkdir: no se puede crear el directorio «kp-12»: El fichero ya existe
mv: no se puede efectuar `stat' sobre «prefix.save»: No existe el fichero o el directorio
mv: no se puede efectuar `stat' sobre «prefix.xml»: No existe el fichero o el directorio
!!
12
End of step
20
!!


!!
Current step
Calculation for the value:
12
8.5
!!
mkdir: no se puede crear el directorio «kp-12»: El fichero ya existe
mv: no se puede efectuar `stat' sobre «prefix.save»: No existe el fichero o el directorio
mv: no se puede efectuar `stat' sobre «prefix.xml»: No existe el fichero o el directorio
!!
12
End of step
21
!!


!!
Current step
Calculation for the value:
15
6.5
!!
mv: no se puede efectuar `stat' sobre «prefix.save»: No existe el fichero o el directorio
mv: no se puede efectuar `stat' sobre «prefix.xml»: No existe el fichero o el directorio
!!
15
End of step
1
!!


!!
Current step
Calculation for the value:
15
6.6
!!
mkdir: no se puede crear el directorio «kp-15»: El fichero ya existe
mv: no se puede efectuar `stat' sobre «prefix.save»: No existe el fichero o el directorio
mv: no se puede efectuar `stat' sobre «prefix.xml»: No existe el fichero o el directorio
!!
15
End of step
2
!!


!!
Current step
Calculation for the value:
15
6.7
!!
mkdir: no se puede crear el directorio «kp-15»: El fichero ya existe
mv: no se puede efectuar `stat' sobre «prefix.save»: No existe el fichero o el directorio
mv: no se puede efectuar `stat' sobre «prefix.xml»: No existe el fichero o el directorio
!!
15
End of step
3
!!


!!
Current step
Calculation for the value:
15
6.8
!!
mkdir: no se puede crear el directorio «kp-15»: El fichero ya existe
mv: no se puede efectuar `stat' sobre «prefix.save»: No existe el fichero o el directorio
mv: no se puede efectuar `stat' sobre «prefix.xml»: No existe el fichero o el directorio
!!
15
End of step
4
!!


!!
Current step
Calculation for the value:
15
6.9
!!
mkdir: no se puede crear el directorio «kp-15»: El fichero ya existe
mv: no se puede efectuar `stat' sobre «prefix.save»: No existe el fichero o el directorio
mv: no se puede efectuar `stat' sobre «prefix.xml»: No existe el fichero o el directorio
!!
15
End of step
5
!!


!!
Current step
Calculation for the value:
15
7.0
!!
mkdir: no se puede crear el directorio «kp-15»: El fichero ya existe
mv: no se puede efectuar `stat' sobre «prefix.save»: No existe el fichero o el directorio
mv: no se puede efectuar `stat' sobre «prefix.xml»: No existe el fichero o el directorio
!!
15
End of step
6
!!


!!
Current step
Calculation for the value:
15
7.1
!!
mkdir: no se puede crear el directorio «kp-15»: El fichero ya existe
mv: no se puede efectuar `stat' sobre «prefix.save»: No existe el fichero o el directorio
mv: no se puede efectuar `stat' sobre «prefix.xml»: No existe el fichero o el directorio
!!
15
End of step
7
!!


!!
Current step
Calculation for the value:
15
7.2
!!
mkdir: no se puede crear el directorio «kp-15»: El fichero ya existe
mv: no se puede efectuar `stat' sobre «prefix.save»: No existe el fichero o el directorio
mv: no se puede efectuar `stat' sobre «prefix.xml»: No existe el fichero o el directorio
!!
15
End of step
8
!!


!!
Current step
Calculation for the value:
15
7.3
!!
mkdir: no se puede crear el directorio «kp-15»: El fichero ya existe
mv: no se puede efectuar `stat' sobre «prefix.save»: No existe el fichero o el directorio
mv: no se puede efectuar `stat' sobre «prefix.xml»: No existe el fichero o el directorio
!!
15
End of step
9
!!


!!
Current step
Calculation for the value:
15
7.4
!!
mkdir: no se puede crear el directorio «kp-15»: El fichero ya existe
mv: no se puede efectuar `stat' sobre «prefix.save»: No existe el fichero o el directorio
mv: no se puede efectuar `stat' sobre «prefix.xml»: No existe el fichero o el directorio
!!
15
End of step
10
!!


!!
Current step
Calculation for the value:
15
7.5
!!
mkdir: no se puede crear el directorio «kp-15»: El fichero ya existe
mv: no se puede efectuar `stat' sobre «prefix.save»: No existe el fichero o el directorio
mv: no se puede efectuar `stat' sobre «prefix.xml»: No existe el fichero o el directorio
!!
15
End of step
11
!!


!!
Current step
Calculation for the value:
15
7.6
!!
mkdir: no se puede crear el directorio «kp-15»: El fichero ya existe
mv: no se puede efectuar `stat' sobre «prefix.save»: No existe el fichero o el directorio
mv: no se puede efectuar `stat' sobre «prefix.xml»: No existe el fichero o el directorio
!!
15
End of step
12
!!


!!
Current step
Calculation for the value:
15
7.7
!!
mkdir: no se puede crear el directorio «kp-15»: El fichero ya existe
mv: no se puede efectuar `stat' sobre «prefix.save»: No existe el fichero o el directorio
mv: no se puede efectuar `stat' sobre «prefix.xml»: No existe el fichero o el directorio
!!
15
End of step
13
!!


!!
Current step
Calculation for the value:
15
7.8
!!
mkdir: no se puede crear el directorio «kp-15»: El fichero ya existe
mv: no se puede efectuar `stat' sobre «prefix.save»: No existe el fichero o el directorio
mv: no se puede efectuar `stat' sobre «prefix.xml»: No existe el fichero o el directorio
!!
15
End of step
14
!!


!!
Current step
Calculation for the value:
15
7.9
!!
mkdir: no se puede crear el directorio «kp-15»: El fichero ya existe
mv: no se puede efectuar `stat' sobre «prefix.save»: No existe el fichero o el directorio
mv: no se puede efectuar `stat' sobre «prefix.xml»: No existe el fichero o el directorio
!!
15
End of step
15
!!


!!
Current step
Calculation for the value:
15
8.0
!!
mkdir: no se puede crear el directorio «kp-15»: El fichero ya existe
mv: no se puede efectuar `stat' sobre «prefix.save»: No existe el fichero o el directorio
mv: no se puede efectuar `stat' sobre «prefix.xml»: No existe el fichero o el directorio
!!
15
End of step
16
!!


!!
Current step
Calculation for the value:
15
8.1
!!
mkdir: no se puede crear el directorio «kp-15»: El fichero ya existe
mv: no se puede efectuar `stat' sobre «prefix.save»: No existe el fichero o el directorio
mv: no se puede efectuar `stat' sobre «prefix.xml»: No existe el fichero o el directorio
!!
15
End of step
17
!!


!!
Current step
Calculation for the value:
15
8.2
!!
mkdir: no se puede crear el directorio «kp-15»: El fichero ya existe
mv: no se puede efectuar `stat' sobre «prefix.save»: No existe el fichero o el directorio
mv: no se puede efectuar `stat' sobre «prefix.xml»: No existe el fichero o el directorio
!!
15
End of step
18
!!


!!
Current step
Calculation for the value:
15
8.3
!!
mkdir: no se puede crear el directorio «kp-15»: El fichero ya existe
mv: no se puede efectuar `stat' sobre «prefix.save»: No existe el fichero o el directorio
mv: no se puede efectuar `stat' sobre «prefix.xml»: No existe el fichero o el directorio
!!
15
End of step
19
!!


!!
Current step
Calculation for the value:
15
8.4
!!
mkdir: no se puede crear el directorio «kp-15»: El fichero ya existe
mv: no se puede efectuar `stat' sobre «prefix.save»: No existe el fichero o el directorio
mv: no se puede efectuar `stat' sobre «prefix.xml»: No existe el fichero o el directorio
!!
15
End of step
20
!!


!!
Current step
Calculation for the value:
15
8.5
!!
mkdir: no se puede crear el directorio «kp-15»: El fichero ya existe
mv: no se puede efectuar `stat' sobre «prefix.save»: No existe el fichero o el directorio
mv: no se puede efectuar `stat' sobre «prefix.xml»: No existe el fichero o el directorio
!!
15
End of step
21
!!


!!
Current step
Calculation for the value:
18
6.5
!!
mv: no se puede efectuar `stat' sobre «prefix.save»: No existe el fichero o el directorio
mv: no se puede efectuar `stat' sobre «prefix.xml»: No existe el fichero o el directorio
!!
18
End of step
1
!!


!!
Current step
Calculation for the value:
18
6.6
!!
mkdir: no se puede crear el directorio «kp-18»: El fichero ya existe
mv: no se puede efectuar `stat' sobre «prefix.save»: No existe el fichero o el directorio
mv: no se puede efectuar `stat' sobre «prefix.xml»: No existe el fichero o el directorio
!!
18
End of step
2
!!


!!
Current step
Calculation for the value:
18
6.7
!!
mkdir: no se puede crear el directorio «kp-18»: El fichero ya existe
mv: no se puede efectuar `stat' sobre «prefix.save»: No existe el fichero o el directorio
mv: no se puede efectuar `stat' sobre «prefix.xml»: No existe el fichero o el directorio
!!
18
End of step
3
!!


!!
Current step
Calculation for the value:
18
6.8
!!
mkdir: no se puede crear el directorio «kp-18»: El fichero ya existe
mv: no se puede efectuar `stat' sobre «prefix.save»: No existe el fichero o el directorio
mv: no se puede efectuar `stat' sobre «prefix.xml»: No existe el fichero o el directorio
!!
18
End of step
4
!!


!!
Current step
Calculation for the value:
18
6.9
!!
mkdir: no se puede crear el directorio «kp-18»: El fichero ya existe
mv: no se puede efectuar `stat' sobre «prefix.save»: No existe el fichero o el directorio
mv: no se puede efectuar `stat' sobre «prefix.xml»: No existe el fichero o el directorio
!!
18
End of step
5
!!


!!
Current step
Calculation for the value:
18
7.0
!!
mkdir: no se puede crear el directorio «kp-18»: El fichero ya existe
mv: no se puede efectuar `stat' sobre «prefix.save»: No existe el fichero o el directorio
mv: no se puede efectuar `stat' sobre «prefix.xml»: No existe el fichero o el directorio
!!
18
End of step
6
!!


!!
Current step
Calculation for the value:
18
7.1
!!
mkdir: no se puede crear el directorio «kp-18»: El fichero ya existe
mv: no se puede efectuar `stat' sobre «prefix.save»: No existe el fichero o el directorio
mv: no se puede efectuar `stat' sobre «prefix.xml»: No existe el fichero o el directorio
!!
18
End of step
7
!!


!!
Current step
Calculation for the value:
18
7.2
!!
mkdir: no se puede crear el directorio «kp-18»: El fichero ya existe
mv: no se puede efectuar `stat' sobre «prefix.save»: No existe el fichero o el directorio
mv: no se puede efectuar `stat' sobre «prefix.xml»: No existe el fichero o el directorio
!!
18
End of step
8
!!


!!
Current step
Calculation for the value:
18
7.3
!!
mkdir: no se puede crear el directorio «kp-18»: El fichero ya existe
mv: no se puede efectuar `stat' sobre «prefix.save»: No existe el fichero o el directorio
mv: no se puede efectuar `stat' sobre «prefix.xml»: No existe el fichero o el directorio
!!
18
End of step
9
!!


!!
Current step
Calculation for the value:
18
7.4
!!
mkdir: no se puede crear el directorio «kp-18»: El fichero ya existe
mv: no se puede efectuar `stat' sobre «prefix.save»: No existe el fichero o el directorio
mv: no se puede efectuar `stat' sobre «prefix.xml»: No existe el fichero o el directorio
!!
18
End of step
10
!!


!!
Current step
Calculation for the value:
18
7.5
!!
mkdir: no se puede crear el directorio «kp-18»: El fichero ya existe
mv: no se puede efectuar `stat' sobre «prefix.save»: No existe el fichero o el directorio
mv: no se puede efectuar `stat' sobre «prefix.xml»: No existe el fichero o el directorio
!!
18
End of step
11
!!


!!
Current step
Calculation for the value:
18
7.6
!!
mkdir: no se puede crear el directorio «kp-18»: El fichero ya existe
mv: no se puede efectuar `stat' sobre «prefix.save»: No existe el fichero o el directorio
mv: no se puede efectuar `stat' sobre «prefix.xml»: No existe el fichero o el directorio
!!
18
End of step
12
!!


!!
Current step
Calculation for the value:
18
7.7
!!
mkdir: no se puede crear el directorio «kp-18»: El fichero ya existe
mv: no se puede efectuar `stat' sobre «prefix.save»: No existe el fichero o el directorio
mv: no se puede efectuar `stat' sobre «prefix.xml»: No existe el fichero o el directorio
!!
18
End of step
13
!!


!!
Current step
Calculation for the value:
18
7.8
!!
mkdir: no se puede crear el directorio «kp-18»: El fichero ya existe
mv: no se puede efectuar `stat' sobre «prefix.save»: No existe el fichero o el directorio
mv: no se puede efectuar `stat' sobre «prefix.xml»: No existe el fichero o el directorio
!!
18
End of step
14
!!


!!
Current step
Calculation for the value:
18
7.9
!!
mkdir: no se puede crear el directorio «kp-18»: El fichero ya existe
mv: no se puede efectuar `stat' sobre «prefix.save»: No existe el fichero o el directorio
mv: no se puede efectuar `stat' sobre «prefix.xml»: No existe el fichero o el directorio
!!
18
End of step
15
!!


!!
Current step
Calculation for the value:
18
8.0
!!
mkdir: no se puede crear el directorio «kp-18»: El fichero ya existe
mv: no se puede efectuar `stat' sobre «prefix.save»: No existe el fichero o el directorio
mv: no se puede efectuar `stat' sobre «prefix.xml»: No existe el fichero o el directorio
!!
18
End of step
16
!!


!!
Current step
Calculation for the value:
18
8.1
!!
mkdir: no se puede crear el directorio «kp-18»: El fichero ya existe
mv: no se puede efectuar `stat' sobre «prefix.save»: No existe el fichero o el directorio
mv: no se puede efectuar `stat' sobre «prefix.xml»: No existe el fichero o el directorio
!!
18
End of step
17
!!


!!
Current step
Calculation for the value:
18
8.2
!!
mkdir: no se puede crear el directorio «kp-18»: El fichero ya existe
mv: no se puede efectuar `stat' sobre «prefix.save»: No existe el fichero o el directorio
mv: no se puede efectuar `stat' sobre «prefix.xml»: No existe el fichero o el directorio
!!
18
End of step
18
!!


!!
Current step
Calculation for the value:
18
8.3
!!
mkdir: no se puede crear el directorio «kp-18»: El fichero ya existe
mv: no se puede efectuar `stat' sobre «prefix.save»: No existe el fichero o el directorio
mv: no se puede efectuar `stat' sobre «prefix.xml»: No existe el fichero o el directorio
!!
18
End of step
19
!!


!!
Current step
Calculation for the value:
18
8.4
!!
mkdir: no se puede crear el directorio «kp-18»: El fichero ya existe
mv: no se puede efectuar `stat' sobre «prefix.save»: No existe el fichero o el directorio
mv: no se puede efectuar `stat' sobre «prefix.xml»: No existe el fichero o el directorio
!!
18
End of step
20
!!


!!
Current step
Calculation for the value:
18
8.5
!!
mkdir: no se puede crear el directorio «kp-18»: El fichero ya existe
mv: no se puede efectuar `stat' sobre «prefix.save»: No existe el fichero o el directorio
mv: no se puede efectuar `stat' sobre «prefix.xml»: No existe el fichero o el directorio
!!
18
End of step
21
!!


!!
Current step
Calculation for the value:
24
6.5
!!
mv: no se puede efectuar `stat' sobre «prefix.save»: No existe el fichero o el directorio
mv: no se puede efectuar `stat' sobre «prefix.xml»: No existe el fichero o el directorio
!!
24
End of step
1
!!


!!
Current step
Calculation for the value:
24
6.6
!!
mkdir: no se puede crear el directorio «kp-24»: El fichero ya existe
mv: no se puede efectuar `stat' sobre «prefix.save»: No existe el fichero o el directorio
mv: no se puede efectuar `stat' sobre «prefix.xml»: No existe el fichero o el directorio
!!
24
End of step
2
!!


!!
Current step
Calculation for the value:
24
6.7
!!
mkdir: no se puede crear el directorio «kp-24»: El fichero ya existe
mv: no se puede efectuar `stat' sobre «prefix.save»: No existe el fichero o el directorio
mv: no se puede efectuar `stat' sobre «prefix.xml»: No existe el fichero o el directorio
!!
24
End of step
3
!!


!!
Current step
Calculation for the value:
24
6.8
!!
mkdir: no se puede crear el directorio «kp-24»: El fichero ya existe
mv: no se puede efectuar `stat' sobre «prefix.save»: No existe el fichero o el directorio
mv: no se puede efectuar `stat' sobre «prefix.xml»: No existe el fichero o el directorio
!!
24
End of step
4
!!


!!
Current step
Calculation for the value:
24
6.9
!!
mkdir: no se puede crear el directorio «kp-24»: El fichero ya existe
mv: no se puede efectuar `stat' sobre «prefix.save»: No existe el fichero o el directorio
mv: no se puede efectuar `stat' sobre «prefix.xml»: No existe el fichero o el directorio
!!
24
End of step
5
!!


!!
Current step
Calculation for the value:
24
7.0
!!
mkdir: no se puede crear el directorio «kp-24»: El fichero ya existe
mv: no se puede efectuar `stat' sobre «prefix.save»: No existe el fichero o el directorio
mv: no se puede efectuar `stat' sobre «prefix.xml»: No existe el fichero o el directorio
!!
24
End of step
6
!!


!!
Current step
Calculation for the value:
24
7.1
!!
mkdir: no se puede crear el directorio «kp-24»: El fichero ya existe
mv: no se puede efectuar `stat' sobre «prefix.save»: No existe el fichero o el directorio
mv: no se puede efectuar `stat' sobre «prefix.xml»: No existe el fichero o el directorio
!!
24
End of step
7
!!


!!
Current step
Calculation for the value:
24
7.2
!!
mkdir: no se puede crear el directorio «kp-24»: El fichero ya existe
mv: no se puede efectuar `stat' sobre «prefix.save»: No existe el fichero o el directorio
mv: no se puede efectuar `stat' sobre «prefix.xml»: No existe el fichero o el directorio
!!
24
End of step
8
!!


!!
Current step
Calculation for the value:
24
7.3
!!
mkdir: no se puede crear el directorio «kp-24»: El fichero ya existe
mv: no se puede efectuar `stat' sobre «prefix.save»: No existe el fichero o el directorio
mv: no se puede efectuar `stat' sobre «prefix.xml»: No existe el fichero o el directorio
!!
24
End of step
9
!!


!!
Current step
Calculation for the value:
24
7.4
!!
mkdir: no se puede crear el directorio «kp-24»: El fichero ya existe
mv: no se puede efectuar `stat' sobre «prefix.save»: No existe el fichero o el directorio
mv: no se puede efectuar `stat' sobre «prefix.xml»: No existe el fichero o el directorio
!!
24
End of step
10
!!


!!
Current step
Calculation for the value:
24
7.5
!!
mkdir: no se puede crear el directorio «kp-24»: El fichero ya existe
mv: no se puede efectuar `stat' sobre «prefix.save»: No existe el fichero o el directorio
mv: no se puede efectuar `stat' sobre «prefix.xml»: No existe el fichero o el directorio
!!
24
End of step
11
!!


!!
Current step
Calculation for the value:
24
7.6
!!
mkdir: no se puede crear el directorio «kp-24»: El fichero ya existe
mv: no se puede efectuar `stat' sobre «prefix.save»: No existe el fichero o el directorio
mv: no se puede efectuar `stat' sobre «prefix.xml»: No existe el fichero o el directorio
!!
24
End of step
12
!!


!!
Current step
Calculation for the value:
24
7.7
!!
mkdir: no se puede crear el directorio «kp-24»: El fichero ya existe
mv: no se puede efectuar `stat' sobre «prefix.save»: No existe el fichero o el directorio
mv: no se puede efectuar `stat' sobre «prefix.xml»: No existe el fichero o el directorio
!!
24
End of step
13
!!


!!
Current step
Calculation for the value:
24
7.8
!!
mkdir: no se puede crear el directorio «kp-24»: El fichero ya existe
mv: no se puede efectuar `stat' sobre «prefix.save»: No existe el fichero o el directorio
mv: no se puede efectuar `stat' sobre «prefix.xml»: No existe el fichero o el directorio
!!
24
End of step
14
!!


!!
Current step
Calculation for the value:
24
7.9
!!
mkdir: no se puede crear el directorio «kp-24»: El fichero ya existe
mv: no se puede efectuar `stat' sobre «prefix.save»: No existe el fichero o el directorio
mv: no se puede efectuar `stat' sobre «prefix.xml»: No existe el fichero o el directorio
!!
24
End of step
15
!!


!!
Current step
Calculation for the value:
24
8.0
!!
mkdir: no se puede crear el directorio «kp-24»: El fichero ya existe
mv: no se puede efectuar `stat' sobre «prefix.save»: No existe el fichero o el directorio
mv: no se puede efectuar `stat' sobre «prefix.xml»: No existe el fichero o el directorio
!!
24
End of step
16
!!


!!
Current step
Calculation for the value:
24
8.1
!!
mkdir: no se puede crear el directorio «kp-24»: El fichero ya existe
mv: no se puede efectuar `stat' sobre «prefix.save»: No existe el fichero o el directorio
mv: no se puede efectuar `stat' sobre «prefix.xml»: No existe el fichero o el directorio
!!
24
End of step
17
!!


!!
Current step
Calculation for the value:
24
8.2
!!
mkdir: no se puede crear el directorio «kp-24»: El fichero ya existe
mv: no se puede efectuar `stat' sobre «prefix.save»: No existe el fichero o el directorio
mv: no se puede efectuar `stat' sobre «prefix.xml»: No existe el fichero o el directorio
!!
24
End of step
18
!!


!!
Current step
Calculation for the value:
24
8.3
!!
mkdir: no se puede crear el directorio «kp-24»: El fichero ya existe
mv: no se puede efectuar `stat' sobre «prefix.save»: No existe el fichero o el directorio
mv: no se puede efectuar `stat' sobre «prefix.xml»: No existe el fichero o el directorio
!!
24
End of step
19
!!


!!
Current step
Calculation for the value:
24
8.4
!!
mkdir: no se puede crear el directorio «kp-24»: El fichero ya existe
mv: no se puede efectuar `stat' sobre «prefix.save»: No existe el fichero o el directorio
mv: no se puede efectuar `stat' sobre «prefix.xml»: No existe el fichero o el directorio
!!
24
End of step
20
!!


!!
Current step
Calculation for the value:
24
8.5
!!
mkdir: no se puede crear el directorio «kp-24»: El fichero ya existe
mv: no se puede efectuar `stat' sobre «prefix.save»: No existe el fichero o el directorio
mv: no se puede efectuar `stat' sobre «prefix.xml»: No existe el fichero o el directorio
!!
24
End of step
21
!!



Done!
jue dic  2 21:12:26 CET 2021

---------------------------------
