
     Program PWSCF v.6.3 starts on  2Dec2021 at 22: 6:17 

     This program is part of the open-source Quantum ESPRESSO suite
     for quantum simulation of materials; please cite
         "P. Giannozzi et al., J. Phys.:Condens. Matter 21 395502 (2009);
         "P. Giannozzi et al., J. Phys.:Condens. Matter 29 465901 (2017);
          URL http://www.quantum-espresso.org", 
     in publications or presentations arising from this work. More details at
     http://www.quantum-espresso.org/quote

     Parallel version (MPI & OpenMP), running on       2 processor cores
     Number of MPI processes:                 2
     Threads/MPI process:                     1

     MPI processes distributed on     1 nodes
     R & G space division:  proc/nbgrp/npool/nimage =       2
     Reading input from pw-input.in

     Current dimensions of program PWSCF are:
     Max number of different atomic species (ntypx) = 10
     Max number of k-points (npk) =  40000
     Max angular momentum in pseudopotentials (lmaxx) =  3

     Subspace diagonalization in iterative solution of the eigenvalue problem:
     a serial algorithm will be used

 
     Parallelization info
     --------------------
     sticks:   dense  smooth     PW     G-vecs:    dense   smooth      PW
     Min          99      99     36                  957      957     205
     Max         100     100     37                  960      960     206
     Sum         199     199     73                 1917     1917     411
 

     Title: 
     Pd-kp-conv                                                                 


     bravais-lattice index     =            2
     lattice parameter (alat)  =       6.5000  a.u.
     unit-cell volume          =      68.6562 (a.u.)^3
     number of atoms/cell      =            1
     number of atomic types    =            1
     number of electrons       =        16.00
     number of Kohn-Sham states=           12
     kinetic-energy cutoff     =      35.0000  Ry
     charge density cutoff     =     140.0000  Ry
     convergence threshold     =      1.0E-07
     mixing beta               =       0.7000
     number of iterations used =            8  plain     mixing
     Exchange-correlation      =  SLA  PW   PBX  PBC ( 1  4  3  4 0 0)

     celldm(1)=   6.500000  celldm(2)=   0.000000  celldm(3)=   0.000000
     celldm(4)=   0.000000  celldm(5)=   0.000000  celldm(6)=   0.000000

     crystal axes: (cart. coord. in units of alat)
               a(1) = (  -0.500000   0.000000   0.500000 )  
               a(2) = (   0.000000   0.500000   0.500000 )  
               a(3) = (  -0.500000   0.500000   0.000000 )  

     reciprocal axes: (cart. coord. in units 2 pi/alat)
               b(1) = ( -1.000000 -1.000000  1.000000 )  
               b(2) = (  1.000000  1.000000  1.000000 )  
               b(3) = ( -1.000000  1.000000 -1.000000 )  


     PseudoPot. # 1 for Pd read from file:
     ./pd_pbe_v1.4.uspp.F.UPF
     MD5 check sum: 2d733d2bc2cbfd217af676df1668a4bc
     Pseudo is Ultrasoft + core correction, Zval = 16.0
     Generated by new atomic code, or converted to UPF format
     Using radial grid of  887 points,  6 beta functions with: 
                l(1) =   0
                l(2) =   0
                l(3) =   1
                l(4) =   1
                l(5) =   2
                l(6) =   2
     Q(r) pseudized with  8 coefficients,  rinner =    1.130   1.130   1.130
                                                       1.130   1.130

     atomic species   valence    mass     pseudopotential
        Pd            16.00   106.40000     Pd( 1.00)

     48 Sym. Ops., with inversion, found



   Cartesian axes

     site n.     atom                  positions (alat units)
         1           Pd  tau(   1) = (   0.0000000   0.0000000   0.0000000  )

     number of k points=   195  Marzari-Vanderbilt smearing, width (Ry)=  0.0250

     Number of k-points >= 100: set verbosity='high' to print them.

     Dense  grid:     1917 G-vectors     FFT dimensions: (  18,  18,  18)

     Estimated max dynamical RAM per process >       8.65 MB

     Estimated total dynamical RAM >      17.30 MB

     Initial potential from superposition of free atoms
     Check: negative starting charge=   -0.084237

     starting charge   15.49999, renormalised to   16.00000

     negative rho (up, down):  8.695E-02 0.000E+00
     Starting wfcs are   12 randomized atomic wfcs

     total cpu time spent up to now is        0.7 secs

     Self-consistent Calculation

     iteration #  1     ecut=    35.00 Ry     beta= 0.70
     Davidson diagonalization with overlap
     ethr =  1.00E-02,  avg # of iterations =  3.5

     negative rho (up, down):  8.928E-02 0.000E+00

     total cpu time spent up to now is        2.2 secs

     total energy              =    -198.34446698 Ry
     Harris-Foulkes estimate   =    -198.71950431 Ry
     estimated scf accuracy    <       0.53744666 Ry

     iteration #  2     ecut=    35.00 Ry     beta= 0.70
     Davidson diagonalization with overlap
     ethr =  3.36E-03,  avg # of iterations =  2.0

     negative rho (up, down):  9.021E-02 0.000E+00

     total cpu time spent up to now is        3.4 secs

     total energy              =    -198.49710026 Ry
     Harris-Foulkes estimate   =    -198.60080174 Ry
     estimated scf accuracy    <       0.17496010 Ry

     iteration #  3     ecut=    35.00 Ry     beta= 0.70
     Davidson diagonalization with overlap
     ethr =  1.09E-03,  avg # of iterations =  2.0

     negative rho (up, down):  9.101E-02 0.000E+00

     total cpu time spent up to now is        4.5 secs

     total energy              =    -198.53663970 Ry
     Harris-Foulkes estimate   =    -198.53687000 Ry
     estimated scf accuracy    <       0.00063662 Ry

     iteration #  4     ecut=    35.00 Ry     beta= 0.70
     Davidson diagonalization with overlap
     ethr =  3.98E-06,  avg # of iterations =  2.1

     negative rho (up, down):  9.113E-02 0.000E+00

     total cpu time spent up to now is        5.6 secs

     total energy              =    -198.53675693 Ry
     Harris-Foulkes estimate   =    -198.53676127 Ry
     estimated scf accuracy    <       0.00000759 Ry

     iteration #  5     ecut=    35.00 Ry     beta= 0.70
     Davidson diagonalization with overlap
     ethr =  4.75E-08,  avg # of iterations =  2.0

     negative rho (up, down):  9.115E-02 0.000E+00

     total cpu time spent up to now is        6.8 secs

     total energy              =    -198.53675902 Ry
     Harris-Foulkes estimate   =    -198.53675911 Ry
     estimated scf accuracy    <       0.00000018 Ry

     iteration #  6     ecut=    35.00 Ry     beta= 0.70
     Davidson diagonalization with overlap
     ethr =  1.14E-09,  avg # of iterations =  2.0

     negative rho (up, down):  9.115E-02 0.000E+00

     total cpu time spent up to now is        8.3 secs

     End of self-consistent calculation

     Number of k-points >= 100: set verbosity='high' to print the bands.

     the Fermi energy is    30.4409 ev

!    total energy              =    -198.53675906 Ry
     Harris-Foulkes estimate   =    -198.53675906 Ry
     estimated scf accuracy    <          1.2E-09 Ry

     The total energy is the sum of the following terms:

     one-electron contribution =     -12.17637930 Ry
     hartree contribution      =      26.03042002 Ry
     xc contribution           =     -31.81795639 Ry
     ewald contribution        =    -180.57302943 Ry
     smearing contrib. (-TS)   =       0.00018605 Ry

     convergence has been achieved in   6 iterations

     Writing output data file Pd-kp-conv.save/
 
     init_run     :      0.59s CPU      0.65s WALL (       1 calls)
     electrons    :      6.63s CPU      7.56s WALL (       1 calls)

     Called by init_run:
     wfcinit      :      0.32s CPU      0.37s WALL (       1 calls)
     potinit      :      0.00s CPU      0.01s WALL (       1 calls)
     hinit0       :      0.26s CPU      0.26s WALL (       1 calls)

     Called by electrons:
     c_bands      :      5.69s CPU      6.50s WALL (       6 calls)
     sum_band     :      0.90s CPU      1.01s WALL (       6 calls)
     v_of_rho     :      0.01s CPU      0.02s WALL (       7 calls)
     newd         :      0.02s CPU      0.02s WALL (       7 calls)
     mix_rho      :      0.00s CPU      0.00s WALL (       6 calls)

     Called by c_bands:
     init_us_2    :      0.14s CPU      0.16s WALL (    2535 calls)
     cegterg      :      5.30s CPU      5.79s WALL (    1170 calls)

     Called by sum_band:
     sum_band:bec :      0.01s CPU      0.01s WALL (    1170 calls)
     addusdens    :      0.02s CPU      0.02s WALL (       6 calls)

     Called by *egterg:
     h_psi        :      3.86s CPU      4.25s WALL (    4027 calls)
     s_psi        :      0.09s CPU      0.10s WALL (    4027 calls)
     g_psi        :      0.04s CPU      0.05s WALL (    2662 calls)
     cdiaghg      :      1.02s CPU      1.10s WALL (    3832 calls)

     Called by h_psi:
     h_psi:pot    :      3.84s CPU      4.23s WALL (    4027 calls)
     h_psi:calbec :      0.14s CPU      0.15s WALL (    4027 calls)
     vloc_psi     :      3.58s CPU      3.94s WALL (    4027 calls)
     add_vuspsi   :      0.10s CPU      0.11s WALL (    4027 calls)

     General routines
     calbec       :      0.16s CPU      0.18s WALL (    5197 calls)
     fft          :      0.01s CPU      0.01s WALL (      78 calls)
     ffts         :      0.00s CPU      0.00s WALL (       6 calls)
     fftw         :      3.82s CPU      4.21s WALL (   88178 calls)
 
     Parallel routines
     fft_scatt_xy :      0.64s CPU      0.71s WALL (   88262 calls)
     fft_scatt_yz :      1.20s CPU      1.33s WALL (   88262 calls)
 
     PWSCF        :     7.37s CPU         9.45s WALL

 
   This run was terminated on:  22: 6:26   2Dec2021            

=------------------------------------------------------------------------------=
   JOB DONE.
=------------------------------------------------------------------------------=
