
     Program PWSCF v.6.3 starts on  2Dec2021 at 20:52:29 

     This program is part of the open-source Quantum ESPRESSO suite
     for quantum simulation of materials; please cite
         "P. Giannozzi et al., J. Phys.:Condens. Matter 21 395502 (2009);
         "P. Giannozzi et al., J. Phys.:Condens. Matter 29 465901 (2017);
          URL http://www.quantum-espresso.org", 
     in publications or presentations arising from this work. More details at
     http://www.quantum-espresso.org/quote

     Parallel version (MPI & OpenMP), running on       2 processor cores
     Number of MPI processes:                 2
     Threads/MPI process:                     1

     MPI processes distributed on     1 nodes
     R & G space division:  proc/nbgrp/npool/nimage =       2
     Reading input from pw-input.in

     Current dimensions of program PWSCF are:
     Max number of different atomic species (ntypx) = 10
     Max number of k-points (npk) =  40000
     Max angular momentum in pseudopotentials (lmaxx) =  3

     Subspace diagonalization in iterative solution of the eigenvalue problem:
     a serial algorithm will be used

 
     Parallelization info
     --------------------
     sticks:   dense  smooth     PW     G-vecs:    dense   smooth      PW
     Min         120     120     42                 1210     1210     264
     Max         121     121     43                 1211     1211     267
     Sum         241     241     85                 2421     2421     531
 

     Title: 
     Pd-kp-conv                                                                 


     bravais-lattice index     =            2
     lattice parameter (alat)  =       7.0000  a.u.
     unit-cell volume          =      85.7500 (a.u.)^3
     number of atoms/cell      =            1
     number of atomic types    =            1
     number of electrons       =        16.00
     number of Kohn-Sham states=           12
     kinetic-energy cutoff     =      35.0000  Ry
     charge density cutoff     =     140.0000  Ry
     convergence threshold     =      1.0E-07
     mixing beta               =       0.7000
     number of iterations used =            8  plain     mixing
     Exchange-correlation      =  SLA  PW   PBX  PBC ( 1  4  3  4 0 0)

     celldm(1)=   7.000000  celldm(2)=   0.000000  celldm(3)=   0.000000
     celldm(4)=   0.000000  celldm(5)=   0.000000  celldm(6)=   0.000000

     crystal axes: (cart. coord. in units of alat)
               a(1) = (  -0.500000   0.000000   0.500000 )  
               a(2) = (   0.000000   0.500000   0.500000 )  
               a(3) = (  -0.500000   0.500000   0.000000 )  

     reciprocal axes: (cart. coord. in units 2 pi/alat)
               b(1) = ( -1.000000 -1.000000  1.000000 )  
               b(2) = (  1.000000  1.000000  1.000000 )  
               b(3) = ( -1.000000  1.000000 -1.000000 )  


     PseudoPot. # 1 for Pd read from file:
     ./pd_pbe_v1.4.uspp.F.UPF
     MD5 check sum: 2d733d2bc2cbfd217af676df1668a4bc
     Pseudo is Ultrasoft + core correction, Zval = 16.0
     Generated by new atomic code, or converted to UPF format
     Using radial grid of  887 points,  6 beta functions with: 
                l(1) =   0
                l(2) =   0
                l(3) =   1
                l(4) =   1
                l(5) =   2
                l(6) =   2
     Q(r) pseudized with  8 coefficients,  rinner =    1.130   1.130   1.130
                                                       1.130   1.130

     atomic species   valence    mass     pseudopotential
        Pd            16.00   106.40000     Pd( 1.00)

     48 Sym. Ops., with inversion, found



   Cartesian axes

     site n.     atom                  positions (alat units)
         1           Pd  tau(   1) = (   0.0000000   0.0000000   0.0000000  )

     number of k points=    16  Marzari-Vanderbilt smearing, width (Ry)=  0.0100
                       cart. coord. in units 2pi/alat
        k(    1) = (   0.0000000   0.0000000   0.0000000), wk =   0.0092593
        k(    2) = (  -0.1666667   0.1666667  -0.1666667), wk =   0.0740741
        k(    3) = (  -0.3333333   0.3333333  -0.3333333), wk =   0.0740741
        k(    4) = (   0.5000000  -0.5000000   0.5000000), wk =   0.0370370
        k(    5) = (   0.0000000   0.3333333   0.0000000), wk =   0.0555556
        k(    6) = (  -0.1666667   0.5000000  -0.1666667), wk =   0.2222222
        k(    7) = (   0.6666667  -0.3333333   0.6666667), wk =   0.2222222
        k(    8) = (   0.5000000  -0.1666667   0.5000000), wk =   0.2222222
        k(    9) = (   0.3333333   0.0000000   0.3333333), wk =   0.1111111
        k(   10) = (   0.0000000   0.6666667   0.0000000), wk =   0.0555556
        k(   11) = (   0.8333333  -0.1666667   0.8333333), wk =   0.2222222
        k(   12) = (   0.6666667  -0.0000000   0.6666667), wk =   0.1111111
        k(   13) = (   0.0000000  -1.0000000   0.0000000), wk =   0.0277778
        k(   14) = (   0.6666667  -0.3333333   1.0000000), wk =   0.2222222
        k(   15) = (   0.5000000  -0.1666667   0.8333333), wk =   0.2222222
        k(   16) = (  -0.3333333  -1.0000000   0.0000000), wk =   0.1111111

     Dense  grid:     2421 G-vectors     FFT dimensions: (  20,  20,  20)

     Estimated max dynamical RAM per process >       5.80 MB

     Estimated total dynamical RAM >      11.60 MB

     Initial potential from superposition of free atoms
     Check: negative starting charge=   -0.083349

     starting charge   15.49999, renormalised to   16.00000

     negative rho (up, down):  8.604E-02 0.000E+00
     Starting wfcs are   12 randomized atomic wfcs

     total cpu time spent up to now is        0.5 secs

     Self-consistent Calculation

     iteration #  1     ecut=    35.00 Ry     beta= 0.70
     Davidson diagonalization with overlap
     ethr =  1.00E-02,  avg # of iterations =  3.7

     negative rho (up, down):  8.604E-02 0.000E+00

     total cpu time spent up to now is        0.7 secs

     total energy              =    -198.33479773 Ry
     Harris-Foulkes estimate   =    -198.95119175 Ry
     estimated scf accuracy    <       0.86223644 Ry

     iteration #  2     ecut=    35.00 Ry     beta= 0.70
     Davidson diagonalization with overlap
     ethr =  5.39E-03,  avg # of iterations =  2.0

     negative rho (up, down):  8.730E-02 0.000E+00

     total cpu time spent up to now is        0.8 secs

     total energy              =    -198.55231229 Ry
     Harris-Foulkes estimate   =    -198.83892878 Ry
     estimated scf accuracy    <       0.52991002 Ry

     iteration #  3     ecut=    35.00 Ry     beta= 0.70
     Davidson diagonalization with overlap
     ethr =  3.31E-03,  avg # of iterations =  2.0

     negative rho (up, down):  8.791E-02 0.000E+00

     total cpu time spent up to now is        0.9 secs

     total energy              =    -198.67566520 Ry
     Harris-Foulkes estimate   =    -198.67728704 Ry
     estimated scf accuracy    <       0.00322622 Ry

     iteration #  4     ecut=    35.00 Ry     beta= 0.70
     Davidson diagonalization with overlap
     ethr =  2.02E-05,  avg # of iterations =  2.0

     negative rho (up, down):  8.807E-02 0.000E+00

     total cpu time spent up to now is        1.1 secs

     total energy              =    -198.67643845 Ry
     Harris-Foulkes estimate   =    -198.67647325 Ry
     estimated scf accuracy    <       0.00006849 Ry

     iteration #  5     ecut=    35.00 Ry     beta= 0.70
     Davidson diagonalization with overlap
     ethr =  4.28E-07,  avg # of iterations =  2.1

     negative rho (up, down):  8.811E-02 0.000E+00

     total cpu time spent up to now is        1.2 secs

     total energy              =    -198.67645118 Ry
     Harris-Foulkes estimate   =    -198.67645126 Ry
     estimated scf accuracy    <       0.00000025 Ry

     iteration #  6     ecut=    35.00 Ry     beta= 0.70
     Davidson diagonalization with overlap
     ethr =  1.58E-09,  avg # of iterations =  2.2

     negative rho (up, down):  8.811E-02 0.000E+00

     total cpu time spent up to now is        1.3 secs

     End of self-consistent calculation

          k = 0.0000 0.0000 0.0000 (   307 PWs)   bands (ev):

   -27.2822 -27.2822 -27.2822  14.4969  19.2049  19.2049  19.2049  21.2495
    21.2495  40.9882  46.6732  46.6732

          k =-0.1667 0.1667-0.1667 (   310 PWs)   bands (ev):

   -27.4608 -27.3070 -27.3070  15.5446  18.9129  19.5250  19.5250  21.1567
    21.1567  41.5935  42.5094  47.9680

          k =-0.3333 0.3333-0.3333 (   302 PWs)   bands (ev):

   -27.8081 -27.3554 -27.3554  16.4595  19.3889  19.3889  20.5986  22.0120
    22.0120  35.7391  41.3834  48.3007

          k = 0.5000-0.5000 0.5000 (   302 PWs)   bands (ev):

   -27.9775 -27.3795 -27.3795  16.2580  19.1307  19.1307  22.7884  22.7884
    23.5656  31.4900  40.2263  46.2946

          k = 0.0000 0.3333 0.0000 (   303 PWs)   bands (ev):

   -27.4547 -27.3472 -27.3472  15.8979  18.3755  19.9552  19.9552  20.4714
    21.5978  42.7157  43.7145  45.3785

          k =-0.1667 0.5000-0.1667 (   298 PWs)   bands (ev):

   -27.7095 -27.4052 -27.4033  17.0361  18.2348  19.4327  20.2635  22.2616
    22.2863  38.3593  42.5006  43.8312

          k = 0.6667-0.3333 0.6667 (   301 PWs)   bands (ev):

   -27.9075 -27.4827 -27.4197  16.9188  18.5706  19.8939  20.0945  22.8447
    26.2192  32.1724  40.5771  43.7581

          k = 0.5000-0.1667 0.5000 (   299 PWs)   bands (ev):

   -27.8531 -27.5055 -27.3798  17.1806  18.7701  19.8551  19.8597  21.7918
    25.3580  34.1863  40.0158  43.5977

          k = 0.3333 0.0000 0.3333 (   303 PWs)   bands (ev):

   -27.6281 -27.4211 -27.3233  16.9358  18.3971  19.5407  20.1789  20.4518
    22.5625  39.9483  41.2492  46.7941

          k = 0.0000 0.6667 0.0000 (   310 PWs)   bands (ev):

   -27.7820 -27.4754 -27.4754  16.7109  16.9806  21.8645  21.8645  22.2544
    22.3483  40.1524  40.1524  40.3752

          k = 0.8333-0.1667 0.8333 (   303 PWs)   bands (ev):

   -27.8680 -27.5818 -27.4994  16.6207  17.0942  20.9616  21.7210  22.9797
    27.1378  34.8045  37.2481  39.4141

          k = 0.6667-0.0000 0.6667 (   284 PWs)   bands (ev):

   -27.7528 -27.7489 -27.4516  17.2893  18.2463  19.4387  21.0392  22.1913
    29.5973  32.9430  35.3212  42.5187

          k = 0.0000-1.0000 0.0000 (   302 PWs)   bands (ev):

   -27.9373 -27.5389 -27.5389  16.0277  16.3770  22.7530  23.1999  23.1999
    26.2673  35.3066  37.2382  37.2382

          k = 0.6667-0.3333 1.0000 (   305 PWs)   bands (ev):

   -27.8018 -27.5676 -27.4401  17.7327  17.7444  19.0028  21.4332  21.8485
    25.8048  37.0435  37.4654  40.9093

          k = 0.5000-0.1667 0.8333 (   294 PWs)   bands (ev):

   -27.8234 -27.6511 -27.4797  17.7441  17.9334  19.0655  20.8655  22.6767
    30.0237  31.6200  38.2017  38.4565

          k =-0.3333-1.0000 0.0000 (   294 PWs)   bands (ev):

   -27.8390 -27.6400 -27.5436  16.9130  17.3584  20.1234  21.6044  23.2029
    30.2269  34.8998  35.0373  35.9968

     the Fermi energy is    22.8024 ev

!    total energy              =    -198.67645126 Ry
     Harris-Foulkes estimate   =    -198.67645128 Ry
     estimated scf accuracy    <       0.00000003 Ry

     The total energy is the sum of the following terms:

     one-electron contribution =     -30.94236803 Ry
     hartree contribution      =      31.43604494 Ry
     xc contribution           =     -31.49500084 Ry
     ewald contribution        =    -167.67495590 Ry
     smearing contrib. (-TS)   =      -0.00017143 Ry

     convergence has been achieved in   6 iterations

     Writing output data file Pd-kp-conv.save/
 
     init_run     :      0.36s CPU      0.39s WALL (       1 calls)
     electrons    :      0.75s CPU      0.87s WALL (       1 calls)

     Called by init_run:
     wfcinit      :      0.04s CPU      0.05s WALL (       1 calls)
     potinit      :      0.00s CPU      0.02s WALL (       1 calls)
     hinit0       :      0.30s CPU      0.31s WALL (       1 calls)

     Called by electrons:
     c_bands      :      0.58s CPU      0.64s WALL (       6 calls)
     sum_band     :      0.12s CPU      0.13s WALL (       6 calls)
     v_of_rho     :      0.02s CPU      0.02s WALL (       7 calls)
     newd         :      0.03s CPU      0.03s WALL (       7 calls)
     mix_rho      :      0.00s CPU      0.00s WALL (       6 calls)

     Called by c_bands:
     init_us_2    :      0.01s CPU      0.02s WALL (     208 calls)
     cegterg      :      0.54s CPU      0.60s WALL (      96 calls)

     Called by sum_band:
     sum_band:bec :      0.00s CPU      0.00s WALL (      96 calls)
     addusdens    :      0.03s CPU      0.03s WALL (       6 calls)

     Called by *egterg:
     h_psi        :      0.44s CPU      0.48s WALL (     335 calls)
     s_psi        :      0.01s CPU      0.01s WALL (     335 calls)
     g_psi        :      0.00s CPU      0.01s WALL (     223 calls)
     cdiaghg      :      0.09s CPU      0.09s WALL (     319 calls)

     Called by h_psi:
     h_psi:pot    :      0.43s CPU      0.48s WALL (     335 calls)
     h_psi:calbec :      0.01s CPU      0.01s WALL (     335 calls)
     vloc_psi     :      0.41s CPU      0.46s WALL (     335 calls)
     add_vuspsi   :      0.01s CPU      0.01s WALL (     335 calls)

     General routines
     calbec       :      0.01s CPU      0.01s WALL (     431 calls)
     fft          :      0.01s CPU      0.01s WALL (      78 calls)
     ffts         :      0.00s CPU      0.00s WALL (       6 calls)
     fftw         :      0.42s CPU      0.47s WALL (    7320 calls)
 
     Parallel routines
     fft_scatt_xy :      0.08s CPU      0.09s WALL (    7404 calls)
     fft_scatt_yz :      0.11s CPU      0.13s WALL (    7404 calls)
 
     PWSCF        :     1.19s CPU         1.76s WALL

 
   This run was terminated on:  20:52:31   2Dec2021            

=------------------------------------------------------------------------------=
   JOB DONE.
=------------------------------------------------------------------------------=
