
     Program PWSCF v.6.3 starts on  2Dec2021 at 20:52:36 

     This program is part of the open-source Quantum ESPRESSO suite
     for quantum simulation of materials; please cite
         "P. Giannozzi et al., J. Phys.:Condens. Matter 21 395502 (2009);
         "P. Giannozzi et al., J. Phys.:Condens. Matter 29 465901 (2017);
          URL http://www.quantum-espresso.org", 
     in publications or presentations arising from this work. More details at
     http://www.quantum-espresso.org/quote

     Parallel version (MPI & OpenMP), running on       2 processor cores
     Number of MPI processes:                 2
     Threads/MPI process:                     1

     MPI processes distributed on     1 nodes
     R & G space division:  proc/nbgrp/npool/nimage =       2
     Reading input from pw-input.in

     Current dimensions of program PWSCF are:
     Max number of different atomic species (ntypx) = 10
     Max number of k-points (npk) =  40000
     Max angular momentum in pseudopotentials (lmaxx) =  3

     Subspace diagonalization in iterative solution of the eigenvalue problem:
     a serial algorithm will be used

 
     Parallelization info
     --------------------
     sticks:   dense  smooth     PW     G-vecs:    dense   smooth      PW
     Min         126     126     42                 1365     1365     267
     Max         127     127     43                 1368     1368     270
     Sum         253     253     85                 2733     2733     537
 

     Title: 
     Pd-kp-conv                                                                 


     bravais-lattice index     =            2
     lattice parameter (alat)  =       7.3000  a.u.
     unit-cell volume          =      97.2542 (a.u.)^3
     number of atoms/cell      =            1
     number of atomic types    =            1
     number of electrons       =        16.00
     number of Kohn-Sham states=           12
     kinetic-energy cutoff     =      35.0000  Ry
     charge density cutoff     =     140.0000  Ry
     convergence threshold     =      1.0E-07
     mixing beta               =       0.7000
     number of iterations used =            8  plain     mixing
     Exchange-correlation      =  SLA  PW   PBX  PBC ( 1  4  3  4 0 0)

     celldm(1)=   7.300000  celldm(2)=   0.000000  celldm(3)=   0.000000
     celldm(4)=   0.000000  celldm(5)=   0.000000  celldm(6)=   0.000000

     crystal axes: (cart. coord. in units of alat)
               a(1) = (  -0.500000   0.000000   0.500000 )  
               a(2) = (   0.000000   0.500000   0.500000 )  
               a(3) = (  -0.500000   0.500000   0.000000 )  

     reciprocal axes: (cart. coord. in units 2 pi/alat)
               b(1) = ( -1.000000 -1.000000  1.000000 )  
               b(2) = (  1.000000  1.000000  1.000000 )  
               b(3) = ( -1.000000  1.000000 -1.000000 )  


     PseudoPot. # 1 for Pd read from file:
     ./pd_pbe_v1.4.uspp.F.UPF
     MD5 check sum: 2d733d2bc2cbfd217af676df1668a4bc
     Pseudo is Ultrasoft + core correction, Zval = 16.0
     Generated by new atomic code, or converted to UPF format
     Using radial grid of  887 points,  6 beta functions with: 
                l(1) =   0
                l(2) =   0
                l(3) =   1
                l(4) =   1
                l(5) =   2
                l(6) =   2
     Q(r) pseudized with  8 coefficients,  rinner =    1.130   1.130   1.130
                                                       1.130   1.130

     atomic species   valence    mass     pseudopotential
        Pd            16.00   106.40000     Pd( 1.00)

     48 Sym. Ops., with inversion, found



   Cartesian axes

     site n.     atom                  positions (alat units)
         1           Pd  tau(   1) = (   0.0000000   0.0000000   0.0000000  )

     number of k points=    16  Marzari-Vanderbilt smearing, width (Ry)=  0.0100
                       cart. coord. in units 2pi/alat
        k(    1) = (   0.0000000   0.0000000   0.0000000), wk =   0.0092593
        k(    2) = (  -0.1666667   0.1666667  -0.1666667), wk =   0.0740741
        k(    3) = (  -0.3333333   0.3333333  -0.3333333), wk =   0.0740741
        k(    4) = (   0.5000000  -0.5000000   0.5000000), wk =   0.0370370
        k(    5) = (   0.0000000   0.3333333   0.0000000), wk =   0.0555556
        k(    6) = (  -0.1666667   0.5000000  -0.1666667), wk =   0.2222222
        k(    7) = (   0.6666667  -0.3333333   0.6666667), wk =   0.2222222
        k(    8) = (   0.5000000  -0.1666667   0.5000000), wk =   0.2222222
        k(    9) = (   0.3333333   0.0000000   0.3333333), wk =   0.1111111
        k(   10) = (   0.0000000   0.6666667   0.0000000), wk =   0.0555556
        k(   11) = (   0.8333333  -0.1666667   0.8333333), wk =   0.2222222
        k(   12) = (   0.6666667  -0.0000000   0.6666667), wk =   0.1111111
        k(   13) = (   0.0000000  -1.0000000   0.0000000), wk =   0.0277778
        k(   14) = (   0.6666667  -0.3333333   1.0000000), wk =   0.2222222
        k(   15) = (   0.5000000  -0.1666667   0.8333333), wk =   0.2222222
        k(   16) = (  -0.3333333  -1.0000000   0.0000000), wk =   0.1111111

     Dense  grid:     2733 G-vectors     FFT dimensions: (  20,  20,  20)

     Estimated max dynamical RAM per process >       6.42 MB

     Estimated total dynamical RAM >      12.83 MB

     Initial potential from superposition of free atoms
     Check: negative starting charge=   -0.084718

     starting charge   15.49999, renormalised to   16.00000

     negative rho (up, down):  8.745E-02 0.000E+00
     Starting wfcs are   12 randomized atomic wfcs

     total cpu time spent up to now is        0.5 secs

     Self-consistent Calculation

     iteration #  1     ecut=    35.00 Ry     beta= 0.70
     Davidson diagonalization with overlap
     ethr =  1.00E-02,  avg # of iterations =  3.6

     negative rho (up, down):  8.694E-02 0.000E+00

     total cpu time spent up to now is        0.7 secs

     total energy              =    -198.25497775 Ry
     Harris-Foulkes estimate   =    -199.01727507 Ry
     estimated scf accuracy    <       1.05552310 Ry

     iteration #  2     ecut=    35.00 Ry     beta= 0.70
     Davidson diagonalization with overlap
     ethr =  6.60E-03,  avg # of iterations =  2.1

     negative rho (up, down):  8.816E-02 0.000E+00

     total cpu time spent up to now is        0.8 secs

     total energy              =    -198.49810893 Ry
     Harris-Foulkes estimate   =    -198.95984691 Ry
     estimated scf accuracy    <       0.90350398 Ry

     iteration #  3     ecut=    35.00 Ry     beta= 0.70
     Davidson diagonalization with overlap
     ethr =  5.65E-03,  avg # of iterations =  2.0

     negative rho (up, down):  8.866E-02 0.000E+00

     total cpu time spent up to now is        0.9 secs

     total energy              =    -198.69834577 Ry
     Harris-Foulkes estimate   =    -198.70112853 Ry
     estimated scf accuracy    <       0.00543915 Ry

     iteration #  4     ecut=    35.00 Ry     beta= 0.70
     Davidson diagonalization with overlap
     ethr =  3.40E-05,  avg # of iterations =  2.0

     negative rho (up, down):  8.886E-02 0.000E+00

     total cpu time spent up to now is        1.1 secs

     total energy              =    -198.69972229 Ry
     Harris-Foulkes estimate   =    -198.69975898 Ry
     estimated scf accuracy    <       0.00008222 Ry

     iteration #  5     ecut=    35.00 Ry     beta= 0.70
     Davidson diagonalization with overlap
     ethr =  5.14E-07,  avg # of iterations =  2.0

     negative rho (up, down):  8.890E-02 0.000E+00

     total cpu time spent up to now is        1.2 secs

     total energy              =    -198.69973428 Ry
     Harris-Foulkes estimate   =    -198.69973516 Ry
     estimated scf accuracy    <       0.00000177 Ry

     iteration #  6     ecut=    35.00 Ry     beta= 0.70
     Davidson diagonalization with overlap
     ethr =  1.11E-08,  avg # of iterations =  2.0

     negative rho (up, down):  8.890E-02 0.000E+00

     total cpu time spent up to now is        1.3 secs

     End of self-consistent calculation

          k = 0.0000 0.0000 0.0000 (   331 PWs)   bands (ev):

   -30.5159 -30.5159 -30.5159  11.9839  16.3080  16.3080  16.3080  17.9730
    17.9730  37.2821  42.1900  42.1900

          k =-0.1667 0.1667-0.1667 (   332 PWs)   bands (ev):

   -30.6283 -30.5318 -30.5318  12.9312  16.0730  16.5739  16.5739  17.9093
    17.9093  37.0837  38.5463  43.0963

          k =-0.3333 0.3333-0.3333 (   344 PWs)   bands (ev):

   -30.8501 -30.5636 -30.5636  13.9247  16.4687  16.4687  17.4961  18.6024
    18.6024  31.0243  37.4714  42.8698

          k = 0.5000-0.5000 0.5000 (   344 PWs)   bands (ev):

   -30.9589 -30.5794 -30.5794  13.8015  16.2584  16.2584  19.2225  19.2225
    20.2854  26.8034  36.5108  41.2721

          k = 0.0000 0.3333 0.0000 (   335 PWs)   bands (ev):

   -30.6246 -30.5575 -30.5575  13.2491  15.6380  16.9268  16.9268  17.3587
    18.2601  38.5155  39.3968  40.3656

          k =-0.1667 0.5000-0.1667 (   335 PWs)   bands (ev):

   -30.7873 -30.5949 -30.5940  14.4022  15.4987  16.5037  17.1834  18.8191
    18.8475  33.6126  38.0978  38.7247

          k = 0.6667-0.3333 0.6667 (   335 PWs)   bands (ev):

   -30.9142 -30.6443 -30.6049  14.3735  15.8153  16.8883  17.0534  19.2681
    22.4051  27.5947  36.1951  38.7167

          k = 0.5000-0.1667 0.5000 (   347 PWs)   bands (ev):

   -30.8796 -30.6590 -30.5795  14.5765  15.9738  16.8556  16.8616  18.4269
    21.5198  29.5145  35.3600  39.1103

          k = 0.3333 0.0000 0.3333 (   341 PWs)   bands (ev):

   -30.7352 -30.6048 -30.5428  14.2080  15.6519  16.5987  17.1141  17.3450
    19.0578  35.4087  36.3212  41.9005

          k = 0.0000 0.6667 0.0000 (   335 PWs)   bands (ev):

   -30.8340 -30.6403 -30.6403  14.2125  14.4856  18.4862  18.4862  18.8677
    18.9177  35.4199  35.4199  35.5343

          k = 0.8333-0.1667 0.8333 (   338 PWs)   bands (ev):

   -30.8900 -30.7081 -30.6560  14.1814  14.5699  17.7636  18.3741  19.3749
    23.2043  30.3566  32.3745  34.7707

          k = 0.6667-0.0000 0.6667 (   347 PWs)   bands (ev):

   -30.8166 -30.8145 -30.6259  14.7410  15.5146  16.4974  17.8265  18.7455
    25.4323  28.4454  30.5966  37.4848

          k = 0.0000-1.0000 0.0000 (   342 PWs)   bands (ev):

   -30.9350 -30.6816 -30.6816  13.6891  13.9776  19.1927  19.5493  19.5493
    22.6823  30.3184  32.8903  32.8903

          k = 0.6667-0.3333 1.0000 (   343 PWs)   bands (ev):

   -30.8471 -30.6988 -30.6178  15.0881  15.1060  16.1320  18.1485  18.4716
    21.9063  32.4056  32.6585  36.0872

          k = 0.5000-0.1667 0.8333 (   346 PWs)   bands (ev):

   -30.8616 -30.7521 -30.6432  15.1366  15.2388  16.1910  17.6866  19.1360
    25.8652  27.1378  33.3259  33.7670

          k =-0.3333-1.0000 0.0000 (   344 PWs)   bands (ev):

   -30.8720 -30.7454 -30.6840  14.4366  14.7810  17.0688  18.2870  19.5516
    26.0654  30.0987  30.5647  31.4417

     the Fermi energy is    19.2376 ev

!    total energy              =    -198.69973477 Ry
     Harris-Foulkes estimate   =    -198.69973482 Ry
     estimated scf accuracy    <       0.00000006 Ry

     The total energy is the sum of the following terms:

     one-electron contribution =     -41.28909912 Ry
     hartree contribution      =      34.74626304 Ry
     xc contribution           =     -31.37238771 Ry
     ewald contribution        =    -160.78420429 Ry
     smearing contrib. (-TS)   =      -0.00030669 Ry

     convergence has been achieved in   6 iterations

     Writing output data file Pd-kp-conv.save/
 
     init_run     :      0.36s CPU      0.39s WALL (       1 calls)
     electrons    :      0.79s CPU      1.20s WALL (       1 calls)

     Called by init_run:
     wfcinit      :      0.04s CPU      0.05s WALL (       1 calls)
     potinit      :      0.00s CPU      0.01s WALL (       1 calls)
     hinit0       :      0.31s CPU      0.31s WALL (       1 calls)

     Called by electrons:
     c_bands      :      0.62s CPU      0.64s WALL (       6 calls)
     sum_band     :      0.13s CPU      0.14s WALL (       6 calls)
     v_of_rho     :      0.02s CPU      0.02s WALL (       7 calls)
     newd         :      0.03s CPU      0.04s WALL (       7 calls)
     mix_rho      :      0.00s CPU      0.00s WALL (       6 calls)

     Called by c_bands:
     init_us_2    :      0.02s CPU      0.02s WALL (     208 calls)
     cegterg      :      0.57s CPU      0.59s WALL (      96 calls)

     Called by sum_band:
     sum_band:bec :      0.00s CPU      0.00s WALL (      96 calls)
     addusdens    :      0.03s CPU      0.03s WALL (       6 calls)

     Called by *egterg:
     h_psi        :      0.45s CPU      0.48s WALL (     331 calls)
     s_psi        :      0.01s CPU      0.01s WALL (     331 calls)
     g_psi        :      0.01s CPU      0.01s WALL (     219 calls)
     cdiaghg      :      0.09s CPU      0.09s WALL (     315 calls)

     Called by h_psi:
     h_psi:pot    :      0.45s CPU      0.47s WALL (     331 calls)
     h_psi:calbec :      0.01s CPU      0.01s WALL (     331 calls)
     vloc_psi     :      0.43s CPU      0.45s WALL (     331 calls)
     add_vuspsi   :      0.01s CPU      0.01s WALL (     331 calls)

     General routines
     calbec       :      0.01s CPU      0.02s WALL (     427 calls)
     fft          :      0.01s CPU      0.01s WALL (      78 calls)
     ffts         :      0.00s CPU      0.00s WALL (       6 calls)
     fftw         :      0.43s CPU      0.46s WALL (    7228 calls)
 
     Parallel routines
     fft_scatt_xy :      0.08s CPU      0.08s WALL (    7312 calls)
     fft_scatt_yz :      0.11s CPU      0.12s WALL (    7312 calls)
 
     PWSCF        :     1.23s CPU         1.78s WALL

 
   This run was terminated on:  20:52:38   2Dec2021            

=------------------------------------------------------------------------------=
   JOB DONE.
=------------------------------------------------------------------------------=
