
     Program PWSCF v.6.3 starts on  2Dec2021 at 20:52:47 

     This program is part of the open-source Quantum ESPRESSO suite
     for quantum simulation of materials; please cite
         "P. Giannozzi et al., J. Phys.:Condens. Matter 21 395502 (2009);
         "P. Giannozzi et al., J. Phys.:Condens. Matter 29 465901 (2017);
          URL http://www.quantum-espresso.org", 
     in publications or presentations arising from this work. More details at
     http://www.quantum-espresso.org/quote

     Parallel version (MPI & OpenMP), running on       2 processor cores
     Number of MPI processes:                 2
     Threads/MPI process:                     1

     MPI processes distributed on     1 nodes
     R & G space division:  proc/nbgrp/npool/nimage =       2
     Reading input from pw-input.in

     Current dimensions of program PWSCF are:
     Max number of different atomic species (ntypx) = 10
     Max number of k-points (npk) =  40000
     Max angular momentum in pseudopotentials (lmaxx) =  3

     Subspace diagonalization in iterative solution of the eigenvalue problem:
     a serial algorithm will be used

 
     Parallelization info
     --------------------
     sticks:   dense  smooth     PW     G-vecs:    dense   smooth      PW
     Min         141     141     48                 1570     1570     322
     Max         142     142     49                 1573     1573     323
     Sum         283     283     97                 3143     3143     645
 

     Title: 
     Pd-kp-conv                                                                 


     bravais-lattice index     =            2
     lattice parameter (alat)  =       7.7000  a.u.
     unit-cell volume          =     114.1333 (a.u.)^3
     number of atoms/cell      =            1
     number of atomic types    =            1
     number of electrons       =        16.00
     number of Kohn-Sham states=           12
     kinetic-energy cutoff     =      35.0000  Ry
     charge density cutoff     =     140.0000  Ry
     convergence threshold     =      1.0E-07
     mixing beta               =       0.7000
     number of iterations used =            8  plain     mixing
     Exchange-correlation      =  SLA  PW   PBX  PBC ( 1  4  3  4 0 0)

     celldm(1)=   7.700000  celldm(2)=   0.000000  celldm(3)=   0.000000
     celldm(4)=   0.000000  celldm(5)=   0.000000  celldm(6)=   0.000000

     crystal axes: (cart. coord. in units of alat)
               a(1) = (  -0.500000   0.000000   0.500000 )  
               a(2) = (   0.000000   0.500000   0.500000 )  
               a(3) = (  -0.500000   0.500000   0.000000 )  

     reciprocal axes: (cart. coord. in units 2 pi/alat)
               b(1) = ( -1.000000 -1.000000  1.000000 )  
               b(2) = (  1.000000  1.000000  1.000000 )  
               b(3) = ( -1.000000  1.000000 -1.000000 )  


     PseudoPot. # 1 for Pd read from file:
     ./pd_pbe_v1.4.uspp.F.UPF
     MD5 check sum: 2d733d2bc2cbfd217af676df1668a4bc
     Pseudo is Ultrasoft + core correction, Zval = 16.0
     Generated by new atomic code, or converted to UPF format
     Using radial grid of  887 points,  6 beta functions with: 
                l(1) =   0
                l(2) =   0
                l(3) =   1
                l(4) =   1
                l(5) =   2
                l(6) =   2
     Q(r) pseudized with  8 coefficients,  rinner =    1.130   1.130   1.130
                                                       1.130   1.130

     atomic species   valence    mass     pseudopotential
        Pd            16.00   106.40000     Pd( 1.00)

     48 Sym. Ops., with inversion, found



   Cartesian axes

     site n.     atom                  positions (alat units)
         1           Pd  tau(   1) = (   0.0000000   0.0000000   0.0000000  )

     number of k points=    16  Marzari-Vanderbilt smearing, width (Ry)=  0.0100
                       cart. coord. in units 2pi/alat
        k(    1) = (   0.0000000   0.0000000   0.0000000), wk =   0.0092593
        k(    2) = (  -0.1666667   0.1666667  -0.1666667), wk =   0.0740741
        k(    3) = (  -0.3333333   0.3333333  -0.3333333), wk =   0.0740741
        k(    4) = (   0.5000000  -0.5000000   0.5000000), wk =   0.0370370
        k(    5) = (   0.0000000   0.3333333   0.0000000), wk =   0.0555556
        k(    6) = (  -0.1666667   0.5000000  -0.1666667), wk =   0.2222222
        k(    7) = (   0.6666667  -0.3333333   0.6666667), wk =   0.2222222
        k(    8) = (   0.5000000  -0.1666667   0.5000000), wk =   0.2222222
        k(    9) = (   0.3333333   0.0000000   0.3333333), wk =   0.1111111
        k(   10) = (   0.0000000   0.6666667   0.0000000), wk =   0.0555556
        k(   11) = (   0.8333333  -0.1666667   0.8333333), wk =   0.2222222
        k(   12) = (   0.6666667  -0.0000000   0.6666667), wk =   0.1111111
        k(   13) = (   0.0000000  -1.0000000   0.0000000), wk =   0.0277778
        k(   14) = (   0.6666667  -0.3333333   1.0000000), wk =   0.2222222
        k(   15) = (   0.5000000  -0.1666667   0.8333333), wk =   0.2222222
        k(   16) = (  -0.3333333  -1.0000000   0.0000000), wk =   0.1111111

     Dense  grid:     3143 G-vectors     FFT dimensions: (  24,  24,  24)

     Estimated max dynamical RAM per process >       7.46 MB

     Estimated total dynamical RAM >      14.91 MB

     Initial potential from superposition of free atoms
     Check: negative starting charge=   -0.079204

     starting charge   15.49999, renormalised to   16.00000

     negative rho (up, down):  8.176E-02 0.000E+00
     Starting wfcs are   12 randomized atomic wfcs

     total cpu time spent up to now is        0.5 secs

     Self-consistent Calculation

     iteration #  1     ecut=    35.00 Ry     beta= 0.70
     Davidson diagonalization with overlap
     ethr =  1.00E-02,  avg # of iterations =  3.6

     negative rho (up, down):  8.049E-02 0.000E+00

     total cpu time spent up to now is        0.8 secs

     total energy              =    -198.09058737 Ry
     Harris-Foulkes estimate   =    -199.06082743 Ry
     estimated scf accuracy    <       1.32901148 Ry

     iteration #  2     ecut=    35.00 Ry     beta= 0.70
     Davidson diagonalization with overlap
     ethr =  8.31E-03,  avg # of iterations =  2.0

     negative rho (up, down):  8.180E-02 0.000E+00

     total cpu time spent up to now is        1.0 secs

     total energy              =    -198.40357573 Ry
     Harris-Foulkes estimate   =    -199.13424768 Ry
     estimated scf accuracy    <       1.50055526 Ry

     iteration #  3     ecut=    35.00 Ry     beta= 0.70
     Davidson diagonalization with overlap
     ethr =  8.31E-03,  avg # of iterations =  2.0

     negative rho (up, down):  8.199E-02 0.000E+00

     total cpu time spent up to now is        1.1 secs

     total energy              =    -198.69486647 Ry
     Harris-Foulkes estimate   =    -198.69656916 Ry
     estimated scf accuracy    <       0.00363676 Ry

     iteration #  4     ecut=    35.00 Ry     beta= 0.70
     Davidson diagonalization with overlap
     ethr =  2.27E-05,  avg # of iterations =  2.6

     negative rho (up, down):  8.213E-02 0.000E+00

     total cpu time spent up to now is        1.3 secs

     total energy              =    -198.69587205 Ry
     Harris-Foulkes estimate   =    -198.69590852 Ry
     estimated scf accuracy    <       0.00008595 Ry

     iteration #  5     ecut=    35.00 Ry     beta= 0.70
     Davidson diagonalization with overlap
     ethr =  5.37E-07,  avg # of iterations =  1.9

     negative rho (up, down):  8.220E-02 0.000E+00

     total cpu time spent up to now is        1.5 secs

     total energy              =    -198.69588967 Ry
     Harris-Foulkes estimate   =    -198.69588972 Ry
     estimated scf accuracy    <       0.00000086 Ry

     iteration #  6     ecut=    35.00 Ry     beta= 0.70
     Davidson diagonalization with overlap
     ethr =  5.38E-09,  avg # of iterations =  2.1

     negative rho (up, down):  8.219E-02 0.000E+00

     total cpu time spent up to now is        1.7 secs

     total energy              =    -198.69588987 Ry
     Harris-Foulkes estimate   =    -198.69589014 Ry
     estimated scf accuracy    <       0.00000069 Ry

     iteration #  7     ecut=    35.00 Ry     beta= 0.70
     Davidson diagonalization with overlap
     ethr =  4.30E-09,  avg # of iterations =  1.8

     negative rho (up, down):  8.219E-02 0.000E+00

     total cpu time spent up to now is        1.8 secs

     End of self-consistent calculation

          k = 0.0000 0.0000 0.0000 (   411 PWs)   bands (ev):

   -34.0131 -34.0131 -34.0131   9.3016  13.1093  13.1093  13.1093  14.3896
    14.3896  33.0358  37.0027  37.0027

          k =-0.1667 0.1667-0.1667 (   387 PWs)   bands (ev):

   -34.0745 -34.0217 -34.0217  10.1367  12.9362  13.3195  13.3195  14.3494
    14.3494  31.8970  34.0207  37.4442

          k =-0.3333 0.3333-0.3333 (   401 PWs)   bands (ev):

   -34.1970 -34.0400 -34.0400  11.1464  13.2440  13.2440  14.1378  14.8799
    14.8799  25.8301  33.0506  36.7553

          k = 0.5000-0.5000 0.5000 (   392 PWs)   bands (ev):

   -34.2573 -34.0487 -34.0487  11.0939  13.0834  13.0834  15.3444  15.3444
    16.7578  21.7318  32.2608  35.5553

          k = 0.0000 0.3333 0.0000 (   399 PWs)   bands (ev):

   -34.0725 -34.0362 -34.0362  10.4168  12.6014  13.5926  13.5926  13.9361
    14.6115  33.7227  34.4696  34.6645

          k =-0.1667 0.5000-0.1667 (   398 PWs)   bands (ev):

   -34.1624 -34.0572 -34.0567  11.5258  12.4879  13.2755  13.7951  15.0399
    15.1309  28.3281  33.0395  33.1399

          k = 0.6667-0.3333 0.6667 (   393 PWs)   bands (ev):

   -34.2329 -34.0846 -34.0631  11.5671  12.7582  13.5721  13.7268  15.3777
    18.2866  22.6248  31.1226  33.0803

          k = 0.5000-0.1667 0.5000 (   404 PWs)   bands (ev):

   -34.2137 -34.0927 -34.0492  11.7157  12.8734  13.5535  13.5833  14.7484
    17.3780  24.4233  30.0894  34.1028

          k = 0.3333 0.0000 0.3333 (   397 PWs)   bands (ev):

   -34.1334 -34.0624 -34.0284  11.2792  12.6132  13.3538  13.7396  13.9270
    15.2441  30.2213  30.8298  36.5027

          k = 0.0000 0.6667 0.0000 (   399 PWs)   bands (ev):

   -34.1885 -34.0822 -34.0822  11.4511  11.7034  14.7937  14.7937  15.0777
    15.3114  30.0889  30.1691  30.1691

          k = 0.8333-0.1667 0.8333 (   402 PWs)   bands (ev):

   -34.2201 -34.1200 -34.0915  11.4632  11.7674  14.2697  14.7110  15.4579
    18.9648  25.4302  27.0346  29.6189

          k = 0.6667-0.0000 0.6667 (   403 PWs)   bands (ev):

   -34.1795 -34.1786 -34.0750  11.9031  12.5154  13.2742  14.3006  14.9870
    20.8989  23.5914  25.3993  31.9114

          k = 0.0000-1.0000 0.0000 (   388 PWs)   bands (ev):

   -34.2446 -34.1054 -34.1054  11.0793  11.3000  15.3226  15.5906  15.5906
    18.8237  24.8698  28.0536  28.0536

          k = 0.6667-0.3333 1.0000 (   407 PWs)   bands (ev):

   -34.1960 -34.1148 -34.0703  12.1694  12.1833  12.9780  14.5530  14.7817
    17.7003  27.2504  27.4082  30.6929

          k = 0.5000-0.1667 0.8333 (   400 PWs)   bands (ev):

   -34.2042 -34.1442 -34.0845  12.2368  12.2726  13.0368  14.1939  15.2825
    21.3720  22.2552  27.9469  28.5842

          k =-0.3333-1.0000 0.0000 (   398 PWs)   bands (ev):

   -34.2102 -34.1407 -34.1068  11.6804  11.9254  13.7244  14.6533  15.5913
    21.5783  24.8027  25.6592  26.4501

     the Fermi energy is    15.3639 ev

!    total energy              =    -198.69588998 Ry
     Harris-Foulkes estimate   =    -198.69588998 Ry
     estimated scf accuracy    <          6.2E-10 Ry

     The total energy is the sum of the following terms:

     one-electron contribution =     -54.15573342 Ry
     hartree contribution      =      39.15653299 Ry
     xc contribution           =     -31.26458484 Ry
     ewald contribution        =    -152.43177811 Ry
     smearing contrib. (-TS)   =      -0.00032660 Ry

     convergence has been achieved in   7 iterations

     Writing output data file Pd-kp-conv.save/
 
     init_run     :      0.40s CPU      0.43s WALL (       1 calls)
     electrons    :      1.20s CPU      1.64s WALL (       1 calls)

     Called by init_run:
     wfcinit      :      0.06s CPU      0.08s WALL (       1 calls)
     potinit      :      0.01s CPU      0.01s WALL (       1 calls)
     hinit0       :      0.32s CPU      0.32s WALL (       1 calls)

     Called by electrons:
     c_bands      :      0.92s CPU      0.98s WALL (       7 calls)
     sum_band     :      0.21s CPU      0.22s WALL (       7 calls)
     v_of_rho     :      0.03s CPU      0.04s WALL (       8 calls)
     newd         :      0.04s CPU      0.05s WALL (       8 calls)
     mix_rho      :      0.00s CPU      0.00s WALL (       7 calls)

     Called by c_bands:
     init_us_2    :      0.02s CPU      0.02s WALL (     240 calls)
     cegterg      :      0.85s CPU      0.91s WALL (     112 calls)

     Called by sum_band:
     sum_band:bec :      0.00s CPU      0.00s WALL (     112 calls)
     addusdens    :      0.04s CPU      0.05s WALL (       7 calls)

     Called by *egterg:
     h_psi        :      0.74s CPU      0.79s WALL (     383 calls)
     s_psi        :      0.01s CPU      0.01s WALL (     383 calls)
     g_psi        :      0.01s CPU      0.01s WALL (     255 calls)
     cdiaghg      :      0.10s CPU      0.10s WALL (     367 calls)

     Called by h_psi:
     h_psi:pot    :      0.74s CPU      0.79s WALL (     383 calls)
     h_psi:calbec :      0.01s CPU      0.02s WALL (     383 calls)
     vloc_psi     :      0.71s CPU      0.76s WALL (     383 calls)
     add_vuspsi   :      0.01s CPU      0.01s WALL (     383 calls)

     General routines
     calbec       :      0.02s CPU      0.02s WALL (     495 calls)
     fft          :      0.01s CPU      0.01s WALL (      89 calls)
     ffts         :      0.00s CPU      0.00s WALL (       7 calls)
     fftw         :      0.72s CPU      0.77s WALL (    8244 calls)
 
     Parallel routines
     fft_scatt_xy :      0.14s CPU      0.15s WALL (    8340 calls)
     fft_scatt_yz :      0.15s CPU      0.16s WALL (    8340 calls)
 
     PWSCF        :     1.67s CPU         2.26s WALL

 
   This run was terminated on:  20:52:49   2Dec2021            

=------------------------------------------------------------------------------=
   JOB DONE.
=------------------------------------------------------------------------------=
