
     Program PWSCF v.6.3 starts on  2Dec2021 at 20:52:57 

     This program is part of the open-source Quantum ESPRESSO suite
     for quantum simulation of materials; please cite
         "P. Giannozzi et al., J. Phys.:Condens. Matter 21 395502 (2009);
         "P. Giannozzi et al., J. Phys.:Condens. Matter 29 465901 (2017);
          URL http://www.quantum-espresso.org", 
     in publications or presentations arising from this work. More details at
     http://www.quantum-espresso.org/quote

     Parallel version (MPI & OpenMP), running on       2 processor cores
     Number of MPI processes:                 2
     Threads/MPI process:                     1

     MPI processes distributed on     1 nodes
     R & G space division:  proc/nbgrp/npool/nimage =       2
     Reading input from pw-input.in

     Current dimensions of program PWSCF are:
     Max number of different atomic species (ntypx) = 10
     Max number of k-points (npk) =  40000
     Max angular momentum in pseudopotentials (lmaxx) =  3

     Subspace diagonalization in iterative solution of the eigenvalue problem:
     a serial algorithm will be used

 
     Parallelization info
     --------------------
     sticks:   dense  smooth     PW     G-vecs:    dense   smooth      PW
     Min         156     156     54                 1763     1763     362
     Max         157     157     55                 1764     1764     363
     Sum         313     313    109                 3527     3527     725
 

     Title: 
     Pd-kp-conv                                                                 


     bravais-lattice index     =            2
     lattice parameter (alat)  =       8.0000  a.u.
     unit-cell volume          =     128.0000 (a.u.)^3
     number of atoms/cell      =            1
     number of atomic types    =            1
     number of electrons       =        16.00
     number of Kohn-Sham states=           12
     kinetic-energy cutoff     =      35.0000  Ry
     charge density cutoff     =     140.0000  Ry
     convergence threshold     =      1.0E-07
     mixing beta               =       0.7000
     number of iterations used =            8  plain     mixing
     Exchange-correlation      =  SLA  PW   PBX  PBC ( 1  4  3  4 0 0)

     celldm(1)=   8.000000  celldm(2)=   0.000000  celldm(3)=   0.000000
     celldm(4)=   0.000000  celldm(5)=   0.000000  celldm(6)=   0.000000

     crystal axes: (cart. coord. in units of alat)
               a(1) = (  -0.500000   0.000000   0.500000 )  
               a(2) = (   0.000000   0.500000   0.500000 )  
               a(3) = (  -0.500000   0.500000   0.000000 )  

     reciprocal axes: (cart. coord. in units 2 pi/alat)
               b(1) = ( -1.000000 -1.000000  1.000000 )  
               b(2) = (  1.000000  1.000000  1.000000 )  
               b(3) = ( -1.000000  1.000000 -1.000000 )  


     PseudoPot. # 1 for Pd read from file:
     ./pd_pbe_v1.4.uspp.F.UPF
     MD5 check sum: 2d733d2bc2cbfd217af676df1668a4bc
     Pseudo is Ultrasoft + core correction, Zval = 16.0
     Generated by new atomic code, or converted to UPF format
     Using radial grid of  887 points,  6 beta functions with: 
                l(1) =   0
                l(2) =   0
                l(3) =   1
                l(4) =   1
                l(5) =   2
                l(6) =   2
     Q(r) pseudized with  8 coefficients,  rinner =    1.130   1.130   1.130
                                                       1.130   1.130

     atomic species   valence    mass     pseudopotential
        Pd            16.00   106.40000     Pd( 1.00)

     48 Sym. Ops., with inversion, found



   Cartesian axes

     site n.     atom                  positions (alat units)
         1           Pd  tau(   1) = (   0.0000000   0.0000000   0.0000000  )

     number of k points=    16  Marzari-Vanderbilt smearing, width (Ry)=  0.0100
                       cart. coord. in units 2pi/alat
        k(    1) = (   0.0000000   0.0000000   0.0000000), wk =   0.0092593
        k(    2) = (  -0.1666667   0.1666667  -0.1666667), wk =   0.0740741
        k(    3) = (  -0.3333333   0.3333333  -0.3333333), wk =   0.0740741
        k(    4) = (   0.5000000  -0.5000000   0.5000000), wk =   0.0370370
        k(    5) = (   0.0000000   0.3333333   0.0000000), wk =   0.0555556
        k(    6) = (  -0.1666667   0.5000000  -0.1666667), wk =   0.2222222
        k(    7) = (   0.6666667  -0.3333333   0.6666667), wk =   0.2222222
        k(    8) = (   0.5000000  -0.1666667   0.5000000), wk =   0.2222222
        k(    9) = (   0.3333333   0.0000000   0.3333333), wk =   0.1111111
        k(   10) = (   0.0000000   0.6666667   0.0000000), wk =   0.0555556
        k(   11) = (   0.8333333  -0.1666667   0.8333333), wk =   0.2222222
        k(   12) = (   0.6666667  -0.0000000   0.6666667), wk =   0.1111111
        k(   13) = (   0.0000000  -1.0000000   0.0000000), wk =   0.0277778
        k(   14) = (   0.6666667  -0.3333333   1.0000000), wk =   0.2222222
        k(   15) = (   0.5000000  -0.1666667   0.8333333), wk =   0.2222222
        k(   16) = (  -0.3333333  -1.0000000   0.0000000), wk =   0.1111111

     Dense  grid:     3527 G-vectors     FFT dimensions: (  24,  24,  24)

     Estimated max dynamical RAM per process >       8.21 MB

     Estimated total dynamical RAM >      16.42 MB

     Check: negative/imaginary core charge=   -0.000001    0.000000

     Initial potential from superposition of free atoms
     Check: negative starting charge=   -0.080332

     starting charge   15.49999, renormalised to   16.00000

     negative rho (up, down):  8.292E-02 0.000E+00
     Starting wfcs are   12 randomized atomic wfcs

     total cpu time spent up to now is        0.5 secs

     Self-consistent Calculation

     iteration #  1     ecut=    35.00 Ry     beta= 0.70
     Davidson diagonalization with overlap
     ethr =  1.00E-02,  avg # of iterations =  3.3

     negative rho (up, down):  8.035E-02 0.000E+00

     total cpu time spent up to now is        0.8 secs

     total energy              =    -197.95346159 Ry
     Harris-Foulkes estimate   =    -199.07199818 Ry
     estimated scf accuracy    <       1.52161722 Ry

     iteration #  2     ecut=    35.00 Ry     beta= 0.70
     Davidson diagonalization with overlap
     ethr =  9.51E-03,  avg # of iterations =  2.0

     negative rho (up, down):  8.254E-02 0.000E+00

     total cpu time spent up to now is        1.0 secs

     total energy              =    -198.27850229 Ry
     Harris-Foulkes estimate   =    -199.27091452 Ry
     estimated scf accuracy    <       2.12478427 Ry

     iteration #  3     ecut=    35.00 Ry     beta= 0.70
     Davidson diagonalization with overlap
     ethr =  9.51E-03,  avg # of iterations =  2.0

     negative rho (up, down):  8.266E-02 0.000E+00

     total cpu time spent up to now is        1.2 secs

     total energy              =    -198.67862792 Ry
     Harris-Foulkes estimate   =    -198.67954574 Ry
     estimated scf accuracy    <       0.00207924 Ry

     iteration #  4     ecut=    35.00 Ry     beta= 0.70
     Davidson diagonalization with overlap
     ethr =  1.30E-05,  avg # of iterations =  2.9

     negative rho (up, down):  8.277E-02 0.000E+00

     total cpu time spent up to now is        1.4 secs

     total energy              =    -198.67929764 Ry
     Harris-Foulkes estimate   =    -198.67930532 Ry
     estimated scf accuracy    <       0.00001923 Ry

     iteration #  5     ecut=    35.00 Ry     beta= 0.70
     Davidson diagonalization with overlap
     ethr =  1.20E-07,  avg # of iterations =  2.0

     negative rho (up, down):  8.281E-02 0.000E+00

     total cpu time spent up to now is        1.6 secs

     total energy              =    -198.67930209 Ry
     Harris-Foulkes estimate   =    -198.67930220 Ry
     estimated scf accuracy    <       0.00000053 Ry

     iteration #  6     ecut=    35.00 Ry     beta= 0.70
     Davidson diagonalization with overlap
     ethr =  3.29E-09,  avg # of iterations =  2.0

     negative rho (up, down):  8.281E-02 0.000E+00

     total cpu time spent up to now is        1.8 secs

     End of self-consistent calculation

          k = 0.0000 0.0000 0.0000 (   459 PWs)   bands (ev):

   -36.1195 -36.1195 -36.1195   7.6806  11.1388  11.1388  11.1388  12.1994
    12.1994  30.2877  33.6006  33.6006

          k =-0.1667 0.1667-0.1667 (   456 PWs)   bands (ev):

   -36.1593 -36.1253 -36.1253   8.4453  10.9999  11.3148  11.3148  12.1672
    12.1672  28.5552  31.0929  33.7460

          k =-0.3333 0.3333-0.3333 (   450 PWs)   bands (ev):

   -36.2378 -36.1374 -36.1374   9.4388  11.2546  11.2546  12.0839  12.6077
    12.6077  22.6199  30.2083  32.8737

          k = 0.5000-0.5000 0.5000 (   434 PWs)   bands (ev):

   -36.2770 -36.1428 -36.1428   9.4198  11.1235  11.1235  12.9861  12.9861
    14.6070  18.6368  29.5119  31.8885

          k = 0.0000 0.3333 0.0000 (   451 PWs)   bands (ev):

   -36.1580 -36.1344 -36.1344   8.7019  10.7226  11.5422  11.5422  11.8327
    12.3836  31.0243  31.0250  31.2815

          k =-0.1667 0.5000-0.1667 (   445 PWs)   bands (ev):

   -36.2157 -36.1483 -36.1482   9.7620  10.6289  11.2851  11.7128  12.7362
    12.8629  25.0243  29.4664  29.9662

          k = 0.6667-0.3333 0.6667 (   448 PWs)   bands (ev):

   -36.2615 -36.1664 -36.1526   9.8324  10.8626  11.5300  11.6831  13.0132
    15.7789  19.5865  27.8269  29.5262

          k = 0.5000-0.1667 0.5000 (   446 PWs)   bands (ev):

   -36.2487 -36.1714 -36.1434   9.9536  10.9536  11.5162  11.5737  12.5012
    14.8639  21.2983  26.7480  30.9185

          k = 0.3333 0.0000 0.3333 (   457 PWs)   bands (ev):

   -36.1972 -36.1517 -36.1298   9.5009  10.7324  11.3525  11.6654  11.8239
    12.9218  26.8971  27.3919  33.1001

          k = 0.0000 0.6667 0.0000 (   444 PWs)   bands (ev):

   -36.2327 -36.1651 -36.1651   9.7417   9.9701  12.5384  12.5384  12.7657
    13.1098  26.6377  26.8774  26.8774

          k = 0.8333-0.1667 0.8333 (   445 PWs)   bands (ev):

   -36.2534 -36.1889 -36.1710   9.7690  10.0279  12.1282  12.4725  13.0781
    16.3855  22.3460  23.7480  26.3890

          k = 0.6667-0.0000 0.6667 (   443 PWs)   bands (ev):

   -36.2271 -36.2265 -36.1602  10.1379  10.6654  11.2937  12.1378  12.6966
    18.1168  20.6349  22.1790  28.4235

          k = 0.0000-1.0000 0.0000 (   444 PWs)   bands (ev):

   -36.2691 -36.1802 -36.1802   9.4466   9.6284  12.9659  13.1875  13.1875
    16.4692  21.5107  25.0126  25.0126

          k = 0.6667-0.3333 1.0000 (   452 PWs)   bands (ev):

   -36.2376 -36.1857 -36.1570  10.3648  10.3735  11.0367  12.3511  12.5289
    15.1465  24.0179  24.1724  27.2993

          k = 0.5000-0.1667 0.8333 (   442 PWs)   bands (ev):

   -36.2431 -36.2045 -36.1660  10.4342  10.4427  11.0964  12.0511  12.9373
    18.6337  19.2548  24.6000  25.3569

          k =-0.3333-1.0000 0.0000 (   444 PWs)   bands (ev):

   -36.2472 -36.2025 -36.1804   9.9627  10.1568  11.6717  12.4274  13.1875
    18.8471  21.5141  22.6256  23.3567

     the Fermi energy is    13.0160 ev

!    total energy              =    -198.67930220 Ry
     Harris-Foulkes estimate   =    -198.67930221 Ry
     estimated scf accuracy    <       0.00000001 Ry

     The total energy is the sum of the following terms:

     one-electron contribution =     -63.19744301 Ry
     hartree contribution      =      42.45237345 Ry
     xc contribution           =     -31.21829497 Ry
     ewald contribution        =    -146.71558644 Ry
     smearing contrib. (-TS)   =      -0.00035123 Ry

     convergence has been achieved in   6 iterations

     Writing output data file Pd-kp-conv.save/
 
     init_run     :      0.41s CPU      0.45s WALL (       1 calls)
     electrons    :      1.12s CPU      1.56s WALL (       1 calls)

     Called by init_run:
     wfcinit      :      0.06s CPU      0.08s WALL (       1 calls)
     potinit      :      0.01s CPU      0.02s WALL (       1 calls)
     hinit0       :      0.32s CPU      0.33s WALL (       1 calls)

     Called by electrons:
     c_bands      :      0.87s CPU      0.92s WALL (       6 calls)
     sum_band     :      0.19s CPU      0.21s WALL (       6 calls)
     v_of_rho     :      0.03s CPU      0.03s WALL (       7 calls)
     newd         :      0.05s CPU      0.05s WALL (       7 calls)
     mix_rho      :      0.00s CPU      0.00s WALL (       6 calls)

     Called by c_bands:
     init_us_2    :      0.02s CPU      0.02s WALL (     208 calls)
     cegterg      :      0.81s CPU      0.86s WALL (      96 calls)

     Called by sum_band:
     sum_band:bec :      0.00s CPU      0.00s WALL (      96 calls)
     addusdens    :      0.04s CPU      0.05s WALL (       6 calls)

     Called by *egterg:
     h_psi        :      0.70s CPU      0.75s WALL (     339 calls)
     s_psi        :      0.01s CPU      0.01s WALL (     339 calls)
     g_psi        :      0.01s CPU      0.01s WALL (     227 calls)
     cdiaghg      :      0.09s CPU      0.09s WALL (     323 calls)

     Called by h_psi:
     h_psi:pot    :      0.70s CPU      0.74s WALL (     339 calls)
     h_psi:calbec :      0.01s CPU      0.02s WALL (     339 calls)
     vloc_psi     :      0.67s CPU      0.71s WALL (     339 calls)
     add_vuspsi   :      0.01s CPU      0.01s WALL (     339 calls)

     General routines
     calbec       :      0.02s CPU      0.02s WALL (     435 calls)
     fft          :      0.01s CPU      0.01s WALL (      78 calls)
     ffts         :      0.00s CPU      0.00s WALL (       6 calls)
     fftw         :      0.68s CPU      0.73s WALL (    7314 calls)
 
     Parallel routines
     fft_scatt_xy :      0.13s CPU      0.14s WALL (    7398 calls)
     fft_scatt_yz :      0.15s CPU      0.16s WALL (    7398 calls)
 
     PWSCF        :     1.63s CPU         2.20s WALL

 
   This run was terminated on:  20:52:59   2Dec2021            

=------------------------------------------------------------------------------=
   JOB DONE.
=------------------------------------------------------------------------------=
