
     Program PWSCF v.6.3 starts on  2Dec2021 at 20:30:37 

     This program is part of the open-source Quantum ESPRESSO suite
     for quantum simulation of materials; please cite
         "P. Giannozzi et al., J. Phys.:Condens. Matter 21 395502 (2009);
         "P. Giannozzi et al., J. Phys.:Condens. Matter 29 465901 (2017);
          URL http://www.quantum-espresso.org", 
     in publications or presentations arising from this work. More details at
     http://www.quantum-espresso.org/quote

     Parallel version (MPI & OpenMP), running on       2 processor cores
     Number of MPI processes:                 2
     Threads/MPI process:                     1

     MPI processes distributed on     1 nodes
     R & G space division:  proc/nbgrp/npool/nimage =       2
     Reading input from pw-input.in

     Current dimensions of program PWSCF are:
     Max number of different atomic species (ntypx) = 10
     Max number of k-points (npk) =  40000
     Max angular momentum in pseudopotentials (lmaxx) =  3

     Subspace diagonalization in iterative solution of the eigenvalue problem:
     a serial algorithm will be used

 
     Parallelization info
     --------------------
     sticks:   dense  smooth     PW     G-vecs:    dense   smooth      PW
     Min         126     126     42                 1318     1318     267
     Max         127     127     43                 1319     1319     270
     Sum         253     253     85                 2637     2637     537
 

     Title: 
     Pd-kp-conv                                                                 


     bravais-lattice index     =            2
     lattice parameter (alat)  =       7.2000  a.u.
     unit-cell volume          =      93.3120 (a.u.)^3
     number of atoms/cell      =            1
     number of atomic types    =            1
     number of electrons       =        16.00
     number of Kohn-Sham states=           12
     kinetic-energy cutoff     =      35.0000  Ry
     charge density cutoff     =     140.0000  Ry
     convergence threshold     =      1.0E-07
     mixing beta               =       0.7000
     number of iterations used =            8  plain     mixing
     Exchange-correlation      =  SLA  PW   PBX  PBC ( 1  4  3  4 0 0)

     celldm(1)=   7.200000  celldm(2)=   0.000000  celldm(3)=   0.000000
     celldm(4)=   0.000000  celldm(5)=   0.000000  celldm(6)=   0.000000

     crystal axes: (cart. coord. in units of alat)
               a(1) = (  -0.500000   0.000000   0.500000 )  
               a(2) = (   0.000000   0.500000   0.500000 )  
               a(3) = (  -0.500000   0.500000   0.000000 )  

     reciprocal axes: (cart. coord. in units 2 pi/alat)
               b(1) = ( -1.000000 -1.000000  1.000000 )  
               b(2) = (  1.000000  1.000000  1.000000 )  
               b(3) = ( -1.000000  1.000000 -1.000000 )  


     PseudoPot. # 1 for Pd read from file:
     ./pd_pbe_v1.4.uspp.F.UPF
     MD5 check sum: 2d733d2bc2cbfd217af676df1668a4bc
     Pseudo is Ultrasoft + core correction, Zval = 16.0
     Generated by new atomic code, or converted to UPF format
     Using radial grid of  887 points,  6 beta functions with: 
                l(1) =   0
                l(2) =   0
                l(3) =   1
                l(4) =   1
                l(5) =   2
                l(6) =   2
     Q(r) pseudized with  8 coefficients,  rinner =    1.130   1.130   1.130
                                                       1.130   1.130

     atomic species   valence    mass     pseudopotential
        Pd            16.00   106.40000     Pd( 1.00)

     48 Sym. Ops., with inversion, found



   Cartesian axes

     site n.     atom                  positions (alat units)
         1           Pd  tau(   1) = (   0.0000000   0.0000000   0.0000000  )

     number of k points=    35  Marzari-Vanderbilt smearing, width (Ry)=  0.0050
                       cart. coord. in units 2pi/alat
        k(    1) = (   0.0000000   0.0000000   0.0000000), wk =   0.0027435
        k(    2) = (  -0.1111111   0.1111111  -0.1111111), wk =   0.0219479
        k(    3) = (  -0.2222222   0.2222222  -0.2222222), wk =   0.0219479
        k(    4) = (  -0.3333333   0.3333333  -0.3333333), wk =   0.0219479
        k(    5) = (  -0.4444444   0.4444444  -0.4444444), wk =   0.0219479
        k(    6) = (   0.0000000   0.2222222   0.0000000), wk =   0.0164609
        k(    7) = (  -0.1111111   0.3333333  -0.1111111), wk =   0.0658436
        k(    8) = (  -0.2222222   0.4444444  -0.2222222), wk =   0.0658436
        k(    9) = (  -0.3333333   0.5555556  -0.3333333), wk =   0.0658436
        k(   10) = (   0.5555556  -0.3333333   0.5555556), wk =   0.0658436
        k(   11) = (   0.4444444  -0.2222222   0.4444444), wk =   0.0658436
        k(   12) = (   0.3333333  -0.1111111   0.3333333), wk =   0.0658436
        k(   13) = (   0.2222222  -0.0000000   0.2222222), wk =   0.0329218
        k(   14) = (   0.0000000   0.4444444   0.0000000), wk =   0.0164609
        k(   15) = (  -0.1111111   0.5555556  -0.1111111), wk =   0.0658436
        k(   16) = (  -0.2222222   0.6666667  -0.2222222), wk =   0.0658436
        k(   17) = (   0.6666667  -0.2222222   0.6666667), wk =   0.0658436
        k(   18) = (   0.5555556  -0.1111111   0.5555556), wk =   0.0658436
        k(   19) = (   0.4444444   0.0000000   0.4444444), wk =   0.0329218
        k(   20) = (   0.0000000   0.6666667   0.0000000), wk =   0.0164609
        k(   21) = (  -0.1111111   0.7777778  -0.1111111), wk =   0.0658436
        k(   22) = (   0.7777778  -0.1111111   0.7777778), wk =   0.0658436
        k(   23) = (   0.6666667  -0.0000000   0.6666667), wk =   0.0329218
        k(   24) = (   0.0000000   0.8888889   0.0000000), wk =   0.0164609
        k(   25) = (   0.8888889   0.0000000   0.8888889), wk =   0.0329218
        k(   26) = (  -0.2222222   0.4444444   0.0000000), wk =   0.0658436
        k(   27) = (  -0.3333333   0.5555556  -0.1111111), wk =   0.1316872
        k(   28) = (   0.5555556  -0.3333333   0.7777778), wk =   0.1316872
        k(   29) = (  -0.2222222   0.6666667   0.0000000), wk =   0.0658436
        k(   30) = (   0.6666667  -0.2222222   0.8888889), wk =   0.1316872
        k(   31) = (   0.5555556  -0.1111111   0.7777778), wk =   0.1316872
        k(   32) = (   0.4444444   0.0000000   0.6666667), wk =   0.0658436
        k(   33) = (   0.7777778  -0.1111111   1.0000000), wk =   0.0658436
        k(   34) = (   0.6666667  -0.0000000   0.8888889), wk =   0.0658436
        k(   35) = (   0.5555556  -0.1111111   1.0000000), wk =   0.0658436

     Dense  grid:     2637 G-vectors     FFT dimensions: (  20,  20,  20)

     Estimated max dynamical RAM per process >       6.79 MB

     Estimated total dynamical RAM >      13.59 MB

     Initial potential from superposition of free atoms
     Check: negative starting charge=   -0.084445

     starting charge   15.49999, renormalised to   16.00000

     negative rho (up, down):  8.717E-02 0.000E+00
     Starting wfcs are   12 randomized atomic wfcs

     total cpu time spent up to now is        0.6 secs

     Self-consistent Calculation

     iteration #  1     ecut=    35.00 Ry     beta= 0.70
     Davidson diagonalization with overlap
     ethr =  1.00E-02,  avg # of iterations =  3.6

     negative rho (up, down):  8.683E-02 0.000E+00

     total cpu time spent up to now is        0.9 secs

     total energy              =    -198.27966758 Ry
     Harris-Foulkes estimate   =    -198.99271937 Ry
     estimated scf accuracy    <       0.99111505 Ry

     iteration #  2     ecut=    35.00 Ry     beta= 0.70
     Davidson diagonalization with overlap
     ethr =  6.19E-03,  avg # of iterations =  2.0

     negative rho (up, down):  8.807E-02 0.000E+00

     total cpu time spent up to now is        1.2 secs

     total energy              =    -198.52600484 Ry
     Harris-Foulkes estimate   =    -198.92107458 Ry
     estimated scf accuracy    <       0.75767226 Ry

     iteration #  3     ecut=    35.00 Ry     beta= 0.70
     Davidson diagonalization with overlap
     ethr =  4.74E-03,  avg # of iterations =  2.0

     negative rho (up, down):  8.850E-02 0.000E+00

     total cpu time spent up to now is        1.4 secs

     total energy              =    -198.69361501 Ry
     Harris-Foulkes estimate   =    -198.69494386 Ry
     estimated scf accuracy    <       0.00272520 Ry

     iteration #  4     ecut=    35.00 Ry     beta= 0.70
     Davidson diagonalization with overlap
     ethr =  1.70E-05,  avg # of iterations =  2.1

     negative rho (up, down):  8.867E-02 0.000E+00

     total cpu time spent up to now is        1.7 secs

     total energy              =    -198.69436212 Ry
     Harris-Foulkes estimate   =    -198.69437579 Ry
     estimated scf accuracy    <       0.00003326 Ry

     iteration #  5     ecut=    35.00 Ry     beta= 0.70
     Davidson diagonalization with overlap
     ethr =  2.08E-07,  avg # of iterations =  2.0

     negative rho (up, down):  8.871E-02 0.000E+00

     total cpu time spent up to now is        2.0 secs

     total energy              =    -198.69436821 Ry
     Harris-Foulkes estimate   =    -198.69436816 Ry
     estimated scf accuracy    <       0.00000027 Ry

     iteration #  6     ecut=    35.00 Ry     beta= 0.70
     Davidson diagonalization with overlap
     ethr =  1.67E-09,  avg # of iterations =  2.1

     negative rho (up, down):  8.872E-02 0.000E+00

     total cpu time spent up to now is        2.2 secs

     End of self-consistent calculation

          k = 0.0000 0.0000 0.0000 (   331 PWs)   bands (ev):

   -29.4174 -29.4174 -29.4174  12.7727  17.2743  17.2743  17.2743  19.0665
    19.0665  38.4580  43.6243  43.6243

          k =-0.1111 0.1111-0.1111 (   329 PWs)   bands (ev):

   -29.4791 -29.4259 -29.4259  13.2376  17.1190  17.4314  17.4314  19.0004
    19.0004  38.8768  41.0431  44.1287

          k =-0.2222 0.2222-0.2222 (   320 PWs)   bands (ev):

   -29.6338 -29.4475 -29.4475  14.3049  17.0822  17.6131  17.6131  19.1135
    19.1135  36.7204  39.6700  45.1835

          k =-0.3333 0.3333-0.3333 (   332 PWs)   bands (ev):

   -29.8074 -29.4723 -29.4723  14.7498  17.4450  17.4450  18.4891  19.7382
    19.7382  32.5361  38.7094  44.6078

          k =-0.4444 0.4444-0.4444 (   335 PWs)   bands (ev):

   -29.9190 -29.4884 -29.4884  14.6357  17.2480  17.2480  20.3193  20.3193
    20.8067  28.9725  37.8130  43.1051

          k = 0.0000 0.2222 0.0000 (   327 PWs)   bands (ev):

   -29.4771 -29.4399 -29.4399  13.3935  16.9257  17.5733  17.5733  18.7137
    19.2088  39.1349  41.7608  43.0495

          k =-0.1111 0.3333-0.1111 (   321 PWs)   bands (ev):

   -29.5918 -29.4657 -29.4573  14.3083  16.6269  17.7569  17.8634  18.6957
    19.3994  38.3237  39.9792  42.4555

          k =-0.2222 0.4444-0.2222 (   324 PWs)   bands (ev):

   -29.7525 -29.4913 -29.4852  15.0396  17.0750  17.3900  17.8319  19.8532
    19.9145  34.1583  39.2968  41.8145

          k =-0.3333 0.5556-0.3333 (   332 PWs)   bands (ev):

   -29.8781 -29.5160 -29.5047  14.9717  17.0424  17.6071  18.3883  20.3939
    21.8745  30.0586  38.2293  41.3988

          k = 0.5556-0.3333 0.5556 (   326 PWs)   bands (ev):

   -29.9122 -29.5343 -29.4996  14.9289  16.9770  17.4939  18.9808  20.2881
    23.1049  28.3818  37.8111  40.9556

          k = 0.4444-0.2222 0.4444 (   326 PWs)   bands (ev):

   -29.8415 -29.5310 -29.4784  15.0712  17.1765  17.6028  18.2152  19.5809
    21.5400  31.3904  38.1308  41.1682

          k = 0.3333-0.1111 0.3333 (   324 PWs)   bands (ev):

   -29.6990 -29.5053 -29.4510  14.9700  16.8562  17.5802  17.8510  18.7516
    20.1382  35.6021  38.8354  42.7834

          k = 0.2222-0.0000 0.2222 (   325 PWs)   bands (ev):

   -29.5550 -29.4641 -29.4304  13.9463  16.8409  17.6574  17.6750  18.6603
    19.3162  39.1513  39.2757  42.9831

          k = 0.0000 0.4444 0.0000 (   323 PWs)   bands (ev):

   -29.6256 -29.4968 -29.4968  14.7970  16.1233  18.2687  18.4203  18.4203
    19.5832  39.9471  40.3844  40.3844

          k =-0.1111 0.5556-0.1111 (   323 PWs)   bands (ev):

   -29.7336 -29.5324 -29.5266  15.3110  15.8830  17.8978  18.6761  19.9954
    20.0025  36.1512  39.0147  39.1457

          k =-0.2222 0.6667-0.2222 (   327 PWs)   bands (ev):

   -29.8300 -29.5822 -29.5410  15.3272  16.2700  17.6693  18.4915  20.4684
    22.6285  31.7323  37.3595  38.6164

          k = 0.6667-0.2222 0.6667 (   320 PWs)   bands (ev):

   -29.8627 -29.6302 -29.5332  15.4495  16.4802  17.7706  18.2737  20.3260
    25.4632  28.3958  35.8356  39.6130

          k = 0.5556-0.1111 0.5556 (   324 PWs)   bands (ev):

   -29.8280 -29.6446 -29.5071  15.7938  16.6617  17.4508  18.2069  19.5720
    24.0535  30.7781  34.9811  40.6087

          k = 0.4444 0.0000 0.4444 (   323 PWs)   bands (ev):

   -29.7641 -29.5949 -29.4745  15.9869  16.5079  17.2057  18.2835  18.7061
    21.8681  34.6654  35.4159  41.4534

          k = 0.0000 0.6667 0.0000 (   323 PWs)   bands (ev):

   -29.7886 -29.5617 -29.5617  15.0337  15.3190  19.6081  19.6081  19.9846
    20.0292  36.9276  36.9276  37.0921

          k =-0.1111 0.7778-0.1111 (   324 PWs)   bands (ev):

   -29.8457 -29.6058 -29.5801  14.9444  15.2320  19.1777  19.6253  20.5048
    22.7698  33.7160  34.9268  36.0669

          k = 0.7778-0.1111 0.7778 (   329 PWs)   bands (ev):

   -29.8418 -29.6821 -29.5733  15.1192  15.6952  18.4006  19.3294  20.4447
    26.2698  29.9667  33.0514  36.8562

          k = 0.6667-0.0000 0.6667 (   323 PWs)   bands (ev):

   -29.7673 -29.7651 -29.5444  15.5905  16.4148  17.4675  18.8999  19.8912
    26.7680  29.8813  32.1109  39.0905

          k = 0.0000 0.8889 0.0000 (   326 PWs)   bands (ev):

   -29.8911 -29.6038 -29.6038  14.5476  14.8418  20.3353  20.6037  20.6037
    23.1014  32.8067  34.6029  34.6029

          k = 0.8889 0.0000 0.8889 (   326 PWs)   bands (ev):

   -29.8876 -29.6359 -29.6011  14.6568  14.9853  19.8636  20.1257  20.6567
    25.0217  31.8131  32.7692  34.9072

          k =-0.2222 0.4444 0.0000 (   323 PWs)   bands (ev):

   -29.6832 -29.5248 -29.4726  15.2214  16.2805  17.4913  18.4225  18.7616
    20.1823  37.1032  38.0459  41.8195

          k =-0.3333 0.5556-0.1111 (   326 PWs)   bands (ev):

   -29.7932 -29.5754 -29.4989  15.6011  16.7359  17.0313  18.3679  19.5537
    21.8651  33.1698  37.1144  39.7792

          k = 0.5556-0.3333 0.7778 (   324 PWs)   bands (ev):

   -29.8673 -29.5992 -29.5216  15.4654  16.5860  17.7522  18.1382  20.1960
    24.2270  29.2237  37.1374  38.4082

          k =-0.2222 0.6667 0.0000 (   325 PWs)   bands (ev):

   -29.7986 -29.5936 -29.5466  15.4817  15.6215  17.8573  19.5970  19.6471
    22.0366  35.0319  35.4993  37.3157

          k = 0.6667-0.2222 0.8889 (   329 PWs)   bands (ev):

   -29.8298 -29.6549 -29.5663  15.5198  15.9722  17.5397  19.1428  20.3082
    24.9026  31.0585  35.2253  35.4759

          k = 0.5556-0.1111 0.7778 (   328 PWs)   bands (ev):

   -29.8134 -29.7047 -29.5591  15.8238  16.2793  17.2172  18.7728  20.2208
    27.0497  28.8836  33.7258  36.5715

          k = 0.4444 0.0000 0.6667 (   328 PWs)   bands (ev):

   -29.8015 -29.6744 -29.5292  16.3626  16.4524  16.5133  18.8409  19.6156
    24.2950  32.7579  33.0183  38.2022

          k = 0.7778-0.1111 1.0000 (   328 PWs)   bands (ev):

   -29.8627 -29.6385 -29.6030  14.9495  15.2169  18.9177  19.9218  20.6010
    25.0434  32.6822  33.4767  33.6843

          k = 0.6667-0.0000 0.8889 (   329 PWs)   bands (ev):

   -29.8239 -29.7035 -29.5953  15.2796  15.7543  18.0193  19.3385  20.5934
    27.7350  30.1248  31.9030  34.6975

          k = 0.5556-0.1111 1.0000 (   330 PWs)   bands (ev):

   -29.7900 -29.7258 -29.5995  15.6760  16.3133  17.0088  19.0344  20.5956
    27.7682  30.8481  32.0797  33.6021

     the Fermi energy is    20.3900 ev

!    total energy              =    -198.69436828 Ry
     Harris-Foulkes estimate   =    -198.69436828 Ry
     estimated scf accuracy    <          5.1E-09 Ry

     The total energy is the sum of the following terms:

     one-electron contribution =     -37.97444474 Ry
     hartree contribution      =      33.72037261 Ry
     xc contribution           =     -31.42313527 Ry
     ewald contribution        =    -163.01731824 Ry
     smearing contrib. (-TS)   =       0.00015735 Ry

     convergence has been achieved in   6 iterations

     Writing output data file Pd-kp-conv.save/
 
     init_run     :      0.41s CPU      0.45s WALL (       1 calls)
     electrons    :      1.55s CPU      2.02s WALL (       1 calls)

     Called by init_run:
     wfcinit      :      0.09s CPU      0.11s WALL (       1 calls)
     potinit      :      0.00s CPU      0.02s WALL (       1 calls)
     hinit0       :      0.31s CPU      0.31s WALL (       1 calls)

     Called by electrons:
     c_bands      :      1.27s CPU      1.36s WALL (       6 calls)
     sum_band     :      0.24s CPU      0.25s WALL (       6 calls)
     v_of_rho     :      0.02s CPU      0.02s WALL (       7 calls)
     newd         :      0.03s CPU      0.04s WALL (       7 calls)
     mix_rho      :      0.00s CPU      0.00s WALL (       6 calls)

     Called by c_bands:
     init_us_2    :      0.04s CPU      0.04s WALL (     455 calls)
     cegterg      :      1.17s CPU      1.25s WALL (     210 calls)

     Called by sum_band:
     sum_band:bec :      0.00s CPU      0.00s WALL (     210 calls)
     addusdens    :      0.03s CPU      0.03s WALL (       6 calls)

     Called by *egterg:
     h_psi        :      0.94s CPU      1.01s WALL (     726 calls)
     s_psi        :      0.02s CPU      0.02s WALL (     726 calls)
     g_psi        :      0.01s CPU      0.01s WALL (     481 calls)
     cdiaghg      :      0.18s CPU      0.19s WALL (     691 calls)

     Called by h_psi:
     h_psi:pot    :      0.93s CPU      1.00s WALL (     726 calls)
     h_psi:calbec :      0.02s CPU      0.03s WALL (     726 calls)
     vloc_psi     :      0.88s CPU      0.95s WALL (     726 calls)
     add_vuspsi   :      0.02s CPU      0.02s WALL (     726 calls)

     General routines
     calbec       :      0.03s CPU      0.03s WALL (     936 calls)
     fft          :      0.01s CPU      0.01s WALL (      78 calls)
     ffts         :      0.00s CPU      0.00s WALL (       6 calls)
     fftw         :      0.91s CPU      0.97s WALL (   15820 calls)
 
     Parallel routines
     fft_scatt_xy :      0.16s CPU      0.18s WALL (   15904 calls)
     fft_scatt_yz :      0.24s CPU      0.26s WALL (   15904 calls)
 
     PWSCF        :     2.06s CPU         2.75s WALL

 
   This run was terminated on:  20:30:39   2Dec2021            

=------------------------------------------------------------------------------=
   JOB DONE.
=------------------------------------------------------------------------------=
