
     Program PWSCF v.6.3 starts on  2Dec2021 at 20:30:55 

     This program is part of the open-source Quantum ESPRESSO suite
     for quantum simulation of materials; please cite
         "P. Giannozzi et al., J. Phys.:Condens. Matter 21 395502 (2009);
         "P. Giannozzi et al., J. Phys.:Condens. Matter 29 465901 (2017);
          URL http://www.quantum-espresso.org", 
     in publications or presentations arising from this work. More details at
     http://www.quantum-espresso.org/quote

     Parallel version (MPI & OpenMP), running on       2 processor cores
     Number of MPI processes:                 2
     Threads/MPI process:                     1

     MPI processes distributed on     1 nodes
     R & G space division:  proc/nbgrp/npool/nimage =       2
     Reading input from pw-input.in

     Current dimensions of program PWSCF are:
     Max number of different atomic species (ntypx) = 10
     Max number of k-points (npk) =  40000
     Max angular momentum in pseudopotentials (lmaxx) =  3

     Subspace diagonalization in iterative solution of the eigenvalue problem:
     a serial algorithm will be used

 
     Parallelization info
     --------------------
     sticks:   dense  smooth     PW     G-vecs:    dense   smooth      PW
     Min         141     141     48                 1570     1570     322
     Max         142     142     49                 1573     1573     323
     Sum         283     283     97                 3143     3143     645
 

     Title: 
     Pd-kp-conv                                                                 


     bravais-lattice index     =            2
     lattice parameter (alat)  =       7.7000  a.u.
     unit-cell volume          =     114.1333 (a.u.)^3
     number of atoms/cell      =            1
     number of atomic types    =            1
     number of electrons       =        16.00
     number of Kohn-Sham states=           12
     kinetic-energy cutoff     =      35.0000  Ry
     charge density cutoff     =     140.0000  Ry
     convergence threshold     =      1.0E-07
     mixing beta               =       0.7000
     number of iterations used =            8  plain     mixing
     Exchange-correlation      =  SLA  PW   PBX  PBC ( 1  4  3  4 0 0)

     celldm(1)=   7.700000  celldm(2)=   0.000000  celldm(3)=   0.000000
     celldm(4)=   0.000000  celldm(5)=   0.000000  celldm(6)=   0.000000

     crystal axes: (cart. coord. in units of alat)
               a(1) = (  -0.500000   0.000000   0.500000 )  
               a(2) = (   0.000000   0.500000   0.500000 )  
               a(3) = (  -0.500000   0.500000   0.000000 )  

     reciprocal axes: (cart. coord. in units 2 pi/alat)
               b(1) = ( -1.000000 -1.000000  1.000000 )  
               b(2) = (  1.000000  1.000000  1.000000 )  
               b(3) = ( -1.000000  1.000000 -1.000000 )  


     PseudoPot. # 1 for Pd read from file:
     ./pd_pbe_v1.4.uspp.F.UPF
     MD5 check sum: 2d733d2bc2cbfd217af676df1668a4bc
     Pseudo is Ultrasoft + core correction, Zval = 16.0
     Generated by new atomic code, or converted to UPF format
     Using radial grid of  887 points,  6 beta functions with: 
                l(1) =   0
                l(2) =   0
                l(3) =   1
                l(4) =   1
                l(5) =   2
                l(6) =   2
     Q(r) pseudized with  8 coefficients,  rinner =    1.130   1.130   1.130
                                                       1.130   1.130

     atomic species   valence    mass     pseudopotential
        Pd            16.00   106.40000     Pd( 1.00)

     48 Sym. Ops., with inversion, found



   Cartesian axes

     site n.     atom                  positions (alat units)
         1           Pd  tau(   1) = (   0.0000000   0.0000000   0.0000000  )

     number of k points=    35  Marzari-Vanderbilt smearing, width (Ry)=  0.0050
                       cart. coord. in units 2pi/alat
        k(    1) = (   0.0000000   0.0000000   0.0000000), wk =   0.0027435
        k(    2) = (  -0.1111111   0.1111111  -0.1111111), wk =   0.0219479
        k(    3) = (  -0.2222222   0.2222222  -0.2222222), wk =   0.0219479
        k(    4) = (  -0.3333333   0.3333333  -0.3333333), wk =   0.0219479
        k(    5) = (  -0.4444444   0.4444444  -0.4444444), wk =   0.0219479
        k(    6) = (   0.0000000   0.2222222   0.0000000), wk =   0.0164609
        k(    7) = (  -0.1111111   0.3333333  -0.1111111), wk =   0.0658436
        k(    8) = (  -0.2222222   0.4444444  -0.2222222), wk =   0.0658436
        k(    9) = (  -0.3333333   0.5555556  -0.3333333), wk =   0.0658436
        k(   10) = (   0.5555556  -0.3333333   0.5555556), wk =   0.0658436
        k(   11) = (   0.4444444  -0.2222222   0.4444444), wk =   0.0658436
        k(   12) = (   0.3333333  -0.1111111   0.3333333), wk =   0.0658436
        k(   13) = (   0.2222222  -0.0000000   0.2222222), wk =   0.0329218
        k(   14) = (   0.0000000   0.4444444   0.0000000), wk =   0.0164609
        k(   15) = (  -0.1111111   0.5555556  -0.1111111), wk =   0.0658436
        k(   16) = (  -0.2222222   0.6666667  -0.2222222), wk =   0.0658436
        k(   17) = (   0.6666667  -0.2222222   0.6666667), wk =   0.0658436
        k(   18) = (   0.5555556  -0.1111111   0.5555556), wk =   0.0658436
        k(   19) = (   0.4444444   0.0000000   0.4444444), wk =   0.0329218
        k(   20) = (   0.0000000   0.6666667   0.0000000), wk =   0.0164609
        k(   21) = (  -0.1111111   0.7777778  -0.1111111), wk =   0.0658436
        k(   22) = (   0.7777778  -0.1111111   0.7777778), wk =   0.0658436
        k(   23) = (   0.6666667  -0.0000000   0.6666667), wk =   0.0329218
        k(   24) = (   0.0000000   0.8888889   0.0000000), wk =   0.0164609
        k(   25) = (   0.8888889   0.0000000   0.8888889), wk =   0.0329218
        k(   26) = (  -0.2222222   0.4444444   0.0000000), wk =   0.0658436
        k(   27) = (  -0.3333333   0.5555556  -0.1111111), wk =   0.1316872
        k(   28) = (   0.5555556  -0.3333333   0.7777778), wk =   0.1316872
        k(   29) = (  -0.2222222   0.6666667   0.0000000), wk =   0.0658436
        k(   30) = (   0.6666667  -0.2222222   0.8888889), wk =   0.1316872
        k(   31) = (   0.5555556  -0.1111111   0.7777778), wk =   0.1316872
        k(   32) = (   0.4444444   0.0000000   0.6666667), wk =   0.0658436
        k(   33) = (   0.7777778  -0.1111111   1.0000000), wk =   0.0658436
        k(   34) = (   0.6666667  -0.0000000   0.8888889), wk =   0.0658436
        k(   35) = (   0.5555556  -0.1111111   1.0000000), wk =   0.0658436

     Dense  grid:     3143 G-vectors     FFT dimensions: (  24,  24,  24)

     Estimated max dynamical RAM per process >       8.15 MB

     Estimated total dynamical RAM >      16.30 MB

     Initial potential from superposition of free atoms
     Check: negative starting charge=   -0.079204

     starting charge   15.49999, renormalised to   16.00000

     negative rho (up, down):  8.176E-02 0.000E+00
     Starting wfcs are   12 randomized atomic wfcs

     total cpu time spent up to now is        0.6 secs

     Self-consistent Calculation

     iteration #  1     ecut=    35.00 Ry     beta= 0.70
     Davidson diagonalization with overlap
     ethr =  1.00E-02,  avg # of iterations =  3.7

     negative rho (up, down):  8.047E-02 0.000E+00

     total cpu time spent up to now is        1.1 secs

     total energy              =    -198.09667054 Ry
     Harris-Foulkes estimate   =    -199.05587142 Ry
     estimated scf accuracy    <       1.31414304 Ry

     iteration #  2     ecut=    35.00 Ry     beta= 0.70
     Davidson diagonalization with overlap
     ethr =  8.21E-03,  avg # of iterations =  2.0

     negative rho (up, down):  8.179E-02 0.000E+00

     total cpu time spent up to now is        1.5 secs

     total energy              =    -198.41196161 Ry
     Harris-Foulkes estimate   =    -199.12297627 Ry
     estimated scf accuracy    <       1.45377470 Ry

     iteration #  3     ecut=    35.00 Ry     beta= 0.70
     Davidson diagonalization with overlap
     ethr =  8.21E-03,  avg # of iterations =  2.0

     negative rho (up, down):  8.192E-02 0.000E+00

     total cpu time spent up to now is        2.1 secs

     total energy              =    -198.69560213 Ry
     Harris-Foulkes estimate   =    -198.69637296 Ry
     estimated scf accuracy    <       0.00170113 Ry

     iteration #  4     ecut=    35.00 Ry     beta= 0.70
     Davidson diagonalization with overlap
     ethr =  1.06E-05,  avg # of iterations =  2.5

     negative rho (up, down):  8.207E-02 0.000E+00

     total cpu time spent up to now is        2.6 secs

     total energy              =    -198.69620490 Ry
     Harris-Foulkes estimate   =    -198.69620241 Ry
     estimated scf accuracy    <       0.00000363 Ry

     iteration #  5     ecut=    35.00 Ry     beta= 0.70
     Davidson diagonalization with overlap
     ethr =  2.27E-08,  avg # of iterations =  1.9

     negative rho (up, down):  8.211E-02 0.000E+00

     total cpu time spent up to now is        2.9 secs

     total energy              =    -198.69620540 Ry
     Harris-Foulkes estimate   =    -198.69620527 Ry
     estimated scf accuracy    <       0.00000018 Ry

     iteration #  6     ecut=    35.00 Ry     beta= 0.70
     Davidson diagonalization with overlap
     ethr =  1.14E-09,  avg # of iterations =  2.0

     negative rho (up, down):  8.211E-02 0.000E+00

     total cpu time spent up to now is        3.3 secs

     End of self-consistent calculation

          k = 0.0000 0.0000 0.0000 (   411 PWs)   bands (ev):

   -33.9419 -33.9419 -33.9419   9.3073  13.1556  13.1556  13.1556  14.4440
    14.4440  33.0336  37.0064  37.0064

          k =-0.1111 0.1111-0.1111 (   390 PWs)   bands (ev):

   -33.9703 -33.9459 -33.9459   9.6987  13.0502  13.2722  13.2722  14.4036
    14.4036  33.0709  34.6439  37.2482

          k =-0.2222 0.2222-0.2222 (   386 PWs)   bands (ev):

   -34.0437 -33.9565 -33.9565  10.6474  13.0275  13.4085  13.4085  14.4908
    14.4908  29.9534  33.8713  37.5389

          k =-0.3333 0.3333-0.3333 (   401 PWs)   bands (ev):

   -34.1265 -33.9689 -33.9689  11.1713  13.2916  13.2916  14.1584  14.9339
    14.9339  25.8506  33.0504  36.7687

          k =-0.4444 0.4444-0.4444 (   401 PWs)   bands (ev):

   -34.1797 -33.9769 -33.9769  11.1400  13.1507  13.1507  15.3387  15.3387
    16.2527  22.4325  32.3550  35.7234

          k = 0.0000 0.2222 0.0000 (   391 PWs)   bands (ev):

   -33.9695 -33.9526 -33.9526   9.8298  12.9111  13.3763  13.3763  14.2039
    14.5479  33.3757  35.3950  35.9695

          k =-0.1111 0.3333-0.1111 (   386 PWs)   bands (ev):

   -34.0238 -33.9650 -33.9609  10.6242  12.6997  13.5186  13.5890  14.1985
    14.6878  31.5623  33.9131  35.0337

          k =-0.2222 0.4444-0.2222 (   395 PWs)   bands (ev):

   -34.1005 -33.9777 -33.9747  11.3703  13.0237  13.2608  13.5711  15.0548
    15.0782  27.4078  33.2768  34.3035

          k =-0.3333 0.5556-0.3333 (   397 PWs)   bands (ev):

   -34.1605 -33.9897 -33.9844  11.3976  13.0159  13.4126  14.0312  15.3897
    16.8112  23.5371  32.3825  34.0427

          k = 0.5556-0.3333 0.5556 (   397 PWs)   bands (ev):

   -34.1770 -33.9985 -33.9823  11.3729  12.9662  13.3320  14.4748  15.3173
    17.9840  21.8848  31.8515  33.9133

          k = 0.4444-0.2222 0.4444 (   399 PWs)   bands (ev):

   -34.1431 -33.9966 -33.9721  11.4557  13.1052  13.4109  13.9168  14.8246
    16.4009  24.7782  31.8205  34.3112

          k = 0.3333-0.1111 0.3333 (   389 PWs)   bands (ev):

   -34.0747 -33.9839 -33.9585  11.2452  12.8588  13.4007  13.5861  14.2377
    15.2394  28.8185  32.2189  35.8112

          k = 0.2222-0.0000 0.2222 (   389 PWs)   bands (ev):

   -34.0065 -33.9641 -33.9482  10.3037  12.8540  13.4408  13.4521  14.1690
    14.6301  32.7383  32.7422  36.2291

          k = 0.0000 0.4444 0.0000 (   399 PWs)   bands (ev):

   -34.0398 -33.9802 -33.9802  11.0794  12.3351  13.9027  13.9923  13.9923
    14.8156  33.1356  33.1356  33.6111

          k =-0.1111 0.5556-0.1111 (   403 PWs)   bands (ev):

   -34.0917 -33.9974 -33.9945  11.6217  12.1521  13.6243  14.1795  15.1148
    15.2020  29.3275  31.9173  32.4177

          k =-0.2222 0.6667-0.2222 (   399 PWs)   bands (ev):

   -34.1379 -34.0212 -34.0016  11.7094  12.4554  13.4557  14.0522  15.4413
    17.3620  25.2360  30.5633  31.5968

          k = 0.6667-0.2222 0.6667 (   400 PWs)   bands (ev):

   -34.1539 -34.0442 -33.9985  11.7999  12.6166  13.5462  13.8990  15.3435
    19.9120  22.0567  29.0505  32.4338

          k = 0.5556-0.1111 0.5556 (   400 PWs)   bands (ev):

   -34.1371 -34.0508 -33.9860  12.0405  12.7455  13.3201  13.8536  14.8173
    18.5046  24.2615  28.2137  34.3913

          k = 0.4444 0.0000 0.4444 (   403 PWs)   bands (ev):

   -34.1063 -34.0270 -33.9702  12.1128  12.6090  13.1489  13.9096  14.1999
    16.5937  28.0018  28.4254  34.9441

          k = 0.0000 0.6667 0.0000 (   399 PWs)   bands (ev):

   -34.1180 -34.0113 -34.0113  11.4814  11.7432  14.8451  14.8451  15.1345
    15.3319  30.1081  30.1807  30.1807

          k =-0.1111 0.7778-0.1111 (   404 PWs)   bands (ev):

   -34.1458 -34.0328 -34.0206  11.4552  11.6735  14.5758  14.8573  15.4670
    17.5720  27.1824  28.0123  29.4844

          k = 0.7778-0.1111 0.7778 (   401 PWs)   bands (ev):

   -34.1443 -34.0687 -34.0176  11.5969  12.0185  14.0064  14.6545  15.4263
    20.5240  23.8079  26.2333  30.1135

          k = 0.6667-0.0000 0.6667 (   403 PWs)   bands (ev):

   -34.1089 -34.1081 -34.0041  11.9423  12.5521  13.3147  14.3529  15.0398
    20.9211  23.6126  25.4207  31.9256

          k = 0.0000 0.8889 0.0000 (   392 PWs)   bands (ev):

   -34.1678 -34.0317 -34.0317  11.1691  11.3858  15.3502  15.5383  15.5383
    18.1364  25.7863  28.3193  28.3193

          k = 0.8889 0.0000 0.8889 (   398 PWs)   bands (ev):

   -34.1659 -34.0474 -34.0305  11.2588  11.4877  15.0616  15.2078  15.5740
    19.6896  24.8633  26.5504  28.5555

          k =-0.2222 0.4444 0.0000 (   389 PWs)   bands (ev):

   -34.0672 -33.9932 -33.9686  11.4371  12.4489  13.3376  13.9948  14.2540
    15.2710  30.4137  30.9559  34.8519

          k =-0.3333 0.5556-0.1111 (   401 PWs)   bands (ev):

   -34.1202 -34.0178 -33.9817  11.8727  12.7837  12.9947  13.9658  14.8160
    16.6326  26.4928  30.2447  32.9578

          k = 0.5556-0.3333 0.7778 (   395 PWs)   bands (ev):

   -34.1557 -34.0292 -33.9926  11.7925  12.6966  13.5385  13.8066  15.2562
    18.7657  22.8174  30.4453  31.4408

          k =-0.2222 0.6667 0.0000 (   407 PWs)   bands (ev):

   -34.1230 -34.0268 -34.0045  11.8312  11.9607  13.5957  14.8356  14.8921
    16.8230  28.3652  28.6857  30.3560

          k = 0.6667-0.2222 0.8889 (   403 PWs)   bands (ev):

   -34.1384 -34.0559 -34.0141  11.8846  12.2291  13.3635  14.5273  15.3352
    19.2729  24.6866  28.2828  28.8066

          k = 0.5556-0.1111 0.7778 (   400 PWs)   bands (ev):

   -34.1306 -34.0794 -34.0108  12.1183  12.4476  13.1324  14.2634  15.2725
    21.2158  22.6087  26.9835  29.7017

          k = 0.4444 0.0000 0.6667 (   400 PWs)   bands (ev):

   -34.1246 -34.0649 -33.9964  12.5371  12.5659  12.5822  14.3162  14.8486
    18.6868  26.1100  26.4052  31.2621

          k = 0.7778-0.1111 1.0000 (   406 PWs)   bands (ev):

   -34.1544 -34.0484 -34.0317  11.4762  11.6567  14.3821  15.0741  15.5363
    19.5502  25.7861  27.0853  27.2902

          k = 0.6667-0.0000 0.8889 (   397 PWs)   bands (ev):

   -34.1358 -34.0790 -34.0278  11.7281  12.0544  13.7247  14.6672  15.5305
    21.8647  23.9193  25.1515  28.0879

          k = 0.5556-0.1111 1.0000 (   399 PWs)   bands (ev):

   -34.1197 -34.0895 -34.0299  12.0325  12.4619  12.9737  14.4545  15.5324
    21.7890  24.5673  25.4389  26.9525

     the Fermi energy is    15.3910 ev

!    total energy              =    -198.69620543 Ry
     Harris-Foulkes estimate   =    -198.69620543 Ry
     estimated scf accuracy    <          2.9E-09 Ry

     The total energy is the sum of the following terms:

     one-electron contribution =     -54.21072015 Ry
     hartree contribution      =      39.22186220 Ry
     xc contribution           =     -31.27575360 Ry
     ewald contribution        =    -152.43177811 Ry
     smearing contrib. (-TS)   =       0.00018424 Ry

     convergence has been achieved in   6 iterations

     Writing output data file Pd-kp-conv.save/
 
     init_run     :      0.48s CPU      0.51s WALL (       1 calls)
     electrons    :      2.16s CPU      2.70s WALL (       1 calls)

     Called by init_run:
     wfcinit      :      0.14s CPU      0.15s WALL (       1 calls)
     potinit      :      0.01s CPU      0.02s WALL (       1 calls)
     hinit0       :      0.32s CPU      0.32s WALL (       1 calls)

     Called by electrons:
     c_bands      :      1.72s CPU      2.20s WALL (       6 calls)
     sum_band     :      0.35s CPU      0.37s WALL (       6 calls)
     v_of_rho     :      0.03s CPU      0.03s WALL (       7 calls)
     newd         :      0.04s CPU      0.05s WALL (       7 calls)
     mix_rho      :      0.00s CPU      0.00s WALL (       6 calls)

     Called by c_bands:
     init_us_2    :      0.04s CPU      0.05s WALL (     455 calls)
     cegterg      :      1.60s CPU      1.69s WALL (     210 calls)

     Called by sum_band:
     sum_band:bec :      0.00s CPU      0.00s WALL (     210 calls)
     addusdens    :      0.04s CPU      0.04s WALL (       6 calls)

     Called by *egterg:
     h_psi        :      1.39s CPU      1.48s WALL (     737 calls)
     s_psi        :      0.02s CPU      0.02s WALL (     737 calls)
     g_psi        :      0.01s CPU      0.01s WALL (     492 calls)
     cdiaghg      :      0.18s CPU      0.19s WALL (     702 calls)

     Called by h_psi:
     h_psi:pot    :      1.38s CPU      1.47s WALL (     737 calls)
     h_psi:calbec :      0.03s CPU      0.03s WALL (     737 calls)
     vloc_psi     :      1.33s CPU      1.41s WALL (     737 calls)
     add_vuspsi   :      0.02s CPU      0.02s WALL (     737 calls)

     General routines
     calbec       :      0.03s CPU      0.03s WALL (     947 calls)
     fft          :      0.01s CPU      0.01s WALL (      78 calls)
     ffts         :      0.00s CPU      0.00s WALL (       6 calls)
     fftw         :      1.37s CPU      1.45s WALL (   15644 calls)
 
     Parallel routines
     fft_scatt_xy :      0.26s CPU      0.28s WALL (   15728 calls)
     fft_scatt_yz :      0.29s CPU      0.31s WALL (   15728 calls)
 
     PWSCF        :     2.74s CPU         3.48s WALL

 
   This run was terminated on:  20:30:58   2Dec2021            

=------------------------------------------------------------------------------=
   JOB DONE.
=------------------------------------------------------------------------------=
