
     Program PWSCF v.6.3 starts on  2Dec2021 at 20:31: 3 

     This program is part of the open-source Quantum ESPRESSO suite
     for quantum simulation of materials; please cite
         "P. Giannozzi et al., J. Phys.:Condens. Matter 21 395502 (2009);
         "P. Giannozzi et al., J. Phys.:Condens. Matter 29 465901 (2017);
          URL http://www.quantum-espresso.org", 
     in publications or presentations arising from this work. More details at
     http://www.quantum-espresso.org/quote

     Parallel version (MPI & OpenMP), running on       2 processor cores
     Number of MPI processes:                 2
     Threads/MPI process:                     1

     MPI processes distributed on     1 nodes
     R & G space division:  proc/nbgrp/npool/nimage =       2
     Reading input from pw-input.in

     Current dimensions of program PWSCF are:
     Max number of different atomic species (ntypx) = 10
     Max number of k-points (npk) =  40000
     Max angular momentum in pseudopotentials (lmaxx) =  3

     Subspace diagonalization in iterative solution of the eigenvalue problem:
     a serial algorithm will be used

 
     Parallelization info
     --------------------
     sticks:   dense  smooth     PW     G-vecs:    dense   smooth      PW
     Min         150     150     54                 1738     1738     350
     Max         151     151     55                 1741     1741     351
     Sum         301     301    109                 3479     3479     701
 

     Title: 
     Pd-kp-conv                                                                 


     bravais-lattice index     =            2
     lattice parameter (alat)  =       7.9000  a.u.
     unit-cell volume          =     123.2598 (a.u.)^3
     number of atoms/cell      =            1
     number of atomic types    =            1
     number of electrons       =        16.00
     number of Kohn-Sham states=           12
     kinetic-energy cutoff     =      35.0000  Ry
     charge density cutoff     =     140.0000  Ry
     convergence threshold     =      1.0E-07
     mixing beta               =       0.7000
     number of iterations used =            8  plain     mixing
     Exchange-correlation      =  SLA  PW   PBX  PBC ( 1  4  3  4 0 0)

     celldm(1)=   7.900000  celldm(2)=   0.000000  celldm(3)=   0.000000
     celldm(4)=   0.000000  celldm(5)=   0.000000  celldm(6)=   0.000000

     crystal axes: (cart. coord. in units of alat)
               a(1) = (  -0.500000   0.000000   0.500000 )  
               a(2) = (   0.000000   0.500000   0.500000 )  
               a(3) = (  -0.500000   0.500000   0.000000 )  

     reciprocal axes: (cart. coord. in units 2 pi/alat)
               b(1) = ( -1.000000 -1.000000  1.000000 )  
               b(2) = (  1.000000  1.000000  1.000000 )  
               b(3) = ( -1.000000  1.000000 -1.000000 )  


     PseudoPot. # 1 for Pd read from file:
     ./pd_pbe_v1.4.uspp.F.UPF
     MD5 check sum: 2d733d2bc2cbfd217af676df1668a4bc
     Pseudo is Ultrasoft + core correction, Zval = 16.0
     Generated by new atomic code, or converted to UPF format
     Using radial grid of  887 points,  6 beta functions with: 
                l(1) =   0
                l(2) =   0
                l(3) =   1
                l(4) =   1
                l(5) =   2
                l(6) =   2
     Q(r) pseudized with  8 coefficients,  rinner =    1.130   1.130   1.130
                                                       1.130   1.130

     atomic species   valence    mass     pseudopotential
        Pd            16.00   106.40000     Pd( 1.00)

     48 Sym. Ops., with inversion, found



   Cartesian axes

     site n.     atom                  positions (alat units)
         1           Pd  tau(   1) = (   0.0000000   0.0000000   0.0000000  )

     number of k points=    35  Marzari-Vanderbilt smearing, width (Ry)=  0.0050
                       cart. coord. in units 2pi/alat
        k(    1) = (   0.0000000   0.0000000   0.0000000), wk =   0.0027435
        k(    2) = (  -0.1111111   0.1111111  -0.1111111), wk =   0.0219479
        k(    3) = (  -0.2222222   0.2222222  -0.2222222), wk =   0.0219479
        k(    4) = (  -0.3333333   0.3333333  -0.3333333), wk =   0.0219479
        k(    5) = (  -0.4444444   0.4444444  -0.4444444), wk =   0.0219479
        k(    6) = (   0.0000000   0.2222222   0.0000000), wk =   0.0164609
        k(    7) = (  -0.1111111   0.3333333  -0.1111111), wk =   0.0658436
        k(    8) = (  -0.2222222   0.4444444  -0.2222222), wk =   0.0658436
        k(    9) = (  -0.3333333   0.5555556  -0.3333333), wk =   0.0658436
        k(   10) = (   0.5555556  -0.3333333   0.5555556), wk =   0.0658436
        k(   11) = (   0.4444444  -0.2222222   0.4444444), wk =   0.0658436
        k(   12) = (   0.3333333  -0.1111111   0.3333333), wk =   0.0658436
        k(   13) = (   0.2222222  -0.0000000   0.2222222), wk =   0.0329218
        k(   14) = (   0.0000000   0.4444444   0.0000000), wk =   0.0164609
        k(   15) = (  -0.1111111   0.5555556  -0.1111111), wk =   0.0658436
        k(   16) = (  -0.2222222   0.6666667  -0.2222222), wk =   0.0658436
        k(   17) = (   0.6666667  -0.2222222   0.6666667), wk =   0.0658436
        k(   18) = (   0.5555556  -0.1111111   0.5555556), wk =   0.0658436
        k(   19) = (   0.4444444   0.0000000   0.4444444), wk =   0.0329218
        k(   20) = (   0.0000000   0.6666667   0.0000000), wk =   0.0164609
        k(   21) = (  -0.1111111   0.7777778  -0.1111111), wk =   0.0658436
        k(   22) = (   0.7777778  -0.1111111   0.7777778), wk =   0.0658436
        k(   23) = (   0.6666667  -0.0000000   0.6666667), wk =   0.0329218
        k(   24) = (   0.0000000   0.8888889   0.0000000), wk =   0.0164609
        k(   25) = (   0.8888889   0.0000000   0.8888889), wk =   0.0329218
        k(   26) = (  -0.2222222   0.4444444   0.0000000), wk =   0.0658436
        k(   27) = (  -0.3333333   0.5555556  -0.1111111), wk =   0.1316872
        k(   28) = (   0.5555556  -0.3333333   0.7777778), wk =   0.1316872
        k(   29) = (  -0.2222222   0.6666667   0.0000000), wk =   0.0658436
        k(   30) = (   0.6666667  -0.2222222   0.8888889), wk =   0.1316872
        k(   31) = (   0.5555556  -0.1111111   0.7777778), wk =   0.1316872
        k(   32) = (   0.4444444   0.0000000   0.6666667), wk =   0.0658436
        k(   33) = (   0.7777778  -0.1111111   1.0000000), wk =   0.0658436
        k(   34) = (   0.6666667  -0.0000000   0.8888889), wk =   0.0658436
        k(   35) = (   0.5555556  -0.1111111   1.0000000), wk =   0.0658436

     Dense  grid:     3479 G-vectors     FFT dimensions: (  24,  24,  24)

     Estimated max dynamical RAM per process >       8.84 MB

     Estimated total dynamical RAM >      17.67 MB

     Initial potential from superposition of free atoms
     Check: negative starting charge=   -0.079301

     starting charge   15.49999, renormalised to   16.00000

     negative rho (up, down):  8.186E-02 0.000E+00
     Starting wfcs are   12 randomized atomic wfcs

     total cpu time spent up to now is        0.6 secs

     Self-consistent Calculation

     iteration #  1     ecut=    35.00 Ry     beta= 0.70
     Davidson diagonalization with overlap
     ethr =  1.00E-02,  avg # of iterations =  3.6

     negative rho (up, down):  7.989E-02 0.000E+00

     total cpu time spent up to now is        1.1 secs

     total energy              =    -198.00962754 Ry
     Harris-Foulkes estimate   =    -199.06529301 Ry
     estimated scf accuracy    <       1.43931322 Ry

     iteration #  2     ecut=    35.00 Ry     beta= 0.70
     Davidson diagonalization with overlap
     ethr =  9.00E-03,  avg # of iterations =  2.0

     negative rho (up, down):  8.153E-02 0.000E+00

     total cpu time spent up to now is        1.5 secs

     total energy              =    -198.32135613 Ry
     Harris-Foulkes estimate   =    -199.21101323 Ry
     estimated scf accuracy    <       1.88006991 Ry

     iteration #  3     ecut=    35.00 Ry     beta= 0.70
     Davidson diagonalization with overlap
     ethr =  9.00E-03,  avg # of iterations =  2.0

     negative rho (up, down):  8.166E-02 0.000E+00

     total cpu time spent up to now is        1.9 secs

     total energy              =    -198.68561221 Ry
     Harris-Foulkes estimate   =    -198.68654097 Ry
     estimated scf accuracy    <       0.00210102 Ry

     iteration #  4     ecut=    35.00 Ry     beta= 0.70
     Davidson diagonalization with overlap
     ethr =  1.31E-05,  avg # of iterations =  2.5

     negative rho (up, down):  8.179E-02 0.000E+00

     total cpu time spent up to now is        2.7 secs

     total energy              =    -198.68627932 Ry
     Harris-Foulkes estimate   =    -198.68628425 Ry
     estimated scf accuracy    <       0.00001347 Ry

     iteration #  5     ecut=    35.00 Ry     beta= 0.70
     Davidson diagonalization with overlap
     ethr =  8.42E-08,  avg # of iterations =  2.0

     negative rho (up, down):  8.181E-02 0.000E+00

     total cpu time spent up to now is        3.0 secs

     total energy              =    -198.68628247 Ry
     Harris-Foulkes estimate   =    -198.68628259 Ry
     estimated scf accuracy    <       0.00000046 Ry

     iteration #  6     ecut=    35.00 Ry     beta= 0.70
     Davidson diagonalization with overlap
     ethr =  2.85E-09,  avg # of iterations =  2.0

     negative rho (up, down):  8.181E-02 0.000E+00

     total cpu time spent up to now is        3.5 secs

     End of self-consistent calculation

          k = 0.0000 0.0000 0.0000 (   411 PWs)   bands (ev):

   -35.3979 -35.3979 -35.3979   8.1943  11.8025  11.8025  11.8025  12.9369
    12.9369  31.1646  34.6974  34.6974

          k =-0.1111 0.1111-0.1111 (   429 PWs)   bands (ev):

   -35.4200 -35.4014 -35.4014   8.5618  11.7088  11.9038  11.9038  12.8999
    12.8999  31.0262  32.4602  34.8450

          k =-0.2222 0.2222-0.2222 (   435 PWs)   bands (ev):

   -35.4745 -35.4096 -35.4096   9.4655  11.6946  12.0252  12.0252  12.9783
    12.9783  27.6658  31.8853  34.9060

          k =-0.3333 0.3333-0.3333 (   425 PWs)   bands (ev):

   -35.5360 -35.4188 -35.4188   9.9987  11.9242  11.9242  12.7491  13.3687
    13.3687  23.6500  31.1165  34.1194

          k =-0.4444 0.4444-0.4444 (   428 PWs)   bands (ev):

   -35.5758 -35.4250 -35.4250   9.9877  11.8000  11.8000  13.7213  13.7213
    14.7723  20.3102  30.4782  33.2045

          k = 0.0000 0.2222 0.0000 (   435 PWs)   bands (ev):

   -35.4192 -35.4066 -35.4066   8.6849  11.5866  11.9947  11.9947  12.7271
    13.0266  31.3941  33.1873  33.5146

          k =-0.1111 0.3333-0.1111 (   432 PWs)   bands (ev):

   -35.4595 -35.4160 -35.4130   9.4373  11.4003  12.1238  12.1840  12.7262
    13.1512  29.2545  31.8256  32.5155

          k =-0.2222 0.4444-0.2222 (   430 PWs)   bands (ev):

   -35.5166 -35.4256 -35.4233  10.1718  11.6958  11.8990  12.1700  13.4725
    13.5237  25.1685  31.2249  31.7866

          k =-0.3333 0.5556-0.3333 (   429 PWs)   bands (ev):

   -35.5615 -35.4346 -35.4308  10.2207  11.6845  12.0310  12.6038  13.7651
    15.1726  21.4127  30.3610  31.5660

          k = 0.5556-0.3333 0.5556 (   437 PWs)   bands (ev):

   -35.5739 -35.4414 -35.4292  10.2004  11.6399  11.9603  12.9972  13.7026
    16.3372  19.7731  29.7427  31.5967

          k = 0.4444-0.2222 0.4444 (   427 PWs)   bands (ev):

   -35.5484 -35.4399 -35.4212  10.2683  11.7609  12.0312  12.5103  13.2741
    14.7397  22.6148  29.5990  32.0722

          k = 0.3333-0.1111 0.3333 (   431 PWs)   bands (ev):

   -35.4975 -35.4303 -35.4110  10.0367  11.5429  12.0249  12.1838  12.7589
    13.6458  26.5449  29.9337  33.5116

          k = 0.2222-0.0000 0.2222 (   437 PWs)   bands (ev):

   -35.4466 -35.4153 -35.4034   9.1322  11.5367  12.0544  12.0625  12.6965
    13.1012  30.4695  30.5074  33.9604

          k = 0.0000 0.4444 0.0000 (   431 PWs)   bands (ev):

   -35.4715 -35.4273 -35.4273   9.8764  11.0790  12.4713  12.5412  12.5412
    13.2632  30.7012  30.7012  31.4565

          k =-0.1111 0.5556-0.1111 (   432 PWs)   bands (ev):

   -35.5102 -35.4400 -35.4384  10.4137  10.9164  12.2239  12.7072  13.5243
    13.6430  27.0475  29.5470  30.1276

          k =-0.2222 0.6667-0.2222 (   431 PWs)   bands (ev):

   -35.5447 -35.4580 -35.4438  10.5129  11.1950  12.0753  12.5960  13.8099
    15.6546  23.0995  28.2587  29.2518

          k = 0.6667-0.2222 0.6667 (   432 PWs)   bands (ev):

   -35.5567 -35.4750 -35.4413  10.5937  11.3395  12.1624  12.4628  13.7258
    18.1141  19.9908  26.7780  30.0332

          k = 0.5556-0.1111 0.5556 (   426 PWs)   bands (ev):

   -35.5441 -35.4799 -35.4319  10.8052  11.4508  11.9674  12.4239  13.2674
    16.7079  22.1352  25.9651  31.8544

          k = 0.4444 0.0000 0.4444 (   427 PWs)   bands (ev):

   -35.5209 -35.4621 -35.4200  10.8525  11.3240  11.8116  12.4740  12.7236
    14.8877  25.7686  26.1344  32.7281

          k = 0.0000 0.6667 0.0000 (   432 PWs)   bands (ev):

   -35.5300 -35.4509 -35.4509  10.3082  10.5523  13.2912  13.2912  13.5420
    13.8203  27.7507  27.9306  27.9306

          k =-0.1111 0.7778-0.1111 (   435 PWs)   bands (ev):

   -35.5507 -35.4667 -35.4580  10.2958  10.4915  13.0712  13.3035  13.8319
    15.8906  24.9794  25.7551  27.2885

          k = 0.7778-0.1111 0.7778 (   429 PWs)   bands (ev):

   -35.5496 -35.4934 -35.4557  10.4242  10.8026  12.5685  13.1272  13.7984
    18.6624  21.7725  23.9975  27.8661

          k = 0.6667-0.0000 0.6667 (   431 PWs)   bands (ev):

   -35.5230 -35.5227 -35.4454  10.7302  11.2819  11.9533  12.8650  13.4611
    19.0120  21.5818  23.2141  29.5406

          k = 0.0000 0.8889 0.0000 (   440 PWs)   bands (ev):

   -35.5670 -35.4666 -35.4666  10.0426  10.2317  13.7287  13.8958  13.8958
    16.5229  23.4817  26.2192  26.2192

          k = 0.8889 0.0000 0.8889 (   434 PWs)   bands (ev):

   -35.5661 -35.4776 -35.4655  10.1239  10.3244  13.4951  13.6091  13.9260
    17.9708  22.5742  24.4876  26.4344

          k =-0.2222 0.4444 0.0000 (   432 PWs)   bands (ev):

   -35.4922 -35.4371 -35.4188  10.2126  11.1791  11.9668  12.5438  12.7782
    13.6742  28.1331  28.5960  32.5083

          k =-0.3333 0.5556-0.1111 (   431 PWs)   bands (ev):

   -35.5314 -35.4555 -35.4285  10.6490  11.4837  11.6633  12.5227  13.2702
    14.9396  24.2906  27.9384  30.6411

          k = 0.5556-0.3333 0.7778 (   428 PWs)   bands (ev):

   -35.5580 -35.4641 -35.4369  10.5827  11.4062  12.1564  12.3855  13.6507
    16.9967  20.7326  28.1558  29.1239

          k =-0.2222 0.6667 0.0000 (   433 PWs)   bands (ev):

   -35.5336 -35.4622 -35.4456  10.6268  10.7466  12.1994  13.2840  13.3408
    15.1374  26.1286  26.4364  28.0334

          k = 0.6667-0.2222 0.8889 (   430 PWs)   bands (ev):

   -35.5452 -35.4838 -35.4528  10.6799  10.9918  11.9943  13.0184  13.7190
    17.4493  22.5905  25.9793  26.5966

          k = 0.5556-0.1111 0.7778 (   429 PWs)   bands (ev):

   -35.5395 -35.5013 -35.4503  10.8884  11.1855  11.7916  12.7862  13.6646
    19.3141  20.5670  24.7549  27.4204

          k = 0.4444 0.0000 0.6667 (   425 PWs)   bands (ev):

   -35.5348 -35.4904 -35.4396  11.2631  11.2855  11.3001  12.8348  13.2950
    16.8710  23.9421  24.2079  28.9298

          k = 0.7778-0.1111 1.0000 (   435 PWs)   bands (ev):

   -35.5572 -35.4786 -35.4659  10.3207  10.4756  12.8988  13.4945  13.8938
    17.7731  23.5088  24.9672  25.1740

          k = 0.6667-0.0000 0.8889 (   429 PWs)   bands (ev):

   -35.5434 -35.5012 -35.4631  10.5462  10.8318  12.3177  13.1393  13.8888
    19.9646  21.8526  22.9538  25.8987

          k = 0.5556-0.1111 1.0000 (   428 PWs)   bands (ev):

   -35.5315 -35.5089 -35.4644  10.8225  11.1930  11.6483  12.9552  13.8904
    19.8412  22.5163  23.2365  24.7713

     the Fermi energy is    13.7710 ev

!    total energy              =    -198.68628256 Ry
     Harris-Foulkes estimate   =    -198.68628256 Ry
     estimated scf accuracy    <          1.7E-09 Ry

     The total energy is the sum of the following terms:

     one-electron contribution =     -60.28667472 Ry
     hartree contribution      =      41.41339373 Ry
     xc contribution           =     -31.24048638 Ry
     ewald contribution        =    -148.57274574 Ry
     smearing contrib. (-TS)   =       0.00023054 Ry

     convergence has been achieved in   6 iterations

     Writing output data file Pd-kp-conv.save/
 
     init_run     :      0.49s CPU      0.53s WALL (       1 calls)
     electrons    :      2.23s CPU      2.84s WALL (       1 calls)

     Called by init_run:
     wfcinit      :      0.15s CPU      0.16s WALL (       1 calls)
     potinit      :      0.01s CPU      0.02s WALL (       1 calls)
     hinit0       :      0.32s CPU      0.33s WALL (       1 calls)

     Called by electrons:
     c_bands      :      1.80s CPU      2.02s WALL (       6 calls)
     sum_band     :      0.36s CPU      0.39s WALL (       6 calls)
     v_of_rho     :      0.03s CPU      0.03s WALL (       7 calls)
     newd         :      0.05s CPU      0.05s WALL (       7 calls)
     mix_rho      :      0.00s CPU      0.00s WALL (       6 calls)

     Called by c_bands:
     init_us_2    :      0.05s CPU      0.05s WALL (     455 calls)
     cegterg      :      1.67s CPU      1.79s WALL (     210 calls)

     Called by sum_band:
     sum_band:bec :      0.00s CPU      0.00s WALL (     210 calls)
     addusdens    :      0.04s CPU      0.05s WALL (       6 calls)

     Called by *egterg:
     h_psi        :      1.46s CPU      1.56s WALL (     738 calls)
     s_psi        :      0.02s CPU      0.02s WALL (     738 calls)
     g_psi        :      0.01s CPU      0.01s WALL (     493 calls)
     cdiaghg      :      0.18s CPU      0.19s WALL (     703 calls)

     Called by h_psi:
     h_psi:pot    :      1.46s CPU      1.56s WALL (     738 calls)
     h_psi:calbec :      0.03s CPU      0.03s WALL (     738 calls)
     vloc_psi     :      1.40s CPU      1.50s WALL (     738 calls)
     add_vuspsi   :      0.02s CPU      0.02s WALL (     738 calls)

     General routines
     calbec       :      0.03s CPU      0.04s WALL (     948 calls)
     fft          :      0.01s CPU      0.01s WALL (      78 calls)
     ffts         :      0.00s CPU      0.00s WALL (       6 calls)
     fftw         :      1.43s CPU      1.53s WALL (   15920 calls)
 
     Parallel routines
     fft_scatt_xy :      0.26s CPU      0.28s WALL (   16004 calls)
     fft_scatt_yz :      0.32s CPU      0.34s WALL (   16004 calls)
 
     PWSCF        :     2.82s CPU         3.63s WALL

 
   This run was terminated on:  20:31: 7   2Dec2021            

=------------------------------------------------------------------------------=
   JOB DONE.
=------------------------------------------------------------------------------=
