
     Program PWSCF v.6.3 starts on  2Dec2021 at 20:30:30 

     This program is part of the open-source Quantum ESPRESSO suite
     for quantum simulation of materials; please cite
         "P. Giannozzi et al., J. Phys.:Condens. Matter 21 395502 (2009);
         "P. Giannozzi et al., J. Phys.:Condens. Matter 29 465901 (2017);
          URL http://www.quantum-espresso.org", 
     in publications or presentations arising from this work. More details at
     http://www.quantum-espresso.org/quote

     Parallel version (MPI & OpenMP), running on       2 processor cores
     Number of MPI processes:                 2
     Threads/MPI process:                     1

     MPI processes distributed on     1 nodes
     R & G space division:  proc/nbgrp/npool/nimage =       2
     Reading input from pw-input.in

     Current dimensions of program PWSCF are:
     Max number of different atomic species (ntypx) = 10
     Max number of k-points (npk) =  40000
     Max angular momentum in pseudopotentials (lmaxx) =  3

     Subspace diagonalization in iterative solution of the eigenvalue problem:
     a serial algorithm will be used

 
     Parallelization info
     --------------------
     sticks:   dense  smooth     PW     G-vecs:    dense   smooth      PW
     Min         120     120     42                 1210     1210     264
     Max         121     121     43                 1211     1211     267
     Sum         241     241     85                 2421     2421     531
 

     Title: 
     Pd-kp-conv                                                                 


     bravais-lattice index     =            2
     lattice parameter (alat)  =       7.0000  a.u.
     unit-cell volume          =      85.7500 (a.u.)^3
     number of atoms/cell      =            1
     number of atomic types    =            1
     number of electrons       =        16.00
     number of Kohn-Sham states=           12
     kinetic-energy cutoff     =      35.0000  Ry
     charge density cutoff     =     140.0000  Ry
     convergence threshold     =      1.0E-07
     mixing beta               =       0.7000
     number of iterations used =            8  plain     mixing
     Exchange-correlation      =  SLA  PW   PBX  PBC ( 1  4  3  4 0 0)

     celldm(1)=   7.000000  celldm(2)=   0.000000  celldm(3)=   0.000000
     celldm(4)=   0.000000  celldm(5)=   0.000000  celldm(6)=   0.000000

     crystal axes: (cart. coord. in units of alat)
               a(1) = (  -0.500000   0.000000   0.500000 )  
               a(2) = (   0.000000   0.500000   0.500000 )  
               a(3) = (  -0.500000   0.500000   0.000000 )  

     reciprocal axes: (cart. coord. in units 2 pi/alat)
               b(1) = ( -1.000000 -1.000000  1.000000 )  
               b(2) = (  1.000000  1.000000  1.000000 )  
               b(3) = ( -1.000000  1.000000 -1.000000 )  


     PseudoPot. # 1 for Pd read from file:
     ./pd_pbe_v1.4.uspp.F.UPF
     MD5 check sum: 2d733d2bc2cbfd217af676df1668a4bc
     Pseudo is Ultrasoft + core correction, Zval = 16.0
     Generated by new atomic code, or converted to UPF format
     Using radial grid of  887 points,  6 beta functions with: 
                l(1) =   0
                l(2) =   0
                l(3) =   1
                l(4) =   1
                l(5) =   2
                l(6) =   2
     Q(r) pseudized with  8 coefficients,  rinner =    1.130   1.130   1.130
                                                       1.130   1.130

     atomic species   valence    mass     pseudopotential
        Pd            16.00   106.40000     Pd( 1.00)

     48 Sym. Ops., with inversion, found



   Cartesian axes

     site n.     atom                  positions (alat units)
         1           Pd  tau(   1) = (   0.0000000   0.0000000   0.0000000  )

     number of k points=    35  Marzari-Vanderbilt smearing, width (Ry)=  0.0050
                       cart. coord. in units 2pi/alat
        k(    1) = (   0.0000000   0.0000000   0.0000000), wk =   0.0027435
        k(    2) = (  -0.1111111   0.1111111  -0.1111111), wk =   0.0219479
        k(    3) = (  -0.2222222   0.2222222  -0.2222222), wk =   0.0219479
        k(    4) = (  -0.3333333   0.3333333  -0.3333333), wk =   0.0219479
        k(    5) = (  -0.4444444   0.4444444  -0.4444444), wk =   0.0219479
        k(    6) = (   0.0000000   0.2222222   0.0000000), wk =   0.0164609
        k(    7) = (  -0.1111111   0.3333333  -0.1111111), wk =   0.0658436
        k(    8) = (  -0.2222222   0.4444444  -0.2222222), wk =   0.0658436
        k(    9) = (  -0.3333333   0.5555556  -0.3333333), wk =   0.0658436
        k(   10) = (   0.5555556  -0.3333333   0.5555556), wk =   0.0658436
        k(   11) = (   0.4444444  -0.2222222   0.4444444), wk =   0.0658436
        k(   12) = (   0.3333333  -0.1111111   0.3333333), wk =   0.0658436
        k(   13) = (   0.2222222  -0.0000000   0.2222222), wk =   0.0329218
        k(   14) = (   0.0000000   0.4444444   0.0000000), wk =   0.0164609
        k(   15) = (  -0.1111111   0.5555556  -0.1111111), wk =   0.0658436
        k(   16) = (  -0.2222222   0.6666667  -0.2222222), wk =   0.0658436
        k(   17) = (   0.6666667  -0.2222222   0.6666667), wk =   0.0658436
        k(   18) = (   0.5555556  -0.1111111   0.5555556), wk =   0.0658436
        k(   19) = (   0.4444444   0.0000000   0.4444444), wk =   0.0329218
        k(   20) = (   0.0000000   0.6666667   0.0000000), wk =   0.0164609
        k(   21) = (  -0.1111111   0.7777778  -0.1111111), wk =   0.0658436
        k(   22) = (   0.7777778  -0.1111111   0.7777778), wk =   0.0658436
        k(   23) = (   0.6666667  -0.0000000   0.6666667), wk =   0.0329218
        k(   24) = (   0.0000000   0.8888889   0.0000000), wk =   0.0164609
        k(   25) = (   0.8888889   0.0000000   0.8888889), wk =   0.0329218
        k(   26) = (  -0.2222222   0.4444444   0.0000000), wk =   0.0658436
        k(   27) = (  -0.3333333   0.5555556  -0.1111111), wk =   0.1316872
        k(   28) = (   0.5555556  -0.3333333   0.7777778), wk =   0.1316872
        k(   29) = (  -0.2222222   0.6666667   0.0000000), wk =   0.0658436
        k(   30) = (   0.6666667  -0.2222222   0.8888889), wk =   0.1316872
        k(   31) = (   0.5555556  -0.1111111   0.7777778), wk =   0.1316872
        k(   32) = (   0.4444444   0.0000000   0.6666667), wk =   0.0658436
        k(   33) = (   0.7777778  -0.1111111   1.0000000), wk =   0.0658436
        k(   34) = (   0.6666667  -0.0000000   0.8888889), wk =   0.0658436
        k(   35) = (   0.5555556  -0.1111111   1.0000000), wk =   0.0658436

     Dense  grid:     2421 G-vectors     FFT dimensions: (  20,  20,  20)

     Estimated max dynamical RAM per process >       6.32 MB

     Estimated total dynamical RAM >      12.64 MB

     Initial potential from superposition of free atoms
     Check: negative starting charge=   -0.083349

     starting charge   15.49999, renormalised to   16.00000

     negative rho (up, down):  8.604E-02 0.000E+00
     Starting wfcs are   12 randomized atomic wfcs

     total cpu time spent up to now is        0.5 secs

     Self-consistent Calculation

     iteration #  1     ecut=    35.00 Ry     beta= 0.70
     Davidson diagonalization with overlap
     ethr =  1.00E-02,  avg # of iterations =  3.6

     negative rho (up, down):  8.607E-02 0.000E+00

     total cpu time spent up to now is        0.9 secs

     total energy              =    -198.32862764 Ry
     Harris-Foulkes estimate   =    -198.94390939 Ry
     estimated scf accuracy    <       0.86129001 Ry

     iteration #  2     ecut=    35.00 Ry     beta= 0.70
     Davidson diagonalization with overlap
     ethr =  5.38E-03,  avg # of iterations =  2.0

     negative rho (up, down):  8.732E-02 0.000E+00

     total cpu time spent up to now is        1.1 secs

     total energy              =    -198.55470199 Ry
     Harris-Foulkes estimate   =    -198.84076902 Ry
     estimated scf accuracy    <       0.52890981 Ry

     iteration #  3     ecut=    35.00 Ry     beta= 0.70
     Davidson diagonalization with overlap
     ethr =  3.31E-03,  avg # of iterations =  2.0

     negative rho (up, down):  8.783E-02 0.000E+00

     total cpu time spent up to now is        1.4 secs

     total energy              =    -198.67465678 Ry
     Harris-Foulkes estimate   =    -198.67555179 Ry
     estimated scf accuracy    <       0.00188648 Ry

     iteration #  4     ecut=    35.00 Ry     beta= 0.70
     Davidson diagonalization with overlap
     ethr =  1.18E-05,  avg # of iterations =  2.2

     negative rho (up, down):  8.798E-02 0.000E+00

     total cpu time spent up to now is        1.7 secs

     total energy              =    -198.67514529 Ry
     Harris-Foulkes estimate   =    -198.67515809 Ry
     estimated scf accuracy    <       0.00002761 Ry

     iteration #  5     ecut=    35.00 Ry     beta= 0.70
     Davidson diagonalization with overlap
     ethr =  1.73E-07,  avg # of iterations =  2.0

     negative rho (up, down):  8.801E-02 0.000E+00

     total cpu time spent up to now is        1.9 secs

     End of self-consistent calculation

          k = 0.0000 0.0000 0.0000 (   307 PWs)   bands (ev):

   -27.2033 -27.2033 -27.2033  14.5018  19.2528  19.2528  19.2528  21.3092
    21.3092  40.9816  46.6753  46.6753

          k =-0.1111 0.1111-0.1111 (   307 PWs)   bands (ev):

   -27.2877 -27.2149 -27.2149  15.0032  19.0719  19.4308  19.4308  21.2273
    21.2273  41.5444  44.0201  47.2947

          k =-0.2222 0.2222-0.2222 (   302 PWs)   bands (ev):

   -27.4976 -27.2439 -27.2439  16.1142  19.0413  19.6344  19.6344  21.3503
    21.3503  39.8901  42.4043  48.7145

          k =-0.3333 0.3333-0.3333 (   302 PWs)   bands (ev):

   -27.7312 -27.2767 -27.2767  16.4848  19.4387  19.4387  20.6179  22.0709
    22.0709  35.7630  41.3824  48.3153

          k =-0.4444 0.4444-0.4444 (   290 PWs)   bands (ev):

   -27.8803 -27.2977 -27.2977  16.3207  19.2137  19.2137  22.7497  22.7497
    23.0567  32.1848  40.3618  46.5627

          k = 0.0000 0.2222 0.0000 (   307 PWs)   bands (ev):

   -27.2853 -27.2339 -27.2339  15.1715  18.8490  19.5923  19.5923  20.8918
    21.4700  41.8167  44.7146  46.3071

          k =-0.1111 0.3333-0.1111 (   301 PWs)   bands (ev):

   -27.4409 -27.2685 -27.2571  16.1398  18.5081  19.7946  19.9220  20.8694
    21.6843  41.4732  42.8118  45.9409

          k =-0.2222 0.4444-0.2222 (   298 PWs)   bands (ev):

   -27.6573 -27.3025 -27.2945  16.8263  19.0427  19.3714  19.8827  22.1781
    22.2771  37.3920  42.1439  45.4005

          k =-0.3333 0.5556-0.3333 (   300 PWs)   bands (ev):

   -27.8258 -27.3356 -27.3201  16.6958  18.9705  19.6228  20.5073  22.8338
    24.3654  33.2489  40.9548  44.8904

          k = 0.5556-0.3333 0.5556 (   294 PWs)   bands (ev):

   -27.8718 -27.3603 -27.3129  16.6418  18.8967  19.4920  21.1689  22.7102
    25.6425  31.5684  40.5405  44.3407

          k = 0.4444-0.2222 0.4444 (   297 PWs)   bands (ev):

   -27.7768 -27.3561 -27.2848  16.8195  19.1273  19.6157  20.3130  21.8870
    24.0638  34.6095  41.0061  44.5224

          k = 0.3333-0.1111 0.3333 (   302 PWs)   bands (ev):

   -27.5852 -27.3219 -27.2484  16.8018  18.7872  19.5907  19.9017  20.9302
    22.5262  38.8098  41.9082  46.1768

          k = 0.2222-0.0000 0.2222 (   305 PWs)   bands (ev):

   -27.3909 -27.2664 -27.2208  15.7615  18.7512  19.6867  19.7064  20.8287
    21.5889  42.0906  42.2786  46.1993

          k = 0.0000 0.4444 0.0000 (   303 PWs)   bands (ev):

   -27.4862 -27.3107 -27.3107  16.6344  17.9295  20.3826  20.5562  20.5562
    21.8963  42.9333  43.8315  43.8317

          k =-0.1111 0.5556-0.1111 (   301 PWs)   bands (ev):

   -27.6314 -27.3580 -27.3501  17.1014  17.6695  19.9666  20.8477  22.3349
    22.3816  39.4051  42.3312  42.4149

          k =-0.2222 0.6667-0.2222 (   303 PWs)   bands (ev):

   -27.7606 -27.4252 -27.3690  17.0633  18.1002  19.7128  20.6327  22.9212
    25.2167  34.8846  40.5544  41.9789

          k = 0.6667-0.2222 0.6667 (   298 PWs)   bands (ev):

   -27.8050 -27.4907 -27.3583  17.2002  18.3319  19.8180  20.3796  22.7527
    28.1954  31.4959  39.0603  43.0475

          k = 0.5556-0.1111 0.5556 (   299 PWs)   bands (ev):

   -27.7582 -27.5101 -27.3233  17.6034  18.5370  19.4570  20.3012  21.8757
    26.7832  33.9632  38.2313  43.6570

          k = 0.4444 0.0000 0.4444 (   301 PWs)   bands (ev):

   -27.6724 -27.4430 -27.2798  17.8853  18.3791  19.1570  20.3883  20.8804
    24.4579  37.8368  38.8190  44.5242

          k = 0.0000 0.6667 0.0000 (   310 PWs)   bands (ev):

   -27.7050 -27.3972 -27.3972  16.7417  17.0194  21.9192  21.9192  22.2751
    22.4115  40.1662  40.1662  40.3986

          k =-0.1111 0.7778-0.1111 (   307 PWs)   bands (ev):

   -27.7815 -27.4567 -27.4216  16.6096  16.9277  21.4136  21.9376  22.9635
    25.3333  36.8337  38.2838  39.2261

          k = 0.7778-0.1111 0.7778 (   298 PWs)   bands (ev):

   -27.7757 -27.5599 -27.4123  16.7953  17.4594  20.5346  21.5927  22.8915
    29.1018  32.9451  36.3634  40.0958

          k = 0.6667-0.0000 0.6667 (   284 PWs)   bands (ev):

   -27.6757 -27.6718 -27.3733  17.3283  18.2823  19.4789  21.0955  22.2483
    29.6240  32.9702  35.3473  42.5363

          k = 0.0000 0.8889 0.0000 (   302 PWs)   bands (ev):

   -27.8422 -27.4532 -27.4532  16.1553  16.4844  22.7677  23.0761  23.0761
    25.5530  36.2194  37.6141  37.6141

          k = 0.8889 0.0000 0.8889 (   302 PWs)   bands (ev):

   -27.8372 -27.4971 -27.4495  16.2732  16.6507  22.1987  22.5190  23.1393
    27.6650  35.1554  35.7938  37.9537

          k =-0.2222 0.4444 0.0000 (   304 PWs)   bands (ev):

   -27.5638 -27.3483 -27.2775  17.0926  18.1121  19.4852  20.5576  20.9432
    22.5767  40.2286  41.4427  45.1579

          k =-0.3333 0.5556-0.1111 (   304 PWs)   bands (ev):

   -27.7115 -27.4163 -27.3124  17.4039  18.6431  18.9739  20.4918  21.8523
    24.4344  36.3966  40.3764  43.0087

          k = 0.5556-0.3333 0.7778 (   299 PWs)   bands (ev):

   -27.8111 -27.4485 -27.3429  17.2362  18.4433  19.7931  20.2264  22.6003
    26.9157  32.3610  40.2487  41.7623

          k =-0.2222 0.6667 0.0000 (   304 PWs)   bands (ev):

   -27.7182 -27.4406 -27.3767  17.2384  17.3683  19.9220  21.9067  21.9566
    24.6023  38.2130  38.7975  40.6396

          k = 0.6667-0.2222 0.8889 (   298 PWs)   bands (ev):

   -27.7599 -27.5232 -27.4031  17.2573  17.7672  19.5609  21.3778  22.7323
    27.6744  34.1515  38.5571  38.6979

          k = 0.5556-0.1111 0.7778 (   293 PWs)   bands (ev):

   -27.7377 -27.5905 -27.3932  17.5918  18.1282  19.1934  20.9499  22.6296
    29.9088  31.9583  36.9817  39.8771

          k = 0.4444 0.0000 0.6667 (   299 PWs)   bands (ev):

   -27.7221 -27.5495 -27.3533  18.1880  18.3214  18.4251  21.0267  21.9291
    27.0558  36.0131  36.1974  41.4942

          k = 0.7778-0.1111 1.0000 (   301 PWs)   bands (ev):

   -27.8040 -27.5003 -27.4524  16.6044  16.9146  21.1189  22.2785  23.0733
    27.7558  35.9944  36.5585  36.7940

          k = 0.6667-0.0000 0.8889 (   294 PWs)   bands (ev):

   -27.7514 -27.5887 -27.4420  16.9715  17.5301  20.1012  21.6007  23.0637
    30.6315  33.1170  35.1960  37.8886

          k = 0.5556-0.1111 1.0000 (   298 PWs)   bands (ev):

   -27.7056 -27.6187 -27.4484  17.4167  18.1653  18.9579  21.2465  23.0674
    30.7006  33.9187  35.2778  36.8374

     the Fermi energy is    22.8274 ev

!    total energy              =    -198.67515069 Ry
     Harris-Foulkes estimate   =    -198.67515064 Ry
     estimated scf accuracy    <       0.00000009 Ry

     The total energy is the sum of the following terms:

     one-electron contribution =     -31.00142289 Ry
     hartree contribution      =      31.51005581 Ry
     xc contribution           =     -31.50900090 Ry
     ewald contribution        =    -167.67495590 Ry
     smearing contrib. (-TS)   =       0.00017319 Ry

     convergence has been achieved in   5 iterations

     Writing output data file Pd-kp-conv.save/
 
     init_run     :      0.41s CPU      0.44s WALL (       1 calls)
     electrons    :      1.24s CPU      1.39s WALL (       1 calls)

     Called by init_run:
     wfcinit      :      0.09s CPU      0.10s WALL (       1 calls)
     potinit      :      0.00s CPU      0.01s WALL (       1 calls)
     hinit0       :      0.30s CPU      0.31s WALL (       1 calls)

     Called by electrons:
     c_bands      :      1.01s CPU      1.11s WALL (       5 calls)
     sum_band     :      0.19s CPU      0.21s WALL (       5 calls)
     v_of_rho     :      0.02s CPU      0.02s WALL (       6 calls)
     newd         :      0.03s CPU      0.03s WALL (       6 calls)
     mix_rho      :      0.00s CPU      0.00s WALL (       5 calls)

     Called by c_bands:
     init_us_2    :      0.03s CPU      0.03s WALL (     385 calls)
     cegterg      :      0.94s CPU      1.03s WALL (     175 calls)

     Called by sum_band:
     sum_band:bec :      0.00s CPU      0.00s WALL (     175 calls)
     addusdens    :      0.03s CPU      0.03s WALL (       5 calls)

     Called by *egterg:
     h_psi        :      0.77s CPU      0.85s WALL (     624 calls)
     s_psi        :      0.01s CPU      0.01s WALL (     624 calls)
     g_psi        :      0.01s CPU      0.01s WALL (     414 calls)
     cdiaghg      :      0.15s CPU      0.16s WALL (     589 calls)

     Called by h_psi:
     h_psi:pot    :      0.77s CPU      0.85s WALL (     624 calls)
     h_psi:calbec :      0.02s CPU      0.02s WALL (     624 calls)
     vloc_psi     :      0.73s CPU      0.81s WALL (     624 calls)
     add_vuspsi   :      0.01s CPU      0.01s WALL (     624 calls)

     General routines
     calbec       :      0.02s CPU      0.02s WALL (     799 calls)
     fft          :      0.01s CPU      0.01s WALL (      67 calls)
     ffts         :      0.00s CPU      0.00s WALL (       5 calls)
     fftw         :      0.75s CPU      0.83s WALL (   13430 calls)
 
     Parallel routines
     fft_scatt_xy :      0.14s CPU      0.15s WALL (   13502 calls)
     fft_scatt_yz :      0.19s CPU      0.22s WALL (   13502 calls)
 
     PWSCF        :     1.74s CPU         2.40s WALL

 
   This run was terminated on:  20:30:33   2Dec2021            

=------------------------------------------------------------------------------=
   JOB DONE.
=------------------------------------------------------------------------------=
