
     Program PWSCF v.6.3 starts on  2Dec2021 at 20:30:51 

     This program is part of the open-source Quantum ESPRESSO suite
     for quantum simulation of materials; please cite
         "P. Giannozzi et al., J. Phys.:Condens. Matter 21 395502 (2009);
         "P. Giannozzi et al., J. Phys.:Condens. Matter 29 465901 (2017);
          URL http://www.quantum-espresso.org", 
     in publications or presentations arising from this work. More details at
     http://www.quantum-espresso.org/quote

     Parallel version (MPI & OpenMP), running on       2 processor cores
     Number of MPI processes:                 2
     Threads/MPI process:                     1

     MPI processes distributed on     1 nodes
     R & G space division:  proc/nbgrp/npool/nimage =       2
     Reading input from pw-input.in

     Current dimensions of program PWSCF are:
     Max number of different atomic species (ntypx) = 10
     Max number of k-points (npk) =  40000
     Max angular momentum in pseudopotentials (lmaxx) =  3

     Subspace diagonalization in iterative solution of the eigenvalue problem:
     a serial algorithm will be used

 
     Parallelization info
     --------------------
     sticks:   dense  smooth     PW     G-vecs:    dense   smooth      PW
     Min         141     141     45                 1559     1559     304
     Max         142     142     46                 1560     1560     305
     Sum         283     283     91                 3119     3119     609
 

     Title: 
     Pd-kp-conv                                                                 


     bravais-lattice index     =            2
     lattice parameter (alat)  =       7.6000  a.u.
     unit-cell volume          =     109.7440 (a.u.)^3
     number of atoms/cell      =            1
     number of atomic types    =            1
     number of electrons       =        16.00
     number of Kohn-Sham states=           12
     kinetic-energy cutoff     =      35.0000  Ry
     charge density cutoff     =     140.0000  Ry
     convergence threshold     =      1.0E-07
     mixing beta               =       0.7000
     number of iterations used =            8  plain     mixing
     Exchange-correlation      =  SLA  PW   PBX  PBC ( 1  4  3  4 0 0)

     celldm(1)=   7.600000  celldm(2)=   0.000000  celldm(3)=   0.000000
     celldm(4)=   0.000000  celldm(5)=   0.000000  celldm(6)=   0.000000

     crystal axes: (cart. coord. in units of alat)
               a(1) = (  -0.500000   0.000000   0.500000 )  
               a(2) = (   0.000000   0.500000   0.500000 )  
               a(3) = (  -0.500000   0.500000   0.000000 )  

     reciprocal axes: (cart. coord. in units 2 pi/alat)
               b(1) = ( -1.000000 -1.000000  1.000000 )  
               b(2) = (  1.000000  1.000000  1.000000 )  
               b(3) = ( -1.000000  1.000000 -1.000000 )  


     PseudoPot. # 1 for Pd read from file:
     ./pd_pbe_v1.4.uspp.F.UPF
     MD5 check sum: 2d733d2bc2cbfd217af676df1668a4bc
     Pseudo is Ultrasoft + core correction, Zval = 16.0
     Generated by new atomic code, or converted to UPF format
     Using radial grid of  887 points,  6 beta functions with: 
                l(1) =   0
                l(2) =   0
                l(3) =   1
                l(4) =   1
                l(5) =   2
                l(6) =   2
     Q(r) pseudized with  8 coefficients,  rinner =    1.130   1.130   1.130
                                                       1.130   1.130

     atomic species   valence    mass     pseudopotential
        Pd            16.00   106.40000     Pd( 1.00)

     48 Sym. Ops., with inversion, found



   Cartesian axes

     site n.     atom                  positions (alat units)
         1           Pd  tau(   1) = (   0.0000000   0.0000000   0.0000000  )

     number of k points=    35  Marzari-Vanderbilt smearing, width (Ry)=  0.0050
                       cart. coord. in units 2pi/alat
        k(    1) = (   0.0000000   0.0000000   0.0000000), wk =   0.0027435
        k(    2) = (  -0.1111111   0.1111111  -0.1111111), wk =   0.0219479
        k(    3) = (  -0.2222222   0.2222222  -0.2222222), wk =   0.0219479
        k(    4) = (  -0.3333333   0.3333333  -0.3333333), wk =   0.0219479
        k(    5) = (  -0.4444444   0.4444444  -0.4444444), wk =   0.0219479
        k(    6) = (   0.0000000   0.2222222   0.0000000), wk =   0.0164609
        k(    7) = (  -0.1111111   0.3333333  -0.1111111), wk =   0.0658436
        k(    8) = (  -0.2222222   0.4444444  -0.2222222), wk =   0.0658436
        k(    9) = (  -0.3333333   0.5555556  -0.3333333), wk =   0.0658436
        k(   10) = (   0.5555556  -0.3333333   0.5555556), wk =   0.0658436
        k(   11) = (   0.4444444  -0.2222222   0.4444444), wk =   0.0658436
        k(   12) = (   0.3333333  -0.1111111   0.3333333), wk =   0.0658436
        k(   13) = (   0.2222222  -0.0000000   0.2222222), wk =   0.0329218
        k(   14) = (   0.0000000   0.4444444   0.0000000), wk =   0.0164609
        k(   15) = (  -0.1111111   0.5555556  -0.1111111), wk =   0.0658436
        k(   16) = (  -0.2222222   0.6666667  -0.2222222), wk =   0.0658436
        k(   17) = (   0.6666667  -0.2222222   0.6666667), wk =   0.0658436
        k(   18) = (   0.5555556  -0.1111111   0.5555556), wk =   0.0658436
        k(   19) = (   0.4444444   0.0000000   0.4444444), wk =   0.0329218
        k(   20) = (   0.0000000   0.6666667   0.0000000), wk =   0.0164609
        k(   21) = (  -0.1111111   0.7777778  -0.1111111), wk =   0.0658436
        k(   22) = (   0.7777778  -0.1111111   0.7777778), wk =   0.0658436
        k(   23) = (   0.6666667  -0.0000000   0.6666667), wk =   0.0329218
        k(   24) = (   0.0000000   0.8888889   0.0000000), wk =   0.0164609
        k(   25) = (   0.8888889   0.0000000   0.8888889), wk =   0.0329218
        k(   26) = (  -0.2222222   0.4444444   0.0000000), wk =   0.0658436
        k(   27) = (  -0.3333333   0.5555556  -0.1111111), wk =   0.1316872
        k(   28) = (   0.5555556  -0.3333333   0.7777778), wk =   0.1316872
        k(   29) = (  -0.2222222   0.6666667   0.0000000), wk =   0.0658436
        k(   30) = (   0.6666667  -0.2222222   0.8888889), wk =   0.1316872
        k(   31) = (   0.5555556  -0.1111111   0.7777778), wk =   0.1316872
        k(   32) = (   0.4444444   0.0000000   0.6666667), wk =   0.0658436
        k(   33) = (   0.7777778  -0.1111111   1.0000000), wk =   0.0658436
        k(   34) = (   0.6666667  -0.0000000   0.8888889), wk =   0.0658436
        k(   35) = (   0.5555556  -0.1111111   1.0000000), wk =   0.0658436

     Dense  grid:     3119 G-vectors     FFT dimensions: (  24,  24,  24)

     Estimated max dynamical RAM per process >       8.04 MB

     Estimated total dynamical RAM >      16.08 MB

     Initial potential from superposition of free atoms
     Check: negative starting charge=   -0.079189

     starting charge   15.49999, renormalised to   16.00000

     negative rho (up, down):  8.174E-02 0.000E+00
     Starting wfcs are   12 randomized atomic wfcs

     total cpu time spent up to now is        0.6 secs

     Self-consistent Calculation

     iteration #  1     ecut=    35.00 Ry     beta= 0.70
     Davidson diagonalization with overlap
     ethr =  1.00E-02,  avg # of iterations =  3.7

     negative rho (up, down):  8.052E-02 0.000E+00

     total cpu time spent up to now is        1.1 secs

     total energy              =    -198.13789780 Ry
     Harris-Foulkes estimate   =    -199.04842201 Ry
     estimated scf accuracy    <       1.25070770 Ry

     iteration #  2     ecut=    35.00 Ry     beta= 0.70
     Davidson diagonalization with overlap
     ethr =  7.82E-03,  avg # of iterations =  2.0

     negative rho (up, down):  8.185E-02 0.000E+00

     total cpu time spent up to now is        1.4 secs

     total energy              =    -198.43653871 Ry
     Harris-Foulkes estimate   =    -199.08171064 Ry
     estimated scf accuracy    <       1.30589325 Ry

     iteration #  3     ecut=    35.00 Ry     beta= 0.70
     Davidson diagonalization with overlap
     ethr =  7.82E-03,  avg # of iterations =  2.0

     negative rho (up, down):  8.202E-02 0.000E+00

     total cpu time spent up to now is        1.8 secs

     total energy              =    -198.69884357 Ry
     Harris-Foulkes estimate   =    -198.69985821 Ry
     estimated scf accuracy    <       0.00219276 Ry

     iteration #  4     ecut=    35.00 Ry     beta= 0.70
     Davidson diagonalization with overlap
     ethr =  1.37E-05,  avg # of iterations =  2.5

     negative rho (up, down):  8.218E-02 0.000E+00

     total cpu time spent up to now is        2.5 secs

     total energy              =    -198.69956015 Ry
     Harris-Foulkes estimate   =    -198.69955752 Ry
     estimated scf accuracy    <       0.00000486 Ry

     iteration #  5     ecut=    35.00 Ry     beta= 0.70
     Davidson diagonalization with overlap
     ethr =  3.04E-08,  avg # of iterations =  1.8

     negative rho (up, down):  8.222E-02 0.000E+00

     total cpu time spent up to now is        2.8 secs

     total energy              =    -198.69956072 Ry
     Harris-Foulkes estimate   =    -198.69956063 Ry
     estimated scf accuracy    <       0.00000037 Ry

     iteration #  6     ecut=    35.00 Ry     beta= 0.70
     Davidson diagonalization with overlap
     ethr =  2.32E-09,  avg # of iterations =  2.0

     negative rho (up, down):  8.222E-02 0.000E+00

     total cpu time spent up to now is        3.2 secs

     End of self-consistent calculation

          k = 0.0000 0.0000 0.0000 (   387 PWs)   bands (ev):

   -33.1395 -33.1395 -33.1395   9.9169  13.8952  13.8952  13.8952  15.2697
    15.2697  34.0282  38.2279  38.2279

          k =-0.1111 0.1111-0.1111 (   369 PWs)   bands (ev):

   -33.1732 -33.1441 -33.1441  10.3212  13.7807  14.0187  14.0187  15.2241
    15.2241  34.1472  35.8132  38.5197

          k =-0.2222 0.2222-0.2222 (   374 PWs)   bands (ev):

   -33.2583 -33.1565 -33.1565  11.2934  13.7533  14.1627  14.1627  15.3148
    15.3148  31.1825  34.9297  38.9426

          k =-0.3333 0.3333-0.3333 (   389 PWs)   bands (ev):

   -33.3539 -33.1709 -33.1709  11.8105  14.0365  14.0365  14.9272  15.7900
    15.7900  27.0460  34.0819  38.1906

          k =-0.4444 0.4444-0.4444 (   386 PWs)   bands (ev):

   -33.4156 -33.1800 -33.1800  11.7664  13.8861  13.8861  16.2251  16.2251
    17.0591  23.5916  33.3541  37.0702

          k = 0.0000 0.2222 0.0000 (   371 PWs)   bands (ev):

   -33.1723 -33.1518 -33.1518  10.4567  13.6340  14.1275  14.1275  15.0103
    15.3808  34.4313  36.5655  37.2738

          k =-0.1111 0.3333-0.1111 (   374 PWs)   bands (ev):

   -33.2352 -33.1665 -33.1620  11.2734  13.4053  14.2774  14.3540  15.0016
    15.5278  32.7968  35.0242  36.3836

          k =-0.2222 0.4444-0.2222 (   377 PWs)   bands (ev):

   -33.3235 -33.1810 -33.1778  12.0244  13.7473  14.0016  14.3347  15.9196
    15.9287  28.6204  34.3731  35.6590

          k =-0.3333 0.5556-0.3333 (   385 PWs)   bands (ev):

   -33.3932 -33.1950 -33.1890  12.0378  13.7388  14.1643  14.8091  16.2793
    17.7077  24.6956  33.4551  35.3740

          k = 0.5556-0.3333 0.5556 (   389 PWs)   bands (ev):

   -33.4124 -33.2053 -33.1864  12.0097  13.6867  14.0780  15.2795  16.2013
    18.8864  23.0368  32.9593  35.1729

          k = 0.4444-0.2222 0.4444 (   388 PWs)   bands (ev):

   -33.3730 -33.2032 -33.1746  12.1024  13.8361  14.1621  14.6827  15.6726
    17.3113  25.9556  32.9939  35.5283

          k = 0.3333-0.1111 0.3333 (   381 PWs)   bands (ev):

   -33.2940 -33.1886 -33.1590  11.9051  13.5739  14.1497  14.3495  15.0437
    16.1107  30.0443  33.4348  37.0556

          k = 0.2222-0.0000 0.2222 (   375 PWs)   bands (ev):

   -33.2148 -33.1655 -33.1471  10.9450  13.5702  14.1968  14.2081  14.9712
    15.4660  33.9228  33.9480  37.4489

          k = 0.0000 0.4444 0.0000 (   375 PWs)   bands (ev):

   -33.2537 -33.1838 -33.1838  11.7365  13.0188  14.6833  14.7837  14.7837
    15.6658  34.4453  34.4453  34.7639

          k =-0.1111 0.5556-0.1111 (   385 PWs)   bands (ev):

   -33.3134 -33.2038 -33.2007  12.2801  12.8235  14.3883  14.9829  15.9846
    16.0547  30.5578  33.1953  33.6421

          k =-0.2222 0.6667-0.2222 (   387 PWs)   bands (ev):

   -33.3670 -33.2314 -33.2089  12.3589  13.1404  14.2086  14.8457  16.3347
    18.2952  26.3960  31.7997  32.8609

          k = 0.6667-0.2222 0.6667 (   384 PWs)   bands (ev):

   -33.3855 -33.2579 -33.2049  12.4552  13.3116  14.3008  14.6817  16.2294
    20.8948  23.1830  30.2763  33.7274

          k = 0.5556-0.1111 0.5556 (   382 PWs)   bands (ev):

   -33.3660 -33.2656 -33.1903  12.7129  13.4505  14.0578  14.6332  15.6652
    19.4870  25.4200  29.4302  35.3082

          k = 0.4444 0.0000 0.4444 (   383 PWs)   bands (ev):

   -33.3302 -33.2380 -33.1722  12.8012  13.3092  13.8775  14.6931  15.0050
    17.5294  29.2053  29.6716  36.1289

          k = 0.0000 0.6667 0.0000 (   387 PWs)   bands (ev):

   -33.3440 -33.2203 -33.2203  12.1187  12.3882  15.6935  15.6935  16.0045
    16.1569  31.3743  31.3945  31.3945

          k =-0.1111 0.7778-0.1111 (   380 PWs)   bands (ev):

   -33.3761 -33.2445 -33.2303  12.0838  12.3156  15.3963  15.7097  16.3630
    18.4916  28.3647  29.2434  30.6692

          k = 0.7778-0.1111 0.7778 (   386 PWs)   bands (ev):

   -33.3743 -33.2866 -33.2270  12.2325  12.6788  14.7906  15.4891  16.3185
    21.5409  24.9104  27.4491  31.3261

          k = 0.6667-0.0000 0.6667 (   383 PWs)   bands (ev):

   -33.3332 -33.3320 -33.2111  12.6008  13.2436  14.0572  15.1658  15.9047
    21.9612  24.7220  26.6178  33.2134

          k = 0.0000 0.8889 0.0000 (   388 PWs)   bands (ev):

   -33.4015 -33.2440 -33.2440  11.7786  12.0086  16.2353  16.4375  16.4375
    19.0159  27.0383  29.4510  29.4510

          k = 0.8889 0.0000 0.8889 (   383 PWs)   bands (ev):

   -33.3997 -33.2614 -33.2424  11.8714  12.1186  15.9176  16.0839  16.4761
    20.6301  26.1053  27.6655  29.6991

          k =-0.2222 0.4444 0.0000 (   378 PWs)   bands (ev):

   -33.2854 -33.1993 -33.1708  12.1061  13.1375  14.0824  14.7863  15.0589
    16.1444  31.6340  32.2306  36.1100

          k =-0.3333 0.5556-0.1111 (   384 PWs)   bands (ev):

   -33.3463 -33.2275 -33.1856  12.5394  13.4913  13.7187  14.7536  15.6611
    17.5601  27.6874  31.4866  34.1978

          k = 0.5556-0.3333 0.7778 (   384 PWs)   bands (ev):

   -33.3877 -33.2409 -33.1984  12.4501  13.3963  14.2912  14.5812  16.1355
    19.7324  23.9544  31.6694  32.6917

          k =-0.2222 0.6667 0.0000 (   387 PWs)   bands (ev):

   -33.3495 -33.2378 -33.2120  12.4860  12.6202  14.3577  15.6853  15.7398
    17.7462  29.5690  29.9051  31.6103

          k = 0.6667-0.2222 0.8889 (   390 PWs)   bands (ev):

   -33.3674 -33.2716 -33.2231  12.5391  12.9016  14.1098  15.3514  16.2193
    20.2698  25.8244  29.5293  30.0026

          k = 0.5556-0.1111 0.7778 (   387 PWs)   bands (ev):

   -33.3585 -33.2990 -33.2191  12.7859  13.1338  13.8628  15.0696  16.1531
    22.2517  23.7223  28.1909  30.9353

          k = 0.4444 0.0000 0.6667 (   392 PWs)   bands (ev):

   -33.3516 -33.2822 -33.2027  13.2265  13.2628  13.2823  15.1245  15.6980
    19.6795  27.2910  27.5928  32.5173

          k = 0.7778-0.1111 1.0000 (   385 PWs)   bands (ev):

   -33.3858 -33.2628 -33.2432  12.1028  12.2992  15.1920  15.9379  16.4366
    20.5218  27.0214  28.2318  28.4352

          k = 0.6667-0.0000 0.8889 (   383 PWs)   bands (ev):

   -33.3645 -33.2984 -33.2391  12.3691  12.7189  14.4917  15.5010  16.4296
    22.9026  25.0341  26.3512  29.2730

          k = 0.5556-0.1111 1.0000 (   388 PWs)   bands (ev):

   -33.3458 -33.3107 -33.2414  12.6884  13.1528  13.6956  15.2729  16.4322
    22.8505  25.6841  26.6303  28.1379

     the Fermi energy is    16.2796 ev

!    total energy              =    -198.69956079 Ry
     Harris-Foulkes estimate   =    -198.69956079 Ry
     estimated scf accuracy    <          4.3E-09 Ry

     The total energy is the sum of the following terms:

     one-electron contribution =     -51.09040073 Ry
     hartree contribution      =      38.12673748 Ry
     xc contribution           =     -31.29861251 Ry
     ewald contribution        =    -154.43745938 Ry
     smearing contrib. (-TS)   =       0.00017435 Ry

     convergence has been achieved in   6 iterations

     Writing output data file Pd-kp-conv.save/
 
     init_run     :      0.46s CPU      0.51s WALL (       1 calls)
     electrons    :      2.04s CPU      2.63s WALL (       1 calls)

     Called by init_run:
     wfcinit      :      0.13s CPU      0.14s WALL (       1 calls)
     potinit      :      0.01s CPU      0.02s WALL (       1 calls)
     hinit0       :      0.32s CPU      0.32s WALL (       1 calls)

     Called by electrons:
     c_bands      :      1.65s CPU      1.85s WALL (       6 calls)
     sum_band     :      0.33s CPU      0.35s WALL (       6 calls)
     v_of_rho     :      0.03s CPU      0.03s WALL (       7 calls)
     newd         :      0.04s CPU      0.05s WALL (       7 calls)
     mix_rho      :      0.00s CPU      0.00s WALL (       6 calls)

     Called by c_bands:
     init_us_2    :      0.04s CPU      0.04s WALL (     455 calls)
     cegterg      :      1.53s CPU      1.63s WALL (     210 calls)

     Called by sum_band:
     sum_band:bec :      0.00s CPU      0.00s WALL (     210 calls)
     addusdens    :      0.04s CPU      0.04s WALL (       6 calls)

     Called by *egterg:
     h_psi        :      1.33s CPU      1.42s WALL (     733 calls)
     s_psi        :      0.02s CPU      0.02s WALL (     733 calls)
     g_psi        :      0.01s CPU      0.01s WALL (     488 calls)
     cdiaghg      :      0.18s CPU      0.19s WALL (     698 calls)

     Called by h_psi:
     h_psi:pot    :      1.32s CPU      1.41s WALL (     733 calls)
     h_psi:calbec :      0.03s CPU      0.03s WALL (     733 calls)
     vloc_psi     :      1.27s CPU      1.36s WALL (     733 calls)
     add_vuspsi   :      0.02s CPU      0.02s WALL (     733 calls)

     General routines
     calbec       :      0.03s CPU      0.03s WALL (     943 calls)
     fft          :      0.01s CPU      0.01s WALL (      78 calls)
     ffts         :      0.00s CPU      0.00s WALL (       6 calls)
     fftw         :      1.29s CPU      1.38s WALL (   15706 calls)
 
     Parallel routines
     fft_scatt_xy :      0.24s CPU      0.26s WALL (   15790 calls)
     fft_scatt_yz :      0.27s CPU      0.29s WALL (   15790 calls)
 
     PWSCF        :     2.61s CPU         3.40s WALL

 
   This run was terminated on:  20:30:54   2Dec2021            

=------------------------------------------------------------------------------=
   JOB DONE.
=------------------------------------------------------------------------------=
