
     Program PWSCF v.6.3 starts on  2Dec2021 at 20:30:59 

     This program is part of the open-source Quantum ESPRESSO suite
     for quantum simulation of materials; please cite
         "P. Giannozzi et al., J. Phys.:Condens. Matter 21 395502 (2009);
         "P. Giannozzi et al., J. Phys.:Condens. Matter 29 465901 (2017);
          URL http://www.quantum-espresso.org", 
     in publications or presentations arising from this work. More details at
     http://www.quantum-espresso.org/quote

     Parallel version (MPI & OpenMP), running on       2 processor cores
     Number of MPI processes:                 2
     Threads/MPI process:                     1

     MPI processes distributed on     1 nodes
     R & G space division:  proc/nbgrp/npool/nimage =       2
     Reading input from pw-input.in

     Current dimensions of program PWSCF are:
     Max number of different atomic species (ntypx) = 10
     Max number of k-points (npk) =  40000
     Max angular momentum in pseudopotentials (lmaxx) =  3

     Subspace diagonalization in iterative solution of the eigenvalue problem:
     a serial algorithm will be used

 
     Parallelization info
     --------------------
     sticks:   dense  smooth     PW     G-vecs:    dense   smooth      PW
     Min         147     147     48                 1643     1643     322
     Max         148     148     49                 1644     1644     323
     Sum         295     295     97                 3287     3287     645
 

     Title: 
     Pd-kp-conv                                                                 


     bravais-lattice index     =            2
     lattice parameter (alat)  =       7.8000  a.u.
     unit-cell volume          =     118.6380 (a.u.)^3
     number of atoms/cell      =            1
     number of atomic types    =            1
     number of electrons       =        16.00
     number of Kohn-Sham states=           12
     kinetic-energy cutoff     =      35.0000  Ry
     charge density cutoff     =     140.0000  Ry
     convergence threshold     =      1.0E-07
     mixing beta               =       0.7000
     number of iterations used =            8  plain     mixing
     Exchange-correlation      =  SLA  PW   PBX  PBC ( 1  4  3  4 0 0)

     celldm(1)=   7.800000  celldm(2)=   0.000000  celldm(3)=   0.000000
     celldm(4)=   0.000000  celldm(5)=   0.000000  celldm(6)=   0.000000

     crystal axes: (cart. coord. in units of alat)
               a(1) = (  -0.500000   0.000000   0.500000 )  
               a(2) = (   0.000000   0.500000   0.500000 )  
               a(3) = (  -0.500000   0.500000   0.000000 )  

     reciprocal axes: (cart. coord. in units 2 pi/alat)
               b(1) = ( -1.000000 -1.000000  1.000000 )  
               b(2) = (  1.000000  1.000000  1.000000 )  
               b(3) = ( -1.000000  1.000000 -1.000000 )  


     PseudoPot. # 1 for Pd read from file:
     ./pd_pbe_v1.4.uspp.F.UPF
     MD5 check sum: 2d733d2bc2cbfd217af676df1668a4bc
     Pseudo is Ultrasoft + core correction, Zval = 16.0
     Generated by new atomic code, or converted to UPF format
     Using radial grid of  887 points,  6 beta functions with: 
                l(1) =   0
                l(2) =   0
                l(3) =   1
                l(4) =   1
                l(5) =   2
                l(6) =   2
     Q(r) pseudized with  8 coefficients,  rinner =    1.130   1.130   1.130
                                                       1.130   1.130

     atomic species   valence    mass     pseudopotential
        Pd            16.00   106.40000     Pd( 1.00)

     48 Sym. Ops., with inversion, found



   Cartesian axes

     site n.     atom                  positions (alat units)
         1           Pd  tau(   1) = (   0.0000000   0.0000000   0.0000000  )

     number of k points=    35  Marzari-Vanderbilt smearing, width (Ry)=  0.0050
                       cart. coord. in units 2pi/alat
        k(    1) = (   0.0000000   0.0000000   0.0000000), wk =   0.0027435
        k(    2) = (  -0.1111111   0.1111111  -0.1111111), wk =   0.0219479
        k(    3) = (  -0.2222222   0.2222222  -0.2222222), wk =   0.0219479
        k(    4) = (  -0.3333333   0.3333333  -0.3333333), wk =   0.0219479
        k(    5) = (  -0.4444444   0.4444444  -0.4444444), wk =   0.0219479
        k(    6) = (   0.0000000   0.2222222   0.0000000), wk =   0.0164609
        k(    7) = (  -0.1111111   0.3333333  -0.1111111), wk =   0.0658436
        k(    8) = (  -0.2222222   0.4444444  -0.2222222), wk =   0.0658436
        k(    9) = (  -0.3333333   0.5555556  -0.3333333), wk =   0.0658436
        k(   10) = (   0.5555556  -0.3333333   0.5555556), wk =   0.0658436
        k(   11) = (   0.4444444  -0.2222222   0.4444444), wk =   0.0658436
        k(   12) = (   0.3333333  -0.1111111   0.3333333), wk =   0.0658436
        k(   13) = (   0.2222222  -0.0000000   0.2222222), wk =   0.0329218
        k(   14) = (   0.0000000   0.4444444   0.0000000), wk =   0.0164609
        k(   15) = (  -0.1111111   0.5555556  -0.1111111), wk =   0.0658436
        k(   16) = (  -0.2222222   0.6666667  -0.2222222), wk =   0.0658436
        k(   17) = (   0.6666667  -0.2222222   0.6666667), wk =   0.0658436
        k(   18) = (   0.5555556  -0.1111111   0.5555556), wk =   0.0658436
        k(   19) = (   0.4444444   0.0000000   0.4444444), wk =   0.0329218
        k(   20) = (   0.0000000   0.6666667   0.0000000), wk =   0.0164609
        k(   21) = (  -0.1111111   0.7777778  -0.1111111), wk =   0.0658436
        k(   22) = (   0.7777778  -0.1111111   0.7777778), wk =   0.0658436
        k(   23) = (   0.6666667  -0.0000000   0.6666667), wk =   0.0329218
        k(   24) = (   0.0000000   0.8888889   0.0000000), wk =   0.0164609
        k(   25) = (   0.8888889   0.0000000   0.8888889), wk =   0.0329218
        k(   26) = (  -0.2222222   0.4444444   0.0000000), wk =   0.0658436
        k(   27) = (  -0.3333333   0.5555556  -0.1111111), wk =   0.1316872
        k(   28) = (   0.5555556  -0.3333333   0.7777778), wk =   0.1316872
        k(   29) = (  -0.2222222   0.6666667   0.0000000), wk =   0.0658436
        k(   30) = (   0.6666667  -0.2222222   0.8888889), wk =   0.1316872
        k(   31) = (   0.5555556  -0.1111111   0.7777778), wk =   0.1316872
        k(   32) = (   0.4444444   0.0000000   0.6666667), wk =   0.0658436
        k(   33) = (   0.7777778  -0.1111111   1.0000000), wk =   0.0658436
        k(   34) = (   0.6666667  -0.0000000   0.8888889), wk =   0.0658436
        k(   35) = (   0.5555556  -0.1111111   1.0000000), wk =   0.0658436

     Dense  grid:     3287 G-vectors     FFT dimensions: (  24,  24,  24)

     Estimated max dynamical RAM per process >       8.45 MB

     Estimated total dynamical RAM >      16.90 MB

     Initial potential from superposition of free atoms
     Check: negative starting charge=   -0.079046

     starting charge   15.49999, renormalised to   16.00000

     negative rho (up, down):  8.160E-02 0.000E+00
     Starting wfcs are   12 randomized atomic wfcs

     total cpu time spent up to now is        0.6 secs

     Self-consistent Calculation

     iteration #  1     ecut=    35.00 Ry     beta= 0.70
     Davidson diagonalization with overlap
     ethr =  1.00E-02,  avg # of iterations =  3.6

     negative rho (up, down):  8.027E-02 0.000E+00

     total cpu time spent up to now is        1.1 secs

     total energy              =    -198.05362059 Ry
     Harris-Foulkes estimate   =    -199.06145821 Ry
     estimated scf accuracy    <       1.37733999 Ry

     iteration #  2     ecut=    35.00 Ry     beta= 0.70
     Davidson diagonalization with overlap
     ethr =  8.61E-03,  avg # of iterations =  2.0

     negative rho (up, down):  8.155E-02 0.000E+00

     total cpu time spent up to now is        1.5 secs

     total energy              =    -198.35705447 Ry
     Harris-Foulkes estimate   =    -199.16621050 Ry
     estimated scf accuracy    <       1.68943468 Ry

     iteration #  3     ecut=    35.00 Ry     beta= 0.70
     Davidson diagonalization with overlap
     ethr =  8.61E-03,  avg # of iterations =  2.0

     negative rho (up, down):  8.163E-02 0.000E+00

     total cpu time spent up to now is        1.8 secs

     total energy              =    -198.69102430 Ry
     Harris-Foulkes estimate   =    -198.69214153 Ry
     estimated scf accuracy    <       0.00247623 Ry

     iteration #  4     ecut=    35.00 Ry     beta= 0.70
     Davidson diagonalization with overlap
     ethr =  1.55E-05,  avg # of iterations =  2.4

     negative rho (up, down):  8.178E-02 0.000E+00

     total cpu time spent up to now is        2.6 secs

     total energy              =    -198.69174610 Ry
     Harris-Foulkes estimate   =    -198.69175157 Ry
     estimated scf accuracy    <       0.00001537 Ry

     iteration #  5     ecut=    35.00 Ry     beta= 0.70
     Davidson diagonalization with overlap
     ethr =  9.61E-08,  avg # of iterations =  2.0

     negative rho (up, down):  8.180E-02 0.000E+00

     total cpu time spent up to now is        3.0 secs

     total energy              =    -198.69174986 Ry
     Harris-Foulkes estimate   =    -198.69175004 Ry
     estimated scf accuracy    <       0.00000068 Ry

     iteration #  6     ecut=    35.00 Ry     beta= 0.70
     Davidson diagonalization with overlap
     ethr =  4.24E-09,  avg # of iterations =  2.0

     negative rho (up, down):  8.181E-02 0.000E+00

     total cpu time spent up to now is        3.4 secs

     End of self-consistent calculation

          k = 0.0000 0.0000 0.0000 (   411 PWs)   bands (ev):

   -34.6893 -34.6893 -34.6893   8.7343  12.4620  12.4620  12.4620  13.6708
    13.6708  32.0799  35.8305  35.8305

          k =-0.1111 0.1111-0.1111 (   411 PWs)   bands (ev):

   -34.7142 -34.6929 -34.6929   9.1134  12.3627  12.5716  12.5716  13.6320
    13.6320  32.0317  33.5268  36.0245

          k =-0.2222 0.2222-0.2222 (   405 PWs)   bands (ev):

   -34.7772 -34.7021 -34.7021  10.0395  12.3442  12.6997  12.6997  13.7165
    13.7165  28.7828  32.8574  36.1948

          k =-0.3333 0.3333-0.3333 (   419 PWs)   bands (ev):

   -34.8488 -34.7131 -34.7131  10.5696  12.5906  12.5906  13.4345  14.1307
    14.1307  24.7211  32.0628  35.4136

          k =-0.4444 0.4444-0.4444 (   416 PWs)   bands (ev):

   -34.8949 -34.7199 -34.7199  10.5492  12.4590  12.4590  14.5083  14.5083
    15.4918  21.3415  31.3970  34.4365

          k = 0.0000 0.2222 0.0000 (   411 PWs)   bands (ev):

   -34.7133 -34.6987 -34.6987   9.2404  12.2334  12.6682  12.6682  13.4477
    13.7678  32.3646  34.2699  34.7176

          k =-0.1111 0.3333-0.1111 (   410 PWs)   bands (ev):

   -34.7601 -34.7096 -34.7061  10.0135  12.0348  12.8036  12.8689  13.4439
    13.8990  30.3830  32.8481  33.7460

          k =-0.2222 0.4444-0.2222 (   411 PWs)   bands (ev):

   -34.8262 -34.7205 -34.7179  10.7550  12.3431  12.5633  12.8537  14.2438
    14.2803  26.2596  32.2287  33.0150

          k =-0.3333 0.5556-0.3333 (   417 PWs)   bands (ev):

   -34.8783 -34.7310 -34.7266  10.7941  12.3336  12.7050  13.2991  14.5554
    15.9689  22.4455  31.3521  32.7754

          k = 0.5556-0.3333 0.5556 (   409 PWs)   bands (ev):

   -34.8923 -34.7385 -34.7245  10.7728  12.2878  12.6296  13.7175  14.4893
    17.1368  20.8004  30.7806  32.7230

          k = 0.4444-0.2222 0.4444 (   415 PWs)   bands (ev):

   -34.8632 -34.7370 -34.7157  10.8468  12.4167  12.7038  13.1954  14.0290
    15.5472  23.6671  30.6897  33.1613

          k = 0.3333-0.1111 0.3333 (   411 PWs)   bands (ev):

   -34.8042 -34.7260 -34.7039  10.6240  12.1846  12.6959  12.8677  13.4794
    14.4211  27.6539  31.0530  34.6317

          k = 0.2222-0.0000 0.2222 (   411 PWs)   bands (ev):

   -34.7450 -34.7088 -34.6949   9.7008  12.1789  12.7306  12.7406  13.4148
    13.8464  31.5837  31.6010  35.0678

          k = 0.0000 0.4444 0.0000 (   415 PWs)   bands (ev):

   -34.7742 -34.7227 -34.7227  10.4606  11.6930  13.1684  13.2482  13.2482
    14.0188  31.8893  31.8893  32.5096

          k =-0.1111 0.5556-0.1111 (   418 PWs)   bands (ev):

   -34.8188 -34.7374 -34.7353  11.0017  11.5198  12.9064  13.4244  14.2991
    14.4016  28.1596  30.7031  31.2483

          k =-0.2222 0.6667-0.2222 (   421 PWs)   bands (ev):

   -34.8588 -34.7581 -34.7417  11.0961  11.8097  12.7479  13.3053  14.6030
    16.4848  24.1394  29.3847  30.3955

          k = 0.6667-0.2222 0.6667 (   413 PWs)   bands (ev):

   -34.8726 -34.7779 -34.7385  11.1823  11.9629  12.8368  13.1632  14.5136
    18.9880  20.9954  27.8868  31.2044

          k = 0.5556-0.1111 0.5556 (   414 PWs)   bands (ev):

   -34.8581 -34.7838 -34.7277  11.4077  12.0828  12.6260  13.1207  14.0221
    17.5811  23.1691  27.0612  33.0923

          k = 0.4444 0.0000 0.4444 (   409 PWs)   bands (ev):

   -34.8313 -34.7630 -34.7139  11.4658  11.9509  12.4641  13.1743  13.4439
    15.7174  26.8584  27.2494  33.8118

          k = 0.0000 0.6667 0.0000 (   432 PWs)   bands (ev):

   -34.8418 -34.7502 -34.7502  10.8798  11.1325  14.0469  14.0469  14.3159
    14.5550  28.9019  29.0278  29.0278

          k =-0.1111 0.7778-0.1111 (   420 PWs)   bands (ev):

   -34.8656 -34.7683 -34.7578  10.8617  11.0687  13.8036  14.0605  14.6281
    16.7077  26.0559  26.8521  28.3595

          k = 0.7778-0.1111 0.7778 (   421 PWs)   bands (ev):

   -34.8645 -34.7992 -34.7553  10.9967  11.3955  13.2690  13.8706  14.5902
    19.5670  22.7640  25.0850  28.9620

          k = 0.6667-0.0000 0.6667 (   403 PWs)   bands (ev):

   -34.8335 -34.8328 -34.7431  11.3234  11.9021  12.6174  13.5907  14.2309
    19.9413  22.5691  24.2892  30.7038

          k = 0.0000 0.8889 0.0000 (   424 PWs)   bands (ev):

   -34.8845 -34.7677 -34.7677  10.5927  10.7943  14.5182  14.6949  14.6949
    17.3072  24.6034  27.2436  27.2436

          k = 0.8889 0.0000 0.8889 (   420 PWs)   bands (ev):

   -34.8833 -34.7808 -34.7666  10.6773  10.8928  14.2577  14.3867  14.7286
    18.8054  23.6881  25.4930  27.4689

          k =-0.2222 0.4444 0.0000 (   416 PWs)   bands (ev):

   -34.7979 -34.7341 -34.7128  10.8073  11.7990  12.6350  13.2504  13.4969
    14.4508  29.2479  29.7464  33.6530

          k =-0.3333 0.5556-0.1111 (   417 PWs)   bands (ev):

   -34.8434 -34.7552 -34.7241  11.2451  12.1175  12.3120  13.2264  14.0233
    15.7627  25.3629  29.0637  31.7738

          k = 0.5556-0.3333 0.7778 (   418 PWs)   bands (ev):

   -34.8742 -34.7653 -34.7338  11.1723  12.0355  12.8295  13.0778  14.4320
    17.8563  21.7459  29.2752  30.2534

          k =-0.2222 0.6667 0.0000 (   418 PWs)   bands (ev):

   -34.8459 -34.7629 -34.7437  11.2139  11.3398  12.8799  14.0399  14.0963
    15.9566  27.2203  27.5320  29.1659

          k = 0.6667-0.2222 0.8889 (   411 PWs)   bands (ev):

   -34.8591 -34.7880 -34.7519  11.2683  11.5957  12.6620  13.7540  14.5058
    18.3360  23.6111  27.1018  27.6737

          k = 0.5556-0.1111 0.7778 (   412 PWs)   bands (ev):

   -34.8525 -34.8083 -34.7491  11.4885  11.8013  12.4453  13.5065  14.4478
    20.2393  21.5596  25.8404  28.5322

          k = 0.4444 0.0000 0.6667 (   414 PWs)   bands (ev):

   -34.8473 -34.7958 -34.7368  11.8850  11.9101  11.9241  13.5565  14.0516
    17.7535  24.9965  25.2788  30.0680

          k = 0.7778-0.1111 1.0000 (   413 PWs)   bands (ev):

   -34.8728 -34.7815 -34.7673  10.8855  11.0528  13.6218  14.2642  14.6942
    18.6368  24.6180  25.9994  26.2055

          k = 0.6667-0.0000 0.8889 (   416 PWs)   bands (ev):

   -34.8572 -34.8081 -34.7640  11.1233  11.4283  13.0030  13.8837  14.6870
    20.8877  22.8611  24.0214  26.9655

          k = 0.5556-0.1111 1.0000 (   415 PWs)   bands (ev):

   -34.8433 -34.8171 -34.7656  11.4129  11.8121  12.2945  13.6855  14.6894
    20.7884  23.5140  24.3096  25.8327

     the Fermi energy is    14.5600 ev

!    total energy              =    -198.69174999 Ry
     Harris-Foulkes estimate   =    -198.69175002 Ry
     estimated scf accuracy    <       0.00000004 Ry

     The total energy is the sum of the following terms:

     one-electron contribution =     -57.28097371 Ry
     hartree contribution      =      40.32414476 Ry
     xc contribution           =     -31.25758603 Ry
     ewald contribution        =    -150.47752455 Ry
     smearing contrib. (-TS)   =       0.00018955 Ry

     convergence has been achieved in   6 iterations

     Writing output data file Pd-kp-conv.save/
 
     init_run     :      0.48s CPU      0.52s WALL (       1 calls)
     electrons    :      2.20s CPU      2.79s WALL (       1 calls)

     Called by init_run:
     wfcinit      :      0.14s CPU      0.15s WALL (       1 calls)
     potinit      :      0.01s CPU      0.02s WALL (       1 calls)
     hinit0       :      0.32s CPU      0.33s WALL (       1 calls)

     Called by electrons:
     c_bands      :      1.77s CPU      1.99s WALL (       6 calls)
     sum_band     :      0.35s CPU      0.37s WALL (       6 calls)
     v_of_rho     :      0.03s CPU      0.03s WALL (       7 calls)
     newd         :      0.04s CPU      0.05s WALL (       7 calls)
     mix_rho      :      0.00s CPU      0.00s WALL (       6 calls)

     Called by c_bands:
     init_us_2    :      0.04s CPU      0.05s WALL (     455 calls)
     cegterg      :      1.65s CPU      1.76s WALL (     210 calls)

     Called by sum_band:
     sum_band:bec :      0.00s CPU      0.00s WALL (     210 calls)
     addusdens    :      0.04s CPU      0.05s WALL (       6 calls)

     Called by *egterg:
     h_psi        :      1.44s CPU      1.53s WALL (     736 calls)
     s_psi        :      0.02s CPU      0.02s WALL (     736 calls)
     g_psi        :      0.01s CPU      0.01s WALL (     491 calls)
     cdiaghg      :      0.18s CPU      0.19s WALL (     701 calls)

     Called by h_psi:
     h_psi:pot    :      1.43s CPU      1.53s WALL (     736 calls)
     h_psi:calbec :      0.03s CPU      0.04s WALL (     736 calls)
     vloc_psi     :      1.38s CPU      1.46s WALL (     736 calls)
     add_vuspsi   :      0.02s CPU      0.02s WALL (     736 calls)

     General routines
     calbec       :      0.03s CPU      0.04s WALL (     946 calls)
     fft          :      0.01s CPU      0.01s WALL (      78 calls)
     ffts         :      0.00s CPU      0.00s WALL (       6 calls)
     fftw         :      1.40s CPU      1.49s WALL (   15948 calls)
 
     Parallel routines
     fft_scatt_xy :      0.26s CPU      0.28s WALL (   16032 calls)
     fft_scatt_yz :      0.29s CPU      0.32s WALL (   16032 calls)
 
     PWSCF        :     2.79s CPU         3.57s WALL

 
   This run was terminated on:  20:31: 3   2Dec2021            

=------------------------------------------------------------------------------=
   JOB DONE.
=------------------------------------------------------------------------------=
