
     Program PWSCF v.6.3 starts on  2Dec2021 at 22:22:43 

     This program is part of the open-source Quantum ESPRESSO suite
     for quantum simulation of materials; please cite
         "P. Giannozzi et al., J. Phys.:Condens. Matter 21 395502 (2009);
         "P. Giannozzi et al., J. Phys.:Condens. Matter 29 465901 (2017);
          URL http://www.quantum-espresso.org", 
     in publications or presentations arising from this work. More details at
     http://www.quantum-espresso.org/quote

     Parallel version (MPI & OpenMP), running on       2 processor cores
     Number of MPI processes:                 2
     Threads/MPI process:                     1

     MPI processes distributed on     1 nodes
     R & G space division:  proc/nbgrp/npool/nimage =       2
     Reading input from pw-input.in

     Current dimensions of program PWSCF are:
     Max number of different atomic species (ntypx) = 10
     Max number of k-points (npk) =  40000
     Max angular momentum in pseudopotentials (lmaxx) =  3

     Subspace diagonalization in iterative solution of the eigenvalue problem:
     a serial algorithm will be used

 
     Parallelization info
     --------------------
     sticks:   dense  smooth     PW     G-vecs:    dense   smooth      PW
     Min         132     132     42                 1445     1445     267
     Max         133     133     43                 1446     1446     270
     Sum         265     265     85                 2891     2891     537
 

     Title: 
     Pd-kp-conv                                                                 


     bravais-lattice index     =            2
     lattice parameter (alat)  =       7.5000  a.u.
     unit-cell volume          =     105.4688 (a.u.)^3
     number of atoms/cell      =            1
     number of atomic types    =            1
     number of electrons       =        16.00
     number of Kohn-Sham states=           12
     kinetic-energy cutoff     =      35.0000  Ry
     charge density cutoff     =     140.0000  Ry
     convergence threshold     =      1.0E-07
     mixing beta               =       0.7000
     number of iterations used =            8  plain     mixing
     Exchange-correlation      =  SLA  PW   PBX  PBC ( 1  4  3  4 0 0)

     celldm(1)=   7.500000  celldm(2)=   0.000000  celldm(3)=   0.000000
     celldm(4)=   0.000000  celldm(5)=   0.000000  celldm(6)=   0.000000

     crystal axes: (cart. coord. in units of alat)
               a(1) = (  -0.500000   0.000000   0.500000 )  
               a(2) = (   0.000000   0.500000   0.500000 )  
               a(3) = (  -0.500000   0.500000   0.000000 )  

     reciprocal axes: (cart. coord. in units 2 pi/alat)
               b(1) = ( -1.000000 -1.000000  1.000000 )  
               b(2) = (  1.000000  1.000000  1.000000 )  
               b(3) = ( -1.000000  1.000000 -1.000000 )  


     PseudoPot. # 1 for Pd read from file:
     ./pd_pbe_v1.4.uspp.F.UPF
     MD5 check sum: 2d733d2bc2cbfd217af676df1668a4bc
     Pseudo is Ultrasoft + core correction, Zval = 16.0
     Generated by new atomic code, or converted to UPF format
     Using radial grid of  887 points,  6 beta functions with: 
                l(1) =   0
                l(2) =   0
                l(3) =   1
                l(4) =   1
                l(5) =   2
                l(6) =   2
     Q(r) pseudized with  8 coefficients,  rinner =    1.130   1.130   1.130
                                                       1.130   1.130

     atomic species   valence    mass     pseudopotential
        Pd            16.00   106.40000     Pd( 1.00)

     48 Sym. Ops., with inversion, found



   Cartesian axes

     site n.     atom                  positions (alat units)
         1           Pd  tau(   1) = (   0.0000000   0.0000000   0.0000000  )

     number of k points=     8  Marzari-Vanderbilt smearing, width (Ry)=  0.0300
                       cart. coord. in units 2pi/alat
        k(    1) = (   0.0000000   0.0000000   0.0000000), wk =   0.0312500
        k(    2) = (  -0.2500000   0.2500000  -0.2500000), wk =   0.2500000
        k(    3) = (   0.5000000  -0.5000000   0.5000000), wk =   0.1250000
        k(    4) = (   0.0000000   0.5000000   0.0000000), wk =   0.1875000
        k(    5) = (   0.7500000  -0.2500000   0.7500000), wk =   0.7500000
        k(    6) = (   0.5000000   0.0000000   0.5000000), wk =   0.3750000
        k(    7) = (   0.0000000  -1.0000000   0.0000000), wk =   0.0937500
        k(    8) = (  -0.5000000  -1.0000000   0.0000000), wk =   0.1875000

     Dense  grid:     2891 G-vectors     FFT dimensions: (  20,  20,  20)

     Estimated max dynamical RAM per process >       6.49 MB

     Estimated total dynamical RAM >      12.98 MB

     Initial potential from superposition of free atoms
     Check: negative starting charge=   -0.084664

     starting charge   15.49999, renormalised to   16.00000

     negative rho (up, down):  8.740E-02 0.000E+00
     Starting wfcs are   12 randomized atomic wfcs

     total cpu time spent up to now is        0.5 secs

     Self-consistent Calculation

     iteration #  1     ecut=    35.00 Ry     beta= 0.70
     Davidson diagonalization with overlap
     ethr =  1.00E-02,  avg # of iterations =  3.5

     negative rho (up, down):  8.676E-02 0.000E+00

     total cpu time spent up to now is        0.6 secs

     total energy              =    -198.17716610 Ry
     Harris-Foulkes estimate   =    -199.04399629 Ry
     estimated scf accuracy    <       1.19431800 Ry

     iteration #  2     ecut=    35.00 Ry     beta= 0.70
     Davidson diagonalization with overlap
     ethr =  7.46E-03,  avg # of iterations =  2.0

     negative rho (up, down):  8.798E-02 0.000E+00

     total cpu time spent up to now is        0.7 secs

     total energy              =    -198.49173376 Ry
     Harris-Foulkes estimate   =    -199.03997930 Ry
     estimated scf accuracy    <       1.07800819 Ry

     iteration #  3     ecut=    35.00 Ry     beta= 0.70
     Davidson diagonalization with overlap
     ethr =  6.74E-03,  avg # of iterations =  2.1

     negative rho (up, down):  8.807E-02 0.000E+00

     total cpu time spent up to now is        0.8 secs

     total energy              =    -198.71301437 Ry
     Harris-Foulkes estimate   =    -198.71301155 Ry
     estimated scf accuracy    <       0.00004889 Ry

     iteration #  4     ecut=    35.00 Ry     beta= 0.70
     Davidson diagonalization with overlap
     ethr =  3.06E-07,  avg # of iterations =  3.1

     negative rho (up, down):  8.820E-02 0.000E+00

     total cpu time spent up to now is        0.9 secs

     total energy              =    -198.71324541 Ry
     Harris-Foulkes estimate   =    -198.71324412 Ry
     estimated scf accuracy    <       0.00000446 Ry

     iteration #  5     ecut=    35.00 Ry     beta= 0.70
     Davidson diagonalization with overlap
     ethr =  2.79E-08,  avg # of iterations =  1.5

     negative rho (up, down):  8.823E-02 0.000E+00

     total cpu time spent up to now is        0.9 secs

     End of self-consistent calculation

          k = 0.0000 0.0000 0.0000 (   339 PWs)   bands (ev):

   -32.1526 -32.1526 -32.1526  10.5777  14.7668  14.7668  14.7668  16.2435
    16.2435  35.0753  39.5019  39.5019

          k =-0.2500 0.2500-0.2500 (   359 PWs)   bands (ev):

   -32.3207 -32.1771 -32.1771  12.2277  14.7294  15.0378  15.0378  16.3848
    16.3848  31.4678  35.8930  40.4285

          k = 0.5000-0.5000 0.5000 (   368 PWs)   bands (ev):

   -32.4855 -32.2012 -32.2012  12.4705  14.7269  14.7269  17.3404  17.3404
    18.4330  24.2162  34.2938  38.3158

          k = 0.0000 0.5000 0.0000 (   351 PWs)   bands (ev):

   -32.3137 -32.2154 -32.2154  12.7182  13.6396  15.7013  15.9467  15.9467
    16.7593  35.0203  35.0203  35.4681

          k = 0.7500-0.2500 0.7500 (   370 PWs)   bands (ev):

   -32.4297 -32.2878 -32.2398  13.1232  13.8521  15.2062  15.9033  17.4218
    20.8889  26.2361  31.5923  33.8546

          k = 0.5000 0.0000 0.5000 (   373 PWs)   bands (ev):

   -32.3919 -32.2949 -32.2015  13.7748  14.2029  14.5650  15.6511  16.2050
    19.5409  29.5656  29.7406  36.9475

          k = 0.0000-1.0000 0.0000 (   360 PWs)   bands (ev):

   -32.4678 -32.2777 -32.2777  12.4170  12.6896  17.3169  17.6278  17.6278
    20.6625  27.5269  30.3727  30.3727

          k =-0.5000-1.0000 0.0000 (   380 PWs)   bands (ev):

   -32.3736 -32.3736 -32.2807  13.4073  14.2659  14.2659  16.1659  17.6279
    25.9368  25.9368  27.3064  28.5415

     the Fermi energy is    17.6083 ev

!    total energy              =    -198.71324585 Ry
     Harris-Foulkes estimate   =    -198.71324579 Ry
     estimated scf accuracy    <       0.00000008 Ry

     The total energy is the sum of the following terms:

     one-electron contribution =     -48.02297906 Ry
     hartree contribution      =      37.15562922 Ry
     xc contribution           =     -31.34565194 Ry
     ewald contribution        =    -156.49662553 Ry
     smearing contrib. (-TS)   =      -0.00361854 Ry

     convergence has been achieved in   5 iterations

     Writing output data file Pd-kp-conv.save/
 
     init_run     :      0.35s CPU      0.38s WALL (       1 calls)
     electrons    :      0.42s CPU      0.50s WALL (       1 calls)

     Called by init_run:
     wfcinit      :      0.02s CPU      0.03s WALL (       1 calls)
     potinit      :      0.01s CPU      0.02s WALL (       1 calls)
     hinit0       :      0.31s CPU      0.32s WALL (       1 calls)

     Called by electrons:
     c_bands      :      0.29s CPU      0.32s WALL (       5 calls)
     sum_band     :      0.08s CPU      0.09s WALL (       5 calls)
     v_of_rho     :      0.02s CPU      0.02s WALL (       6 calls)
     newd         :      0.04s CPU      0.04s WALL (       6 calls)
     mix_rho      :      0.00s CPU      0.00s WALL (       5 calls)

     Called by c_bands:
     init_us_2    :      0.01s CPU      0.01s WALL (      88 calls)
     cegterg      :      0.27s CPU      0.29s WALL (      40 calls)

     Called by sum_band:
     sum_band:bec :      0.00s CPU      0.00s WALL (      40 calls)
     addusdens    :      0.03s CPU      0.03s WALL (       5 calls)

     Called by *egterg:
     h_psi        :      0.21s CPU      0.23s WALL (     146 calls)
     s_psi        :      0.00s CPU      0.00s WALL (     146 calls)
     g_psi        :      0.00s CPU      0.00s WALL (      98 calls)
     cdiaghg      :      0.04s CPU      0.05s WALL (     138 calls)

     Called by h_psi:
     h_psi:pot    :      0.21s CPU      0.23s WALL (     146 calls)
     h_psi:calbec :      0.01s CPU      0.01s WALL (     146 calls)
     vloc_psi     :      0.20s CPU      0.22s WALL (     146 calls)
     add_vuspsi   :      0.00s CPU      0.00s WALL (     146 calls)

     General routines
     calbec       :      0.01s CPU      0.01s WALL (     186 calls)
     fft          :      0.01s CPU      0.01s WALL (      67 calls)
     ffts         :      0.00s CPU      0.00s WALL (       5 calls)
     fftw         :      0.20s CPU      0.22s WALL (    3112 calls)
 
     Parallel routines
     fft_scatt_xy :      0.04s CPU      0.04s WALL (    3184 calls)
     fft_scatt_yz :      0.06s CPU      0.06s WALL (    3184 calls)
 
     PWSCF        :     0.86s CPU         1.36s WALL

 
   This run was terminated on:  22:22:44   2Dec2021            

=------------------------------------------------------------------------------=
   JOB DONE.
=------------------------------------------------------------------------------=
