
     Program PWSCF v.6.3 starts on  2Dec2021 at 22:22:58 

     This program is part of the open-source Quantum ESPRESSO suite
     for quantum simulation of materials; please cite
         "P. Giannozzi et al., J. Phys.:Condens. Matter 21 395502 (2009);
         "P. Giannozzi et al., J. Phys.:Condens. Matter 29 465901 (2017);
          URL http://www.quantum-espresso.org", 
     in publications or presentations arising from this work. More details at
     http://www.quantum-espresso.org/quote

     Parallel version (MPI & OpenMP), running on       2 processor cores
     Number of MPI processes:                 2
     Threads/MPI process:                     1

     MPI processes distributed on     1 nodes
     R & G space division:  proc/nbgrp/npool/nimage =       2
     Reading input from pw-input.in

     Current dimensions of program PWSCF are:
     Max number of different atomic species (ntypx) = 10
     Max number of k-points (npk) =  40000
     Max angular momentum in pseudopotentials (lmaxx) =  3

     Subspace diagonalization in iterative solution of the eigenvalue problem:
     a serial algorithm will be used

 
     Parallelization info
     --------------------
     sticks:   dense  smooth     PW     G-vecs:    dense   smooth      PW
     Min         156     156     54                 1859     1859     362
     Max         157     157     55                 1860     1860     363
     Sum         313     313    109                 3719     3719     725
 

     Title: 
     Pd-kp-conv                                                                 


     bravais-lattice index     =            2
     lattice parameter (alat)  =       8.1000  a.u.
     unit-cell volume          =     132.8602 (a.u.)^3
     number of atoms/cell      =            1
     number of atomic types    =            1
     number of electrons       =        16.00
     number of Kohn-Sham states=           12
     kinetic-energy cutoff     =      35.0000  Ry
     charge density cutoff     =     140.0000  Ry
     convergence threshold     =      1.0E-07
     mixing beta               =       0.7000
     number of iterations used =            8  plain     mixing
     Exchange-correlation      =  SLA  PW   PBX  PBC ( 1  4  3  4 0 0)

     celldm(1)=   8.100000  celldm(2)=   0.000000  celldm(3)=   0.000000
     celldm(4)=   0.000000  celldm(5)=   0.000000  celldm(6)=   0.000000

     crystal axes: (cart. coord. in units of alat)
               a(1) = (  -0.500000   0.000000   0.500000 )  
               a(2) = (   0.000000   0.500000   0.500000 )  
               a(3) = (  -0.500000   0.500000   0.000000 )  

     reciprocal axes: (cart. coord. in units 2 pi/alat)
               b(1) = ( -1.000000 -1.000000  1.000000 )  
               b(2) = (  1.000000  1.000000  1.000000 )  
               b(3) = ( -1.000000  1.000000 -1.000000 )  


     PseudoPot. # 1 for Pd read from file:
     ./pd_pbe_v1.4.uspp.F.UPF
     MD5 check sum: 2d733d2bc2cbfd217af676df1668a4bc
     Pseudo is Ultrasoft + core correction, Zval = 16.0
     Generated by new atomic code, or converted to UPF format
     Using radial grid of  887 points,  6 beta functions with: 
                l(1) =   0
                l(2) =   0
                l(3) =   1
                l(4) =   1
                l(5) =   2
                l(6) =   2
     Q(r) pseudized with  8 coefficients,  rinner =    1.130   1.130   1.130
                                                       1.130   1.130

     atomic species   valence    mass     pseudopotential
        Pd            16.00   106.40000     Pd( 1.00)

     48 Sym. Ops., with inversion, found



   Cartesian axes

     site n.     atom                  positions (alat units)
         1           Pd  tau(   1) = (   0.0000000   0.0000000   0.0000000  )

     number of k points=     8  Marzari-Vanderbilt smearing, width (Ry)=  0.0300
                       cart. coord. in units 2pi/alat
        k(    1) = (   0.0000000   0.0000000   0.0000000), wk =   0.0312500
        k(    2) = (  -0.2500000   0.2500000  -0.2500000), wk =   0.2500000
        k(    3) = (   0.5000000  -0.5000000   0.5000000), wk =   0.1250000
        k(    4) = (   0.0000000   0.5000000   0.0000000), wk =   0.1875000
        k(    5) = (   0.7500000  -0.2500000   0.7500000), wk =   0.7500000
        k(    6) = (   0.5000000   0.0000000   0.5000000), wk =   0.3750000
        k(    7) = (   0.0000000  -1.0000000   0.0000000), wk =   0.0937500
        k(    8) = (  -0.5000000  -1.0000000   0.0000000), wk =   0.1875000

     Dense  grid:     3719 G-vectors     FFT dimensions: (  24,  24,  24)

     Estimated max dynamical RAM per process >       8.22 MB

     Estimated total dynamical RAM >      16.45 MB

     Initial potential from superposition of free atoms
     Check: negative starting charge=   -0.081280

     starting charge   15.49999, renormalised to   16.00000

     negative rho (up, down):  8.390E-02 0.000E+00
     Starting wfcs are   12 randomized atomic wfcs

     total cpu time spent up to now is        0.5 secs

     Self-consistent Calculation

     iteration #  1     ecut=    35.00 Ry     beta= 0.70
     Davidson diagonalization with overlap
     ethr =  1.00E-02,  avg # of iterations =  2.9

     negative rho (up, down):  8.122E-02 0.000E+00

     total cpu time spent up to now is        0.7 secs

     total energy              =    -197.90560136 Ry
     Harris-Foulkes estimate   =    -199.07403807 Ry
     estimated scf accuracy    <       1.58678935 Ry

     iteration #  2     ecut=    35.00 Ry     beta= 0.70
     Davidson diagonalization with overlap
     ethr =  9.92E-03,  avg # of iterations =  2.0

     negative rho (up, down):  8.346E-02 0.000E+00

     total cpu time spent up to now is        0.8 secs

     total energy              =    -198.26777326 Ry
     Harris-Foulkes estimate   =    -199.31723863 Ry
     estimated scf accuracy    <       2.24977764 Ry

     iteration #  3     ecut=    35.00 Ry     beta= 0.70
     Davidson diagonalization with overlap
     ethr =  9.92E-03,  avg # of iterations =  2.0

     negative rho (up, down):  8.349E-02 0.000E+00

     total cpu time spent up to now is        0.9 secs

     total energy              =    -198.68478013 Ry
     Harris-Foulkes estimate   =    -198.68478071 Ry
     estimated scf accuracy    <       0.00010960 Ry

     iteration #  4     ecut=    35.00 Ry     beta= 0.70
     Davidson diagonalization with overlap
     ethr =  6.85E-07,  avg # of iterations =  3.6

     negative rho (up, down):  8.357E-02 0.000E+00

     total cpu time spent up to now is        1.0 secs

     total energy              =    -198.68515284 Ry
     Harris-Foulkes estimate   =    -198.68515332 Ry
     estimated scf accuracy    <       0.00000777 Ry

     iteration #  5     ecut=    35.00 Ry     beta= 0.70
     Davidson diagonalization with overlap
     ethr =  4.86E-08,  avg # of iterations =  1.0

     negative rho (up, down):  8.357E-02 0.000E+00

     total cpu time spent up to now is        1.1 secs

     total energy              =    -198.68515298 Ry
     Harris-Foulkes estimate   =    -198.68515301 Ry
     estimated scf accuracy    <       0.00000029 Ry

     iteration #  6     ecut=    35.00 Ry     beta= 0.70
     Davidson diagonalization with overlap
     ethr =  1.83E-09,  avg # of iterations =  1.6

     negative rho (up, down):  8.357E-02 0.000E+00

     total cpu time spent up to now is        1.2 secs

     End of self-consistent calculation

          k = 0.0000 0.0000 0.0000 (   459 PWs)   bands (ev):

   -36.6553 -36.6553 -36.6553   7.2121  10.6106  10.6106  10.6106  11.6146
    11.6146  29.4493  32.5558  32.5558

          k =-0.2500 0.2500-0.2500 (   477 PWs)   bands (ev):

   -36.7247 -36.6663 -36.6663   8.6319  10.6265  10.8018  10.8018  11.7209
    11.7209  24.5999  29.9251  32.3620

          k = 0.5000-0.5000 0.5000 (   464 PWs)   bands (ev):

   -36.7925 -36.6768 -36.6768   8.9602  10.5939  10.5939  12.3553  12.3553
    13.9779  17.7535  28.6749  30.7829

          k = 0.0000 0.5000 0.0000 (   456 PWs)   bands (ev):

   -36.7216 -36.6820 -36.6820   9.0632   9.8491  11.3124  11.4265  11.4265
    11.9650  27.7924  27.7924  28.8623

          k = 0.7500-0.2500 0.7500 (   459 PWs)   bands (ev):

   -36.7701 -36.7120 -36.6926   9.4762  10.0260  10.9549  11.4053  12.4082
    15.4519  19.9560  24.6634  26.8383

          k = 0.5000 0.0000 0.5000 (   463 PWs)   bands (ev):

   -36.7540 -36.7149 -36.6765   9.9088  10.2454  10.5381  11.2400  11.6003
    14.1740  22.8751  22.9597  30.6778

          k = 0.0000-1.0000 0.0000 (   468 PWs)   bands (ev):

   -36.7864 -36.7089 -36.7089   9.0010   9.1774  12.3364  12.5429  12.5429
    15.7793  20.5401  24.1053  24.1053

          k =-0.5000-1.0000 0.0000 (   464 PWs)   bands (ev):

   -36.7475 -36.7475 -36.7092   9.7242  10.2916  10.2916  11.5937  12.5444
    19.8764  19.8764  20.5709  22.0613

     the Fermi energy is    12.5677 ev

!    total energy              =    -198.68515300 Ry
     Harris-Foulkes estimate   =    -198.68515300 Ry
     estimated scf accuracy    <          2.9E-09 Ry

     The total energy is the sum of the following terms:

     one-electron contribution =     -66.18101237 Ry
     hartree contribution      =      43.62181463 Ry
     xc contribution           =     -31.21984973 Ry
     ewald contribution        =    -144.90428288 Ry
     smearing contrib. (-TS)   =      -0.00182265 Ry

     convergence has been achieved in   6 iterations

     Writing output data file Pd-kp-conv.save/
 
     init_run     :      0.38s CPU      0.41s WALL (       1 calls)
     electrons    :      0.65s CPU      1.06s WALL (       1 calls)

     Called by init_run:
     wfcinit      :      0.04s CPU      0.04s WALL (       1 calls)
     potinit      :      0.01s CPU      0.02s WALL (       1 calls)
     hinit0       :      0.33s CPU      0.33s WALL (       1 calls)

     Called by electrons:
     c_bands      :      0.45s CPU      0.48s WALL (       6 calls)
     sum_band     :      0.13s CPU      0.14s WALL (       6 calls)
     v_of_rho     :      0.03s CPU      0.03s WALL (       7 calls)
     newd         :      0.05s CPU      0.05s WALL (       7 calls)
     mix_rho      :      0.00s CPU      0.00s WALL (       6 calls)

     Called by c_bands:
     init_us_2    :      0.01s CPU      0.01s WALL (     104 calls)
     cegterg      :      0.42s CPU      0.44s WALL (      48 calls)

     Called by sum_band:
     sum_band:bec :      0.00s CPU      0.00s WALL (      48 calls)
     addusdens    :      0.05s CPU      0.05s WALL (       6 calls)

     Called by *egterg:
     h_psi        :      0.36s CPU      0.38s WALL (     161 calls)
     s_psi        :      0.01s CPU      0.01s WALL (     161 calls)
     g_psi        :      0.00s CPU      0.00s WALL (     105 calls)
     cdiaghg      :      0.04s CPU      0.05s WALL (     153 calls)

     Called by h_psi:
     h_psi:pot    :      0.36s CPU      0.38s WALL (     161 calls)
     h_psi:calbec :      0.01s CPU      0.01s WALL (     161 calls)
     vloc_psi     :      0.35s CPU      0.37s WALL (     161 calls)
     add_vuspsi   :      0.01s CPU      0.01s WALL (     161 calls)

     General routines
     calbec       :      0.01s CPU      0.01s WALL (     209 calls)
     fft          :      0.01s CPU      0.01s WALL (      78 calls)
     ffts         :      0.00s CPU      0.00s WALL (       6 calls)
     fftw         :      0.36s CPU      0.38s WALL (    3598 calls)
 
     Parallel routines
     fft_scatt_xy :      0.07s CPU      0.07s WALL (    3682 calls)
     fft_scatt_yz :      0.08s CPU      0.09s WALL (    3682 calls)
 
     PWSCF        :     1.12s CPU         1.64s WALL

 
   This run was terminated on:  22:22:59   2Dec2021            

=------------------------------------------------------------------------------=
   JOB DONE.
=------------------------------------------------------------------------------=
