
     Program PWSCF v.6.3 starts on  2Dec2021 at 21:58:12 

     This program is part of the open-source Quantum ESPRESSO suite
     for quantum simulation of materials; please cite
         "P. Giannozzi et al., J. Phys.:Condens. Matter 21 395502 (2009);
         "P. Giannozzi et al., J. Phys.:Condens. Matter 29 465901 (2017);
          URL http://www.quantum-espresso.org", 
     in publications or presentations arising from this work. More details at
     http://www.quantum-espresso.org/quote

     Parallel version (MPI & OpenMP), running on       2 processor cores
     Number of MPI processes:                 2
     Threads/MPI process:                     1

     MPI processes distributed on     1 nodes
     R & G space division:  proc/nbgrp/npool/nimage =       2
     Reading input from pw-input.in

     Current dimensions of program PWSCF are:
     Max number of different atomic species (ntypx) = 10
     Max number of k-points (npk) =  40000
     Max angular momentum in pseudopotentials (lmaxx) =  3

     Subspace diagonalization in iterative solution of the eigenvalue problem:
     a serial algorithm will be used

 
     Parallelization info
     --------------------
     sticks:   dense  smooth     PW     G-vecs:    dense   smooth      PW
     Min         111     111     36                 1066     1066     205
     Max         112     112     37                 1067     1067     206
     Sum         223     223     73                 2133     2133     411
 

     Title: 
     Pd-kp-conv                                                                 


     bravais-lattice index     =            2
     lattice parameter (alat)  =       6.8000  a.u.
     unit-cell volume          =      78.6080 (a.u.)^3
     number of atoms/cell      =            1
     number of atomic types    =            1
     number of electrons       =        16.00
     number of Kohn-Sham states=           12
     kinetic-energy cutoff     =      35.0000  Ry
     charge density cutoff     =     140.0000  Ry
     convergence threshold     =      1.0E-07
     mixing beta               =       0.7000
     number of iterations used =            8  plain     mixing
     Exchange-correlation      =  SLA  PW   PBX  PBC ( 1  4  3  4 0 0)

     celldm(1)=   6.800000  celldm(2)=   0.000000  celldm(3)=   0.000000
     celldm(4)=   0.000000  celldm(5)=   0.000000  celldm(6)=   0.000000

     crystal axes: (cart. coord. in units of alat)
               a(1) = (  -0.500000   0.000000   0.500000 )  
               a(2) = (   0.000000   0.500000   0.500000 )  
               a(3) = (  -0.500000   0.500000   0.000000 )  

     reciprocal axes: (cart. coord. in units 2 pi/alat)
               b(1) = ( -1.000000 -1.000000  1.000000 )  
               b(2) = (  1.000000  1.000000  1.000000 )  
               b(3) = ( -1.000000  1.000000 -1.000000 )  


     PseudoPot. # 1 for Pd read from file:
     ./pd_pbe_v1.4.uspp.F.UPF
     MD5 check sum: 2d733d2bc2cbfd217af676df1668a4bc
     Pseudo is Ultrasoft + core correction, Zval = 16.0
     Generated by new atomic code, or converted to UPF format
     Using radial grid of  887 points,  6 beta functions with: 
                l(1) =   0
                l(2) =   0
                l(3) =   1
                l(4) =   1
                l(5) =   2
                l(6) =   2
     Q(r) pseudized with  8 coefficients,  rinner =    1.130   1.130   1.130
                                                       1.130   1.130

     atomic species   valence    mass     pseudopotential
        Pd            16.00   106.40000     Pd( 1.00)

     48 Sym. Ops., with inversion, found



   Cartesian axes

     site n.     atom                  positions (alat units)
         1           Pd  tau(   1) = (   0.0000000   0.0000000   0.0000000  )

     number of k points=     4  Marzari-Vanderbilt smearing, width (Ry)=  0.0250
                       cart. coord. in units 2pi/alat
        k(    1) = (   0.0000000   0.0000000   0.0000000), wk =   0.0740741
        k(    2) = (  -0.3333333   0.3333333  -0.3333333), wk =   0.5925926
        k(    3) = (   0.0000000   0.6666667   0.0000000), wk =   0.4444444
        k(    4) = (   0.6666667  -0.0000000   0.6666667), wk =   0.8888889

     Dense  grid:     2133 G-vectors     FFT dimensions: (  20,  20,  20)

     Estimated max dynamical RAM per process >       4.95 MB

     Estimated total dynamical RAM >       9.91 MB

     Initial potential from superposition of free atoms
     Check: negative starting charge=   -0.081587

     starting charge   15.49999, renormalised to   16.00000

     negative rho (up, down):  8.422E-02 0.000E+00
     Starting wfcs are   12 randomized atomic wfcs

     total cpu time spent up to now is        0.4 secs

     Self-consistent Calculation

     iteration #  1     ecut=    35.00 Ry     beta= 0.70
     Davidson diagonalization with overlap
     ethr =  1.00E-02,  avg # of iterations =  3.2

     negative rho (up, down):  8.520E-02 0.000E+00

     total cpu time spent up to now is        0.4 secs

     total energy              =    -198.26951417 Ry
     Harris-Foulkes estimate   =    -198.81854815 Ry
     estimated scf accuracy    <       0.77880107 Ry

     iteration #  2     ecut=    35.00 Ry     beta= 0.70
     Davidson diagonalization with overlap
     ethr =  4.87E-03,  avg # of iterations =  2.0

     negative rho (up, down):  8.637E-02 0.000E+00

     total cpu time spent up to now is        0.5 secs

     total energy              =    -198.46147772 Ry
     Harris-Foulkes estimate   =    -198.68722448 Ry
     estimated scf accuracy    <       0.40811061 Ry

     iteration #  3     ecut=    35.00 Ry     beta= 0.70
     Davidson diagonalization with overlap
     ethr =  2.55E-03,  avg # of iterations =  2.5

     negative rho (up, down):  8.736E-02 0.000E+00

     total cpu time spent up to now is        0.5 secs

     total energy              =    -198.55103876 Ry
     Harris-Foulkes estimate   =    -198.55373547 Ry
     estimated scf accuracy    <       0.00499535 Ry

     iteration #  4     ecut=    35.00 Ry     beta= 0.70
     Davidson diagonalization with overlap
     ethr =  3.12E-05,  avg # of iterations =  2.0

     negative rho (up, down):  8.724E-02 0.000E+00

     total cpu time spent up to now is        0.5 secs

     total energy              =    -198.55266892 Ry
     Harris-Foulkes estimate   =    -198.55377350 Ry
     estimated scf accuracy    <       0.00400292 Ry

     iteration #  5     ecut=    35.00 Ry     beta= 0.70
     Davidson diagonalization with overlap
     ethr =  2.50E-05,  avg # of iterations =  1.0

     negative rho (up, down):  8.725E-02 0.000E+00

     total cpu time spent up to now is        0.6 secs

     total energy              =    -198.55284645 Ry
     Harris-Foulkes estimate   =    -198.55296329 Ry
     estimated scf accuracy    <       0.00038404 Ry

     iteration #  6     ecut=    35.00 Ry     beta= 0.70
     Davidson diagonalization with overlap
     ethr =  2.40E-06,  avg # of iterations =  1.0

     negative rho (up, down):  8.726E-02 0.000E+00

     total cpu time spent up to now is        0.6 secs

     total energy              =    -198.55288008 Ry
     Harris-Foulkes estimate   =    -198.55288612 Ry
     estimated scf accuracy    <       0.00001304 Ry

     iteration #  7     ecut=    35.00 Ry     beta= 0.70
     Davidson diagonalization with overlap
     ethr =  8.15E-08,  avg # of iterations =  2.0

     negative rho (up, down):  8.726E-02 0.000E+00

     total cpu time spent up to now is        0.6 secs

     total energy              =    -198.55288327 Ry
     Harris-Foulkes estimate   =    -198.55288393 Ry
     estimated scf accuracy    <       0.00000213 Ry

     iteration #  8     ecut=    35.00 Ry     beta= 0.70
     Davidson diagonalization with overlap
     ethr =  1.33E-08,  avg # of iterations =  1.0

     negative rho (up, down):  8.726E-02 0.000E+00

     total cpu time spent up to now is        0.7 secs

     End of self-consistent calculation

          k = 0.0000 0.0000 0.0000 (   283 PWs)   bands (ev):

   -24.8241 -24.8241 -24.8241  16.4654  21.3919  21.3919  21.3919  23.7045
    23.7045  43.7615  49.9777  49.9777

          k =-0.3333 0.3333-0.3333 (   281 PWs)   bands (ev):

   -25.5347 -24.9208 -24.9208  18.3942  21.5773  21.5773  23.0016  24.5911
    24.5911  39.3080  44.3518  52.3894

          k = 0.0000 0.6667 0.0000 (   274 PWs)   bands (ev):

   -25.4978 -25.0819 -25.0819  18.5798  18.8533  24.4416  24.4416  24.8391
    24.9713  43.7529  43.7529  43.9954

          k = 0.6667-0.0000 0.6667 (   268 PWs)   bands (ev):

   -25.4589 -25.4528 -25.0495  19.1876  20.3121  21.6813  23.4419  24.8161
    32.7936  36.4331  38.9111  46.3501

     the Fermi energy is    24.8493 ev

!    total energy              =    -198.55288348 Ry
     Harris-Foulkes estimate   =    -198.55288350 Ry
     estimated scf accuracy    <       0.00000003 Ry

     The total energy is the sum of the following terms:

     one-electron contribution =     -23.53761630 Ry
     hartree contribution      =      29.19002584 Ry
     xc contribution           =     -31.59561734 Ry
     ewald contribution        =    -172.60657228 Ry
     smearing contrib. (-TS)   =      -0.00310340 Ry

     convergence has been achieved in   8 iterations

     Writing output data file Pd-kp-conv.save/
 
     init_run     :      0.28s CPU      0.30s WALL (       1 calls)
     electrons    :      0.27s CPU      0.32s WALL (       1 calls)

     Called by init_run:
     wfcinit      :      0.01s CPU      0.01s WALL (       1 calls)
     potinit      :      0.00s CPU      0.01s WALL (       1 calls)
     hinit0       :      0.26s CPU      0.27s WALL (       1 calls)

     Called by electrons:
     c_bands      :      0.16s CPU      0.17s WALL (       8 calls)
     sum_band     :      0.06s CPU      0.06s WALL (       8 calls)
     v_of_rho     :      0.02s CPU      0.03s WALL (       9 calls)
     newd         :      0.03s CPU      0.03s WALL (       9 calls)
     mix_rho      :      0.00s CPU      0.00s WALL (       8 calls)

     Called by c_bands:
     init_us_2    :      0.00s CPU      0.00s WALL (      68 calls)
     cegterg      :      0.14s CPU      0.16s WALL (      32 calls)

     Called by sum_band:
     sum_band:bec :      0.00s CPU      0.00s WALL (      32 calls)
     addusdens    :      0.03s CPU      0.03s WALL (       8 calls)

     Called by *egterg:
     h_psi        :      0.11s CPU      0.12s WALL (      95 calls)
     s_psi        :      0.00s CPU      0.00s WALL (      95 calls)
     g_psi        :      0.00s CPU      0.00s WALL (      59 calls)
     cdiaghg      :      0.02s CPU      0.02s WALL (      91 calls)

     Called by h_psi:
     h_psi:pot    :      0.11s CPU      0.12s WALL (      95 calls)
     h_psi:calbec :      0.00s CPU      0.00s WALL (      95 calls)
     vloc_psi     :      0.10s CPU      0.11s WALL (      95 calls)
     add_vuspsi   :      0.00s CPU      0.00s WALL (      95 calls)

     General routines
     calbec       :      0.00s CPU      0.01s WALL (     127 calls)
     fft          :      0.01s CPU      0.01s WALL (     100 calls)
     ffts         :      0.00s CPU      0.00s WALL (       8 calls)
     fftw         :      0.11s CPU      0.12s WALL (    2248 calls)
 
     Parallel routines
     fft_scatt_xy :      0.02s CPU      0.02s WALL (    2356 calls)
     fft_scatt_yz :      0.04s CPU      0.04s WALL (    2356 calls)
 
     PWSCF        :     0.61s CPU         0.76s WALL

 
   This run was terminated on:  21:58:12   2Dec2021            

=------------------------------------------------------------------------------=
   JOB DONE.
=------------------------------------------------------------------------------=
