
     Program PWSCF v.6.3 starts on  2Dec2021 at 21:38:49 

     This program is part of the open-source Quantum ESPRESSO suite
     for quantum simulation of materials; please cite
         "P. Giannozzi et al., J. Phys.:Condens. Matter 21 395502 (2009);
         "P. Giannozzi et al., J. Phys.:Condens. Matter 29 465901 (2017);
          URL http://www.quantum-espresso.org", 
     in publications or presentations arising from this work. More details at
     http://www.quantum-espresso.org/quote

     Parallel version (MPI & OpenMP), running on       2 processor cores
     Number of MPI processes:                 2
     Threads/MPI process:                     1

     MPI processes distributed on     1 nodes
     R & G space division:  proc/nbgrp/npool/nimage =       2
     Reading input from pw-input.in

     Current dimensions of program PWSCF are:
     Max number of different atomic species (ntypx) = 10
     Max number of k-points (npk) =  40000
     Max angular momentum in pseudopotentials (lmaxx) =  3

     Subspace diagonalization in iterative solution of the eigenvalue problem:
     a serial algorithm will be used

 
     Parallelization info
     --------------------
     sticks:   dense  smooth     PW     G-vecs:    dense   smooth      PW
     Min         141     141     45                 1559     1559     304
     Max         142     142     46                 1560     1560     305
     Sum         283     283     91                 3119     3119     609
 

     Title: 
     Pd-kp-conv                                                                 


     bravais-lattice index     =            2
     lattice parameter (alat)  =       7.6000  a.u.
     unit-cell volume          =     109.7440 (a.u.)^3
     number of atoms/cell      =            1
     number of atomic types    =            1
     number of electrons       =        16.00
     number of Kohn-Sham states=           12
     kinetic-energy cutoff     =      35.0000  Ry
     charge density cutoff     =     140.0000  Ry
     convergence threshold     =      1.0E-07
     mixing beta               =       0.7000
     number of iterations used =            8  plain     mixing
     Exchange-correlation      =  SLA  PW   PBX  PBC ( 1  4  3  4 0 0)

     celldm(1)=   7.600000  celldm(2)=   0.000000  celldm(3)=   0.000000
     celldm(4)=   0.000000  celldm(5)=   0.000000  celldm(6)=   0.000000

     crystal axes: (cart. coord. in units of alat)
               a(1) = (  -0.500000   0.000000   0.500000 )  
               a(2) = (   0.000000   0.500000   0.500000 )  
               a(3) = (  -0.500000   0.500000   0.000000 )  

     reciprocal axes: (cart. coord. in units 2 pi/alat)
               b(1) = ( -1.000000 -1.000000  1.000000 )  
               b(2) = (  1.000000  1.000000  1.000000 )  
               b(3) = ( -1.000000  1.000000 -1.000000 )  


     PseudoPot. # 1 for Pd read from file:
     ./pd_pbe_v1.4.uspp.F.UPF
     MD5 check sum: 2d733d2bc2cbfd217af676df1668a4bc
     Pseudo is Ultrasoft + core correction, Zval = 16.0
     Generated by new atomic code, or converted to UPF format
     Using radial grid of  887 points,  6 beta functions with: 
                l(1) =   0
                l(2) =   0
                l(3) =   1
                l(4) =   1
                l(5) =   2
                l(6) =   2
     Q(r) pseudized with  8 coefficients,  rinner =    1.130   1.130   1.130
                                                       1.130   1.130

     atomic species   valence    mass     pseudopotential
        Pd            16.00   106.40000     Pd( 1.00)

     48 Sym. Ops., with inversion, found



   Cartesian axes

     site n.     atom                  positions (alat units)
         1           Pd  tau(   1) = (   0.0000000   0.0000000   0.0000000  )

     number of k points=    35  Marzari-Vanderbilt smearing, width (Ry)=  0.0200
                       cart. coord. in units 2pi/alat
        k(    1) = (   0.0000000   0.0000000   0.0000000), wk =   0.0027435
        k(    2) = (  -0.1111111   0.1111111  -0.1111111), wk =   0.0219479
        k(    3) = (  -0.2222222   0.2222222  -0.2222222), wk =   0.0219479
        k(    4) = (  -0.3333333   0.3333333  -0.3333333), wk =   0.0219479
        k(    5) = (  -0.4444444   0.4444444  -0.4444444), wk =   0.0219479
        k(    6) = (   0.0000000   0.2222222   0.0000000), wk =   0.0164609
        k(    7) = (  -0.1111111   0.3333333  -0.1111111), wk =   0.0658436
        k(    8) = (  -0.2222222   0.4444444  -0.2222222), wk =   0.0658436
        k(    9) = (  -0.3333333   0.5555556  -0.3333333), wk =   0.0658436
        k(   10) = (   0.5555556  -0.3333333   0.5555556), wk =   0.0658436
        k(   11) = (   0.4444444  -0.2222222   0.4444444), wk =   0.0658436
        k(   12) = (   0.3333333  -0.1111111   0.3333333), wk =   0.0658436
        k(   13) = (   0.2222222  -0.0000000   0.2222222), wk =   0.0329218
        k(   14) = (   0.0000000   0.4444444   0.0000000), wk =   0.0164609
        k(   15) = (  -0.1111111   0.5555556  -0.1111111), wk =   0.0658436
        k(   16) = (  -0.2222222   0.6666667  -0.2222222), wk =   0.0658436
        k(   17) = (   0.6666667  -0.2222222   0.6666667), wk =   0.0658436
        k(   18) = (   0.5555556  -0.1111111   0.5555556), wk =   0.0658436
        k(   19) = (   0.4444444   0.0000000   0.4444444), wk =   0.0329218
        k(   20) = (   0.0000000   0.6666667   0.0000000), wk =   0.0164609
        k(   21) = (  -0.1111111   0.7777778  -0.1111111), wk =   0.0658436
        k(   22) = (   0.7777778  -0.1111111   0.7777778), wk =   0.0658436
        k(   23) = (   0.6666667  -0.0000000   0.6666667), wk =   0.0329218
        k(   24) = (   0.0000000   0.8888889   0.0000000), wk =   0.0164609
        k(   25) = (   0.8888889   0.0000000   0.8888889), wk =   0.0329218
        k(   26) = (  -0.2222222   0.4444444   0.0000000), wk =   0.0658436
        k(   27) = (  -0.3333333   0.5555556  -0.1111111), wk =   0.1316872
        k(   28) = (   0.5555556  -0.3333333   0.7777778), wk =   0.1316872
        k(   29) = (  -0.2222222   0.6666667   0.0000000), wk =   0.0658436
        k(   30) = (   0.6666667  -0.2222222   0.8888889), wk =   0.1316872
        k(   31) = (   0.5555556  -0.1111111   0.7777778), wk =   0.1316872
        k(   32) = (   0.4444444   0.0000000   0.6666667), wk =   0.0658436
        k(   33) = (   0.7777778  -0.1111111   1.0000000), wk =   0.0658436
        k(   34) = (   0.6666667  -0.0000000   0.8888889), wk =   0.0658436
        k(   35) = (   0.5555556  -0.1111111   1.0000000), wk =   0.0658436

     Dense  grid:     3119 G-vectors     FFT dimensions: (  24,  24,  24)

     Estimated max dynamical RAM per process >       8.04 MB

     Estimated total dynamical RAM >      16.08 MB

     Initial potential from superposition of free atoms
     Check: negative starting charge=   -0.079189

     starting charge   15.49999, renormalised to   16.00000

     negative rho (up, down):  8.174E-02 0.000E+00
     Starting wfcs are   12 randomized atomic wfcs

     total cpu time spent up to now is        0.6 secs

     Self-consistent Calculation

     iteration #  1     ecut=    35.00 Ry     beta= 0.70
     Davidson diagonalization with overlap
     ethr =  1.00E-02,  avg # of iterations =  3.7

     negative rho (up, down):  8.052E-02 0.000E+00

     total cpu time spent up to now is        1.0 secs

     total energy              =    -198.13797760 Ry
     Harris-Foulkes estimate   =    -199.04847380 Ry
     estimated scf accuracy    <       1.25078989 Ry

     iteration #  2     ecut=    35.00 Ry     beta= 0.70
     Davidson diagonalization with overlap
     ethr =  7.82E-03,  avg # of iterations =  2.0

     negative rho (up, down):  8.185E-02 0.000E+00

     total cpu time spent up to now is        1.4 secs

     total energy              =    -198.43870069 Ry
     Harris-Foulkes estimate   =    -199.08081661 Ry
     estimated scf accuracy    <       1.29792494 Ry

     iteration #  3     ecut=    35.00 Ry     beta= 0.70
     Davidson diagonalization with overlap
     ethr =  7.82E-03,  avg # of iterations =  2.0

     negative rho (up, down):  8.203E-02 0.000E+00

     total cpu time spent up to now is        1.7 secs

     total energy              =    -198.69880053 Ry
     Harris-Foulkes estimate   =    -198.69976609 Ry
     estimated scf accuracy    <       0.00209119 Ry

     iteration #  4     ecut=    35.00 Ry     beta= 0.70
     Davidson diagonalization with overlap
     ethr =  1.31E-05,  avg # of iterations =  2.5

     negative rho (up, down):  8.217E-02 0.000E+00

     total cpu time spent up to now is        2.1 secs

     total energy              =    -198.69951393 Ry
     Harris-Foulkes estimate   =    -198.69951427 Ry
     estimated scf accuracy    <       0.00000939 Ry

     iteration #  5     ecut=    35.00 Ry     beta= 0.70
     Davidson diagonalization with overlap
     ethr =  5.87E-08,  avg # of iterations =  1.9

     negative rho (up, down):  8.222E-02 0.000E+00

     total cpu time spent up to now is        2.5 secs

     total energy              =    -198.69951577 Ry
     Harris-Foulkes estimate   =    -198.69951549 Ry
     estimated scf accuracy    <       0.00000023 Ry

     iteration #  6     ecut=    35.00 Ry     beta= 0.70
     Davidson diagonalization with overlap
     ethr =  1.46E-09,  avg # of iterations =  2.0

     negative rho (up, down):  8.222E-02 0.000E+00

     total cpu time spent up to now is        2.8 secs

     End of self-consistent calculation

          k = 0.0000 0.0000 0.0000 (   387 PWs)   bands (ev):

   -33.1341 -33.1341 -33.1341   9.9171  13.8988  13.8988  13.8988  15.2733
    15.2733  34.0283  38.2278  38.2278

          k =-0.1111 0.1111-0.1111 (   369 PWs)   bands (ev):

   -33.1679 -33.1388 -33.1388  10.3215  13.7842  14.0223  14.0223  15.2276
    15.2276  34.1476  35.8130  38.5198

          k =-0.2222 0.2222-0.2222 (   374 PWs)   bands (ev):

   -33.2530 -33.1512 -33.1512  11.2940  13.7563  14.1663  14.1663  15.3184
    15.3184  31.1835  34.9296  38.9433

          k =-0.3333 0.3333-0.3333 (   389 PWs)   bands (ev):

   -33.3486 -33.1656 -33.1656  11.8124  14.0399  14.0399  14.9286  15.7938
    15.7938  27.0475  34.0817  38.1916

          k =-0.4444 0.4444-0.4444 (   386 PWs)   bands (ev):

   -33.4104 -33.1747 -33.1747  11.7688  13.8895  13.8895  16.2292  16.2292
    17.0595  23.5937  33.3537  37.0710

          k = 0.0000 0.2222 0.0000 (   371 PWs)   bands (ev):

   -33.1670 -33.1465 -33.1465  10.4570  13.6375  14.1311  14.1311  15.0138
    15.3844  34.4316  36.5652  37.2742

          k =-0.1111 0.3333-0.1111 (   374 PWs)   bands (ev):

   -33.2299 -33.1612 -33.1567  11.2739  13.4087  14.2810  14.3576  15.0050
    15.5315  32.7976  35.0244  36.3844

          k =-0.2222 0.4444-0.2222 (   377 PWs)   bands (ev):

   -33.3182 -33.1757 -33.1725  12.0260  13.7498  14.0049  14.3382  15.9235
    15.9319  28.6216  34.3731  35.6599

          k =-0.3333 0.5556-0.3333 (   385 PWs)   bands (ev):

   -33.3879 -33.1897 -33.1837  12.0402  13.7420  14.1677  14.8118  16.2833
    17.7098  24.6974  33.4551  35.3750

          k = 0.5556-0.3333 0.5556 (   389 PWs)   bands (ev):

   -33.4072 -33.2000 -33.1811  12.0122  13.6898  14.0813  15.2824  16.2054
    18.8878  23.0391  32.9595  35.1735

          k = 0.4444-0.2222 0.4444 (   388 PWs)   bands (ev):

   -33.3677 -33.1979 -33.1693  12.1047  13.8394  14.1655  14.6849  15.6765
    17.3141  25.9572  32.9944  35.5287

          k = 0.3333-0.1111 0.3333 (   381 PWs)   bands (ev):

   -33.2888 -33.1833 -33.1537  11.9062  13.5768  14.1529  14.3531  15.0473
    16.1143  30.0453  33.4355  37.0559

          k = 0.2222-0.0000 0.2222 (   375 PWs)   bands (ev):

   -33.2095 -33.1602 -33.1418  10.9453  13.5737  14.2003  14.2118  14.9746
    15.4696  33.9238  33.9481  37.4490

          k = 0.0000 0.4444 0.0000 (   375 PWs)   bands (ev):

   -33.2484 -33.1785 -33.1785  11.7371  13.0222  14.6862  14.7875  14.7875
    15.6695  34.4462  34.4462  34.7638

          k =-0.1111 0.5556-0.1111 (   385 PWs)   bands (ev):

   -33.3082 -33.1985 -33.1954  12.2816  12.8266  14.3913  14.9866  15.9884
    16.0576  30.5588  33.1961  33.6427

          k =-0.2222 0.6667-0.2222 (   387 PWs)   bands (ev):

   -33.3618 -33.2262 -33.2036  12.3614  13.1430  14.2116  14.8493  16.3388
    18.2975  26.3973  31.8006  32.8617

          k = 0.6667-0.2222 0.6667 (   384 PWs)   bands (ev):

   -33.3803 -33.2526 -33.1997  12.4580  13.3142  14.3038  14.6851  16.2335
    20.8964  23.1849  30.2774  33.7284

          k = 0.5556-0.1111 0.5556 (   382 PWs)   bands (ev):

   -33.3608 -33.2603 -33.1850  12.7156  13.4534  14.0604  14.6365  15.6692
    19.4892  25.4217  29.4313  35.3084

          k = 0.4444 0.0000 0.4444 (   383 PWs)   bands (ev):

   -33.3249 -33.2328 -33.1669  12.8029  13.3124  13.8803  14.6964  15.0089
    17.5325  29.2062  29.6733  36.1290

          k = 0.0000 0.6667 0.0000 (   387 PWs)   bands (ev):

   -33.3388 -33.2150 -33.2150  12.1205  12.3913  15.6976  15.6976  16.0082
    16.1583  31.3754  31.3952  31.3952

          k =-0.1111 0.7778-0.1111 (   380 PWs)   bands (ev):

   -33.3708 -33.2393 -33.2251  12.0859  12.3185  15.3997  15.7135  16.3671
    18.4934  28.3656  29.2447  30.6699

          k = 0.7778-0.1111 0.7778 (   386 PWs)   bands (ev):

   -33.3691 -33.2813 -33.2218  12.2351  12.6814  14.7938  15.4926  16.3227
    21.5426  24.9116  27.4505  31.3269

          k = 0.6667-0.0000 0.6667 (   383 PWs)   bands (ev):

   -33.3280 -33.3268 -33.2058  12.6036  13.2460  14.0604  15.1692  15.9089
    21.9628  24.7237  26.6191  33.2144

          k = 0.0000 0.8889 0.0000 (   388 PWs)   bands (ev):

   -33.3963 -33.2387 -33.2387  11.7807  12.0116  16.2391  16.4418  16.4418
    19.0166  27.0400  29.4516  29.4516

          k = 0.8889 0.0000 0.8889 (   383 PWs)   bands (ev):

   -33.3944 -33.2561 -33.2372  11.8736  12.1216  15.9214  16.0876  16.4804
    20.6312  26.1070  27.6662  29.6996

          k =-0.2222 0.4444 0.0000 (   378 PWs)   bands (ev):

   -33.2801 -33.1940 -33.1655  12.1069  13.1408  14.0857  14.7902  15.0621
    16.1480  31.6346  32.2320  36.1104

          k =-0.3333 0.5556-0.1111 (   384 PWs)   bands (ev):

   -33.3410 -33.2222 -33.1803  12.5416  13.4938  13.7219  14.7571  15.6648
    17.5630  27.6887  31.4877  34.1984

          k = 0.5556-0.3333 0.7778 (   384 PWs)   bands (ev):

   -33.3825 -33.2356 -33.1931  12.4527  13.3991  14.2941  14.5845  16.1395
    19.7342  23.9562  31.6703  32.6926

          k =-0.2222 0.6667 0.0000 (   387 PWs)   bands (ev):

   -33.3442 -33.2325 -33.2067  12.4879  12.6234  14.3607  15.6893  15.7432
    17.7488  29.5698  29.9063  31.6113

          k = 0.6667-0.2222 0.8889 (   390 PWs)   bands (ev):

   -33.3621 -33.2663 -33.2178  12.5417  12.9043  14.1129  15.3549  16.2235
    20.2718  25.8257  29.5305  30.0036

          k = 0.5556-0.1111 0.7778 (   387 PWs)   bands (ev):

   -33.3533 -33.2937 -33.2138  12.7887  13.1364  13.8659  15.0730  16.1573
    22.2533  23.7240  28.1921  30.9364

          k = 0.4444 0.0000 0.6667 (   392 PWs)   bands (ev):

   -33.3463 -33.2769 -33.1974  13.2293  13.2659  13.2846  15.1278  15.7021
    19.6817  27.2926  27.5938  32.5182

          k = 0.7778-0.1111 1.0000 (   385 PWs)   bands (ev):

   -33.3805 -33.2575 -33.2380  12.1049  12.3022  15.1954  15.9415  16.4410
    20.5233  27.0228  28.2328  28.4360

          k = 0.6667-0.0000 0.8889 (   383 PWs)   bands (ev):

   -33.3593 -33.2931 -33.2338  12.3715  12.7217  14.4950  15.5045  16.4339
    22.9041  25.0353  26.3527  29.2739

          k = 0.5556-0.1111 1.0000 (   388 PWs)   bands (ev):

   -33.3406 -33.3054 -33.2362  12.6907  13.1559  13.6987  15.2763  16.4365
    22.8521  25.6856  26.6315  28.1391

     the Fermi energy is    16.3302 ev

!    total energy              =    -198.69951580 Ry
     Harris-Foulkes estimate   =    -198.69951580 Ry
     estimated scf accuracy    <          2.4E-09 Ry

     The total energy is the sum of the following terms:

     one-electron contribution =     -51.09441827 Ry
     hartree contribution      =      38.13233826 Ry
     xc contribution           =     -31.29960069 Ry
     ewald contribution        =    -154.43745938 Ry
     smearing contrib. (-TS)   =      -0.00037572 Ry

     convergence has been achieved in   6 iterations

     Writing output data file Pd-kp-conv.save/
 
     init_run     :      0.47s CPU      0.51s WALL (       1 calls)
     electrons    :      2.01s CPU      2.52s WALL (       1 calls)

     Called by init_run:
     wfcinit      :      0.13s CPU      0.15s WALL (       1 calls)
     potinit      :      0.01s CPU      0.02s WALL (       1 calls)
     hinit0       :      0.32s CPU      0.32s WALL (       1 calls)

     Called by electrons:
     c_bands      :      1.61s CPU      1.72s WALL (       6 calls)
     sum_band     :      0.34s CPU      0.35s WALL (       6 calls)
     v_of_rho     :      0.03s CPU      0.03s WALL (       7 calls)
     newd         :      0.04s CPU      0.04s WALL (       7 calls)
     mix_rho      :      0.00s CPU      0.00s WALL (       6 calls)

     Called by c_bands:
     init_us_2    :      0.04s CPU      0.04s WALL (     455 calls)
     cegterg      :      1.50s CPU      1.61s WALL (     210 calls)

     Called by sum_band:
     sum_band:bec :      0.00s CPU      0.00s WALL (     210 calls)
     addusdens    :      0.04s CPU      0.04s WALL (       6 calls)

     Called by *egterg:
     h_psi        :      1.30s CPU      1.39s WALL (     737 calls)
     s_psi        :      0.02s CPU      0.02s WALL (     737 calls)
     g_psi        :      0.01s CPU      0.01s WALL (     492 calls)
     cdiaghg      :      0.18s CPU      0.19s WALL (     702 calls)

     Called by h_psi:
     h_psi:pot    :      1.29s CPU      1.39s WALL (     737 calls)
     h_psi:calbec :      0.03s CPU      0.03s WALL (     737 calls)
     vloc_psi     :      1.25s CPU      1.33s WALL (     737 calls)
     add_vuspsi   :      0.02s CPU      0.02s WALL (     737 calls)

     General routines
     calbec       :      0.03s CPU      0.03s WALL (     947 calls)
     fft          :      0.01s CPU      0.01s WALL (      78 calls)
     ffts         :      0.00s CPU      0.00s WALL (       6 calls)
     fftw         :      1.27s CPU      1.36s WALL (   15684 calls)
 
     Parallel routines
     fft_scatt_xy :      0.24s CPU      0.26s WALL (   15768 calls)
     fft_scatt_yz :      0.27s CPU      0.29s WALL (   15768 calls)
 
     PWSCF        :     2.58s CPU         3.28s WALL

 
   This run was terminated on:  21:38:52   2Dec2021            

=------------------------------------------------------------------------------=
   JOB DONE.
=------------------------------------------------------------------------------=
