
     Program PWSCF v.6.3 starts on  2Dec2021 at 21:39: 1 

     This program is part of the open-source Quantum ESPRESSO suite
     for quantum simulation of materials; please cite
         "P. Giannozzi et al., J. Phys.:Condens. Matter 21 395502 (2009);
         "P. Giannozzi et al., J. Phys.:Condens. Matter 29 465901 (2017);
          URL http://www.quantum-espresso.org", 
     in publications or presentations arising from this work. More details at
     http://www.quantum-espresso.org/quote

     Parallel version (MPI & OpenMP), running on       2 processor cores
     Number of MPI processes:                 2
     Threads/MPI process:                     1

     MPI processes distributed on     1 nodes
     R & G space division:  proc/nbgrp/npool/nimage =       2
     Reading input from pw-input.in

     Current dimensions of program PWSCF are:
     Max number of different atomic species (ntypx) = 10
     Max number of k-points (npk) =  40000
     Max angular momentum in pseudopotentials (lmaxx) =  3

     Subspace diagonalization in iterative solution of the eigenvalue problem:
     a serial algorithm will be used

 
     Parallelization info
     --------------------
     sticks:   dense  smooth     PW     G-vecs:    dense   smooth      PW
     Min         150     150     54                 1738     1738     350
     Max         151     151     55                 1741     1741     351
     Sum         301     301    109                 3479     3479     701
 

     Title: 
     Pd-kp-conv                                                                 


     bravais-lattice index     =            2
     lattice parameter (alat)  =       7.9000  a.u.
     unit-cell volume          =     123.2598 (a.u.)^3
     number of atoms/cell      =            1
     number of atomic types    =            1
     number of electrons       =        16.00
     number of Kohn-Sham states=           12
     kinetic-energy cutoff     =      35.0000  Ry
     charge density cutoff     =     140.0000  Ry
     convergence threshold     =      1.0E-07
     mixing beta               =       0.7000
     number of iterations used =            8  plain     mixing
     Exchange-correlation      =  SLA  PW   PBX  PBC ( 1  4  3  4 0 0)

     celldm(1)=   7.900000  celldm(2)=   0.000000  celldm(3)=   0.000000
     celldm(4)=   0.000000  celldm(5)=   0.000000  celldm(6)=   0.000000

     crystal axes: (cart. coord. in units of alat)
               a(1) = (  -0.500000   0.000000   0.500000 )  
               a(2) = (   0.000000   0.500000   0.500000 )  
               a(3) = (  -0.500000   0.500000   0.000000 )  

     reciprocal axes: (cart. coord. in units 2 pi/alat)
               b(1) = ( -1.000000 -1.000000  1.000000 )  
               b(2) = (  1.000000  1.000000  1.000000 )  
               b(3) = ( -1.000000  1.000000 -1.000000 )  


     PseudoPot. # 1 for Pd read from file:
     ./pd_pbe_v1.4.uspp.F.UPF
     MD5 check sum: 2d733d2bc2cbfd217af676df1668a4bc
     Pseudo is Ultrasoft + core correction, Zval = 16.0
     Generated by new atomic code, or converted to UPF format
     Using radial grid of  887 points,  6 beta functions with: 
                l(1) =   0
                l(2) =   0
                l(3) =   1
                l(4) =   1
                l(5) =   2
                l(6) =   2
     Q(r) pseudized with  8 coefficients,  rinner =    1.130   1.130   1.130
                                                       1.130   1.130

     atomic species   valence    mass     pseudopotential
        Pd            16.00   106.40000     Pd( 1.00)

     48 Sym. Ops., with inversion, found



   Cartesian axes

     site n.     atom                  positions (alat units)
         1           Pd  tau(   1) = (   0.0000000   0.0000000   0.0000000  )

     number of k points=    35  Marzari-Vanderbilt smearing, width (Ry)=  0.0200
                       cart. coord. in units 2pi/alat
        k(    1) = (   0.0000000   0.0000000   0.0000000), wk =   0.0027435
        k(    2) = (  -0.1111111   0.1111111  -0.1111111), wk =   0.0219479
        k(    3) = (  -0.2222222   0.2222222  -0.2222222), wk =   0.0219479
        k(    4) = (  -0.3333333   0.3333333  -0.3333333), wk =   0.0219479
        k(    5) = (  -0.4444444   0.4444444  -0.4444444), wk =   0.0219479
        k(    6) = (   0.0000000   0.2222222   0.0000000), wk =   0.0164609
        k(    7) = (  -0.1111111   0.3333333  -0.1111111), wk =   0.0658436
        k(    8) = (  -0.2222222   0.4444444  -0.2222222), wk =   0.0658436
        k(    9) = (  -0.3333333   0.5555556  -0.3333333), wk =   0.0658436
        k(   10) = (   0.5555556  -0.3333333   0.5555556), wk =   0.0658436
        k(   11) = (   0.4444444  -0.2222222   0.4444444), wk =   0.0658436
        k(   12) = (   0.3333333  -0.1111111   0.3333333), wk =   0.0658436
        k(   13) = (   0.2222222  -0.0000000   0.2222222), wk =   0.0329218
        k(   14) = (   0.0000000   0.4444444   0.0000000), wk =   0.0164609
        k(   15) = (  -0.1111111   0.5555556  -0.1111111), wk =   0.0658436
        k(   16) = (  -0.2222222   0.6666667  -0.2222222), wk =   0.0658436
        k(   17) = (   0.6666667  -0.2222222   0.6666667), wk =   0.0658436
        k(   18) = (   0.5555556  -0.1111111   0.5555556), wk =   0.0658436
        k(   19) = (   0.4444444   0.0000000   0.4444444), wk =   0.0329218
        k(   20) = (   0.0000000   0.6666667   0.0000000), wk =   0.0164609
        k(   21) = (  -0.1111111   0.7777778  -0.1111111), wk =   0.0658436
        k(   22) = (   0.7777778  -0.1111111   0.7777778), wk =   0.0658436
        k(   23) = (   0.6666667  -0.0000000   0.6666667), wk =   0.0329218
        k(   24) = (   0.0000000   0.8888889   0.0000000), wk =   0.0164609
        k(   25) = (   0.8888889   0.0000000   0.8888889), wk =   0.0329218
        k(   26) = (  -0.2222222   0.4444444   0.0000000), wk =   0.0658436
        k(   27) = (  -0.3333333   0.5555556  -0.1111111), wk =   0.1316872
        k(   28) = (   0.5555556  -0.3333333   0.7777778), wk =   0.1316872
        k(   29) = (  -0.2222222   0.6666667   0.0000000), wk =   0.0658436
        k(   30) = (   0.6666667  -0.2222222   0.8888889), wk =   0.1316872
        k(   31) = (   0.5555556  -0.1111111   0.7777778), wk =   0.1316872
        k(   32) = (   0.4444444   0.0000000   0.6666667), wk =   0.0658436
        k(   33) = (   0.7777778  -0.1111111   1.0000000), wk =   0.0658436
        k(   34) = (   0.6666667  -0.0000000   0.8888889), wk =   0.0658436
        k(   35) = (   0.5555556  -0.1111111   1.0000000), wk =   0.0658436

     Dense  grid:     3479 G-vectors     FFT dimensions: (  24,  24,  24)

     Estimated max dynamical RAM per process >       8.84 MB

     Estimated total dynamical RAM >      17.67 MB

     Initial potential from superposition of free atoms
     Check: negative starting charge=   -0.079301

     starting charge   15.49999, renormalised to   16.00000

     negative rho (up, down):  8.186E-02 0.000E+00
     Starting wfcs are   12 randomized atomic wfcs

     total cpu time spent up to now is        0.6 secs

     Self-consistent Calculation

     iteration #  1     ecut=    35.00 Ry     beta= 0.70
     Davidson diagonalization with overlap
     ethr =  1.00E-02,  avg # of iterations =  3.6

     negative rho (up, down):  7.988E-02 0.000E+00

     total cpu time spent up to now is        1.1 secs

     total energy              =    -198.00979082 Ry
     Harris-Foulkes estimate   =    -199.06549476 Ry
     estimated scf accuracy    <       1.43951116 Ry

     iteration #  2     ecut=    35.00 Ry     beta= 0.70
     Davidson diagonalization with overlap
     ethr =  9.00E-03,  avg # of iterations =  2.0

     negative rho (up, down):  8.154E-02 0.000E+00

     total cpu time spent up to now is        1.5 secs

     total energy              =    -198.32551784 Ry
     Harris-Foulkes estimate   =    -199.20916823 Ry
     estimated scf accuracy    <       1.86334601 Ry

     iteration #  3     ecut=    35.00 Ry     beta= 0.70
     Davidson diagonalization with overlap
     ethr =  9.00E-03,  avg # of iterations =  2.0

     negative rho (up, down):  8.165E-02 0.000E+00

     total cpu time spent up to now is        1.9 secs

     total energy              =    -198.68582910 Ry
     Harris-Foulkes estimate   =    -198.68654251 Ry
     estimated scf accuracy    <       0.00160644 Ry

     iteration #  4     ecut=    35.00 Ry     beta= 0.70
     Davidson diagonalization with overlap
     ethr =  1.00E-05,  avg # of iterations =  2.5

     negative rho (up, down):  8.177E-02 0.000E+00

     total cpu time spent up to now is        2.3 secs

     total energy              =    -198.68639153 Ry
     Harris-Foulkes estimate   =    -198.68639121 Ry
     estimated scf accuracy    <       0.00000353 Ry

     iteration #  5     ecut=    35.00 Ry     beta= 0.70
     Davidson diagonalization with overlap
     ethr =  2.21E-08,  avg # of iterations =  2.0

     negative rho (up, down):  8.180E-02 0.000E+00

     total cpu time spent up to now is        2.6 secs

     total energy              =    -198.68639249 Ry
     Harris-Foulkes estimate   =    -198.68639240 Ry
     estimated scf accuracy    <       0.00000012 Ry

     iteration #  6     ecut=    35.00 Ry     beta= 0.70
     Davidson diagonalization with overlap
     ethr =  7.48E-10,  avg # of iterations =  2.0

     negative rho (up, down):  8.181E-02 0.000E+00

     total cpu time spent up to now is        3.0 secs

     End of self-consistent calculation

          k = 0.0000 0.0000 0.0000 (   411 PWs)   bands (ev):

   -35.3939 -35.3939 -35.3939   8.1946  11.8059  11.8059  11.8059  12.9388
    12.9388  31.1653  34.6968  34.6968

          k =-0.1111 0.1111-0.1111 (   429 PWs)   bands (ev):

   -35.4159 -35.3974 -35.3974   8.5621  11.7122  11.9073  11.9073  12.9018
    12.9018  31.0270  32.4597  34.8446

          k =-0.2222 0.2222-0.2222 (   435 PWs)   bands (ev):

   -35.4705 -35.4056 -35.4056   9.4661  11.6974  12.0283  12.0283  12.9805
    12.9805  27.6665  31.8853  34.9064

          k =-0.3333 0.3333-0.3333 (   425 PWs)   bands (ev):

   -35.5320 -35.4148 -35.4148  10.0006  11.9268  11.9268  12.7504  13.3715
    13.3715  23.6511  31.1161  34.1204

          k =-0.4444 0.4444-0.4444 (   428 PWs)   bands (ev):

   -35.5718 -35.4210 -35.4210   9.9900  11.8024  11.8024  13.7244  13.7244
    14.7725  20.3120  30.4776  33.2054

          k = 0.0000 0.2222 0.0000 (   435 PWs)   bands (ev):

   -35.4152 -35.4026 -35.4026   8.6852  11.5900  11.9981  11.9981  12.7289
    13.0284  31.3951  33.1863  33.5146

          k =-0.1111 0.3333-0.1111 (   432 PWs)   bands (ev):

   -35.4555 -35.4119 -35.4090   9.4377  11.4035  12.1268  12.1873  12.7284
    13.1532  29.2550  31.8259  32.5160

          k =-0.2222 0.4444-0.2222 (   430 PWs)   bands (ev):

   -35.5126 -35.4216 -35.4193  10.1733  11.6982  11.9014  12.1727  13.4751
    13.5261  25.1694  31.2248  31.7873

          k =-0.3333 0.5556-0.3333 (   429 PWs)   bands (ev):

   -35.5575 -35.4306 -35.4267  10.2231  11.6866  12.0334  12.6062  13.7681
    15.1741  21.4141  30.3607  31.5668

          k = 0.5556-0.3333 0.5556 (   437 PWs)   bands (ev):

   -35.5699 -35.4374 -35.4252  10.2029  11.6421  11.9626  12.9997  13.7057
    16.3379  19.7751  29.7428  31.5972

          k = 0.4444-0.2222 0.4444 (   427 PWs)   bands (ev):

   -35.5444 -35.4358 -35.4171  10.2705  11.7634  12.0335  12.5121  13.2771
    14.7418  22.6160  29.5995  32.0724

          k = 0.3333-0.1111 0.3333 (   431 PWs)   bands (ev):

   -35.4935 -35.4263 -35.4070  10.0376  11.5458  12.0273  12.1867  12.7613
    13.6483  26.5456  29.9343  33.5117

          k = 0.2222-0.0000 0.2222 (   437 PWs)   bands (ev):

   -35.4426 -35.4112 -35.3994   9.1325  11.5400  12.0576  12.0660  12.6983
    13.1033  30.4692  30.5086  33.9604

          k = 0.0000 0.4444 0.0000 (   431 PWs)   bands (ev):

   -35.4675 -35.4233 -35.4233   9.8768  11.0822  12.4729  12.5447  12.5447
    13.2650  30.7018  30.7018  31.4556

          k =-0.1111 0.5556-0.1111 (   432 PWs)   bands (ev):

   -35.5062 -35.4360 -35.4344  10.4146  10.9193  12.2263  12.7103  13.5267
    13.6453  27.0482  29.5477  30.1277

          k =-0.2222 0.6667-0.2222 (   431 PWs)   bands (ev):

   -35.5407 -35.4540 -35.4398  10.5151  11.1967  12.0781  12.5986  13.8129
    15.6563  23.1005  28.2591  29.2524

          k = 0.6667-0.2222 0.6667 (   432 PWs)   bands (ev):

   -35.5527 -35.4710 -35.4373  10.5963  11.3411  12.1653  12.4650  13.7290
    18.1151  19.9925  26.7786  30.0339

          k = 0.5556-0.1111 0.5556 (   426 PWs)   bands (ev):

   -35.5401 -35.4759 -35.4278  10.8078  11.4528  11.9695  12.4259  13.2707
    16.7096  22.1364  25.9659  31.8551

          k = 0.4444 0.0000 0.4444 (   427 PWs)   bands (ev):

   -35.5169 -35.4580 -35.4160  10.8541  11.3271  11.8131  12.4757  12.7273
    14.8900  25.7690  26.1359  32.7280

          k = 0.0000 0.6667 0.0000 (   432 PWs)   bands (ev):

   -35.5260 -35.4469 -35.4469  10.3090  10.5553  13.2949  13.2949  13.5439
    13.8212  27.7513  27.9312  27.9312

          k =-0.1111 0.7778-0.1111 (   435 PWs)   bands (ev):

   -35.5467 -35.4627 -35.4540  10.2970  10.4942  13.0744  13.3061  13.8350
    15.8919  24.9803  25.7556  27.2890

          k = 0.7778-0.1111 0.7778 (   429 PWs)   bands (ev):

   -35.5456 -35.4894 -35.4516  10.4261  10.8046  12.5716  13.1293  13.8020
    18.6637  21.7734  23.9982  27.8667

          k = 0.6667-0.0000 0.6667 (   431 PWs)   bands (ev):

   -35.5190 -35.5187 -35.4414  10.7325  11.2836  11.9564  12.8667  13.4649
    19.0132  21.5833  23.2146  29.5412

          k = 0.0000 0.8889 0.0000 (   440 PWs)   bands (ev):

   -35.5630 -35.4626 -35.4626  10.0435  10.2347  13.7306  13.8998  13.8998
    16.5236  23.4826  26.2196  26.2196

          k = 0.8889 0.0000 0.8889 (   434 PWs)   bands (ev):

   -35.5621 -35.4736 -35.4615  10.1250  10.3272  13.4986  13.6110  13.9299
    17.9718  22.5751  24.4880  26.4348

          k =-0.2222 0.4444 0.0000 (   432 PWs)   bands (ev):

   -35.4882 -35.4331 -35.4147  10.2132  11.1822  11.9692  12.5474  12.7801
    13.6767  28.1332  28.5973  32.5083

          k =-0.3333 0.5556-0.1111 (   431 PWs)   bands (ev):

   -35.5274 -35.4515 -35.4245  10.6511  11.4856  11.6658  12.5253  13.2730
    14.9418  24.2916  27.9392  30.6414

          k = 0.5556-0.3333 0.7778 (   428 PWs)   bands (ev):

   -35.5540 -35.4601 -35.4329  10.5853  11.4080  12.1589  12.3878  13.6539
    16.9979  20.7340  28.1565  29.1244

          k =-0.2222 0.6667 0.0000 (   433 PWs)   bands (ev):

   -35.5296 -35.4582 -35.4416  10.6277  10.7496  12.2021  13.2877  13.3426
    15.1393  26.1291  26.4375  28.0338

          k = 0.6667-0.2222 0.8889 (   430 PWs)   bands (ev):

   -35.5412 -35.4798 -35.4488  10.6819  10.9938  11.9972  13.0206  13.7225
    17.4508  22.5915  25.9802  26.5969

          k = 0.5556-0.1111 0.7778 (   429 PWs)   bands (ev):

   -35.5355 -35.4973 -35.4463  10.8906  11.1874  11.7946  12.7881  13.6683
    19.3152  20.5684  24.7557  27.4209

          k = 0.4444 0.0000 0.6667 (   425 PWs)   bands (ev):

   -35.5308 -35.4864 -35.4356  11.2654  11.2885  11.3016  12.8365  13.2988
    16.8727  23.9436  24.2084  28.9302

          k = 0.7778-0.1111 1.0000 (   435 PWs)   bands (ev):

   -35.5532 -35.4746 -35.4619  10.3216  10.4786  12.9020  13.4965  13.8977
    17.7744  23.5097  24.9681  25.1742

          k = 0.6667-0.0000 0.8889 (   429 PWs)   bands (ev):

   -35.5394 -35.4972 -35.4591  10.5477  10.8343  12.3209  13.1411  13.8928
    19.9660  21.8537  22.9544  25.8992

          k = 0.5556-0.1111 1.0000 (   428 PWs)   bands (ev):

   -35.5275 -35.5049 -35.4604  10.8235  11.1960  11.6512  12.9570  13.8944
    19.8425  22.5176  23.2373  24.7715

     the Fermi energy is    13.8249 ev

!    total energy              =    -198.68639250 Ry
     Harris-Foulkes estimate   =    -198.68639250 Ry
     estimated scf accuracy    <          1.7E-09 Ry

     The total energy is the sum of the following terms:

     one-electron contribution =     -60.28946220 Ry
     hartree contribution      =      41.41718808 Ry
     xc contribution           =     -31.24108341 Ry
     ewald contribution        =    -148.57274574 Ry
     smearing contrib. (-TS)   =      -0.00028923 Ry

     convergence has been achieved in   6 iterations

     Writing output data file Pd-kp-conv.save/
 
     init_run     :      0.49s CPU      0.52s WALL (       1 calls)
     electrons    :      2.19s CPU      2.72s WALL (       1 calls)

     Called by init_run:
     wfcinit      :      0.14s CPU      0.15s WALL (       1 calls)
     potinit      :      0.01s CPU      0.02s WALL (       1 calls)
     hinit0       :      0.33s CPU      0.33s WALL (       1 calls)

     Called by electrons:
     c_bands      :      1.77s CPU      1.93s WALL (       6 calls)
     sum_band     :      0.35s CPU      0.38s WALL (       6 calls)
     v_of_rho     :      0.03s CPU      0.03s WALL (       7 calls)
     newd         :      0.04s CPU      0.05s WALL (       7 calls)
     mix_rho      :      0.00s CPU      0.00s WALL (       6 calls)

     Called by c_bands:
     init_us_2    :      0.04s CPU      0.05s WALL (     455 calls)
     cegterg      :      1.65s CPU      1.76s WALL (     210 calls)

     Called by sum_band:
     sum_band:bec :      0.00s CPU      0.00s WALL (     210 calls)
     addusdens    :      0.04s CPU      0.05s WALL (       6 calls)

     Called by *egterg:
     h_psi        :      1.44s CPU      1.54s WALL (     741 calls)
     s_psi        :      0.02s CPU      0.02s WALL (     741 calls)
     g_psi        :      0.01s CPU      0.01s WALL (     496 calls)
     cdiaghg      :      0.18s CPU      0.19s WALL (     706 calls)

     Called by h_psi:
     h_psi:pot    :      1.43s CPU      1.53s WALL (     741 calls)
     h_psi:calbec :      0.03s CPU      0.03s WALL (     741 calls)
     vloc_psi     :      1.38s CPU      1.47s WALL (     741 calls)
     add_vuspsi   :      0.02s CPU      0.02s WALL (     741 calls)

     General routines
     calbec       :      0.03s CPU      0.04s WALL (     951 calls)
     fft          :      0.01s CPU      0.01s WALL (      78 calls)
     ffts         :      0.00s CPU      0.00s WALL (       6 calls)
     fftw         :      1.41s CPU      1.51s WALL (   15974 calls)
 
     Parallel routines
     fft_scatt_xy :      0.26s CPU      0.28s WALL (   16058 calls)
     fft_scatt_yz :      0.31s CPU      0.34s WALL (   16058 calls)
 
     PWSCF        :     2.77s CPU         3.49s WALL

 
   This run was terminated on:  21:39: 5   2Dec2021            

=------------------------------------------------------------------------------=
   JOB DONE.
=------------------------------------------------------------------------------=
