
     Program PWSCF v.6.3 starts on  2Dec2021 at 20:33:43 

     This program is part of the open-source Quantum ESPRESSO suite
     for quantum simulation of materials; please cite
         "P. Giannozzi et al., J. Phys.:Condens. Matter 21 395502 (2009);
         "P. Giannozzi et al., J. Phys.:Condens. Matter 29 465901 (2017);
          URL http://www.quantum-espresso.org", 
     in publications or presentations arising from this work. More details at
     http://www.quantum-espresso.org/quote

     Parallel version (MPI & OpenMP), running on       2 processor cores
     Number of MPI processes:                 2
     Threads/MPI process:                     1

     MPI processes distributed on     1 nodes
     R & G space division:  proc/nbgrp/npool/nimage =       2
     Reading input from pw-input.in

     Current dimensions of program PWSCF are:
     Max number of different atomic species (ntypx) = 10
     Max number of k-points (npk) =  40000
     Max angular momentum in pseudopotentials (lmaxx) =  3

     Subspace diagonalization in iterative solution of the eigenvalue problem:
     a serial algorithm will be used

 
     Parallelization info
     --------------------
     sticks:   dense  smooth     PW     G-vecs:    dense   smooth      PW
     Min         105     105     42                 1042     1042     229
     Max         106     106     43                 1043     1043     230
     Sum         211     211     85                 2085     2085     459
 

     Title: 
     Pd-kp-conv                                                                 


     bravais-lattice index     =            2
     lattice parameter (alat)  =       6.7000  a.u.
     unit-cell volume          =      75.1908 (a.u.)^3
     number of atoms/cell      =            1
     number of atomic types    =            1
     number of electrons       =        16.00
     number of Kohn-Sham states=           12
     kinetic-energy cutoff     =      35.0000  Ry
     charge density cutoff     =     140.0000  Ry
     convergence threshold     =      1.0E-07
     mixing beta               =       0.7000
     number of iterations used =            8  plain     mixing
     Exchange-correlation      =  SLA  PW   PBX  PBC ( 1  4  3  4 0 0)

     celldm(1)=   6.700000  celldm(2)=   0.000000  celldm(3)=   0.000000
     celldm(4)=   0.000000  celldm(5)=   0.000000  celldm(6)=   0.000000

     crystal axes: (cart. coord. in units of alat)
               a(1) = (  -0.500000   0.000000   0.500000 )  
               a(2) = (   0.000000   0.500000   0.500000 )  
               a(3) = (  -0.500000   0.500000   0.000000 )  

     reciprocal axes: (cart. coord. in units 2 pi/alat)
               b(1) = ( -1.000000 -1.000000  1.000000 )  
               b(2) = (  1.000000  1.000000  1.000000 )  
               b(3) = ( -1.000000  1.000000 -1.000000 )  


     PseudoPot. # 1 for Pd read from file:
     ./pd_pbe_v1.4.uspp.F.UPF
     MD5 check sum: 2d733d2bc2cbfd217af676df1668a4bc
     Pseudo is Ultrasoft + core correction, Zval = 16.0
     Generated by new atomic code, or converted to UPF format
     Using radial grid of  887 points,  6 beta functions with: 
                l(1) =   0
                l(2) =   0
                l(3) =   1
                l(4) =   1
                l(5) =   2
                l(6) =   2
     Q(r) pseudized with  8 coefficients,  rinner =    1.130   1.130   1.130
                                                       1.130   1.130

     atomic species   valence    mass     pseudopotential
        Pd            16.00   106.40000     Pd( 1.00)

     48 Sym. Ops., with inversion, found



   Cartesian axes

     site n.     atom                  positions (alat units)
         1           Pd  tau(   1) = (   0.0000000   0.0000000   0.0000000  )

     number of k points=   120  Marzari-Vanderbilt smearing, width (Ry)=  0.0050

     Number of k-points >= 100: set verbosity='high' to print them.

     Dense  grid:     2085 G-vectors     FFT dimensions: (  18,  18,  18)

     Estimated max dynamical RAM per process >       7.56 MB

     Estimated total dynamical RAM >      15.12 MB

     Initial potential from superposition of free atoms
     Check: negative starting charge=   -0.084526

     starting charge   15.49999, renormalised to   16.00000

     negative rho (up, down):  8.725E-02 0.000E+00
     Starting wfcs are   12 randomized atomic wfcs

     total cpu time spent up to now is        0.7 secs

     Self-consistent Calculation

     iteration #  1     ecut=    35.00 Ry     beta= 0.70
     Davidson diagonalization with overlap
     ethr =  1.00E-02,  avg # of iterations =  3.5

     negative rho (up, down):  8.906E-02 0.000E+00

     total cpu time spent up to now is        1.7 secs

     total energy              =    -198.36330465 Ry
     Harris-Foulkes estimate   =    -198.82974682 Ry
     estimated scf accuracy    <       0.66124287 Ry

     iteration #  2     ecut=    35.00 Ry     beta= 0.70
     Davidson diagonalization with overlap
     ethr =  4.13E-03,  avg # of iterations =  2.0

     negative rho (up, down):  8.987E-02 0.000E+00

     total cpu time spent up to now is        2.4 secs

     total energy              =    -198.54903022 Ry
     Harris-Foulkes estimate   =    -198.70823248 Ry
     estimated scf accuracy    <       0.27788317 Ry

     iteration #  3     ecut=    35.00 Ry     beta= 0.70
     Davidson diagonalization with overlap
     ethr =  1.74E-03,  avg # of iterations =  2.0

     negative rho (up, down):  9.055E-02 0.000E+00

     total cpu time spent up to now is        3.2 secs

     total energy              =    -198.61176779 Ry
     Harris-Foulkes estimate   =    -198.61211197 Ry
     estimated scf accuracy    <       0.00085432 Ry

     iteration #  4     ecut=    35.00 Ry     beta= 0.70
     Davidson diagonalization with overlap
     ethr =  5.34E-06,  avg # of iterations =  2.2

     negative rho (up, down):  9.069E-02 0.000E+00

     total cpu time spent up to now is        3.9 secs

     total energy              =    -198.61196161 Ry
     Harris-Foulkes estimate   =    -198.61196662 Ry
     estimated scf accuracy    <       0.00001036 Ry

     iteration #  5     ecut=    35.00 Ry     beta= 0.70
     Davidson diagonalization with overlap
     ethr =  6.47E-08,  avg # of iterations =  2.0

     negative rho (up, down):  9.073E-02 0.000E+00

     total cpu time spent up to now is        4.6 secs

     End of self-consistent calculation

     Number of k-points >= 100: set verbosity='high' to print the bands.

     the Fermi energy is    27.1171 ev

!    total energy              =    -198.61196397 Ry
     Harris-Foulkes estimate   =    -198.61196394 Ry
     estimated scf accuracy    <       0.00000003 Ry

     The total energy is the sum of the following terms:

     one-electron contribution =     -19.97055384 Ry
     hartree contribution      =      28.21930947 Ry
     xc contribution           =     -31.67799346 Ry
     ewald contribution        =    -175.18278975 Ry
     smearing contrib. (-TS)   =       0.00006361 Ry

     convergence has been achieved in   5 iterations

     Writing output data file Pd-kp-conv.save/
 
     init_run     :      0.56s CPU      0.62s WALL (       1 calls)
     electrons    :      3.67s CPU      4.28s WALL (       1 calls)

     Called by init_run:
     wfcinit      :      0.25s CPU      0.29s WALL (       1 calls)
     potinit      :      0.00s CPU      0.01s WALL (       1 calls)
     hinit0       :      0.30s CPU      0.30s WALL (       1 calls)

     Called by electrons:
     c_bands      :      3.12s CPU      3.34s WALL (       5 calls)
     sum_band     :      0.52s CPU      0.55s WALL (       5 calls)
     v_of_rho     :      0.01s CPU      0.01s WALL (       6 calls)
     newd         :      0.02s CPU      0.03s WALL (       6 calls)
     mix_rho      :      0.00s CPU      0.00s WALL (       5 calls)

     Called by c_bands:
     init_us_2    :      0.08s CPU      0.09s WALL (    1320 calls)
     cegterg      :      2.89s CPU      3.10s WALL (     600 calls)

     Called by sum_band:
     sum_band:bec :      0.01s CPU      0.01s WALL (     600 calls)
     addusdens    :      0.02s CPU      0.02s WALL (       5 calls)

     Called by *egterg:
     h_psi        :      2.29s CPU      2.46s WALL (    2133 calls)
     s_psi        :      0.04s CPU      0.04s WALL (    2133 calls)
     g_psi        :      0.03s CPU      0.03s WALL (    1413 calls)
     cdiaghg      :      0.50s CPU      0.54s WALL (    2013 calls)

     Called by h_psi:
     h_psi:pot    :      2.27s CPU      2.45s WALL (    2133 calls)
     h_psi:calbec :      0.06s CPU      0.07s WALL (    2133 calls)
     vloc_psi     :      2.15s CPU      2.32s WALL (    2133 calls)
     add_vuspsi   :      0.04s CPU      0.05s WALL (    2133 calls)

     General routines
     calbec       :      0.07s CPU      0.08s WALL (    2733 calls)
     fft          :      0.01s CPU      0.01s WALL (      67 calls)
     ffts         :      0.00s CPU      0.00s WALL (       5 calls)
     fftw         :      2.24s CPU      2.41s WALL (   46052 calls)
 
     Parallel routines
     fft_scatt_xy :      0.39s CPU      0.42s WALL (   46124 calls)
     fft_scatt_yz :      0.63s CPU      0.68s WALL (   46124 calls)
 
     PWSCF        :     4.31s CPU         5.44s WALL

 
   This run was terminated on:  20:33:49   2Dec2021            

=------------------------------------------------------------------------------=
   JOB DONE.
=------------------------------------------------------------------------------=
