
     Program PWSCF v.6.3 starts on  2Dec2021 at 22:21:45 

     This program is part of the open-source Quantum ESPRESSO suite
     for quantum simulation of materials; please cite
         "P. Giannozzi et al., J. Phys.:Condens. Matter 21 395502 (2009);
         "P. Giannozzi et al., J. Phys.:Condens. Matter 29 465901 (2017);
          URL http://www.quantum-espresso.org", 
     in publications or presentations arising from this work. More details at
     http://www.quantum-espresso.org/quote

     Parallel version (MPI & OpenMP), running on       2 processor cores
     Number of MPI processes:                 2
     Threads/MPI process:                     1

     MPI processes distributed on     1 nodes
     R & G space division:  proc/nbgrp/npool/nimage =       2
     Reading input from pw-input.in

     Current dimensions of program PWSCF are:
     Max number of different atomic species (ntypx) = 10
     Max number of k-points (npk) =  40000
     Max angular momentum in pseudopotentials (lmaxx) =  3

     Subspace diagonalization in iterative solution of the eigenvalue problem:
     a serial algorithm will be used

 
     Parallelization info
     --------------------
     sticks:   dense  smooth     PW     G-vecs:    dense   smooth      PW
     Min         105     105     36                 1042     1042     205
     Max         106     106     37                 1043     1043     206
     Sum         211     211     73                 2085     2085     411
 

     Title: 
     Pd-kp-conv                                                                 


     bravais-lattice index     =            2
     lattice parameter (alat)  =       6.7000  a.u.
     unit-cell volume          =      75.1908 (a.u.)^3
     number of atoms/cell      =            1
     number of atomic types    =            1
     number of electrons       =        16.00
     number of Kohn-Sham states=           12
     kinetic-energy cutoff     =      35.0000  Ry
     charge density cutoff     =     140.0000  Ry
     convergence threshold     =      1.0E-07
     mixing beta               =       0.7000
     number of iterations used =            8  plain     mixing
     Exchange-correlation      =  SLA  PW   PBX  PBC ( 1  4  3  4 0 0)

     celldm(1)=   6.700000  celldm(2)=   0.000000  celldm(3)=   0.000000
     celldm(4)=   0.000000  celldm(5)=   0.000000  celldm(6)=   0.000000

     crystal axes: (cart. coord. in units of alat)
               a(1) = (  -0.500000   0.000000   0.500000 )  
               a(2) = (   0.000000   0.500000   0.500000 )  
               a(3) = (  -0.500000   0.500000   0.000000 )  

     reciprocal axes: (cart. coord. in units 2 pi/alat)
               b(1) = ( -1.000000 -1.000000  1.000000 )  
               b(2) = (  1.000000  1.000000  1.000000 )  
               b(3) = ( -1.000000  1.000000 -1.000000 )  


     PseudoPot. # 1 for Pd read from file:
     ./pd_pbe_v1.4.uspp.F.UPF
     MD5 check sum: 2d733d2bc2cbfd217af676df1668a4bc
     Pseudo is Ultrasoft + core correction, Zval = 16.0
     Generated by new atomic code, or converted to UPF format
     Using radial grid of  887 points,  6 beta functions with: 
                l(1) =   0
                l(2) =   0
                l(3) =   1
                l(4) =   1
                l(5) =   2
                l(6) =   2
     Q(r) pseudized with  8 coefficients,  rinner =    1.130   1.130   1.130
                                                       1.130   1.130

     atomic species   valence    mass     pseudopotential
        Pd            16.00   106.40000     Pd( 1.00)

     48 Sym. Ops., with inversion, found



   Cartesian axes

     site n.     atom                  positions (alat units)
         1           Pd  tau(   1) = (   0.0000000   0.0000000   0.0000000  )

     number of k points=     4  Marzari-Vanderbilt smearing, width (Ry)=  0.0300
                       cart. coord. in units 2pi/alat
        k(    1) = (   0.0000000   0.0000000   0.0000000), wk =   0.0740741
        k(    2) = (  -0.3333333   0.3333333  -0.3333333), wk =   0.5925926
        k(    3) = (   0.0000000   0.6666667   0.0000000), wk =   0.4444444
        k(    4) = (   0.6666667  -0.0000000   0.6666667), wk =   0.8888889

     Dense  grid:     2085 G-vectors     FFT dimensions: (  18,  18,  18)

     Estimated max dynamical RAM per process >       4.78 MB

     Estimated total dynamical RAM >       9.55 MB

     Initial potential from superposition of free atoms
     Check: negative starting charge=   -0.084526

     starting charge   15.49999, renormalised to   16.00000

     negative rho (up, down):  8.725E-02 0.000E+00
     Starting wfcs are   12 randomized atomic wfcs

     total cpu time spent up to now is        0.4 secs

     Self-consistent Calculation

     iteration #  1     ecut=    35.00 Ry     beta= 0.70
     Davidson diagonalization with overlap
     ethr =  1.00E-02,  avg # of iterations =  3.8

     negative rho (up, down):  8.963E-02 0.000E+00

     total cpu time spent up to now is        0.5 secs

     total energy              =    -198.26858582 Ry
     Harris-Foulkes estimate   =    -198.76918664 Ry
     estimated scf accuracy    <       0.71426168 Ry

     iteration #  2     ecut=    35.00 Ry     beta= 0.70
     Davidson diagonalization with overlap
     ethr =  4.46E-03,  avg # of iterations =  2.0

     negative rho (up, down):  9.045E-02 0.000E+00

     total cpu time spent up to now is        0.5 secs

     total energy              =    -198.46340684 Ry
     Harris-Foulkes estimate   =    -198.63506247 Ry
     estimated scf accuracy    <       0.29948665 Ry

     iteration #  3     ecut=    35.00 Ry     beta= 0.70
     Davidson diagonalization with overlap
     ethr =  1.87E-03,  avg # of iterations =  2.0

     negative rho (up, down):  9.132E-02 0.000E+00

     total cpu time spent up to now is        0.6 secs

     total energy              =    -198.52110949 Ry
     Harris-Foulkes estimate   =    -198.52176244 Ry
     estimated scf accuracy    <       0.00149781 Ry

     iteration #  4     ecut=    35.00 Ry     beta= 0.70
     Davidson diagonalization with overlap
     ethr =  9.36E-06,  avg # of iterations =  2.0

     negative rho (up, down):  9.131E-02 0.000E+00

     total cpu time spent up to now is        0.6 secs

     total energy              =    -198.52148106 Ry
     Harris-Foulkes estimate   =    -198.52168088 Ry
     estimated scf accuracy    <       0.00048113 Ry

     iteration #  5     ecut=    35.00 Ry     beta= 0.70
     Davidson diagonalization with overlap
     ethr =  3.01E-06,  avg # of iterations =  1.8

     negative rho (up, down):  9.139E-02 0.000E+00

     total cpu time spent up to now is        0.7 secs

     total energy              =    -198.52156854 Ry
     Harris-Foulkes estimate   =    -198.52156998 Ry
     estimated scf accuracy    <       0.00000319 Ry

     iteration #  6     ecut=    35.00 Ry     beta= 0.70
     Davidson diagonalization with overlap
     ethr =  1.99E-08,  avg # of iterations =  2.2

     negative rho (up, down):  9.141E-02 0.000E+00

     total cpu time spent up to now is        0.7 secs

     total energy              =    -198.52156951 Ry
     Harris-Foulkes estimate   =    -198.52157030 Ry
     estimated scf accuracy    <       0.00000202 Ry

     iteration #  7     ecut=    35.00 Ry     beta= 0.70
     Davidson diagonalization with overlap
     ethr =  1.26E-08,  avg # of iterations =  1.2

     negative rho (up, down):  9.141E-02 0.000E+00

     total cpu time spent up to now is        0.7 secs

     End of self-consistent calculation

          k = 0.0000 0.0000 0.0000 (   259 PWs)   bands (ev):

   -23.4690 -23.4690 -23.4690  17.5620  22.5798  22.5798  22.5798  25.0686
    25.0686  45.2417  51.7576  51.7576

          k =-0.3333 0.3333-0.3333 (   256 PWs)   bands (ev):

   -24.2960 -23.5804 -23.5804  19.4503  22.7757  22.7757  24.3315  26.0133
    26.0133  41.2373  45.9786  54.5954

          k = 0.0000 0.6667 0.0000 (   266 PWs)   bands (ev):

   -24.2532 -23.7681 -23.7681  19.6096  19.8647  25.8469  25.8469  26.2700
    26.4262  45.7147  45.7147  45.9637

          k = 0.6667-0.0000 0.6667 (   268 PWs)   bands (ev):

   -24.2075 -24.1999 -23.7304  20.2222  21.4510  22.9062  24.7687  26.2485
    34.5495  38.3525  40.8795  48.4413

     the Fermi energy is    26.3015 ev

!    total energy              =    -198.52156986 Ry
     Harris-Foulkes estimate   =    -198.52156986 Ry
     estimated scf accuracy    <          7.8E-09 Ry

     The total energy is the sum of the following terms:

     one-electron contribution =     -19.76122900 Ry
     hartree contribution      =      28.08196114 Ry
     xc contribution           =     -31.65459840 Ry
     ewald contribution        =    -175.18278975 Ry
     smearing contrib. (-TS)   =      -0.00491385 Ry

     convergence has been achieved in   7 iterations

     Writing output data file Pd-kp-conv.save/
 
     init_run     :      0.31s CPU      0.33s WALL (       1 calls)
     electrons    :      0.28s CPU      0.33s WALL (       1 calls)

     Called by init_run:
     wfcinit      :      0.01s CPU      0.01s WALL (       1 calls)
     potinit      :      0.00s CPU      0.01s WALL (       1 calls)
     hinit0       :      0.30s CPU      0.30s WALL (       1 calls)

     Called by electrons:
     c_bands      :      0.16s CPU      0.18s WALL (       7 calls)
     sum_band     :      0.07s CPU      0.07s WALL (       7 calls)
     v_of_rho     :      0.02s CPU      0.02s WALL (       8 calls)
     newd         :      0.04s CPU      0.04s WALL (       8 calls)
     mix_rho      :      0.00s CPU      0.00s WALL (       7 calls)

     Called by c_bands:
     init_us_2    :      0.00s CPU      0.00s WALL (      60 calls)
     cegterg      :      0.15s CPU      0.17s WALL (      28 calls)

     Called by sum_band:
     sum_band:bec :      0.00s CPU      0.00s WALL (      28 calls)
     addusdens    :      0.03s CPU      0.04s WALL (       7 calls)

     Called by *egterg:
     h_psi        :      0.11s CPU      0.13s WALL (      92 calls)
     s_psi        :      0.00s CPU      0.00s WALL (      92 calls)
     g_psi        :      0.00s CPU      0.00s WALL (      60 calls)
     cdiaghg      :      0.03s CPU      0.03s WALL (      88 calls)

     Called by h_psi:
     h_psi:pot    :      0.11s CPU      0.13s WALL (      92 calls)
     h_psi:calbec :      0.00s CPU      0.00s WALL (      92 calls)
     vloc_psi     :      0.10s CPU      0.12s WALL (      92 calls)
     add_vuspsi   :      0.00s CPU      0.00s WALL (      92 calls)

     General routines
     calbec       :      0.00s CPU      0.00s WALL (     120 calls)
     fft          :      0.01s CPU      0.01s WALL (      89 calls)
     ffts         :      0.00s CPU      0.00s WALL (       7 calls)
     fftw         :      0.11s CPU      0.13s WALL (    2048 calls)
 
     Parallel routines
     fft_scatt_xy :      0.02s CPU      0.02s WALL (    2144 calls)
     fft_scatt_yz :      0.03s CPU      0.04s WALL (    2144 calls)
 
     PWSCF        :     0.67s CPU         0.80s WALL

 
   This run was terminated on:  22:21:46   2Dec2021            

=------------------------------------------------------------------------------=
   JOB DONE.
=------------------------------------------------------------------------------=
