
     Program PWSCF v.6.3 starts on  2Dec2021 at 21:46:10 

     This program is part of the open-source Quantum ESPRESSO suite
     for quantum simulation of materials; please cite
         "P. Giannozzi et al., J. Phys.:Condens. Matter 21 395502 (2009);
         "P. Giannozzi et al., J. Phys.:Condens. Matter 29 465901 (2017);
          URL http://www.quantum-espresso.org", 
     in publications or presentations arising from this work. More details at
     http://www.quantum-espresso.org/quote

     Parallel version (MPI & OpenMP), running on       2 processor cores
     Number of MPI processes:                 2
     Threads/MPI process:                     1

     MPI processes distributed on     1 nodes
     R & G space division:  proc/nbgrp/npool/nimage =       2
     Reading input from pw-input.in

     Current dimensions of program PWSCF are:
     Max number of different atomic species (ntypx) = 10
     Max number of k-points (npk) =  40000
     Max angular momentum in pseudopotentials (lmaxx) =  3

     Subspace diagonalization in iterative solution of the eigenvalue problem:
     a serial algorithm will be used

 
     Parallelization info
     --------------------
     sticks:   dense  smooth     PW     G-vecs:    dense   smooth      PW
     Min         132     132     45                 1445     1445     304
     Max         133     133     46                 1446     1446     305
     Sum         265     265     91                 2891     2891     609
 

     Title: 
     Pd-kp-conv                                                                 


     bravais-lattice index     =            2
     lattice parameter (alat)  =       7.5000  a.u.
     unit-cell volume          =     105.4688 (a.u.)^3
     number of atoms/cell      =            1
     number of atomic types    =            1
     number of electrons       =        16.00
     number of Kohn-Sham states=           12
     kinetic-energy cutoff     =      35.0000  Ry
     charge density cutoff     =     140.0000  Ry
     convergence threshold     =      1.0E-07
     mixing beta               =       0.7000
     number of iterations used =            8  plain     mixing
     Exchange-correlation      =  SLA  PW   PBX  PBC ( 1  4  3  4 0 0)

     celldm(1)=   7.500000  celldm(2)=   0.000000  celldm(3)=   0.000000
     celldm(4)=   0.000000  celldm(5)=   0.000000  celldm(6)=   0.000000

     crystal axes: (cart. coord. in units of alat)
               a(1) = (  -0.500000   0.000000   0.500000 )  
               a(2) = (   0.000000   0.500000   0.500000 )  
               a(3) = (  -0.500000   0.500000   0.000000 )  

     reciprocal axes: (cart. coord. in units 2 pi/alat)
               b(1) = ( -1.000000 -1.000000  1.000000 )  
               b(2) = (  1.000000  1.000000  1.000000 )  
               b(3) = ( -1.000000  1.000000 -1.000000 )  


     PseudoPot. # 1 for Pd read from file:
     ./pd_pbe_v1.4.uspp.F.UPF
     MD5 check sum: 2d733d2bc2cbfd217af676df1668a4bc
     Pseudo is Ultrasoft + core correction, Zval = 16.0
     Generated by new atomic code, or converted to UPF format
     Using radial grid of  887 points,  6 beta functions with: 
                l(1) =   0
                l(2) =   0
                l(3) =   1
                l(4) =   1
                l(5) =   2
                l(6) =   2
     Q(r) pseudized with  8 coefficients,  rinner =    1.130   1.130   1.130
                                                       1.130   1.130

     atomic species   valence    mass     pseudopotential
        Pd            16.00   106.40000     Pd( 1.00)

     48 Sym. Ops., with inversion, found



   Cartesian axes

     site n.     atom                  positions (alat units)
         1           Pd  tau(   1) = (   0.0000000   0.0000000   0.0000000  )

     number of k points=   195  Marzari-Vanderbilt smearing, width (Ry)=  0.0200

     Number of k-points >= 100: set verbosity='high' to print them.

     Dense  grid:     2891 G-vectors     FFT dimensions: (  20,  20,  20)

     Estimated max dynamical RAM per process >      12.79 MB

     Estimated total dynamical RAM >      25.58 MB

     Initial potential from superposition of free atoms
     Check: negative starting charge=   -0.084664

     starting charge   15.49999, renormalised to   16.00000

     negative rho (up, down):  8.740E-02 0.000E+00
     Starting wfcs are   12 randomized atomic wfcs

     total cpu time spent up to now is        1.0 secs

     Self-consistent Calculation

     iteration #  1     ecut=    35.00 Ry     beta= 0.70
     Davidson diagonalization with overlap
     ethr =  1.00E-02,  avg # of iterations =  3.6

     negative rho (up, down):  8.675E-02 0.000E+00

     total cpu time spent up to now is        2.8 secs

     total energy              =    -198.17350974 Ry
     Harris-Foulkes estimate   =    -199.03772530 Ry
     estimated scf accuracy    <       1.19047785 Ry

     iteration #  2     ecut=    35.00 Ry     beta= 0.70
     Davidson diagonalization with overlap
     ethr =  7.44E-03,  avg # of iterations =  2.0

     negative rho (up, down):  8.793E-02 0.000E+00

     total cpu time spent up to now is        4.2 secs

     total energy              =    -198.46470619 Ry
     Harris-Foulkes estimate   =    -199.04161055 Ry
     estimated scf accuracy    <       1.15155005 Ry

     iteration #  3     ecut=    35.00 Ry     beta= 0.70
     Davidson diagonalization with overlap
     ethr =  7.20E-03,  avg # of iterations =  2.0

     negative rho (up, down):  8.816E-02 0.000E+00

     total cpu time spent up to now is        5.6 secs

     total energy              =    -198.70057904 Ry
     Harris-Foulkes estimate   =    -198.70132189 Ry
     estimated scf accuracy    <       0.00161691 Ry

     iteration #  4     ecut=    35.00 Ry     beta= 0.70
     Davidson diagonalization with overlap
     ethr =  1.01E-05,  avg # of iterations =  2.4

     negative rho (up, down):  8.832E-02 0.000E+00

     total cpu time spent up to now is        7.1 secs

     total energy              =    -198.70116894 Ry
     Harris-Foulkes estimate   =    -198.70116800 Ry
     estimated scf accuracy    <       0.00000666 Ry

     iteration #  5     ecut=    35.00 Ry     beta= 0.70
     Davidson diagonalization with overlap
     ethr =  4.17E-08,  avg # of iterations =  1.9

     negative rho (up, down):  8.838E-02 0.000E+00

     total cpu time spent up to now is        8.4 secs

     total energy              =    -198.70117020 Ry
     Harris-Foulkes estimate   =    -198.70116992 Ry
     estimated scf accuracy    <       0.00000028 Ry

     iteration #  6     ecut=    35.00 Ry     beta= 0.70
     Davidson diagonalization with overlap
     ethr =  1.72E-09,  avg # of iterations =  2.0

     negative rho (up, down):  8.838E-02 0.000E+00

     total cpu time spent up to now is        9.9 secs

     End of self-consistent calculation

     Number of k-points >= 100: set verbosity='high' to print the bands.

     the Fermi energy is    17.3107 ev

!    total energy              =    -198.70117024 Ry
     Harris-Foulkes estimate   =    -198.70117024 Ry
     estimated scf accuracy    <          1.6E-09 Ry

     The total energy is the sum of the following terms:

     one-electron contribution =     -47.93633774 Ry
     hartree contribution      =      37.06208815 Ry
     xc contribution           =     -31.33037387 Ry
     ewald contribution        =    -156.49662553 Ry
     smearing contrib. (-TS)   =       0.00007875 Ry

     convergence has been achieved in   6 iterations

     Writing output data file Pd-kp-conv.save/
 
     init_run     :      0.80s CPU      0.87s WALL (       1 calls)
     electrons    :      8.08s CPU      8.98s WALL (       1 calls)

     Called by init_run:
     wfcinit      :      0.47s CPU      0.51s WALL (       1 calls)
     potinit      :      0.00s CPU      0.02s WALL (       1 calls)
     hinit0       :      0.32s CPU      0.32s WALL (       1 calls)

     Called by electrons:
     c_bands      :      6.83s CPU      7.56s WALL (       6 calls)
     sum_band     :      1.20s CPU      1.30s WALL (       6 calls)
     v_of_rho     :      0.02s CPU      0.02s WALL (       7 calls)
     newd         :      0.04s CPU      0.04s WALL (       7 calls)
     mix_rho      :      0.00s CPU      0.00s WALL (       6 calls)

     Called by c_bands:
     init_us_2    :      0.21s CPU      0.23s WALL (    2535 calls)
     cegterg      :      6.23s CPU      6.77s WALL (    1170 calls)

     Called by sum_band:
     sum_band:bec :      0.01s CPU      0.01s WALL (    1170 calls)
     addusdens    :      0.04s CPU      0.04s WALL (       6 calls)

     Called by *egterg:
     h_psi        :      4.96s CPU      5.41s WALL (    4075 calls)
     s_psi        :      0.09s CPU      0.10s WALL (    4075 calls)
     g_psi        :      0.06s CPU      0.07s WALL (    2710 calls)
     cdiaghg      :      0.94s CPU      1.01s WALL (    3880 calls)

     Called by h_psi:
     h_psi:pot    :      4.93s CPU      5.37s WALL (    4075 calls)
     h_psi:calbec :      0.13s CPU      0.14s WALL (    4075 calls)
     vloc_psi     :      4.68s CPU      5.09s WALL (    4075 calls)
     add_vuspsi   :      0.09s CPU      0.10s WALL (    4075 calls)

     General routines
     calbec       :      0.15s CPU      0.17s WALL (    5245 calls)
     fft          :      0.01s CPU      0.01s WALL (      78 calls)
     ffts         :      0.00s CPU      0.00s WALL (       6 calls)
     fftw         :      4.86s CPU      5.28s WALL (   87122 calls)
 
     Parallel routines
     fft_scatt_xy :      0.87s CPU      0.95s WALL (   87206 calls)
     fft_scatt_yz :      1.27s CPU      1.40s WALL (   87206 calls)
 
     PWSCF        :     9.03s CPU        10.77s WALL

 
   This run was terminated on:  21:46:21   2Dec2021            

=------------------------------------------------------------------------------=
   JOB DONE.
=------------------------------------------------------------------------------=
