
     Program PWSCF v.6.3 starts on  2Dec2021 at 22: 5:46 

     This program is part of the open-source Quantum ESPRESSO suite
     for quantum simulation of materials; please cite
         "P. Giannozzi et al., J. Phys.:Condens. Matter 21 395502 (2009);
         "P. Giannozzi et al., J. Phys.:Condens. Matter 29 465901 (2017);
          URL http://www.quantum-espresso.org", 
     in publications or presentations arising from this work. More details at
     http://www.quantum-espresso.org/quote

     Parallel version (MPI & OpenMP), running on       2 processor cores
     Number of MPI processes:                 2
     Threads/MPI process:                     1

     MPI processes distributed on     1 nodes
     R & G space division:  proc/nbgrp/npool/nimage =       2
     Reading input from pw-input.in

     Current dimensions of program PWSCF are:
     Max number of different atomic species (ntypx) = 10
     Max number of k-points (npk) =  40000
     Max angular momentum in pseudopotentials (lmaxx) =  3

     Subspace diagonalization in iterative solution of the eigenvalue problem:
     a serial algorithm will be used

 
     Parallelization info
     --------------------
     sticks:   dense  smooth     PW     G-vecs:    dense   smooth      PW
     Min         168     168     60                 2007     2007     410
     Max         169     169     61                 2008     2008     411
     Sum         337     337    121                 4015     4015     821
 

     Title: 
     Pd-kp-conv                                                                 


     bravais-lattice index     =            2
     lattice parameter (alat)  =       8.3000  a.u.
     unit-cell volume          =     142.9468 (a.u.)^3
     number of atoms/cell      =            1
     number of atomic types    =            1
     number of electrons       =        16.00
     number of Kohn-Sham states=           12
     kinetic-energy cutoff     =      35.0000  Ry
     charge density cutoff     =     140.0000  Ry
     convergence threshold     =      1.0E-07
     mixing beta               =       0.7000
     number of iterations used =            8  plain     mixing
     Exchange-correlation      =  SLA  PW   PBX  PBC ( 1  4  3  4 0 0)

     celldm(1)=   8.300000  celldm(2)=   0.000000  celldm(3)=   0.000000
     celldm(4)=   0.000000  celldm(5)=   0.000000  celldm(6)=   0.000000

     crystal axes: (cart. coord. in units of alat)
               a(1) = (  -0.500000   0.000000   0.500000 )  
               a(2) = (   0.000000   0.500000   0.500000 )  
               a(3) = (  -0.500000   0.500000   0.000000 )  

     reciprocal axes: (cart. coord. in units 2 pi/alat)
               b(1) = ( -1.000000 -1.000000  1.000000 )  
               b(2) = (  1.000000  1.000000  1.000000 )  
               b(3) = ( -1.000000  1.000000 -1.000000 )  


     PseudoPot. # 1 for Pd read from file:
     ./pd_pbe_v1.4.uspp.F.UPF
     MD5 check sum: 2d733d2bc2cbfd217af676df1668a4bc
     Pseudo is Ultrasoft + core correction, Zval = 16.0
     Generated by new atomic code, or converted to UPF format
     Using radial grid of  887 points,  6 beta functions with: 
                l(1) =   0
                l(2) =   0
                l(3) =   1
                l(4) =   1
                l(5) =   2
                l(6) =   2
     Q(r) pseudized with  8 coefficients,  rinner =    1.130   1.130   1.130
                                                       1.130   1.130

     atomic species   valence    mass     pseudopotential
        Pd            16.00   106.40000     Pd( 1.00)

     48 Sym. Ops., with inversion, found



   Cartesian axes

     site n.     atom                  positions (alat units)
         1           Pd  tau(   1) = (   0.0000000   0.0000000   0.0000000  )

     number of k points=   120  Marzari-Vanderbilt smearing, width (Ry)=  0.0250

     Number of k-points >= 100: set verbosity='high' to print them.

     Dense  grid:     4015 G-vectors     FFT dimensions: (  24,  24,  24)

     Estimated max dynamical RAM per process >      13.90 MB

     Estimated total dynamical RAM >      27.80 MB

     Initial potential from superposition of free atoms
     Check: negative starting charge=   -0.082880

     starting charge   15.49999, renormalised to   16.00000

     negative rho (up, down):  8.555E-02 0.000E+00
     Starting wfcs are   12 randomized atomic wfcs

     total cpu time spent up to now is        0.8 secs

     Self-consistent Calculation

     iteration #  1     ecut=    35.00 Ry     beta= 0.70
     Davidson diagonalization with overlap
     ethr =  1.00E-02,  avg # of iterations =  3.4

     negative rho (up, down):  8.267E-02 0.000E+00

     total cpu time spent up to now is        2.2 secs

     total energy              =    -197.82387147 Ry
     Harris-Foulkes estimate   =    -199.06809019 Ry
     estimated scf accuracy    <       1.68214897 Ry

     iteration #  2     ecut=    35.00 Ry     beta= 0.70
     Davidson diagonalization with overlap
     ethr =  1.00E-02,  avg # of iterations =  2.0

     negative rho (up, down):  8.496E-02 0.000E+00

     total cpu time spent up to now is        3.4 secs

     total energy              =    -198.22600773 Ry
     Harris-Foulkes estimate   =    -199.39544564 Ry
     estimated scf accuracy    <       2.53249034 Ry

     iteration #  3     ecut=    35.00 Ry     beta= 0.70
     Davidson diagonalization with overlap
     ethr =  1.00E-02,  avg # of iterations =  2.0

     negative rho (up, down):  8.500E-02 0.000E+00

     total cpu time spent up to now is        4.6 secs

     total energy              =    -198.65844487 Ry
     Harris-Foulkes estimate   =    -198.65855809 Ry
     estimated scf accuracy    <       0.00044994 Ry

     iteration #  4     ecut=    35.00 Ry     beta= 0.70
     Davidson diagonalization with overlap
     ethr =  2.81E-06,  avg # of iterations =  3.1

     negative rho (up, down):  8.508E-02 0.000E+00

     total cpu time spent up to now is        6.0 secs

     total energy              =    -198.65865504 Ry
     Harris-Foulkes estimate   =    -198.65865880 Ry
     estimated scf accuracy    <       0.00002015 Ry

     iteration #  5     ecut=    35.00 Ry     beta= 0.70
     Davidson diagonalization with overlap
     ethr =  1.26E-07,  avg # of iterations =  1.1

     negative rho (up, down):  8.508E-02 0.000E+00

     total cpu time spent up to now is        7.0 secs

     total energy              =    -198.65865616 Ry
     Harris-Foulkes estimate   =    -198.65865622 Ry
     estimated scf accuracy    <       0.00000016 Ry

     iteration #  6     ecut=    35.00 Ry     beta= 0.70
     Davidson diagonalization with overlap
     ethr =  1.01E-09,  avg # of iterations =  2.1

     negative rho (up, down):  8.508E-02 0.000E+00

     total cpu time spent up to now is        8.3 secs

     End of self-consistent calculation

     Number of k-points >= 100: set verbosity='high' to print the bands.

     the Fermi energy is    11.1037 ev

!    total energy              =    -198.65865621 Ry
     Harris-Foulkes estimate   =    -198.65865622 Ry
     estimated scf accuracy    <       0.00000002 Ry

     The total energy is the sum of the following terms:

     one-electron contribution =     -71.77375293 Ry
     hartree contribution      =      45.72100609 Ry
     xc contribution           =     -31.19479583 Ry
     ewald contribution        =    -141.41261342 Ry
     smearing contrib. (-TS)   =       0.00149989 Ry

     convergence has been achieved in   6 iterations

     Writing output data file Pd-kp-conv.save/
 
     init_run     :      0.66s CPU      0.73s WALL (       1 calls)
     electrons    :      6.93s CPU      7.53s WALL (       1 calls)

     Called by init_run:
     wfcinit      :      0.35s CPU      0.39s WALL (       1 calls)
     potinit      :      0.01s CPU      0.02s WALL (       1 calls)
     hinit0       :      0.29s CPU      0.30s WALL (       1 calls)

     Called by electrons:
     c_bands      :      5.83s CPU      6.34s WALL (       6 calls)
     sum_band     :      1.04s CPU      1.10s WALL (       6 calls)
     v_of_rho     :      0.03s CPU      0.03s WALL (       7 calls)
     newd         :      0.04s CPU      0.05s WALL (       7 calls)
     mix_rho      :      0.00s CPU      0.00s WALL (       6 calls)

     Called by c_bands:
     init_us_2    :      0.17s CPU      0.18s WALL (    1560 calls)
     cegterg      :      5.39s CPU      5.73s WALL (     720 calls)

     Called by sum_band:
     sum_band:bec :      0.01s CPU      0.01s WALL (     720 calls)
     addusdens    :      0.05s CPU      0.05s WALL (       6 calls)

     Called by *egterg:
     h_psi        :      4.34s CPU      4.63s WALL (    2483 calls)
     s_psi        :      0.10s CPU      0.11s WALL (    2483 calls)
     g_psi        :      0.05s CPU      0.05s WALL (    1643 calls)
     cdiaghg      :      0.65s CPU      0.69s WALL (    2363 calls)

     Called by h_psi:
     h_psi:pot    :      4.32s CPU      4.61s WALL (    2483 calls)
     h_psi:calbec :      0.13s CPU      0.14s WALL (    2483 calls)
     vloc_psi     :      4.08s CPU      4.35s WALL (    2483 calls)
     add_vuspsi   :      0.10s CPU      0.11s WALL (    2483 calls)

     General routines
     calbec       :      0.16s CPU      0.17s WALL (    3203 calls)
     fft          :      0.01s CPU      0.01s WALL (      78 calls)
     ffts         :      0.00s CPU      0.00s WALL (       6 calls)
     fftw         :      4.33s CPU      4.61s WALL (   54800 calls)
 
     Parallel routines
     fft_scatt_xy :      0.72s CPU      0.76s WALL (   54884 calls)
     fft_scatt_yz :      1.26s CPU      1.36s WALL (   54884 calls)
 
     PWSCF        :     7.71s CPU         9.00s WALL

 
   This run was terminated on:  22: 5:55   2Dec2021            

=------------------------------------------------------------------------------=
   JOB DONE.
=------------------------------------------------------------------------------=
