
     Program PWSCF v.6.3 starts on  2Dec2021 at 23:12:24 

     This program is part of the open-source Quantum ESPRESSO suite
     for quantum simulation of materials; please cite
         "P. Giannozzi et al., J. Phys.:Condens. Matter 21 395502 (2009);
         "P. Giannozzi et al., J. Phys.:Condens. Matter 29 465901 (2017);
          URL http://www.quantum-espresso.org", 
     in publications or presentations arising from this work. More details at
     http://www.quantum-espresso.org/quote

     Parallel version (MPI & OpenMP), running on       2 processor cores
     Number of MPI processes:                 2
     Threads/MPI process:                     1

     MPI processes distributed on     1 nodes
     R & G space division:  proc/nbgrp/npool/nimage =       2
     Reading input from pw-input.in

     Current dimensions of program PWSCF are:
     Max number of different atomic species (ntypx) = 10
     Max number of k-points (npk) =  40000
     Max angular momentum in pseudopotentials (lmaxx) =  3

     Subspace diagonalization in iterative solution of the eigenvalue problem:
     a serial algorithm will be used

 
     Parallelization info
     --------------------
     sticks:   dense  smooth     PW     G-vecs:    dense   smooth      PW
     Min         105     105     42                 1042     1042     229
     Max         106     106     43                 1043     1043     230
     Sum         211     211     85                 2085     2085     459
 

     Title: 
     Pd-kp-conv                                                                 


     bravais-lattice index     =            2
     lattice parameter (alat)  =       6.7000  a.u.
     unit-cell volume          =      75.1908 (a.u.)^3
     number of atoms/cell      =            1
     number of atomic types    =            1
     number of electrons       =        16.00
     number of Kohn-Sham states=           12
     kinetic-energy cutoff     =      35.0000  Ry
     charge density cutoff     =     140.0000  Ry
     convergence threshold     =      1.0E-07
     mixing beta               =       0.7000
     number of iterations used =            8  plain     mixing
     Exchange-correlation      =  SLA  PW   PBX  PBC ( 1  4  3  4 0 0)

     celldm(1)=   6.700000  celldm(2)=   0.000000  celldm(3)=   0.000000
     celldm(4)=   0.000000  celldm(5)=   0.000000  celldm(6)=   0.000000

     crystal axes: (cart. coord. in units of alat)
               a(1) = (  -0.500000   0.000000   0.500000 )  
               a(2) = (   0.000000   0.500000   0.500000 )  
               a(3) = (  -0.500000   0.500000   0.000000 )  

     reciprocal axes: (cart. coord. in units 2 pi/alat)
               b(1) = ( -1.000000 -1.000000  1.000000 )  
               b(2) = (  1.000000  1.000000  1.000000 )  
               b(3) = ( -1.000000  1.000000 -1.000000 )  


     PseudoPot. # 1 for Pd read from file:
     ./pd_pbe_v1.4.uspp.F.UPF
     MD5 check sum: 2d733d2bc2cbfd217af676df1668a4bc
     Pseudo is Ultrasoft + core correction, Zval = 16.0
     Generated by new atomic code, or converted to UPF format
     Using radial grid of  887 points,  6 beta functions with: 
                l(1) =   0
                l(2) =   0
                l(3) =   1
                l(4) =   1
                l(5) =   2
                l(6) =   2
     Q(r) pseudized with  8 coefficients,  rinner =    1.130   1.130   1.130
                                                       1.130   1.130

     atomic species   valence    mass     pseudopotential
        Pd            16.00   106.40000     Pd( 1.00)

     48 Sym. Ops., with inversion, found



   Cartesian axes

     site n.     atom                  positions (alat units)
         1           Pd  tau(   1) = (   0.0000000   0.0000000   0.0000000  )

     number of k points=    35  Marzari-Vanderbilt smearing, width (Ry)=  0.0400
                       cart. coord. in units 2pi/alat
        k(    1) = (   0.0000000   0.0000000   0.0000000), wk =   0.0027435
        k(    2) = (  -0.1111111   0.1111111  -0.1111111), wk =   0.0219479
        k(    3) = (  -0.2222222   0.2222222  -0.2222222), wk =   0.0219479
        k(    4) = (  -0.3333333   0.3333333  -0.3333333), wk =   0.0219479
        k(    5) = (  -0.4444444   0.4444444  -0.4444444), wk =   0.0219479
        k(    6) = (   0.0000000   0.2222222   0.0000000), wk =   0.0164609
        k(    7) = (  -0.1111111   0.3333333  -0.1111111), wk =   0.0658436
        k(    8) = (  -0.2222222   0.4444444  -0.2222222), wk =   0.0658436
        k(    9) = (  -0.3333333   0.5555556  -0.3333333), wk =   0.0658436
        k(   10) = (   0.5555556  -0.3333333   0.5555556), wk =   0.0658436
        k(   11) = (   0.4444444  -0.2222222   0.4444444), wk =   0.0658436
        k(   12) = (   0.3333333  -0.1111111   0.3333333), wk =   0.0658436
        k(   13) = (   0.2222222  -0.0000000   0.2222222), wk =   0.0329218
        k(   14) = (   0.0000000   0.4444444   0.0000000), wk =   0.0164609
        k(   15) = (  -0.1111111   0.5555556  -0.1111111), wk =   0.0658436
        k(   16) = (  -0.2222222   0.6666667  -0.2222222), wk =   0.0658436
        k(   17) = (   0.6666667  -0.2222222   0.6666667), wk =   0.0658436
        k(   18) = (   0.5555556  -0.1111111   0.5555556), wk =   0.0658436
        k(   19) = (   0.4444444   0.0000000   0.4444444), wk =   0.0329218
        k(   20) = (   0.0000000   0.6666667   0.0000000), wk =   0.0164609
        k(   21) = (  -0.1111111   0.7777778  -0.1111111), wk =   0.0658436
        k(   22) = (   0.7777778  -0.1111111   0.7777778), wk =   0.0658436
        k(   23) = (   0.6666667  -0.0000000   0.6666667), wk =   0.0329218
        k(   24) = (   0.0000000   0.8888889   0.0000000), wk =   0.0164609
        k(   25) = (   0.8888889   0.0000000   0.8888889), wk =   0.0329218
        k(   26) = (  -0.2222222   0.4444444   0.0000000), wk =   0.0658436
        k(   27) = (  -0.3333333   0.5555556  -0.1111111), wk =   0.1316872
        k(   28) = (   0.5555556  -0.3333333   0.7777778), wk =   0.1316872
        k(   29) = (  -0.2222222   0.6666667   0.0000000), wk =   0.0658436
        k(   30) = (   0.6666667  -0.2222222   0.8888889), wk =   0.1316872
        k(   31) = (   0.5555556  -0.1111111   0.7777778), wk =   0.1316872
        k(   32) = (   0.4444444   0.0000000   0.6666667), wk =   0.0658436
        k(   33) = (   0.7777778  -0.1111111   1.0000000), wk =   0.0658436
        k(   34) = (   0.6666667  -0.0000000   0.8888889), wk =   0.0658436
        k(   35) = (   0.5555556  -0.1111111   1.0000000), wk =   0.0658436

     Dense  grid:     2085 G-vectors     FFT dimensions: (  18,  18,  18)

     Estimated max dynamical RAM per process >       5.52 MB

     Estimated total dynamical RAM >      11.04 MB

     Initial potential from superposition of free atoms
     Check: negative starting charge=   -0.084526

     starting charge   15.49999, renormalised to   16.00000

     negative rho (up, down):  8.725E-02 0.000E+00
     Starting wfcs are   12 randomized atomic wfcs

     total cpu time spent up to now is        0.5 secs

     Self-consistent Calculation

     iteration #  1     ecut=    35.00 Ry     beta= 0.70
     Davidson diagonalization with overlap
     ethr =  1.00E-02,  avg # of iterations =  3.5

     negative rho (up, down):  8.904E-02 0.000E+00

     total cpu time spent up to now is        0.8 secs

     total energy              =    -198.36796077 Ry
     Harris-Foulkes estimate   =    -198.83211882 Ry
     estimated scf accuracy    <       0.65789180 Ry

     iteration #  2     ecut=    35.00 Ry     beta= 0.70
     Davidson diagonalization with overlap
     ethr =  4.11E-03,  avg # of iterations =  2.0

     negative rho (up, down):  8.986E-02 0.000E+00

     total cpu time spent up to now is        1.1 secs

     total energy              =    -198.54987101 Ry
     Harris-Foulkes estimate   =    -198.70561988 Ry
     estimated scf accuracy    <       0.27087555 Ry

     iteration #  3     ecut=    35.00 Ry     beta= 0.70
     Davidson diagonalization with overlap
     ethr =  1.69E-03,  avg # of iterations =  2.0

     negative rho (up, down):  9.067E-02 0.000E+00

     total cpu time spent up to now is        1.3 secs

     total energy              =    -198.61199534 Ry
     Harris-Foulkes estimate   =    -198.61266645 Ry
     estimated scf accuracy    <       0.00146698 Ry

     iteration #  4     ecut=    35.00 Ry     beta= 0.70
     Davidson diagonalization with overlap
     ethr =  9.17E-06,  avg # of iterations =  2.2

     negative rho (up, down):  9.079E-02 0.000E+00

     total cpu time spent up to now is        1.9 secs

     total energy              =    -198.61232396 Ry
     Harris-Foulkes estimate   =    -198.61236361 Ry
     estimated scf accuracy    <       0.00006585 Ry

     iteration #  5     ecut=    35.00 Ry     beta= 0.70
     Davidson diagonalization with overlap
     ethr =  4.12E-07,  avg # of iterations =  2.0

     negative rho (up, down):  9.082E-02 0.000E+00

     total cpu time spent up to now is        2.1 secs

     total energy              =    -198.61234128 Ry
     Harris-Foulkes estimate   =    -198.61234303 Ry
     estimated scf accuracy    <       0.00000306 Ry

     iteration #  6     ecut=    35.00 Ry     beta= 0.70
     Davidson diagonalization with overlap
     ethr =  1.92E-08,  avg # of iterations =  2.0

     negative rho (up, down):  9.082E-02 0.000E+00

     total cpu time spent up to now is        2.4 secs

     total energy              =    -198.61234206 Ry
     Harris-Foulkes estimate   =    -198.61234212 Ry
     estimated scf accuracy    <       0.00000012 Ry

     iteration #  7     ecut=    35.00 Ry     beta= 0.70
     Davidson diagonalization with overlap
     ethr =  7.45E-10,  avg # of iterations =  2.0

     negative rho (up, down):  9.082E-02 0.000E+00

     total cpu time spent up to now is        2.6 secs

     End of self-consistent calculation

          k = 0.0000 0.0000 0.0000 (   259 PWs)   bands (ev):

   -23.3700 -23.3700 -23.3700  17.5752  22.6319  22.6319  22.6319  25.1696
    25.1696  45.2220  51.7830  51.7830

          k =-0.1111 0.1111-0.1111 (   271 PWs)   bands (ev):

   -23.5040 -23.3881 -23.3881  18.1412  22.4078  22.8470  22.8470  25.0588
    25.0588  46.0062  49.0051  52.5887

          k =-0.2222 0.2222-0.2222 (   274 PWs)   bands (ev):

   -23.8353 -23.4323 -23.4323  19.2966  22.4259  23.0913  23.0913  25.1980
    25.1980  45.1450  47.1173  54.5948

          k =-0.3333 0.3333-0.3333 (   256 PWs)   bands (ev):

   -24.2004 -23.4818 -23.4818  19.4796  22.8463  22.8463  24.3598  26.0966
    26.0966  41.2739  45.9838  54.6125

          k =-0.4444 0.4444-0.4444 (   269 PWs)   bands (ev):

   -24.4336 -23.5148 -23.5148  19.2126  22.5660  22.5660  26.9471  26.9471
    27.0249  37.7853  44.6664  52.3979

          k = 0.0000 0.2222 0.0000 (   267 PWs)   bands (ev):

   -23.5003 -23.4175 -23.4175  18.3324  22.1276  23.0466  23.0466  24.6362
    25.3671  46.3255  49.6808  51.7283

          k =-0.1111 0.3333-0.1111 (   270 PWs)   bands (ev):

   -23.7457 -23.4710 -23.4534  19.3822  21.7194  23.2823  23.4487  24.6087
    25.6251  46.7209  47.6065  51.8078

          k =-0.2222 0.4444-0.2222 (   271 PWs)   bands (ev):

   -24.0850 -23.5232 -23.5112  19.9182  22.4566  22.7587  23.3925  26.2091
    26.3580  42.8857  47.0382  51.5393

          k =-0.3333 0.5556-0.3333 (   268 PWs)   bands (ev):

   -24.3477 -23.5747 -23.5496  19.6596  22.2569  23.0682  24.1879  27.0590
    28.7170  38.7943  45.5586  50.8359

          k = 0.5556-0.3333 0.5556 (   258 PWs)   bands (ev):

   -24.4190 -23.6131 -23.5382  19.5859  22.1689  22.9042  24.9689  26.8990
    30.0987  37.1292  45.1058  50.1273

          k = 0.4444-0.2222 0.4444 (   262 PWs)   bands (ev):

   -24.2715 -23.6071 -23.4943  19.8314  22.4565  23.0540  23.9728  25.8610
    28.4652  40.1765  45.8123  50.3308

          k = 0.3333-0.1111 0.3333 (   266 PWs)   bands (ev):

   -23.9721 -23.5545 -23.4384  20.0027  22.1236  23.0390  23.4094  24.6709
    26.6627  44.1876  47.1216  52.0532

          k = 0.2222-0.0000 0.2222 (   275 PWs)   bands (ev):

   -23.6672 -23.4685 -23.3963  18.9844  22.0115  23.1623  23.1791  24.5517
    25.5054  46.9693  47.2795  51.6740

          k = 0.0000 0.4444 0.0000 (   274 PWs)   bands (ev):

   -23.8171 -23.5363 -23.5363  19.8655  21.0001  24.0335  24.2261  24.2261
    25.8934  47.9973  48.9510  49.7051

          k =-0.1111 0.5556-0.1111 (   265 PWs)   bands (ev):

   -24.0434 -23.6104 -23.5974  20.1836  20.7286  23.5436  24.5814  26.4005
    26.4940  44.9415  47.7887  48.2539

          k =-0.2222 0.6667-0.2222 (   262 PWs)   bands (ev):

   -24.2442 -23.7161 -23.6258  20.0318  21.2354  23.2491  24.3082  27.1721
    29.7367  40.3398  45.9497  47.7534

          k = 0.6667-0.2222 0.6667 (   258 PWs)   bands (ev):

   -24.3133 -23.8186 -23.6086  20.1953  21.5069  23.3632  23.9909  26.9529
    32.9788  36.8958  44.5370  48.9374

          k = 0.5556-0.1111 0.5556 (   264 PWs)   bands (ev):

   -24.2411 -23.8496 -23.5540  20.7106  21.7464  22.9396  23.8894  25.8452
    31.5551  39.5038  43.8136  48.8331

          k = 0.4444 0.0000 0.4444 (   265 PWs)   bands (ev):

   -24.1082 -23.7447 -23.4867  21.1942  21.5872  22.5115  23.9923  24.6130
    28.9724  43.2374  44.7302  49.7554

          k = 0.0000 0.6667 0.0000 (   266 PWs)   bands (ev):

   -24.1575 -23.6702 -23.6702  19.6711  19.9050  25.9069  25.9069  26.3017
    26.5341  45.7395  45.7395  46.0195

          k =-0.1111 0.7778-0.1111 (   265 PWs)   bands (ev):

   -24.2755 -23.7637 -23.7077  19.4479  19.8129  25.2913  25.9265  27.2250
    29.8271  42.1904  44.0733  44.6639

          k = 0.7778-0.1111 0.7778 (   263 PWs)   bands (ev):

   -24.2658 -23.9273 -23.6927  19.6435  20.4799  24.2293  25.4896  27.1279
    34.0658  38.0938  42.0944  45.6761

          k = 0.6667-0.0000 0.6667 (   268 PWs)   bands (ev):

   -24.1114 -24.1039 -23.6324  20.2792  21.5053  22.9487  24.8653  26.3108
    34.5903  38.3831  40.9325  48.4742

          k = 0.0000 0.8889 0.0000 (   254 PWs)   bands (ev):

   -24.3692 -23.7564 -23.7564  18.8890  19.2696  26.9819  27.3603  27.3603
    29.8748  42.1337  42.7929  42.7929

          k = 0.8889 0.0000 0.8889 (   256 PWs)   bands (ev):

   -24.3611 -23.8261 -23.7506  19.0197  19.4825  26.2454  26.6597  27.4417
    32.3274  40.6533  41.2971  43.1965

          k =-0.2222 0.4444 0.0000 (   266 PWs)   bands (ev):

   -23.9381 -23.5958 -23.4841  20.3864  21.2362  22.8946  24.2236  24.7035
    26.7272  45.4731  47.2489  50.9156

          k =-0.3333 0.5556-0.1111 (   266 PWs)   bands (ev):

   -24.1687 -23.7022 -23.5380  20.5079  21.9201  22.3199  24.1394  25.8173
    28.9182  41.9502  45.9188  48.5442

          k = 0.5556-0.3333 0.7778 (   258 PWs)   bands (ev):

   -24.3233 -23.7521 -23.5849  20.2821  21.6099  23.3224  23.8156  26.7578
    31.6206  37.8275  45.4567  47.5358

          k =-0.2222 0.6667 0.0000 (   261 PWs)   bands (ev):

   -24.1781 -23.7390 -23.6387  20.2536  20.3423  23.4925  25.8909  25.9503
    29.0848  43.6605  44.5036  46.3185

          k = 0.6667-0.2222 0.8889 (   255 PWs)   bands (ev):

   -24.2419 -23.8691 -23.6795  20.2228  20.8414  23.0529  25.2261  26.9244
    32.5267  39.5096  44.1917  44.3468

          k = 0.5556-0.1111 0.7778 (   261 PWs)   bands (ev):

   -24.2074 -23.9758 -23.6640  20.6024  21.3135  22.6009  24.6871  26.7931
    34.8975  37.3206  42.5972  45.5683

          k = 0.4444 0.0000 0.6667 (   264 PWs)   bands (ev):

   -24.1841 -23.9113 -23.6016  21.2993  21.5282  21.7410  24.7870  25.9149
    31.8822  41.6641  41.6930  47.0846

          k = 0.7778-0.1111 1.0000 (   254 PWs)   bands (ev):

   -24.3094 -23.8312 -23.7566  19.4237  19.8033  24.9279  26.3512  27.3581
    32.5208  41.5888  41.8750  42.2916

          k = 0.6667-0.0000 0.8889 (   262 PWs)   bands (ev):

   -24.2274 -23.9722 -23.7404  19.8505  20.5696  23.6982  25.4916  27.3443
    35.7139  38.2876  40.9055  43.3999

          k = 0.5556-0.1111 1.0000 (   261 PWs)   bands (ev):

   -24.1559 -24.0188 -23.7516  20.3887  21.3427  22.3162  25.0476  27.3494
    35.8224  39.2693  40.7887  42.4471

     the Fermi energy is    27.1253 ev

!    total energy              =    -198.61234208 Ry
     Harris-Foulkes estimate   =    -198.61234208 Ry
     estimated scf accuracy    <          1.9E-11 Ry

     The total energy is the sum of the following terms:

     one-electron contribution =     -19.93468928 Ry
     hartree contribution      =      28.17533471 Ry
     xc contribution           =     -31.66963619 Ry
     ewald contribution        =    -175.18278975 Ry
     smearing contrib. (-TS)   =      -0.00056158 Ry

     convergence has been achieved in   7 iterations

     Writing output data file Pd-kp-conv.save/
 
     init_run     :      0.39s CPU      0.42s WALL (       1 calls)
     electrons    :      1.54s CPU      2.13s WALL (       1 calls)

     Called by init_run:
     wfcinit      :      0.08s CPU      0.09s WALL (       1 calls)
     potinit      :      0.00s CPU      0.01s WALL (       1 calls)
     hinit0       :      0.30s CPU      0.30s WALL (       1 calls)

     Called by electrons:
     c_bands      :      1.26s CPU      1.50s WALL (       7 calls)
     sum_band     :      0.23s CPU      0.25s WALL (       7 calls)
     v_of_rho     :      0.02s CPU      0.02s WALL (       8 calls)
     newd         :      0.03s CPU      0.04s WALL (       8 calls)
     mix_rho      :      0.00s CPU      0.00s WALL (       7 calls)

     Called by c_bands:
     init_us_2    :      0.03s CPU      0.04s WALL (     525 calls)
     cegterg      :      1.16s CPU      1.30s WALL (     245 calls)

     Called by sum_band:
     sum_band:bec :      0.00s CPU      0.00s WALL (     245 calls)
     addusdens    :      0.03s CPU      0.03s WALL (       7 calls)

     Called by *egterg:
     h_psi        :      0.89s CPU      0.98s WALL (     829 calls)
     s_psi        :      0.02s CPU      0.02s WALL (     829 calls)
     g_psi        :      0.01s CPU      0.01s WALL (     549 calls)
     cdiaghg      :      0.21s CPU      0.22s WALL (     794 calls)

     Called by h_psi:
     h_psi:pot    :      0.89s CPU      0.98s WALL (     829 calls)
     h_psi:calbec :      0.02s CPU      0.03s WALL (     829 calls)
     vloc_psi     :      0.84s CPU      0.93s WALL (     829 calls)
     add_vuspsi   :      0.02s CPU      0.02s WALL (     829 calls)

     General routines
     calbec       :      0.03s CPU      0.03s WALL (    1074 calls)
     fft          :      0.01s CPU      0.01s WALL (      89 calls)
     ffts         :      0.00s CPU      0.00s WALL (       7 calls)
     fftw         :      0.88s CPU      0.97s WALL (   18272 calls)
 
     Parallel routines
     fft_scatt_xy :      0.15s CPU      0.17s WALL (   18368 calls)
     fft_scatt_yz :      0.25s CPU      0.28s WALL (   18368 calls)
 
     PWSCF        :     2.03s CPU         2.79s WALL

 
   This run was terminated on:  23:12:27   2Dec2021            

=------------------------------------------------------------------------------=
   JOB DONE.
=------------------------------------------------------------------------------=
