
     Program PWSCF v.6.3 starts on  2Dec2021 at 23:12:41 

     This program is part of the open-source Quantum ESPRESSO suite
     for quantum simulation of materials; please cite
         "P. Giannozzi et al., J. Phys.:Condens. Matter 21 395502 (2009);
         "P. Giannozzi et al., J. Phys.:Condens. Matter 29 465901 (2017);
          URL http://www.quantum-espresso.org", 
     in publications or presentations arising from this work. More details at
     http://www.quantum-espresso.org/quote

     Parallel version (MPI & OpenMP), running on       2 processor cores
     Number of MPI processes:                 2
     Threads/MPI process:                     1

     MPI processes distributed on     1 nodes
     R & G space division:  proc/nbgrp/npool/nimage =       2
     Reading input from pw-input.in

     Current dimensions of program PWSCF are:
     Max number of different atomic species (ntypx) = 10
     Max number of k-points (npk) =  40000
     Max angular momentum in pseudopotentials (lmaxx) =  3

     Subspace diagonalization in iterative solution of the eigenvalue problem:
     a serial algorithm will be used

 
     Parallelization info
     --------------------
     sticks:   dense  smooth     PW     G-vecs:    dense   smooth      PW
     Min         126     126     42                 1318     1318     267
     Max         127     127     43                 1319     1319     270
     Sum         253     253     85                 2637     2637     537
 

     Title: 
     Pd-kp-conv                                                                 


     bravais-lattice index     =            2
     lattice parameter (alat)  =       7.2000  a.u.
     unit-cell volume          =      93.3120 (a.u.)^3
     number of atoms/cell      =            1
     number of atomic types    =            1
     number of electrons       =        16.00
     number of Kohn-Sham states=           12
     kinetic-energy cutoff     =      35.0000  Ry
     charge density cutoff     =     140.0000  Ry
     convergence threshold     =      1.0E-07
     mixing beta               =       0.7000
     number of iterations used =            8  plain     mixing
     Exchange-correlation      =  SLA  PW   PBX  PBC ( 1  4  3  4 0 0)

     celldm(1)=   7.200000  celldm(2)=   0.000000  celldm(3)=   0.000000
     celldm(4)=   0.000000  celldm(5)=   0.000000  celldm(6)=   0.000000

     crystal axes: (cart. coord. in units of alat)
               a(1) = (  -0.500000   0.000000   0.500000 )  
               a(2) = (   0.000000   0.500000   0.500000 )  
               a(3) = (  -0.500000   0.500000   0.000000 )  

     reciprocal axes: (cart. coord. in units 2 pi/alat)
               b(1) = ( -1.000000 -1.000000  1.000000 )  
               b(2) = (  1.000000  1.000000  1.000000 )  
               b(3) = ( -1.000000  1.000000 -1.000000 )  


     PseudoPot. # 1 for Pd read from file:
     ./pd_pbe_v1.4.uspp.F.UPF
     MD5 check sum: 2d733d2bc2cbfd217af676df1668a4bc
     Pseudo is Ultrasoft + core correction, Zval = 16.0
     Generated by new atomic code, or converted to UPF format
     Using radial grid of  887 points,  6 beta functions with: 
                l(1) =   0
                l(2) =   0
                l(3) =   1
                l(4) =   1
                l(5) =   2
                l(6) =   2
     Q(r) pseudized with  8 coefficients,  rinner =    1.130   1.130   1.130
                                                       1.130   1.130

     atomic species   valence    mass     pseudopotential
        Pd            16.00   106.40000     Pd( 1.00)

     48 Sym. Ops., with inversion, found



   Cartesian axes

     site n.     atom                  positions (alat units)
         1           Pd  tau(   1) = (   0.0000000   0.0000000   0.0000000  )

     number of k points=    35  Marzari-Vanderbilt smearing, width (Ry)=  0.0400
                       cart. coord. in units 2pi/alat
        k(    1) = (   0.0000000   0.0000000   0.0000000), wk =   0.0027435
        k(    2) = (  -0.1111111   0.1111111  -0.1111111), wk =   0.0219479
        k(    3) = (  -0.2222222   0.2222222  -0.2222222), wk =   0.0219479
        k(    4) = (  -0.3333333   0.3333333  -0.3333333), wk =   0.0219479
        k(    5) = (  -0.4444444   0.4444444  -0.4444444), wk =   0.0219479
        k(    6) = (   0.0000000   0.2222222   0.0000000), wk =   0.0164609
        k(    7) = (  -0.1111111   0.3333333  -0.1111111), wk =   0.0658436
        k(    8) = (  -0.2222222   0.4444444  -0.2222222), wk =   0.0658436
        k(    9) = (  -0.3333333   0.5555556  -0.3333333), wk =   0.0658436
        k(   10) = (   0.5555556  -0.3333333   0.5555556), wk =   0.0658436
        k(   11) = (   0.4444444  -0.2222222   0.4444444), wk =   0.0658436
        k(   12) = (   0.3333333  -0.1111111   0.3333333), wk =   0.0658436
        k(   13) = (   0.2222222  -0.0000000   0.2222222), wk =   0.0329218
        k(   14) = (   0.0000000   0.4444444   0.0000000), wk =   0.0164609
        k(   15) = (  -0.1111111   0.5555556  -0.1111111), wk =   0.0658436
        k(   16) = (  -0.2222222   0.6666667  -0.2222222), wk =   0.0658436
        k(   17) = (   0.6666667  -0.2222222   0.6666667), wk =   0.0658436
        k(   18) = (   0.5555556  -0.1111111   0.5555556), wk =   0.0658436
        k(   19) = (   0.4444444   0.0000000   0.4444444), wk =   0.0329218
        k(   20) = (   0.0000000   0.6666667   0.0000000), wk =   0.0164609
        k(   21) = (  -0.1111111   0.7777778  -0.1111111), wk =   0.0658436
        k(   22) = (   0.7777778  -0.1111111   0.7777778), wk =   0.0658436
        k(   23) = (   0.6666667  -0.0000000   0.6666667), wk =   0.0329218
        k(   24) = (   0.0000000   0.8888889   0.0000000), wk =   0.0164609
        k(   25) = (   0.8888889   0.0000000   0.8888889), wk =   0.0329218
        k(   26) = (  -0.2222222   0.4444444   0.0000000), wk =   0.0658436
        k(   27) = (  -0.3333333   0.5555556  -0.1111111), wk =   0.1316872
        k(   28) = (   0.5555556  -0.3333333   0.7777778), wk =   0.1316872
        k(   29) = (  -0.2222222   0.6666667   0.0000000), wk =   0.0658436
        k(   30) = (   0.6666667  -0.2222222   0.8888889), wk =   0.1316872
        k(   31) = (   0.5555556  -0.1111111   0.7777778), wk =   0.1316872
        k(   32) = (   0.4444444   0.0000000   0.6666667), wk =   0.0658436
        k(   33) = (   0.7777778  -0.1111111   1.0000000), wk =   0.0658436
        k(   34) = (   0.6666667  -0.0000000   0.8888889), wk =   0.0658436
        k(   35) = (   0.5555556  -0.1111111   1.0000000), wk =   0.0658436

     Dense  grid:     2637 G-vectors     FFT dimensions: (  20,  20,  20)

     Estimated max dynamical RAM per process >       6.79 MB

     Estimated total dynamical RAM >      13.59 MB

     Initial potential from superposition of free atoms
     Check: negative starting charge=   -0.084445

     starting charge   15.49999, renormalised to   16.00000

     negative rho (up, down):  8.717E-02 0.000E+00
     Starting wfcs are   12 randomized atomic wfcs

     total cpu time spent up to now is        0.5 secs

     Self-consistent Calculation

     iteration #  1     ecut=    35.00 Ry     beta= 0.70
     Davidson diagonalization with overlap
     ethr =  1.00E-02,  avg # of iterations =  3.6

     negative rho (up, down):  8.684E-02 0.000E+00

     total cpu time spent up to now is        0.9 secs

     total energy              =    -198.28076432 Ry
     Harris-Foulkes estimate   =    -198.99321201 Ry
     estimated scf accuracy    <       0.99035503 Ry

     iteration #  2     ecut=    35.00 Ry     beta= 0.70
     Davidson diagonalization with overlap
     ethr =  6.19E-03,  avg # of iterations =  2.0

     negative rho (up, down):  8.808E-02 0.000E+00

     total cpu time spent up to now is        1.2 secs

     total energy              =    -198.53256423 Ry
     Harris-Foulkes estimate   =    -198.91915908 Ry
     estimated scf accuracy    <       0.73744255 Ry

     iteration #  3     ecut=    35.00 Ry     beta= 0.70
     Davidson diagonalization with overlap
     ethr =  4.61E-03,  avg # of iterations =  2.0

     negative rho (up, down):  8.851E-02 0.000E+00

     total cpu time spent up to now is        1.4 secs

     total energy              =    -198.69355351 Ry
     Harris-Foulkes estimate   =    -198.69472588 Ry
     estimated scf accuracy    <       0.00242479 Ry

     iteration #  4     ecut=    35.00 Ry     beta= 0.70
     Davidson diagonalization with overlap
     ethr =  1.52E-05,  avg # of iterations =  2.1

     negative rho (up, down):  8.867E-02 0.000E+00

     total cpu time spent up to now is        2.1 secs

     total energy              =    -198.69424669 Ry
     Harris-Foulkes estimate   =    -198.69427020 Ry
     estimated scf accuracy    <       0.00005112 Ry

     iteration #  5     ecut=    35.00 Ry     beta= 0.70
     Davidson diagonalization with overlap
     ethr =  3.19E-07,  avg # of iterations =  2.0

     negative rho (up, down):  8.872E-02 0.000E+00

     total cpu time spent up to now is        2.3 secs

     total energy              =    -198.69425712 Ry
     Harris-Foulkes estimate   =    -198.69425693 Ry
     estimated scf accuracy    <       0.00000012 Ry

     iteration #  6     ecut=    35.00 Ry     beta= 0.70
     Davidson diagonalization with overlap
     ethr =  7.59E-10,  avg # of iterations =  2.3

     negative rho (up, down):  8.872E-02 0.000E+00

     total cpu time spent up to now is        2.6 secs

     End of self-consistent calculation

          k = 0.0000 0.0000 0.0000 (   331 PWs)   bands (ev):

   -29.4229 -29.4229 -29.4229  12.7722  17.2716  17.2716  17.2716  19.0612
    19.0612  38.4594  43.6231  43.6231

          k =-0.1111 0.1111-0.1111 (   329 PWs)   bands (ev):

   -29.4846 -29.4315 -29.4315  13.2371  17.1163  17.4286  17.4286  18.9952
    18.9952  38.8779  41.0419  44.1274

          k =-0.2222 0.2222-0.2222 (   320 PWs)   bands (ev):

   -29.6393 -29.4530 -29.4530  14.3042  17.0800  17.6099  17.6099  19.1088
    19.1088  36.7189  39.6703  45.1819

          k =-0.3333 0.3333-0.3333 (   332 PWs)   bands (ev):

   -29.8128 -29.4778 -29.4778  14.7484  17.4413  17.4413  18.4877  19.7339
    19.7339  32.5343  38.7093  44.6070

          k =-0.4444 0.4444-0.4444 (   335 PWs)   bands (ev):

   -29.9243 -29.4939 -29.4939  14.6342  17.2442  17.2442  20.3149  20.3149
    20.8057  28.9705  37.8128  43.1047

          k = 0.0000 0.2222 0.0000 (   327 PWs)   bands (ev):

   -29.4826 -29.4455 -29.4455  13.3929  16.9231  17.5705  17.5705  18.7086
    19.2035  39.1360  41.7594  43.0482

          k =-0.1111 0.3333-0.1111 (   321 PWs)   bands (ev):

   -29.5973 -29.4712 -29.4628  14.3076  16.6245  17.7535  17.8604  18.6914
    19.3942  38.3225  39.9793  42.4540

          k =-0.2222 0.4444-0.2222 (   324 PWs)   bands (ev):

   -29.7579 -29.4968 -29.4907  15.0383  17.0728  17.3862  17.8283  19.8498
    19.9099  34.1566  39.2963  41.8133

          k =-0.3333 0.5556-0.3333 (   332 PWs)   bands (ev):

   -29.8835 -29.5215 -29.5103  14.9700  17.0385  17.6033  18.3858  20.3895
    21.8720  30.0568  38.2286  41.3979

          k = 0.5556-0.3333 0.5556 (   326 PWs)   bands (ev):

   -29.9176 -29.5398 -29.5051  14.9273  16.9731  17.4900  18.9780  20.2839
    23.1026  28.3798  37.8104  40.9550

          k = 0.4444-0.2222 0.4444 (   326 PWs)   bands (ev):

   -29.8469 -29.5365 -29.4839  15.0697  17.1729  17.5988  18.2128  19.5769
    21.5367  31.3886  38.1300  41.1677

          k = 0.3333-0.1111 0.3333 (   324 PWs)   bands (ev):

   -29.7044 -29.5108 -29.4565  14.9690  16.8540  17.5767  17.8475  18.7473
    20.1340  35.6005  38.8347  42.7828

          k = 0.2222-0.0000 0.2222 (   325 PWs)   bands (ev):

   -29.5605 -29.4696 -29.4359  13.9457  16.8384  17.6543  17.6722  18.6552
    19.3113  39.1517  39.2742  42.9822

          k = 0.0000 0.4444 0.0000 (   323 PWs)   bands (ev):

   -29.6310 -29.5023 -29.5023  14.7958  16.1209  18.2647  18.4174  18.4174
    19.5778  39.9451  40.3831  40.3831

          k =-0.1111 0.5556-0.1111 (   323 PWs)   bands (ev):

   -29.7390 -29.5379 -29.5321  15.3088  15.8807  17.8949  18.6726  19.9926
    19.9975  36.1496  39.0134  39.1439

          k =-0.2222 0.6667-0.2222 (   327 PWs)   bands (ev):

   -29.8354 -29.5877 -29.5465  15.3250  16.2667  17.6670  18.4874  20.4639
    22.6261  31.7308  37.3576  38.6153

          k = 0.6667-0.2222 0.6667 (   320 PWs)   bands (ev):

   -29.8681 -29.6357 -29.5387  15.4474  16.4765  17.7683  18.2695  20.3220
    25.4610  28.3941  35.8338  39.6118

          k = 0.5556-0.1111 0.5556 (   324 PWs)   bands (ev):

   -29.8334 -29.6501 -29.5126  15.7919  16.6582  17.4483  18.2024  19.5684
    24.0509  30.7764  34.9795  40.6081

          k = 0.4444 0.0000 0.4444 (   323 PWs)   bands (ev):

   -29.7695 -29.6004 -29.4801  15.9856  16.5057  17.2019  18.2786  18.7031
    21.8646  34.6635  35.4145  41.4529

          k = 0.0000 0.6667 0.0000 (   323 PWs)   bands (ev):

   -29.7940 -29.5672 -29.5672  15.0306  15.3169  19.6050  19.6050  19.9830
    20.0236  36.9265  36.9265  37.0896

          k =-0.1111 0.7778-0.1111 (   324 PWs)   bands (ev):

   -29.8511 -29.6113 -29.5856  14.9411  15.2298  19.1752  19.6209  20.5004
    22.7680  33.7150  34.9241  36.0659

          k = 0.7778-0.1111 0.7778 (   329 PWs)   bands (ev):

   -29.8472 -29.6876 -29.5788  15.1162  15.6925  18.3982  19.3245  20.4410
    26.2681  29.9654  33.0487  36.8551

          k = 0.6667-0.0000 0.6667 (   323 PWs)   bands (ev):

   -29.7727 -29.7705 -29.5499  15.5876  16.4119  17.4653  18.8948  19.8879
    26.7661  29.8799  32.1084  39.0891

          k = 0.0000 0.8889 0.0000 (   326 PWs)   bands (ev):

   -29.8965 -29.6093 -29.6093  14.5440  14.8398  20.3296  20.6003  20.6003
    23.1009  32.8037  34.6021  34.6021

          k = 0.8889 0.0000 0.8889 (   326 PWs)   bands (ev):

   -29.8930 -29.6414 -29.6066  14.6533  14.9832  19.8608  20.1201  20.6533
    25.0208  31.8105  32.7676  34.9064

          k =-0.2222 0.4444 0.0000 (   323 PWs)   bands (ev):

   -29.6886 -29.5303 -29.4781  15.2203  16.2782  17.4876  18.4196  18.7571
    20.1781  37.1014  38.0449  41.8184

          k =-0.3333 0.5556-0.1111 (   326 PWs)   bands (ev):

   -29.7986 -29.5809 -29.5044  15.5992  16.7330  17.0283  18.3640  19.5497
    21.8618  33.1682  37.1130  39.7781

          k = 0.5556-0.3333 0.7778 (   324 PWs)   bands (ev):

   -29.8727 -29.6046 -29.5271  15.4636  16.5822  17.7495  18.1343  20.1919
    24.2245  29.2220  37.1358  38.4071

          k =-0.2222 0.6667 0.0000 (   325 PWs)   bands (ev):

   -29.8040 -29.5991 -29.5521  15.4785  15.6194  17.8548  19.5939  19.6421
    22.0339  35.0304  35.4981  37.3136

          k = 0.6667-0.2222 0.8889 (   329 PWs)   bands (ev):

   -29.8352 -29.6604 -29.5718  15.5169  15.9693  17.5373  19.1382  20.3045
    24.9005  31.0571  35.2239  35.4736

          k = 0.5556-0.1111 0.7778 (   328 PWs)   bands (ev):

   -29.8188 -29.7102 -29.5645  15.8207  16.2765  17.2150  18.7681  20.2173
    27.0477  28.8820  33.7238  36.5698

          k = 0.4444 0.0000 0.6667 (   328 PWs)   bands (ev):

   -29.8069 -29.6798 -29.5347  16.3587  16.4502  16.5113  18.8361  19.6124
    24.2924  32.7566  33.0164  38.2006

          k = 0.7778-0.1111 1.0000 (   328 PWs)   bands (ev):

   -29.8681 -29.6440 -29.6085  14.9459  15.2149  18.9150  19.9166  20.5976
    25.0420  32.6803  33.4757  33.6820

          k = 0.6667-0.0000 0.8889 (   329 PWs)   bands (ev):

   -29.8293 -29.7090 -29.6008  15.2762  15.7520  18.0170  19.3333  20.5900
    27.7338  30.1235  31.9001  34.6959

          k = 0.5556-0.1111 1.0000 (   330 PWs)   bands (ev):

   -29.7954 -29.7312 -29.6050  15.6721  16.3112  17.0066  19.0295  20.5922
    27.7666  30.8469  32.0781  33.5993

     the Fermi energy is    20.4768 ev

!    total energy              =    -198.69425714 Ry
     Harris-Foulkes estimate   =    -198.69425715 Ry
     estimated scf accuracy    <          7.6E-09 Ry

     The total energy is the sum of the following terms:

     one-electron contribution =     -37.97205494 Ry
     hartree contribution      =      33.71691818 Ry
     xc contribution           =     -31.42248891 Ry
     ewald contribution        =    -163.01731824 Ry
     smearing contrib. (-TS)   =       0.00068676 Ry

     convergence has been achieved in   6 iterations

     Writing output data file Pd-kp-conv.save/
 
     init_run     :      0.41s CPU      0.45s WALL (       1 calls)
     electrons    :      1.59s CPU      2.06s WALL (       1 calls)

     Called by init_run:
     wfcinit      :      0.09s CPU      0.11s WALL (       1 calls)
     potinit      :      0.00s CPU      0.01s WALL (       1 calls)
     hinit0       :      0.31s CPU      0.31s WALL (       1 calls)

     Called by electrons:
     c_bands      :      1.31s CPU      1.41s WALL (       6 calls)
     sum_band     :      0.23s CPU      0.26s WALL (       6 calls)
     v_of_rho     :      0.02s CPU      0.02s WALL (       7 calls)
     newd         :      0.03s CPU      0.04s WALL (       7 calls)
     mix_rho      :      0.00s CPU      0.00s WALL (       6 calls)

     Called by c_bands:
     init_us_2    :      0.04s CPU      0.04s WALL (     455 calls)
     cegterg      :      1.20s CPU      1.31s WALL (     210 calls)

     Called by sum_band:
     sum_band:bec :      0.00s CPU      0.00s WALL (     210 calls)
     addusdens    :      0.03s CPU      0.04s WALL (       6 calls)

     Called by *egterg:
     h_psi        :      0.93s CPU      1.02s WALL (     736 calls)
     s_psi        :      0.02s CPU      0.02s WALL (     736 calls)
     g_psi        :      0.01s CPU      0.01s WALL (     491 calls)
     cdiaghg      :      0.22s CPU      0.24s WALL (     701 calls)

     Called by h_psi:
     h_psi:pot    :      0.92s CPU      1.01s WALL (     736 calls)
     h_psi:calbec :      0.02s CPU      0.03s WALL (     736 calls)
     vloc_psi     :      0.88s CPU      0.96s WALL (     736 calls)
     add_vuspsi   :      0.02s CPU      0.02s WALL (     736 calls)

     General routines
     calbec       :      0.03s CPU      0.03s WALL (     946 calls)
     fft          :      0.01s CPU      0.01s WALL (      78 calls)
     ffts         :      0.00s CPU      0.00s WALL (       6 calls)
     fftw         :      0.90s CPU      0.98s WALL (   15970 calls)
 
     Parallel routines
     fft_scatt_xy :      0.16s CPU      0.18s WALL (   16054 calls)
     fft_scatt_yz :      0.23s CPU      0.26s WALL (   16054 calls)
 
     PWSCF        :     2.10s CPU         2.76s WALL

 
   This run was terminated on:  23:12:44   2Dec2021            

=------------------------------------------------------------------------------=
   JOB DONE.
=------------------------------------------------------------------------------=
