
     Program PWSCF v.6.3 starts on  2Dec2021 at 23:12:59 

     This program is part of the open-source Quantum ESPRESSO suite
     for quantum simulation of materials; please cite
         "P. Giannozzi et al., J. Phys.:Condens. Matter 21 395502 (2009);
         "P. Giannozzi et al., J. Phys.:Condens. Matter 29 465901 (2017);
          URL http://www.quantum-espresso.org", 
     in publications or presentations arising from this work. More details at
     http://www.quantum-espresso.org/quote

     Parallel version (MPI & OpenMP), running on       2 processor cores
     Number of MPI processes:                 2
     Threads/MPI process:                     1

     MPI processes distributed on     1 nodes
     R & G space division:  proc/nbgrp/npool/nimage =       2
     Reading input from pw-input.in

     Current dimensions of program PWSCF are:
     Max number of different atomic species (ntypx) = 10
     Max number of k-points (npk) =  40000
     Max angular momentum in pseudopotentials (lmaxx) =  3

     Subspace diagonalization in iterative solution of the eigenvalue problem:
     a serial algorithm will be used

 
     Parallelization info
     --------------------
     sticks:   dense  smooth     PW     G-vecs:    dense   smooth      PW
     Min         141     141     48                 1570     1570     322
     Max         142     142     49                 1573     1573     323
     Sum         283     283     97                 3143     3143     645
 

     Title: 
     Pd-kp-conv                                                                 


     bravais-lattice index     =            2
     lattice parameter (alat)  =       7.7000  a.u.
     unit-cell volume          =     114.1333 (a.u.)^3
     number of atoms/cell      =            1
     number of atomic types    =            1
     number of electrons       =        16.00
     number of Kohn-Sham states=           12
     kinetic-energy cutoff     =      35.0000  Ry
     charge density cutoff     =     140.0000  Ry
     convergence threshold     =      1.0E-07
     mixing beta               =       0.7000
     number of iterations used =            8  plain     mixing
     Exchange-correlation      =  SLA  PW   PBX  PBC ( 1  4  3  4 0 0)

     celldm(1)=   7.700000  celldm(2)=   0.000000  celldm(3)=   0.000000
     celldm(4)=   0.000000  celldm(5)=   0.000000  celldm(6)=   0.000000

     crystal axes: (cart. coord. in units of alat)
               a(1) = (  -0.500000   0.000000   0.500000 )  
               a(2) = (   0.000000   0.500000   0.500000 )  
               a(3) = (  -0.500000   0.500000   0.000000 )  

     reciprocal axes: (cart. coord. in units 2 pi/alat)
               b(1) = ( -1.000000 -1.000000  1.000000 )  
               b(2) = (  1.000000  1.000000  1.000000 )  
               b(3) = ( -1.000000  1.000000 -1.000000 )  


     PseudoPot. # 1 for Pd read from file:
     ./pd_pbe_v1.4.uspp.F.UPF
     MD5 check sum: 2d733d2bc2cbfd217af676df1668a4bc
     Pseudo is Ultrasoft + core correction, Zval = 16.0
     Generated by new atomic code, or converted to UPF format
     Using radial grid of  887 points,  6 beta functions with: 
                l(1) =   0
                l(2) =   0
                l(3) =   1
                l(4) =   1
                l(5) =   2
                l(6) =   2
     Q(r) pseudized with  8 coefficients,  rinner =    1.130   1.130   1.130
                                                       1.130   1.130

     atomic species   valence    mass     pseudopotential
        Pd            16.00   106.40000     Pd( 1.00)

     48 Sym. Ops., with inversion, found



   Cartesian axes

     site n.     atom                  positions (alat units)
         1           Pd  tau(   1) = (   0.0000000   0.0000000   0.0000000  )

     number of k points=    35  Marzari-Vanderbilt smearing, width (Ry)=  0.0400
                       cart. coord. in units 2pi/alat
        k(    1) = (   0.0000000   0.0000000   0.0000000), wk =   0.0027435
        k(    2) = (  -0.1111111   0.1111111  -0.1111111), wk =   0.0219479
        k(    3) = (  -0.2222222   0.2222222  -0.2222222), wk =   0.0219479
        k(    4) = (  -0.3333333   0.3333333  -0.3333333), wk =   0.0219479
        k(    5) = (  -0.4444444   0.4444444  -0.4444444), wk =   0.0219479
        k(    6) = (   0.0000000   0.2222222   0.0000000), wk =   0.0164609
        k(    7) = (  -0.1111111   0.3333333  -0.1111111), wk =   0.0658436
        k(    8) = (  -0.2222222   0.4444444  -0.2222222), wk =   0.0658436
        k(    9) = (  -0.3333333   0.5555556  -0.3333333), wk =   0.0658436
        k(   10) = (   0.5555556  -0.3333333   0.5555556), wk =   0.0658436
        k(   11) = (   0.4444444  -0.2222222   0.4444444), wk =   0.0658436
        k(   12) = (   0.3333333  -0.1111111   0.3333333), wk =   0.0658436
        k(   13) = (   0.2222222  -0.0000000   0.2222222), wk =   0.0329218
        k(   14) = (   0.0000000   0.4444444   0.0000000), wk =   0.0164609
        k(   15) = (  -0.1111111   0.5555556  -0.1111111), wk =   0.0658436
        k(   16) = (  -0.2222222   0.6666667  -0.2222222), wk =   0.0658436
        k(   17) = (   0.6666667  -0.2222222   0.6666667), wk =   0.0658436
        k(   18) = (   0.5555556  -0.1111111   0.5555556), wk =   0.0658436
        k(   19) = (   0.4444444   0.0000000   0.4444444), wk =   0.0329218
        k(   20) = (   0.0000000   0.6666667   0.0000000), wk =   0.0164609
        k(   21) = (  -0.1111111   0.7777778  -0.1111111), wk =   0.0658436
        k(   22) = (   0.7777778  -0.1111111   0.7777778), wk =   0.0658436
        k(   23) = (   0.6666667  -0.0000000   0.6666667), wk =   0.0329218
        k(   24) = (   0.0000000   0.8888889   0.0000000), wk =   0.0164609
        k(   25) = (   0.8888889   0.0000000   0.8888889), wk =   0.0329218
        k(   26) = (  -0.2222222   0.4444444   0.0000000), wk =   0.0658436
        k(   27) = (  -0.3333333   0.5555556  -0.1111111), wk =   0.1316872
        k(   28) = (   0.5555556  -0.3333333   0.7777778), wk =   0.1316872
        k(   29) = (  -0.2222222   0.6666667   0.0000000), wk =   0.0658436
        k(   30) = (   0.6666667  -0.2222222   0.8888889), wk =   0.1316872
        k(   31) = (   0.5555556  -0.1111111   0.7777778), wk =   0.1316872
        k(   32) = (   0.4444444   0.0000000   0.6666667), wk =   0.0658436
        k(   33) = (   0.7777778  -0.1111111   1.0000000), wk =   0.0658436
        k(   34) = (   0.6666667  -0.0000000   0.8888889), wk =   0.0658436
        k(   35) = (   0.5555556  -0.1111111   1.0000000), wk =   0.0658436

     Dense  grid:     3143 G-vectors     FFT dimensions: (  24,  24,  24)

     Estimated max dynamical RAM per process >       8.15 MB

     Estimated total dynamical RAM >      16.30 MB

     Initial potential from superposition of free atoms
     Check: negative starting charge=   -0.079204

     starting charge   15.49999, renormalised to   16.00000

     negative rho (up, down):  8.176E-02 0.000E+00
     Starting wfcs are   12 randomized atomic wfcs

     total cpu time spent up to now is        0.6 secs

     Self-consistent Calculation

     iteration #  1     ecut=    35.00 Ry     beta= 0.70
     Davidson diagonalization with overlap
     ethr =  1.00E-02,  avg # of iterations =  3.7

     negative rho (up, down):  8.047E-02 0.000E+00

     total cpu time spent up to now is        1.1 secs

     total energy              =    -198.09355431 Ry
     Harris-Foulkes estimate   =    -199.05662827 Ry
     estimated scf accuracy    <       1.31958423 Ry

     iteration #  2     ecut=    35.00 Ry     beta= 0.70
     Davidson diagonalization with overlap
     ethr =  8.25E-03,  avg # of iterations =  2.0

     negative rho (up, down):  8.179E-02 0.000E+00

     total cpu time spent up to now is        1.5 secs

     total energy              =    -198.40626320 Ry
     Harris-Foulkes estimate   =    -199.12086934 Ry
     estimated scf accuracy    <       1.46147915 Ry

     iteration #  3     ecut=    35.00 Ry     beta= 0.70
     Davidson diagonalization with overlap
     ethr =  8.25E-03,  avg # of iterations =  2.0

     negative rho (up, down):  8.192E-02 0.000E+00

     total cpu time spent up to now is        1.8 secs

     total energy              =    -198.69528179 Ry
     Harris-Foulkes estimate   =    -198.69590029 Ry
     estimated scf accuracy    <       0.00137106 Ry

     iteration #  4     ecut=    35.00 Ry     beta= 0.70
     Davidson diagonalization with overlap
     ethr =  8.57E-06,  avg # of iterations =  2.5

     negative rho (up, down):  8.205E-02 0.000E+00

     total cpu time spent up to now is        2.3 secs

     total energy              =    -198.69584965 Ry
     Harris-Foulkes estimate   =    -198.69584756 Ry
     estimated scf accuracy    <       0.00000314 Ry

     iteration #  5     ecut=    35.00 Ry     beta= 0.70
     Davidson diagonalization with overlap
     ethr =  1.96E-08,  avg # of iterations =  2.0

     negative rho (up, down):  8.210E-02 0.000E+00

     total cpu time spent up to now is        2.6 secs

     total energy              =    -198.69585035 Ry
     Harris-Foulkes estimate   =    -198.69585008 Ry
     estimated scf accuracy    <       0.00000020 Ry

     iteration #  6     ecut=    35.00 Ry     beta= 0.70
     Davidson diagonalization with overlap
     ethr =  1.27E-09,  avg # of iterations =  2.0

     negative rho (up, down):  8.210E-02 0.000E+00

     total cpu time spent up to now is        2.9 secs

     End of self-consistent calculation

          k = 0.0000 0.0000 0.0000 (   411 PWs)   bands (ev):

   -33.9260 -33.9260 -33.9260   9.3085  13.1674  13.1674  13.1674  14.4541
    14.4541  33.0357  37.0056  37.0056

          k =-0.1111 0.1111-0.1111 (   390 PWs)   bands (ev):

   -33.9544 -33.9300 -33.9300   9.7000  13.0618  13.2840  13.2840  14.4137
    14.4137  33.0738  34.6434  37.2482

          k =-0.2222 0.2222-0.2222 (   386 PWs)   bands (ev):

   -34.0278 -33.9406 -33.9406  10.6497  13.0374  13.4199  13.4199  14.5015
    14.5015  29.9565  33.8722  37.5410

          k =-0.3333 0.3333-0.3333 (   401 PWs)   bands (ev):

   -34.1107 -33.9530 -33.9530  11.1778  13.3021  13.3021  14.1634  14.9457
    14.9457  25.8553  33.0503  36.7720

          k =-0.4444 0.4444-0.4444 (   401 PWs)   bands (ev):

   -34.1640 -33.9610 -33.9610  11.1481  13.1608  13.1608  15.3511  15.3511
    16.2542  22.4393  32.3543  35.7263

          k = 0.0000 0.2222 0.0000 (   391 PWs)   bands (ev):

   -33.9536 -33.9367 -33.9367   9.8311  12.9226  13.3882  13.3882  14.2137
    14.5581  33.3786  35.3936  35.9706

          k =-0.1111 0.3333-0.1111 (   386 PWs)   bands (ev):

   -34.0080 -33.9491 -33.9450  10.6259  12.7108  13.5298  13.6008  14.2087
    14.6983  31.5649  33.9147  35.0361

          k =-0.2222 0.4444-0.2222 (   395 PWs)   bands (ev):

   -34.0847 -33.9618 -33.9588  11.3757  13.0320  13.2709  13.5821  15.0664
    15.0880  27.4118  33.2776  34.3065

          k =-0.3333 0.5556-0.3333 (   397 PWs)   bands (ev):

   -34.1448 -33.9738 -33.9684  11.4057  13.0253  13.4229  14.0400  15.4021
    16.8176  23.5428  32.3827  34.0457

          k = 0.5556-0.3333 0.5556 (   397 PWs)   bands (ev):

   -34.1612 -33.9826 -33.9664  11.3814  12.9757  13.3421  14.4842  15.3298
    17.9881  21.8921  31.8524  33.9155

          k = 0.4444-0.2222 0.4444 (   399 PWs)   bands (ev):

   -34.1273 -33.9807 -33.9562  11.4633  13.1154  13.4211  13.9240  14.8366
    16.4096  24.7832  31.8226  34.3125

          k = 0.3333-0.1111 0.3333 (   389 PWs)   bands (ev):

   -34.0588 -33.9680 -33.9426  11.2488  12.8687  13.4106  13.5972  14.2485
    15.2503  28.8220  32.2218  35.8124

          k = 0.2222-0.0000 0.2222 (   389 PWs)   bands (ev):

   -33.9906 -33.9481 -33.9322  10.3051  12.8653  13.4521  13.4642  14.1788
    14.6406  32.7425  32.7425  36.2298

          k = 0.0000 0.4444 0.0000 (   399 PWs)   bands (ev):

   -34.0239 -33.9643 -33.9643  11.0814  12.3461  13.9111  14.0047  14.0047
    14.8259  33.1382  33.1382  33.6106

          k =-0.1111 0.5556-0.1111 (   403 PWs)   bands (ev):

   -34.0759 -33.9815 -33.9786  11.6263  12.1622  13.6338  14.1913  15.1261
    15.2113  29.3307  31.9200  32.4197

          k =-0.2222 0.6667-0.2222 (   399 PWs)   bands (ev):

   -34.1221 -34.0053 -33.9857  11.7176  12.4632  13.4655  14.0630  15.4537
    17.3690  25.2402  30.5662  31.5995

          k = 0.6667-0.2222 0.6667 (   400 PWs)   bands (ev):

   -34.1381 -34.0283 -33.9825  11.8089  12.6245  13.5562  13.9092  15.3562
    19.9168  22.0629  29.0538  32.4366

          k = 0.5556-0.1111 0.5556 (   400 PWs)   bands (ev):

   -34.1213 -34.0349 -33.9701  12.0494  12.7544  13.3285  13.8635  14.8299
    18.5115  24.2667  28.2174  34.3945

          k = 0.4444 0.0000 0.4444 (   403 PWs)   bands (ev):

   -34.0905 -34.0111 -33.9543  12.1185  12.6196  13.1569  13.9190  14.2126
    16.6034  28.0041  28.4311  34.9448

          k = 0.0000 0.6667 0.0000 (   399 PWs)   bands (ev):

   -34.1022 -33.9954 -33.9954  11.4866  11.7536  14.8581  14.8581  15.1450
    15.3362  30.1114  30.1832  30.1832

          k =-0.1111 0.7778-0.1111 (   404 PWs)   bands (ev):

   -34.1300 -34.0169 -34.0047  11.4617  11.6832  14.5869  14.8687  15.4795
    17.5777  27.1855  28.0159  29.4866

          k = 0.7778-0.1111 0.7778 (   401 PWs)   bands (ev):

   -34.1285 -34.0528 -34.0017  11.6049  12.0269  14.0172  14.6649  15.4396
    20.5295  23.8116  26.2374  30.1158

          k = 0.6667-0.0000 0.6667 (   403 PWs)   bands (ev):

   -34.0931 -34.0922 -33.9882  11.9513  12.5597  13.3252  14.3625  15.0532
    20.9261  23.6183  25.4243  31.9285

          k = 0.0000 0.8889 0.0000 (   392 PWs)   bands (ev):

   -34.1520 -34.0158 -34.0158  11.1751  11.3960  15.3609  15.5521  15.5521
    18.1391  25.7909  28.3210  28.3210

          k = 0.8889 0.0000 0.8889 (   398 PWs)   bands (ev):

   -34.1502 -34.0316 -34.0147  11.2651  11.4976  15.0739  15.2183  15.5879
    19.6936  24.8681  26.5527  28.5573

          k =-0.2222 0.4444 0.0000 (   389 PWs)   bands (ev):

   -34.0514 -33.9773 -33.9527  11.4397  12.4598  13.3477  14.0072  14.2634
    15.2818  30.4153  30.9607  34.8535

          k =-0.3333 0.5556-0.1111 (   401 PWs)   bands (ev):

   -34.1044 -34.0019 -33.9657  11.8801  12.7915  13.0046  13.9763  14.8275
    16.6415  26.4970  30.2481  32.9598

          k = 0.5556-0.3333 0.7778 (   395 PWs)   bands (ev):

   -34.1400 -34.0133 -33.9767  11.8013  12.7052  13.5479  13.8166  15.2688
    18.7714  22.8232  30.4483  31.4436

          k =-0.2222 0.6667 0.0000 (   407 PWs)   bands (ev):

   -34.1072 -34.0109 -33.9886  11.8368  11.9711  13.6055  14.8487  14.9018
    16.8309  28.3676  28.6899  30.3591

          k = 0.6667-0.2222 0.8889 (   403 PWs)   bands (ev):

   -34.1226 -34.0400 -33.9982  11.8928  12.2375  13.3735  14.5376  15.3482
    19.2791  24.6907  28.2866  28.8095

          k = 0.5556-0.1111 0.7778 (   400 PWs)   bands (ev):

   -34.1148 -34.0635 -33.9949  12.1270  12.4557  13.1427  14.2733  15.2858
    21.2206  22.6143  26.9873  29.7048

          k = 0.4444 0.0000 0.6667 (   400 PWs)   bands (ev):

   -34.1088 -34.0490 -33.9804  12.5457  12.5763  12.5894  14.3256  14.8618
    18.6937  26.1154  26.4080  31.2650

          k = 0.7778-0.1111 1.0000 (   406 PWs)   bands (ev):

   -34.1386 -34.0326 -34.0158  11.4824  11.6668  14.3933  15.0845  15.5502
    19.5553  25.7903  27.0886  27.2924

          k = 0.6667-0.0000 0.8889 (   397 PWs)   bands (ev):

   -34.1200 -34.0632 -34.0119  11.7354  12.0637  13.7356  14.6771  15.5444
    21.8699  23.9231  25.1556  28.0908

          k = 0.5556-0.1111 1.0000 (   399 PWs)   bands (ev):

   -34.1039 -34.0736 -34.0141  12.0392  12.4723  12.9840  14.4642  15.5463
    21.7942  24.5722  25.4423  26.9559

     the Fermi energy is    15.5132 ev

!    total energy              =    -198.69585037 Ry
     Harris-Foulkes estimate   =    -198.69585037 Ry
     estimated scf accuracy    <          1.0E-09 Ry

     The total energy is the sum of the following terms:

     one-electron contribution =     -54.22511338 Ry
     hartree contribution      =      39.23681435 Ry
     xc contribution           =     -31.27818518 Ry
     ewald contribution        =    -152.43177811 Ry
     smearing contrib. (-TS)   =       0.00241195 Ry

     convergence has been achieved in   6 iterations

     Writing output data file Pd-kp-conv.save/
 
     init_run     :      0.47s CPU      0.51s WALL (       1 calls)
     electrons    :      2.15s CPU      2.66s WALL (       1 calls)

     Called by init_run:
     wfcinit      :      0.14s CPU      0.15s WALL (       1 calls)
     potinit      :      0.00s CPU      0.02s WALL (       1 calls)
     hinit0       :      0.32s CPU      0.32s WALL (       1 calls)

     Called by electrons:
     c_bands      :      1.73s CPU      1.84s WALL (       6 calls)
     sum_band     :      0.35s CPU      0.37s WALL (       6 calls)
     v_of_rho     :      0.02s CPU      0.03s WALL (       7 calls)
     newd         :      0.04s CPU      0.05s WALL (       7 calls)
     mix_rho      :      0.00s CPU      0.00s WALL (       6 calls)

     Called by c_bands:
     init_us_2    :      0.04s CPU      0.05s WALL (     455 calls)
     cegterg      :      1.62s CPU      1.72s WALL (     210 calls)

     Called by sum_band:
     sum_band:bec :      0.00s CPU      0.00s WALL (     210 calls)
     addusdens    :      0.04s CPU      0.04s WALL (       6 calls)

     Called by *egterg:
     h_psi        :      1.41s CPU      1.50s WALL (     742 calls)
     s_psi        :      0.02s CPU      0.02s WALL (     742 calls)
     g_psi        :      0.01s CPU      0.01s WALL (     497 calls)
     cdiaghg      :      0.18s CPU      0.19s WALL (     707 calls)

     Called by h_psi:
     h_psi:pot    :      1.41s CPU      1.49s WALL (     742 calls)
     h_psi:calbec :      0.03s CPU      0.03s WALL (     742 calls)
     vloc_psi     :      1.36s CPU      1.43s WALL (     742 calls)
     add_vuspsi   :      0.02s CPU      0.02s WALL (     742 calls)

     General routines
     calbec       :      0.03s CPU      0.03s WALL (     952 calls)
     fft          :      0.01s CPU      0.01s WALL (      78 calls)
     ffts         :      0.00s CPU      0.00s WALL (       6 calls)
     fftw         :      1.39s CPU      1.46s WALL (   15758 calls)
 
     Parallel routines
     fft_scatt_xy :      0.26s CPU      0.28s WALL (   15842 calls)
     fft_scatt_yz :      0.29s CPU      0.31s WALL (   15842 calls)
 
     PWSCF        :     2.70s CPU         3.42s WALL

 
   This run was terminated on:  23:13: 3   2Dec2021            

=------------------------------------------------------------------------------=
   JOB DONE.
=------------------------------------------------------------------------------=
