
     Program PWSCF v.6.3 starts on  2Dec2021 at 21: 1:20 

     This program is part of the open-source Quantum ESPRESSO suite
     for quantum simulation of materials; please cite
         "P. Giannozzi et al., J. Phys.:Condens. Matter 21 395502 (2009);
         "P. Giannozzi et al., J. Phys.:Condens. Matter 29 465901 (2017);
          URL http://www.quantum-espresso.org", 
     in publications or presentations arising from this work. More details at
     http://www.quantum-espresso.org/quote

     Parallel version (MPI & OpenMP), running on       2 processor cores
     Number of MPI processes:                 2
     Threads/MPI process:                     1

     MPI processes distributed on     1 nodes
     R & G space division:  proc/nbgrp/npool/nimage =       2
     Reading input from pw-input.in

     Current dimensions of program PWSCF are:
     Max number of different atomic species (ntypx) = 10
     Max number of k-points (npk) =  40000
     Max angular momentum in pseudopotentials (lmaxx) =  3

     Subspace diagonalization in iterative solution of the eigenvalue problem:
     a serial algorithm will be used

 
     Parallelization info
     --------------------
     sticks:   dense  smooth     PW     G-vecs:    dense   smooth      PW
     Min         141     141     48                 1559     1559     322
     Max         142     142     49                 1560     1560     323
     Sum         283     283     97                 3119     3119     645
 

     Title: 
     Pd-kp-conv                                                                 


     bravais-lattice index     =            2
     lattice parameter (alat)  =       7.6000  a.u.
     unit-cell volume          =     109.7440 (a.u.)^3
     number of atoms/cell      =            1
     number of atomic types    =            1
     number of electrons       =        16.00
     number of Kohn-Sham states=           12
     kinetic-energy cutoff     =      35.0000  Ry
     charge density cutoff     =     140.0000  Ry
     convergence threshold     =      1.0E-07
     mixing beta               =       0.7000
     number of iterations used =            8  plain     mixing
     Exchange-correlation      =  SLA  PW   PBX  PBC ( 1  4  3  4 0 0)

     celldm(1)=   7.600000  celldm(2)=   0.000000  celldm(3)=   0.000000
     celldm(4)=   0.000000  celldm(5)=   0.000000  celldm(6)=   0.000000

     crystal axes: (cart. coord. in units of alat)
               a(1) = (  -0.500000   0.000000   0.500000 )  
               a(2) = (   0.000000   0.500000   0.500000 )  
               a(3) = (  -0.500000   0.500000   0.000000 )  

     reciprocal axes: (cart. coord. in units 2 pi/alat)
               b(1) = ( -1.000000 -1.000000  1.000000 )  
               b(2) = (  1.000000  1.000000  1.000000 )  
               b(3) = ( -1.000000  1.000000 -1.000000 )  


     PseudoPot. # 1 for Pd read from file:
     ./pd_pbe_v1.4.uspp.F.UPF
     MD5 check sum: 2d733d2bc2cbfd217af676df1668a4bc
     Pseudo is Ultrasoft + core correction, Zval = 16.0
     Generated by new atomic code, or converted to UPF format
     Using radial grid of  887 points,  6 beta functions with: 
                l(1) =   0
                l(2) =   0
                l(3) =   1
                l(4) =   1
                l(5) =   2
                l(6) =   2
     Q(r) pseudized with  8 coefficients,  rinner =    1.130   1.130   1.130
                                                       1.130   1.130

     atomic species   valence    mass     pseudopotential
        Pd            16.00   106.40000     Pd( 1.00)

     48 Sym. Ops., with inversion, found



   Cartesian axes

     site n.     atom                  positions (alat units)
         1           Pd  tau(   1) = (   0.0000000   0.0000000   0.0000000  )

     number of k points=   195  Marzari-Vanderbilt smearing, width (Ry)=  0.0100

     Number of k-points >= 100: set verbosity='high' to print them.

     Dense  grid:     3119 G-vectors     FFT dimensions: (  24,  24,  24)

     Estimated max dynamical RAM per process >      13.66 MB

     Estimated total dynamical RAM >      27.33 MB

     Initial potential from superposition of free atoms
     Check: negative starting charge=   -0.079189

     starting charge   15.49999, renormalised to   16.00000

     negative rho (up, down):  8.174E-02 0.000E+00
     Starting wfcs are   12 randomized atomic wfcs

     total cpu time spent up to now is        1.1 secs

     Self-consistent Calculation

     iteration #  1     ecut=    35.00 Ry     beta= 0.70
     Davidson diagonalization with overlap
     ethr =  1.00E-02,  avg # of iterations =  3.6

     negative rho (up, down):  8.053E-02 0.000E+00

     total cpu time spent up to now is        3.8 secs

     total energy              =    -198.13387846 Ry
     Harris-Foulkes estimate   =    -199.04734925 Ry
     estimated scf accuracy    <       1.25483178 Ry

     iteration #  2     ecut=    35.00 Ry     beta= 0.70
     Davidson diagonalization with overlap
     ethr =  7.84E-03,  avg # of iterations =  2.0

     negative rho (up, down):  8.186E-02 0.000E+00

     total cpu time spent up to now is        5.9 secs

     total energy              =    -198.42935327 Ry
     Harris-Foulkes estimate   =    -199.08331795 Ry
     estimated scf accuracy    <       1.32749306 Ry

     iteration #  3     ecut=    35.00 Ry     beta= 0.70
     Davidson diagonalization with overlap
     ethr =  7.84E-03,  avg # of iterations =  2.0

     negative rho (up, down):  8.201E-02 0.000E+00

     total cpu time spent up to now is        7.9 secs

     total energy              =    -198.69894877 Ry
     Harris-Foulkes estimate   =    -198.69974049 Ry
     estimated scf accuracy    <       0.00173267 Ry

     iteration #  4     ecut=    35.00 Ry     beta= 0.70
     Davidson diagonalization with overlap
     ethr =  1.08E-05,  avg # of iterations =  2.4

     negative rho (up, down):  8.215E-02 0.000E+00

     total cpu time spent up to now is       10.1 secs

     total energy              =    -198.69956239 Ry
     Harris-Foulkes estimate   =    -198.69956089 Ry
     estimated scf accuracy    <       0.00000512 Ry

     iteration #  5     ecut=    35.00 Ry     beta= 0.70
     Davidson diagonalization with overlap
     ethr =  3.20E-08,  avg # of iterations =  1.9

     negative rho (up, down):  8.219E-02 0.000E+00

     total cpu time spent up to now is       12.0 secs

     total energy              =    -198.69956330 Ry
     Harris-Foulkes estimate   =    -198.69956311 Ry
     estimated scf accuracy    <       0.00000017 Ry

     iteration #  6     ecut=    35.00 Ry     beta= 0.70
     Davidson diagonalization with overlap
     ethr =  1.06E-09,  avg # of iterations =  2.0

     negative rho (up, down):  8.219E-02 0.000E+00

     total cpu time spent up to now is       13.8 secs

     End of self-consistent calculation

     Number of k-points >= 100: set verbosity='high' to print the bands.

     the Fermi energy is    16.3469 ev

!    total energy              =    -198.69956333 Ry
     Harris-Foulkes estimate   =    -198.69956332 Ry
     estimated scf accuracy    <          1.9E-09 Ry

     The total energy is the sum of the following terms:

     one-electron contribution =     -51.12239748 Ry
     hartree contribution      =      38.16539128 Ry
     xc contribution           =     -31.30525130 Ry
     ewald contribution        =    -154.43745938 Ry
     smearing contrib. (-TS)   =       0.00015355 Ry

     convergence has been achieved in   6 iterations

     Writing output data file Pd-kp-conv.save/
 
     init_run     :      0.97s CPU      1.05s WALL (       1 calls)
     electrons    :     11.11s CPU     12.71s WALL (       1 calls)

     Called by init_run:
     wfcinit      :      0.63s CPU      0.68s WALL (       1 calls)
     potinit      :      0.01s CPU      0.02s WALL (       1 calls)
     hinit0       :      0.32s CPU      0.33s WALL (       1 calls)

     Called by electrons:
     c_bands      :      9.33s CPU     10.46s WALL (       6 calls)
     sum_band     :      1.72s CPU      1.84s WALL (       6 calls)
     v_of_rho     :      0.03s CPU      0.03s WALL (       7 calls)
     newd         :      0.04s CPU      0.05s WALL (       7 calls)
     mix_rho      :      0.00s CPU      0.00s WALL (       6 calls)

     Called by c_bands:
     init_us_2    :      0.22s CPU      0.25s WALL (    2535 calls)
     cegterg      :      8.67s CPU      9.23s WALL (    1170 calls)

     Called by sum_band:
     sum_band:bec :      0.01s CPU      0.01s WALL (    1170 calls)
     addusdens    :      0.04s CPU      0.05s WALL (       6 calls)

     Called by *egterg:
     h_psi        :      7.51s CPU      8.01s WALL (    4086 calls)
     s_psi        :      0.10s CPU      0.10s WALL (    4086 calls)
     g_psi        :      0.07s CPU      0.07s WALL (    2721 calls)
     cdiaghg      :      0.96s CPU      1.02s WALL (    3891 calls)

     Called by h_psi:
     h_psi:pot    :      7.48s CPU      7.98s WALL (    4086 calls)
     h_psi:calbec :      0.14s CPU      0.15s WALL (    4086 calls)
     vloc_psi     :      7.20s CPU      7.69s WALL (    4086 calls)
     add_vuspsi   :      0.10s CPU      0.11s WALL (    4086 calls)

     General routines
     calbec       :      0.16s CPU      0.17s WALL (    5256 calls)
     fft          :      0.01s CPU      0.01s WALL (      78 calls)
     ffts         :      0.00s CPU      0.00s WALL (       6 calls)
     fftw         :      7.41s CPU      7.90s WALL (   87028 calls)
 
     Parallel routines
     fft_scatt_xy :      1.38s CPU      1.48s WALL (   87112 calls)
     fft_scatt_yz :      1.54s CPU      1.66s WALL (   87112 calls)
 
     PWSCF        :    12.25s CPU        14.57s WALL

 
   This run was terminated on:  21: 1:35   2Dec2021            

=------------------------------------------------------------------------------=
   JOB DONE.
=------------------------------------------------------------------------------=
