
     Program PWSCF v.6.3 starts on  2Dec2021 at 21:21:35 

     This program is part of the open-source Quantum ESPRESSO suite
     for quantum simulation of materials; please cite
         "P. Giannozzi et al., J. Phys.:Condens. Matter 21 395502 (2009);
         "P. Giannozzi et al., J. Phys.:Condens. Matter 29 465901 (2017);
          URL http://www.quantum-espresso.org", 
     in publications or presentations arising from this work. More details at
     http://www.quantum-espresso.org/quote

     Parallel version (MPI & OpenMP), running on       2 processor cores
     Number of MPI processes:                 2
     Threads/MPI process:                     1

     MPI processes distributed on     1 nodes
     R & G space division:  proc/nbgrp/npool/nimage =       2
     Reading input from pw-input.in

     Current dimensions of program PWSCF are:
     Max number of different atomic species (ntypx) = 10
     Max number of k-points (npk) =  40000
     Max angular momentum in pseudopotentials (lmaxx) =  3

     Subspace diagonalization in iterative solution of the eigenvalue problem:
     a serial algorithm will be used

 
     Parallelization info
     --------------------
     sticks:   dense  smooth     PW     G-vecs:    dense   smooth      PW
     Min         156     156     54                 1859     1859     373
     Max         157     157     55                 1860     1860     376
     Sum         313     313    109                 3719     3719     749
 

     Title: 
     Pd-kp-conv                                                                 


     bravais-lattice index     =            2
     lattice parameter (alat)  =       8.1000  a.u.
     unit-cell volume          =     132.8602 (a.u.)^3
     number of atoms/cell      =            1
     number of atomic types    =            1
     number of electrons       =        16.00
     number of Kohn-Sham states=           12
     kinetic-energy cutoff     =      35.0000  Ry
     charge density cutoff     =     140.0000  Ry
     convergence threshold     =      1.0E-07
     mixing beta               =       0.7000
     number of iterations used =            8  plain     mixing
     Exchange-correlation      =  SLA  PW   PBX  PBC ( 1  4  3  4 0 0)

     celldm(1)=   8.100000  celldm(2)=   0.000000  celldm(3)=   0.000000
     celldm(4)=   0.000000  celldm(5)=   0.000000  celldm(6)=   0.000000

     crystal axes: (cart. coord. in units of alat)
               a(1) = (  -0.500000   0.000000   0.500000 )  
               a(2) = (   0.000000   0.500000   0.500000 )  
               a(3) = (  -0.500000   0.500000   0.000000 )  

     reciprocal axes: (cart. coord. in units 2 pi/alat)
               b(1) = ( -1.000000 -1.000000  1.000000 )  
               b(2) = (  1.000000  1.000000  1.000000 )  
               b(3) = ( -1.000000  1.000000 -1.000000 )  


     PseudoPot. # 1 for Pd read from file:
     ./pd_pbe_v1.4.uspp.F.UPF
     MD5 check sum: 2d733d2bc2cbfd217af676df1668a4bc
     Pseudo is Ultrasoft + core correction, Zval = 16.0
     Generated by new atomic code, or converted to UPF format
     Using radial grid of  887 points,  6 beta functions with: 
                l(1) =   0
                l(2) =   0
                l(3) =   1
                l(4) =   1
                l(5) =   2
                l(6) =   2
     Q(r) pseudized with  8 coefficients,  rinner =    1.130   1.130   1.130
                                                       1.130   1.130

     atomic species   valence    mass     pseudopotential
        Pd            16.00   106.40000     Pd( 1.00)

     48 Sym. Ops., with inversion, found



   Cartesian axes

     site n.     atom                  positions (alat units)
         1           Pd  tau(   1) = (   0.0000000   0.0000000   0.0000000  )

     number of k points=   120  Marzari-Vanderbilt smearing, width (Ry)=  0.0150

     Number of k-points >= 100: set verbosity='high' to print them.

     Dense  grid:     3719 G-vectors     FFT dimensions: (  24,  24,  24)

     Estimated max dynamical RAM per process >      12.98 MB

     Estimated total dynamical RAM >      25.96 MB

     Initial potential from superposition of free atoms
     Check: negative starting charge=   -0.081280

     starting charge   15.49999, renormalised to   16.00000

     negative rho (up, down):  8.390E-02 0.000E+00
     Starting wfcs are   12 randomized atomic wfcs

     total cpu time spent up to now is        1.0 secs

     Self-consistent Calculation

     iteration #  1     ecut=    35.00 Ry     beta= 0.70
     Davidson diagonalization with overlap
     ethr =  1.00E-02,  avg # of iterations =  3.5

     negative rho (up, down):  8.121E-02 0.000E+00

     total cpu time spent up to now is        2.5 secs

     total energy              =    -197.91486546 Ry
     Harris-Foulkes estimate   =    -199.06822396 Ry
     estimated scf accuracy    <       1.56576605 Ry

     iteration #  2     ecut=    35.00 Ry     beta= 0.70
     Davidson diagonalization with overlap
     ethr =  9.79E-03,  avg # of iterations =  2.0

     negative rho (up, down):  8.345E-02 0.000E+00

     total cpu time spent up to now is        3.7 secs

     total energy              =    -198.26198734 Ry
     Harris-Foulkes estimate   =    -199.30546795 Ry
     estimated scf accuracy    <       2.24283623 Ry

     iteration #  3     ecut=    35.00 Ry     beta= 0.70
     Davidson diagonalization with overlap
     ethr =  9.79E-03,  avg # of iterations =  2.0

     negative rho (up, down):  8.349E-02 0.000E+00

     total cpu time spent up to now is        5.0 secs

     total energy              =    -198.67342336 Ry
     Harris-Foulkes estimate   =    -198.67353748 Ry
     estimated scf accuracy    <       0.00028707 Ry

     iteration #  4     ecut=    35.00 Ry     beta= 0.70
     Davidson diagonalization with overlap
     ethr =  1.79E-06,  avg # of iterations =  2.9

     negative rho (up, down):  8.361E-02 0.000E+00

     total cpu time spent up to now is        6.5 secs

     total energy              =    -198.67366957 Ry
     Harris-Foulkes estimate   =    -198.67366940 Ry
     estimated scf accuracy    <       0.00000404 Ry

     iteration #  5     ecut=    35.00 Ry     beta= 0.70
     Davidson diagonalization with overlap
     ethr =  2.53E-08,  avg # of iterations =  1.1

     negative rho (up, down):  8.362E-02 0.000E+00

     total cpu time spent up to now is        7.5 secs

     End of self-consistent calculation

     Number of k-points >= 100: set verbosity='high' to print the bands.

     the Fermi energy is    12.3788 ev

!    total energy              =    -198.67366973 Ry
     Harris-Foulkes estimate   =    -198.67366970 Ry
     estimated scf accuracy    <       0.00000003 Ry

     The total energy is the sum of the following terms:

     one-electron contribution =     -66.15025221 Ry
     hartree contribution      =      43.59744288 Ry
     xc contribution           =     -31.21658369 Ry
     ewald contribution        =    -144.90428288 Ry
     smearing contrib. (-TS)   =       0.00000619 Ry

     convergence has been achieved in   5 iterations

     Writing output data file Pd-kp-conv.save/
 
     init_run     :      0.79s CPU      0.85s WALL (       1 calls)
     electrons    :      6.21s CPU      6.88s WALL (       1 calls)

     Called by init_run:
     wfcinit      :      0.43s CPU      0.47s WALL (       1 calls)
     potinit      :      0.01s CPU      0.02s WALL (       1 calls)
     hinit0       :      0.33s CPU      0.33s WALL (       1 calls)

     Called by electrons:
     c_bands      :      5.21s CPU      5.50s WALL (       5 calls)
     sum_band     :      0.94s CPU      0.99s WALL (       5 calls)
     v_of_rho     :      0.03s CPU      0.03s WALL (       6 calls)
     newd         :      0.04s CPU      0.05s WALL (       6 calls)
     mix_rho      :      0.00s CPU      0.00s WALL (       5 calls)

     Called by c_bands:
     init_us_2    :      0.14s CPU      0.15s WALL (    1320 calls)
     cegterg      :      4.83s CPU      5.10s WALL (     600 calls)

     Called by sum_band:
     sum_band:bec :      0.01s CPU      0.01s WALL (     600 calls)
     addusdens    :      0.04s CPU      0.04s WALL (       5 calls)

     Called by *egterg:
     h_psi        :      4.22s CPU      4.47s WALL (    2102 calls)
     s_psi        :      0.06s CPU      0.06s WALL (    2102 calls)
     g_psi        :      0.04s CPU      0.05s WALL (    1382 calls)
     cdiaghg      :      0.53s CPU      0.55s WALL (    1982 calls)

     Called by h_psi:
     h_psi:pot    :      4.20s CPU      4.45s WALL (    2102 calls)
     h_psi:calbec :      0.08s CPU      0.09s WALL (    2102 calls)
     vloc_psi     :      4.04s CPU      4.28s WALL (    2102 calls)
     add_vuspsi   :      0.06s CPU      0.07s WALL (    2102 calls)

     General routines
     calbec       :      0.10s CPU      0.10s WALL (    2702 calls)
     fft          :      0.01s CPU      0.01s WALL (      67 calls)
     ffts         :      0.00s CPU      0.00s WALL (       5 calls)
     fftw         :      4.12s CPU      4.36s WALL (   47092 calls)
 
     Parallel routines
     fft_scatt_xy :      0.76s CPU      0.81s WALL (   47164 calls)
     fft_scatt_yz :      0.89s CPU      0.96s WALL (   47164 calls)
 
     PWSCF        :     7.14s CPU         8.30s WALL

 
   This run was terminated on:  21:21:44   2Dec2021            

=------------------------------------------------------------------------------=
   JOB DONE.
=------------------------------------------------------------------------------=
