
     Program PWSCF v.6.3 starts on  2Dec2021 at 21:58:51 

     This program is part of the open-source Quantum ESPRESSO suite
     for quantum simulation of materials; please cite
         "P. Giannozzi et al., J. Phys.:Condens. Matter 21 395502 (2009);
         "P. Giannozzi et al., J. Phys.:Condens. Matter 29 465901 (2017);
          URL http://www.quantum-espresso.org", 
     in publications or presentations arising from this work. More details at
     http://www.quantum-espresso.org/quote

     Parallel version (MPI & OpenMP), running on       2 processor cores
     Number of MPI processes:                 2
     Threads/MPI process:                     1

     MPI processes distributed on     1 nodes
     R & G space division:  proc/nbgrp/npool/nimage =       2
     Reading input from pw-input.in

     Current dimensions of program PWSCF are:
     Max number of different atomic species (ntypx) = 10
     Max number of k-points (npk) =  40000
     Max angular momentum in pseudopotentials (lmaxx) =  3

     Subspace diagonalization in iterative solution of the eigenvalue problem:
     a serial algorithm will be used

 
     Parallelization info
     --------------------
     sticks:   dense  smooth     PW     G-vecs:    dense   smooth      PW
     Min         117     117     42                 1138     1138     229
     Max         118     118     43                 1139     1139     230
     Sum         235     235     85                 2277     2277     459
 

     Title: 
     Pd-kp-conv                                                                 


     bravais-lattice index     =            2
     lattice parameter (alat)  =       6.9000  a.u.
     unit-cell volume          =      82.1273 (a.u.)^3
     number of atoms/cell      =            1
     number of atomic types    =            1
     number of electrons       =        16.00
     number of Kohn-Sham states=           12
     kinetic-energy cutoff     =      35.0000  Ry
     charge density cutoff     =     140.0000  Ry
     convergence threshold     =      1.0E-07
     mixing beta               =       0.7000
     number of iterations used =            8  plain     mixing
     Exchange-correlation      =  SLA  PW   PBX  PBC ( 1  4  3  4 0 0)

     celldm(1)=   6.900000  celldm(2)=   0.000000  celldm(3)=   0.000000
     celldm(4)=   0.000000  celldm(5)=   0.000000  celldm(6)=   0.000000

     crystal axes: (cart. coord. in units of alat)
               a(1) = (  -0.500000   0.000000   0.500000 )  
               a(2) = (   0.000000   0.500000   0.500000 )  
               a(3) = (  -0.500000   0.500000   0.000000 )  

     reciprocal axes: (cart. coord. in units 2 pi/alat)
               b(1) = ( -1.000000 -1.000000  1.000000 )  
               b(2) = (  1.000000  1.000000  1.000000 )  
               b(3) = ( -1.000000  1.000000 -1.000000 )  


     PseudoPot. # 1 for Pd read from file:
     ./pd_pbe_v1.4.uspp.F.UPF
     MD5 check sum: 2d733d2bc2cbfd217af676df1668a4bc
     Pseudo is Ultrasoft + core correction, Zval = 16.0
     Generated by new atomic code, or converted to UPF format
     Using radial grid of  887 points,  6 beta functions with: 
                l(1) =   0
                l(2) =   0
                l(3) =   1
                l(4) =   1
                l(5) =   2
                l(6) =   2
     Q(r) pseudized with  8 coefficients,  rinner =    1.130   1.130   1.130
                                                       1.130   1.130

     atomic species   valence    mass     pseudopotential
        Pd            16.00   106.40000     Pd( 1.00)

     48 Sym. Ops., with inversion, found



   Cartesian axes

     site n.     atom                  positions (alat units)
         1           Pd  tau(   1) = (   0.0000000   0.0000000   0.0000000  )

     number of k points=     8  Marzari-Vanderbilt smearing, width (Ry)=  0.0250
                       cart. coord. in units 2pi/alat
        k(    1) = (   0.0000000   0.0000000   0.0000000), wk =   0.0312500
        k(    2) = (  -0.2500000   0.2500000  -0.2500000), wk =   0.2500000
        k(    3) = (   0.5000000  -0.5000000   0.5000000), wk =   0.1250000
        k(    4) = (   0.0000000   0.5000000   0.0000000), wk =   0.1875000
        k(    5) = (   0.7500000  -0.2500000   0.7500000), wk =   0.7500000
        k(    6) = (   0.5000000   0.0000000   0.5000000), wk =   0.3750000
        k(    7) = (   0.0000000  -1.0000000   0.0000000), wk =   0.0937500
        k(    8) = (  -0.5000000  -1.0000000   0.0000000), wk =   0.1875000

     Dense  grid:     2277 G-vectors     FFT dimensions: (  20,  20,  20)

     Estimated max dynamical RAM per process >       5.32 MB

     Estimated total dynamical RAM >      10.63 MB

     Initial potential from superposition of free atoms
     Check: negative starting charge=   -0.082546

     starting charge   15.49999, renormalised to   16.00000

     negative rho (up, down):  8.521E-02 0.000E+00
     Starting wfcs are   12 randomized atomic wfcs

     total cpu time spent up to now is        0.4 secs

     Self-consistent Calculation

     iteration #  1     ecut=    35.00 Ry     beta= 0.70
     Davidson diagonalization with overlap
     ethr =  1.00E-02,  avg # of iterations =  3.5

     negative rho (up, down):  8.533E-02 0.000E+00

     total cpu time spent up to now is        0.5 secs

     total energy              =    -198.37809268 Ry
     Harris-Foulkes estimate   =    -198.91890511 Ry
     estimated scf accuracy    <       0.75912433 Ry

     iteration #  2     ecut=    35.00 Ry     beta= 0.70
     Davidson diagonalization with overlap
     ethr =  4.74E-03,  avg # of iterations =  2.1

     negative rho (up, down):  8.663E-02 0.000E+00

     total cpu time spent up to now is        0.6 secs

     total energy              =    -198.59467147 Ry
     Harris-Foulkes estimate   =    -198.79996220 Ry
     estimated scf accuracy    <       0.36398841 Ry

     iteration #  3     ecut=    35.00 Ry     beta= 0.70
     Davidson diagonalization with overlap
     ethr =  2.27E-03,  avg # of iterations =  2.0

     negative rho (up, down):  8.699E-02 0.000E+00

     total cpu time spent up to now is        0.6 secs

     total energy              =    -198.66982350 Ry
     Harris-Foulkes estimate   =    -198.66983336 Ry
     estimated scf accuracy    <       0.00014137 Ry

     iteration #  4     ecut=    35.00 Ry     beta= 0.70
     Davidson diagonalization with overlap
     ethr =  8.84E-07,  avg # of iterations =  2.5

     negative rho (up, down):  8.714E-02 0.000E+00

     total cpu time spent up to now is        0.7 secs

     total energy              =    -198.66991194 Ry
     Harris-Foulkes estimate   =    -198.66991148 Ry
     estimated scf accuracy    <       0.00000507 Ry

     iteration #  5     ecut=    35.00 Ry     beta= 0.70
     Davidson diagonalization with overlap
     ethr =  3.17E-08,  avg # of iterations =  1.9

     negative rho (up, down):  8.716E-02 0.000E+00

     total cpu time spent up to now is        0.7 secs

     End of self-consistent calculation

          k = 0.0000 0.0000 0.0000 (   283 PWs)   bands (ev):

   -25.8427 -25.8427 -25.8427  15.4683  20.4193  20.4193  20.4193  22.6397
    22.6397  42.3319  48.3048  48.3048

          k =-0.2500 0.2500-0.2500 (   296 PWs)   bands (ev):

   -26.2593 -25.8997 -25.8997  17.3365  20.3957  20.8056  20.8056  22.8226
    22.8226  40.6182  43.7823  50.9654

          k = 0.5000-0.5000 0.5000 (   272 PWs)   bands (ev):

   -26.6592 -25.9554 -25.9554  17.2585  20.3358  20.3358  24.3050  24.3050
    24.8273  33.3585  41.5750  48.1559

          k = 0.0000 0.5000 0.0000 (   290 PWs)   bands (ev):

   -26.2416 -25.9935 -25.9935  17.8884  18.7239  21.7927  22.1589  22.1589
    23.4162  44.1803  44.7942  44.7942

          k = 0.7500-0.2500 0.7500 (   290 PWs)   bands (ev):

   -26.5209 -26.1702 -26.0497  18.0481  19.0446  21.0749  22.0783  24.4298
    28.6003  34.9999  40.9529  43.3883

          k = 0.5000 0.0000 0.5000 (   283 PWs)   bands (ev):

   -26.4301 -26.1883 -25.9564  19.1243  19.5944  20.0847  21.6892  22.5425
    27.1557  38.6634  39.2751  45.6858

          k = 0.0000-1.0000 0.0000 (   302 PWs)   bands (ev):

   -26.6116 -26.1428 -26.1428  16.9844  17.3692  24.2707  24.7441  24.7441
    27.6494  37.2755  38.8736  38.8736

          k =-0.5000-1.0000 0.0000 (   280 PWs)   bands (ev):

   -26.3797 -26.3797 -26.1509  18.3715  19.6958  19.6958  22.4500  24.7493
    34.4870  34.4870  36.5444  37.5972

     the Fermi energy is    24.6052 ev

!    total energy              =    -198.66991244 Ry
     Harris-Foulkes estimate   =    -198.66991247 Ry
     estimated scf accuracy    <       0.00000010 Ry

     The total energy is the sum of the following terms:

     one-electron contribution =     -27.51914425 Ry
     hartree contribution      =      30.53967957 Ry
     xc contribution           =     -31.58324812 Ry
     ewald contribution        =    -170.10502774 Ry
     smearing contrib. (-TS)   =      -0.00217190 Ry

     convergence has been achieved in   5 iterations

     Writing output data file Pd-kp-conv.save/
 
     init_run     :      0.30s CPU      0.31s WALL (       1 calls)
     electrons    :      0.31s CPU      0.36s WALL (       1 calls)

     Called by init_run:
     wfcinit      :      0.02s CPU      0.02s WALL (       1 calls)
     potinit      :      0.01s CPU      0.01s WALL (       1 calls)
     hinit0       :      0.27s CPU      0.27s WALL (       1 calls)

     Called by electrons:
     c_bands      :      0.22s CPU      0.25s WALL (       5 calls)
     sum_band     :      0.06s CPU      0.06s WALL (       5 calls)
     v_of_rho     :      0.02s CPU      0.02s WALL (       6 calls)
     newd         :      0.02s CPU      0.02s WALL (       6 calls)
     mix_rho      :      0.00s CPU      0.00s WALL (       5 calls)

     Called by c_bands:
     init_us_2    :      0.01s CPU      0.01s WALL (      88 calls)
     cegterg      :      0.21s CPU      0.23s WALL (      40 calls)

     Called by sum_band:
     sum_band:bec :      0.00s CPU      0.00s WALL (      40 calls)
     addusdens    :      0.02s CPU      0.02s WALL (       5 calls)

     Called by *egterg:
     h_psi        :      0.16s CPU      0.18s WALL (     144 calls)
     s_psi        :      0.00s CPU      0.00s WALL (     144 calls)
     g_psi        :      0.00s CPU      0.00s WALL (      96 calls)
     cdiaghg      :      0.04s CPU      0.04s WALL (     136 calls)

     Called by h_psi:
     h_psi:pot    :      0.16s CPU      0.17s WALL (     144 calls)
     h_psi:calbec :      0.01s CPU      0.01s WALL (     144 calls)
     vloc_psi     :      0.15s CPU      0.16s WALL (     144 calls)
     add_vuspsi   :      0.00s CPU      0.00s WALL (     144 calls)

     General routines
     calbec       :      0.01s CPU      0.01s WALL (     184 calls)
     fft          :      0.01s CPU      0.01s WALL (      67 calls)
     ffts         :      0.00s CPU      0.00s WALL (       5 calls)
     fftw         :      0.16s CPU      0.17s WALL (    3054 calls)
 
     Parallel routines
     fft_scatt_xy :      0.03s CPU      0.03s WALL (    3126 calls)
     fft_scatt_yz :      0.05s CPU      0.06s WALL (    3126 calls)
 
     PWSCF        :     0.67s CPU         0.84s WALL

 
   This run was terminated on:  21:58:52   2Dec2021            

=------------------------------------------------------------------------------=
   JOB DONE.
=------------------------------------------------------------------------------=
