
     Program PWSCF v.6.3 starts on  2Dec2021 at 21:58:58 

     This program is part of the open-source Quantum ESPRESSO suite
     for quantum simulation of materials; please cite
         "P. Giannozzi et al., J. Phys.:Condens. Matter 21 395502 (2009);
         "P. Giannozzi et al., J. Phys.:Condens. Matter 29 465901 (2017);
          URL http://www.quantum-espresso.org", 
     in publications or presentations arising from this work. More details at
     http://www.quantum-espresso.org/quote

     Parallel version (MPI & OpenMP), running on       2 processor cores
     Number of MPI processes:                 2
     Threads/MPI process:                     1

     MPI processes distributed on     1 nodes
     R & G space division:  proc/nbgrp/npool/nimage =       2
     Reading input from pw-input.in

     Current dimensions of program PWSCF are:
     Max number of different atomic species (ntypx) = 10
     Max number of k-points (npk) =  40000
     Max angular momentum in pseudopotentials (lmaxx) =  3

     Subspace diagonalization in iterative solution of the eigenvalue problem:
     a serial algorithm will be used

 
     Parallelization info
     --------------------
     sticks:   dense  smooth     PW     G-vecs:    dense   smooth      PW
     Min         126     126     42                 1365     1365     264
     Max         127     127     43                 1368     1368     267
     Sum         253     253     85                 2733     2733     531
 

     Title: 
     Pd-kp-conv                                                                 


     bravais-lattice index     =            2
     lattice parameter (alat)  =       7.3000  a.u.
     unit-cell volume          =      97.2542 (a.u.)^3
     number of atoms/cell      =            1
     number of atomic types    =            1
     number of electrons       =        16.00
     number of Kohn-Sham states=           12
     kinetic-energy cutoff     =      35.0000  Ry
     charge density cutoff     =     140.0000  Ry
     convergence threshold     =      1.0E-07
     mixing beta               =       0.7000
     number of iterations used =            8  plain     mixing
     Exchange-correlation      =  SLA  PW   PBX  PBC ( 1  4  3  4 0 0)

     celldm(1)=   7.300000  celldm(2)=   0.000000  celldm(3)=   0.000000
     celldm(4)=   0.000000  celldm(5)=   0.000000  celldm(6)=   0.000000

     crystal axes: (cart. coord. in units of alat)
               a(1) = (  -0.500000   0.000000   0.500000 )  
               a(2) = (   0.000000   0.500000   0.500000 )  
               a(3) = (  -0.500000   0.500000   0.000000 )  

     reciprocal axes: (cart. coord. in units 2 pi/alat)
               b(1) = ( -1.000000 -1.000000  1.000000 )  
               b(2) = (  1.000000  1.000000  1.000000 )  
               b(3) = ( -1.000000  1.000000 -1.000000 )  


     PseudoPot. # 1 for Pd read from file:
     ./pd_pbe_v1.4.uspp.F.UPF
     MD5 check sum: 2d733d2bc2cbfd217af676df1668a4bc
     Pseudo is Ultrasoft + core correction, Zval = 16.0
     Generated by new atomic code, or converted to UPF format
     Using radial grid of  887 points,  6 beta functions with: 
                l(1) =   0
                l(2) =   0
                l(3) =   1
                l(4) =   1
                l(5) =   2
                l(6) =   2
     Q(r) pseudized with  8 coefficients,  rinner =    1.130   1.130   1.130
                                                       1.130   1.130

     atomic species   valence    mass     pseudopotential
        Pd            16.00   106.40000     Pd( 1.00)

     48 Sym. Ops., with inversion, found



   Cartesian axes

     site n.     atom                  positions (alat units)
         1           Pd  tau(   1) = (   0.0000000   0.0000000   0.0000000  )

     number of k points=     8  Marzari-Vanderbilt smearing, width (Ry)=  0.0250
                       cart. coord. in units 2pi/alat
        k(    1) = (   0.0000000   0.0000000   0.0000000), wk =   0.0312500
        k(    2) = (  -0.2500000   0.2500000  -0.2500000), wk =   0.2500000
        k(    3) = (   0.5000000  -0.5000000   0.5000000), wk =   0.1250000
        k(    4) = (   0.0000000   0.5000000   0.0000000), wk =   0.1875000
        k(    5) = (   0.7500000  -0.2500000   0.7500000), wk =   0.7500000
        k(    6) = (   0.5000000   0.0000000   0.5000000), wk =   0.3750000
        k(    7) = (   0.0000000  -1.0000000   0.0000000), wk =   0.0937500
        k(    8) = (  -0.5000000  -1.0000000   0.0000000), wk =   0.1875000

     Dense  grid:     2733 G-vectors     FFT dimensions: (  20,  20,  20)

     Estimated max dynamical RAM per process >       6.17 MB

     Estimated total dynamical RAM >      12.34 MB

     Initial potential from superposition of free atoms
     Check: negative starting charge=   -0.084718

     starting charge   15.49999, renormalised to   16.00000

     negative rho (up, down):  8.745E-02 0.000E+00
     Starting wfcs are   12 randomized atomic wfcs

     total cpu time spent up to now is        0.4 secs

     Self-consistent Calculation

     iteration #  1     ecut=    35.00 Ry     beta= 0.70
     Davidson diagonalization with overlap
     ethr =  1.00E-02,  avg # of iterations =  3.4

     negative rho (up, down):  8.696E-02 0.000E+00

     total cpu time spent up to now is        0.5 secs

     total energy              =    -198.25715819 Ry
     Harris-Foulkes estimate   =    -199.01613402 Ry
     estimated scf accuracy    <       1.05165677 Ry

     iteration #  2     ecut=    35.00 Ry     beta= 0.70
     Davidson diagonalization with overlap
     ethr =  6.57E-03,  avg # of iterations =  2.0

     negative rho (up, down):  8.828E-02 0.000E+00

     total cpu time spent up to now is        0.6 secs

     total energy              =    -198.56687102 Ry
     Harris-Foulkes estimate   =    -198.96017963 Ry
     estimated scf accuracy    <       0.73888164 Ry

     iteration #  3     ecut=    35.00 Ry     beta= 0.70
     Davidson diagonalization with overlap
     ethr =  4.62E-03,  avg # of iterations =  2.1

     negative rho (up, down):  8.842E-02 0.000E+00

     total cpu time spent up to now is        0.6 secs

     total energy              =    -198.71009713 Ry
     Harris-Foulkes estimate   =    -198.71024042 Ry
     estimated scf accuracy    <       0.00029771 Ry

     iteration #  4     ecut=    35.00 Ry     beta= 0.70
     Davidson diagonalization with overlap
     ethr =  1.86E-06,  avg # of iterations =  2.6

     negative rho (up, down):  8.854E-02 0.000E+00

     total cpu time spent up to now is        0.7 secs

     total energy              =    -198.71032512 Ry
     Harris-Foulkes estimate   =    -198.71032417 Ry
     estimated scf accuracy    <       0.00000417 Ry

     iteration #  5     ecut=    35.00 Ry     beta= 0.70
     Davidson diagonalization with overlap
     ethr =  2.61E-08,  avg # of iterations =  2.0

     negative rho (up, down):  8.856E-02 0.000E+00

     total cpu time spent up to now is        0.8 secs

     End of self-consistent calculation

          k = 0.0000 0.0000 0.0000 (   331 PWs)   bands (ev):

   -30.2811 -30.2811 -30.2811  12.0025  16.4598  16.4598  16.4598  18.1473
    18.1473  37.2851  42.1968  42.1968

          k =-0.2500 0.2500-0.2500 (   344 PWs)   bands (ev):

   -30.5079 -30.3132 -30.3132  13.7311  16.4124  16.7650  16.7650  18.3045
    18.3045  34.2400  38.2625  43.6360

          k = 0.5000-0.5000 0.5000 (   344 PWs)   bands (ev):

   -30.7293 -30.3452 -30.3452  13.9013  16.4090  16.4090  19.4069  19.4069
    20.3043  26.9109  36.5079  41.3028

          k = 0.0000 0.5000 0.0000 (   343 PWs)   bands (ev):

   -30.4987 -30.3652 -30.3652  14.2421  15.1696  17.5086  17.7998  17.7998
    18.7376  37.9496  37.9496  38.0993

          k = 0.7500-0.2500 0.7500 (   346 PWs)   bands (ev):

   -30.6539 -30.4620 -30.3971  14.6017  15.4083  16.9514  17.7479  19.5004
    23.1602  28.8338  34.4035  36.7056

          k = 0.5000 0.0000 0.5000 (   339 PWs)   bands (ev):

   -30.6031 -30.4716 -30.3453  15.3658  15.8155  16.2108  17.4585  18.0977
    21.7853  32.2889  32.5570  39.5936

          k = 0.0000-1.0000 0.0000 (   342 PWs)   bands (ev):

   -30.7050 -30.4485 -30.4485  13.7939  14.1007  19.3798  19.7356  19.7356
    22.7088  30.4161  32.9155  32.9155

          k =-0.5000-1.0000 0.0000 (   328 PWs)   bands (ev):

   -30.5769 -30.5769 -30.4511  14.8999  15.8898  15.8898  18.0468  19.7413
    28.4610  28.4610  30.0612  31.2268

     the Fermi energy is    19.6688 ev

!    total energy              =    -198.71032568 Ry
     Harris-Foulkes estimate   =    -198.71032567 Ry
     estimated scf accuracy    <       0.00000008 Ry

     The total energy is the sum of the following terms:

     one-electron contribution =     -41.47748754 Ry
     hartree contribution      =      34.96449522 Ry
     xc contribution           =     -31.41047316 Ry
     ewald contribution        =    -160.78420429 Ry
     smearing contrib. (-TS)   =      -0.00265591 Ry

     convergence has been achieved in   5 iterations

     Writing output data file Pd-kp-conv.save/
 
     init_run     :      0.30s CPU      0.33s WALL (       1 calls)
     electrons    :      0.35s CPU      0.40s WALL (       1 calls)

     Called by init_run:
     wfcinit      :      0.02s CPU      0.03s WALL (       1 calls)
     potinit      :      0.00s CPU      0.01s WALL (       1 calls)
     hinit0       :      0.27s CPU      0.27s WALL (       1 calls)

     Called by electrons:
     c_bands      :      0.24s CPU      0.27s WALL (       5 calls)
     sum_band     :      0.06s CPU      0.07s WALL (       5 calls)
     v_of_rho     :      0.02s CPU      0.02s WALL (       6 calls)
     newd         :      0.03s CPU      0.03s WALL (       6 calls)
     mix_rho      :      0.00s CPU      0.00s WALL (       5 calls)

     Called by c_bands:
     init_us_2    :      0.01s CPU      0.01s WALL (      88 calls)
     cegterg      :      0.23s CPU      0.25s WALL (      40 calls)

     Called by sum_band:
     sum_band:bec :      0.00s CPU      0.00s WALL (      40 calls)
     addusdens    :      0.03s CPU      0.03s WALL (       5 calls)

     Called by *egterg:
     h_psi        :      0.17s CPU      0.19s WALL (     145 calls)
     s_psi        :      0.00s CPU      0.00s WALL (     145 calls)
     g_psi        :      0.00s CPU      0.00s WALL (      97 calls)
     cdiaghg      :      0.04s CPU      0.04s WALL (     137 calls)

     Called by h_psi:
     h_psi:pot    :      0.17s CPU      0.19s WALL (     145 calls)
     h_psi:calbec :      0.01s CPU      0.01s WALL (     145 calls)
     vloc_psi     :      0.15s CPU      0.17s WALL (     145 calls)
     add_vuspsi   :      0.00s CPU      0.01s WALL (     145 calls)

     General routines
     calbec       :      0.01s CPU      0.01s WALL (     185 calls)
     fft          :      0.01s CPU      0.01s WALL (      67 calls)
     ffts         :      0.00s CPU      0.00s WALL (       5 calls)
     fftw         :      0.16s CPU      0.18s WALL (    3160 calls)
 
     Parallel routines
     fft_scatt_xy :      0.03s CPU      0.03s WALL (    3232 calls)
     fft_scatt_yz :      0.05s CPU      0.06s WALL (    3232 calls)
 
     PWSCF        :     0.71s CPU         0.89s WALL

 
   This run was terminated on:  21:58:59   2Dec2021            

=------------------------------------------------------------------------------=
   JOB DONE.
=------------------------------------------------------------------------------=
