   5
  -5282.64464070656     
 C    -0.10132087     1.20557819    -0.78721508
 H    -1.00894002     1.76667358    -0.61980055
 F     1.01997699     1.92217232    -0.59094568
Br    -0.17271910    -1.85567290     4.37259243
Br    -0.06729101     0.12663081    -2.37463113
