
     Program PWSCF v.6.3 starts on  2Dec2021 at 23:10: 1 

     This program is part of the open-source Quantum ESPRESSO suite
     for quantum simulation of materials; please cite
         "P. Giannozzi et al., J. Phys.:Condens. Matter 21 395502 (2009);
         "P. Giannozzi et al., J. Phys.:Condens. Matter 29 465901 (2017);
          URL http://www.quantum-espresso.org", 
     in publications or presentations arising from this work. More details at
     http://www.quantum-espresso.org/quote

     Parallel version (MPI & OpenMP), running on       2 processor cores
     Number of MPI processes:                 2
     Threads/MPI process:                     1

     MPI processes distributed on     1 nodes
     R & G space division:  proc/nbgrp/npool/nimage =       2
     Reading input from pw-input.in

     Current dimensions of program PWSCF are:
     Max number of different atomic species (ntypx) = 10
     Max number of k-points (npk) =  40000
     Max angular momentum in pseudopotentials (lmaxx) =  3

     Subspace diagonalization in iterative solution of the eigenvalue problem:
     a serial algorithm will be used

 
     Parallelization info
     --------------------
     sticks:   dense  smooth     PW     G-vecs:    dense   smooth      PW
     Min         111     111     36                 1066     1066     205
     Max         112     112     37                 1067     1067     206
     Sum         223     223     73                 2133     2133     411
 

     Title: 
     Pd-kp-conv                                                                 


     bravais-lattice index     =            2
     lattice parameter (alat)  =       6.8000  a.u.
     unit-cell volume          =      78.6080 (a.u.)^3
     number of atoms/cell      =            1
     number of atomic types    =            1
     number of electrons       =        16.00
     number of Kohn-Sham states=           12
     kinetic-energy cutoff     =      35.0000  Ry
     charge density cutoff     =     140.0000  Ry
     convergence threshold     =      1.0E-07
     mixing beta               =       0.7000
     number of iterations used =            8  plain     mixing
     Exchange-correlation      =  SLA  PW   PBX  PBC ( 1  4  3  4 0 0)

     celldm(1)=   6.800000  celldm(2)=   0.000000  celldm(3)=   0.000000
     celldm(4)=   0.000000  celldm(5)=   0.000000  celldm(6)=   0.000000

     crystal axes: (cart. coord. in units of alat)
               a(1) = (  -0.500000   0.000000   0.500000 )  
               a(2) = (   0.000000   0.500000   0.500000 )  
               a(3) = (  -0.500000   0.500000   0.000000 )  

     reciprocal axes: (cart. coord. in units 2 pi/alat)
               b(1) = ( -1.000000 -1.000000  1.000000 )  
               b(2) = (  1.000000  1.000000  1.000000 )  
               b(3) = ( -1.000000  1.000000 -1.000000 )  


     PseudoPot. # 1 for Pd read from file:
     ./pd_pbe_v1.4.uspp.F.UPF
     MD5 check sum: 2d733d2bc2cbfd217af676df1668a4bc
     Pseudo is Ultrasoft + core correction, Zval = 16.0
     Generated by new atomic code, or converted to UPF format
     Using radial grid of  887 points,  6 beta functions with: 
                l(1) =   0
                l(2) =   0
                l(3) =   1
                l(4) =   1
                l(5) =   2
                l(6) =   2
     Q(r) pseudized with  8 coefficients,  rinner =    1.130   1.130   1.130
                                                       1.130   1.130

     atomic species   valence    mass     pseudopotential
        Pd            16.00   106.40000     Pd( 1.00)

     48 Sym. Ops., with inversion, found



   Cartesian axes

     site n.     atom                  positions (alat units)
         1           Pd  tau(   1) = (   0.0000000   0.0000000   0.0000000  )

     number of k points=     4  Marzari-Vanderbilt smearing, width (Ry)=  0.0400
                       cart. coord. in units 2pi/alat
        k(    1) = (   0.0000000   0.0000000   0.0000000), wk =   0.0740741
        k(    2) = (  -0.3333333   0.3333333  -0.3333333), wk =   0.5925926
        k(    3) = (   0.0000000   0.6666667   0.0000000), wk =   0.4444444
        k(    4) = (   0.6666667  -0.0000000   0.6666667), wk =   0.8888889

     Dense  grid:     2133 G-vectors     FFT dimensions: (  20,  20,  20)

     Estimated max dynamical RAM per process >       4.95 MB

     Estimated total dynamical RAM >       9.91 MB

     Initial potential from superposition of free atoms
     Check: negative starting charge=   -0.081587

     starting charge   15.49999, renormalised to   16.00000

     negative rho (up, down):  8.422E-02 0.000E+00
     Starting wfcs are   12 randomized atomic wfcs

     total cpu time spent up to now is        0.4 secs

     Self-consistent Calculation

     iteration #  1     ecut=    35.00 Ry     beta= 0.70
     Davidson diagonalization with overlap
     ethr =  1.00E-02,  avg # of iterations =  3.2

     negative rho (up, down):  8.520E-02 0.000E+00

     total cpu time spent up to now is        0.5 secs

     total energy              =    -198.27469197 Ry
     Harris-Foulkes estimate   =    -198.82022093 Ry
     estimated scf accuracy    <       0.77392233 Ry

     iteration #  2     ecut=    35.00 Ry     beta= 0.70
     Davidson diagonalization with overlap
     ethr =  4.84E-03,  avg # of iterations =  2.0

     negative rho (up, down):  8.637E-02 0.000E+00

     total cpu time spent up to now is        0.5 secs

     total energy              =    -198.46206137 Ry
     Harris-Foulkes estimate   =    -198.68595819 Ry
     estimated scf accuracy    <       0.40454155 Ry

     iteration #  3     ecut=    35.00 Ry     beta= 0.70
     Davidson diagonalization with overlap
     ethr =  2.53E-03,  avg # of iterations =  2.5

     negative rho (up, down):  8.740E-02 0.000E+00

     total cpu time spent up to now is        0.6 secs

     total energy              =    -198.55401208 Ry
     Harris-Foulkes estimate   =    -198.55699513 Ry
     estimated scf accuracy    <       0.00545621 Ry

     iteration #  4     ecut=    35.00 Ry     beta= 0.70
     Davidson diagonalization with overlap
     ethr =  3.41E-05,  avg # of iterations =  2.0

     negative rho (up, down):  8.730E-02 0.000E+00

     total cpu time spent up to now is        0.6 secs

     total energy              =    -198.55566030 Ry
     Harris-Foulkes estimate   =    -198.55652522 Ry
     estimated scf accuracy    <       0.00259856 Ry

     iteration #  5     ecut=    35.00 Ry     beta= 0.70
     Davidson diagonalization with overlap
     ethr =  1.62E-05,  avg # of iterations =  1.0

     negative rho (up, down):  8.733E-02 0.000E+00

     total cpu time spent up to now is        0.7 secs

     total energy              =    -198.55586327 Ry
     Harris-Foulkes estimate   =    -198.55591325 Ry
     estimated scf accuracy    <       0.00014272 Ry

     iteration #  6     ecut=    35.00 Ry     beta= 0.70
     Davidson diagonalization with overlap
     ethr =  8.92E-07,  avg # of iterations =  1.5

     negative rho (up, down):  8.735E-02 0.000E+00

     total cpu time spent up to now is        0.7 secs

     total energy              =    -198.55587906 Ry
     Harris-Foulkes estimate   =    -198.55588096 Ry
     estimated scf accuracy    <       0.00000370 Ry

     iteration #  7     ecut=    35.00 Ry     beta= 0.70
     Davidson diagonalization with overlap
     ethr =  2.32E-08,  avg # of iterations =  2.0

     negative rho (up, down):  8.735E-02 0.000E+00

     total cpu time spent up to now is        0.7 secs

     total energy              =    -198.55588004 Ry
     Harris-Foulkes estimate   =    -198.55588033 Ry
     estimated scf accuracy    <       0.00000084 Ry

     iteration #  8     ecut=    35.00 Ry     beta= 0.70
     Davidson diagonalization with overlap
     ethr =  5.22E-09,  avg # of iterations =  1.0

     negative rho (up, down):  8.735E-02 0.000E+00

     total cpu time spent up to now is        0.8 secs

     End of self-consistent calculation

          k = 0.0000 0.0000 0.0000 (   283 PWs)   bands (ev):

   -24.8621 -24.8621 -24.8621  16.4633  21.3649  21.3649  21.3649  23.6813
    23.6813  43.7541  49.9821  49.9821

          k =-0.3333 0.3333-0.3333 (   281 PWs)   bands (ev):

   -25.5715 -24.9586 -24.9586  18.3785  21.5541  21.5541  22.9924  24.5635
    24.5635  39.2979  44.3485  52.3814

          k = 0.0000 0.6667 0.0000 (   274 PWs)   bands (ev):

   -25.5347 -25.1195 -25.1195  18.5699  18.8302  24.4109  24.4109  24.8291
    24.9467  43.7473  43.7473  43.9891

          k = 0.6667-0.0000 0.6667 (   268 PWs)   bands (ev):

   -25.4958 -25.4898 -25.0872  19.1697  20.2959  21.6575  23.4207  24.7840
    32.7811  36.4159  38.9026  46.3429

     the Fermi energy is    24.8963 ev

!    total energy              =    -198.55588013 Ry
     Harris-Foulkes estimate   =    -198.55588014 Ry
     estimated scf accuracy    <       0.00000001 Ry

     The total energy is the sum of the following terms:

     one-electron contribution =     -23.50704658 Ry
     hartree contribution      =      29.15720981 Ry
     xc contribution           =     -31.58962343 Ry
     ewald contribution        =    -172.60657228 Ry
     smearing contrib. (-TS)   =      -0.00984765 Ry

     convergence has been achieved in   8 iterations

     Writing output data file Pd-kp-conv.save/
 
     init_run     :      0.32s CPU      0.33s WALL (       1 calls)
     electrons    :      0.32s CPU      0.37s WALL (       1 calls)

     Called by init_run:
     wfcinit      :      0.01s CPU      0.01s WALL (       1 calls)
     potinit      :      0.01s CPU      0.01s WALL (       1 calls)
     hinit0       :      0.30s CPU      0.30s WALL (       1 calls)

     Called by electrons:
     c_bands      :      0.19s CPU      0.20s WALL (       8 calls)
     sum_band     :      0.08s CPU      0.08s WALL (       8 calls)
     v_of_rho     :      0.02s CPU      0.03s WALL (       9 calls)
     newd         :      0.04s CPU      0.04s WALL (       9 calls)
     mix_rho      :      0.00s CPU      0.00s WALL (       8 calls)

     Called by c_bands:
     init_us_2    :      0.00s CPU      0.01s WALL (      68 calls)
     cegterg      :      0.17s CPU      0.19s WALL (      32 calls)

     Called by sum_band:
     sum_band:bec :      0.00s CPU      0.00s WALL (      32 calls)
     addusdens    :      0.04s CPU      0.04s WALL (       8 calls)

     Called by *egterg:
     h_psi        :      0.14s CPU      0.15s WALL (      97 calls)
     s_psi        :      0.00s CPU      0.00s WALL (      97 calls)
     g_psi        :      0.00s CPU      0.00s WALL (      61 calls)
     cdiaghg      :      0.02s CPU      0.03s WALL (      93 calls)

     Called by h_psi:
     h_psi:pot    :      0.14s CPU      0.15s WALL (      97 calls)
     h_psi:calbec :      0.00s CPU      0.00s WALL (      97 calls)
     vloc_psi     :      0.13s CPU      0.14s WALL (      97 calls)
     add_vuspsi   :      0.00s CPU      0.00s WALL (      97 calls)

     General routines
     calbec       :      0.00s CPU      0.01s WALL (     129 calls)
     fft          :      0.01s CPU      0.01s WALL (     100 calls)
     ffts         :      0.00s CPU      0.00s WALL (       8 calls)
     fftw         :      0.14s CPU      0.15s WALL (    2262 calls)
 
     Parallel routines
     fft_scatt_xy :      0.03s CPU      0.03s WALL (    2370 calls)
     fft_scatt_yz :      0.04s CPU      0.04s WALL (    2370 calls)
 
     PWSCF        :     0.73s CPU         0.85s WALL

 
   This run was terminated on:  23:10: 2   2Dec2021            

=------------------------------------------------------------------------------=
   JOB DONE.
=------------------------------------------------------------------------------=
