
     Program PWSCF v.6.3 starts on  2Dec2021 at 23:10:10 

     This program is part of the open-source Quantum ESPRESSO suite
     for quantum simulation of materials; please cite
         "P. Giannozzi et al., J. Phys.:Condens. Matter 21 395502 (2009);
         "P. Giannozzi et al., J. Phys.:Condens. Matter 29 465901 (2017);
          URL http://www.quantum-espresso.org", 
     in publications or presentations arising from this work. More details at
     http://www.quantum-espresso.org/quote

     Parallel version (MPI & OpenMP), running on       2 processor cores
     Number of MPI processes:                 2
     Threads/MPI process:                     1

     MPI processes distributed on     1 nodes
     R & G space division:  proc/nbgrp/npool/nimage =       2
     Reading input from pw-input.in

     Current dimensions of program PWSCF are:
     Max number of different atomic species (ntypx) = 10
     Max number of k-points (npk) =  40000
     Max angular momentum in pseudopotentials (lmaxx) =  3

     Subspace diagonalization in iterative solution of the eigenvalue problem:
     a serial algorithm will be used

 
     Parallelization info
     --------------------
     sticks:   dense  smooth     PW     G-vecs:    dense   smooth      PW
     Min         126     126     42                 1365     1365     264
     Max         127     127     43                 1368     1368     267
     Sum         253     253     85                 2733     2733     531
 

     Title: 
     Pd-kp-conv                                                                 


     bravais-lattice index     =            2
     lattice parameter (alat)  =       7.3000  a.u.
     unit-cell volume          =      97.2542 (a.u.)^3
     number of atoms/cell      =            1
     number of atomic types    =            1
     number of electrons       =        16.00
     number of Kohn-Sham states=           12
     kinetic-energy cutoff     =      35.0000  Ry
     charge density cutoff     =     140.0000  Ry
     convergence threshold     =      1.0E-07
     mixing beta               =       0.7000
     number of iterations used =            8  plain     mixing
     Exchange-correlation      =  SLA  PW   PBX  PBC ( 1  4  3  4 0 0)

     celldm(1)=   7.300000  celldm(2)=   0.000000  celldm(3)=   0.000000
     celldm(4)=   0.000000  celldm(5)=   0.000000  celldm(6)=   0.000000

     crystal axes: (cart. coord. in units of alat)
               a(1) = (  -0.500000   0.000000   0.500000 )  
               a(2) = (   0.000000   0.500000   0.500000 )  
               a(3) = (  -0.500000   0.500000   0.000000 )  

     reciprocal axes: (cart. coord. in units 2 pi/alat)
               b(1) = ( -1.000000 -1.000000  1.000000 )  
               b(2) = (  1.000000  1.000000  1.000000 )  
               b(3) = ( -1.000000  1.000000 -1.000000 )  


     PseudoPot. # 1 for Pd read from file:
     ./pd_pbe_v1.4.uspp.F.UPF
     MD5 check sum: 2d733d2bc2cbfd217af676df1668a4bc
     Pseudo is Ultrasoft + core correction, Zval = 16.0
     Generated by new atomic code, or converted to UPF format
     Using radial grid of  887 points,  6 beta functions with: 
                l(1) =   0
                l(2) =   0
                l(3) =   1
                l(4) =   1
                l(5) =   2
                l(6) =   2
     Q(r) pseudized with  8 coefficients,  rinner =    1.130   1.130   1.130
                                                       1.130   1.130

     atomic species   valence    mass     pseudopotential
        Pd            16.00   106.40000     Pd( 1.00)

     48 Sym. Ops., with inversion, found



   Cartesian axes

     site n.     atom                  positions (alat units)
         1           Pd  tau(   1) = (   0.0000000   0.0000000   0.0000000  )

     number of k points=     4  Marzari-Vanderbilt smearing, width (Ry)=  0.0400
                       cart. coord. in units 2pi/alat
        k(    1) = (   0.0000000   0.0000000   0.0000000), wk =   0.0740741
        k(    2) = (  -0.3333333   0.3333333  -0.3333333), wk =   0.5925926
        k(    3) = (   0.0000000   0.6666667   0.0000000), wk =   0.4444444
        k(    4) = (   0.6666667  -0.0000000   0.6666667), wk =   0.8888889

     Dense  grid:     2733 G-vectors     FFT dimensions: (  20,  20,  20)

     Estimated max dynamical RAM per process >       6.04 MB

     Estimated total dynamical RAM >      12.09 MB

     Initial potential from superposition of free atoms
     Check: negative starting charge=   -0.084718

     starting charge   15.49999, renormalised to   16.00000

     negative rho (up, down):  8.745E-02 0.000E+00
     Starting wfcs are   12 randomized atomic wfcs

     total cpu time spent up to now is        0.5 secs

     Self-consistent Calculation

     iteration #  1     ecut=    35.00 Ry     beta= 0.70
     Davidson diagonalization with overlap
     ethr =  1.00E-02,  avg # of iterations =  4.0

     negative rho (up, down):  8.721E-02 0.000E+00

     total cpu time spent up to now is        0.5 secs

     total energy              =    -198.19835295 Ry
     Harris-Foulkes estimate   =    -198.97914246 Ry
     estimated scf accuracy    <       1.08468540 Ry

     iteration #  2     ecut=    35.00 Ry     beta= 0.70
     Davidson diagonalization with overlap
     ethr =  6.78E-03,  avg # of iterations =  2.0

     negative rho (up, down):  8.829E-02 0.000E+00

     total cpu time spent up to now is        0.6 secs

     total energy              =    -198.37566242 Ry
     Harris-Foulkes estimate   =    -198.93064137 Ry
     estimated scf accuracy    <       1.13514824 Ry

     iteration #  3     ecut=    35.00 Ry     beta= 0.70
     Davidson diagonalization with overlap
     ethr =  6.78E-03,  avg # of iterations =  2.0

     negative rho (up, down):  8.934E-02 0.000E+00

     total cpu time spent up to now is        0.6 secs

     total energy              =    -198.62906775 Ry
     Harris-Foulkes estimate   =    -198.64376172 Ry
     estimated scf accuracy    <       0.02399048 Ry

     iteration #  4     ecut=    35.00 Ry     beta= 0.70
     Davidson diagonalization with overlap
     ethr =  1.50E-04,  avg # of iterations =  2.0

     negative rho (up, down):  8.928E-02 0.000E+00

     total cpu time spent up to now is        0.7 secs

     total energy              =    -198.64013637 Ry
     Harris-Foulkes estimate   =    -198.64254450 Ry
     estimated scf accuracy    <       0.01508687 Ry

     iteration #  5     ecut=    35.00 Ry     beta= 0.70
     Davidson diagonalization with overlap
     ethr =  9.43E-05,  avg # of iterations =  1.0

     negative rho (up, down):  8.905E-02 0.000E+00

     total cpu time spent up to now is        0.7 secs

     total energy              =    -198.63701485 Ry
     Harris-Foulkes estimate   =    -198.64039058 Ry
     estimated scf accuracy    <       0.00720556 Ry

     iteration #  6     ecut=    35.00 Ry     beta= 0.70
     Davidson diagonalization with overlap
     ethr =  4.50E-05,  avg # of iterations =  2.0

     negative rho (up, down):  8.911E-02 0.000E+00

     total cpu time spent up to now is        0.8 secs

     total energy              =    -198.63856215 Ry
     Harris-Foulkes estimate   =    -198.63862500 Ry
     estimated scf accuracy    <       0.00019873 Ry

     iteration #  7     ecut=    35.00 Ry     beta= 0.70
     Davidson diagonalization with overlap
     ethr =  1.24E-06,  avg # of iterations =  1.2

     negative rho (up, down):  8.922E-02 0.000E+00

     total cpu time spent up to now is        0.8 secs

     total energy              =    -198.63857477 Ry
     Harris-Foulkes estimate   =    -198.63858266 Ry
     estimated scf accuracy    <       0.00001230 Ry

     iteration #  8     ecut=    35.00 Ry     beta= 0.70
     Davidson diagonalization with overlap
     ethr =  7.69E-08,  avg # of iterations =  2.0

     negative rho (up, down):  8.921E-02 0.000E+00

     total cpu time spent up to now is        0.8 secs

     total energy              =    -198.63857833 Ry
     Harris-Foulkes estimate   =    -198.63858273 Ry
     estimated scf accuracy    <       0.00001035 Ry

     iteration #  9     ecut=    35.00 Ry     beta= 0.70
     Davidson diagonalization with overlap
     ethr =  6.47E-08,  avg # of iterations =  2.0

     negative rho (up, down):  8.921E-02 0.000E+00

     total cpu time spent up to now is        0.9 secs

     End of self-consistent calculation

          k = 0.0000 0.0000 0.0000 (   331 PWs)   bands (ev):

   -30.5647 -30.5647 -30.5647  11.9726  16.2767  16.2767  16.2767  17.9197
    17.9197  37.2775  42.1738  42.1738

          k =-0.3333 0.3333-0.3333 (   344 PWs)   bands (ev):

   -30.8982 -30.6123 -30.6123  13.9044  16.4288  16.4288  17.4768  18.5572
    18.5572  31.0042  37.4570  42.8599

          k = 0.0000 0.6667 0.0000 (   335 PWs)   bands (ev):

   -30.8821 -30.6888 -30.6888  14.1776  14.4581  18.4517  18.4517  18.8116
    18.8965  35.4072  35.4072  35.5044

          k = 0.6667-0.0000 0.6667 (   347 PWs)   bands (ev):

   -30.8649 -30.8627 -30.6745  14.7073  15.4803  16.4696  17.7746  18.7101
    25.4104  28.4287  30.5690  37.4687

     the Fermi energy is    18.8633 ev

!    total energy              =    -198.63858020 Ry
     Harris-Foulkes estimate   =    -198.63858021 Ry
     estimated scf accuracy    <       0.00000002 Ry

     The total energy is the sum of the following terms:

     one-electron contribution =     -41.17700816 Ry
     hartree contribution      =      34.69777595 Ry
     xc contribution           =     -31.36699559 Ry
     ewald contribution        =    -160.78420429 Ry
     smearing contrib. (-TS)   =      -0.00814811 Ry

     convergence has been achieved in   9 iterations

     Writing output data file Pd-kp-conv.save/
 
     init_run     :      0.33s CPU      0.36s WALL (       1 calls)
     electrons    :      0.39s CPU      0.43s WALL (       1 calls)

     Called by init_run:
     wfcinit      :      0.01s CPU      0.02s WALL (       1 calls)
     potinit      :      0.00s CPU      0.02s WALL (       1 calls)
     hinit0       :      0.31s CPU      0.31s WALL (       1 calls)

     Called by electrons:
     c_bands      :      0.22s CPU      0.24s WALL (       9 calls)
     sum_band     :      0.10s CPU      0.10s WALL (       9 calls)
     v_of_rho     :      0.03s CPU      0.03s WALL (      10 calls)
     newd         :      0.05s CPU      0.06s WALL (      10 calls)
     mix_rho      :      0.00s CPU      0.00s WALL (       9 calls)

     Called by c_bands:
     init_us_2    :      0.01s CPU      0.01s WALL (      76 calls)
     cegterg      :      0.20s CPU      0.22s WALL (      36 calls)

     Called by sum_band:
     sum_band:bec :      0.00s CPU      0.00s WALL (      36 calls)
     addusdens    :      0.05s CPU      0.06s WALL (       9 calls)

     Called by *egterg:
     h_psi        :      0.16s CPU      0.17s WALL (     113 calls)
     s_psi        :      0.00s CPU      0.00s WALL (     113 calls)
     g_psi        :      0.00s CPU      0.00s WALL (      73 calls)
     cdiaghg      :      0.03s CPU      0.03s WALL (     109 calls)

     Called by h_psi:
     h_psi:pot    :      0.16s CPU      0.17s WALL (     113 calls)
     h_psi:calbec :      0.00s CPU      0.01s WALL (     113 calls)
     vloc_psi     :      0.15s CPU      0.16s WALL (     113 calls)
     add_vuspsi   :      0.00s CPU      0.00s WALL (     113 calls)

     General routines
     calbec       :      0.00s CPU      0.01s WALL (     149 calls)
     fft          :      0.01s CPU      0.01s WALL (     111 calls)
     ffts         :      0.00s CPU      0.00s WALL (       9 calls)
     fftw         :      0.16s CPU      0.17s WALL (    2562 calls)
 
     Parallel routines
     fft_scatt_xy :      0.03s CPU      0.03s WALL (    2682 calls)
     fft_scatt_yz :      0.04s CPU      0.05s WALL (    2682 calls)
 
     PWSCF        :     0.81s CPU         0.97s WALL

 
   This run was terminated on:  23:10:11   2Dec2021            

=------------------------------------------------------------------------------=
   JOB DONE.
=------------------------------------------------------------------------------=
