
     Program PWSCF v.6.3 starts on  2Dec2021 at 23:10:22 

     This program is part of the open-source Quantum ESPRESSO suite
     for quantum simulation of materials; please cite
         "P. Giannozzi et al., J. Phys.:Condens. Matter 21 395502 (2009);
         "P. Giannozzi et al., J. Phys.:Condens. Matter 29 465901 (2017);
          URL http://www.quantum-espresso.org", 
     in publications or presentations arising from this work. More details at
     http://www.quantum-espresso.org/quote

     Parallel version (MPI & OpenMP), running on       2 processor cores
     Number of MPI processes:                 2
     Threads/MPI process:                     1

     MPI processes distributed on     1 nodes
     R & G space division:  proc/nbgrp/npool/nimage =       2
     Reading input from pw-input.in

     Current dimensions of program PWSCF are:
     Max number of different atomic species (ntypx) = 10
     Max number of k-points (npk) =  40000
     Max angular momentum in pseudopotentials (lmaxx) =  3

     Subspace diagonalization in iterative solution of the eigenvalue problem:
     a serial algorithm will be used

 
     Parallelization info
     --------------------
     sticks:   dense  smooth     PW     G-vecs:    dense   smooth      PW
     Min         150     150     45                 1738     1738     304
     Max         151     151     46                 1741     1741     305
     Sum         301     301     91                 3479     3479     609
 

     Title: 
     Pd-kp-conv                                                                 


     bravais-lattice index     =            2
     lattice parameter (alat)  =       7.9000  a.u.
     unit-cell volume          =     123.2598 (a.u.)^3
     number of atoms/cell      =            1
     number of atomic types    =            1
     number of electrons       =        16.00
     number of Kohn-Sham states=           12
     kinetic-energy cutoff     =      35.0000  Ry
     charge density cutoff     =     140.0000  Ry
     convergence threshold     =      1.0E-07
     mixing beta               =       0.7000
     number of iterations used =            8  plain     mixing
     Exchange-correlation      =  SLA  PW   PBX  PBC ( 1  4  3  4 0 0)

     celldm(1)=   7.900000  celldm(2)=   0.000000  celldm(3)=   0.000000
     celldm(4)=   0.000000  celldm(5)=   0.000000  celldm(6)=   0.000000

     crystal axes: (cart. coord. in units of alat)
               a(1) = (  -0.500000   0.000000   0.500000 )  
               a(2) = (   0.000000   0.500000   0.500000 )  
               a(3) = (  -0.500000   0.500000   0.000000 )  

     reciprocal axes: (cart. coord. in units 2 pi/alat)
               b(1) = ( -1.000000 -1.000000  1.000000 )  
               b(2) = (  1.000000  1.000000  1.000000 )  
               b(3) = ( -1.000000  1.000000 -1.000000 )  


     PseudoPot. # 1 for Pd read from file:
     ./pd_pbe_v1.4.uspp.F.UPF
     MD5 check sum: 2d733d2bc2cbfd217af676df1668a4bc
     Pseudo is Ultrasoft + core correction, Zval = 16.0
     Generated by new atomic code, or converted to UPF format
     Using radial grid of  887 points,  6 beta functions with: 
                l(1) =   0
                l(2) =   0
                l(3) =   1
                l(4) =   1
                l(5) =   2
                l(6) =   2
     Q(r) pseudized with  8 coefficients,  rinner =    1.130   1.130   1.130
                                                       1.130   1.130

     atomic species   valence    mass     pseudopotential
        Pd            16.00   106.40000     Pd( 1.00)

     48 Sym. Ops., with inversion, found



   Cartesian axes

     site n.     atom                  positions (alat units)
         1           Pd  tau(   1) = (   0.0000000   0.0000000   0.0000000  )

     number of k points=     4  Marzari-Vanderbilt smearing, width (Ry)=  0.0400
                       cart. coord. in units 2pi/alat
        k(    1) = (   0.0000000   0.0000000   0.0000000), wk =   0.0740741
        k(    2) = (  -0.3333333   0.3333333  -0.3333333), wk =   0.5925926
        k(    3) = (   0.0000000   0.6666667   0.0000000), wk =   0.4444444
        k(    4) = (   0.6666667  -0.0000000   0.6666667), wk =   0.8888889

     Dense  grid:     3479 G-vectors     FFT dimensions: (  24,  24,  24)

     Estimated max dynamical RAM per process >       7.62 MB

     Estimated total dynamical RAM >      15.23 MB

     Initial potential from superposition of free atoms
     Check: negative starting charge=   -0.079301

     starting charge   15.49999, renormalised to   16.00000

     negative rho (up, down):  8.186E-02 0.000E+00
     Starting wfcs are   12 randomized atomic wfcs

     total cpu time spent up to now is        0.5 secs

     Self-consistent Calculation

     iteration #  1     ecut=    35.00 Ry     beta= 0.70
     Davidson diagonalization with overlap
     ethr =  1.00E-02,  avg # of iterations =  4.0

     negative rho (up, down):  8.011E-02 0.000E+00

     total cpu time spent up to now is        0.6 secs

     total energy              =    -197.98587543 Ry
     Harris-Foulkes estimate   =    -199.04830754 Ry
     estimated scf accuracy    <       1.45008596 Ry

     iteration #  2     ecut=    35.00 Ry     beta= 0.70
     Davidson diagonalization with overlap
     ethr =  9.06E-03,  avg # of iterations =  2.0

     negative rho (up, down):  8.164E-02 0.000E+00

     total cpu time spent up to now is        0.7 secs

     total energy              =    -198.30320115 Ry
     Harris-Foulkes estimate   =    -199.20365602 Ry
     estimated scf accuracy    <       1.90559102 Ry

     iteration #  3     ecut=    35.00 Ry     beta= 0.70
     Davidson diagonalization with overlap
     ethr =  9.06E-03,  avg # of iterations =  2.0

     negative rho (up, down):  8.191E-02 0.000E+00

     total cpu time spent up to now is        0.7 secs

     total energy              =    -198.63895218 Ry
     Harris-Foulkes estimate   =    -198.64221499 Ry
     estimated scf accuracy    <       0.00686968 Ry

     iteration #  4     ecut=    35.00 Ry     beta= 0.70
     Davidson diagonalization with overlap
     ethr =  4.29E-05,  avg # of iterations =  2.2

     negative rho (up, down):  8.207E-02 0.000E+00

     total cpu time spent up to now is        0.8 secs

     total energy              =    -198.64086734 Ry
     Harris-Foulkes estimate   =    -198.64102322 Ry
     estimated scf accuracy    <       0.00030540 Ry

     iteration #  5     ecut=    35.00 Ry     beta= 0.70
     Davidson diagonalization with overlap
     ethr =  1.91E-06,  avg # of iterations =  2.0

     negative rho (up, down):  8.209E-02 0.000E+00

     total cpu time spent up to now is        0.8 secs

     total energy              =    -198.64094495 Ry
     Harris-Foulkes estimate   =    -198.64096425 Ry
     estimated scf accuracy    <       0.00004059 Ry

     iteration #  6     ecut=    35.00 Ry     beta= 0.70
     Davidson diagonalization with overlap
     ethr =  2.54E-07,  avg # of iterations =  2.0

     negative rho (up, down):  8.209E-02 0.000E+00

     total cpu time spent up to now is        0.9 secs

     total energy              =    -198.64095408 Ry
     Harris-Foulkes estimate   =    -198.64095461 Ry
     estimated scf accuracy    <       0.00000119 Ry

     iteration #  7     ecut=    35.00 Ry     beta= 0.70
     Davidson diagonalization with overlap
     ethr =  7.41E-09,  avg # of iterations =  2.0

     negative rho (up, down):  8.209E-02 0.000E+00

     total cpu time spent up to now is        1.0 secs

     End of self-consistent calculation

          k = 0.0000 0.0000 0.0000 (   411 PWs)   bands (ev):

   -35.5679 -35.5679 -35.5679   8.1712  11.6874  11.6874  11.6874  12.7960
    12.7960  31.1576  34.6738  34.6738

          k =-0.3333 0.3333-0.3333 (   425 PWs)   bands (ev):

   -35.7047 -35.5886 -35.5886   9.9320  11.8021  11.8021  12.6907  13.2322
    13.2322  23.5955  31.0971  34.0856

          k = 0.0000 0.6667 0.0000 (   432 PWs)   bands (ev):

   -35.6988 -35.6205 -35.6205  10.2216  10.4508  13.1649  13.1649  13.3952
    13.7637  27.6944  27.8982  27.8982

          k = 0.6667-0.0000 0.6667 (   431 PWs)   bands (ev):

   -35.6919 -35.6916 -35.6150  10.6270  11.1815  11.8502  12.7280  13.3317
    18.9539  21.5301  23.1532  29.5023

     the Fermi energy is    13.5196 ev

!    total energy              =    -198.64095433 Ry
     Harris-Foulkes estimate   =    -198.64095434 Ry
     estimated scf accuracy    <       0.00000001 Ry

     The total energy is the sum of the following terms:

     one-electron contribution =     -60.09889469 Ry
     hartree contribution      =      41.24891605 Ry
     xc contribution           =     -31.21608996 Ry
     ewald contribution        =    -148.57274574 Ry
     smearing contrib. (-TS)   =      -0.00213999 Ry

     convergence has been achieved in   7 iterations

     Writing output data file Pd-kp-conv.save/
 
     init_run     :      0.36s CPU      0.38s WALL (       1 calls)
     electrons    :      0.44s CPU      0.84s WALL (       1 calls)

     Called by init_run:
     wfcinit      :      0.02s CPU      0.02s WALL (       1 calls)
     potinit      :      0.01s CPU      0.02s WALL (       1 calls)
     hinit0       :      0.33s CPU      0.33s WALL (       1 calls)

     Called by electrons:
     c_bands      :      0.25s CPU      0.27s WALL (       7 calls)
     sum_band     :      0.10s CPU      0.11s WALL (       7 calls)
     v_of_rho     :      0.04s CPU      0.04s WALL (       8 calls)
     newd         :      0.06s CPU      0.06s WALL (       8 calls)
     mix_rho      :      0.00s CPU      0.00s WALL (       7 calls)

     Called by c_bands:
     init_us_2    :      0.01s CPU      0.01s WALL (      60 calls)
     cegterg      :      0.24s CPU      0.25s WALL (      28 calls)

     Called by sum_band:
     sum_band:bec :      0.00s CPU      0.00s WALL (      28 calls)
     addusdens    :      0.05s CPU      0.06s WALL (       7 calls)

     Called by *egterg:
     h_psi        :      0.20s CPU      0.21s WALL (      97 calls)
     s_psi        :      0.00s CPU      0.00s WALL (      97 calls)
     g_psi        :      0.00s CPU      0.00s WALL (      65 calls)
     cdiaghg      :      0.03s CPU      0.03s WALL (      93 calls)

     Called by h_psi:
     h_psi:pot    :      0.20s CPU      0.21s WALL (      97 calls)
     h_psi:calbec :      0.00s CPU      0.00s WALL (      97 calls)
     vloc_psi     :      0.19s CPU      0.20s WALL (      97 calls)
     add_vuspsi   :      0.00s CPU      0.00s WALL (      97 calls)

     General routines
     calbec       :      0.01s CPU      0.01s WALL (     125 calls)
     fft          :      0.01s CPU      0.02s WALL (      89 calls)
     ffts         :      0.00s CPU      0.00s WALL (       7 calls)
     fftw         :      0.19s CPU      0.21s WALL (    2100 calls)
 
     Parallel routines
     fft_scatt_xy :      0.04s CPU      0.04s WALL (    2196 calls)
     fft_scatt_yz :      0.04s CPU      0.05s WALL (    2196 calls)
 
     PWSCF        :     0.89s CPU         1.38s WALL

 
   This run was terminated on:  23:10:23   2Dec2021            

=------------------------------------------------------------------------------=
   JOB DONE.
=------------------------------------------------------------------------------=
