
     Program PWSCF v.6.3 starts on  2Dec2021 at 22:22:28 

     This program is part of the open-source Quantum ESPRESSO suite
     for quantum simulation of materials; please cite
         "P. Giannozzi et al., J. Phys.:Condens. Matter 21 395502 (2009);
         "P. Giannozzi et al., J. Phys.:Condens. Matter 29 465901 (2017);
          URL http://www.quantum-espresso.org", 
     in publications or presentations arising from this work. More details at
     http://www.quantum-espresso.org/quote

     Parallel version (MPI & OpenMP), running on       2 processor cores
     Number of MPI processes:                 2
     Threads/MPI process:                     1

     MPI processes distributed on     1 nodes
     R & G space division:  proc/nbgrp/npool/nimage =       2
     Reading input from pw-input.in

     Current dimensions of program PWSCF are:
     Max number of different atomic species (ntypx) = 10
     Max number of k-points (npk) =  40000
     Max angular momentum in pseudopotentials (lmaxx) =  3

     Subspace diagonalization in iterative solution of the eigenvalue problem:
     a serial algorithm will be used

 
     Parallelization info
     --------------------
     sticks:   dense  smooth     PW     G-vecs:    dense   smooth      PW
     Min         111     111     42                 1066     1066     229
     Max         112     112     43                 1067     1067     230
     Sum         223     223     85                 2133     2133     459
 

     Title: 
     Pd-kp-conv                                                                 


     bravais-lattice index     =            2
     lattice parameter (alat)  =       6.8000  a.u.
     unit-cell volume          =      78.6080 (a.u.)^3
     number of atoms/cell      =            1
     number of atomic types    =            1
     number of electrons       =        16.00
     number of Kohn-Sham states=           12
     kinetic-energy cutoff     =      35.0000  Ry
     charge density cutoff     =     140.0000  Ry
     convergence threshold     =      1.0E-07
     mixing beta               =       0.7000
     number of iterations used =            8  plain     mixing
     Exchange-correlation      =  SLA  PW   PBX  PBC ( 1  4  3  4 0 0)

     celldm(1)=   6.800000  celldm(2)=   0.000000  celldm(3)=   0.000000
     celldm(4)=   0.000000  celldm(5)=   0.000000  celldm(6)=   0.000000

     crystal axes: (cart. coord. in units of alat)
               a(1) = (  -0.500000   0.000000   0.500000 )  
               a(2) = (   0.000000   0.500000   0.500000 )  
               a(3) = (  -0.500000   0.500000   0.000000 )  

     reciprocal axes: (cart. coord. in units 2 pi/alat)
               b(1) = ( -1.000000 -1.000000  1.000000 )  
               b(2) = (  1.000000  1.000000  1.000000 )  
               b(3) = ( -1.000000  1.000000 -1.000000 )  


     PseudoPot. # 1 for Pd read from file:
     ./pd_pbe_v1.4.uspp.F.UPF
     MD5 check sum: 2d733d2bc2cbfd217af676df1668a4bc
     Pseudo is Ultrasoft + core correction, Zval = 16.0
     Generated by new atomic code, or converted to UPF format
     Using radial grid of  887 points,  6 beta functions with: 
                l(1) =   0
                l(2) =   0
                l(3) =   1
                l(4) =   1
                l(5) =   2
                l(6) =   2
     Q(r) pseudized with  8 coefficients,  rinner =    1.130   1.130   1.130
                                                       1.130   1.130

     atomic species   valence    mass     pseudopotential
        Pd            16.00   106.40000     Pd( 1.00)

     48 Sym. Ops., with inversion, found



   Cartesian axes

     site n.     atom                  positions (alat units)
         1           Pd  tau(   1) = (   0.0000000   0.0000000   0.0000000  )

     number of k points=     8  Marzari-Vanderbilt smearing, width (Ry)=  0.0300
                       cart. coord. in units 2pi/alat
        k(    1) = (   0.0000000   0.0000000   0.0000000), wk =   0.0312500
        k(    2) = (  -0.2500000   0.2500000  -0.2500000), wk =   0.2500000
        k(    3) = (   0.5000000  -0.5000000   0.5000000), wk =   0.1250000
        k(    4) = (   0.0000000   0.5000000   0.0000000), wk =   0.1875000
        k(    5) = (   0.7500000  -0.2500000   0.7500000), wk =   0.7500000
        k(    6) = (   0.5000000   0.0000000   0.5000000), wk =   0.3750000
        k(    7) = (   0.0000000  -1.0000000   0.0000000), wk =   0.0937500
        k(    8) = (  -0.5000000  -1.0000000   0.0000000), wk =   0.1875000

     Dense  grid:     2133 G-vectors     FFT dimensions: (  20,  20,  20)

     Estimated max dynamical RAM per process >       5.05 MB

     Estimated total dynamical RAM >      10.11 MB

     Initial potential from superposition of free atoms
     Check: negative starting charge=   -0.081587

     starting charge   15.49999, renormalised to   16.00000

     negative rho (up, down):  8.422E-02 0.000E+00
     Starting wfcs are   12 randomized atomic wfcs

     total cpu time spent up to now is        0.5 secs

     Self-consistent Calculation

     iteration #  1     ecut=    35.00 Ry     beta= 0.70
     Davidson diagonalization with overlap
     ethr =  1.00E-02,  avg # of iterations =  3.4

     negative rho (up, down):  8.458E-02 0.000E+00

     total cpu time spent up to now is        0.6 secs

     total energy              =    -198.38931107 Ry
     Harris-Foulkes estimate   =    -198.88299965 Ry
     estimated scf accuracy    <       0.69576478 Ry

     iteration #  2     ecut=    35.00 Ry     beta= 0.70
     Davidson diagonalization with overlap
     ethr =  4.35E-03,  avg # of iterations =  2.0

     negative rho (up, down):  8.586E-02 0.000E+00

     total cpu time spent up to now is        0.7 secs

     total energy              =    -198.58662133 Ry
     Harris-Foulkes estimate   =    -198.75920357 Ry
     estimated scf accuracy    <       0.30183136 Ry

     iteration #  3     ecut=    35.00 Ry     beta= 0.70
     Davidson diagonalization with overlap
     ethr =  1.89E-03,  avg # of iterations =  2.2

     negative rho (up, down):  8.635E-02 0.000E+00

     total cpu time spent up to now is        0.8 secs

     total energy              =    -198.64949528 Ry
     Harris-Foulkes estimate   =    -198.64958778 Ry
     estimated scf accuracy    <       0.00035206 Ry

     iteration #  4     ecut=    35.00 Ry     beta= 0.70
     Davidson diagonalization with overlap
     ethr =  2.20E-06,  avg # of iterations =  2.5

     negative rho (up, down):  8.648E-02 0.000E+00

     total cpu time spent up to now is        0.8 secs

     total energy              =    -198.64959401 Ry
     Harris-Foulkes estimate   =    -198.64959858 Ry
     estimated scf accuracy    <       0.00000947 Ry

     iteration #  5     ecut=    35.00 Ry     beta= 0.70
     Davidson diagonalization with overlap
     ethr =  5.92E-08,  avg # of iterations =  2.0

     negative rho (up, down):  8.650E-02 0.000E+00

     total cpu time spent up to now is        0.9 secs

     total energy              =    -198.64959631 Ry
     Harris-Foulkes estimate   =    -198.64959770 Ry
     estimated scf accuracy    <       0.00000245 Ry

     iteration #  6     ecut=    35.00 Ry     beta= 0.70
     Davidson diagonalization with overlap
     ethr =  1.53E-08,  avg # of iterations =  2.0

     negative rho (up, down):  8.650E-02 0.000E+00

     total cpu time spent up to now is        1.0 secs

     total energy              =    -198.64959698 Ry
     Harris-Foulkes estimate   =    -198.64959717 Ry
     estimated scf accuracy    <       0.00000042 Ry

     iteration #  7     ecut=    35.00 Ry     beta= 0.70
     Davidson diagonalization with overlap
     ethr =  2.60E-09,  avg # of iterations =  1.9

     negative rho (up, down):  8.650E-02 0.000E+00

     total cpu time spent up to now is        1.0 secs

     End of self-consistent calculation

          k = 0.0000 0.0000 0.0000 (   283 PWs)   bands (ev):

   -24.5892 -24.5892 -24.5892  16.4884  21.5284  21.5284  21.5284  23.9065
    23.9065  43.7426  50.0048  50.0048

          k =-0.2500 0.2500-0.2500 (   280 PWs)   bands (ev):

   -25.0729 -24.6542 -24.6542  18.3791  21.5364  21.9402  21.9402  24.0991
    24.0991  42.3836  45.3673  53.0003

          k = 0.5000-0.5000 0.5000 (   272 PWs)   bands (ev):

   -25.5369 -24.7189 -24.7189  18.2073  21.4344  21.4344  25.6927  25.6927
    26.1512  35.2172  42.9949  50.0756

          k = 0.0000 0.5000 0.0000 (   290 PWs)   bands (ev):

   -25.0527 -24.7635 -24.7635  18.9399  19.7151  23.0165  23.3889  23.3889
    24.7376  45.8910  46.7367  46.7367

          k = 0.7500-0.2500 0.7500 (   271 PWs)   bands (ev):

   -25.3752 -24.9681 -24.8277  19.0155  20.0708  22.2498  23.2983  25.8319
    30.1702  36.7706  42.8025  45.2917

          k = 0.5000 0.0000 0.5000 (   273 PWs)   bands (ev):

   -25.2711 -24.9897 -24.7195  20.1912  20.6605  21.1871  22.8775  23.7967
    28.6998  40.4729  41.2113  47.3999

          k = 0.0000-1.0000 0.0000 (   254 PWs)   bands (ev):

   -25.4792 -24.9341 -24.9341  17.8773  18.2828  25.6665  26.1752  26.1752
    29.0944  39.2439  40.5731  40.5731

          k =-0.5000-1.0000 0.0000 (   264 PWs)   bands (ev):

   -25.2109 -25.2109 -24.9459  19.3463  20.7724  20.7724  23.6907  26.1781
    36.2272  36.2272  38.3958  39.4231

     the Fermi energy is    26.0296 ev

!    total energy              =    -198.64959706 Ry
     Harris-Foulkes estimate   =    -198.64959706 Ry
     estimated scf accuracy    <          6.3E-10 Ry

     The total energy is the sum of the following terms:

     one-electron contribution =     -23.81181805 Ry
     hartree contribution      =      29.40509589 Ry
     xc contribution           =     -31.63287853 Ry
     ewald contribution        =    -172.60657228 Ry
     smearing contrib. (-TS)   =      -0.00342409 Ry

     convergence has been achieved in   7 iterations

     Writing output data file Pd-kp-conv.save/
 
     init_run     :      0.33s CPU      0.36s WALL (       1 calls)
     electrons    :      0.52s CPU      0.60s WALL (       1 calls)

     Called by init_run:
     wfcinit      :      0.02s CPU      0.03s WALL (       1 calls)
     potinit      :      0.01s CPU      0.02s WALL (       1 calls)
     hinit0       :      0.30s CPU      0.30s WALL (       1 calls)

     Called by electrons:
     c_bands      :      0.37s CPU      0.39s WALL (       7 calls)
     sum_band     :      0.10s CPU      0.10s WALL (       7 calls)
     v_of_rho     :      0.02s CPU      0.02s WALL (       8 calls)
     newd         :      0.04s CPU      0.04s WALL (       8 calls)
     mix_rho      :      0.00s CPU      0.00s WALL (       7 calls)

     Called by c_bands:
     init_us_2    :      0.01s CPU      0.01s WALL (     120 calls)
     cegterg      :      0.34s CPU      0.36s WALL (      56 calls)

     Called by sum_band:
     sum_band:bec :      0.00s CPU      0.00s WALL (      56 calls)
     addusdens    :      0.03s CPU      0.03s WALL (       7 calls)

     Called by *egterg:
     h_psi        :      0.27s CPU      0.29s WALL (     192 calls)
     s_psi        :      0.00s CPU      0.00s WALL (     192 calls)
     g_psi        :      0.00s CPU      0.00s WALL (     128 calls)
     cdiaghg      :      0.05s CPU      0.05s WALL (     184 calls)

     Called by h_psi:
     h_psi:pot    :      0.27s CPU      0.29s WALL (     192 calls)
     h_psi:calbec :      0.01s CPU      0.01s WALL (     192 calls)
     vloc_psi     :      0.26s CPU      0.27s WALL (     192 calls)
     add_vuspsi   :      0.00s CPU      0.00s WALL (     192 calls)

     General routines
     calbec       :      0.01s CPU      0.01s WALL (     248 calls)
     fft          :      0.01s CPU      0.01s WALL (      89 calls)
     ffts         :      0.00s CPU      0.00s WALL (       7 calls)
     fftw         :      0.26s CPU      0.28s WALL (    4138 calls)
 
     Parallel routines
     fft_scatt_xy :      0.05s CPU      0.05s WALL (    4234 calls)
     fft_scatt_yz :      0.07s CPU      0.08s WALL (    4234 calls)
 
     PWSCF        :     0.94s CPU         1.46s WALL

 
   This run was terminated on:  22:22:30   2Dec2021            

=------------------------------------------------------------------------------=
   JOB DONE.
=------------------------------------------------------------------------------=
