
     Program PWSCF v.6.3 starts on  2Dec2021 at 22:22:45 

     This program is part of the open-source Quantum ESPRESSO suite
     for quantum simulation of materials; please cite
         "P. Giannozzi et al., J. Phys.:Condens. Matter 21 395502 (2009);
         "P. Giannozzi et al., J. Phys.:Condens. Matter 29 465901 (2017);
          URL http://www.quantum-espresso.org", 
     in publications or presentations arising from this work. More details at
     http://www.quantum-espresso.org/quote

     Parallel version (MPI & OpenMP), running on       2 processor cores
     Number of MPI processes:                 2
     Threads/MPI process:                     1

     MPI processes distributed on     1 nodes
     R & G space division:  proc/nbgrp/npool/nimage =       2
     Reading input from pw-input.in

     Current dimensions of program PWSCF are:
     Max number of different atomic species (ntypx) = 10
     Max number of k-points (npk) =  40000
     Max angular momentum in pseudopotentials (lmaxx) =  3

     Subspace diagonalization in iterative solution of the eigenvalue problem:
     a serial algorithm will be used

 
     Parallelization info
     --------------------
     sticks:   dense  smooth     PW     G-vecs:    dense   smooth      PW
     Min         141     141     45                 1559     1559     304
     Max         142     142     46                 1560     1560     305
     Sum         283     283     91                 3119     3119     609
 

     Title: 
     Pd-kp-conv                                                                 


     bravais-lattice index     =            2
     lattice parameter (alat)  =       7.6000  a.u.
     unit-cell volume          =     109.7440 (a.u.)^3
     number of atoms/cell      =            1
     number of atomic types    =            1
     number of electrons       =        16.00
     number of Kohn-Sham states=           12
     kinetic-energy cutoff     =      35.0000  Ry
     charge density cutoff     =     140.0000  Ry
     convergence threshold     =      1.0E-07
     mixing beta               =       0.7000
     number of iterations used =            8  plain     mixing
     Exchange-correlation      =  SLA  PW   PBX  PBC ( 1  4  3  4 0 0)

     celldm(1)=   7.600000  celldm(2)=   0.000000  celldm(3)=   0.000000
     celldm(4)=   0.000000  celldm(5)=   0.000000  celldm(6)=   0.000000

     crystal axes: (cart. coord. in units of alat)
               a(1) = (  -0.500000   0.000000   0.500000 )  
               a(2) = (   0.000000   0.500000   0.500000 )  
               a(3) = (  -0.500000   0.500000   0.000000 )  

     reciprocal axes: (cart. coord. in units 2 pi/alat)
               b(1) = ( -1.000000 -1.000000  1.000000 )  
               b(2) = (  1.000000  1.000000  1.000000 )  
               b(3) = ( -1.000000  1.000000 -1.000000 )  


     PseudoPot. # 1 for Pd read from file:
     ./pd_pbe_v1.4.uspp.F.UPF
     MD5 check sum: 2d733d2bc2cbfd217af676df1668a4bc
     Pseudo is Ultrasoft + core correction, Zval = 16.0
     Generated by new atomic code, or converted to UPF format
     Using radial grid of  887 points,  6 beta functions with: 
                l(1) =   0
                l(2) =   0
                l(3) =   1
                l(4) =   1
                l(5) =   2
                l(6) =   2
     Q(r) pseudized with  8 coefficients,  rinner =    1.130   1.130   1.130
                                                       1.130   1.130

     atomic species   valence    mass     pseudopotential
        Pd            16.00   106.40000     Pd( 1.00)

     48 Sym. Ops., with inversion, found



   Cartesian axes

     site n.     atom                  positions (alat units)
         1           Pd  tau(   1) = (   0.0000000   0.0000000   0.0000000  )

     number of k points=     8  Marzari-Vanderbilt smearing, width (Ry)=  0.0300
                       cart. coord. in units 2pi/alat
        k(    1) = (   0.0000000   0.0000000   0.0000000), wk =   0.0312500
        k(    2) = (  -0.2500000   0.2500000  -0.2500000), wk =   0.2500000
        k(    3) = (   0.5000000  -0.5000000   0.5000000), wk =   0.1250000
        k(    4) = (   0.0000000   0.5000000   0.0000000), wk =   0.1875000
        k(    5) = (   0.7500000  -0.2500000   0.7500000), wk =   0.7500000
        k(    6) = (   0.5000000   0.0000000   0.5000000), wk =   0.3750000
        k(    7) = (   0.0000000  -1.0000000   0.0000000), wk =   0.0937500
        k(    8) = (  -0.5000000  -1.0000000   0.0000000), wk =   0.1875000

     Dense  grid:     3119 G-vectors     FFT dimensions: (  24,  24,  24)

     Estimated max dynamical RAM per process >       7.09 MB

     Estimated total dynamical RAM >      14.18 MB

     Initial potential from superposition of free atoms
     Check: negative starting charge=   -0.079189

     starting charge   15.49999, renormalised to   16.00000

     negative rho (up, down):  8.174E-02 0.000E+00
     Starting wfcs are   12 randomized atomic wfcs

     total cpu time spent up to now is        0.5 secs

     Self-consistent Calculation

     iteration #  1     ecut=    35.00 Ry     beta= 0.70
     Davidson diagonalization with overlap
     ethr =  1.00E-02,  avg # of iterations =  3.5

     negative rho (up, down):  8.053E-02 0.000E+00

     total cpu time spent up to now is        0.6 secs

     total energy              =    -198.13418591 Ry
     Harris-Foulkes estimate   =    -199.05379543 Ry
     estimated scf accuracy    <       1.26366550 Ry

     iteration #  2     ecut=    35.00 Ry     beta= 0.70
     Davidson diagonalization with overlap
     ethr =  7.90E-03,  avg # of iterations =  2.0

     negative rho (up, down):  8.189E-02 0.000E+00

     total cpu time spent up to now is        0.7 secs

     total energy              =    -198.44573368 Ry
     Harris-Foulkes estimate   =    -199.08173129 Ry
     estimated scf accuracy    <       1.27806179 Ry

     iteration #  3     ecut=    35.00 Ry     beta= 0.70
     Davidson diagonalization with overlap
     ethr =  7.90E-03,  avg # of iterations =  2.0

     negative rho (up, down):  8.193E-02 0.000E+00

     total cpu time spent up to now is        0.8 secs

     total energy              =    -198.71135417 Ry
     Harris-Foulkes estimate   =    -198.71136667 Ry
     estimated scf accuracy    <       0.00008145 Ry

     iteration #  4     ecut=    35.00 Ry     beta= 0.70
     Davidson diagonalization with overlap
     ethr =  5.09E-07,  avg # of iterations =  3.2

     negative rho (up, down):  8.204E-02 0.000E+00

     total cpu time spent up to now is        0.9 secs

     total energy              =    -198.71168284 Ry
     Harris-Foulkes estimate   =    -198.71168167 Ry
     estimated scf accuracy    <       0.00000589 Ry

     iteration #  5     ecut=    35.00 Ry     beta= 0.70
     Davidson diagonalization with overlap
     ethr =  3.68E-08,  avg # of iterations =  2.0

     negative rho (up, down):  8.206E-02 0.000E+00

     total cpu time spent up to now is        1.0 secs

     total energy              =    -198.71168362 Ry
     Harris-Foulkes estimate   =    -198.71168353 Ry
     estimated scf accuracy    <       0.00000013 Ry

     iteration #  6     ecut=    35.00 Ry     beta= 0.70
     Davidson diagonalization with overlap
     ethr =  8.19E-10,  avg # of iterations =  1.9

     negative rho (up, down):  8.206E-02 0.000E+00

     total cpu time spent up to now is        1.1 secs

     End of self-consistent calculation

          k = 0.0000 0.0000 0.0000 (   387 PWs)   bands (ev):

   -33.0112 -33.0112 -33.0112   9.9292  13.9823  13.9823  13.9823  15.3633
    15.3633  34.0379  38.2328  38.2328

          k =-0.2500 0.2500-0.2500 (   380 PWs)   bands (ev):

   -33.1557 -33.0322 -33.0322  11.5394  13.9528  14.2385  14.2385  15.5010
    15.5010  30.1786  34.7871  38.9294

          k = 0.5000-0.5000 0.5000 (   392 PWs)   bands (ev):

   -33.2979 -33.0533 -33.0533  11.8087  13.9476  13.9476  16.3907  16.3907
    17.5787  22.9817  33.2563  36.9192

          k = 0.0000 0.5000 0.0000 (   375 PWs)   bands (ev):

   -33.1498 -33.0653 -33.0653  12.0199  12.9288  14.8682  15.0911  15.0911
    15.8481  33.6628  33.6628  34.2410

          k = 0.7500-0.2500 0.7500 (   390 PWs)   bands (ev):

   -33.2499 -33.1279 -33.0864  12.4378  13.1321  14.4012  15.0521  16.4669
    19.8489  25.0419  30.2890  32.5352

          k = 0.5000 0.0000 0.5000 (   379 PWs)   bands (ev):

   -33.2168 -33.1336 -33.0532  13.0423  13.4576  13.8060  14.8184  15.3338
    18.5149  28.3060  28.4485  35.7114

          k = 0.0000-1.0000 0.0000 (   388 PWs)   bands (ev):

   -33.2829 -33.1197 -33.1197  11.7779  12.0314  16.3672  16.6574  16.6574
    19.7272  26.1994  29.1951  29.1951

          k =-0.5000-1.0000 0.0000 (   380 PWs)   bands (ev):

   -33.2014 -33.2014 -33.1214  12.7173  13.5171  13.5171  15.3019  16.6607
    24.7805  24.7805  26.0352  27.3099

     the Fermi energy is    16.6499 ev

!    total energy              =    -198.71168364 Ry
     Harris-Foulkes estimate   =    -198.71168364 Ry
     estimated scf accuracy    <          1.1E-09 Ry

     The total energy is the sum of the following terms:

     one-electron contribution =     -51.19836232 Ry
     hartree contribution      =      38.24582640 Ry
     xc contribution           =     -31.31812281 Ry
     ewald contribution        =    -154.43745938 Ry
     smearing contrib. (-TS)   =      -0.00356552 Ry

     convergence has been achieved in   6 iterations

     Writing output data file Pd-kp-conv.save/
 
     init_run     :      0.37s CPU      0.39s WALL (       1 calls)
     electrons    :      0.59s CPU      0.99s WALL (       1 calls)

     Called by init_run:
     wfcinit      :      0.03s CPU      0.04s WALL (       1 calls)
     potinit      :      0.01s CPU      0.01s WALL (       1 calls)
     hinit0       :      0.32s CPU      0.32s WALL (       1 calls)

     Called by electrons:
     c_bands      :      0.41s CPU      0.43s WALL (       6 calls)
     sum_band     :      0.11s CPU      0.12s WALL (       6 calls)
     v_of_rho     :      0.03s CPU      0.03s WALL (       7 calls)
     newd         :      0.04s CPU      0.05s WALL (       7 calls)
     mix_rho      :      0.00s CPU      0.00s WALL (       6 calls)

     Called by c_bands:
     init_us_2    :      0.01s CPU      0.01s WALL (     104 calls)
     cegterg      :      0.38s CPU      0.41s WALL (      48 calls)

     Called by sum_band:
     sum_band:bec :      0.00s CPU      0.00s WALL (      48 calls)
     addusdens    :      0.04s CPU      0.04s WALL (       6 calls)

     Called by *egterg:
     h_psi        :      0.33s CPU      0.35s WALL (     173 calls)
     s_psi        :      0.00s CPU      0.00s WALL (     173 calls)
     g_psi        :      0.00s CPU      0.00s WALL (     117 calls)
     cdiaghg      :      0.05s CPU      0.05s WALL (     165 calls)

     Called by h_psi:
     h_psi:pot    :      0.33s CPU      0.35s WALL (     173 calls)
     h_psi:calbec :      0.01s CPU      0.01s WALL (     173 calls)
     vloc_psi     :      0.31s CPU      0.33s WALL (     173 calls)
     add_vuspsi   :      0.00s CPU      0.00s WALL (     173 calls)

     General routines
     calbec       :      0.01s CPU      0.01s WALL (     221 calls)
     fft          :      0.01s CPU      0.01s WALL (      78 calls)
     ffts         :      0.00s CPU      0.00s WALL (       6 calls)
     fftw         :      0.32s CPU      0.34s WALL (    3664 calls)
 
     Parallel routines
     fft_scatt_xy :      0.06s CPU      0.07s WALL (    3748 calls)
     fft_scatt_yz :      0.07s CPU      0.07s WALL (    3748 calls)
 
     PWSCF        :     1.05s CPU         1.54s WALL

 
   This run was terminated on:  22:22:46   2Dec2021            

=------------------------------------------------------------------------------=
   JOB DONE.
=------------------------------------------------------------------------------=
