
     Program PWSCF v.6.3 starts on  2Dec2021 at 23: 2:31 

     This program is part of the open-source Quantum ESPRESSO suite
     for quantum simulation of materials; please cite
         "P. Giannozzi et al., J. Phys.:Condens. Matter 21 395502 (2009);
         "P. Giannozzi et al., J. Phys.:Condens. Matter 29 465901 (2017);
          URL http://www.quantum-espresso.org", 
     in publications or presentations arising from this work. More details at
     http://www.quantum-espresso.org/quote

     Parallel version (MPI & OpenMP), running on       2 processor cores
     Number of MPI processes:                 2
     Threads/MPI process:                     1

     MPI processes distributed on     1 nodes
     R & G space division:  proc/nbgrp/npool/nimage =       2
     Reading input from pw-input.in

     Current dimensions of program PWSCF are:
     Max number of different atomic species (ntypx) = 10
     Max number of k-points (npk) =  40000
     Max angular momentum in pseudopotentials (lmaxx) =  3

     Subspace diagonalization in iterative solution of the eigenvalue problem:
     a serial algorithm will be used

 
     Parallelization info
     --------------------
     sticks:   dense  smooth     PW     G-vecs:    dense   smooth      PW
     Min         141     141     48                 1559     1559     322
     Max         142     142     49                 1560     1560     323
     Sum         283     283     97                 3119     3119     645
 

     Title: 
     Pd-kp-conv                                                                 


     bravais-lattice index     =            2
     lattice parameter (alat)  =       7.6000  a.u.
     unit-cell volume          =     109.7440 (a.u.)^3
     number of atoms/cell      =            1
     number of atomic types    =            1
     number of electrons       =        16.00
     number of Kohn-Sham states=           12
     kinetic-energy cutoff     =      35.0000  Ry
     charge density cutoff     =     140.0000  Ry
     convergence threshold     =      1.0E-07
     mixing beta               =       0.7000
     number of iterations used =            8  plain     mixing
     Exchange-correlation      =  SLA  PW   PBX  PBC ( 1  4  3  4 0 0)

     celldm(1)=   7.600000  celldm(2)=   0.000000  celldm(3)=   0.000000
     celldm(4)=   0.000000  celldm(5)=   0.000000  celldm(6)=   0.000000

     crystal axes: (cart. coord. in units of alat)
               a(1) = (  -0.500000   0.000000   0.500000 )  
               a(2) = (   0.000000   0.500000   0.500000 )  
               a(3) = (  -0.500000   0.500000   0.000000 )  

     reciprocal axes: (cart. coord. in units 2 pi/alat)
               b(1) = ( -1.000000 -1.000000  1.000000 )  
               b(2) = (  1.000000  1.000000  1.000000 )  
               b(3) = ( -1.000000  1.000000 -1.000000 )  


     PseudoPot. # 1 for Pd read from file:
     ./pd_pbe_v1.4.uspp.F.UPF
     MD5 check sum: 2d733d2bc2cbfd217af676df1668a4bc
     Pseudo is Ultrasoft + core correction, Zval = 16.0
     Generated by new atomic code, or converted to UPF format
     Using radial grid of  887 points,  6 beta functions with: 
                l(1) =   0
                l(2) =   0
                l(3) =   1
                l(4) =   1
                l(5) =   2
                l(6) =   2
     Q(r) pseudized with  8 coefficients,  rinner =    1.130   1.130   1.130
                                                       1.130   1.130

     atomic species   valence    mass     pseudopotential
        Pd            16.00   106.40000     Pd( 1.00)

     48 Sym. Ops., with inversion, found



   Cartesian axes

     site n.     atom                  positions (alat units)
         1           Pd  tau(   1) = (   0.0000000   0.0000000   0.0000000  )

     number of k points=   413  Marzari-Vanderbilt smearing, width (Ry)=  0.0350

     Number of k-points >= 100: set verbosity='high' to print them.

     Dense  grid:     3119 G-vectors     FFT dimensions: (  24,  24,  24)

     Estimated max dynamical RAM per process >      21.33 MB

     Estimated total dynamical RAM >      42.66 MB

     Initial potential from superposition of free atoms
     Check: negative starting charge=   -0.079189

     starting charge   15.49999, renormalised to   16.00000

     negative rho (up, down):  8.174E-02 0.000E+00
     Starting wfcs are   12 randomized atomic wfcs

     total cpu time spent up to now is        1.8 secs

     Self-consistent Calculation

     iteration #  1     ecut=    35.00 Ry     beta= 0.70
     Davidson diagonalization with overlap
     ethr =  1.00E-02,  avg # of iterations =  3.6

     negative rho (up, down):  8.053E-02 0.000E+00

     total cpu time spent up to now is        7.2 secs

     total energy              =    -198.13471939 Ry
     Harris-Foulkes estimate   =    -199.04823813 Ry
     estimated scf accuracy    <       1.25496632 Ry

     iteration #  2     ecut=    35.00 Ry     beta= 0.70
     Davidson diagonalization with overlap
     ethr =  7.84E-03,  avg # of iterations =  2.0

     negative rho (up, down):  8.186E-02 0.000E+00

     total cpu time spent up to now is       11.7 secs

     total energy              =    -198.43476371 Ry
     Harris-Foulkes estimate   =    -199.08030914 Ry
     estimated scf accuracy    <       1.30551311 Ry

     iteration #  3     ecut=    35.00 Ry     beta= 0.70
     Davidson diagonalization with overlap
     ethr =  7.84E-03,  avg # of iterations =  2.0

     negative rho (up, down):  8.202E-02 0.000E+00

     total cpu time spent up to now is       15.5 secs

     total energy              =    -198.69869748 Ry
     Harris-Foulkes estimate   =    -198.69938415 Ry
     estimated scf accuracy    <       0.00150587 Ry

     iteration #  4     ecut=    35.00 Ry     beta= 0.70
     Davidson diagonalization with overlap
     ethr =  9.41E-06,  avg # of iterations =  2.5

     negative rho (up, down):  8.215E-02 0.000E+00

     total cpu time spent up to now is       20.0 secs

     total energy              =    -198.69927537 Ry
     Harris-Foulkes estimate   =    -198.69927422 Ry
     estimated scf accuracy    <       0.00000543 Ry

     iteration #  5     ecut=    35.00 Ry     beta= 0.70
     Davidson diagonalization with overlap
     ethr =  3.39E-08,  avg # of iterations =  1.9

     negative rho (up, down):  8.220E-02 0.000E+00

     total cpu time spent up to now is       23.6 secs

     total energy              =    -198.69927651 Ry
     Harris-Foulkes estimate   =    -198.69927620 Ry
     estimated scf accuracy    <       0.00000024 Ry

     iteration #  6     ecut=    35.00 Ry     beta= 0.70
     Davidson diagonalization with overlap
     ethr =  1.47E-09,  avg # of iterations =  2.0

     negative rho (up, down):  8.221E-02 0.000E+00

     total cpu time spent up to now is       27.4 secs

     End of self-consistent calculation

     Number of k-points >= 100: set verbosity='high' to print the bands.

     the Fermi energy is    16.4159 ev

!    total energy              =    -198.69927653 Ry
     Harris-Foulkes estimate   =    -198.69927653 Ry
     estimated scf accuracy    <          1.2E-09 Ry

     The total energy is the sum of the following terms:

     one-electron contribution =     -51.11703859 Ry
     hartree contribution      =      38.15821963 Ry
     xc contribution           =     -31.30398092 Ry
     ewald contribution        =    -154.43745938 Ry
     smearing contrib. (-TS)   =       0.00098273 Ry

     convergence has been achieved in   6 iterations

     Writing output data file Pd-kp-conv.save/
 
     init_run     :      1.62s CPU      1.73s WALL (       1 calls)
     electrons    :     23.46s CPU     25.61s WALL (       1 calls)

     Called by init_run:
     wfcinit      :      1.27s CPU      1.36s WALL (       1 calls)
     potinit      :      0.01s CPU      0.02s WALL (       1 calls)
     hinit0       :      0.33s CPU      0.33s WALL (       1 calls)

     Called by electrons:
     c_bands      :     19.78s CPU     21.34s WALL (       6 calls)
     sum_band     :      3.62s CPU      3.85s WALL (       6 calls)
     v_of_rho     :      0.03s CPU      0.03s WALL (       7 calls)
     newd         :      0.04s CPU      0.05s WALL (       7 calls)
     mix_rho      :      0.00s CPU      0.00s WALL (       6 calls)

     Called by c_bands:
     init_us_2    :      0.47s CPU      0.51s WALL (    5369 calls)
     cegterg      :     18.46s CPU     19.62s WALL (    2478 calls)

     Called by sum_band:
     sum_band:bec :      0.02s CPU      0.02s WALL (    2478 calls)
     addusdens    :      0.04s CPU      0.05s WALL (       6 calls)

     Called by *egterg:
     h_psi        :     15.92s CPU     16.95s WALL (    8657 calls)
     s_psi        :      0.20s CPU      0.22s WALL (    8657 calls)
     g_psi        :      0.14s CPU      0.15s WALL (    5766 calls)
     cdiaghg      :      2.05s CPU      2.16s WALL (    8244 calls)

     Called by h_psi:
     h_psi:pot    :     15.85s CPU     16.88s WALL (    8657 calls)
     h_psi:calbec :      0.29s CPU      0.31s WALL (    8657 calls)
     vloc_psi     :     15.29s CPU     16.28s WALL (    8657 calls)
     add_vuspsi   :      0.21s CPU      0.23s WALL (    8657 calls)

     General routines
     calbec       :      0.34s CPU      0.36s WALL (   11135 calls)
     fft          :      0.01s CPU      0.01s WALL (      78 calls)
     ffts         :      0.00s CPU      0.00s WALL (       6 calls)
     fftw         :     15.74s CPU     16.73s WALL (  185016 calls)
 
     Parallel routines
     fft_scatt_xy :      2.93s CPU      3.14s WALL (  185100 calls)
     fft_scatt_yz :      3.27s CPU      3.51s WALL (  185100 calls)
 
     PWSCF        :    25.34s CPU        28.85s WALL

 
   This run was terminated on:  23: 3: 0   2Dec2021            

=------------------------------------------------------------------------------=
   JOB DONE.
=------------------------------------------------------------------------------=
