
     Program PWSCF v.6.3 starts on  2Dec2021 at 23: 6:21 

     This program is part of the open-source Quantum ESPRESSO suite
     for quantum simulation of materials; please cite
         "P. Giannozzi et al., J. Phys.:Condens. Matter 21 395502 (2009);
         "P. Giannozzi et al., J. Phys.:Condens. Matter 29 465901 (2017);
          URL http://www.quantum-espresso.org", 
     in publications or presentations arising from this work. More details at
     http://www.quantum-espresso.org/quote

     Parallel version (MPI & OpenMP), running on       2 processor cores
     Number of MPI processes:                 2
     Threads/MPI process:                     1

     MPI processes distributed on     1 nodes
     R & G space division:  proc/nbgrp/npool/nimage =       2
     Reading input from pw-input.in

     Current dimensions of program PWSCF are:
     Max number of different atomic species (ntypx) = 10
     Max number of k-points (npk) =  40000
     Max angular momentum in pseudopotentials (lmaxx) =  3

     Subspace diagonalization in iterative solution of the eigenvalue problem:
     a serial algorithm will be used

 
     Parallelization info
     --------------------
     sticks:   dense  smooth     PW     G-vecs:    dense   smooth      PW
     Min         174     174     60                 2055     2055     434
     Max         175     175     61                 2056     2056     435
     Sum         349     349    121                 4111     4111     869
 

     Title: 
     Pd-kp-conv                                                                 


     bravais-lattice index     =            2
     lattice parameter (alat)  =       8.4000  a.u.
     unit-cell volume          =     148.1760 (a.u.)^3
     number of atoms/cell      =            1
     number of atomic types    =            1
     number of electrons       =        16.00
     number of Kohn-Sham states=           12
     kinetic-energy cutoff     =      35.0000  Ry
     charge density cutoff     =     140.0000  Ry
     convergence threshold     =      1.0E-07
     mixing beta               =       0.7000
     number of iterations used =            8  plain     mixing
     Exchange-correlation      =  SLA  PW   PBX  PBC ( 1  4  3  4 0 0)

     celldm(1)=   8.400000  celldm(2)=   0.000000  celldm(3)=   0.000000
     celldm(4)=   0.000000  celldm(5)=   0.000000  celldm(6)=   0.000000

     crystal axes: (cart. coord. in units of alat)
               a(1) = (  -0.500000   0.000000   0.500000 )  
               a(2) = (   0.000000   0.500000   0.500000 )  
               a(3) = (  -0.500000   0.500000   0.000000 )  

     reciprocal axes: (cart. coord. in units 2 pi/alat)
               b(1) = ( -1.000000 -1.000000  1.000000 )  
               b(2) = (  1.000000  1.000000  1.000000 )  
               b(3) = ( -1.000000  1.000000 -1.000000 )  


     PseudoPot. # 1 for Pd read from file:
     ./pd_pbe_v1.4.uspp.F.UPF
     MD5 check sum: 2d733d2bc2cbfd217af676df1668a4bc
     Pseudo is Ultrasoft + core correction, Zval = 16.0
     Generated by new atomic code, or converted to UPF format
     Using radial grid of  887 points,  6 beta functions with: 
                l(1) =   0
                l(2) =   0
                l(3) =   1
                l(4) =   1
                l(5) =   2
                l(6) =   2
     Q(r) pseudized with  8 coefficients,  rinner =    1.130   1.130   1.130
                                                       1.130   1.130

     atomic species   valence    mass     pseudopotential
        Pd            16.00   106.40000     Pd( 1.00)

     48 Sym. Ops., with inversion, found



   Cartesian axes

     site n.     atom                  positions (alat units)
         1           Pd  tau(   1) = (   0.0000000   0.0000000   0.0000000  )

     number of k points=   413  Marzari-Vanderbilt smearing, width (Ry)=  0.0350

     Number of k-points >= 100: set verbosity='high' to print them.

     Dense  grid:     4111 G-vectors     FFT dimensions: (  24,  24,  24)

     Estimated max dynamical RAM per process >      28.17 MB

     Estimated total dynamical RAM >      56.34 MB

     Check: negative/imaginary core charge=   -0.000001    0.000000

     Initial potential from superposition of free atoms
     Check: negative starting charge=   -0.083520

     starting charge   15.49999, renormalised to   16.00000

     negative rho (up, down):  8.621E-02 0.000E+00
     Starting wfcs are   12 randomized atomic wfcs

     total cpu time spent up to now is        2.4 secs

     Self-consistent Calculation

     iteration #  1     ecut=    35.00 Ry     beta= 0.70
     Davidson diagonalization with overlap
     ethr =  1.00E-02,  avg # of iterations =  3.3

     negative rho (up, down):  8.326E-02 0.000E+00

     total cpu time spent up to now is        7.8 secs

     total energy              =    -197.77580266 Ry
     Harris-Foulkes estimate   =    -199.06694166 Ry
     estimated scf accuracy    <       1.74208900 Ry

     iteration #  2     ecut=    35.00 Ry     beta= 0.70
     Davidson diagonalization with overlap
     ethr =  1.00E-02,  avg # of iterations =  2.0

     negative rho (up, down):  8.555E-02 0.000E+00

     total cpu time spent up to now is       12.7 secs

     total energy              =    -198.21097502 Ry
     Harris-Foulkes estimate   =    -199.43832252 Ry
     estimated scf accuracy    <       2.66194993 Ry

     iteration #  3     ecut=    35.00 Ry     beta= 0.70
     Davidson diagonalization with overlap
     ethr =  1.00E-02,  avg # of iterations =  2.0

     negative rho (up, down):  8.560E-02 0.000E+00

     total cpu time spent up to now is       17.0 secs

     total energy              =    -198.64932323 Ry
     Harris-Foulkes estimate   =    -198.64980643 Ry
     estimated scf accuracy    <       0.00155400 Ry

     iteration #  4     ecut=    35.00 Ry     beta= 0.70
     Davidson diagonalization with overlap
     ethr =  9.71E-06,  avg # of iterations =  2.6

     negative rho (up, down):  8.567E-02 0.000E+00

     total cpu time spent up to now is       21.4 secs

     total energy              =    -198.64963765 Ry
     Harris-Foulkes estimate   =    -198.64964853 Ry
     estimated scf accuracy    <       0.00004572 Ry

     iteration #  5     ecut=    35.00 Ry     beta= 0.70
     Davidson diagonalization with overlap
     ethr =  2.86E-07,  avg # of iterations =  1.7

     negative rho (up, down):  8.567E-02 0.000E+00

     total cpu time spent up to now is       25.2 secs

     total energy              =    -198.64964203 Ry
     Harris-Foulkes estimate   =    -198.64964210 Ry
     estimated scf accuracy    <       0.00000016 Ry

     iteration #  6     ecut=    35.00 Ry     beta= 0.70
     Davidson diagonalization with overlap
     ethr =  1.00E-09,  avg # of iterations =  2.2

     negative rho (up, down):  8.566E-02 0.000E+00

     total cpu time spent up to now is       29.7 secs

     End of self-consistent calculation

     Number of k-points >= 100: set verbosity='high' to print the bands.

     the Fermi energy is    10.5199 ev

!    total energy              =    -198.64964210 Ry
     Harris-Foulkes estimate   =    -198.64964213 Ry
     estimated scf accuracy    <       0.00000005 Ry

     The total energy is the sum of the following terms:

     one-electron contribution =     -74.49761333 Ry
     hartree contribution      =      46.75564392 Ry
     xc contribution           =     -31.18379264 Ry
     ewald contribution        =    -139.72912994 Ry
     smearing contrib. (-TS)   =       0.00524989 Ry

     convergence has been achieved in   6 iterations

     Writing output data file Pd-kp-conv.save/
 
     init_run     :      1.72s CPU      1.83s WALL (       1 calls)
     electrons    :     25.10s CPU     27.35s WALL (       1 calls)

     Called by init_run:
     wfcinit      :      1.35s CPU      1.43s WALL (       1 calls)
     potinit      :      0.01s CPU      0.02s WALL (       1 calls)
     hinit0       :      0.35s CPU      0.35s WALL (       1 calls)

     Called by electrons:
     c_bands      :     21.17s CPU     23.16s WALL (       6 calls)
     sum_band     :      3.86s CPU      4.07s WALL (       6 calls)
     v_of_rho     :      0.03s CPU      0.03s WALL (       7 calls)
     newd         :      0.05s CPU      0.06s WALL (       7 calls)
     mix_rho      :      0.00s CPU      0.00s WALL (       6 calls)

     Called by c_bands:
     init_us_2    :      0.61s CPU      0.66s WALL (    5369 calls)
     cegterg      :     19.44s CPU     20.74s WALL (    2478 calls)

     Called by sum_band:
     sum_band:bec :      0.02s CPU      0.03s WALL (    2478 calls)
     addusdens    :      0.05s CPU      0.06s WALL (       6 calls)

     Called by *egterg:
     h_psi        :     16.66s CPU     17.77s WALL (    8601 calls)
     s_psi        :      0.25s CPU      0.27s WALL (    8601 calls)
     g_psi        :      0.19s CPU      0.20s WALL (    5710 calls)
     cdiaghg      :      2.00s CPU      2.12s WALL (    8188 calls)

     Called by h_psi:
     h_psi:pot    :     16.58s CPU     17.68s WALL (    8601 calls)
     h_psi:calbec :      0.33s CPU      0.36s WALL (    8601 calls)
     vloc_psi     :     15.93s CPU     16.98s WALL (    8601 calls)
     add_vuspsi   :      0.26s CPU      0.28s WALL (    8601 calls)

     General routines
     calbec       :      0.40s CPU      0.43s WALL (   11079 calls)
     fft          :      0.01s CPU      0.02s WALL (      78 calls)
     ffts         :      0.00s CPU      0.00s WALL (       6 calls)
     fftw         :     16.45s CPU     17.48s WALL (  186344 calls)
 
     Parallel routines
     fft_scatt_xy :      2.94s CPU      3.13s WALL (  186428 calls)
     fft_scatt_yz :      3.73s CPU      4.01s WALL (  186428 calls)
 
     PWSCF        :    27.05s CPU        31.22s WALL

 
   This run was terminated on:  23: 6:53   2Dec2021            

=------------------------------------------------------------------------------=
   JOB DONE.
=------------------------------------------------------------------------------=
