
     Program PWSCF v.6.3 starts on  2Dec2021 at 22:49: 1 

     This program is part of the open-source Quantum ESPRESSO suite
     for quantum simulation of materials; please cite
         "P. Giannozzi et al., J. Phys.:Condens. Matter 21 395502 (2009);
         "P. Giannozzi et al., J. Phys.:Condens. Matter 29 465901 (2017);
          URL http://www.quantum-espresso.org", 
     in publications or presentations arising from this work. More details at
     http://www.quantum-espresso.org/quote

     Parallel version (MPI & OpenMP), running on       2 processor cores
     Number of MPI processes:                 2
     Threads/MPI process:                     1

     MPI processes distributed on     1 nodes
     R & G space division:  proc/nbgrp/npool/nimage =       2
     Reading input from pw-input.in

     Current dimensions of program PWSCF are:
     Max number of different atomic species (ntypx) = 10
     Max number of k-points (npk) =  40000
     Max angular momentum in pseudopotentials (lmaxx) =  3

     Subspace diagonalization in iterative solution of the eigenvalue problem:
     a serial algorithm will be used

 
     Parallelization info
     --------------------
     sticks:   dense  smooth     PW     G-vecs:    dense   smooth      PW
     Min         156     156     54                 1859     1859     362
     Max         157     157     55                 1860     1860     363
     Sum         313     313    109                 3719     3719     725
 

     Title: 
     Pd-kp-conv                                                                 


     bravais-lattice index     =            2
     lattice parameter (alat)  =       8.1000  a.u.
     unit-cell volume          =     132.8602 (a.u.)^3
     number of atoms/cell      =            1
     number of atomic types    =            1
     number of electrons       =        16.00
     number of Kohn-Sham states=           12
     kinetic-energy cutoff     =      35.0000  Ry
     charge density cutoff     =     140.0000  Ry
     convergence threshold     =      1.0E-07
     mixing beta               =       0.7000
     number of iterations used =            8  plain     mixing
     Exchange-correlation      =  SLA  PW   PBX  PBC ( 1  4  3  4 0 0)

     celldm(1)=   8.100000  celldm(2)=   0.000000  celldm(3)=   0.000000
     celldm(4)=   0.000000  celldm(5)=   0.000000  celldm(6)=   0.000000

     crystal axes: (cart. coord. in units of alat)
               a(1) = (  -0.500000   0.000000   0.500000 )  
               a(2) = (   0.000000   0.500000   0.500000 )  
               a(3) = (  -0.500000   0.500000   0.000000 )  

     reciprocal axes: (cart. coord. in units 2 pi/alat)
               b(1) = ( -1.000000 -1.000000  1.000000 )  
               b(2) = (  1.000000  1.000000  1.000000 )  
               b(3) = ( -1.000000  1.000000 -1.000000 )  


     PseudoPot. # 1 for Pd read from file:
     ./pd_pbe_v1.4.uspp.F.UPF
     MD5 check sum: 2d733d2bc2cbfd217af676df1668a4bc
     Pseudo is Ultrasoft + core correction, Zval = 16.0
     Generated by new atomic code, or converted to UPF format
     Using radial grid of  887 points,  6 beta functions with: 
                l(1) =   0
                l(2) =   0
                l(3) =   1
                l(4) =   1
                l(5) =   2
                l(6) =   2
     Q(r) pseudized with  8 coefficients,  rinner =    1.130   1.130   1.130
                                                       1.130   1.130

     atomic species   valence    mass     pseudopotential
        Pd            16.00   106.40000     Pd( 1.00)

     48 Sym. Ops., with inversion, found



   Cartesian axes

     site n.     atom                  positions (alat units)
         1           Pd  tau(   1) = (   0.0000000   0.0000000   0.0000000  )

     number of k points=    35  Marzari-Vanderbilt smearing, width (Ry)=  0.0350
                       cart. coord. in units 2pi/alat
        k(    1) = (   0.0000000   0.0000000   0.0000000), wk =   0.0027435
        k(    2) = (  -0.1111111   0.1111111  -0.1111111), wk =   0.0219479
        k(    3) = (  -0.2222222   0.2222222  -0.2222222), wk =   0.0219479
        k(    4) = (  -0.3333333   0.3333333  -0.3333333), wk =   0.0219479
        k(    5) = (  -0.4444444   0.4444444  -0.4444444), wk =   0.0219479
        k(    6) = (   0.0000000   0.2222222   0.0000000), wk =   0.0164609
        k(    7) = (  -0.1111111   0.3333333  -0.1111111), wk =   0.0658436
        k(    8) = (  -0.2222222   0.4444444  -0.2222222), wk =   0.0658436
        k(    9) = (  -0.3333333   0.5555556  -0.3333333), wk =   0.0658436
        k(   10) = (   0.5555556  -0.3333333   0.5555556), wk =   0.0658436
        k(   11) = (   0.4444444  -0.2222222   0.4444444), wk =   0.0658436
        k(   12) = (   0.3333333  -0.1111111   0.3333333), wk =   0.0658436
        k(   13) = (   0.2222222  -0.0000000   0.2222222), wk =   0.0329218
        k(   14) = (   0.0000000   0.4444444   0.0000000), wk =   0.0164609
        k(   15) = (  -0.1111111   0.5555556  -0.1111111), wk =   0.0658436
        k(   16) = (  -0.2222222   0.6666667  -0.2222222), wk =   0.0658436
        k(   17) = (   0.6666667  -0.2222222   0.6666667), wk =   0.0658436
        k(   18) = (   0.5555556  -0.1111111   0.5555556), wk =   0.0658436
        k(   19) = (   0.4444444   0.0000000   0.4444444), wk =   0.0329218
        k(   20) = (   0.0000000   0.6666667   0.0000000), wk =   0.0164609
        k(   21) = (  -0.1111111   0.7777778  -0.1111111), wk =   0.0658436
        k(   22) = (   0.7777778  -0.1111111   0.7777778), wk =   0.0658436
        k(   23) = (   0.6666667  -0.0000000   0.6666667), wk =   0.0329218
        k(   24) = (   0.0000000   0.8888889   0.0000000), wk =   0.0164609
        k(   25) = (   0.8888889   0.0000000   0.8888889), wk =   0.0329218
        k(   26) = (  -0.2222222   0.4444444   0.0000000), wk =   0.0658436
        k(   27) = (  -0.3333333   0.5555556  -0.1111111), wk =   0.1316872
        k(   28) = (   0.5555556  -0.3333333   0.7777778), wk =   0.1316872
        k(   29) = (  -0.2222222   0.6666667   0.0000000), wk =   0.0658436
        k(   30) = (   0.6666667  -0.2222222   0.8888889), wk =   0.1316872
        k(   31) = (   0.5555556  -0.1111111   0.7777778), wk =   0.1316872
        k(   32) = (   0.4444444   0.0000000   0.6666667), wk =   0.0658436
        k(   33) = (   0.7777778  -0.1111111   1.0000000), wk =   0.0658436
        k(   34) = (   0.6666667  -0.0000000   0.8888889), wk =   0.0658436
        k(   35) = (   0.5555556  -0.1111111   1.0000000), wk =   0.0658436

     Dense  grid:     3719 G-vectors     FFT dimensions: (  24,  24,  24)

     Estimated max dynamical RAM per process >       9.37 MB

     Estimated total dynamical RAM >      18.74 MB

     Initial potential from superposition of free atoms
     Check: negative starting charge=   -0.081280

     starting charge   15.49999, renormalised to   16.00000

     negative rho (up, down):  8.390E-02 0.000E+00
     Starting wfcs are   12 randomized atomic wfcs

     total cpu time spent up to now is        0.6 secs

     Self-consistent Calculation

     iteration #  1     ecut=    35.00 Ry     beta= 0.70
     Davidson diagonalization with overlap
     ethr =  1.00E-02,  avg # of iterations =  3.4

     negative rho (up, down):  8.121E-02 0.000E+00

     total cpu time spent up to now is        1.1 secs

     total energy              =    -197.91501436 Ry
     Harris-Foulkes estimate   =    -199.06963680 Ry
     estimated scf accuracy    <       1.56743184 Ry

     iteration #  2     ecut=    35.00 Ry     beta= 0.70
     Davidson diagonalization with overlap
     ethr =  9.80E-03,  avg # of iterations =  2.0

     negative rho (up, down):  8.345E-02 0.000E+00

     total cpu time spent up to now is        1.5 secs

     total energy              =    -198.26363416 Ry
     Harris-Foulkes estimate   =    -199.29992814 Ry
     estimated scf accuracy    <       2.22178536 Ry

     iteration #  3     ecut=    35.00 Ry     beta= 0.70
     Davidson diagonalization with overlap
     ethr =  9.80E-03,  avg # of iterations =  2.0

     negative rho (up, down):  8.350E-02 0.000E+00

     total cpu time spent up to now is        1.9 secs

     total energy              =    -198.67256689 Ry
     Harris-Foulkes estimate   =    -198.67270331 Ry
     estimated scf accuracy    <       0.00033164 Ry

     iteration #  4     ecut=    35.00 Ry     beta= 0.70
     Davidson diagonalization with overlap
     ethr =  2.07E-06,  avg # of iterations =  3.1

     negative rho (up, down):  8.362E-02 0.000E+00

     total cpu time spent up to now is        2.7 secs

     total energy              =    -198.67283688 Ry
     Harris-Foulkes estimate   =    -198.67283641 Ry
     estimated scf accuracy    <       0.00000286 Ry

     iteration #  5     ecut=    35.00 Ry     beta= 0.70
     Davidson diagonalization with overlap
     ethr =  1.79E-08,  avg # of iterations =  1.5

     negative rho (up, down):  8.363E-02 0.000E+00

     total cpu time spent up to now is        3.0 secs

     End of self-consistent calculation

          k = 0.0000 0.0000 0.0000 (   459 PWs)   bands (ev):

   -36.7078 -36.7078 -36.7078   7.2047  10.5736  10.5736  10.5736  11.5743
    11.5743  29.4425  32.5492  32.5492

          k =-0.1111 0.1111-0.1111 (   477 PWs)   bands (ev):

   -36.7244 -36.7106 -36.7106   7.5506  10.4934  10.6639  10.6639  11.5416
    11.5416  29.1061  30.4716  32.6095

          k =-0.2222 0.2222-0.2222 (   483 PWs)   bands (ev):

   -36.7652 -36.7171 -36.7171   8.4110  10.4875  10.7708  10.7708  11.6129
    11.6129  25.5825  30.0569  32.4846

          k =-0.3333 0.3333-0.3333 (   468 PWs)   bands (ev):

   -36.8106 -36.7240 -36.7240   8.9415  10.6823  10.6823  11.4824  11.9578
    11.9578  21.6691  29.3385  31.7014

          k =-0.4444 0.4444-0.4444 (   470 PWs)   bands (ev):

   -36.8407 -36.7287 -36.7287   8.9437  10.5730  10.5730  12.2664  12.2664
    13.4458  18.4102  28.7500  30.8955

          k = 0.0000 0.2222 0.0000 (   479 PWs)   bands (ev):

   -36.7239 -36.7144 -36.7144   7.6665  10.3851  10.7446  10.7446  11.3912
    11.6530  29.5686  31.1390  31.2478

          k =-0.1111 0.3333-0.1111 (   474 PWs)   bands (ev):

   -36.7542 -36.7217 -36.7193   8.3799  10.2225  10.8606  10.9129  11.3940
    11.7625  27.1421  29.8999  30.2148

          k =-0.2222 0.4444-0.2222 (   463 PWs)   bands (ev):

   -36.7963 -36.7289 -36.7271   9.0943  10.4953  10.6642  10.9013  12.0480
    12.1246  23.1459  29.3404  29.4984

          k =-0.3333 0.5556-0.3333 (   463 PWs)   bands (ev):

   -36.8299 -36.7355 -36.7329   9.1558  10.4754  10.7791  11.3135  12.3043
    13.7066  19.5087  28.4844  29.3102

          k = 0.5556-0.3333 0.5556 (   459 PWs)   bands (ev):

   -36.8391 -36.7405 -36.7316   9.1398  10.4362  10.7173  11.6620  12.2511
    14.8704  17.8820  27.7630  29.5237

          k = 0.4444-0.2222 0.4444 (   465 PWs)   bands (ev):

   -36.8201 -36.7394 -36.7258   9.1954  10.5413  10.7785  11.2408  11.8752
    13.2526  20.6720  27.5365  30.0579

          k = 0.3333-0.1111 0.3333 (   471 PWs)   bands (ev):

   -36.7823 -36.7323 -36.7182   8.9554  10.3531  10.7779  10.9126  11.4210
    12.2115  24.4827  27.8284  31.4324

          k = 0.2222-0.0000 0.2222 (   473 PWs)   bands (ev):

   -36.7444 -36.7208 -36.7122   8.0894  10.3427  10.7991  10.8059  11.3640
    11.7208  28.3665  28.4452  31.8942

          k = 0.0000 0.4444 0.0000 (   472 PWs)   bands (ev):

   -36.7630 -36.7301 -36.7301   8.8019   9.9382  11.1762  11.2292  11.2292
    11.8611  28.4870  28.4870  29.4828

          k =-0.1111 0.5556-0.1111 (   463 PWs)   bands (ev):

   -36.7915 -36.7397 -36.7384   9.3258   9.7945  10.9574  11.3764  12.0923
    12.2408  24.9793  27.3959  28.0201

          k =-0.2222 0.6667-0.2222 (   455 PWs)   bands (ev):

   -36.8175 -36.7528 -36.7424   9.4285  10.0503  10.8287  11.2803  12.3434
    14.1255  21.1759  26.1532  27.1237

          k = 0.6667-0.2222 0.6667 (   461 PWs)   bands (ev):

   -36.8266 -36.7658 -36.7405   9.5005  10.1782  10.9117  11.1628  12.2709
    16.5051  18.1386  24.7142  27.8535

          k = 0.5556-0.1111 0.5556 (   458 PWs)   bands (ev):

   -36.8170 -36.7694 -36.7334   9.6879  10.2735  10.7447  11.1286  11.8698
    15.1004  20.2275  23.9299  29.5489

          k = 0.4444 0.0000 0.4444 (   463 PWs)   bands (ev):

   -36.7995 -36.7562 -36.7246   9.7211  10.1578  10.5971  11.1727  11.3909
    13.3584  23.7398  24.0731  30.6961

          k = 0.0000 0.6667 0.0000 (   472 PWs)   bands (ev):

   -36.8066 -36.7480 -36.7480   9.2443   9.4699  11.8916  11.8916  12.1052
    12.4643  25.5988  25.8897  25.8897

          k =-0.1111 0.7778-0.1111 (   463 PWs)   bands (ev):

   -36.8222 -36.7598 -36.7531   9.2408   9.4159  11.7140  11.9013  12.3631
    14.3866  22.9660  23.7349  25.2964

          k = 0.7778-0.1111 0.7778 (   468 PWs)   bands (ev):

   -36.8215 -36.7797 -36.7514   9.3564   9.6970  11.2701  11.7470  12.3339
    16.9958  19.9342  21.9876  25.8283

          k = 0.6667-0.0000 0.6667 (   456 PWs)   bands (ev):

   -36.8014 -36.8012 -36.7436   9.6282  10.1301  10.7228  11.5188  12.0396
    17.2970  19.7656  21.2246  27.3786

          k = 0.0000 0.8889 0.0000 (   464 PWs)   bands (ev):

   -36.8345 -36.7597 -36.7597   9.0157   9.1834  12.2709  12.4198  12.4198
    15.0771  21.4081  24.3128  24.3128

          k = 0.8889 0.0000 0.8889 (   462 PWs)   bands (ev):

   -36.8338 -36.7679 -36.7589   9.0896   9.2665  12.0838  12.1666  12.4458
    16.4375  20.5121  22.6208  24.5093

          k =-0.2222 0.4444 0.0000 (   470 PWs)   bands (ev):

   -36.7782 -36.7375 -36.7238   9.1182  10.0275  10.7246  11.2314  11.4435
    12.2373  26.0459  26.4602  30.3660

          k =-0.3333 0.5556-0.1111 (   460 PWs)   bands (ev):

   -36.8073 -36.7510 -36.7311   9.5438  10.3075  10.4568  11.2166  11.8767
    13.4233  22.3055  25.8423  28.5184

          k = 0.5556-0.3333 0.7778 (   464 PWs)   bands (ev):

   -36.8275 -36.7576 -36.7375   9.4871  10.2341  10.9058  11.0988  12.2060
    15.4131  18.8650  26.0596  27.0239

          k =-0.2222 0.6667 0.0000 (   464 PWs)   bands (ev):

   -36.8092 -36.7563 -36.7439   9.5348   9.6427  10.9380  11.8853  11.9404
    13.6286  24.0930  24.4069  25.9285

          k = 0.6667-0.2222 0.8889 (   463 PWs)   bands (ev):

   -36.8179 -36.7724 -36.7492   9.5841   9.8671  10.7567  11.6547  12.2662
    15.8169  20.7023  23.8971  24.5973

          k = 0.5556-0.1111 0.7778 (   465 PWs)   bands (ev):

   -36.8138 -36.7854 -36.7475   9.7702  10.0406  10.5788  11.4491  12.2180
    17.6055  18.7393  22.7429  25.3559

          k = 0.4444 0.0000 0.6667 (   470 PWs)   bands (ev):

   -36.8103 -36.7774 -36.7395  10.1020  10.1237  10.1436  11.4941  11.8938
    15.2460  21.9965  22.2193  26.8085

          k = 0.7778-0.1111 1.0000 (   463 PWs)   bands (ev):

   -36.8270 -36.7685 -36.7591   9.2670   9.4006  11.5600  12.0708  12.4188
    16.1838  21.4555  23.0530  23.2599

          k = 0.6667-0.0000 0.8889 (   464 PWs)   bands (ev):

   -36.8169 -36.7853 -36.7570   9.4688   9.7211  11.0467  11.7597  12.4135
    18.2671  19.9715  20.9918  23.9198

          k = 0.5556-0.1111 1.0000 (   459 PWs)   bands (ev):

   -36.8078 -36.7911 -36.7578   9.7201  10.0423  10.4489  11.5988  12.4158
    18.0929  20.6751  21.2463  22.8082

     the Fermi energy is    12.4151 ev

!    total energy              =    -198.67283703 Ry
     Harris-Foulkes estimate   =    -198.67283699 Ry
     estimated scf accuracy    <       0.00000004 Ry

     The total energy is the sum of the following terms:

     one-electron contribution =     -66.13054744 Ry
     hartree contribution      =      43.57122632 Ry
     xc contribution           =     -31.21229296 Ry
     ewald contribution        =    -144.90428288 Ry
     smearing contrib. (-TS)   =       0.00305993 Ry

     convergence has been achieved in   5 iterations

     Writing output data file Pd-kp-conv.save/
 
     init_run     :      0.50s CPU      0.53s WALL (       1 calls)
     electrons    :      1.95s CPU      2.43s WALL (       1 calls)

     Called by init_run:
     wfcinit      :      0.15s CPU      0.17s WALL (       1 calls)
     potinit      :      0.01s CPU      0.01s WALL (       1 calls)
     hinit0       :      0.33s CPU      0.33s WALL (       1 calls)

     Called by electrons:
     c_bands      :      1.59s CPU      1.69s WALL (       5 calls)
     sum_band     :      0.30s CPU      0.33s WALL (       5 calls)
     v_of_rho     :      0.03s CPU      0.03s WALL (       6 calls)
     newd         :      0.04s CPU      0.05s WALL (       6 calls)
     mix_rho      :      0.00s CPU      0.00s WALL (       5 calls)

     Called by c_bands:
     init_us_2    :      0.04s CPU      0.04s WALL (     385 calls)
     cegterg      :      1.47s CPU      1.57s WALL (     175 calls)

     Called by sum_band:
     sum_band:bec :      0.00s CPU      0.00s WALL (     175 calls)
     addusdens    :      0.04s CPU      0.05s WALL (       5 calls)

     Called by *egterg:
     h_psi        :      1.27s CPU      1.35s WALL (     627 calls)
     s_psi        :      0.02s CPU      0.02s WALL (     627 calls)
     g_psi        :      0.01s CPU      0.01s WALL (     417 calls)
     cdiaghg      :      0.19s CPU      0.21s WALL (     592 calls)

     Called by h_psi:
     h_psi:pot    :      1.26s CPU      1.34s WALL (     627 calls)
     h_psi:calbec :      0.03s CPU      0.03s WALL (     627 calls)
     vloc_psi     :      1.21s CPU      1.29s WALL (     627 calls)
     add_vuspsi   :      0.02s CPU      0.02s WALL (     627 calls)

     General routines
     calbec       :      0.03s CPU      0.03s WALL (     802 calls)
     fft          :      0.01s CPU      0.01s WALL (      67 calls)
     ffts         :      0.00s CPU      0.00s WALL (       5 calls)
     fftw         :      1.23s CPU      1.31s WALL (   13780 calls)
 
     Parallel routines
     fft_scatt_xy :      0.23s CPU      0.24s WALL (   13852 calls)
     fft_scatt_yz :      0.27s CPU      0.29s WALL (   13852 calls)
 
     PWSCF        :     2.54s CPU         3.20s WALL

 
   This run was terminated on:  22:49: 4   2Dec2021            

=------------------------------------------------------------------------------=
   JOB DONE.
=------------------------------------------------------------------------------=
