
     Program PWSCF v.6.3 starts on  2Dec2021 at 21:15: 0 

     This program is part of the open-source Quantum ESPRESSO suite
     for quantum simulation of materials; please cite
         "P. Giannozzi et al., J. Phys.:Condens. Matter 21 395502 (2009);
         "P. Giannozzi et al., J. Phys.:Condens. Matter 29 465901 (2017);
          URL http://www.quantum-espresso.org", 
     in publications or presentations arising from this work. More details at
     http://www.quantum-espresso.org/quote

     Parallel version (MPI & OpenMP), running on       2 processor cores
     Number of MPI processes:                 2
     Threads/MPI process:                     1

     MPI processes distributed on     1 nodes
     R & G space division:  proc/nbgrp/npool/nimage =       2
     Reading input from pw-input.in

     Current dimensions of program PWSCF are:
     Max number of different atomic species (ntypx) = 10
     Max number of k-points (npk) =  40000
     Max angular momentum in pseudopotentials (lmaxx) =  3

     Subspace diagonalization in iterative solution of the eigenvalue problem:
     a serial algorithm will be used

 
     Parallelization info
     --------------------
     sticks:   dense  smooth     PW     G-vecs:    dense   smooth      PW
     Min         147     147     45                 1643     1643     304
     Max         148     148     46                 1644     1644     305
     Sum         295     295     91                 3287     3287     609
 

     Title: 
     Pd-kp-conv                                                                 


     bravais-lattice index     =            2
     lattice parameter (alat)  =       7.8000  a.u.
     unit-cell volume          =     118.6380 (a.u.)^3
     number of atoms/cell      =            1
     number of atomic types    =            1
     number of electrons       =        16.00
     number of Kohn-Sham states=           12
     kinetic-energy cutoff     =      35.0000  Ry
     charge density cutoff     =     140.0000  Ry
     convergence threshold     =      1.0E-07
     mixing beta               =       0.7000
     number of iterations used =            8  plain     mixing
     Exchange-correlation      =  SLA  PW   PBX  PBC ( 1  4  3  4 0 0)

     celldm(1)=   7.800000  celldm(2)=   0.000000  celldm(3)=   0.000000
     celldm(4)=   0.000000  celldm(5)=   0.000000  celldm(6)=   0.000000

     crystal axes: (cart. coord. in units of alat)
               a(1) = (  -0.500000   0.000000   0.500000 )  
               a(2) = (   0.000000   0.500000   0.500000 )  
               a(3) = (  -0.500000   0.500000   0.000000 )  

     reciprocal axes: (cart. coord. in units 2 pi/alat)
               b(1) = ( -1.000000 -1.000000  1.000000 )  
               b(2) = (  1.000000  1.000000  1.000000 )  
               b(3) = ( -1.000000  1.000000 -1.000000 )  


     PseudoPot. # 1 for Pd read from file:
     ./pd_pbe_v1.4.uspp.F.UPF
     MD5 check sum: 2d733d2bc2cbfd217af676df1668a4bc
     Pseudo is Ultrasoft + core correction, Zval = 16.0
     Generated by new atomic code, or converted to UPF format
     Using radial grid of  887 points,  6 beta functions with: 
                l(1) =   0
                l(2) =   0
                l(3) =   1
                l(4) =   1
                l(5) =   2
                l(6) =   2
     Q(r) pseudized with  8 coefficients,  rinner =    1.130   1.130   1.130
                                                       1.130   1.130

     atomic species   valence    mass     pseudopotential
        Pd            16.00   106.40000     Pd( 1.00)

     48 Sym. Ops., with inversion, found



   Cartesian axes

     site n.     atom                  positions (alat units)
         1           Pd  tau(   1) = (   0.0000000   0.0000000   0.0000000  )

     number of k points=     8  Marzari-Vanderbilt smearing, width (Ry)=  0.0150
                       cart. coord. in units 2pi/alat
        k(    1) = (   0.0000000   0.0000000   0.0000000), wk =   0.0312500
        k(    2) = (  -0.2500000   0.2500000  -0.2500000), wk =   0.2500000
        k(    3) = (   0.5000000  -0.5000000   0.5000000), wk =   0.1250000
        k(    4) = (   0.0000000   0.5000000   0.0000000), wk =   0.1875000
        k(    5) = (   0.7500000  -0.2500000   0.7500000), wk =   0.7500000
        k(    6) = (   0.5000000   0.0000000   0.5000000), wk =   0.3750000
        k(    7) = (   0.0000000  -1.0000000   0.0000000), wk =   0.0937500
        k(    8) = (  -0.5000000  -1.0000000   0.0000000), wk =   0.1875000

     Dense  grid:     3287 G-vectors     FFT dimensions: (  24,  24,  24)

     Estimated max dynamical RAM per process >       7.43 MB

     Estimated total dynamical RAM >      14.85 MB

     Initial potential from superposition of free atoms
     Check: negative starting charge=   -0.079046

     starting charge   15.49999, renormalised to   16.00000

     negative rho (up, down):  8.160E-02 0.000E+00
     Starting wfcs are   12 randomized atomic wfcs

     total cpu time spent up to now is        0.5 secs

     Self-consistent Calculation

     iteration #  1     ecut=    35.00 Ry     beta= 0.70
     Davidson diagonalization with overlap
     ethr =  1.00E-02,  avg # of iterations =  3.4

     negative rho (up, down):  8.028E-02 0.000E+00

     total cpu time spent up to now is        0.6 secs

     total energy              =    -198.03305134 Ry
     Harris-Foulkes estimate   =    -199.06453300 Ry
     estimated scf accuracy    <       1.41087366 Ry

     iteration #  2     ecut=    35.00 Ry     beta= 0.70
     Davidson diagonalization with overlap
     ethr =  8.82E-03,  avg # of iterations =  2.0

     negative rho (up, down):  8.154E-02 0.000E+00

     total cpu time spent up to now is        0.7 secs

     total energy              =    -198.32057350 Ry
     Harris-Foulkes estimate   =    -199.18424339 Ry
     estimated scf accuracy    <       1.82543415 Ry

     iteration #  3     ecut=    35.00 Ry     beta= 0.70
     Davidson diagonalization with overlap
     ethr =  8.82E-03,  avg # of iterations =  2.0

     negative rho (up, down):  8.154E-02 0.000E+00

     total cpu time spent up to now is        0.8 secs

     total energy              =    -198.70188065 Ry
     Harris-Foulkes estimate   =    -198.70226201 Ry
     estimated scf accuracy    <       0.00090214 Ry

     iteration #  4     ecut=    35.00 Ry     beta= 0.70
     Davidson diagonalization with overlap
     ethr =  5.64E-06,  avg # of iterations =  3.4

     negative rho (up, down):  8.165E-02 0.000E+00

     total cpu time spent up to now is        0.9 secs

     total energy              =    -198.70228579 Ry
     Harris-Foulkes estimate   =    -198.70229007 Ry
     estimated scf accuracy    <       0.00001360 Ry

     iteration #  5     ecut=    35.00 Ry     beta= 0.70
     Davidson diagonalization with overlap
     ethr =  8.50E-08,  avg # of iterations =  2.0

     negative rho (up, down):  8.166E-02 0.000E+00

     total cpu time spent up to now is        1.1 secs

     total energy              =    -198.70228854 Ry
     Harris-Foulkes estimate   =    -198.70228866 Ry
     estimated scf accuracy    <       0.00000034 Ry

     iteration #  6     ecut=    35.00 Ry     beta= 0.70
     Davidson diagonalization with overlap
     ethr =  2.14E-09,  avg # of iterations =  1.9

     negative rho (up, down):  8.166E-02 0.000E+00

     total cpu time spent up to now is        1.2 secs

     End of self-consistent calculation

          k = 0.0000 0.0000 0.0000 (   411 PWs)   bands (ev):

   -34.5920 -34.5920 -34.5920   8.7449  12.5274  12.5274  12.5274  13.7453
    13.7453  32.0854  35.8383  35.8383

          k =-0.2500 0.2500-0.2500 (   410 PWs)   bands (ev):

   -34.6990 -34.6076 -34.6076  10.2762  12.5167  12.7577  12.7577  13.8701
    13.8701  27.7825  32.7168  36.1261

          k = 0.5000-0.5000 0.5000 (   410 PWs)   bands (ev):

   -34.8046 -34.6236 -34.6236  10.5815  12.5054  12.5054  14.6424  14.6424
    16.0148  20.7133  31.3100  34.3029

          k = 0.0000 0.5000 0.0000 (   415 PWs)   bands (ev):

   -34.6949 -34.6325 -34.6325  10.7380  11.6034  13.3331  13.5067  13.5067
    14.1709  31.1423  31.1423  31.9506

          k = 0.7500-0.2500 0.7500 (   416 PWs)   bands (ev):

   -34.7695 -34.6789 -34.6485  11.1639  11.7977  12.9124  13.4795  14.7079
    17.9402  22.8411  27.8716  30.0873

          k = 0.5000 0.0000 0.5000 (   413 PWs)   bands (ev):

   -34.7451 -34.6833 -34.6236  11.6871  12.0716  12.4012  13.2775  13.7193
    16.6285  25.9709  26.0687  33.3978

          k = 0.0000-1.0000 0.0000 (   412 PWs)   bands (ev):

   -34.7940 -34.6727 -34.6727  10.5906  10.8056  14.6278  14.8733  14.8733
    18.0116  23.7539  27.0095  27.0095

          k =-0.5000-1.0000 0.0000 (   412 PWs)   bands (ev):

   -34.7339 -34.7339 -34.6743  11.4348  12.1259  12.1259  13.7044  14.8730
    22.6533  22.6533  23.6813  25.0420

     the Fermi energy is    14.8126 ev

!    total energy              =    -198.70228859 Ry
     Harris-Foulkes estimate   =    -198.70228860 Ry
     estimated scf accuracy    <          5.9E-09 Ry

     The total energy is the sum of the following terms:

     one-electron contribution =     -57.36517602 Ry
     hartree contribution      =      40.41370962 Ry
     xc contribution           =     -31.27193627 Ry
     ewald contribution        =    -150.47752455 Ry
     smearing contrib. (-TS)   =      -0.00136137 Ry

     convergence has been achieved in   6 iterations

     Writing output data file Pd-kp-conv.save/
 
     init_run     :      0.38s CPU      0.39s WALL (       1 calls)
     electrons    :      0.59s CPU      0.98s WALL (       1 calls)

     Called by init_run:
     wfcinit      :      0.03s CPU      0.03s WALL (       1 calls)
     potinit      :      0.01s CPU      0.01s WALL (       1 calls)
     hinit0       :      0.32s CPU      0.33s WALL (       1 calls)

     Called by electrons:
     c_bands      :      0.41s CPU      0.44s WALL (       6 calls)
     sum_band     :      0.12s CPU      0.12s WALL (       6 calls)
     v_of_rho     :      0.03s CPU      0.03s WALL (       7 calls)
     newd         :      0.04s CPU      0.05s WALL (       7 calls)
     mix_rho      :      0.00s CPU      0.00s WALL (       6 calls)

     Called by c_bands:
     init_us_2    :      0.01s CPU      0.01s WALL (     104 calls)
     cegterg      :      0.38s CPU      0.41s WALL (      48 calls)

     Called by sum_band:
     sum_band:bec :      0.00s CPU      0.00s WALL (      48 calls)
     addusdens    :      0.04s CPU      0.05s WALL (       6 calls)

     Called by *egterg:
     h_psi        :      0.33s CPU      0.35s WALL (     173 calls)
     s_psi        :      0.00s CPU      0.00s WALL (     173 calls)
     g_psi        :      0.00s CPU      0.00s WALL (     117 calls)
     cdiaghg      :      0.05s CPU      0.05s WALL (     165 calls)

     Called by h_psi:
     h_psi:pot    :      0.32s CPU      0.35s WALL (     173 calls)
     h_psi:calbec :      0.01s CPU      0.01s WALL (     173 calls)
     vloc_psi     :      0.31s CPU      0.33s WALL (     173 calls)
     add_vuspsi   :      0.00s CPU      0.01s WALL (     173 calls)

     General routines
     calbec       :      0.01s CPU      0.01s WALL (     221 calls)
     fft          :      0.01s CPU      0.01s WALL (      78 calls)
     ffts         :      0.00s CPU      0.00s WALL (       6 calls)
     fftw         :      0.31s CPU      0.34s WALL (    3636 calls)
 
     Parallel routines
     fft_scatt_xy :      0.06s CPU      0.06s WALL (    3720 calls)
     fft_scatt_yz :      0.07s CPU      0.07s WALL (    3720 calls)
 
     PWSCF        :     1.06s CPU         1.54s WALL

 
   This run was terminated on:  21:15: 1   2Dec2021            

=------------------------------------------------------------------------------=
   JOB DONE.
=------------------------------------------------------------------------------=
