
     Program PWSCF v.6.3 starts on  2Dec2021 at 20:53:37 

     This program is part of the open-source Quantum ESPRESSO suite
     for quantum simulation of materials; please cite
         "P. Giannozzi et al., J. Phys.:Condens. Matter 21 395502 (2009);
         "P. Giannozzi et al., J. Phys.:Condens. Matter 29 465901 (2017);
          URL http://www.quantum-espresso.org", 
     in publications or presentations arising from this work. More details at
     http://www.quantum-espresso.org/quote

     Parallel version (MPI & OpenMP), running on       2 processor cores
     Number of MPI processes:                 2
     Threads/MPI process:                     1

     MPI processes distributed on     1 nodes
     R & G space division:  proc/nbgrp/npool/nimage =       2
     Reading input from pw-input.in

     Current dimensions of program PWSCF are:
     Max number of different atomic species (ntypx) = 10
     Max number of k-points (npk) =  40000
     Max angular momentum in pseudopotentials (lmaxx) =  3

     Subspace diagonalization in iterative solution of the eigenvalue problem:
     a serial algorithm will be used

 
     Parallelization info
     --------------------
     sticks:   dense  smooth     PW     G-vecs:    dense   smooth      PW
     Min         126     126     42                 1318     1318     267
     Max         127     127     43                 1319     1319     270
     Sum         253     253     85                 2637     2637     537
 

     Title: 
     Pd-kp-conv                                                                 


     bravais-lattice index     =            2
     lattice parameter (alat)  =       7.2000  a.u.
     unit-cell volume          =      93.3120 (a.u.)^3
     number of atoms/cell      =            1
     number of atomic types    =            1
     number of electrons       =        16.00
     number of Kohn-Sham states=           12
     kinetic-energy cutoff     =      35.0000  Ry
     charge density cutoff     =     140.0000  Ry
     convergence threshold     =      1.0E-07
     mixing beta               =       0.7000
     number of iterations used =            8  plain     mixing
     Exchange-correlation      =  SLA  PW   PBX  PBC ( 1  4  3  4 0 0)

     celldm(1)=   7.200000  celldm(2)=   0.000000  celldm(3)=   0.000000
     celldm(4)=   0.000000  celldm(5)=   0.000000  celldm(6)=   0.000000

     crystal axes: (cart. coord. in units of alat)
               a(1) = (  -0.500000   0.000000   0.500000 )  
               a(2) = (   0.000000   0.500000   0.500000 )  
               a(3) = (  -0.500000   0.500000   0.000000 )  

     reciprocal axes: (cart. coord. in units 2 pi/alat)
               b(1) = ( -1.000000 -1.000000  1.000000 )  
               b(2) = (  1.000000  1.000000  1.000000 )  
               b(3) = ( -1.000000  1.000000 -1.000000 )  


     PseudoPot. # 1 for Pd read from file:
     ./pd_pbe_v1.4.uspp.F.UPF
     MD5 check sum: 2d733d2bc2cbfd217af676df1668a4bc
     Pseudo is Ultrasoft + core correction, Zval = 16.0
     Generated by new atomic code, or converted to UPF format
     Using radial grid of  887 points,  6 beta functions with: 
                l(1) =   0
                l(2) =   0
                l(3) =   1
                l(4) =   1
                l(5) =   2
                l(6) =   2
     Q(r) pseudized with  8 coefficients,  rinner =    1.130   1.130   1.130
                                                       1.130   1.130

     atomic species   valence    mass     pseudopotential
        Pd            16.00   106.40000     Pd( 1.00)

     48 Sym. Ops., with inversion, found



   Cartesian axes

     site n.     atom                  positions (alat units)
         1           Pd  tau(   1) = (   0.0000000   0.0000000   0.0000000  )

     number of k points=    35  Marzari-Vanderbilt smearing, width (Ry)=  0.0100
                       cart. coord. in units 2pi/alat
        k(    1) = (   0.0000000   0.0000000   0.0000000), wk =   0.0027435
        k(    2) = (  -0.1111111   0.1111111  -0.1111111), wk =   0.0219479
        k(    3) = (  -0.2222222   0.2222222  -0.2222222), wk =   0.0219479
        k(    4) = (  -0.3333333   0.3333333  -0.3333333), wk =   0.0219479
        k(    5) = (  -0.4444444   0.4444444  -0.4444444), wk =   0.0219479
        k(    6) = (   0.0000000   0.2222222   0.0000000), wk =   0.0164609
        k(    7) = (  -0.1111111   0.3333333  -0.1111111), wk =   0.0658436
        k(    8) = (  -0.2222222   0.4444444  -0.2222222), wk =   0.0658436
        k(    9) = (  -0.3333333   0.5555556  -0.3333333), wk =   0.0658436
        k(   10) = (   0.5555556  -0.3333333   0.5555556), wk =   0.0658436
        k(   11) = (   0.4444444  -0.2222222   0.4444444), wk =   0.0658436
        k(   12) = (   0.3333333  -0.1111111   0.3333333), wk =   0.0658436
        k(   13) = (   0.2222222  -0.0000000   0.2222222), wk =   0.0329218
        k(   14) = (   0.0000000   0.4444444   0.0000000), wk =   0.0164609
        k(   15) = (  -0.1111111   0.5555556  -0.1111111), wk =   0.0658436
        k(   16) = (  -0.2222222   0.6666667  -0.2222222), wk =   0.0658436
        k(   17) = (   0.6666667  -0.2222222   0.6666667), wk =   0.0658436
        k(   18) = (   0.5555556  -0.1111111   0.5555556), wk =   0.0658436
        k(   19) = (   0.4444444   0.0000000   0.4444444), wk =   0.0329218
        k(   20) = (   0.0000000   0.6666667   0.0000000), wk =   0.0164609
        k(   21) = (  -0.1111111   0.7777778  -0.1111111), wk =   0.0658436
        k(   22) = (   0.7777778  -0.1111111   0.7777778), wk =   0.0658436
        k(   23) = (   0.6666667  -0.0000000   0.6666667), wk =   0.0329218
        k(   24) = (   0.0000000   0.8888889   0.0000000), wk =   0.0164609
        k(   25) = (   0.8888889   0.0000000   0.8888889), wk =   0.0329218
        k(   26) = (  -0.2222222   0.4444444   0.0000000), wk =   0.0658436
        k(   27) = (  -0.3333333   0.5555556  -0.1111111), wk =   0.1316872
        k(   28) = (   0.5555556  -0.3333333   0.7777778), wk =   0.1316872
        k(   29) = (  -0.2222222   0.6666667   0.0000000), wk =   0.0658436
        k(   30) = (   0.6666667  -0.2222222   0.8888889), wk =   0.1316872
        k(   31) = (   0.5555556  -0.1111111   0.7777778), wk =   0.1316872
        k(   32) = (   0.4444444   0.0000000   0.6666667), wk =   0.0658436
        k(   33) = (   0.7777778  -0.1111111   1.0000000), wk =   0.0658436
        k(   34) = (   0.6666667  -0.0000000   0.8888889), wk =   0.0658436
        k(   35) = (   0.5555556  -0.1111111   1.0000000), wk =   0.0658436

     Dense  grid:     2637 G-vectors     FFT dimensions: (  20,  20,  20)

     Estimated max dynamical RAM per process >       6.79 MB

     Estimated total dynamical RAM >      13.59 MB

     Initial potential from superposition of free atoms
     Check: negative starting charge=   -0.084445

     starting charge   15.49999, renormalised to   16.00000

     negative rho (up, down):  8.717E-02 0.000E+00
     Starting wfcs are   12 randomized atomic wfcs

     total cpu time spent up to now is        0.4 secs

     Self-consistent Calculation

     iteration #  1     ecut=    35.00 Ry     beta= 0.70
     Davidson diagonalization with overlap
     ethr =  1.00E-02,  avg # of iterations =  3.6

     negative rho (up, down):  8.683E-02 0.000E+00

     total cpu time spent up to now is        0.7 secs

     total energy              =    -198.27942034 Ry
     Harris-Foulkes estimate   =    -198.99260098 Ry
     estimated scf accuracy    <       0.99129188 Ry

     iteration #  2     ecut=    35.00 Ry     beta= 0.70
     Davidson diagonalization with overlap
     ethr =  6.20E-03,  avg # of iterations =  2.0

     negative rho (up, down):  8.807E-02 0.000E+00

     total cpu time spent up to now is        1.0 secs

     total energy              =    -198.52615926 Ry
     Harris-Foulkes estimate   =    -198.92112437 Ry
     estimated scf accuracy    <       0.75735807 Ry

     iteration #  3     ecut=    35.00 Ry     beta= 0.70
     Davidson diagonalization with overlap
     ethr =  4.73E-03,  avg # of iterations =  2.0

     negative rho (up, down):  8.850E-02 0.000E+00

     total cpu time spent up to now is        1.3 secs

     total energy              =    -198.69347348 Ry
     Harris-Foulkes estimate   =    -198.69480148 Ry
     estimated scf accuracy    <       0.00272699 Ry

     iteration #  4     ecut=    35.00 Ry     beta= 0.70
     Davidson diagonalization with overlap
     ethr =  1.70E-05,  avg # of iterations =  2.1

     negative rho (up, down):  8.868E-02 0.000E+00

     total cpu time spent up to now is        1.5 secs

     total energy              =    -198.69421588 Ry
     Harris-Foulkes estimate   =    -198.69422902 Ry
     estimated scf accuracy    <       0.00003196 Ry

     iteration #  5     ecut=    35.00 Ry     beta= 0.70
     Davidson diagonalization with overlap
     ethr =  2.00E-07,  avg # of iterations =  2.0

     negative rho (up, down):  8.871E-02 0.000E+00

     total cpu time spent up to now is        1.8 secs

     total energy              =    -198.69422185 Ry
     Harris-Foulkes estimate   =    -198.69422179 Ry
     estimated scf accuracy    <       0.00000019 Ry

     iteration #  6     ecut=    35.00 Ry     beta= 0.70
     Davidson diagonalization with overlap
     ethr =  1.20E-09,  avg # of iterations =  2.2

     negative rho (up, down):  8.872E-02 0.000E+00

     total cpu time spent up to now is        2.0 secs

     End of self-consistent calculation

          k = 0.0000 0.0000 0.0000 (   331 PWs)   bands (ev):

   -29.4189 -29.4189 -29.4189  12.7726  17.2732  17.2732  17.2732  19.0654
    19.0654  38.4579  43.6245  43.6245

          k =-0.1111 0.1111-0.1111 (   329 PWs)   bands (ev):

   -29.4807 -29.4275 -29.4275  13.2375  17.1179  17.4303  17.4303  18.9994
    18.9994  38.8767  41.0432  44.1288

          k =-0.2222 0.2222-0.2222 (   320 PWs)   bands (ev):

   -29.6354 -29.4491 -29.4491  14.3047  17.0813  17.6120  17.6120  19.1125
    19.1125  36.7202  39.6699  45.1834

          k =-0.3333 0.3333-0.3333 (   332 PWs)   bands (ev):

   -29.8090 -29.4738 -29.4738  14.7492  17.4440  17.4440  18.4887  19.7371
    19.7371  32.5356  38.7095  44.6075

          k =-0.4444 0.4444-0.4444 (   335 PWs)   bands (ev):

   -29.9205 -29.4900 -29.4900  14.6350  17.2471  17.2471  20.3181  20.3181
    20.8066  28.9718  37.8131  43.1049

          k = 0.0000 0.2222 0.0000 (   327 PWs)   bands (ev):

   -29.4787 -29.4415 -29.4415  13.3934  16.9247  17.5722  17.5722  18.7127
    19.2077  39.1348  41.7610  43.0495

          k =-0.1111 0.3333-0.1111 (   321 PWs)   bands (ev):

   -29.5934 -29.4673 -29.4588  14.3081  16.6259  17.7558  17.8623  18.6947
    19.3983  38.3236  39.9791  42.4553

          k =-0.2222 0.4444-0.2222 (   324 PWs)   bands (ev):

   -29.7540 -29.4929 -29.4868  15.0391  17.0743  17.3890  17.8309  19.8522
    19.9134  34.1579  39.2967  41.8142

          k =-0.3333 0.5556-0.3333 (   332 PWs)   bands (ev):

   -29.8796 -29.5176 -29.5063  14.9710  17.0415  17.6061  18.3875  20.3927
    21.8739  30.0580  38.2293  41.3985

          k = 0.5556-0.3333 0.5556 (   326 PWs)   bands (ev):

   -29.9137 -29.5359 -29.5012  14.9282  16.9761  17.4929  18.9800  20.2869
    23.1044  28.3811  37.8111  40.9553

          k = 0.4444-0.2222 0.4444 (   326 PWs)   bands (ev):

   -29.8431 -29.5325 -29.4800  15.0705  17.1756  17.6018  18.2145  19.5798
    21.5391  31.3899  38.1307  41.1680

          k = 0.3333-0.1111 0.3333 (   324 PWs)   bands (ev):

   -29.7005 -29.5069 -29.4526  14.9697  16.8553  17.5793  17.8500  18.7506
    20.1371  35.6018  38.8351  42.7833

          k = 0.2222-0.0000 0.2222 (   325 PWs)   bands (ev):

   -29.5566 -29.4657 -29.4319  13.9462  16.8399  17.6563  17.6739  18.6593
    19.3152  39.1510  39.2758  42.9831

          k = 0.0000 0.4444 0.0000 (   323 PWs)   bands (ev):

   -29.6271 -29.4984 -29.4984  14.7968  16.1223  18.2679  18.4191  18.4191
    19.5821  39.9472  40.3842  40.3842

          k =-0.1111 0.5556-0.1111 (   323 PWs)   bands (ev):

   -29.7351 -29.5339 -29.5282  15.3106  15.8821  17.8969  18.6750  19.9945
    20.0013  36.1509  39.0144  39.1455

          k =-0.2222 0.6667-0.2222 (   327 PWs)   bands (ev):

   -29.8316 -29.5837 -29.5425  15.3265  16.2693  17.6684  18.4904  20.4672
    22.6278  31.7319  37.3593  38.6161

          k = 0.6667-0.2222 0.6667 (   320 PWs)   bands (ev):

   -29.8643 -29.6318 -29.5347  15.4488  16.4794  17.7697  18.2727  20.3248
    25.4627  28.3952  35.8353  39.6127

          k = 0.5556-0.1111 0.5556 (   324 PWs)   bands (ev):

   -29.8296 -29.6462 -29.5086  15.7930  16.6609  17.4501  18.2059  19.5708
    24.0528  30.7776  34.9808  40.6086

          k = 0.4444 0.0000 0.4444 (   323 PWs)   bands (ev):

   -29.7656 -29.5965 -29.4761  15.9863  16.5069  17.2049  18.2826  18.7049
    21.8672  34.6651  35.4153  41.4533

          k = 0.0000 0.6667 0.0000 (   323 PWs)   bands (ev):

   -29.7901 -29.5632 -29.5632  15.0332  15.3180  19.6069  19.6069  19.9842
    20.0281  36.9274  36.9274  37.0918

          k =-0.1111 0.7778-0.1111 (   324 PWs)   bands (ev):

   -29.8473 -29.6074 -29.5817  14.9438  15.2312  19.1767  19.6242  20.5036
    22.7692  33.7157  34.9264  36.0667

          k = 0.7778-0.1111 0.7778 (   329 PWs)   bands (ev):

   -29.8433 -29.6837 -29.5749  15.1185  15.6944  18.3996  19.3283  20.4435
    26.2692  29.9664  33.0509  36.8560

          k = 0.6667-0.0000 0.6667 (   323 PWs)   bands (ev):

   -29.7688 -29.7666 -29.5460  15.5897  16.4141  17.4666  18.8989  19.8899
    26.7675  29.8807  32.1105  39.0902

          k = 0.0000 0.8889 0.0000 (   326 PWs)   bands (ev):

   -29.8927 -29.6054 -29.6054  14.5470  14.8409  20.3342  20.6024  20.6024
    23.1011  32.8062  34.6027  34.6027

          k = 0.8889 0.0000 0.8889 (   326 PWs)   bands (ev):

   -29.8891 -29.6375 -29.6027  14.6562  14.9844  19.8625  20.1246  20.6554
    25.0212  31.8126  32.7689  34.9071

          k =-0.2222 0.4444 0.0000 (   323 PWs)   bands (ev):

   -29.6847 -29.5263 -29.4742  15.2212  16.2795  17.4904  18.4214  18.7606
    20.1813  37.1031  38.0454  41.8194

          k =-0.3333 0.5556-0.1111 (   326 PWs)   bands (ev):

   -29.7947 -29.5770 -29.5004  15.6004  16.7352  17.0304  18.3669  19.5526
    21.8642  33.1694  37.1141  39.7790

          k = 0.5556-0.3333 0.7778 (   324 PWs)   bands (ev):

   -29.8689 -29.6007 -29.5232  15.4647  16.5852  17.7513  18.1372  20.1947
    24.2264  29.2231  37.1371  38.4079

          k =-0.2222 0.6667 0.0000 (   325 PWs)   bands (ev):

   -29.8001 -29.5952 -29.5481  15.4812  15.6205  17.8565  19.5958  19.6461
    22.0358  35.0317  35.4988  37.3154

          k = 0.6667-0.2222 0.8889 (   329 PWs)   bands (ev):

   -29.8314 -29.6565 -29.5678  15.5191  15.9714  17.5388  19.1418  20.3070
    24.9020  31.0581  35.2249  35.4756

          k = 0.5556-0.1111 0.7778 (   328 PWs)   bands (ev):

   -29.8150 -29.7063 -29.5606  15.8230  16.2786  17.2163  18.7719  20.2196
    27.0492  28.8830  33.7254  36.5711

          k = 0.4444 0.0000 0.6667 (   328 PWs)   bands (ev):

   -29.8030 -29.6759 -29.5307  16.3619  16.4514  16.5126  18.8400  19.6144
    24.2943  32.7574  33.0180  38.2019

          k = 0.7778-0.1111 1.0000 (   328 PWs)   bands (ev):

   -29.8643 -29.6401 -29.6046  14.9490  15.2160  18.9167  19.9208  20.5997
    25.0429  32.6818  33.4764  33.6841

          k = 0.6667-0.0000 0.8889 (   329 PWs)   bands (ev):

   -29.8254 -29.7051 -29.5968  15.2790  15.7535  18.0183  19.3375  20.5921
    27.7344  30.1244  31.9025  34.6972

          k = 0.5556-0.1111 1.0000 (   330 PWs)   bands (ev):

   -29.7916 -29.7273 -29.6011  15.6754  16.3124  17.0079  19.0335  20.5943
    27.7677  30.8476  32.0794  33.6017

     the Fermi energy is    20.3999 ev

!    total energy              =    -198.69422190 Ry
     Harris-Foulkes estimate   =    -198.69422190 Ry
     estimated scf accuracy    <          3.8E-09 Ry

     The total energy is the sum of the following terms:

     one-electron contribution =     -37.97340459 Ry
     hartree contribution      =      33.71915881 Ry
     xc contribution           =     -31.42292197 Ry
     ewald contribution        =    -163.01731824 Ry
     smearing contrib. (-TS)   =       0.00026409 Ry

     convergence has been achieved in   6 iterations

     Writing output data file Pd-kp-conv.save/
 
     init_run     :      0.32s CPU      0.33s WALL (       1 calls)
     electrons    :      1.49s CPU      1.98s WALL (       1 calls)

     Called by init_run:
     wfcinit      :      0.08s CPU      0.08s WALL (       1 calls)
     potinit      :      0.00s CPU      0.00s WALL (       1 calls)
     hinit0       :      0.23s CPU      0.23s WALL (       1 calls)

     Called by electrons:
     c_bands      :      1.20s CPU      1.30s WALL (       6 calls)
     sum_band     :      0.24s CPU      0.25s WALL (       6 calls)
     v_of_rho     :      0.02s CPU      0.02s WALL (       7 calls)
     newd         :      0.03s CPU      0.03s WALL (       7 calls)
     mix_rho      :      0.00s CPU      0.00s WALL (       6 calls)

     Called by c_bands:
     init_us_2    :      0.03s CPU      0.04s WALL (     455 calls)
     cegterg      :      1.11s CPU      1.20s WALL (     210 calls)

     Called by sum_band:
     sum_band:bec :      0.00s CPU      0.00s WALL (     210 calls)
     addusdens    :      0.03s CPU      0.04s WALL (       6 calls)

     Called by *egterg:
     h_psi        :      0.88s CPU      0.95s WALL (     731 calls)
     s_psi        :      0.02s CPU      0.02s WALL (     731 calls)
     g_psi        :      0.01s CPU      0.01s WALL (     486 calls)
     cdiaghg      :      0.17s CPU      0.18s WALL (     696 calls)

     Called by h_psi:
     h_psi:pot    :      0.88s CPU      0.95s WALL (     731 calls)
     h_psi:calbec :      0.02s CPU      0.03s WALL (     731 calls)
     vloc_psi     :      0.83s CPU      0.90s WALL (     731 calls)
     add_vuspsi   :      0.02s CPU      0.02s WALL (     731 calls)

     General routines
     calbec       :      0.03s CPU      0.03s WALL (     941 calls)
     fft          :      0.01s CPU      0.01s WALL (      78 calls)
     ffts         :      0.00s CPU      0.00s WALL (       6 calls)
     fftw         :      0.86s CPU      0.93s WALL (   15838 calls)
 
     Parallel routines
     fft_scatt_xy :      0.16s CPU      0.17s WALL (   15922 calls)
     fft_scatt_yz :      0.22s CPU      0.24s WALL (   15922 calls)
 
     PWSCF        :     1.88s CPU         2.57s WALL

 
   This run was terminated on:  20:53:40   2Dec2021            

=------------------------------------------------------------------------------=
   JOB DONE.
=------------------------------------------------------------------------------=
