
     Program PWSCF v.6.3 starts on  2Dec2021 at 20:53:48 

     This program is part of the open-source Quantum ESPRESSO suite
     for quantum simulation of materials; please cite
         "P. Giannozzi et al., J. Phys.:Condens. Matter 21 395502 (2009);
         "P. Giannozzi et al., J. Phys.:Condens. Matter 29 465901 (2017);
          URL http://www.quantum-espresso.org", 
     in publications or presentations arising from this work. More details at
     http://www.quantum-espresso.org/quote

     Parallel version (MPI & OpenMP), running on       2 processor cores
     Number of MPI processes:                 2
     Threads/MPI process:                     1

     MPI processes distributed on     1 nodes
     R & G space division:  proc/nbgrp/npool/nimage =       2
     Reading input from pw-input.in

     Current dimensions of program PWSCF are:
     Max number of different atomic species (ntypx) = 10
     Max number of k-points (npk) =  40000
     Max angular momentum in pseudopotentials (lmaxx) =  3

     Subspace diagonalization in iterative solution of the eigenvalue problem:
     a serial algorithm will be used

 
     Parallelization info
     --------------------
     sticks:   dense  smooth     PW     G-vecs:    dense   smooth      PW
     Min         132     132     45                 1445     1445     304
     Max         133     133     46                 1446     1446     305
     Sum         265     265     91                 2891     2891     609
 

     Title: 
     Pd-kp-conv                                                                 


     bravais-lattice index     =            2
     lattice parameter (alat)  =       7.5000  a.u.
     unit-cell volume          =     105.4688 (a.u.)^3
     number of atoms/cell      =            1
     number of atomic types    =            1
     number of electrons       =        16.00
     number of Kohn-Sham states=           12
     kinetic-energy cutoff     =      35.0000  Ry
     charge density cutoff     =     140.0000  Ry
     convergence threshold     =      1.0E-07
     mixing beta               =       0.7000
     number of iterations used =            8  plain     mixing
     Exchange-correlation      =  SLA  PW   PBX  PBC ( 1  4  3  4 0 0)

     celldm(1)=   7.500000  celldm(2)=   0.000000  celldm(3)=   0.000000
     celldm(4)=   0.000000  celldm(5)=   0.000000  celldm(6)=   0.000000

     crystal axes: (cart. coord. in units of alat)
               a(1) = (  -0.500000   0.000000   0.500000 )  
               a(2) = (   0.000000   0.500000   0.500000 )  
               a(3) = (  -0.500000   0.500000   0.000000 )  

     reciprocal axes: (cart. coord. in units 2 pi/alat)
               b(1) = ( -1.000000 -1.000000  1.000000 )  
               b(2) = (  1.000000  1.000000  1.000000 )  
               b(3) = ( -1.000000  1.000000 -1.000000 )  


     PseudoPot. # 1 for Pd read from file:
     ./pd_pbe_v1.4.uspp.F.UPF
     MD5 check sum: 2d733d2bc2cbfd217af676df1668a4bc
     Pseudo is Ultrasoft + core correction, Zval = 16.0
     Generated by new atomic code, or converted to UPF format
     Using radial grid of  887 points,  6 beta functions with: 
                l(1) =   0
                l(2) =   0
                l(3) =   1
                l(4) =   1
                l(5) =   2
                l(6) =   2
     Q(r) pseudized with  8 coefficients,  rinner =    1.130   1.130   1.130
                                                       1.130   1.130

     atomic species   valence    mass     pseudopotential
        Pd            16.00   106.40000     Pd( 1.00)

     48 Sym. Ops., with inversion, found



   Cartesian axes

     site n.     atom                  positions (alat units)
         1           Pd  tau(   1) = (   0.0000000   0.0000000   0.0000000  )

     number of k points=    35  Marzari-Vanderbilt smearing, width (Ry)=  0.0100
                       cart. coord. in units 2pi/alat
        k(    1) = (   0.0000000   0.0000000   0.0000000), wk =   0.0027435
        k(    2) = (  -0.1111111   0.1111111  -0.1111111), wk =   0.0219479
        k(    3) = (  -0.2222222   0.2222222  -0.2222222), wk =   0.0219479
        k(    4) = (  -0.3333333   0.3333333  -0.3333333), wk =   0.0219479
        k(    5) = (  -0.4444444   0.4444444  -0.4444444), wk =   0.0219479
        k(    6) = (   0.0000000   0.2222222   0.0000000), wk =   0.0164609
        k(    7) = (  -0.1111111   0.3333333  -0.1111111), wk =   0.0658436
        k(    8) = (  -0.2222222   0.4444444  -0.2222222), wk =   0.0658436
        k(    9) = (  -0.3333333   0.5555556  -0.3333333), wk =   0.0658436
        k(   10) = (   0.5555556  -0.3333333   0.5555556), wk =   0.0658436
        k(   11) = (   0.4444444  -0.2222222   0.4444444), wk =   0.0658436
        k(   12) = (   0.3333333  -0.1111111   0.3333333), wk =   0.0658436
        k(   13) = (   0.2222222  -0.0000000   0.2222222), wk =   0.0329218
        k(   14) = (   0.0000000   0.4444444   0.0000000), wk =   0.0164609
        k(   15) = (  -0.1111111   0.5555556  -0.1111111), wk =   0.0658436
        k(   16) = (  -0.2222222   0.6666667  -0.2222222), wk =   0.0658436
        k(   17) = (   0.6666667  -0.2222222   0.6666667), wk =   0.0658436
        k(   18) = (   0.5555556  -0.1111111   0.5555556), wk =   0.0658436
        k(   19) = (   0.4444444   0.0000000   0.4444444), wk =   0.0329218
        k(   20) = (   0.0000000   0.6666667   0.0000000), wk =   0.0164609
        k(   21) = (  -0.1111111   0.7777778  -0.1111111), wk =   0.0658436
        k(   22) = (   0.7777778  -0.1111111   0.7777778), wk =   0.0658436
        k(   23) = (   0.6666667  -0.0000000   0.6666667), wk =   0.0329218
        k(   24) = (   0.0000000   0.8888889   0.0000000), wk =   0.0164609
        k(   25) = (   0.8888889   0.0000000   0.8888889), wk =   0.0329218
        k(   26) = (  -0.2222222   0.4444444   0.0000000), wk =   0.0658436
        k(   27) = (  -0.3333333   0.5555556  -0.1111111), wk =   0.1316872
        k(   28) = (   0.5555556  -0.3333333   0.7777778), wk =   0.1316872
        k(   29) = (  -0.2222222   0.6666667   0.0000000), wk =   0.0658436
        k(   30) = (   0.6666667  -0.2222222   0.8888889), wk =   0.1316872
        k(   31) = (   0.5555556  -0.1111111   0.7777778), wk =   0.1316872
        k(   32) = (   0.4444444   0.0000000   0.6666667), wk =   0.0658436
        k(   33) = (   0.7777778  -0.1111111   1.0000000), wk =   0.0658436
        k(   34) = (   0.6666667  -0.0000000   0.8888889), wk =   0.0658436
        k(   35) = (   0.5555556  -0.1111111   1.0000000), wk =   0.0658436

     Dense  grid:     2891 G-vectors     FFT dimensions: (  20,  20,  20)

     Estimated max dynamical RAM per process >       7.40 MB

     Estimated total dynamical RAM >      14.80 MB

     Initial potential from superposition of free atoms
     Check: negative starting charge=   -0.084664

     starting charge   15.49999, renormalised to   16.00000

     negative rho (up, down):  8.740E-02 0.000E+00
     Starting wfcs are   12 randomized atomic wfcs

     total cpu time spent up to now is        0.6 secs

     Self-consistent Calculation

     iteration #  1     ecut=    35.00 Ry     beta= 0.70
     Davidson diagonalization with overlap
     ethr =  1.00E-02,  avg # of iterations =  3.7

     negative rho (up, down):  8.674E-02 0.000E+00

     total cpu time spent up to now is        0.9 secs

     total energy              =    -198.17750571 Ry
     Harris-Foulkes estimate   =    -199.03849815 Ry
     estimated scf accuracy    <       1.18591623 Ry

     iteration #  2     ecut=    35.00 Ry     beta= 0.70
     Davidson diagonalization with overlap
     ethr =  7.41E-03,  avg # of iterations =  2.0

     negative rho (up, down):  8.792E-02 0.000E+00

     total cpu time spent up to now is        1.2 secs

     total energy              =    -198.46622382 Ry
     Harris-Foulkes estimate   =    -199.04046598 Ry
     estimated scf accuracy    <       1.14607860 Ry

     iteration #  3     ecut=    35.00 Ry     beta= 0.70
     Davidson diagonalization with overlap
     ethr =  7.16E-03,  avg # of iterations =  2.0

     negative rho (up, down):  8.820E-02 0.000E+00

     total cpu time spent up to now is        1.5 secs

     total energy              =    -198.70040794 Ry
     Harris-Foulkes estimate   =    -198.70150686 Ry
     estimated scf accuracy    <       0.00234684 Ry

     iteration #  4     ecut=    35.00 Ry     beta= 0.70
     Davidson diagonalization with overlap
     ethr =  1.47E-05,  avg # of iterations =  2.3

     negative rho (up, down):  8.839E-02 0.000E+00

     total cpu time spent up to now is        2.1 secs

     total energy              =    -198.70114040 Ry
     Harris-Foulkes estimate   =    -198.70113862 Ry
     estimated scf accuracy    <       0.00000704 Ry

     iteration #  5     ecut=    35.00 Ry     beta= 0.70
     Davidson diagonalization with overlap
     ethr =  4.40E-08,  avg # of iterations =  1.8

     negative rho (up, down):  8.843E-02 0.000E+00

     total cpu time spent up to now is        2.4 secs

     total energy              =    -198.70114127 Ry
     Harris-Foulkes estimate   =    -198.70114119 Ry
     estimated scf accuracy    <       0.00000039 Ry

     iteration #  6     ecut=    35.00 Ry     beta= 0.70
     Davidson diagonalization with overlap
     ethr =  2.41E-09,  avg # of iterations =  2.0

     negative rho (up, down):  8.844E-02 0.000E+00

     total cpu time spent up to now is        2.7 secs

     End of self-consistent calculation

          k = 0.0000 0.0000 0.0000 (   339 PWs)   bands (ev):

   -32.2915 -32.2915 -32.2915  10.5648  14.6729  14.6729  14.6729  16.1427
    16.1427  35.0649  39.4978  39.4978

          k =-0.1111 0.1111-0.1111 (   359 PWs)   bands (ev):

   -32.3313 -32.2974 -32.2974  10.9829  14.5481  14.8025  14.8025  16.0894
    16.0894  35.2620  37.0362  39.8406

          k =-0.2222 0.2222-0.2222 (   359 PWs)   bands (ev):

   -32.4298 -32.3117 -32.3117  11.9787  14.5175  14.9555  14.9555  16.1849
    16.1849  32.4712  36.0351  40.4062

          k =-0.3333 0.3333-0.3333 (   359 PWs)   bands (ev):

   -32.5405 -32.3279 -32.3279  12.4851  14.8210  14.8210  15.7411  16.6939
    16.6939  28.3082  35.1603  39.6809

          k =-0.4444 0.4444-0.4444 (   368 PWs)   bands (ev):

   -32.6123 -32.3383 -32.3383  12.4258  14.6605  14.6605  17.1607  17.1607
    17.9135  24.8192  34.3970  38.4778

          k = 0.0000 0.2222 0.0000 (   355 PWs)   bands (ev):

   -32.3302 -32.3063 -32.3063  11.1230  14.3914  14.9186  14.9186  15.8598
    16.2591  35.5315  37.7846  38.6318

          k =-0.1111 0.3333-0.1111 (   360 PWs)   bands (ev):

   -32.4032 -32.3232 -32.3179  11.9629  14.1469  15.0762  15.1598  15.8490
    16.4143  34.0874  36.1829  37.7972

          k =-0.2222 0.4444-0.2222 (   368 PWs)   bands (ev):

   -32.5056 -32.3400 -32.3363  12.7144  14.5099  14.7806  15.1374  16.8257
    16.8329  29.8969  35.5192  37.0827

          k =-0.3333 0.5556-0.3333 (   371 PWs)   bands (ev):

   -32.5863 -32.3560 -32.3489  12.7116  14.5001  14.9559  15.6290  17.2189
    18.6572  25.9211  34.5732  36.7709

          k = 0.5556-0.3333 0.5556 (   370 PWs)   bands (ev):

   -32.6085 -32.3678 -32.3457  12.6801  14.4452  14.8637  16.1283  17.1356
    19.8451  24.2564  34.1060  36.5033

          k = 0.4444-0.2222 0.4444 (   363 PWs)   bands (ev):

   -32.5626 -32.3654 -32.3320  12.7842  14.6055  14.9538  15.4917  16.5680
    18.2754  27.2007  34.2095  36.8170

          k = 0.3333-0.1111 0.3333 (   366 PWs)   bands (ev):

   -32.4712 -32.3488 -32.3144  12.6041  14.3273  14.9385  15.1535  15.8941
    17.0316  31.3323  34.7013  38.3693

          k = 0.2222-0.0000 0.2222 (   361 PWs)   bands (ev):

   -32.3797 -32.3219 -32.3007  11.6262  14.3222  14.9918  15.0044  15.8169
    16.3488  35.1534  35.2021  38.7302

          k = 0.0000 0.4444 0.0000 (   355 PWs)   bands (ev):

   -32.4246 -32.3432 -32.3432  12.4334  13.7346  15.5063  15.6173  15.6173
    16.5634  35.8209  35.8209  35.9710

          k =-0.1111 0.5556-0.1111 (   359 PWs)   bands (ev):

   -32.4935 -32.3661 -32.3626  12.9753  13.5287  15.1937  15.8301  16.9036
    16.9563  31.8511  34.5393  34.9226

          k =-0.2222 0.6667-0.2222 (   370 PWs)   bands (ev):

   -32.5557 -32.3982 -32.3721  13.0424  13.8613  15.0017  15.6829  17.2784
    19.2835  27.6206  33.0940  34.1903

          k = 0.6667-0.2222 0.6667 (   372 PWs)   bands (ev):

   -32.5773 -32.4291 -32.3673  13.1439  14.0410  15.0954  15.5064  17.1656
    21.9353  24.3739  31.5632  35.0875

          k = 0.5556-0.1111 0.5556 (   374 PWs)   bands (ev):

   -32.5547 -32.4381 -32.3507  13.4203  14.1904  14.8347  15.4536  16.5587
    20.5273  26.6450  30.7097  36.5436

          k = 0.4444 0.0000 0.4444 (   367 PWs)   bands (ev):

   -32.5130 -32.4062 -32.3297  13.5289  14.0451  14.6430  15.5178  15.8527
    18.5191  30.4693  30.9876  37.3684

          k = 0.0000 0.6667 0.0000 (   355 PWs)   bands (ev):

   -32.5287 -32.3850 -32.3850  12.7910  13.0652  16.5902  16.5902  16.9270
    17.0306  32.6716  32.6716  32.7030

          k =-0.1111 0.7778-0.1111 (   368 PWs)   bands (ev):

   -32.5662 -32.4135 -32.3973  12.7441  12.9887  16.2624  16.6048  17.3078
    19.4661  29.6042  30.5456  31.9149

          k = 0.7778-0.1111 0.7778 (   367 PWs)   bands (ev):

   -32.5640 -32.4621 -32.3929  12.8997  13.3734  15.6174  16.3694  17.2617
    22.6180  26.0729  28.7340  32.6019

          k = 0.6667-0.0000 0.6667 (   375 PWs)   bands (ev):

   -32.5165 -32.5152 -32.3746  13.2909  13.9711  14.8389  16.0225  16.8153
    23.0601  25.8972  27.8801  34.5685

          k = 0.0000 0.8889 0.0000 (   367 PWs)   bands (ev):

   -32.5957 -32.4124 -32.4124  12.4189  12.6636  17.1742  17.3881  17.3881
    19.9472  28.3610  30.6411  30.6411

          k = 0.8889 0.0000 0.8889 (   365 PWs)   bands (ev):

   -32.5936 -32.4330 -32.4107  12.5151  12.7808  16.8199  17.0083  17.4309
    21.6280  27.4163  28.8400  30.9017

          k =-0.2222 0.4444 0.0000 (   362 PWs)   bands (ev):

   -32.4613 -32.3610 -32.3281  12.8155  13.8616  14.8665  15.6205  15.9078
    17.0681  32.9104  33.5720  37.4307

          k =-0.3333 0.5556-0.1111 (   367 PWs)   bands (ev):

   -32.5316 -32.3938 -32.3452  13.2424  14.2369  14.4800  15.5829  16.5526
    18.5417  28.9477  32.7903  35.4956

          k = 0.5556-0.3333 0.7778 (   370 PWs)   bands (ev):

   -32.5798 -32.4092 -32.3598  13.1424  14.1320  15.0848  15.3978  17.0637
    20.7566  25.1577  32.9480  34.0089

          k =-0.2222 0.6667 0.0000 (   371 PWs)   bands (ev):

   -32.5356 -32.4055 -32.3757  13.1753  13.3125  15.1600  16.5803  16.6343
    18.7236  30.8332  31.1907  32.9289

          k = 0.6667-0.2222 0.8889 (   371 PWs)   bands (ev):

   -32.5561 -32.4447 -32.3884  13.2265  13.6087  14.8964  16.2210  17.1540
    21.3254  27.0256  30.8420  31.2629

          k = 0.5556-0.1111 0.7778 (   374 PWs)   bands (ev):

   -32.5459 -32.4764 -32.3839  13.4866  13.8565  14.6323  15.9196  17.0822
    23.3477  24.9008  29.4643  32.2341

          k = 0.4444 0.0000 0.6667 (   373 PWs)   bands (ev):

   -32.5377 -32.4569 -32.3648  13.9510  13.9965  14.0218  15.9768  16.5953
    20.7312  28.5409  28.8437  33.8352

          k = 0.7778-0.1111 1.0000 (   367 PWs)   bands (ev):

   -32.5775 -32.4345 -32.4118  12.7605  12.9725  16.0450  16.8501  17.3868
    21.5510  28.3239  29.4393  29.6420

          k = 0.6667-0.0000 0.8889 (   378 PWs)   bands (ev):

   -32.5529 -32.4761 -32.4070  13.0410  13.4171  15.2993  16.3803  17.3790
    24.0026  26.2066  27.6208  30.5212

          k = 0.5556-0.1111 1.0000 (   371 PWs)   bands (ev):

   -32.5309 -32.4900 -32.4096  13.3788  13.8796  14.4562  16.1358  17.3822
    23.9736  26.8654  27.8855  29.3916

     the Fermi energy is    17.2315 ev

!    total energy              =    -198.70114135 Ry
     Harris-Foulkes estimate   =    -198.70114135 Ry
     estimated scf accuracy    <          5.8E-09 Ry

     The total energy is the sum of the following terms:

     one-electron contribution =     -47.90646983 Ry
     hartree contribution      =      37.02589005 Ry
     xc contribution           =     -31.32411625 Ry
     ewald contribution        =    -156.49662553 Ry
     smearing contrib. (-TS)   =       0.00018021 Ry

     convergence has been achieved in   6 iterations

     Writing output data file Pd-kp-conv.save/
 
     init_run     :      0.43s CPU      0.47s WALL (       1 calls)
     electrons    :      1.58s CPU      2.14s WALL (       1 calls)

     Called by init_run:
     wfcinit      :      0.09s CPU      0.11s WALL (       1 calls)
     potinit      :      0.01s CPU      0.02s WALL (       1 calls)
     hinit0       :      0.32s CPU      0.32s WALL (       1 calls)

     Called by electrons:
     c_bands      :      1.28s CPU      1.46s WALL (       6 calls)
     sum_band     :      0.25s CPU      0.27s WALL (       6 calls)
     v_of_rho     :      0.02s CPU      0.02s WALL (       7 calls)
     newd         :      0.04s CPU      0.04s WALL (       7 calls)
     mix_rho      :      0.00s CPU      0.00s WALL (       6 calls)

     Called by c_bands:
     init_us_2    :      0.04s CPU      0.04s WALL (     455 calls)
     cegterg      :      1.17s CPU      1.26s WALL (     210 calls)

     Called by sum_band:
     sum_band:bec :      0.00s CPU      0.00s WALL (     210 calls)
     addusdens    :      0.04s CPU      0.04s WALL (       6 calls)

     Called by *egterg:
     h_psi        :      0.94s CPU      1.01s WALL (     731 calls)
     s_psi        :      0.02s CPU      0.02s WALL (     731 calls)
     g_psi        :      0.01s CPU      0.01s WALL (     486 calls)
     cdiaghg      :      0.18s CPU      0.19s WALL (     696 calls)

     Called by h_psi:
     h_psi:pot    :      0.93s CPU      1.01s WALL (     731 calls)
     h_psi:calbec :      0.03s CPU      0.03s WALL (     731 calls)
     vloc_psi     :      0.88s CPU      0.95s WALL (     731 calls)
     add_vuspsi   :      0.02s CPU      0.02s WALL (     731 calls)

     General routines
     calbec       :      0.03s CPU      0.03s WALL (     941 calls)
     fft          :      0.01s CPU      0.01s WALL (      78 calls)
     ffts         :      0.00s CPU      0.00s WALL (       6 calls)
     fftw         :      0.91s CPU      0.98s WALL (   15700 calls)
 
     Parallel routines
     fft_scatt_xy :      0.16s CPU      0.18s WALL (   15784 calls)
     fft_scatt_yz :      0.24s CPU      0.26s WALL (   15784 calls)
 
     PWSCF        :     2.12s CPU         2.86s WALL

 
   This run was terminated on:  20:53:51   2Dec2021            

=------------------------------------------------------------------------------=
   JOB DONE.
=------------------------------------------------------------------------------=
