
     Program PWSCF v.6.3 starts on  2Dec2021 at 20:54:12 

     This program is part of the open-source Quantum ESPRESSO suite
     for quantum simulation of materials; please cite
         "P. Giannozzi et al., J. Phys.:Condens. Matter 21 395502 (2009);
         "P. Giannozzi et al., J. Phys.:Condens. Matter 29 465901 (2017);
          URL http://www.quantum-espresso.org", 
     in publications or presentations arising from this work. More details at
     http://www.quantum-espresso.org/quote

     Parallel version (MPI & OpenMP), running on       2 processor cores
     Number of MPI processes:                 2
     Threads/MPI process:                     1

     MPI processes distributed on     1 nodes
     R & G space division:  proc/nbgrp/npool/nimage =       2
     Reading input from pw-input.in

     Current dimensions of program PWSCF are:
     Max number of different atomic species (ntypx) = 10
     Max number of k-points (npk) =  40000
     Max angular momentum in pseudopotentials (lmaxx) =  3

     Subspace diagonalization in iterative solution of the eigenvalue problem:
     a serial algorithm will be used

 
     Parallelization info
     --------------------
     sticks:   dense  smooth     PW     G-vecs:    dense   smooth      PW
     Min         156     156     54                 1859     1859     362
     Max         157     157     55                 1860     1860     363
     Sum         313     313    109                 3719     3719     725
 

     Title: 
     Pd-kp-conv                                                                 


     bravais-lattice index     =            2
     lattice parameter (alat)  =       8.1000  a.u.
     unit-cell volume          =     132.8602 (a.u.)^3
     number of atoms/cell      =            1
     number of atomic types    =            1
     number of electrons       =        16.00
     number of Kohn-Sham states=           12
     kinetic-energy cutoff     =      35.0000  Ry
     charge density cutoff     =     140.0000  Ry
     convergence threshold     =      1.0E-07
     mixing beta               =       0.7000
     number of iterations used =            8  plain     mixing
     Exchange-correlation      =  SLA  PW   PBX  PBC ( 1  4  3  4 0 0)

     celldm(1)=   8.100000  celldm(2)=   0.000000  celldm(3)=   0.000000
     celldm(4)=   0.000000  celldm(5)=   0.000000  celldm(6)=   0.000000

     crystal axes: (cart. coord. in units of alat)
               a(1) = (  -0.500000   0.000000   0.500000 )  
               a(2) = (   0.000000   0.500000   0.500000 )  
               a(3) = (  -0.500000   0.500000   0.000000 )  

     reciprocal axes: (cart. coord. in units 2 pi/alat)
               b(1) = ( -1.000000 -1.000000  1.000000 )  
               b(2) = (  1.000000  1.000000  1.000000 )  
               b(3) = ( -1.000000  1.000000 -1.000000 )  


     PseudoPot. # 1 for Pd read from file:
     ./pd_pbe_v1.4.uspp.F.UPF
     MD5 check sum: 2d733d2bc2cbfd217af676df1668a4bc
     Pseudo is Ultrasoft + core correction, Zval = 16.0
     Generated by new atomic code, or converted to UPF format
     Using radial grid of  887 points,  6 beta functions with: 
                l(1) =   0
                l(2) =   0
                l(3) =   1
                l(4) =   1
                l(5) =   2
                l(6) =   2
     Q(r) pseudized with  8 coefficients,  rinner =    1.130   1.130   1.130
                                                       1.130   1.130

     atomic species   valence    mass     pseudopotential
        Pd            16.00   106.40000     Pd( 1.00)

     48 Sym. Ops., with inversion, found



   Cartesian axes

     site n.     atom                  positions (alat units)
         1           Pd  tau(   1) = (   0.0000000   0.0000000   0.0000000  )

     number of k points=    35  Marzari-Vanderbilt smearing, width (Ry)=  0.0100
                       cart. coord. in units 2pi/alat
        k(    1) = (   0.0000000   0.0000000   0.0000000), wk =   0.0027435
        k(    2) = (  -0.1111111   0.1111111  -0.1111111), wk =   0.0219479
        k(    3) = (  -0.2222222   0.2222222  -0.2222222), wk =   0.0219479
        k(    4) = (  -0.3333333   0.3333333  -0.3333333), wk =   0.0219479
        k(    5) = (  -0.4444444   0.4444444  -0.4444444), wk =   0.0219479
        k(    6) = (   0.0000000   0.2222222   0.0000000), wk =   0.0164609
        k(    7) = (  -0.1111111   0.3333333  -0.1111111), wk =   0.0658436
        k(    8) = (  -0.2222222   0.4444444  -0.2222222), wk =   0.0658436
        k(    9) = (  -0.3333333   0.5555556  -0.3333333), wk =   0.0658436
        k(   10) = (   0.5555556  -0.3333333   0.5555556), wk =   0.0658436
        k(   11) = (   0.4444444  -0.2222222   0.4444444), wk =   0.0658436
        k(   12) = (   0.3333333  -0.1111111   0.3333333), wk =   0.0658436
        k(   13) = (   0.2222222  -0.0000000   0.2222222), wk =   0.0329218
        k(   14) = (   0.0000000   0.4444444   0.0000000), wk =   0.0164609
        k(   15) = (  -0.1111111   0.5555556  -0.1111111), wk =   0.0658436
        k(   16) = (  -0.2222222   0.6666667  -0.2222222), wk =   0.0658436
        k(   17) = (   0.6666667  -0.2222222   0.6666667), wk =   0.0658436
        k(   18) = (   0.5555556  -0.1111111   0.5555556), wk =   0.0658436
        k(   19) = (   0.4444444   0.0000000   0.4444444), wk =   0.0329218
        k(   20) = (   0.0000000   0.6666667   0.0000000), wk =   0.0164609
        k(   21) = (  -0.1111111   0.7777778  -0.1111111), wk =   0.0658436
        k(   22) = (   0.7777778  -0.1111111   0.7777778), wk =   0.0658436
        k(   23) = (   0.6666667  -0.0000000   0.6666667), wk =   0.0329218
        k(   24) = (   0.0000000   0.8888889   0.0000000), wk =   0.0164609
        k(   25) = (   0.8888889   0.0000000   0.8888889), wk =   0.0329218
        k(   26) = (  -0.2222222   0.4444444   0.0000000), wk =   0.0658436
        k(   27) = (  -0.3333333   0.5555556  -0.1111111), wk =   0.1316872
        k(   28) = (   0.5555556  -0.3333333   0.7777778), wk =   0.1316872
        k(   29) = (  -0.2222222   0.6666667   0.0000000), wk =   0.0658436
        k(   30) = (   0.6666667  -0.2222222   0.8888889), wk =   0.1316872
        k(   31) = (   0.5555556  -0.1111111   0.7777778), wk =   0.1316872
        k(   32) = (   0.4444444   0.0000000   0.6666667), wk =   0.0658436
        k(   33) = (   0.7777778  -0.1111111   1.0000000), wk =   0.0658436
        k(   34) = (   0.6666667  -0.0000000   0.8888889), wk =   0.0658436
        k(   35) = (   0.5555556  -0.1111111   1.0000000), wk =   0.0658436

     Dense  grid:     3719 G-vectors     FFT dimensions: (  24,  24,  24)

     Estimated max dynamical RAM per process >       9.37 MB

     Estimated total dynamical RAM >      18.74 MB

     Initial potential from superposition of free atoms
     Check: negative starting charge=   -0.081280

     starting charge   15.49999, renormalised to   16.00000

     negative rho (up, down):  8.390E-02 0.000E+00
     Starting wfcs are   12 randomized atomic wfcs

     total cpu time spent up to now is        0.6 secs

     Self-consistent Calculation

     iteration #  1     ecut=    35.00 Ry     beta= 0.70
     Davidson diagonalization with overlap
     ethr =  1.00E-02,  avg # of iterations =  3.4

     negative rho (up, down):  8.120E-02 0.000E+00

     total cpu time spent up to now is        1.1 secs

     total energy              =    -197.92026411 Ry
     Harris-Foulkes estimate   =    -199.06882581 Ry
     estimated scf accuracy    <       1.55910713 Ry

     iteration #  2     ecut=    35.00 Ry     beta= 0.70
     Davidson diagonalization with overlap
     ethr =  9.74E-03,  avg # of iterations =  2.0

     negative rho (up, down):  8.344E-02 0.000E+00

     total cpu time spent up to now is        1.5 secs

     total energy              =    -198.26117372 Ry
     Harris-Foulkes estimate   =    -199.30175675 Ry
     estimated scf accuracy    <       2.23786976 Ry

     iteration #  3     ecut=    35.00 Ry     beta= 0.70
     Davidson diagonalization with overlap
     ethr =  9.74E-03,  avg # of iterations =  2.0

     negative rho (up, down):  8.351E-02 0.000E+00

     total cpu time spent up to now is        1.9 secs

     total energy              =    -198.67288476 Ry
     Harris-Foulkes estimate   =    -198.67317883 Ry
     estimated scf accuracy    <       0.00070231 Ry

     iteration #  4     ecut=    35.00 Ry     beta= 0.70
     Davidson diagonalization with overlap
     ethr =  4.39E-06,  avg # of iterations =  2.9

     negative rho (up, down):  8.363E-02 0.000E+00

     total cpu time spent up to now is        2.7 secs

     total energy              =    -198.67321736 Ry
     Harris-Foulkes estimate   =    -198.67321735 Ry
     estimated scf accuracy    <       0.00000437 Ry

     iteration #  5     ecut=    35.00 Ry     beta= 0.70
     Davidson diagonalization with overlap
     ethr =  2.73E-08,  avg # of iterations =  1.4

     negative rho (up, down):  8.364E-02 0.000E+00

     total cpu time spent up to now is        3.0 secs

     End of self-consistent calculation

          k = 0.0000 0.0000 0.0000 (   459 PWs)   bands (ev):

   -36.7070 -36.7070 -36.7070   7.2046  10.5729  10.5729  10.5729  11.5761
    11.5761  29.4409  32.5502  32.5502

          k =-0.1111 0.1111-0.1111 (   477 PWs)   bands (ev):

   -36.7236 -36.7098 -36.7098   7.5505  10.4927  10.6632  10.6632  11.5434
    11.5434  29.1052  30.4718  32.6104

          k =-0.2222 0.2222-0.2222 (   483 PWs)   bands (ev):

   -36.7644 -36.7164 -36.7164   8.4108  10.4869  10.7706  10.7706  11.6143
    11.6143  25.5826  30.0563  32.4850

          k =-0.3333 0.3333-0.3333 (   468 PWs)   bands (ev):

   -36.8099 -36.7233 -36.7233   8.9410  10.6828  10.6828  11.4822  11.9585
    11.9585  21.6691  29.3383  31.7013

          k =-0.4444 0.4444-0.4444 (   470 PWs)   bands (ev):

   -36.8399 -36.7280 -36.7280   8.9430  10.5737  10.5737  12.2669  12.2669
    13.4458  18.4100  28.7500  30.8951

          k = 0.0000 0.2222 0.0000 (   479 PWs)   bands (ev):

   -36.7232 -36.7137 -36.7137   7.6664  10.3844  10.7439  10.7439  11.3930
    11.6548  29.5670  31.1400  31.2484

          k =-0.1111 0.3333-0.1111 (   474 PWs)   bands (ev):

   -36.7534 -36.7209 -36.7186   8.3798  10.2218  10.8606  10.9124  11.3951
    11.7641  27.1422  29.8993  30.2152

          k =-0.2222 0.4444-0.2222 (   463 PWs)   bands (ev):

   -36.7956 -36.7281 -36.7263   9.0940  10.4949  10.6649  10.9016  12.0489
    12.1249  23.1459  29.3404  29.4985

          k =-0.3333 0.5556-0.3333 (   463 PWs)   bands (ev):

   -36.8292 -36.7348 -36.7321   9.1552  10.4764  10.7798  11.3135  12.3048
    13.7067  19.5085  28.4846  29.3102

          k = 0.5556-0.3333 0.5556 (   459 PWs)   bands (ev):

   -36.8384 -36.7397 -36.7309   9.1391  10.4370  10.7181  11.6622  12.2515
    14.8706  17.8817  27.7631  29.5235

          k = 0.4444-0.2222 0.4444 (   465 PWs)   bands (ev):

   -36.8194 -36.7387 -36.7251   9.1948  10.5418  10.7793  11.2411  11.8756
    13.2529  20.6719  27.5365  30.0578

          k = 0.3333-0.1111 0.3333 (   471 PWs)   bands (ev):

   -36.7815 -36.7315 -36.7174   8.9552  10.3524  10.7784  10.9128  11.4220
    12.2122  24.4828  27.8283  31.4322

          k = 0.2222-0.0000 0.2222 (   473 PWs)   bands (ev):

   -36.7437 -36.7200 -36.7114   8.0893  10.3420  10.7988  10.8052  11.3659
    11.7223  28.3672  28.4444  31.8940

          k = 0.0000 0.4444 0.0000 (   472 PWs)   bands (ev):

   -36.7623 -36.7294 -36.7294   8.8021   9.9374  11.1776  11.2285  11.2285
    11.8630  28.4872  28.4872  29.4839

          k =-0.1111 0.5556-0.1111 (   463 PWs)   bands (ev):

   -36.7907 -36.7390 -36.7377   9.3263   9.7939  10.9576  11.3764  12.0936
    12.2409  24.9794  27.3961  28.0206

          k =-0.2222 0.6667-0.2222 (   455 PWs)   bands (ev):

   -36.8167 -36.7520 -36.7416   9.4283  10.0511  10.8282  11.2810  12.3439
    14.1256  21.1759  26.1535  27.1238

          k = 0.6667-0.2222 0.6667 (   461 PWs)   bands (ev):

   -36.8259 -36.7651 -36.7398   9.5001  10.1794  10.9112  11.1638  12.2711
    16.5054  18.1384  24.7145  27.8536

          k = 0.5556-0.1111 0.5556 (   458 PWs)   bands (ev):

   -36.8162 -36.7686 -36.7327   9.6873  10.2742  10.7448  11.1299  11.8696
    15.1005  20.2275  23.9300  29.5491

          k = 0.4444 0.0000 0.4444 (   463 PWs)   bands (ev):

   -36.7988 -36.7554 -36.7238   9.7207  10.1571  10.5984  11.1745  11.3902
    13.3587  23.7403  24.0727  30.6961

          k = 0.0000 0.6667 0.0000 (   472 PWs)   bands (ev):

   -36.8058 -36.7473 -36.7473   9.2455   9.4691  11.8909  11.8909  12.1072
    12.4646  25.5992  25.8898  25.8898

          k =-0.1111 0.7778-0.1111 (   463 PWs)   bands (ev):

   -36.8214 -36.7591 -36.7523   9.2419   9.4155  11.7134  11.9022  12.3636
    14.3865  22.9659  23.7355  25.2966

          k = 0.7778-0.1111 0.7778 (   468 PWs)   bands (ev):

   -36.8207 -36.7790 -36.7507   9.3569   9.6973  11.2695  11.7484  12.3337
    16.9956  19.9341  21.9883  25.8285

          k = 0.6667-0.0000 0.6667 (   456 PWs)   bands (ev):

   -36.8007 -36.8004 -36.7429   9.6283  10.1308  10.7221  11.5206  12.0389
    17.2970  19.7651  21.2253  27.3789

          k = 0.0000 0.8889 0.0000 (   464 PWs)   bands (ev):

   -36.8337 -36.7589 -36.7589   9.0172   9.1826  12.2729  12.4191  12.4191
    15.0768  21.4088  24.3129  24.3129

          k = 0.8889 0.0000 0.8889 (   462 PWs)   bands (ev):

   -36.8331 -36.7671 -36.7582   9.0909   9.2659  12.0831  12.1686  12.4451
    16.4369  20.5128  22.6211  24.5095

          k =-0.2222 0.4444 0.0000 (   470 PWs)   bands (ev):

   -36.7775 -36.7368 -36.7231   9.1182  10.0267  10.7252  11.2308  11.4450
    12.2380  26.0465  26.4599  30.3663

          k =-0.3333 0.5556-0.1111 (   460 PWs)   bands (ev):

   -36.8066 -36.7503 -36.7303   9.5435  10.3077  10.4572  11.2172  11.8772
    13.4235  22.3056  25.8423  28.5186

          k = 0.5556-0.3333 0.7778 (   464 PWs)   bands (ev):

   -36.8268 -36.7569 -36.7368   9.4864  10.2351  10.9060  11.0994  12.2062
    15.4133  18.8649  26.0596  27.0241

          k =-0.2222 0.6667 0.0000 (   464 PWs)   bands (ev):

   -36.8084 -36.7556 -36.7431   9.5360   9.6420  10.9377  11.8846  11.9422
    13.6286  24.0933  24.4067  25.9291

          k = 0.6667-0.2222 0.8889 (   463 PWs)   bands (ev):

   -36.8172 -36.7717 -36.7485   9.5844   9.8676  10.7562  11.6559  12.2660
    15.8169  20.7022  23.8971  24.5979

          k = 0.5556-0.1111 0.7778 (   465 PWs)   bands (ev):

   -36.8131 -36.7847 -36.7467   9.7704  10.0412  10.5781  11.4507  12.2176
    17.6056  18.7391  22.7432  25.3562

          k = 0.4444 0.0000 0.6667 (   470 PWs)   bands (ev):

   -36.8095 -36.7766 -36.7388  10.1021  10.1230  10.1446  11.4959  11.8931
    15.2461  21.9961  22.2198  26.8088

          k = 0.7778-0.1111 1.0000 (   463 PWs)   bands (ev):

   -36.8263 -36.7678 -36.7584   9.2685   9.3998  11.5596  12.0725  12.4181
    16.1835  21.4558  23.0529  23.2606

          k = 0.6667-0.0000 0.8889 (   464 PWs)   bands (ev):

   -36.8161 -36.7846 -36.7563   9.4698   9.7209  11.0460  11.7616  12.4128
    18.2666  19.9714  20.9927  23.9202

          k = 0.5556-0.1111 1.0000 (   459 PWs)   bands (ev):

   -36.8071 -36.7903 -36.7570   9.7217  10.0415  10.4482  11.6006  12.4151
    18.0928  20.6747  21.2464  22.8092

     the Fermi energy is    12.3345 ev

!    total energy              =    -198.67321760 Ry
     Harris-Foulkes estimate   =    -198.67321762 Ry
     estimated scf accuracy    <       0.00000009 Ry

     The total energy is the sum of the following terms:

     one-electron contribution =     -66.12569108 Ry
     hartree contribution      =      43.56899858 Ry
     xc contribution           =     -31.21204978 Ry
     ewald contribution        =    -144.90428288 Ry
     smearing contrib. (-TS)   =      -0.00019244 Ry

     convergence has been achieved in   5 iterations

     Writing output data file Pd-kp-conv.save/
 
     init_run     :      0.49s CPU      0.53s WALL (       1 calls)
     electrons    :      1.90s CPU      2.37s WALL (       1 calls)

     Called by init_run:
     wfcinit      :      0.14s CPU      0.16s WALL (       1 calls)
     potinit      :      0.01s CPU      0.02s WALL (       1 calls)
     hinit0       :      0.33s CPU      0.33s WALL (       1 calls)

     Called by electrons:
     c_bands      :      1.54s CPU      1.65s WALL (       5 calls)
     sum_band     :      0.30s CPU      0.32s WALL (       5 calls)
     v_of_rho     :      0.03s CPU      0.03s WALL (       6 calls)
     newd         :      0.04s CPU      0.04s WALL (       6 calls)
     mix_rho      :      0.00s CPU      0.00s WALL (       5 calls)

     Called by c_bands:
     init_us_2    :      0.04s CPU      0.04s WALL (     385 calls)
     cegterg      :      1.43s CPU      1.53s WALL (     175 calls)

     Called by sum_band:
     sum_band:bec :      0.00s CPU      0.00s WALL (     175 calls)
     addusdens    :      0.04s CPU      0.04s WALL (       5 calls)

     Called by *egterg:
     h_psi        :      1.23s CPU      1.32s WALL (     619 calls)
     s_psi        :      0.02s CPU      0.02s WALL (     619 calls)
     g_psi        :      0.01s CPU      0.01s WALL (     409 calls)
     cdiaghg      :      0.18s CPU      0.20s WALL (     584 calls)

     Called by h_psi:
     h_psi:pot    :      1.23s CPU      1.32s WALL (     619 calls)
     h_psi:calbec :      0.03s CPU      0.03s WALL (     619 calls)
     vloc_psi     :      1.18s CPU      1.27s WALL (     619 calls)
     add_vuspsi   :      0.02s CPU      0.02s WALL (     619 calls)

     General routines
     calbec       :      0.03s CPU      0.03s WALL (     794 calls)
     fft          :      0.01s CPU      0.01s WALL (      67 calls)
     ffts         :      0.00s CPU      0.00s WALL (       5 calls)
     fftw         :      1.20s CPU      1.29s WALL (   13576 calls)
 
     Parallel routines
     fft_scatt_xy :      0.22s CPU      0.24s WALL (   13648 calls)
     fft_scatt_yz :      0.26s CPU      0.29s WALL (   13648 calls)
 
     PWSCF        :     2.48s CPU         3.14s WALL

 
   This run was terminated on:  20:54:15   2Dec2021            

=------------------------------------------------------------------------------=
   JOB DONE.
=------------------------------------------------------------------------------=
