
     Program PWSCF v.6.3 starts on  2Dec2021 at 20:54:28 

     This program is part of the open-source Quantum ESPRESSO suite
     for quantum simulation of materials; please cite
         "P. Giannozzi et al., J. Phys.:Condens. Matter 21 395502 (2009);
         "P. Giannozzi et al., J. Phys.:Condens. Matter 29 465901 (2017);
          URL http://www.quantum-espresso.org", 
     in publications or presentations arising from this work. More details at
     http://www.quantum-espresso.org/quote

     Parallel version (MPI & OpenMP), running on       2 processor cores
     Number of MPI processes:                 2
     Threads/MPI process:                     1

     MPI processes distributed on     1 nodes
     R & G space division:  proc/nbgrp/npool/nimage =       2
     Reading input from pw-input.in

     Current dimensions of program PWSCF are:
     Max number of different atomic species (ntypx) = 10
     Max number of k-points (npk) =  40000
     Max angular momentum in pseudopotentials (lmaxx) =  3

     Subspace diagonalization in iterative solution of the eigenvalue problem:
     a serial algorithm will be used

 
     Parallelization info
     --------------------
     sticks:   dense  smooth     PW     G-vecs:    dense   smooth      PW
     Min         174     174     60                 2142     2142     434
     Max         175     175     61                 2143     2143     435
     Sum         349     349    121                 4285     4285     869
 

     Title: 
     Pd-kp-conv                                                                 


     bravais-lattice index     =            2
     lattice parameter (alat)  =       8.5000  a.u.
     unit-cell volume          =     153.5312 (a.u.)^3
     number of atoms/cell      =            1
     number of atomic types    =            1
     number of electrons       =        16.00
     number of Kohn-Sham states=           12
     kinetic-energy cutoff     =      35.0000  Ry
     charge density cutoff     =     140.0000  Ry
     convergence threshold     =      1.0E-07
     mixing beta               =       0.7000
     number of iterations used =            8  plain     mixing
     Exchange-correlation      =  SLA  PW   PBX  PBC ( 1  4  3  4 0 0)

     celldm(1)=   8.500000  celldm(2)=   0.000000  celldm(3)=   0.000000
     celldm(4)=   0.000000  celldm(5)=   0.000000  celldm(6)=   0.000000

     crystal axes: (cart. coord. in units of alat)
               a(1) = (  -0.500000   0.000000   0.500000 )  
               a(2) = (   0.000000   0.500000   0.500000 )  
               a(3) = (  -0.500000   0.500000   0.000000 )  

     reciprocal axes: (cart. coord. in units 2 pi/alat)
               b(1) = ( -1.000000 -1.000000  1.000000 )  
               b(2) = (  1.000000  1.000000  1.000000 )  
               b(3) = ( -1.000000  1.000000 -1.000000 )  


     PseudoPot. # 1 for Pd read from file:
     ./pd_pbe_v1.4.uspp.F.UPF
     MD5 check sum: 2d733d2bc2cbfd217af676df1668a4bc
     Pseudo is Ultrasoft + core correction, Zval = 16.0
     Generated by new atomic code, or converted to UPF format
     Using radial grid of  887 points,  6 beta functions with: 
                l(1) =   0
                l(2) =   0
                l(3) =   1
                l(4) =   1
                l(5) =   2
                l(6) =   2
     Q(r) pseudized with  8 coefficients,  rinner =    1.130   1.130   1.130
                                                       1.130   1.130

     atomic species   valence    mass     pseudopotential
        Pd            16.00   106.40000     Pd( 1.00)

     48 Sym. Ops., with inversion, found



   Cartesian axes

     site n.     atom                  positions (alat units)
         1           Pd  tau(   1) = (   0.0000000   0.0000000   0.0000000  )

     number of k points=    35  Marzari-Vanderbilt smearing, width (Ry)=  0.0100
                       cart. coord. in units 2pi/alat
        k(    1) = (   0.0000000   0.0000000   0.0000000), wk =   0.0027435
        k(    2) = (  -0.1111111   0.1111111  -0.1111111), wk =   0.0219479
        k(    3) = (  -0.2222222   0.2222222  -0.2222222), wk =   0.0219479
        k(    4) = (  -0.3333333   0.3333333  -0.3333333), wk =   0.0219479
        k(    5) = (  -0.4444444   0.4444444  -0.4444444), wk =   0.0219479
        k(    6) = (   0.0000000   0.2222222   0.0000000), wk =   0.0164609
        k(    7) = (  -0.1111111   0.3333333  -0.1111111), wk =   0.0658436
        k(    8) = (  -0.2222222   0.4444444  -0.2222222), wk =   0.0658436
        k(    9) = (  -0.3333333   0.5555556  -0.3333333), wk =   0.0658436
        k(   10) = (   0.5555556  -0.3333333   0.5555556), wk =   0.0658436
        k(   11) = (   0.4444444  -0.2222222   0.4444444), wk =   0.0658436
        k(   12) = (   0.3333333  -0.1111111   0.3333333), wk =   0.0658436
        k(   13) = (   0.2222222  -0.0000000   0.2222222), wk =   0.0329218
        k(   14) = (   0.0000000   0.4444444   0.0000000), wk =   0.0164609
        k(   15) = (  -0.1111111   0.5555556  -0.1111111), wk =   0.0658436
        k(   16) = (  -0.2222222   0.6666667  -0.2222222), wk =   0.0658436
        k(   17) = (   0.6666667  -0.2222222   0.6666667), wk =   0.0658436
        k(   18) = (   0.5555556  -0.1111111   0.5555556), wk =   0.0658436
        k(   19) = (   0.4444444   0.0000000   0.4444444), wk =   0.0329218
        k(   20) = (   0.0000000   0.6666667   0.0000000), wk =   0.0164609
        k(   21) = (  -0.1111111   0.7777778  -0.1111111), wk =   0.0658436
        k(   22) = (   0.7777778  -0.1111111   0.7777778), wk =   0.0658436
        k(   23) = (   0.6666667  -0.0000000   0.6666667), wk =   0.0329218
        k(   24) = (   0.0000000   0.8888889   0.0000000), wk =   0.0164609
        k(   25) = (   0.8888889   0.0000000   0.8888889), wk =   0.0329218
        k(   26) = (  -0.2222222   0.4444444   0.0000000), wk =   0.0658436
        k(   27) = (  -0.3333333   0.5555556  -0.1111111), wk =   0.1316872
        k(   28) = (   0.5555556  -0.3333333   0.7777778), wk =   0.1316872
        k(   29) = (  -0.2222222   0.6666667   0.0000000), wk =   0.0658436
        k(   30) = (   0.6666667  -0.2222222   0.8888889), wk =   0.1316872
        k(   31) = (   0.5555556  -0.1111111   0.7777778), wk =   0.1316872
        k(   32) = (   0.4444444   0.0000000   0.6666667), wk =   0.0658436
        k(   33) = (   0.7777778  -0.1111111   1.0000000), wk =   0.0658436
        k(   34) = (   0.6666667  -0.0000000   0.8888889), wk =   0.0658436
        k(   35) = (   0.5555556  -0.1111111   1.0000000), wk =   0.0658436

     Dense  grid:     4285 G-vectors     FFT dimensions: (  24,  24,  24)

     Estimated max dynamical RAM per process >      10.60 MB

     Estimated total dynamical RAM >      21.20 MB

     Check: negative/imaginary core charge=   -0.000001    0.000000

     Initial potential from superposition of free atoms
     Check: negative starting charge=   -0.084050

     starting charge   15.49999, renormalised to   16.00000

     negative rho (up, down):  8.676E-02 0.000E+00
     Starting wfcs are   12 randomized atomic wfcs

     total cpu time spent up to now is        0.7 secs

     Self-consistent Calculation

     iteration #  1     ecut=    35.00 Ry     beta= 0.70
     Davidson diagonalization with overlap
     ethr =  1.00E-02,  avg # of iterations =  3.3

     negative rho (up, down):  8.375E-02 0.000E+00

     total cpu time spent up to now is        1.1 secs

     total energy              =    -197.73594547 Ry
     Harris-Foulkes estimate   =    -199.06398136 Ry
     estimated scf accuracy    <       1.78820285 Ry

     iteration #  2     ecut=    35.00 Ry     beta= 0.70
     Davidson diagonalization with overlap
     ethr =  1.00E-02,  avg # of iterations =  2.0

     negative rho (up, down):  8.603E-02 0.000E+00

     total cpu time spent up to now is        1.5 secs

     total energy              =    -198.20314451 Ry
     Harris-Foulkes estimate   =    -199.48785027 Ry
     estimated scf accuracy    <       2.79670370 Ry

     iteration #  3     ecut=    35.00 Ry     beta= 0.70
     Davidson diagonalization with overlap
     ethr =  1.00E-02,  avg # of iterations =  2.0

     negative rho (up, down):  8.609E-02 0.000E+00

     total cpu time spent up to now is        2.0 secs

     total energy              =    -198.64214583 Ry
     Harris-Foulkes estimate   =    -198.64319914 Ry
     estimated scf accuracy    <       0.00326857 Ry

     iteration #  4     ecut=    35.00 Ry     beta= 0.70
     Davidson diagonalization with overlap
     ethr =  2.04E-05,  avg # of iterations =  2.5

     negative rho (up, down):  8.616E-02 0.000E+00

     total cpu time spent up to now is        2.4 secs

     total energy              =    -198.64267130 Ry
     Harris-Foulkes estimate   =    -198.64268633 Ry
     estimated scf accuracy    <       0.00006572 Ry

     iteration #  5     ecut=    35.00 Ry     beta= 0.70
     Davidson diagonalization with overlap
     ethr =  4.11E-07,  avg # of iterations =  2.1

     negative rho (up, down):  8.615E-02 0.000E+00

     total cpu time spent up to now is        2.7 secs

     total energy              =    -198.64267798 Ry
     Harris-Foulkes estimate   =    -198.64267838 Ry
     estimated scf accuracy    <       0.00000110 Ry

     iteration #  6     ecut=    35.00 Ry     beta= 0.70
     Davidson diagonalization with overlap
     ethr =  6.89E-09,  avg # of iterations =  2.0

     negative rho (up, down):  8.614E-02 0.000E+00

     total cpu time spent up to now is        3.1 secs

     End of self-consistent calculation

          k = 0.0000 0.0000 0.0000 (   537 PWs)   bands (ev):

   -38.9259 -38.9259 -38.9259   5.5360   8.4596   8.4596   8.4596   9.2469
     9.2469  26.3773  28.6828  28.6828

          k =-0.1111 0.1111-0.1111 (   534 PWs)   bands (ev):

   -38.9347 -38.9272 -38.9272   5.8446   8.4011   8.5327   8.5327   9.2251
     9.2251  25.5947  27.0197  28.5965

          k =-0.2222 0.2222-0.2222 (   549 PWs)   bands (ev):

   -38.9574 -38.9308 -38.9308   6.6246   8.4145   8.6200   8.6200   9.2832
     9.2832  21.9585  26.8076  28.2195

          k =-0.3333 0.3333-0.3333 (   531 PWs)   bands (ev):

   -38.9825 -38.9346 -38.9346   7.1299   8.5531   8.5531   9.3187   9.5530
     9.5530  18.2773  26.1858  27.4734

          k =-0.4444 0.4444-0.4444 (   553 PWs)   bands (ev):

   -38.9996 -38.9375 -38.9375   7.1474   8.4672   8.4672   9.7902   9.7902
    11.1794  15.1888  25.6822  26.8338

          k = 0.0000 0.2222 0.0000 (   540 PWs)   bands (ev):

   -38.9345 -38.9294 -38.9294   5.9481   8.3154   8.5975   8.5975   9.1095
     9.3105  26.3226  27.2325  27.2325

          k =-0.1111 0.3333-0.1111 (   541 PWs)   bands (ev):

   -38.9511 -38.9333 -38.9322   6.5915   8.1923   8.6932   8.7321   9.1186
     9.3985  23.4403  26.1931  26.4663

          k =-0.2222 0.4444-0.2222 (   539 PWs)   bands (ev):

   -38.9747 -38.9375 -38.9366   7.2532   8.4336   8.5434   8.7248   9.6219
     9.7390  19.6642  25.5191  26.0070

          k =-0.3333 0.5556-0.3333 (   538 PWs)   bands (ev):

   -38.9934 -38.9412 -38.9397   7.3238   8.3960   8.6305   9.0965   9.8201
    11.2193  16.2703  25.0723  25.3774

          k = 0.5556-0.3333 0.5556 (   545 PWs)   bands (ev):

   -38.9988 -38.9441 -38.9391   7.3123   8.3645   8.5821   9.3669   9.7785
    12.3937  14.6664  24.1735  25.9853

          k = 0.4444-0.2222 0.4444 (   532 PWs)   bands (ev):

   -38.9878 -38.9432 -38.9358   7.3529   8.4448   8.6304   9.0603   9.4888
    10.7356  17.3567  23.8681  26.5726

          k = 0.3333-0.1111 0.3333 (   542 PWs)   bands (ev):

   -38.9669 -38.9393 -38.9315   7.1174   8.3055   8.6393   8.7331   9.1350
     9.7708  20.9143  24.1112  27.8194

          k = 0.2222-0.0000 0.2222 (   543 PWs)   bands (ev):

   -38.9459 -38.9329 -38.9281   6.3280   8.2853   8.6440   8.6450   9.0897
     9.3670  24.6288  24.7860  28.2771

          k = 0.0000 0.4444 0.0000 (   536 PWs)   bands (ev):

   -38.9561 -38.9380 -38.9380   6.9801   7.9669   8.9621   8.9827   8.9827
     9.4755  24.6360  24.6360  26.0127

          k =-0.1111 0.5556-0.1111 (   538 PWs)   bands (ev):

   -38.9721 -38.9435 -38.9427   7.4649   7.8566   8.7858   9.0998   9.6562
     9.8514  21.3952  23.6638  24.2786

          k =-0.2222 0.6667-0.2222 (   536 PWs)   bands (ev):

   -38.9866 -38.9510 -38.9451   7.5586   8.0771   8.6882   9.0256   9.8502
    11.5284  17.8776  22.4738  23.4298

          k = 0.6667-0.2222 0.6667 (   539 PWs)   bands (ev):

   -38.9918 -38.9581 -38.9441   7.6150   8.1778   8.7645   8.9350   9.7941
    13.7707  14.9877  21.1378  24.0679

          k = 0.5556-0.1111 0.5556 (   538 PWs)   bands (ev):

   -38.9865 -38.9601 -38.9402   7.7641   8.2458   8.6444   8.9089   9.4831
    12.3726  16.9747  20.4161  25.5434

          k = 0.4444 0.0000 0.4444 (   540 PWs)   bands (ev):

   -38.9766 -38.9527 -38.9353   7.7873   8.1480   8.5124   8.9442   9.1072
    10.7646  20.2204  20.5416  27.1119

          k = 0.0000 0.6667 0.0000 (   540 PWs)   bands (ev):

   -38.9804 -38.9482 -38.9482   7.4163   7.5950   9.5030   9.5030   9.6671
    10.1552  21.8407  22.3510  22.3510

          k =-0.1111 0.7778-0.1111 (   537 PWs)   bands (ev):

   -38.9893 -38.9547 -38.9511   7.4197   7.5560   9.3899   9.5109   9.8656
    11.8336  19.4461  20.3000  21.8412

          k = 0.7778-0.1111 0.7778 (   529 PWs)   bands (ev):

   -38.9888 -38.9657 -38.9501   7.5106   7.7924   9.0440   9.3941   9.8430
    14.1610  16.7672  18.5622  22.2959

          k = 0.6667-0.0000 0.6667 (   528 PWs)   bands (ev):

   -38.9779 -38.9776 -38.9459   7.7240   8.1491   8.6068   9.2169   9.6141
    14.3676  16.6793  17.8139  23.6324

          k = 0.0000 0.8889 0.0000 (   536 PWs)   bands (ev):

   -38.9962 -38.9546 -38.9546   7.2422   7.3661   9.7965   9.9094   9.9094
    12.6083  17.8614  21.0024  21.0024

          k = 0.8889 0.0000 0.8889 (   530 PWs)   bands (ev):

   -38.9956 -38.9592 -38.9542   7.3030   7.4349   9.6707   9.7175   9.9299
    13.8386  16.9796  19.3961  21.1682

          k =-0.2222 0.4444 0.0000 (   536 PWs)   bands (ev):

   -38.9645 -38.9422 -38.9346   7.2607   8.0399   8.5923   8.9837   9.1644
     9.7934  22.3906  22.7683  26.5904

          k =-0.3333 0.5556-0.1111 (   533 PWs)   bands (ev):

   -38.9808 -38.9499 -38.9387   7.6465   8.2845   8.3814   8.9794   9.4977
    10.8516  18.8968  22.2005  24.7839

          k = 0.5556-0.3333 0.7778 (   537 PWs)   bands (ev):

   -38.9922 -38.9535 -38.9423   7.6018   8.2134   8.7567   8.8967   9.7456
    12.7226  15.6921  22.3905  23.3801

          k =-0.2222 0.6667 0.0000 (   537 PWs)   bands (ev):

   -38.9821 -38.9527 -38.9459   7.6576   7.7350   8.7725   9.4974   9.5540
    11.0716  20.5466  20.9141  22.2918

          k = 0.6667-0.2222 0.8889 (   541 PWs)   bands (ev):

   -38.9871 -38.9618 -38.9490   7.6930   7.9287   8.6300   9.3258   9.7917
    13.0434  17.4627  20.3110  21.1479

          k = 0.5556-0.1111 0.7778 (   536 PWs)   bands (ev):

   -38.9847 -38.9690 -38.9480   7.8408   8.0702   8.4933   9.1634   9.7540
    14.6807  15.6379  19.2846  21.7910

          k = 0.4444 0.0000 0.6667 (   536 PWs)   bands (ev):

   -38.9827 -38.9644 -38.9435   8.1015   8.1237   8.1599   9.2036   9.5026
    12.4899  18.6762  18.7879  23.1226

          k = 0.7778-0.1111 1.0000 (   534 PWs)   bands (ev):

   -38.9920 -38.9595 -38.9544   7.4486   7.5411   9.2657   9.6475   9.9087
    13.4821  17.9346  19.7520  19.9570

          k = 0.6667-0.0000 0.8889 (   530 PWs)   bands (ev):

   -38.9863 -38.9690 -38.9532   7.6082   7.8068   8.8641   9.4055   9.9045
    15.3857  16.6839  17.6891  20.5085

          k = 0.5556-0.1111 1.0000 (   524 PWs)   bands (ev):

   -38.9813 -38.9719 -38.9538   7.8194   8.0584   8.3856   9.2822   9.9068
    15.1062  17.5307  17.8217  19.4501

     the Fermi energy is     9.8607 ev

!    total energy              =    -198.64267815 Ry
     Harris-Foulkes estimate   =    -198.64267818 Ry
     estimated scf accuracy    <       0.00000007 Ry

     The total energy is the sum of the following terms:

     one-electron contribution =     -77.18226833 Ry
     hartree contribution      =      47.80302785 Ry
     xc contribution           =     -31.17777903 Ry
     ewald contribution        =    -138.08525782 Ry
     smearing contrib. (-TS)   =      -0.00040082 Ry

     convergence has been achieved in   6 iterations

     Writing output data file Pd-kp-conv.save/
 
     init_run     :      0.52s CPU      0.55s WALL (       1 calls)
     electrons    :      2.27s CPU      2.76s WALL (       1 calls)

     Called by init_run:
     wfcinit      :      0.15s CPU      0.16s WALL (       1 calls)
     potinit      :      0.01s CPU      0.02s WALL (       1 calls)
     hinit0       :      0.34s CPU      0.34s WALL (       1 calls)

     Called by electrons:
     c_bands      :      1.81s CPU      1.94s WALL (       6 calls)
     sum_band     :      0.38s CPU      0.41s WALL (       6 calls)
     v_of_rho     :      0.03s CPU      0.03s WALL (       7 calls)
     newd         :      0.06s CPU      0.06s WALL (       7 calls)
     mix_rho      :      0.00s CPU      0.00s WALL (       6 calls)

     Called by c_bands:
     init_us_2    :      0.06s CPU      0.06s WALL (     455 calls)
     cegterg      :      1.66s CPU      1.75s WALL (     210 calls)

     Called by sum_band:
     sum_band:bec :      0.00s CPU      0.00s WALL (     210 calls)
     addusdens    :      0.05s CPU      0.06s WALL (       6 calls)

     Called by *egterg:
     h_psi        :      1.45s CPU      1.53s WALL (     732 calls)
     s_psi        :      0.02s CPU      0.02s WALL (     732 calls)
     g_psi        :      0.02s CPU      0.02s WALL (     487 calls)
     cdiaghg      :      0.17s CPU      0.18s WALL (     697 calls)

     Called by h_psi:
     h_psi:pot    :      1.44s CPU      1.52s WALL (     732 calls)
     h_psi:calbec :      0.03s CPU      0.03s WALL (     732 calls)
     vloc_psi     :      1.38s CPU      1.46s WALL (     732 calls)
     add_vuspsi   :      0.02s CPU      0.03s WALL (     732 calls)

     General routines
     calbec       :      0.04s CPU      0.04s WALL (     942 calls)
     fft          :      0.01s CPU      0.01s WALL (      78 calls)
     ffts         :      0.00s CPU      0.00s WALL (       6 calls)
     fftw         :      1.42s CPU      1.50s WALL (   15644 calls)
 
     Parallel routines
     fft_scatt_xy :      0.26s CPU      0.27s WALL (   15728 calls)
     fft_scatt_yz :      0.33s CPU      0.35s WALL (   15728 calls)
 
     PWSCF        :     2.87s CPU         3.56s WALL

 
   This run was terminated on:  20:54:31   2Dec2021            

=------------------------------------------------------------------------------=
   JOB DONE.
=------------------------------------------------------------------------------=
