
     Program PWSCF v.6.3 starts on  2Dec2021 at 20:54: 8 

     This program is part of the open-source Quantum ESPRESSO suite
     for quantum simulation of materials; please cite
         "P. Giannozzi et al., J. Phys.:Condens. Matter 21 395502 (2009);
         "P. Giannozzi et al., J. Phys.:Condens. Matter 29 465901 (2017);
          URL http://www.quantum-espresso.org", 
     in publications or presentations arising from this work. More details at
     http://www.quantum-espresso.org/quote

     Parallel version (MPI & OpenMP), running on       2 processor cores
     Number of MPI processes:                 2
     Threads/MPI process:                     1

     MPI processes distributed on     1 nodes
     R & G space division:  proc/nbgrp/npool/nimage =       2
     Reading input from pw-input.in

     Current dimensions of program PWSCF are:
     Max number of different atomic species (ntypx) = 10
     Max number of k-points (npk) =  40000
     Max angular momentum in pseudopotentials (lmaxx) =  3

     Subspace diagonalization in iterative solution of the eigenvalue problem:
     a serial algorithm will be used

 
     Parallelization info
     --------------------
     sticks:   dense  smooth     PW     G-vecs:    dense   smooth      PW
     Min         156     156     54                 1763     1763     362
     Max         157     157     55                 1764     1764     363
     Sum         313     313    109                 3527     3527     725
 

     Title: 
     Pd-kp-conv                                                                 


     bravais-lattice index     =            2
     lattice parameter (alat)  =       8.0000  a.u.
     unit-cell volume          =     128.0000 (a.u.)^3
     number of atoms/cell      =            1
     number of atomic types    =            1
     number of electrons       =        16.00
     number of Kohn-Sham states=           12
     kinetic-energy cutoff     =      35.0000  Ry
     charge density cutoff     =     140.0000  Ry
     convergence threshold     =      1.0E-07
     mixing beta               =       0.7000
     number of iterations used =            8  plain     mixing
     Exchange-correlation      =  SLA  PW   PBX  PBC ( 1  4  3  4 0 0)

     celldm(1)=   8.000000  celldm(2)=   0.000000  celldm(3)=   0.000000
     celldm(4)=   0.000000  celldm(5)=   0.000000  celldm(6)=   0.000000

     crystal axes: (cart. coord. in units of alat)
               a(1) = (  -0.500000   0.000000   0.500000 )  
               a(2) = (   0.000000   0.500000   0.500000 )  
               a(3) = (  -0.500000   0.500000   0.000000 )  

     reciprocal axes: (cart. coord. in units 2 pi/alat)
               b(1) = ( -1.000000 -1.000000  1.000000 )  
               b(2) = (  1.000000  1.000000  1.000000 )  
               b(3) = ( -1.000000  1.000000 -1.000000 )  


     PseudoPot. # 1 for Pd read from file:
     ./pd_pbe_v1.4.uspp.F.UPF
     MD5 check sum: 2d733d2bc2cbfd217af676df1668a4bc
     Pseudo is Ultrasoft + core correction, Zval = 16.0
     Generated by new atomic code, or converted to UPF format
     Using radial grid of  887 points,  6 beta functions with: 
                l(1) =   0
                l(2) =   0
                l(3) =   1
                l(4) =   1
                l(5) =   2
                l(6) =   2
     Q(r) pseudized with  8 coefficients,  rinner =    1.130   1.130   1.130
                                                       1.130   1.130

     atomic species   valence    mass     pseudopotential
        Pd            16.00   106.40000     Pd( 1.00)

     48 Sym. Ops., with inversion, found



   Cartesian axes

     site n.     atom                  positions (alat units)
         1           Pd  tau(   1) = (   0.0000000   0.0000000   0.0000000  )

     number of k points=    35  Marzari-Vanderbilt smearing, width (Ry)=  0.0100
                       cart. coord. in units 2pi/alat
        k(    1) = (   0.0000000   0.0000000   0.0000000), wk =   0.0027435
        k(    2) = (  -0.1111111   0.1111111  -0.1111111), wk =   0.0219479
        k(    3) = (  -0.2222222   0.2222222  -0.2222222), wk =   0.0219479
        k(    4) = (  -0.3333333   0.3333333  -0.3333333), wk =   0.0219479
        k(    5) = (  -0.4444444   0.4444444  -0.4444444), wk =   0.0219479
        k(    6) = (   0.0000000   0.2222222   0.0000000), wk =   0.0164609
        k(    7) = (  -0.1111111   0.3333333  -0.1111111), wk =   0.0658436
        k(    8) = (  -0.2222222   0.4444444  -0.2222222), wk =   0.0658436
        k(    9) = (  -0.3333333   0.5555556  -0.3333333), wk =   0.0658436
        k(   10) = (   0.5555556  -0.3333333   0.5555556), wk =   0.0658436
        k(   11) = (   0.4444444  -0.2222222   0.4444444), wk =   0.0658436
        k(   12) = (   0.3333333  -0.1111111   0.3333333), wk =   0.0658436
        k(   13) = (   0.2222222  -0.0000000   0.2222222), wk =   0.0329218
        k(   14) = (   0.0000000   0.4444444   0.0000000), wk =   0.0164609
        k(   15) = (  -0.1111111   0.5555556  -0.1111111), wk =   0.0658436
        k(   16) = (  -0.2222222   0.6666667  -0.2222222), wk =   0.0658436
        k(   17) = (   0.6666667  -0.2222222   0.6666667), wk =   0.0658436
        k(   18) = (   0.5555556  -0.1111111   0.5555556), wk =   0.0658436
        k(   19) = (   0.4444444   0.0000000   0.4444444), wk =   0.0329218
        k(   20) = (   0.0000000   0.6666667   0.0000000), wk =   0.0164609
        k(   21) = (  -0.1111111   0.7777778  -0.1111111), wk =   0.0658436
        k(   22) = (   0.7777778  -0.1111111   0.7777778), wk =   0.0658436
        k(   23) = (   0.6666667  -0.0000000   0.6666667), wk =   0.0329218
        k(   24) = (   0.0000000   0.8888889   0.0000000), wk =   0.0164609
        k(   25) = (   0.8888889   0.0000000   0.8888889), wk =   0.0329218
        k(   26) = (  -0.2222222   0.4444444   0.0000000), wk =   0.0658436
        k(   27) = (  -0.3333333   0.5555556  -0.1111111), wk =   0.1316872
        k(   28) = (   0.5555556  -0.3333333   0.7777778), wk =   0.1316872
        k(   29) = (  -0.2222222   0.6666667   0.0000000), wk =   0.0658436
        k(   30) = (   0.6666667  -0.2222222   0.8888889), wk =   0.1316872
        k(   31) = (   0.5555556  -0.1111111   0.7777778), wk =   0.1316872
        k(   32) = (   0.4444444   0.0000000   0.6666667), wk =   0.0658436
        k(   33) = (   0.7777778  -0.1111111   1.0000000), wk =   0.0658436
        k(   34) = (   0.6666667  -0.0000000   0.8888889), wk =   0.0658436
        k(   35) = (   0.5555556  -0.1111111   1.0000000), wk =   0.0658436

     Dense  grid:     3527 G-vectors     FFT dimensions: (  24,  24,  24)

     Estimated max dynamical RAM per process >       8.99 MB

     Estimated total dynamical RAM >      17.98 MB

     Check: negative/imaginary core charge=   -0.000001    0.000000

     Initial potential from superposition of free atoms
     Check: negative starting charge=   -0.080332

     starting charge   15.49999, renormalised to   16.00000

     negative rho (up, down):  8.292E-02 0.000E+00
     Starting wfcs are   12 randomized atomic wfcs

     total cpu time spent up to now is        0.6 secs

     Self-consistent Calculation

     iteration #  1     ecut=    35.00 Ry     beta= 0.70
     Davidson diagonalization with overlap
     ethr =  1.00E-02,  avg # of iterations =  3.5

     negative rho (up, down):  8.034E-02 0.000E+00

     total cpu time spent up to now is        1.1 secs

     total energy              =    -197.96582365 Ry
     Harris-Foulkes estimate   =    -199.06764682 Ry
     estimated scf accuracy    <       1.49898183 Ry

     iteration #  2     ecut=    35.00 Ry     beta= 0.70
     Davidson diagonalization with overlap
     ethr =  9.37E-03,  avg # of iterations =  2.0

     negative rho (up, down):  8.254E-02 0.000E+00

     total cpu time spent up to now is        1.5 secs

     total energy              =    -198.29911968 Ry
     Harris-Foulkes estimate   =    -199.25527834 Ry
     estimated scf accuracy    <       2.03367947 Ry

     iteration #  3     ecut=    35.00 Ry     beta= 0.70
     Davidson diagonalization with overlap
     ethr =  9.37E-03,  avg # of iterations =  2.0

     negative rho (up, down):  8.262E-02 0.000E+00

     total cpu time spent up to now is        2.2 secs

     total energy              =    -198.67956744 Ry
     Harris-Foulkes estimate   =    -198.68003238 Ry
     estimated scf accuracy    <       0.00107837 Ry

     iteration #  4     ecut=    35.00 Ry     beta= 0.70
     Davidson diagonalization with overlap
     ethr =  6.74E-06,  avg # of iterations =  2.6

     negative rho (up, down):  8.275E-02 0.000E+00

     total cpu time spent up to now is        2.6 secs

     total energy              =    -198.67999495 Ry
     Harris-Foulkes estimate   =    -198.67999487 Ry
     estimated scf accuracy    <       0.00000388 Ry

     iteration #  5     ecut=    35.00 Ry     beta= 0.70
     Davidson diagonalization with overlap
     ethr =  2.42E-08,  avg # of iterations =  1.7

     negative rho (up, down):  8.277E-02 0.000E+00

     total cpu time spent up to now is        3.0 secs

     total energy              =    -198.67999552 Ry
     Harris-Foulkes estimate   =    -198.67999553 Ry
     estimated scf accuracy    <       0.00000017 Ry

     iteration #  6     ecut=    35.00 Ry     beta= 0.70
     Davidson diagonalization with overlap
     ethr =  1.08E-09,  avg # of iterations =  1.8

     negative rho (up, down):  8.277E-02 0.000E+00

     total cpu time spent up to now is        3.3 secs

     End of self-consistent calculation

          k = 0.0000 0.0000 0.0000 (   459 PWs)   bands (ev):

   -36.0728 -36.0728 -36.0728   7.6849  11.1690  11.1690  11.1690  12.2362
    12.2362  30.2850  33.6047  33.6047

          k =-0.1111 0.1111-0.1111 (   450 PWs)   bands (ev):

   -36.0913 -36.0753 -36.0753   8.0413  11.0835  11.2672  11.2672  12.2033
    12.2033  30.0505  31.4423  33.7075

          k =-0.2222 0.2222-0.2222 (   459 PWs)   bands (ev):

   -36.1387 -36.0826 -36.0826   8.9229  11.0741  11.3813  11.3813  12.2771
    12.2771  26.5993  30.9519  33.6698

          k =-0.3333 0.3333-0.3333 (   450 PWs)   bands (ev):

   -36.1915 -36.0907 -36.0907   9.4553  11.2865  11.2865  12.0981  12.6435
    12.6435  22.6329  30.2088  32.8826

          k =-0.4444 0.4444-0.4444 (   449 PWs)   bands (ev):

   -36.2261 -36.0959 -36.0959   9.4511  11.1709  11.1709  12.9732  12.9732
    14.0909  19.3326  29.5964  32.0246

          k = 0.0000 0.2222 0.0000 (   443 PWs)   bands (ev):

   -36.0907 -36.0795 -36.0795   8.1607  10.9709  11.3533  11.3533  12.0413
    12.3226  30.4619  32.1448  32.3588

          k =-0.1111 0.3333-0.1111 (   454 PWs)   bands (ev):

   -36.1259 -36.0880 -36.0854   8.8932  10.7958  11.4747  11.5307  12.0421
    12.4374  28.1744  30.8432  31.3390

          k =-0.2222 0.4444-0.2222 (   451 PWs)   bands (ev):

   -36.1748 -36.0966 -36.0945   9.6178  11.0789  11.2649  11.5179  12.7401
    12.8043  24.1309  30.2625  30.6150

          k =-0.3333 0.5556-0.3333 (   447 PWs)   bands (ev):

   -36.2136 -36.1043 -36.1011   9.6737  11.0639  11.3884  11.9412  13.0136
    14.4184  20.4341  29.4058  30.4116

          k = 0.5556-0.3333 0.5556 (   449 PWs)   bands (ev):

   -36.2244 -36.1101 -36.0996   9.6553  11.0223  11.3224  12.3113  12.9559
    15.5822  18.8004  28.7370  30.5312

          k = 0.4444-0.2222 0.4444 (   444 PWs)   bands (ev):

   -36.2021 -36.1088 -36.0928   9.7173  11.1347  11.3880  11.8585  12.5554
    13.9746  21.6169  28.5479  31.0390

          k = 0.3333-0.1111 0.3333 (   453 PWs)   bands (ev):

   -36.1584 -36.1005 -36.0839   9.4806  10.9312  11.3849  11.5305  12.0719
    12.9086  25.4882  28.8589  32.4462

          k = 0.2222-0.0000 0.2222 (   453 PWs)   bands (ev):

   -36.1147 -36.0872 -36.0770   8.5956  10.9228  11.4101  11.4171  12.0127
    12.3924  29.3978  29.4547  32.9033

          k = 0.0000 0.4444 0.0000 (   455 PWs)   bands (ev):

   -36.1360 -36.0980 -36.0980   9.3240  10.4931  11.8075  11.8659  11.8659
    12.5423  29.5677  29.5677  30.4487

          k =-0.1111 0.5556-0.1111 (   449 PWs)   bands (ev):

   -36.1693 -36.1091 -36.1074   9.8551  10.3398  11.5729  12.0230  12.7888
    12.9218  25.9879  28.4454  29.0521

          k =-0.2222 0.6667-0.2222 (   448 PWs)   bands (ev):

   -36.1991 -36.1244 -36.1124   9.9561  10.6082  11.4339  11.9196  13.0550
    14.8681  22.1121  27.1818  28.1618

          k = 0.6667-0.2222 0.6667 (   445 PWs)   bands (ev):

   -36.2097 -36.1391 -36.1101  10.0320  10.7445  11.5200  11.7954  12.9775
    17.2870  19.0385  25.7210  28.9170

          k = 0.5556-0.1111 0.5556 (   444 PWs)   bands (ev):

   -36.1987 -36.1433 -36.1019  10.2306  10.8469  11.3395  11.7594  12.5483
    15.8809  21.1547  24.9219  30.6739

          k = 0.4444 0.0000 0.4444 (   449 PWs)   bands (ev):

   -36.1787 -36.1280 -36.0916  10.2706  10.7242  11.1883  11.8063  12.0387
    14.1008  24.7297  25.0755  31.6900

          k = 0.0000 0.6667 0.0000 (   444 PWs)   bands (ev):

   -36.1863 -36.1185 -36.1185   9.7634   9.9964  12.5717  12.5717  12.8040
    13.1236  26.6504  26.8852  26.8852

          k =-0.1111 0.7778-0.1111 (   448 PWs)   bands (ev):

   -36.2045 -36.1320 -36.1244   9.7551   9.9392  12.3738  12.5834  13.0764
    15.1169  23.9497  24.7167  26.2683

          k = 0.7778-0.1111 0.7778 (   444 PWs)   bands (ev):

   -36.2036 -36.1548 -36.1225   9.8766  10.2361  11.9014  12.4193  13.0442
    17.8055  20.8298  22.9654  26.8224

          k = 0.6667-0.0000 0.6667 (   443 PWs)   bands (ev):

   -36.1807 -36.1801 -36.1136  10.1646  10.6911  11.3205  12.1735  12.7307
    18.1309  20.6474  22.1935  28.4330

          k = 0.0000 0.8889 0.0000 (   452 PWs)   bands (ev):

   -36.2189 -36.1319 -36.1319   9.5166   9.6937  12.9803  13.1353  13.1353
    15.7798  22.4172  25.2430  25.2430

          k = 0.8889 0.0000 0.8889 (   450 PWs)   bands (ev):

   -36.2177 -36.1417 -36.1311   9.5945   9.7812  12.7685  12.8673  13.1647
    17.1817  21.5162  23.5309  25.4485

          k =-0.2222 0.4444 0.0000 (   449 PWs)   bands (ev):

   -36.1537 -36.1065 -36.0905   9.6499  10.5875  11.3297  11.8686  12.0937
    12.9359  27.0664  27.5009  31.4136

          k =-0.3333 0.5556-0.1111 (   445 PWs)   bands (ev):

   -36.1876 -36.1222 -36.0990  10.0811  10.8799  11.0439  11.8519  12.5543
    14.1596  23.2719  26.8651  29.5564

          k = 0.5556-0.3333 0.7778 (   443 PWs)   bands (ev):

   -36.2107 -36.1296 -36.1062  10.0197  10.8056  11.5146  11.7249  12.9078
    16.1824  19.7724  27.0841  28.0482

          k =-0.2222 0.6667 0.0000 (   447 PWs)   bands (ev):

   -36.1895 -36.1281 -36.1138  10.0674  10.1796  11.5508  12.5649  12.6218
    14.3611  25.0868  25.3953  26.9551

          k = 0.6667-0.2222 0.8889 (   448 PWs)   bands (ev):

   -36.1997 -36.1468 -36.1200  10.1176  10.4150  11.3577  12.3186  12.9712
    16.6096  21.6214  24.9115  25.5717

          k = 0.5556-0.1111 0.7778 (   443 PWs)   bands (ev):

   -36.1947 -36.1618 -36.1177  10.3151  10.5984  11.1685  12.1005  12.9205
    18.4366  19.6273  23.7228  26.3623

          k = 0.4444 0.0000 0.6667 (   444 PWs)   bands (ev):

   -36.1906 -36.1525 -36.1086  10.6678  10.6893  10.7064  12.1472  12.5741
    16.0351  22.9425  23.1887  27.8438

          k = 0.7778-0.1111 1.0000 (   454 PWs)   bands (ev):

   -36.2101 -36.1424 -36.1314   9.7809   9.9230  12.2107  12.7630  13.1341
    16.9557  22.4551  23.9855  24.1930

          k = 0.6667-0.0000 0.8889 (   445 PWs)   bands (ev):

   -36.1983 -36.1616 -36.1289   9.9940  10.2620  11.6645  12.4314  13.1288
    19.0914  20.8899  21.9446  24.8842

          k = 0.5556-0.1111 1.0000 (   449 PWs)   bands (ev):

   -36.1878 -36.1685 -36.1301  10.2579  10.6014  11.0315  12.2586  13.1311
    18.9429  21.5700  22.2159  23.7636

     the Fermi energy is    13.0405 ev

!    total energy              =    -198.67999555 Ry
     Harris-Foulkes estimate   =    -198.67999555 Ry
     estimated scf accuracy    <          1.1E-09 Ry

     The total energy is the sum of the following terms:

     one-electron contribution =     -63.23352205 Ry
     hartree contribution      =      42.49454183 Ry
     xc contribution           =     -31.22530201 Ry
     ewald contribution        =    -146.71558644 Ry
     smearing contrib. (-TS)   =      -0.00012689 Ry

     convergence has been achieved in   6 iterations

     Writing output data file Pd-kp-conv.save/
 
     init_run     :      0.49s CPU      0.53s WALL (       1 calls)
     electrons    :      2.21s CPU      2.70s WALL (       1 calls)

     Called by init_run:
     wfcinit      :      0.14s CPU      0.16s WALL (       1 calls)
     potinit      :      0.01s CPU      0.02s WALL (       1 calls)
     hinit0       :      0.32s CPU      0.33s WALL (       1 calls)

     Called by electrons:
     c_bands      :      1.77s CPU      2.21s WALL (       6 calls)
     sum_band     :      0.37s CPU      0.39s WALL (       6 calls)
     v_of_rho     :      0.03s CPU      0.03s WALL (       7 calls)
     newd         :      0.05s CPU      0.05s WALL (       7 calls)
     mix_rho      :      0.00s CPU      0.00s WALL (       6 calls)

     Called by c_bands:
     init_us_2    :      0.05s CPU      0.05s WALL (     455 calls)
     cegterg      :      1.65s CPU      1.77s WALL (     210 calls)

     Called by sum_band:
     sum_band:bec :      0.00s CPU      0.00s WALL (     210 calls)
     addusdens    :      0.04s CPU      0.05s WALL (       6 calls)

     Called by *egterg:
     h_psi        :      1.42s CPU      1.52s WALL (     725 calls)
     s_psi        :      0.02s CPU      0.02s WALL (     725 calls)
     g_psi        :      0.01s CPU      0.01s WALL (     480 calls)
     cdiaghg      :      0.20s CPU      0.22s WALL (     690 calls)

     Called by h_psi:
     h_psi:pot    :      1.41s CPU      1.51s WALL (     725 calls)
     h_psi:calbec :      0.03s CPU      0.03s WALL (     725 calls)
     vloc_psi     :      1.36s CPU      1.45s WALL (     725 calls)
     add_vuspsi   :      0.02s CPU      0.02s WALL (     725 calls)

     General routines
     calbec       :      0.03s CPU      0.04s WALL (     935 calls)
     fft          :      0.01s CPU      0.01s WALL (      78 calls)
     ffts         :      0.00s CPU      0.00s WALL (       6 calls)
     fftw         :      1.40s CPU      1.49s WALL (   15678 calls)
 
     Parallel routines
     fft_scatt_xy :      0.26s CPU      0.27s WALL (   15762 calls)
     fft_scatt_yz :      0.31s CPU      0.34s WALL (   15762 calls)
 
     PWSCF        :     2.79s CPU         3.47s WALL

 
   This run was terminated on:  20:54:11   2Dec2021            

=------------------------------------------------------------------------------=
   JOB DONE.
=------------------------------------------------------------------------------=
