
     Program PWSCF v.6.3 starts on  2Dec2021 at 23:10:40 

     This program is part of the open-source Quantum ESPRESSO suite
     for quantum simulation of materials; please cite
         "P. Giannozzi et al., J. Phys.:Condens. Matter 21 395502 (2009);
         "P. Giannozzi et al., J. Phys.:Condens. Matter 29 465901 (2017);
          URL http://www.quantum-espresso.org", 
     in publications or presentations arising from this work. More details at
     http://www.quantum-espresso.org/quote

     Parallel version (MPI & OpenMP), running on       2 processor cores
     Number of MPI processes:                 2
     Threads/MPI process:                     1

     MPI processes distributed on     1 nodes
     R & G space division:  proc/nbgrp/npool/nimage =       2
     Reading input from pw-input.in

     Current dimensions of program PWSCF are:
     Max number of different atomic species (ntypx) = 10
     Max number of k-points (npk) =  40000
     Max angular momentum in pseudopotentials (lmaxx) =  3

     Subspace diagonalization in iterative solution of the eigenvalue problem:
     a serial algorithm will be used

 
     Parallelization info
     --------------------
     sticks:   dense  smooth     PW     G-vecs:    dense   smooth      PW
     Min         105     105     36                 1042     1042     205
     Max         106     106     37                 1043     1043     206
     Sum         211     211     73                 2085     2085     411
 

     Title: 
     Pd-kp-conv                                                                 


     bravais-lattice index     =            2
     lattice parameter (alat)  =       6.7000  a.u.
     unit-cell volume          =      75.1908 (a.u.)^3
     number of atoms/cell      =            1
     number of atomic types    =            1
     number of electrons       =        16.00
     number of Kohn-Sham states=           12
     kinetic-energy cutoff     =      35.0000  Ry
     charge density cutoff     =     140.0000  Ry
     convergence threshold     =      1.0E-07
     mixing beta               =       0.7000
     number of iterations used =            8  plain     mixing
     Exchange-correlation      =  SLA  PW   PBX  PBC ( 1  4  3  4 0 0)

     celldm(1)=   6.700000  celldm(2)=   0.000000  celldm(3)=   0.000000
     celldm(4)=   0.000000  celldm(5)=   0.000000  celldm(6)=   0.000000

     crystal axes: (cart. coord. in units of alat)
               a(1) = (  -0.500000   0.000000   0.500000 )  
               a(2) = (   0.000000   0.500000   0.500000 )  
               a(3) = (  -0.500000   0.500000   0.000000 )  

     reciprocal axes: (cart. coord. in units 2 pi/alat)
               b(1) = ( -1.000000 -1.000000  1.000000 )  
               b(2) = (  1.000000  1.000000  1.000000 )  
               b(3) = ( -1.000000  1.000000 -1.000000 )  


     PseudoPot. # 1 for Pd read from file:
     ./pd_pbe_v1.4.uspp.F.UPF
     MD5 check sum: 2d733d2bc2cbfd217af676df1668a4bc
     Pseudo is Ultrasoft + core correction, Zval = 16.0
     Generated by new atomic code, or converted to UPF format
     Using radial grid of  887 points,  6 beta functions with: 
                l(1) =   0
                l(2) =   0
                l(3) =   1
                l(4) =   1
                l(5) =   2
                l(6) =   2
     Q(r) pseudized with  8 coefficients,  rinner =    1.130   1.130   1.130
                                                       1.130   1.130

     atomic species   valence    mass     pseudopotential
        Pd            16.00   106.40000     Pd( 1.00)

     48 Sym. Ops., with inversion, found



   Cartesian axes

     site n.     atom                  positions (alat units)
         1           Pd  tau(   1) = (   0.0000000   0.0000000   0.0000000  )

     number of k points=     8  Marzari-Vanderbilt smearing, width (Ry)=  0.0400
                       cart. coord. in units 2pi/alat
        k(    1) = (   0.0000000   0.0000000   0.0000000), wk =   0.0312500
        k(    2) = (  -0.2500000   0.2500000  -0.2500000), wk =   0.2500000
        k(    3) = (   0.5000000  -0.5000000   0.5000000), wk =   0.1250000
        k(    4) = (   0.0000000   0.5000000   0.0000000), wk =   0.1875000
        k(    5) = (   0.7500000  -0.2500000   0.7500000), wk =   0.7500000
        k(    6) = (   0.5000000   0.0000000   0.5000000), wk =   0.3750000
        k(    7) = (   0.0000000  -1.0000000   0.0000000), wk =   0.0937500
        k(    8) = (  -0.5000000  -1.0000000   0.0000000), wk =   0.1875000

     Dense  grid:     2085 G-vectors     FFT dimensions: (  18,  18,  18)

     Estimated max dynamical RAM per process >       4.87 MB

     Estimated total dynamical RAM >       9.74 MB

     Initial potential from superposition of free atoms
     Check: negative starting charge=   -0.084526

     starting charge   15.49999, renormalised to   16.00000

     negative rho (up, down):  8.725E-02 0.000E+00
     Starting wfcs are   12 randomized atomic wfcs

     total cpu time spent up to now is        0.4 secs

     Self-consistent Calculation

     iteration #  1     ecut=    35.00 Ry     beta= 0.70
     Davidson diagonalization with overlap
     ethr =  1.00E-02,  avg # of iterations =  3.4

     negative rho (up, down):  8.886E-02 0.000E+00

     total cpu time spent up to now is        0.5 secs

     total energy              =    -198.39414769 Ry
     Harris-Foulkes estimate   =    -198.84170722 Ry
     estimated scf accuracy    <       0.63369187 Ry

     iteration #  2     ecut=    35.00 Ry     beta= 0.70
     Davidson diagonalization with overlap
     ethr =  3.96E-03,  avg # of iterations =  2.0

     negative rho (up, down):  8.972E-02 0.000E+00

     total cpu time spent up to now is        0.6 secs

     total energy              =    -198.57215718 Ry
     Harris-Foulkes estimate   =    -198.71594696 Ry
     estimated scf accuracy    <       0.24809798 Ry

     iteration #  3     ecut=    35.00 Ry     beta= 0.70
     Davidson diagonalization with overlap
     ethr =  1.55E-03,  avg # of iterations =  2.0

     negative rho (up, down):  9.041E-02 0.000E+00

     total cpu time spent up to now is        0.7 secs

     total energy              =    -198.62454639 Ry
     Harris-Foulkes estimate   =    -198.62484934 Ry
     estimated scf accuracy    <       0.00077773 Ry

     iteration #  4     ecut=    35.00 Ry     beta= 0.70
     Davidson diagonalization with overlap
     ethr =  4.86E-06,  avg # of iterations =  2.2

     negative rho (up, down):  9.053E-02 0.000E+00

     total cpu time spent up to now is        0.8 secs

     total energy              =    -198.62471570 Ry
     Harris-Foulkes estimate   =    -198.62476697 Ry
     estimated scf accuracy    <       0.00007317 Ry

     iteration #  5     ecut=    35.00 Ry     beta= 0.70
     Davidson diagonalization with overlap
     ethr =  4.57E-07,  avg # of iterations =  2.0

     negative rho (up, down):  9.054E-02 0.000E+00

     total cpu time spent up to now is        0.8 secs

     total energy              =    -198.62472964 Ry
     Harris-Foulkes estimate   =    -198.62476364 Ry
     estimated scf accuracy    <       0.00006215 Ry

     iteration #  6     ecut=    35.00 Ry     beta= 0.70
     Davidson diagonalization with overlap
     ethr =  3.88E-07,  avg # of iterations =  2.0

     negative rho (up, down):  9.055E-02 0.000E+00

     total cpu time spent up to now is        0.9 secs

     total energy              =    -198.62474546 Ry
     Harris-Foulkes estimate   =    -198.62474788 Ry
     estimated scf accuracy    <       0.00000520 Ry

     iteration #  7     ecut=    35.00 Ry     beta= 0.70
     Davidson diagonalization with overlap
     ethr =  3.25E-08,  avg # of iterations =  1.9

     negative rho (up, down):  9.054E-02 0.000E+00

     total cpu time spent up to now is        0.9 secs

     End of self-consistent calculation

          k = 0.0000 0.0000 0.0000 (   259 PWs)   bands (ev):

   -23.2621 -23.2621 -23.2621  17.5825  22.6977  22.6977  22.6977  25.2487
    25.2487  45.2217  51.7837  51.7837

          k =-0.2500 0.2500-0.2500 (   274 PWs)   bands (ev):

   -23.8257 -23.3377 -23.3377  19.4868  22.7477  23.1340  23.1340  25.4444
    25.4444  44.2134  47.0578  55.1233

          k = 0.5000-0.5000 0.5000 (   266 PWs)   bands (ev):

   -24.3625 -23.4120 -23.4120  19.2102  22.5906  22.5906  27.1632  27.1632
    27.5672  37.1944  44.4849  52.0894

          k = 0.0000 0.5000 0.0000 (   258 PWs)   bands (ev):

   -23.8009 -23.4638 -23.4638  20.0574  20.7585  24.3185  24.6907  24.6907
    26.1370  47.6916  48.7866  48.7866

          k = 0.7500-0.2500 0.7500 (   262 PWs)   bands (ev):

   -24.1749 -23.7020 -23.5381  20.0333  21.1507  23.4937  24.5852  27.3130
    31.8406  38.6470  44.7458  47.3031

          k = 0.5000 0.0000 0.5000 (   264 PWs)   bands (ev):

   -24.0548 -23.7272 -23.4127  21.3166  21.7862  22.3577  24.1292  25.1193
    30.3408  42.3814  43.2688  49.2026

          k = 0.0000-1.0000 0.0000 (   254 PWs)   bands (ev):

   -24.2949 -23.6623 -23.6623  18.8131  19.2372  27.1318  27.6820  27.6820
    30.6392  41.3266  42.3694  42.3694

          k =-0.5000-1.0000 0.0000 (   264 PWs)   bands (ev):

   -23.9838 -23.9838 -23.6761  20.3720  21.9087  21.9087  24.9981  27.6858
    38.0769  38.0769  40.3537  41.3572

     the Fermi energy is    27.5523 ev

!    total energy              =    -198.62474643 Ry
     Harris-Foulkes estimate   =    -198.62474643 Ry
     estimated scf accuracy    <          2.1E-09 Ry

     The total energy is the sum of the following terms:

     one-electron contribution =     -20.01844981 Ry
     hartree contribution      =      28.26966647 Ry
     xc contribution           =     -31.68731803 Ry
     ewald contribution        =    -175.18278975 Ry
     smearing contrib. (-TS)   =      -0.00585531 Ry

     convergence has been achieved in   7 iterations

     Writing output data file Pd-kp-conv.save/
 
     init_run     :      0.33s CPU      0.34s WALL (       1 calls)
     electrons    :      0.45s CPU      0.55s WALL (       1 calls)

     Called by init_run:
     wfcinit      :      0.02s CPU      0.02s WALL (       1 calls)
     potinit      :      0.00s CPU      0.01s WALL (       1 calls)
     hinit0       :      0.29s CPU      0.30s WALL (       1 calls)

     Called by electrons:
     c_bands      :      0.31s CPU      0.34s WALL (       7 calls)
     sum_band     :      0.09s CPU      0.09s WALL (       7 calls)
     v_of_rho     :      0.02s CPU      0.02s WALL (       8 calls)
     newd         :      0.04s CPU      0.04s WALL (       8 calls)
     mix_rho      :      0.00s CPU      0.00s WALL (       7 calls)

     Called by c_bands:
     init_us_2    :      0.01s CPU      0.01s WALL (     120 calls)
     cegterg      :      0.29s CPU      0.31s WALL (      56 calls)

     Called by sum_band:
     sum_band:bec :      0.00s CPU      0.00s WALL (      56 calls)
     addusdens    :      0.03s CPU      0.03s WALL (       7 calls)

     Called by *egterg:
     h_psi        :      0.22s CPU      0.24s WALL (     188 calls)
     s_psi        :      0.00s CPU      0.00s WALL (     188 calls)
     g_psi        :      0.00s CPU      0.00s WALL (     124 calls)
     cdiaghg      :      0.05s CPU      0.05s WALL (     180 calls)

     Called by h_psi:
     h_psi:pot    :      0.22s CPU      0.24s WALL (     188 calls)
     h_psi:calbec :      0.01s CPU      0.01s WALL (     188 calls)
     vloc_psi     :      0.21s CPU      0.23s WALL (     188 calls)
     add_vuspsi   :      0.00s CPU      0.00s WALL (     188 calls)

     General routines
     calbec       :      0.01s CPU      0.01s WALL (     244 calls)
     fft          :      0.01s CPU      0.01s WALL (      89 calls)
     ffts         :      0.00s CPU      0.00s WALL (       7 calls)
     fftw         :      0.22s CPU      0.24s WALL (    4120 calls)
 
     Parallel routines
     fft_scatt_xy :      0.04s CPU      0.04s WALL (    4216 calls)
     fft_scatt_yz :      0.06s CPU      0.07s WALL (    4216 calls)
 
     PWSCF        :     0.87s CPU         1.37s WALL

 
   This run was terminated on:  23:10:41   2Dec2021            

=------------------------------------------------------------------------------=
   JOB DONE.
=------------------------------------------------------------------------------=
