
     Program PWSCF v.6.3 starts on  2Dec2021 at 23:10:36 

     This program is part of the open-source Quantum ESPRESSO suite
     for quantum simulation of materials; please cite
         "P. Giannozzi et al., J. Phys.:Condens. Matter 21 395502 (2009);
         "P. Giannozzi et al., J. Phys.:Condens. Matter 29 465901 (2017);
          URL http://www.quantum-espresso.org", 
     in publications or presentations arising from this work. More details at
     http://www.quantum-espresso.org/quote

     Parallel version (MPI & OpenMP), running on       2 processor cores
     Number of MPI processes:                 2
     Threads/MPI process:                     1

     MPI processes distributed on     1 nodes
     R & G space division:  proc/nbgrp/npool/nimage =       2
     Reading input from pw-input.in

     Current dimensions of program PWSCF are:
     Max number of different atomic species (ntypx) = 10
     Max number of k-points (npk) =  40000
     Max angular momentum in pseudopotentials (lmaxx) =  3

     Subspace diagonalization in iterative solution of the eigenvalue problem:
     a serial algorithm will be used

 
     Parallelization info
     --------------------
     sticks:   dense  smooth     PW     G-vecs:    dense   smooth      PW
     Min          99      99     36                  957      957     205
     Max         100     100     37                  960      960     206
     Sum         199     199     73                 1917     1917     411
 

     Title: 
     Pd-kp-conv                                                                 


     bravais-lattice index     =            2
     lattice parameter (alat)  =       6.5000  a.u.
     unit-cell volume          =      68.6562 (a.u.)^3
     number of atoms/cell      =            1
     number of atomic types    =            1
     number of electrons       =        16.00
     number of Kohn-Sham states=           12
     kinetic-energy cutoff     =      35.0000  Ry
     charge density cutoff     =     140.0000  Ry
     convergence threshold     =      1.0E-07
     mixing beta               =       0.7000
     number of iterations used =            8  plain     mixing
     Exchange-correlation      =  SLA  PW   PBX  PBC ( 1  4  3  4 0 0)

     celldm(1)=   6.500000  celldm(2)=   0.000000  celldm(3)=   0.000000
     celldm(4)=   0.000000  celldm(5)=   0.000000  celldm(6)=   0.000000

     crystal axes: (cart. coord. in units of alat)
               a(1) = (  -0.500000   0.000000   0.500000 )  
               a(2) = (   0.000000   0.500000   0.500000 )  
               a(3) = (  -0.500000   0.500000   0.000000 )  

     reciprocal axes: (cart. coord. in units 2 pi/alat)
               b(1) = ( -1.000000 -1.000000  1.000000 )  
               b(2) = (  1.000000  1.000000  1.000000 )  
               b(3) = ( -1.000000  1.000000 -1.000000 )  


     PseudoPot. # 1 for Pd read from file:
     ./pd_pbe_v1.4.uspp.F.UPF
     MD5 check sum: 2d733d2bc2cbfd217af676df1668a4bc
     Pseudo is Ultrasoft + core correction, Zval = 16.0
     Generated by new atomic code, or converted to UPF format
     Using radial grid of  887 points,  6 beta functions with: 
                l(1) =   0
                l(2) =   0
                l(3) =   1
                l(4) =   1
                l(5) =   2
                l(6) =   2
     Q(r) pseudized with  8 coefficients,  rinner =    1.130   1.130   1.130
                                                       1.130   1.130

     atomic species   valence    mass     pseudopotential
        Pd            16.00   106.40000     Pd( 1.00)

     48 Sym. Ops., with inversion, found



   Cartesian axes

     site n.     atom                  positions (alat units)
         1           Pd  tau(   1) = (   0.0000000   0.0000000   0.0000000  )

     number of k points=     8  Marzari-Vanderbilt smearing, width (Ry)=  0.0400
                       cart. coord. in units 2pi/alat
        k(    1) = (   0.0000000   0.0000000   0.0000000), wk =   0.0312500
        k(    2) = (  -0.2500000   0.2500000  -0.2500000), wk =   0.2500000
        k(    3) = (   0.5000000  -0.5000000   0.5000000), wk =   0.1250000
        k(    4) = (   0.0000000   0.5000000   0.0000000), wk =   0.1875000
        k(    5) = (   0.7500000  -0.2500000   0.7500000), wk =   0.7500000
        k(    6) = (   0.5000000   0.0000000   0.5000000), wk =   0.3750000
        k(    7) = (   0.0000000  -1.0000000   0.0000000), wk =   0.0937500
        k(    8) = (  -0.5000000  -1.0000000   0.0000000), wk =   0.1875000

     Dense  grid:     1917 G-vectors     FFT dimensions: (  18,  18,  18)

     Estimated max dynamical RAM per process >       4.54 MB

     Estimated total dynamical RAM >       9.09 MB

     Initial potential from superposition of free atoms
     Check: negative starting charge=   -0.084237

     starting charge   15.49999, renormalised to   16.00000

     negative rho (up, down):  8.695E-02 0.000E+00
     Starting wfcs are   12 randomized atomic wfcs

     total cpu time spent up to now is        0.4 secs

     Self-consistent Calculation

     iteration #  1     ecut=    35.00 Ry     beta= 0.70
     Davidson diagonalization with overlap
     ethr =  1.00E-02,  avg # of iterations =  3.6

     negative rho (up, down):  8.908E-02 0.000E+00

     total cpu time spent up to now is        0.5 secs

     total energy              =    -198.37466342 Ry
     Harris-Foulkes estimate   =    -198.73359513 Ry
     estimated scf accuracy    <       0.51356384 Ry

     iteration #  2     ecut=    35.00 Ry     beta= 0.70
     Davidson diagonalization with overlap
     ethr =  3.21E-03,  avg # of iterations =  2.0

     negative rho (up, down):  9.002E-02 0.000E+00

     total cpu time spent up to now is        0.6 secs

     total energy              =    -198.51517615 Ry
     Harris-Foulkes estimate   =    -198.61140546 Ry
     estimated scf accuracy    <       0.16159863 Ry

     iteration #  3     ecut=    35.00 Ry     beta= 0.70
     Davidson diagonalization with overlap
     ethr =  1.01E-03,  avg # of iterations =  2.0

     negative rho (up, down):  9.103E-02 0.000E+00

     total cpu time spent up to now is        0.7 secs

     total energy              =    -198.55020691 Ry
     Harris-Foulkes estimate   =    -198.55089414 Ry
     estimated scf accuracy    <       0.00146817 Ry

     iteration #  4     ecut=    35.00 Ry     beta= 0.70
     Davidson diagonalization with overlap
     ethr =  9.18E-06,  avg # of iterations =  2.0

     negative rho (up, down):  9.101E-02 0.000E+00

     total cpu time spent up to now is        0.8 secs

     total energy              =    -198.55060604 Ry
     Harris-Foulkes estimate   =    -198.55069932 Ry
     estimated scf accuracy    <       0.00034717 Ry

     iteration #  5     ecut=    35.00 Ry     beta= 0.70
     Davidson diagonalization with overlap
     ethr =  2.17E-06,  avg # of iterations =  1.0

     negative rho (up, down):  9.103E-02 0.000E+00

     total cpu time spent up to now is        0.8 secs

     total energy              =    -198.55058365 Ry
     Harris-Foulkes estimate   =    -198.55062284 Ry
     estimated scf accuracy    <       0.00007861 Ry

     iteration #  6     ecut=    35.00 Ry     beta= 0.70
     Davidson diagonalization with overlap
     ethr =  4.91E-07,  avg # of iterations =  2.0

     negative rho (up, down):  9.103E-02 0.000E+00

     total cpu time spent up to now is        0.9 secs

     total energy              =    -198.55060101 Ry
     Harris-Foulkes estimate   =    -198.55060096 Ry
     estimated scf accuracy    <       0.00000101 Ry

     iteration #  7     ecut=    35.00 Ry     beta= 0.70
     Davidson diagonalization with overlap
     ethr =  6.33E-09,  avg # of iterations =  1.9

     negative rho (up, down):  9.104E-02 0.000E+00

     total cpu time spent up to now is        0.9 secs

     total energy              =    -198.55060045 Ry
     Harris-Foulkes estimate   =    -198.55060105 Ry
     estimated scf accuracy    <       0.00000118 Ry

     iteration #  8     ecut=    35.00 Ry     beta= 0.70
     Davidson diagonalization with overlap
     ethr =  6.33E-09,  avg # of iterations =  2.0

     negative rho (up, down):  9.105E-02 0.000E+00

     total cpu time spent up to now is        1.0 secs

     End of self-consistent calculation

          k = 0.0000 0.0000 0.0000 (   259 PWs)   bands (ev):

   -20.3101 -20.3101 -20.3101  20.0250  25.2609  25.2609  25.2609  28.2008
    28.2008  48.3937  55.6036  55.6036

          k =-0.2500 0.2500-0.2500 (   244 PWs)   bands (ev):

   -21.0738 -20.4096 -20.4096  21.9296  25.4402  25.7562  25.7562  28.4157
    28.4157  48.0575  50.8210  59.6637

          k = 0.5000-0.5000 0.5000 (   242 PWs)   bands (ev):

   -21.7942 -20.5077 -20.5077  21.4128  25.1303  25.1303  30.4221  30.4221
    30.7150  41.5668  47.6921  56.4294

          k = 0.0000 0.5000 0.0000 (   234 PWs)   bands (ev):

   -21.0402 -20.5805 -20.5805  22.5233  23.0321  27.2039  27.5510  27.5510
    29.2292  51.5922  53.2421  53.2421

          k = 0.7500-0.2500 0.7500 (   238 PWs)   bands (ev):

   -21.5407 -20.9018 -20.6781  22.2618  23.5286  26.2450  27.4190  30.5974
    35.5406  42.7684  48.9608  51.6912

          k = 0.5000 0.0000 0.5000 (   238 PWs)   bands (ev):

   -21.3809 -20.9364 -20.5089  23.7797  24.2645  24.9606  26.8871  28.0329
    33.9827  46.5370  47.8030  53.1029

          k = 0.0000-1.0000 0.0000 (   230 PWs)   bands (ev):

   -21.6990 -20.8450 -20.8450  20.8635  21.3223  30.3887  31.0266  31.0266
    34.0706  45.9175  46.2894  46.2894

          k =-0.5000-1.0000 0.0000 (   252 PWs)   bands (ev):

   -21.2816 -21.2816 -20.8664  22.6272  24.4126  24.4126  27.8825  31.0303
    42.1573  42.1573  44.6390  45.6165

     the Fermi energy is    30.8314 ev

!    total energy              =    -198.55060070 Ry
     Harris-Foulkes estimate   =    -198.55060070 Ry
     estimated scf accuracy    <          9.3E-09 Ry

     The total energy is the sum of the following terms:

     one-electron contribution =     -12.19792741 Ry
     hartree contribution      =      26.04724749 Ry
     xc contribution           =     -31.82138957 Ry
     ewald contribution        =    -180.57302943 Ry
     smearing contrib. (-TS)   =      -0.00550179 Ry

     convergence has been achieved in   8 iterations

     Writing output data file Pd-kp-conv.save/
 
     init_run     :      0.32s CPU      0.34s WALL (       1 calls)
     electrons    :      0.49s CPU      0.92s WALL (       1 calls)

     Called by init_run:
     wfcinit      :      0.02s CPU      0.03s WALL (       1 calls)
     potinit      :      0.00s CPU      0.01s WALL (       1 calls)
     hinit0       :      0.29s CPU      0.29s WALL (       1 calls)

     Called by electrons:
     c_bands      :      0.34s CPU      0.38s WALL (       8 calls)
     sum_band     :      0.10s CPU      0.10s WALL (       8 calls)
     v_of_rho     :      0.02s CPU      0.06s WALL (       9 calls)
     newd         :      0.04s CPU      0.04s WALL (       9 calls)
     mix_rho      :      0.00s CPU      0.00s WALL (       8 calls)

     Called by c_bands:
     init_us_2    :      0.01s CPU      0.01s WALL (     136 calls)
     cegterg      :      0.32s CPU      0.35s WALL (      64 calls)

     Called by sum_band:
     sum_band:bec :      0.00s CPU      0.00s WALL (      64 calls)
     addusdens    :      0.04s CPU      0.04s WALL (       8 calls)

     Called by *egterg:
     h_psi        :      0.24s CPU      0.27s WALL (     204 calls)
     s_psi        :      0.00s CPU      0.00s WALL (     204 calls)
     g_psi        :      0.00s CPU      0.00s WALL (     132 calls)
     cdiaghg      :      0.05s CPU      0.06s WALL (     196 calls)

     Called by h_psi:
     h_psi:pot    :      0.24s CPU      0.27s WALL (     204 calls)
     h_psi:calbec :      0.01s CPU      0.01s WALL (     204 calls)
     vloc_psi     :      0.23s CPU      0.26s WALL (     204 calls)
     add_vuspsi   :      0.00s CPU      0.01s WALL (     204 calls)

     General routines
     calbec       :      0.01s CPU      0.01s WALL (     268 calls)
     fft          :      0.01s CPU      0.01s WALL (     100 calls)
     ffts         :      0.00s CPU      0.00s WALL (       8 calls)
     fftw         :      0.24s CPU      0.27s WALL (    4534 calls)
 
     Parallel routines
     fft_scatt_xy :      0.05s CPU      0.05s WALL (    4642 calls)
     fft_scatt_yz :      0.07s CPU      0.08s WALL (    4642 calls)
 
     PWSCF        :     0.90s CPU         1.46s WALL

 
   This run was terminated on:  23:10:37   2Dec2021            

=------------------------------------------------------------------------------=
   JOB DONE.
=------------------------------------------------------------------------------=
