
     Program PWSCF v.6.3 starts on  2Dec2021 at 23:11: 0 

     This program is part of the open-source Quantum ESPRESSO suite
     for quantum simulation of materials; please cite
         "P. Giannozzi et al., J. Phys.:Condens. Matter 21 395502 (2009);
         "P. Giannozzi et al., J. Phys.:Condens. Matter 29 465901 (2017);
          URL http://www.quantum-espresso.org", 
     in publications or presentations arising from this work. More details at
     http://www.quantum-espresso.org/quote

     Parallel version (MPI & OpenMP), running on       2 processor cores
     Number of MPI processes:                 2
     Threads/MPI process:                     1

     MPI processes distributed on     1 nodes
     R & G space division:  proc/nbgrp/npool/nimage =       2
     Reading input from pw-input.in

     Current dimensions of program PWSCF are:
     Max number of different atomic species (ntypx) = 10
     Max number of k-points (npk) =  40000
     Max angular momentum in pseudopotentials (lmaxx) =  3

     Subspace diagonalization in iterative solution of the eigenvalue problem:
     a serial algorithm will be used

 
     Parallelization info
     --------------------
     sticks:   dense  smooth     PW     G-vecs:    dense   smooth      PW
     Min         141     141     45                 1559     1559     304
     Max         142     142     46                 1560     1560     305
     Sum         283     283     91                 3119     3119     609
 

     Title: 
     Pd-kp-conv                                                                 


     bravais-lattice index     =            2
     lattice parameter (alat)  =       7.6000  a.u.
     unit-cell volume          =     109.7440 (a.u.)^3
     number of atoms/cell      =            1
     number of atomic types    =            1
     number of electrons       =        16.00
     number of Kohn-Sham states=           12
     kinetic-energy cutoff     =      35.0000  Ry
     charge density cutoff     =     140.0000  Ry
     convergence threshold     =      1.0E-07
     mixing beta               =       0.7000
     number of iterations used =            8  plain     mixing
     Exchange-correlation      =  SLA  PW   PBX  PBC ( 1  4  3  4 0 0)

     celldm(1)=   7.600000  celldm(2)=   0.000000  celldm(3)=   0.000000
     celldm(4)=   0.000000  celldm(5)=   0.000000  celldm(6)=   0.000000

     crystal axes: (cart. coord. in units of alat)
               a(1) = (  -0.500000   0.000000   0.500000 )  
               a(2) = (   0.000000   0.500000   0.500000 )  
               a(3) = (  -0.500000   0.500000   0.000000 )  

     reciprocal axes: (cart. coord. in units 2 pi/alat)
               b(1) = ( -1.000000 -1.000000  1.000000 )  
               b(2) = (  1.000000  1.000000  1.000000 )  
               b(3) = ( -1.000000  1.000000 -1.000000 )  


     PseudoPot. # 1 for Pd read from file:
     ./pd_pbe_v1.4.uspp.F.UPF
     MD5 check sum: 2d733d2bc2cbfd217af676df1668a4bc
     Pseudo is Ultrasoft + core correction, Zval = 16.0
     Generated by new atomic code, or converted to UPF format
     Using radial grid of  887 points,  6 beta functions with: 
                l(1) =   0
                l(2) =   0
                l(3) =   1
                l(4) =   1
                l(5) =   2
                l(6) =   2
     Q(r) pseudized with  8 coefficients,  rinner =    1.130   1.130   1.130
                                                       1.130   1.130

     atomic species   valence    mass     pseudopotential
        Pd            16.00   106.40000     Pd( 1.00)

     48 Sym. Ops., with inversion, found



   Cartesian axes

     site n.     atom                  positions (alat units)
         1           Pd  tau(   1) = (   0.0000000   0.0000000   0.0000000  )

     number of k points=     8  Marzari-Vanderbilt smearing, width (Ry)=  0.0400
                       cart. coord. in units 2pi/alat
        k(    1) = (   0.0000000   0.0000000   0.0000000), wk =   0.0312500
        k(    2) = (  -0.2500000   0.2500000  -0.2500000), wk =   0.2500000
        k(    3) = (   0.5000000  -0.5000000   0.5000000), wk =   0.1250000
        k(    4) = (   0.0000000   0.5000000   0.0000000), wk =   0.1875000
        k(    5) = (   0.7500000  -0.2500000   0.7500000), wk =   0.7500000
        k(    6) = (   0.5000000   0.0000000   0.5000000), wk =   0.3750000
        k(    7) = (   0.0000000  -1.0000000   0.0000000), wk =   0.0937500
        k(    8) = (  -0.5000000  -1.0000000   0.0000000), wk =   0.1875000

     Dense  grid:     3119 G-vectors     FFT dimensions: (  24,  24,  24)

     Estimated max dynamical RAM per process >       7.09 MB

     Estimated total dynamical RAM >      14.18 MB

     Initial potential from superposition of free atoms
     Check: negative starting charge=   -0.079189

     starting charge   15.49999, renormalised to   16.00000

     negative rho (up, down):  8.174E-02 0.000E+00
     Starting wfcs are   12 randomized atomic wfcs

     total cpu time spent up to now is        0.5 secs

     Self-consistent Calculation

     iteration #  1     ecut=    35.00 Ry     beta= 0.70
     Davidson diagonalization with overlap
     ethr =  1.00E-02,  avg # of iterations =  3.5

     negative rho (up, down):  8.052E-02 0.000E+00

     total cpu time spent up to now is        0.6 secs

     total energy              =    -198.14035564 Ry
     Harris-Foulkes estimate   =    -199.05551810 Ry
     estimated scf accuracy    <       1.25734280 Ry

     iteration #  2     ecut=    35.00 Ry     beta= 0.70
     Davidson diagonalization with overlap
     ethr =  7.86E-03,  avg # of iterations =  2.0

     negative rho (up, down):  8.188E-02 0.000E+00

     total cpu time spent up to now is        0.7 secs

     total energy              =    -198.44782354 Ry
     Harris-Foulkes estimate   =    -199.07773284 Ry
     estimated scf accuracy    <       1.26432120 Ry

     iteration #  3     ecut=    35.00 Ry     beta= 0.70
     Davidson diagonalization with overlap
     ethr =  7.86E-03,  avg # of iterations =  2.0

     negative rho (up, down):  8.193E-02 0.000E+00

     total cpu time spent up to now is        0.8 secs

     total energy              =    -198.71239251 Ry
     Harris-Foulkes estimate   =    -198.71241586 Ry
     estimated scf accuracy    <       0.00010586 Ry

     iteration #  4     ecut=    35.00 Ry     beta= 0.70
     Davidson diagonalization with overlap
     ethr =  6.62E-07,  avg # of iterations =  3.2

     negative rho (up, down):  8.204E-02 0.000E+00

     total cpu time spent up to now is        0.9 secs

     total energy              =    -198.71271531 Ry
     Harris-Foulkes estimate   =    -198.71271412 Ry
     estimated scf accuracy    <       0.00000598 Ry

     iteration #  5     ecut=    35.00 Ry     beta= 0.70
     Davidson diagonalization with overlap
     ethr =  3.74E-08,  avg # of iterations =  2.0

     negative rho (up, down):  8.206E-02 0.000E+00

     total cpu time spent up to now is        1.0 secs

     total energy              =    -198.71271612 Ry
     Harris-Foulkes estimate   =    -198.71271603 Ry
     estimated scf accuracy    <       0.00000013 Ry

     iteration #  6     ecut=    35.00 Ry     beta= 0.70
     Davidson diagonalization with overlap
     ethr =  8.08E-10,  avg # of iterations =  2.0

     negative rho (up, down):  8.206E-02 0.000E+00

     total cpu time spent up to now is        1.1 secs

     End of self-consistent calculation

          k = 0.0000 0.0000 0.0000 (   387 PWs)   bands (ev):

   -33.0156 -33.0156 -33.0156   9.9290  13.9799  13.9799  13.9799  15.3597
    15.3597  34.0390  38.2326  38.2326

          k =-0.2500 0.2500-0.2500 (   380 PWs)   bands (ev):

   -33.1601 -33.0366 -33.0366  11.5388  13.9509  14.2358  14.2358  15.4977
    15.4977  30.1777  34.7876  38.9285

          k = 0.5000-0.5000 0.5000 (   392 PWs)   bands (ev):

   -33.3022 -33.0577 -33.0577  11.8072  13.9447  13.9447  16.3874  16.3874
    17.5785  22.9800  33.2567  36.9187

          k = 0.0000 0.5000 0.0000 (   375 PWs)   bands (ev):

   -33.1541 -33.0697 -33.0697  12.0190  12.9266  14.8658  15.0884  15.0884
    15.8445  33.6620  33.6620  34.2403

          k = 0.7500-0.2500 0.7500 (   390 PWs)   bands (ev):

   -33.2542 -33.1322 -33.0908  12.4359  13.1297  14.3992  15.0490  16.4637
    19.8474  25.0409  30.2879  32.5344

          k = 0.5000 0.0000 0.5000 (   379 PWs)   bands (ev):

   -33.2212 -33.1379 -33.0576  13.0408  13.4556  13.8036  14.8151  15.3310
    18.5126  28.3049  28.4475  35.7113

          k = 0.0000-1.0000 0.0000 (   388 PWs)   bands (ev):

   -33.2873 -33.1240 -33.1240  11.7757  12.0295  16.3635  16.6544  16.6544
    19.7271  26.1975  29.1947  29.1947

          k =-0.5000-1.0000 0.0000 (   380 PWs)   bands (ev):

   -33.2057 -33.2057 -33.1258  12.7148  13.5150  13.5150  15.2986  16.6576
    24.7796  24.7796  26.0341  27.3081

     the Fermi energy is    16.6829 ev

!    total energy              =    -198.71271614 Ry
     Harris-Foulkes estimate   =    -198.71271614 Ry
     estimated scf accuracy    <          9.4E-10 Ry

     The total energy is the sum of the following terms:

     one-electron contribution =     -51.19665524 Ry
     hartree contribution      =      38.24188946 Ry
     xc contribution           =     -31.31736278 Ry
     ewald contribution        =    -154.43745938 Ry
     smearing contrib. (-TS)   =      -0.00312820 Ry

     convergence has been achieved in   6 iterations

     Writing output data file Pd-kp-conv.save/
 
     init_run     :      0.37s CPU      0.39s WALL (       1 calls)
     electrons    :      0.59s CPU      0.75s WALL (       1 calls)

     Called by init_run:
     wfcinit      :      0.03s CPU      0.03s WALL (       1 calls)
     potinit      :      0.01s CPU      0.02s WALL (       1 calls)
     hinit0       :      0.32s CPU      0.32s WALL (       1 calls)

     Called by electrons:
     c_bands      :      0.41s CPU      0.44s WALL (       6 calls)
     sum_band     :      0.12s CPU      0.12s WALL (       6 calls)
     v_of_rho     :      0.03s CPU      0.03s WALL (       7 calls)
     newd         :      0.04s CPU      0.04s WALL (       7 calls)
     mix_rho      :      0.00s CPU      0.00s WALL (       6 calls)

     Called by c_bands:
     init_us_2    :      0.01s CPU      0.01s WALL (     104 calls)
     cegterg      :      0.38s CPU      0.41s WALL (      48 calls)

     Called by sum_band:
     sum_band:bec :      0.00s CPU      0.00s WALL (      48 calls)
     addusdens    :      0.04s CPU      0.04s WALL (       6 calls)

     Called by *egterg:
     h_psi        :      0.33s CPU      0.35s WALL (     174 calls)
     s_psi        :      0.00s CPU      0.00s WALL (     174 calls)
     g_psi        :      0.00s CPU      0.00s WALL (     118 calls)
     cdiaghg      :      0.05s CPU      0.05s WALL (     166 calls)

     Called by h_psi:
     h_psi:pot    :      0.32s CPU      0.35s WALL (     174 calls)
     h_psi:calbec :      0.01s CPU      0.01s WALL (     174 calls)
     vloc_psi     :      0.31s CPU      0.34s WALL (     174 calls)
     add_vuspsi   :      0.00s CPU      0.00s WALL (     174 calls)

     General routines
     calbec       :      0.01s CPU      0.01s WALL (     222 calls)
     fft          :      0.01s CPU      0.01s WALL (      78 calls)
     ffts         :      0.00s CPU      0.00s WALL (       6 calls)
     fftw         :      0.32s CPU      0.34s WALL (    3678 calls)
 
     Parallel routines
     fft_scatt_xy :      0.06s CPU      0.07s WALL (    3762 calls)
     fft_scatt_yz :      0.07s CPU      0.07s WALL (    3762 calls)
 
     PWSCF        :     1.04s CPU         1.57s WALL

 
   This run was terminated on:  23:11: 2   2Dec2021            

=------------------------------------------------------------------------------=
   JOB DONE.
=------------------------------------------------------------------------------=
