
     Program PWSCF v.6.3 starts on  2Dec2021 at 21:36:40 

     This program is part of the open-source Quantum ESPRESSO suite
     for quantum simulation of materials; please cite
         "P. Giannozzi et al., J. Phys.:Condens. Matter 21 395502 (2009);
         "P. Giannozzi et al., J. Phys.:Condens. Matter 29 465901 (2017);
          URL http://www.quantum-espresso.org", 
     in publications or presentations arising from this work. More details at
     http://www.quantum-espresso.org/quote

     Parallel version (MPI & OpenMP), running on       2 processor cores
     Number of MPI processes:                 2
     Threads/MPI process:                     1

     MPI processes distributed on     1 nodes
     R & G space division:  proc/nbgrp/npool/nimage =       2
     Reading input from pw-input.in

     Current dimensions of program PWSCF are:
     Max number of different atomic species (ntypx) = 10
     Max number of k-points (npk) =  40000
     Max angular momentum in pseudopotentials (lmaxx) =  3

     Subspace diagonalization in iterative solution of the eigenvalue problem:
     a serial algorithm will be used

 
     Parallelization info
     --------------------
     sticks:   dense  smooth     PW     G-vecs:    dense   smooth      PW
     Min         120     120     42                 1210     1210     264
     Max         121     121     43                 1211     1211     267
     Sum         241     241     85                 2421     2421     531
 

     Title: 
     Pd-kp-conv                                                                 


     bravais-lattice index     =            2
     lattice parameter (alat)  =       7.0000  a.u.
     unit-cell volume          =      85.7500 (a.u.)^3
     number of atoms/cell      =            1
     number of atomic types    =            1
     number of electrons       =        16.00
     number of Kohn-Sham states=           12
     kinetic-energy cutoff     =      35.0000  Ry
     charge density cutoff     =     140.0000  Ry
     convergence threshold     =      1.0E-07
     mixing beta               =       0.7000
     number of iterations used =            8  plain     mixing
     Exchange-correlation      =  SLA  PW   PBX  PBC ( 1  4  3  4 0 0)

     celldm(1)=   7.000000  celldm(2)=   0.000000  celldm(3)=   0.000000
     celldm(4)=   0.000000  celldm(5)=   0.000000  celldm(6)=   0.000000

     crystal axes: (cart. coord. in units of alat)
               a(1) = (  -0.500000   0.000000   0.500000 )  
               a(2) = (   0.000000   0.500000   0.500000 )  
               a(3) = (  -0.500000   0.500000   0.000000 )  

     reciprocal axes: (cart. coord. in units 2 pi/alat)
               b(1) = ( -1.000000 -1.000000  1.000000 )  
               b(2) = (  1.000000  1.000000  1.000000 )  
               b(3) = ( -1.000000  1.000000 -1.000000 )  


     PseudoPot. # 1 for Pd read from file:
     ./pd_pbe_v1.4.uspp.F.UPF
     MD5 check sum: 2d733d2bc2cbfd217af676df1668a4bc
     Pseudo is Ultrasoft + core correction, Zval = 16.0
     Generated by new atomic code, or converted to UPF format
     Using radial grid of  887 points,  6 beta functions with: 
                l(1) =   0
                l(2) =   0
                l(3) =   1
                l(4) =   1
                l(5) =   2
                l(6) =   2
     Q(r) pseudized with  8 coefficients,  rinner =    1.130   1.130   1.130
                                                       1.130   1.130

     atomic species   valence    mass     pseudopotential
        Pd            16.00   106.40000     Pd( 1.00)

     48 Sym. Ops., with inversion, found



   Cartesian axes

     site n.     atom                  positions (alat units)
         1           Pd  tau(   1) = (   0.0000000   0.0000000   0.0000000  )

     number of k points=     8  Marzari-Vanderbilt smearing, width (Ry)=  0.0200
                       cart. coord. in units 2pi/alat
        k(    1) = (   0.0000000   0.0000000   0.0000000), wk =   0.0312500
        k(    2) = (  -0.2500000   0.2500000  -0.2500000), wk =   0.2500000
        k(    3) = (   0.5000000  -0.5000000   0.5000000), wk =   0.1250000
        k(    4) = (   0.0000000   0.5000000   0.0000000), wk =   0.1875000
        k(    5) = (   0.7500000  -0.2500000   0.7500000), wk =   0.7500000
        k(    6) = (   0.5000000   0.0000000   0.5000000), wk =   0.3750000
        k(    7) = (   0.0000000  -1.0000000   0.0000000), wk =   0.0937500
        k(    8) = (  -0.5000000  -1.0000000   0.0000000), wk =   0.1875000

     Dense  grid:     2421 G-vectors     FFT dimensions: (  20,  20,  20)

     Estimated max dynamical RAM per process >       5.58 MB

     Estimated total dynamical RAM >      11.16 MB

     Initial potential from superposition of free atoms
     Check: negative starting charge=   -0.083349

     starting charge   15.49999, renormalised to   16.00000

     negative rho (up, down):  8.604E-02 0.000E+00
     Starting wfcs are   12 randomized atomic wfcs

     total cpu time spent up to now is        0.5 secs

     Self-consistent Calculation

     iteration #  1     ecut=    35.00 Ry     beta= 0.70
     Davidson diagonalization with overlap
     ethr =  1.00E-02,  avg # of iterations =  3.8

     negative rho (up, down):  8.595E-02 0.000E+00

     total cpu time spent up to now is        0.6 secs

     total energy              =    -198.35932779 Ry
     Harris-Foulkes estimate   =    -198.94935422 Ry
     estimated scf accuracy    <       0.82514402 Ry

     iteration #  2     ecut=    35.00 Ry     beta= 0.70
     Davidson diagonalization with overlap
     ethr =  5.16E-03,  avg # of iterations =  2.0

     negative rho (up, down):  8.727E-02 0.000E+00

     total cpu time spent up to now is        0.7 secs

     total energy              =    -198.59596212 Ry
     Harris-Foulkes estimate   =    -198.83863408 Ry
     estimated scf accuracy    <       0.43634510 Ry

     iteration #  3     ecut=    35.00 Ry     beta= 0.70
     Davidson diagonalization with overlap
     ethr =  2.73E-03,  avg # of iterations =  2.0

     negative rho (up, down):  8.756E-02 0.000E+00

     total cpu time spent up to now is        0.7 secs

     total energy              =    -198.68523708 Ry
     Harris-Foulkes estimate   =    -198.68524424 Ry
     estimated scf accuracy    <       0.00010321 Ry

     iteration #  4     ecut=    35.00 Ry     beta= 0.70
     Davidson diagonalization with overlap
     ethr =  6.45E-07,  avg # of iterations =  2.5

     negative rho (up, down):  8.770E-02 0.000E+00

     total cpu time spent up to now is        0.8 secs

     total energy              =    -198.68534250 Ry
     Harris-Foulkes estimate   =    -198.68534337 Ry
     estimated scf accuracy    <       0.00000893 Ry

     iteration #  5     ecut=    35.00 Ry     beta= 0.70
     Davidson diagonalization with overlap
     ethr =  5.58E-08,  avg # of iterations =  2.0

     negative rho (up, down):  8.773E-02 0.000E+00

     total cpu time spent up to now is        0.9 secs

     End of self-consistent calculation

          k = 0.0000 0.0000 0.0000 (   307 PWs)   bands (ev):

   -27.0374 -27.0374 -27.0374  14.5147  19.3567  19.3567  19.3567  21.4337
    21.4337  40.9827  46.6795  46.6795

          k =-0.2500 0.2500-0.2500 (   302 PWs)   bands (ev):

   -27.3953 -27.0868 -27.0868  16.3536  19.3172  19.7225  19.7225  21.6092
    21.6092  38.9203  42.2879  49.0145

          k = 0.5000-0.5000 0.5000 (   302 PWs)   bands (ev):

   -27.7408 -27.1356 -27.1356  16.3548  19.2845  19.2845  22.9806  22.9806
    23.5869  31.6038  40.2204  46.3231

          k = 0.0000 0.5000 0.0000 (   303 PWs)   bands (ev):

   -27.3803 -27.1680 -27.1680  16.8966  17.7737  20.6338  20.9863  20.9863
    22.1550  42.5507  42.9495  42.9495

          k = 0.7500-0.2500 0.7500 (   298 PWs)   bands (ev):

   -27.6215 -27.3197 -27.2166  17.1248  18.0691  19.9611  20.9165  23.0997
    27.1200  33.3266  39.1932  41.5837

          k = 0.5000 0.0000 0.5000 (   295 PWs)   bands (ev):

   -27.5430 -27.3354 -27.1359  18.1096  18.5772  19.0402  20.5563  21.3481
    25.6970  36.9453  37.4465  44.0531

          k = 0.0000-1.0000 0.0000 (   302 PWs)   bands (ev):

   -27.7001 -27.2969 -27.2969  16.1335  16.4964  22.9527  23.3916  23.3916
    26.2944  35.4168  37.2639  37.2639

          k =-0.5000-1.0000 0.0000 (   308 PWs)   bands (ev):

   -27.5007 -27.5007 -27.3038  17.4419  18.6703  18.6703  21.2659  23.3937
    32.8454  32.8454  34.7904  35.8703

     the Fermi energy is    23.2477 ev

!    total energy              =    -198.68534368 Ry
     Harris-Foulkes estimate   =    -198.68534369 Ry
     estimated scf accuracy    <       0.00000008 Ry

     The total energy is the sum of the following terms:

     one-electron contribution =     -31.13304517 Ry
     hartree contribution      =      31.65944156 Ry
     xc contribution           =     -31.53574453 Ry
     ewald contribution        =    -167.67495590 Ry
     smearing contrib. (-TS)   =      -0.00103964 Ry

     convergence has been achieved in   5 iterations

     Writing output data file Pd-kp-conv.save/
 
     init_run     :      0.34s CPU      0.37s WALL (       1 calls)
     electrons    :      0.39s CPU      0.45s WALL (       1 calls)

     Called by init_run:
     wfcinit      :      0.02s CPU      0.03s WALL (       1 calls)
     potinit      :      0.00s CPU      0.02s WALL (       1 calls)
     hinit0       :      0.31s CPU      0.31s WALL (       1 calls)

     Called by electrons:
     c_bands      :      0.27s CPU      0.30s WALL (       5 calls)
     sum_band     :      0.08s CPU      0.08s WALL (       5 calls)
     v_of_rho     :      0.02s CPU      0.02s WALL (       6 calls)
     newd         :      0.03s CPU      0.03s WALL (       6 calls)
     mix_rho      :      0.00s CPU      0.00s WALL (       5 calls)

     Called by c_bands:
     init_us_2    :      0.01s CPU      0.01s WALL (      88 calls)
     cegterg      :      0.25s CPU      0.28s WALL (      40 calls)

     Called by sum_band:
     sum_band:bec :      0.00s CPU      0.00s WALL (      40 calls)
     addusdens    :      0.03s CPU      0.03s WALL (       5 calls)

     Called by *egterg:
     h_psi        :      0.20s CPU      0.23s WALL (     146 calls)
     s_psi        :      0.00s CPU      0.00s WALL (     146 calls)
     g_psi        :      0.00s CPU      0.00s WALL (      98 calls)
     cdiaghg      :      0.04s CPU      0.04s WALL (     138 calls)

     Called by h_psi:
     h_psi:pot    :      0.20s CPU      0.23s WALL (     146 calls)
     h_psi:calbec :      0.00s CPU      0.01s WALL (     146 calls)
     vloc_psi     :      0.19s CPU      0.21s WALL (     146 calls)
     add_vuspsi   :      0.00s CPU      0.00s WALL (     146 calls)

     General routines
     calbec       :      0.01s CPU      0.01s WALL (     186 calls)
     fft          :      0.01s CPU      0.01s WALL (      67 calls)
     ffts         :      0.00s CPU      0.00s WALL (       5 calls)
     fftw         :      0.20s CPU      0.22s WALL (    3108 calls)
 
     Parallel routines
     fft_scatt_xy :      0.04s CPU      0.04s WALL (    3180 calls)
     fft_scatt_yz :      0.05s CPU      0.06s WALL (    3180 calls)
 
     PWSCF        :     0.83s CPU         1.32s WALL

 
   This run was terminated on:  21:36:41   2Dec2021            

=------------------------------------------------------------------------------=
   JOB DONE.
=------------------------------------------------------------------------------=
