
     Program PWSCF v.6.3 starts on  2Dec2021 at 21:36:56 

     This program is part of the open-source Quantum ESPRESSO suite
     for quantum simulation of materials; please cite
         "P. Giannozzi et al., J. Phys.:Condens. Matter 21 395502 (2009);
         "P. Giannozzi et al., J. Phys.:Condens. Matter 29 465901 (2017);
          URL http://www.quantum-espresso.org", 
     in publications or presentations arising from this work. More details at
     http://www.quantum-espresso.org/quote

     Parallel version (MPI & OpenMP), running on       2 processor cores
     Number of MPI processes:                 2
     Threads/MPI process:                     1

     MPI processes distributed on     1 nodes
     R & G space division:  proc/nbgrp/npool/nimage =       2
     Reading input from pw-input.in

     Current dimensions of program PWSCF are:
     Max number of different atomic species (ntypx) = 10
     Max number of k-points (npk) =  40000
     Max angular momentum in pseudopotentials (lmaxx) =  3

     Subspace diagonalization in iterative solution of the eigenvalue problem:
     a serial algorithm will be used

 
     Parallelization info
     --------------------
     sticks:   dense  smooth     PW     G-vecs:    dense   smooth      PW
     Min         141     141     45                 1570     1570     304
     Max         142     142     46                 1573     1573     305
     Sum         283     283     91                 3143     3143     609
 

     Title: 
     Pd-kp-conv                                                                 


     bravais-lattice index     =            2
     lattice parameter (alat)  =       7.7000  a.u.
     unit-cell volume          =     114.1333 (a.u.)^3
     number of atoms/cell      =            1
     number of atomic types    =            1
     number of electrons       =        16.00
     number of Kohn-Sham states=           12
     kinetic-energy cutoff     =      35.0000  Ry
     charge density cutoff     =     140.0000  Ry
     convergence threshold     =      1.0E-07
     mixing beta               =       0.7000
     number of iterations used =            8  plain     mixing
     Exchange-correlation      =  SLA  PW   PBX  PBC ( 1  4  3  4 0 0)

     celldm(1)=   7.700000  celldm(2)=   0.000000  celldm(3)=   0.000000
     celldm(4)=   0.000000  celldm(5)=   0.000000  celldm(6)=   0.000000

     crystal axes: (cart. coord. in units of alat)
               a(1) = (  -0.500000   0.000000   0.500000 )  
               a(2) = (   0.000000   0.500000   0.500000 )  
               a(3) = (  -0.500000   0.500000   0.000000 )  

     reciprocal axes: (cart. coord. in units 2 pi/alat)
               b(1) = ( -1.000000 -1.000000  1.000000 )  
               b(2) = (  1.000000  1.000000  1.000000 )  
               b(3) = ( -1.000000  1.000000 -1.000000 )  


     PseudoPot. # 1 for Pd read from file:
     ./pd_pbe_v1.4.uspp.F.UPF
     MD5 check sum: 2d733d2bc2cbfd217af676df1668a4bc
     Pseudo is Ultrasoft + core correction, Zval = 16.0
     Generated by new atomic code, or converted to UPF format
     Using radial grid of  887 points,  6 beta functions with: 
                l(1) =   0
                l(2) =   0
                l(3) =   1
                l(4) =   1
                l(5) =   2
                l(6) =   2
     Q(r) pseudized with  8 coefficients,  rinner =    1.130   1.130   1.130
                                                       1.130   1.130

     atomic species   valence    mass     pseudopotential
        Pd            16.00   106.40000     Pd( 1.00)

     48 Sym. Ops., with inversion, found



   Cartesian axes

     site n.     atom                  positions (alat units)
         1           Pd  tau(   1) = (   0.0000000   0.0000000   0.0000000  )

     number of k points=     8  Marzari-Vanderbilt smearing, width (Ry)=  0.0200
                       cart. coord. in units 2pi/alat
        k(    1) = (   0.0000000   0.0000000   0.0000000), wk =   0.0312500
        k(    2) = (  -0.2500000   0.2500000  -0.2500000), wk =   0.2500000
        k(    3) = (   0.5000000  -0.5000000   0.5000000), wk =   0.1250000
        k(    4) = (   0.0000000   0.5000000   0.0000000), wk =   0.1875000
        k(    5) = (   0.7500000  -0.2500000   0.7500000), wk =   0.7500000
        k(    6) = (   0.5000000   0.0000000   0.5000000), wk =   0.3750000
        k(    7) = (   0.0000000  -1.0000000   0.0000000), wk =   0.0937500
        k(    8) = (  -0.5000000  -1.0000000   0.0000000), wk =   0.1875000

     Dense  grid:     3143 G-vectors     FFT dimensions: (  24,  24,  24)

     Estimated max dynamical RAM per process >       7.16 MB

     Estimated total dynamical RAM >      14.33 MB

     Initial potential from superposition of free atoms
     Check: negative starting charge=   -0.079204

     starting charge   15.49999, renormalised to   16.00000

     negative rho (up, down):  8.176E-02 0.000E+00
     Starting wfcs are   12 randomized atomic wfcs

     total cpu time spent up to now is        0.5 secs

     Self-consistent Calculation

     iteration #  1     ecut=    35.00 Ry     beta= 0.70
     Davidson diagonalization with overlap
     ethr =  1.00E-02,  avg # of iterations =  3.6

     negative rho (up, down):  8.047E-02 0.000E+00

     total cpu time spent up to now is        0.6 secs

     total energy              =    -198.08153402 Ry
     Harris-Foulkes estimate   =    -199.05976361 Ry
     estimated scf accuracy    <       1.34119777 Ry

     iteration #  2     ecut=    35.00 Ry     beta= 0.70
     Davidson diagonalization with overlap
     ethr =  8.38E-03,  avg # of iterations =  2.0

     negative rho (up, down):  8.178E-02 0.000E+00

     total cpu time spent up to now is        0.7 secs

     total energy              =    -198.35397257 Ry
     Harris-Foulkes estimate   =    -199.13290244 Ry
     estimated scf accuracy    <       1.62613458 Ry

     iteration #  3     ecut=    35.00 Ry     beta= 0.70
     Davidson diagonalization with overlap
     ethr =  8.38E-03,  avg # of iterations =  2.0

     negative rho (up, down):  8.180E-02 0.000E+00

     total cpu time spent up to now is        0.8 secs

     total energy              =    -198.70695663 Ry
     Harris-Foulkes estimate   =    -198.70741319 Ry
     estimated scf accuracy    <       0.00105684 Ry

     iteration #  4     ecut=    35.00 Ry     beta= 0.70
     Davidson diagonalization with overlap
     ethr =  6.61E-06,  avg # of iterations =  2.9

     negative rho (up, down):  8.192E-02 0.000E+00

     total cpu time spent up to now is        0.9 secs

     total energy              =    -198.70737643 Ry
     Harris-Foulkes estimate   =    -198.70737999 Ry
     estimated scf accuracy    <       0.00001312 Ry

     iteration #  5     ecut=    35.00 Ry     beta= 0.70
     Davidson diagonalization with overlap
     ethr =  8.20E-08,  avg # of iterations =  2.0

     negative rho (up, down):  8.194E-02 0.000E+00

     total cpu time spent up to now is        1.0 secs

     total energy              =    -198.70737907 Ry
     Harris-Foulkes estimate   =    -198.70737912 Ry
     estimated scf accuracy    <       0.00000029 Ry

     iteration #  6     ecut=    35.00 Ry     beta= 0.70
     Davidson diagonalization with overlap
     ethr =  1.81E-09,  avg # of iterations =  2.0

     negative rho (up, down):  8.194E-02 0.000E+00

     total cpu time spent up to now is        1.1 secs

     End of self-consistent calculation

          k = 0.0000 0.0000 0.0000 (   411 PWs)   bands (ev):

   -33.8237 -33.8237 -33.8237   9.3192  13.2354  13.2354  13.2354  14.5319
    14.5319  33.0413  37.0131  37.0131

          k =-0.2500 0.2500-0.2500 (   392 PWs)   bands (ev):

   -33.9476 -33.8416 -33.8416  10.8900  13.2163  13.4790  13.4790  14.6641
    14.6641  28.9519  33.7294  37.4964

          k = 0.5000-0.5000 0.5000 (   392 PWs)   bands (ev):

   -34.0703 -33.8596 -33.8596  11.1797  13.2091  13.2091  15.4935  15.4935
    16.7741  21.8157  32.2627  35.5825

          k = 0.0000 0.5000 0.0000 (   415 PWs)   bands (ev):

   -33.9430 -33.8705 -33.8705  11.3606  12.2485  14.0794  14.2770  14.2770
    14.9855  32.3713  32.3713  33.0698

          k = 0.7500-0.2500 0.7500 (   399 PWs)   bands (ev):

   -34.0292 -33.9241 -33.8884  11.7856  12.4483  13.6371  14.2459  15.5634
    18.8674  23.9117  29.0505  31.2810

          k = 0.5000 0.0000 0.5000 (   407 PWs)   bands (ev):

   -34.0011 -33.9293 -33.8601  12.3460  12.7462  13.0851  14.0275  14.5046
    17.5439  27.1088  27.2250  34.5291

          k = 0.0000-1.0000 0.0000 (   388 PWs)   bands (ev):

   -34.0574 -33.9168 -33.9168  11.1714  11.4053  15.4738  15.7407  15.7407
    18.8448  24.9446  28.0754  28.0754

          k =-0.5000-1.0000 0.0000 (   396 PWs)   bands (ev):

   -33.9876 -33.9876 -33.9188  12.0603  12.8034  12.8034  14.4817  15.7426
    23.6871  23.6871  24.8279  26.1451

     the Fermi energy is    15.6962 ev

!    total energy              =    -198.70737911 Ry
     Harris-Foulkes estimate   =    -198.70737911 Ry
     estimated scf accuracy    <          5.0E-09 Ry

     The total energy is the sum of the following terms:

     one-electron contribution =     -54.31229865 Ry
     hartree contribution      =      39.33272591 Ry
     xc contribution           =     -31.29379344 Ry
     ewald contribution        =    -152.43177811 Ry
     smearing contrib. (-TS)   =      -0.00223482 Ry

     convergence has been achieved in   6 iterations

     Writing output data file Pd-kp-conv.save/
 
     init_run     :      0.37s CPU      0.40s WALL (       1 calls)
     electrons    :      0.59s CPU      0.68s WALL (       1 calls)

     Called by init_run:
     wfcinit      :      0.03s CPU      0.04s WALL (       1 calls)
     potinit      :      0.01s CPU      0.01s WALL (       1 calls)
     hinit0       :      0.32s CPU      0.33s WALL (       1 calls)

     Called by electrons:
     c_bands      :      0.41s CPU      0.43s WALL (       6 calls)
     sum_band     :      0.11s CPU      0.12s WALL (       6 calls)
     v_of_rho     :      0.03s CPU      0.03s WALL (       7 calls)
     newd         :      0.04s CPU      0.05s WALL (       7 calls)
     mix_rho      :      0.00s CPU      0.00s WALL (       6 calls)

     Called by c_bands:
     init_us_2    :      0.01s CPU      0.01s WALL (     104 calls)
     cegterg      :      0.38s CPU      0.40s WALL (      48 calls)

     Called by sum_band:
     sum_band:bec :      0.00s CPU      0.00s WALL (      48 calls)
     addusdens    :      0.04s CPU      0.04s WALL (       6 calls)

     Called by *egterg:
     h_psi        :      0.33s CPU      0.35s WALL (     172 calls)
     s_psi        :      0.00s CPU      0.00s WALL (     172 calls)
     g_psi        :      0.00s CPU      0.00s WALL (     116 calls)
     cdiaghg      :      0.04s CPU      0.05s WALL (     164 calls)

     Called by h_psi:
     h_psi:pot    :      0.33s CPU      0.35s WALL (     172 calls)
     h_psi:calbec :      0.01s CPU      0.01s WALL (     172 calls)
     vloc_psi     :      0.31s CPU      0.33s WALL (     172 calls)
     add_vuspsi   :      0.00s CPU      0.01s WALL (     172 calls)

     General routines
     calbec       :      0.01s CPU      0.01s WALL (     220 calls)
     fft          :      0.01s CPU      0.01s WALL (      78 calls)
     ffts         :      0.00s CPU      0.00s WALL (       6 calls)
     fftw         :      0.32s CPU      0.34s WALL (    3618 calls)
 
     Parallel routines
     fft_scatt_xy :      0.06s CPU      0.06s WALL (    3702 calls)
     fft_scatt_yz :      0.07s CPU      0.08s WALL (    3702 calls)
 
     PWSCF        :     1.04s CPU         1.55s WALL

 
   This run was terminated on:  21:36:57   2Dec2021            

=------------------------------------------------------------------------------=
   JOB DONE.
=------------------------------------------------------------------------------=
