
     Program PWSCF v.6.3 starts on  2Dec2021 at 21:18:32 

     This program is part of the open-source Quantum ESPRESSO suite
     for quantum simulation of materials; please cite
         "P. Giannozzi et al., J. Phys.:Condens. Matter 21 395502 (2009);
         "P. Giannozzi et al., J. Phys.:Condens. Matter 29 465901 (2017);
          URL http://www.quantum-espresso.org", 
     in publications or presentations arising from this work. More details at
     http://www.quantum-espresso.org/quote

     Parallel version (MPI & OpenMP), running on       2 processor cores
     Number of MPI processes:                 2
     Threads/MPI process:                     1

     MPI processes distributed on     1 nodes
     R & G space division:  proc/nbgrp/npool/nimage =       2
     Reading input from pw-input.in

     Current dimensions of program PWSCF are:
     Max number of different atomic species (ntypx) = 10
     Max number of k-points (npk) =  40000
     Max angular momentum in pseudopotentials (lmaxx) =  3

     Subspace diagonalization in iterative solution of the eigenvalue problem:
     a serial algorithm will be used

 
     Parallelization info
     --------------------
     sticks:   dense  smooth     PW     G-vecs:    dense   smooth      PW
     Min         141     141     48                 1570     1570     322
     Max         142     142     49                 1573     1573     323
     Sum         283     283     97                 3143     3143     645
 

     Title: 
     Pd-kp-conv                                                                 


     bravais-lattice index     =            2
     lattice parameter (alat)  =       7.7000  a.u.
     unit-cell volume          =     114.1333 (a.u.)^3
     number of atoms/cell      =            1
     number of atomic types    =            1
     number of electrons       =        16.00
     number of Kohn-Sham states=           12
     kinetic-energy cutoff     =      35.0000  Ry
     charge density cutoff     =     140.0000  Ry
     convergence threshold     =      1.0E-07
     mixing beta               =       0.7000
     number of iterations used =            8  plain     mixing
     Exchange-correlation      =  SLA  PW   PBX  PBC ( 1  4  3  4 0 0)

     celldm(1)=   7.700000  celldm(2)=   0.000000  celldm(3)=   0.000000
     celldm(4)=   0.000000  celldm(5)=   0.000000  celldm(6)=   0.000000

     crystal axes: (cart. coord. in units of alat)
               a(1) = (  -0.500000   0.000000   0.500000 )  
               a(2) = (   0.000000   0.500000   0.500000 )  
               a(3) = (  -0.500000   0.500000   0.000000 )  

     reciprocal axes: (cart. coord. in units 2 pi/alat)
               b(1) = ( -1.000000 -1.000000  1.000000 )  
               b(2) = (  1.000000  1.000000  1.000000 )  
               b(3) = ( -1.000000  1.000000 -1.000000 )  


     PseudoPot. # 1 for Pd read from file:
     ./pd_pbe_v1.4.uspp.F.UPF
     MD5 check sum: 2d733d2bc2cbfd217af676df1668a4bc
     Pseudo is Ultrasoft + core correction, Zval = 16.0
     Generated by new atomic code, or converted to UPF format
     Using radial grid of  887 points,  6 beta functions with: 
                l(1) =   0
                l(2) =   0
                l(3) =   1
                l(4) =   1
                l(5) =   2
                l(6) =   2
     Q(r) pseudized with  8 coefficients,  rinner =    1.130   1.130   1.130
                                                       1.130   1.130

     atomic species   valence    mass     pseudopotential
        Pd            16.00   106.40000     Pd( 1.00)

     48 Sym. Ops., with inversion, found



   Cartesian axes

     site n.     atom                  positions (alat units)
         1           Pd  tau(   1) = (   0.0000000   0.0000000   0.0000000  )

     number of k points=    72  Marzari-Vanderbilt smearing, width (Ry)=  0.0150
                       cart. coord. in units 2pi/alat
        k(    1) = (   0.0000000   0.0000000   0.0000000), wk =   0.0011574
        k(    2) = (  -0.0833333   0.0833333  -0.0833333), wk =   0.0092593
        k(    3) = (  -0.1666667   0.1666667  -0.1666667), wk =   0.0092593
        k(    4) = (  -0.2500000   0.2500000  -0.2500000), wk =   0.0092593
        k(    5) = (  -0.3333333   0.3333333  -0.3333333), wk =   0.0092593
        k(    6) = (  -0.4166667   0.4166667  -0.4166667), wk =   0.0092593
        k(    7) = (   0.5000000  -0.5000000   0.5000000), wk =   0.0046296
        k(    8) = (   0.0000000   0.1666667   0.0000000), wk =   0.0069444
        k(    9) = (  -0.0833333   0.2500000  -0.0833333), wk =   0.0277778
        k(   10) = (  -0.1666667   0.3333333  -0.1666667), wk =   0.0277778
        k(   11) = (  -0.2500000   0.4166667  -0.2500000), wk =   0.0277778
        k(   12) = (  -0.3333333   0.5000000  -0.3333333), wk =   0.0277778
        k(   13) = (   0.5833333  -0.4166667   0.5833333), wk =   0.0277778
        k(   14) = (   0.5000000  -0.3333333   0.5000000), wk =   0.0277778
        k(   15) = (   0.4166667  -0.2500000   0.4166667), wk =   0.0277778
        k(   16) = (   0.3333333  -0.1666667   0.3333333), wk =   0.0277778
        k(   17) = (   0.2500000  -0.0833333   0.2500000), wk =   0.0277778
        k(   18) = (   0.1666667  -0.0000000   0.1666667), wk =   0.0138889
        k(   19) = (   0.0000000   0.3333333   0.0000000), wk =   0.0069444
        k(   20) = (  -0.0833333   0.4166667  -0.0833333), wk =   0.0277778
        k(   21) = (  -0.1666667   0.5000000  -0.1666667), wk =   0.0277778
        k(   22) = (  -0.2500000   0.5833333  -0.2500000), wk =   0.0277778
        k(   23) = (   0.6666667  -0.3333333   0.6666667), wk =   0.0277778
        k(   24) = (   0.5833333  -0.2500000   0.5833333), wk =   0.0277778
        k(   25) = (   0.5000000  -0.1666667   0.5000000), wk =   0.0277778
        k(   26) = (   0.4166667  -0.0833333   0.4166667), wk =   0.0277778
        k(   27) = (   0.3333333   0.0000000   0.3333333), wk =   0.0138889
        k(   28) = (   0.0000000   0.5000000   0.0000000), wk =   0.0069444
        k(   29) = (  -0.0833333   0.5833333  -0.0833333), wk =   0.0277778
        k(   30) = (  -0.1666667   0.6666667  -0.1666667), wk =   0.0277778
        k(   31) = (   0.7500000  -0.2500000   0.7500000), wk =   0.0277778
        k(   32) = (   0.6666667  -0.1666667   0.6666667), wk =   0.0277778
        k(   33) = (   0.5833333  -0.0833333   0.5833333), wk =   0.0277778
        k(   34) = (   0.5000000   0.0000000   0.5000000), wk =   0.0138889
        k(   35) = (   0.0000000   0.6666667   0.0000000), wk =   0.0069444
        k(   36) = (  -0.0833333   0.7500000  -0.0833333), wk =   0.0277778
        k(   37) = (   0.8333333  -0.1666667   0.8333333), wk =   0.0277778
        k(   38) = (   0.7500000  -0.0833333   0.7500000), wk =   0.0277778
        k(   39) = (   0.6666667  -0.0000000   0.6666667), wk =   0.0138889
        k(   40) = (   0.0000000   0.8333333   0.0000000), wk =   0.0069444
        k(   41) = (   0.9166667  -0.0833333   0.9166667), wk =   0.0277778
        k(   42) = (   0.8333333   0.0000000   0.8333333), wk =   0.0138889
        k(   43) = (   0.0000000  -1.0000000   0.0000000), wk =   0.0034722
        k(   44) = (  -0.1666667   0.3333333   0.0000000), wk =   0.0277778
        k(   45) = (  -0.2500000   0.4166667  -0.0833333), wk =   0.0555556
        k(   46) = (  -0.3333333   0.5000000  -0.1666667), wk =   0.0555556
        k(   47) = (   0.5833333  -0.4166667   0.7500000), wk =   0.0555556
        k(   48) = (   0.5000000  -0.3333333   0.6666667), wk =   0.0277778
        k(   49) = (  -0.1666667   0.5000000   0.0000000), wk =   0.0277778
        k(   50) = (  -0.2500000   0.5833333  -0.0833333), wk =   0.0555556
        k(   51) = (   0.6666667  -0.3333333   0.8333333), wk =   0.0555556
        k(   52) = (   0.5833333  -0.2500000   0.7500000), wk =   0.0555556
        k(   53) = (   0.5000000  -0.1666667   0.6666667), wk =   0.0555556
        k(   54) = (   0.4166667  -0.0833333   0.5833333), wk =   0.0555556
        k(   55) = (   0.3333333   0.0000000   0.5000000), wk =   0.0277778
        k(   56) = (  -0.1666667   0.6666667  -0.0000000), wk =   0.0277778
        k(   57) = (   0.7500000  -0.2500000   0.9166667), wk =   0.0555556
        k(   58) = (   0.6666667  -0.1666667   0.8333333), wk =   0.0555556
        k(   59) = (   0.5833333  -0.0833333   0.7500000), wk =   0.0555556
        k(   60) = (   0.5000000   0.0000000   0.6666667), wk =   0.0277778
        k(   61) = (   0.8333333  -0.1666667   1.0000000), wk =   0.0277778
        k(   62) = (   0.7500000  -0.0833333   0.9166667), wk =   0.0555556
        k(   63) = (   0.6666667   0.0000000   0.8333333), wk =   0.0277778
        k(   64) = (  -0.1666667  -1.0000000  -0.0000000), wk =   0.0138889
        k(   65) = (   0.6666667  -0.3333333   1.0000000), wk =   0.0277778
        k(   66) = (   0.5833333  -0.2500000   0.9166667), wk =   0.0555556
        k(   67) = (   0.5000000  -0.1666667   0.8333333), wk =   0.0277778
        k(   68) = (   0.6666667  -0.1666667   1.0000000), wk =   0.0277778
        k(   69) = (   0.5833333  -0.0833333   0.9166667), wk =   0.0555556
        k(   70) = (   0.5000000   0.0000000   0.8333333), wk =   0.0277778
        k(   71) = (  -0.3333333  -1.0000000   0.0000000), wk =   0.0138889
        k(   72) = (  -0.5000000  -1.0000000   0.0000000), wk =   0.0069444

     Dense  grid:     3143 G-vectors     FFT dimensions: (  24,  24,  24)

     Estimated max dynamical RAM per process >       9.50 MB

     Estimated total dynamical RAM >      18.99 MB

     Initial potential from superposition of free atoms
     Check: negative starting charge=   -0.079204

     starting charge   15.49999, renormalised to   16.00000

     negative rho (up, down):  8.176E-02 0.000E+00
     Starting wfcs are   12 randomized atomic wfcs

     total cpu time spent up to now is        0.6 secs

     Self-consistent Calculation

     iteration #  1     ecut=    35.00 Ry     beta= 0.70
     Davidson diagonalization with overlap
     ethr =  1.00E-02,  avg # of iterations =  3.6

     negative rho (up, down):  8.047E-02 0.000E+00

     total cpu time spent up to now is        1.5 secs

     total energy              =    -198.09640805 Ry
     Harris-Foulkes estimate   =    -199.05482692 Ry
     estimated scf accuracy    <       1.31316921 Ry

     iteration #  2     ecut=    35.00 Ry     beta= 0.70
     Davidson diagonalization with overlap
     ethr =  8.21E-03,  avg # of iterations =  2.0

     negative rho (up, down):  8.178E-02 0.000E+00

     total cpu time spent up to now is        2.2 secs

     total energy              =    -198.40005318 Ry
     Harris-Foulkes estimate   =    -199.12151377 Ry
     estimated scf accuracy    <       1.48179976 Ry

     iteration #  3     ecut=    35.00 Ry     beta= 0.70
     Davidson diagonalization with overlap
     ethr =  8.21E-03,  avg # of iterations =  2.0

     negative rho (up, down):  8.190E-02 0.000E+00

     total cpu time spent up to now is        2.9 secs

     total energy              =    -198.69564538 Ry
     Harris-Foulkes estimate   =    -198.69647066 Ry
     estimated scf accuracy    <       0.00182043 Ry

     iteration #  4     ecut=    35.00 Ry     beta= 0.70
     Davidson diagonalization with overlap
     ethr =  1.14E-05,  avg # of iterations =  2.4

     negative rho (up, down):  8.205E-02 0.000E+00

     total cpu time spent up to now is        3.7 secs

     total energy              =    -198.69625962 Ry
     Harris-Foulkes estimate   =    -198.69625881 Ry
     estimated scf accuracy    <       0.00000507 Ry

     iteration #  5     ecut=    35.00 Ry     beta= 0.70
     Davidson diagonalization with overlap
     ethr =  3.17E-08,  avg # of iterations =  2.0

     negative rho (up, down):  8.208E-02 0.000E+00

     total cpu time spent up to now is        4.4 secs

     total energy              =    -198.69626067 Ry
     Harris-Foulkes estimate   =    -198.69626051 Ry
     estimated scf accuracy    <       0.00000012 Ry

     iteration #  6     ecut=    35.00 Ry     beta= 0.70
     Davidson diagonalization with overlap
     ethr =  7.51E-10,  avg # of iterations =  2.0

     negative rho (up, down):  8.209E-02 0.000E+00

     total cpu time spent up to now is        5.1 secs

     End of self-consistent calculation

          k = 0.0000 0.0000 0.0000 (   411 PWs)   bands (ev):

   -33.9120 -33.9120 -33.9120   9.3095  13.1760  13.1760  13.1760  14.4651
    14.4651  33.0346  37.0067  37.0067

          k =-0.0833 0.0833-0.0833 (   402 PWs)   bands (ev):

   -33.9282 -33.9143 -33.9143   9.5330  13.1116  13.2459  13.2459  14.4371
    14.4371  33.1331  35.3897  37.1515

          k =-0.1667 0.1667-0.1667 (   387 PWs)   bands (ev):

   -33.9736 -33.9206 -33.9206  10.1462  12.9987  13.3871  13.3871  14.4239
    14.4239  31.9135  34.0205  37.4566

          k =-0.2500 0.2500-0.2500 (   392 PWs)   bands (ev):

   -34.0353 -33.9298 -33.9298  10.8714  13.1702  13.4186  13.4186  14.5977
    14.5977  28.9288  33.7212  37.4784

          k =-0.3333 0.3333-0.3333 (   401 PWs)   bands (ev):

   -34.0968 -33.9390 -33.9390  11.1823  13.3114  13.3114  14.1673  14.9562
    14.9562  25.8592  33.0501  36.7745

          k =-0.4167 0.4167-0.4167 (   401 PWs)   bands (ev):

   -34.1411 -33.9456 -33.9456  11.1696  13.1951  13.1951  15.2892  15.2892
    15.7587  23.1434  32.4713  35.9180

          k = 0.5000-0.5000 0.5000 (   392 PWs)   bands (ev):

   -34.1575 -33.9478 -33.9478  11.1387  13.1499  13.1499  15.4234  15.4234
    16.7646  21.7759  32.2579  35.5699

          k = 0.0000 0.1667 0.0000 (   391 PWs)   bands (ev):

   -33.9275 -33.9180 -33.9180   9.6077  13.0344  13.3019  13.3019  14.3240
    14.5250  33.2352  35.9083  36.4399

          k =-0.0833 0.2500-0.0833 (   386 PWs)   bands (ev):

   -33.9614 -33.9257 -33.9223  10.0961  12.8830  13.4493  13.4555  14.2136
    14.5833  32.8876  34.0913  35.9220

          k =-0.1667 0.3333-0.1667 (   390 PWs)   bands (ev):

   -34.0167 -33.9355 -33.9302  10.8267  12.8353  13.4703  13.5473  14.3908
    14.7416  30.1009  33.8042  35.4481

          k =-0.2500 0.4167-0.2500 (   397 PWs)   bands (ev):

   -34.0769 -33.9446 -33.9407  11.2944  13.2711  13.3478  13.4853  15.0312
    15.0505  26.9835  33.2395  34.9575

          k =-0.3333 0.5000-0.3333 (   406 PWs)   bands (ev):

   -34.1258 -33.9510 -33.9507  11.3261  13.1280  13.3618  14.1884  15.3394
    16.1555  24.0630  32.6032  34.6309

          k = 0.5833-0.4167 0.5833 (   399 PWs)   bands (ev):

   -34.1506 -33.9581 -33.9517  11.2824  13.0507  13.2765  14.7135  15.4316
    17.4559  21.9771  32.2194  34.6187

          k = 0.5000-0.3333 0.5000 (   397 PWs)   bands (ev):

   -34.1451 -33.9601 -33.9481  11.2994  13.0825  13.2757  14.7092  15.2541
    17.1399  22.5047  32.1741  34.2833

          k = 0.4167-0.2500 0.4167 (   400 PWs)   bands (ev):

   -34.1110 -33.9567 -33.9402  11.3528  13.1992  13.3645  14.0660  14.8684
    15.9514  25.0071  32.4296  34.6705

          k = 0.3333-0.1667 0.3333 (   396 PWs)   bands (ev):

   -34.0570 -33.9483 -33.9304  11.2159  13.0983  13.4258  13.4982  14.4348
    15.1920  28.0277  32.8524  35.6217

          k = 0.2500-0.0833 0.2500 (   389 PWs)   bands (ev):

   -33.9978 -33.9369 -33.9212  10.5823  12.8616  13.4707  13.5142  14.2078
    14.7333  31.1104  33.2313  36.3238

          k = 0.1667-0.0000 0.1667 (   385 PWs)   bands (ev):

   -33.9503 -33.9243 -33.9152   9.8908  12.9881  13.3462  13.3800  14.2953
    14.5275  33.1369  34.0459  36.2667

          k = 0.0000 0.3333 0.0000 (   399 PWs)   bands (ev):

   -33.9716 -33.9352 -33.9352  10.4264  12.6645  13.6610  13.6610  14.0059
    14.6880  33.7333  34.4741  34.6817

          k =-0.0833 0.4167-0.0833 (   395 PWs)   bands (ev):

   -34.0112 -33.9461 -33.9443  11.0307  12.4736  13.6070  13.8515  14.2868
    14.8366  31.5141  33.7222  33.8581

          k =-0.1667 0.5000-0.1667 (   398 PWs)   bands (ev):

   -34.0621 -33.9562 -33.9557  11.5559  12.5410  13.3392  13.8647  15.1176
    15.1901  28.3517  33.0589  33.1520

          k =-0.2500 0.5833-0.2500 (   396 PWs)   bands (ev):

   -34.1066 -33.9707 -33.9614  11.6360  12.8693  13.3331  13.7562  15.3891
    16.5880  25.2776  32.1183  32.7974

          k = 0.6667-0.3333 0.6667 (   393 PWs)   bands (ev):

   -34.1329 -33.9838 -33.9622  11.6150  12.8193  13.6408  13.7824  15.4568
    18.3220  22.6595  31.1399  33.0987

          k = 0.5833-0.2500 0.5833 (   398 PWs)   bands (ev):

   -34.1353 -33.9920 -33.9574  11.6554  12.8223  13.5863  13.9551  15.2482
    18.8455  22.1264  30.4253  33.7500

          k = 0.5000-0.1667 0.5000 (   404 PWs)   bands (ev):

   -34.1136 -33.9919 -33.9482  11.7610  12.9369  13.6223  13.6323  14.8235
    17.4268  24.4544  30.1107  34.1086

          k = 0.4167-0.0833 0.4167 (   402 PWs)   bands (ev):

   -34.0753 -33.9816 -33.9371  11.7985  12.8417  13.2660  13.7491  14.3181
    16.1971  27.4069  30.2095  35.0390

          k = 0.3333 0.0000 0.3333 (   397 PWs)   bands (ev):

   -34.0329 -33.9615 -33.9273  11.2946  12.6741  13.4186  13.8093  13.9985
    15.3159  30.2373  30.8565  36.5096

          k = 0.0000 0.5000 0.0000 (   415 PWs)   bands (ev):

   -34.0308 -33.9586 -33.9586  11.3396  12.1946  14.0308  14.2142  14.2142
    14.9167  32.3539  32.3539  33.0515

          k =-0.0833 0.5833-0.0833 (   405 PWs)   bands (ev):

   -34.0659 -33.9718 -33.9693  11.6134  12.0324  13.9093  14.3808  15.1391
    15.2099  29.7915  31.4125  31.8794

          k =-0.1667 0.6667-0.1667 (   402 PWs)   bands (ev):

   -34.0985 -33.9902 -33.9758  11.6968  12.1544  13.7163  14.3132  15.4187
    16.8157  26.7291  30.3709  31.0093

          k = 0.7500-0.2500 0.7500 (   399 PWs)   bands (ev):

   -34.1166 -34.0119 -33.9764  11.7386  12.3990  13.5859  14.1826  15.4930
    18.8319  23.8867  29.0252  31.2647

          k = 0.6667-0.1667 0.6667 (   401 PWs)   bands (ev):

   -34.1161 -34.0307 -33.9709  11.8892  12.5799  13.4737  14.0699  15.2824
    20.5885  22.0496  27.9590  32.2145

          k = 0.5833-0.0833 0.5833 (   399 PWs)   bands (ev):

   -34.1022 -34.0360 -33.9605  12.1336  12.7315  13.2083  14.0087  14.8681
    19.0900  24.2249  27.3013  33.7569

          k = 0.5000 0.0000 0.5000 (   407 PWs)   bands (ev):

   -34.0885 -34.0171 -33.9482  12.3062  12.6937  13.0372  13.9648  14.4398
    17.4957  27.0874  27.1957  34.5172

          k = 0.0000 0.6667 0.0000 (   399 PWs)   bands (ev):

   -34.0883 -33.9814 -33.9814  11.4928  11.7609  14.8677  14.8677  15.1565
    15.3402  30.1152  30.1855  30.1855

          k =-0.0833 0.7500-0.0833 (   404 PWs)   bands (ev):

   -34.1112 -33.9961 -33.9895  11.4599  11.6668  14.7086  14.9163  15.4172
    16.9306  28.0537  28.5425  29.5446

          k = 0.8333-0.1667 0.8333 (   402 PWs)   bands (ev):

   -34.1200 -34.0194 -33.9907  11.5144  11.8214  14.3310  14.7860  15.5372
    18.9977  25.4499  27.0660  29.6343

          k = 0.7500-0.0833 0.7500 (   398 PWs)   bands (ev):

   -34.1084 -34.0491 -33.9852  11.6830  12.1607  13.8577  14.6137  15.3667
    21.3284  23.0544  25.8964  30.4769

          k = 0.6667-0.0000 0.6667 (   403 PWs)   bands (ev):

   -34.0792 -34.0783 -33.9742  11.9588  12.5669  13.3326  14.3731  15.0631
    20.9304  23.6222  25.4286  31.9313

          k = 0.0000 0.8333 0.0000 (   396 PWs)   bands (ev):

   -34.1300 -33.9984 -33.9984  11.2469  11.4616  15.3359  15.4348  15.4348
    17.4722  26.7079  28.6362  28.6362

          k = 0.9167-0.0833 0.9167 (   402 PWs)   bands (ev):

   -34.1369 -34.0103 -34.0010  11.2440  11.4626  15.2340  15.2577  15.6016
    18.9293  25.4239  27.2685  28.4853

          k = 0.8333 0.0000 0.8333 (   405 PWs)   bands (ev):

   -34.1265 -34.0313 -33.9963  11.4128  11.7083  14.5971  15.0408  15.5093
    20.5255  24.6712  25.4296  29.1480

          k = 0.0000-1.0000 0.0000 (   388 PWs)   bands (ev):

   -34.1447 -34.0047 -34.0047  11.1275  11.3553  15.4027  15.6701  15.6701
    18.8335  24.9087  28.0648  28.0648

          k =-0.1667 0.3333 0.0000 (   387 PWs)   bands (ev):

   -33.9937 -33.9420 -33.9269  10.6652  12.6956  13.5201  13.6660  14.1359
    14.7769  32.2382  32.5139  35.8767

          k =-0.2500 0.4167-0.0833 (   391 PWs)   bands (ev):

   -34.0421 -33.9584 -33.9348  11.3629  12.6507  13.3532  13.7847  14.3666
    15.2711  29.3182  31.9449  35.1548

          k =-0.3333 0.5000-0.1667 (   399 PWs)   bands (ev):

   -34.0921 -33.9706 -33.9451  11.6230  13.1111  13.1568  13.6977  14.8678
    16.1539  26.2165  31.6122  33.8665

          k = 0.5833-0.4167 0.7500 (   398 PWs)   bands (ev):

   -34.1287 -33.9777 -33.9538  11.5725  12.9303  13.5252  13.8891  15.2445
    17.5271  23.4025  31.5398  32.9146

          k = 0.5000-0.3333 0.6667 (   396 PWs)   bands (ev):

   -34.1421 -33.9799 -33.9573  11.5362  12.8634  13.4985  14.1453  15.3645
    18.6274  21.8230  31.6317  32.4840

          k =-0.1667 0.5000 0.0000 (   395 PWs)   bands (ev):

   -34.0445 -33.9661 -33.9506  11.5462  12.2791  13.4675  14.2106  14.5010
    15.2598  30.5941  31.0307  33.6561

          k =-0.2500 0.5833-0.0833 (   401 PWs)   bands (ev):

   -34.0818 -33.9850 -33.9598  11.8591  12.3610  13.2481  14.2378  14.9457
    16.2940  27.6498  30.3938  32.1693

          k = 0.6667-0.3333 0.8333 (   400 PWs)   bands (ev):

   -34.1109 -34.0003 -33.9679  11.8521  12.6172  13.2366  14.0931  15.2987
    17.8990  24.6733  30.3595  30.8131

          k = 0.5833-0.2500 0.7500 (   401 PWs)   bands (ev):

   -34.1237 -34.0120 -33.9698  11.8874  12.5976  13.4815  13.9437  15.3563
    19.7588  22.2525  29.7071  30.8251

          k = 0.5000-0.1667 0.6667 (   402 PWs)   bands (ev):

   -34.1179 -34.0165 -33.9643  11.9918  12.6287  13.4135  13.9244  15.1540
    19.2316  23.0466  28.9642  31.7010

          k = 0.4167-0.0833 0.5833 (   402 PWs)   bands (ev):

   -34.0972 -34.0091 -33.9541  12.1248  12.8052  12.9270  14.0487  14.7462
    17.5578  25.7882  28.6905  32.8051

          k = 0.3333 0.0000 0.5000 (   400 PWs)   bands (ev):

   -34.0699 -33.9878 -33.9430  12.0227  12.4879  13.0961  14.1949  14.2418
    16.2399  28.5986  29.1055  34.0535

          k =-0.1667 0.6667-0.0000 (   407 PWs)   bands (ev):

   -34.0915 -33.9905 -33.9773  11.6950  11.8836  13.9394  14.8613  15.0248
    16.3960  28.9715  29.2563  30.2513

          k = 0.7500-0.2500 0.9167 (   402 PWs)   bands (ev):

   -34.1087 -34.0113 -33.9846  11.7376  12.0006  13.7434  14.7327  15.3428
    18.1345  26.2092  28.6479  29.0670

          k = 0.6667-0.1667 0.8333 (   401 PWs)   bands (ev):

   -34.1102 -34.0355 -33.9853  11.8332  12.2660  13.5143  14.4850  15.4246
    20.2873  23.5491  27.4166  29.4529

          k = 0.5833-0.0833 0.7500 (   397 PWs)   bands (ev):

   -34.0971 -34.0559 -33.9783  12.0619  12.5129  13.2094  14.3063  15.2270
    21.1041  22.9184  26.4394  30.4051

          k = 0.5000 0.0000 0.6667 (   397 PWs)   bands (ev):

   -34.0927 -34.0462 -33.9665  12.3725  12.7006  12.7746  14.2478  14.8926
    19.2035  25.4652  26.0795  31.6100

          k = 0.8333-0.1667 1.0000 (   406 PWs)   bands (ev):

   -34.1241 -34.0080 -33.9979  11.4293  11.6089  14.6067  15.2331  15.4330
    18.3746  26.6969  27.8737  27.9162

          k = 0.7500-0.0833 0.9167 (   402 PWs)   bands (ev):

   -34.1209 -34.0293 -33.9990  11.5419  11.7925  14.2376  14.9456  15.5656
    20.3017  25.1233  25.9206  28.1958

          k = 0.6667 0.0000 0.8333 (   405 PWs)   bands (ev):

   -34.1016 -34.0570 -33.9915  11.7660  12.1697  13.6861  14.6366  15.4317
    22.1877  23.1184  25.1680  29.1269

          k =-0.1667-1.0000-0.0000 (   406 PWs)   bands (ev):

   -34.1355 -34.0145 -34.0057  11.3032  11.5107  14.9575  15.2038  15.6702
    19.7722  24.8826  27.3478  27.4105

          k = 0.6667-0.3333 1.0000 (   407 PWs)   bands (ev):

   -34.0958 -34.0142 -33.9695  12.2156  12.2409  13.0346  14.6239  14.8560
    17.7474  27.2704  27.4358  30.7159

          k = 0.5833-0.2500 0.9167 (   402 PWs)   bands (ev):

   -34.1025 -34.0356 -33.9794  12.2108  12.4249  12.9768  14.4053  15.2207
    19.5682  24.4864  27.5238  29.4311

          k = 0.5000-0.1667 0.8333 (   400 PWs)   bands (ev):

   -34.1041 -34.0437 -33.9837  12.2926  12.3261  13.0937  14.2651  15.3600
    21.4026  22.2880  27.9699  28.6101

          k = 0.6667-0.1667 1.0000 (   400 PWs)   bands (ev):

   -34.1077 -34.0332 -33.9950  11.8791  12.0513  13.5139  14.7713  15.4281
    19.9085  26.1687  26.1887  27.5359

          k = 0.5833-0.0833 0.9167 (   400 PWs)   bands (ev):

   -34.0942 -34.0571 -33.9989  11.9883  12.3544  13.1903  14.4990  15.5523
    22.0240  23.6980  25.9279  27.2290

          k = 0.5000 0.0000 0.8333 (   399 PWs)   bands (ev):

   -34.0839 -34.0675 -33.9921  12.1556  12.6723  12.7649  14.4110  15.4230
    21.4920  24.1663  25.4867  28.1760

          k =-0.3333-1.0000 0.0000 (   398 PWs)   bands (ev):

   -34.1101 -34.0402 -34.0061  11.7317  11.9815  13.7851  14.7274  15.6708
    21.6047  24.8319  25.6820  26.4761

          k =-0.5000-1.0000 0.0000 (   396 PWs)   bands (ev):

   -34.0752 -34.0752 -34.0067  12.0125  12.7515  12.7515  14.4182  15.6719
    23.6619  23.6619  24.8064  26.1125

     the Fermi energy is    15.4484 ev

!    total energy              =    -198.69626068 Ry
     Harris-Foulkes estimate   =    -198.69626068 Ry
     estimated scf accuracy    <          1.6E-09 Ry

     The total energy is the sum of the following terms:

     one-electron contribution =     -54.23380987 Ry
     hartree contribution      =      39.24988102 Ry
     xc contribution           =     -31.28050024 Ry
     ewald contribution        =    -152.43177811 Ry
     smearing contrib. (-TS)   =      -0.00005347 Ry

     convergence has been achieved in   6 iterations

     Writing output data file Pd-kp-conv.save/
 
     init_run     :      0.46s CPU      0.49s WALL (       1 calls)
     electrons    :      4.20s CPU      4.58s WALL (       1 calls)

     Called by init_run:
     wfcinit      :      0.21s CPU      0.23s WALL (       1 calls)
     potinit      :      0.01s CPU      0.01s WALL (       1 calls)
     hinit0       :      0.24s CPU      0.24s WALL (       1 calls)

     Called by electrons:
     c_bands      :      3.47s CPU      3.77s WALL (       6 calls)
     sum_band     :      0.67s CPU      0.71s WALL (       6 calls)
     v_of_rho     :      0.03s CPU      0.03s WALL (       7 calls)
     newd         :      0.04s CPU      0.04s WALL (       7 calls)
     mix_rho      :      0.00s CPU      0.00s WALL (       6 calls)

     Called by c_bands:
     init_us_2    :      0.08s CPU      0.09s WALL (     936 calls)
     cegterg      :      3.23s CPU      3.44s WALL (     432 calls)

     Called by sum_band:
     sum_band:bec :      0.00s CPU      0.00s WALL (     432 calls)
     addusdens    :      0.04s CPU      0.04s WALL (       6 calls)

     Called by *egterg:
     h_psi        :      2.77s CPU      2.95s WALL (    1511 calls)
     s_psi        :      0.04s CPU      0.04s WALL (    1511 calls)
     g_psi        :      0.03s CPU      0.03s WALL (    1007 calls)
     cdiaghg      :      0.35s CPU      0.38s WALL (    1439 calls)

     Called by h_psi:
     h_psi:pot    :      2.76s CPU      2.94s WALL (    1511 calls)
     h_psi:calbec :      0.05s CPU      0.06s WALL (    1511 calls)
     vloc_psi     :      2.65s CPU      2.83s WALL (    1511 calls)
     add_vuspsi   :      0.04s CPU      0.04s WALL (    1511 calls)

     General routines
     calbec       :      0.06s CPU      0.07s WALL (    1943 calls)
     fft          :      0.01s CPU      0.01s WALL (      78 calls)
     ffts         :      0.00s CPU      0.00s WALL (       6 calls)
     fftw         :      2.74s CPU      2.91s WALL (   32214 calls)
 
     Parallel routines
     fft_scatt_xy :      0.51s CPU      0.55s WALL (   32298 calls)
     fft_scatt_yz :      0.57s CPU      0.62s WALL (   32298 calls)
 
     PWSCF        :     4.76s CPU         5.44s WALL

 
   This run was terminated on:  21:18:38   2Dec2021            

=------------------------------------------------------------------------------=
   JOB DONE.
=------------------------------------------------------------------------------=
