
     Program PWSCF v.6.3 starts on  2Dec2021 at 21:18: 5 

     This program is part of the open-source Quantum ESPRESSO suite
     for quantum simulation of materials; please cite
         "P. Giannozzi et al., J. Phys.:Condens. Matter 21 395502 (2009);
         "P. Giannozzi et al., J. Phys.:Condens. Matter 29 465901 (2017);
          URL http://www.quantum-espresso.org", 
     in publications or presentations arising from this work. More details at
     http://www.quantum-espresso.org/quote

     Parallel version (MPI & OpenMP), running on       2 processor cores
     Number of MPI processes:                 2
     Threads/MPI process:                     1

     MPI processes distributed on     1 nodes
     R & G space division:  proc/nbgrp/npool/nimage =       2
     Reading input from pw-input.in

     Current dimensions of program PWSCF are:
     Max number of different atomic species (ntypx) = 10
     Max number of k-points (npk) =  40000
     Max angular momentum in pseudopotentials (lmaxx) =  3

     Subspace diagonalization in iterative solution of the eigenvalue problem:
     a serial algorithm will be used

 
     Parallelization info
     --------------------
     sticks:   dense  smooth     PW     G-vecs:    dense   smooth      PW
     Min         126     126     42                 1318     1318     267
     Max         127     127     43                 1319     1319     270
     Sum         253     253     85                 2637     2637     537
 

     Title: 
     Pd-kp-conv                                                                 


     bravais-lattice index     =            2
     lattice parameter (alat)  =       7.2000  a.u.
     unit-cell volume          =      93.3120 (a.u.)^3
     number of atoms/cell      =            1
     number of atomic types    =            1
     number of electrons       =        16.00
     number of Kohn-Sham states=           12
     kinetic-energy cutoff     =      35.0000  Ry
     charge density cutoff     =     140.0000  Ry
     convergence threshold     =      1.0E-07
     mixing beta               =       0.7000
     number of iterations used =            8  plain     mixing
     Exchange-correlation      =  SLA  PW   PBX  PBC ( 1  4  3  4 0 0)

     celldm(1)=   7.200000  celldm(2)=   0.000000  celldm(3)=   0.000000
     celldm(4)=   0.000000  celldm(5)=   0.000000  celldm(6)=   0.000000

     crystal axes: (cart. coord. in units of alat)
               a(1) = (  -0.500000   0.000000   0.500000 )  
               a(2) = (   0.000000   0.500000   0.500000 )  
               a(3) = (  -0.500000   0.500000   0.000000 )  

     reciprocal axes: (cart. coord. in units 2 pi/alat)
               b(1) = ( -1.000000 -1.000000  1.000000 )  
               b(2) = (  1.000000  1.000000  1.000000 )  
               b(3) = ( -1.000000  1.000000 -1.000000 )  


     PseudoPot. # 1 for Pd read from file:
     ./pd_pbe_v1.4.uspp.F.UPF
     MD5 check sum: 2d733d2bc2cbfd217af676df1668a4bc
     Pseudo is Ultrasoft + core correction, Zval = 16.0
     Generated by new atomic code, or converted to UPF format
     Using radial grid of  887 points,  6 beta functions with: 
                l(1) =   0
                l(2) =   0
                l(3) =   1
                l(4) =   1
                l(5) =   2
                l(6) =   2
     Q(r) pseudized with  8 coefficients,  rinner =    1.130   1.130   1.130
                                                       1.130   1.130

     atomic species   valence    mass     pseudopotential
        Pd            16.00   106.40000     Pd( 1.00)

     48 Sym. Ops., with inversion, found



   Cartesian axes

     site n.     atom                  positions (alat units)
         1           Pd  tau(   1) = (   0.0000000   0.0000000   0.0000000  )

     number of k points=    72  Marzari-Vanderbilt smearing, width (Ry)=  0.0150
                       cart. coord. in units 2pi/alat
        k(    1) = (   0.0000000   0.0000000   0.0000000), wk =   0.0011574
        k(    2) = (  -0.0833333   0.0833333  -0.0833333), wk =   0.0092593
        k(    3) = (  -0.1666667   0.1666667  -0.1666667), wk =   0.0092593
        k(    4) = (  -0.2500000   0.2500000  -0.2500000), wk =   0.0092593
        k(    5) = (  -0.3333333   0.3333333  -0.3333333), wk =   0.0092593
        k(    6) = (  -0.4166667   0.4166667  -0.4166667), wk =   0.0092593
        k(    7) = (   0.5000000  -0.5000000   0.5000000), wk =   0.0046296
        k(    8) = (   0.0000000   0.1666667   0.0000000), wk =   0.0069444
        k(    9) = (  -0.0833333   0.2500000  -0.0833333), wk =   0.0277778
        k(   10) = (  -0.1666667   0.3333333  -0.1666667), wk =   0.0277778
        k(   11) = (  -0.2500000   0.4166667  -0.2500000), wk =   0.0277778
        k(   12) = (  -0.3333333   0.5000000  -0.3333333), wk =   0.0277778
        k(   13) = (   0.5833333  -0.4166667   0.5833333), wk =   0.0277778
        k(   14) = (   0.5000000  -0.3333333   0.5000000), wk =   0.0277778
        k(   15) = (   0.4166667  -0.2500000   0.4166667), wk =   0.0277778
        k(   16) = (   0.3333333  -0.1666667   0.3333333), wk =   0.0277778
        k(   17) = (   0.2500000  -0.0833333   0.2500000), wk =   0.0277778
        k(   18) = (   0.1666667  -0.0000000   0.1666667), wk =   0.0138889
        k(   19) = (   0.0000000   0.3333333   0.0000000), wk =   0.0069444
        k(   20) = (  -0.0833333   0.4166667  -0.0833333), wk =   0.0277778
        k(   21) = (  -0.1666667   0.5000000  -0.1666667), wk =   0.0277778
        k(   22) = (  -0.2500000   0.5833333  -0.2500000), wk =   0.0277778
        k(   23) = (   0.6666667  -0.3333333   0.6666667), wk =   0.0277778
        k(   24) = (   0.5833333  -0.2500000   0.5833333), wk =   0.0277778
        k(   25) = (   0.5000000  -0.1666667   0.5000000), wk =   0.0277778
        k(   26) = (   0.4166667  -0.0833333   0.4166667), wk =   0.0277778
        k(   27) = (   0.3333333   0.0000000   0.3333333), wk =   0.0138889
        k(   28) = (   0.0000000   0.5000000   0.0000000), wk =   0.0069444
        k(   29) = (  -0.0833333   0.5833333  -0.0833333), wk =   0.0277778
        k(   30) = (  -0.1666667   0.6666667  -0.1666667), wk =   0.0277778
        k(   31) = (   0.7500000  -0.2500000   0.7500000), wk =   0.0277778
        k(   32) = (   0.6666667  -0.1666667   0.6666667), wk =   0.0277778
        k(   33) = (   0.5833333  -0.0833333   0.5833333), wk =   0.0277778
        k(   34) = (   0.5000000   0.0000000   0.5000000), wk =   0.0138889
        k(   35) = (   0.0000000   0.6666667   0.0000000), wk =   0.0069444
        k(   36) = (  -0.0833333   0.7500000  -0.0833333), wk =   0.0277778
        k(   37) = (   0.8333333  -0.1666667   0.8333333), wk =   0.0277778
        k(   38) = (   0.7500000  -0.0833333   0.7500000), wk =   0.0277778
        k(   39) = (   0.6666667  -0.0000000   0.6666667), wk =   0.0138889
        k(   40) = (   0.0000000   0.8333333   0.0000000), wk =   0.0069444
        k(   41) = (   0.9166667  -0.0833333   0.9166667), wk =   0.0277778
        k(   42) = (   0.8333333   0.0000000   0.8333333), wk =   0.0138889
        k(   43) = (   0.0000000  -1.0000000   0.0000000), wk =   0.0034722
        k(   44) = (  -0.1666667   0.3333333   0.0000000), wk =   0.0277778
        k(   45) = (  -0.2500000   0.4166667  -0.0833333), wk =   0.0555556
        k(   46) = (  -0.3333333   0.5000000  -0.1666667), wk =   0.0555556
        k(   47) = (   0.5833333  -0.4166667   0.7500000), wk =   0.0555556
        k(   48) = (   0.5000000  -0.3333333   0.6666667), wk =   0.0277778
        k(   49) = (  -0.1666667   0.5000000   0.0000000), wk =   0.0277778
        k(   50) = (  -0.2500000   0.5833333  -0.0833333), wk =   0.0555556
        k(   51) = (   0.6666667  -0.3333333   0.8333333), wk =   0.0555556
        k(   52) = (   0.5833333  -0.2500000   0.7500000), wk =   0.0555556
        k(   53) = (   0.5000000  -0.1666667   0.6666667), wk =   0.0555556
        k(   54) = (   0.4166667  -0.0833333   0.5833333), wk =   0.0555556
        k(   55) = (   0.3333333   0.0000000   0.5000000), wk =   0.0277778
        k(   56) = (  -0.1666667   0.6666667  -0.0000000), wk =   0.0277778
        k(   57) = (   0.7500000  -0.2500000   0.9166667), wk =   0.0555556
        k(   58) = (   0.6666667  -0.1666667   0.8333333), wk =   0.0555556
        k(   59) = (   0.5833333  -0.0833333   0.7500000), wk =   0.0555556
        k(   60) = (   0.5000000   0.0000000   0.6666667), wk =   0.0277778
        k(   61) = (   0.8333333  -0.1666667   1.0000000), wk =   0.0277778
        k(   62) = (   0.7500000  -0.0833333   0.9166667), wk =   0.0555556
        k(   63) = (   0.6666667   0.0000000   0.8333333), wk =   0.0277778
        k(   64) = (  -0.1666667  -1.0000000  -0.0000000), wk =   0.0138889
        k(   65) = (   0.6666667  -0.3333333   1.0000000), wk =   0.0277778
        k(   66) = (   0.5833333  -0.2500000   0.9166667), wk =   0.0555556
        k(   67) = (   0.5000000  -0.1666667   0.8333333), wk =   0.0277778
        k(   68) = (   0.6666667  -0.1666667   1.0000000), wk =   0.0277778
        k(   69) = (   0.5833333  -0.0833333   0.9166667), wk =   0.0555556
        k(   70) = (   0.5000000   0.0000000   0.8333333), wk =   0.0277778
        k(   71) = (  -0.3333333  -1.0000000   0.0000000), wk =   0.0138889
        k(   72) = (  -0.5000000  -1.0000000   0.0000000), wk =   0.0069444

     Dense  grid:     2637 G-vectors     FFT dimensions: (  20,  20,  20)

     Estimated max dynamical RAM per process >       7.90 MB

     Estimated total dynamical RAM >      15.80 MB

     Initial potential from superposition of free atoms
     Check: negative starting charge=   -0.084445

     starting charge   15.49999, renormalised to   16.00000

     negative rho (up, down):  8.717E-02 0.000E+00
     Starting wfcs are   12 randomized atomic wfcs

     total cpu time spent up to now is        0.7 secs

     Self-consistent Calculation

     iteration #  1     ecut=    35.00 Ry     beta= 0.70
     Davidson diagonalization with overlap
     ethr =  1.00E-02,  avg # of iterations =  3.6

     negative rho (up, down):  8.683E-02 0.000E+00

     total cpu time spent up to now is        1.3 secs

     total energy              =    -198.28075555 Ry
     Harris-Foulkes estimate   =    -198.99133334 Ry
     estimated scf accuracy    <       0.98762341 Ry

     iteration #  2     ecut=    35.00 Ry     beta= 0.70
     Davidson diagonalization with overlap
     ethr =  6.17E-03,  avg # of iterations =  2.0

     negative rho (up, down):  8.807E-02 0.000E+00

     total cpu time spent up to now is        1.9 secs

     total energy              =    -198.53195156 Ry
     Harris-Foulkes estimate   =    -198.91971497 Ry
     estimated scf accuracy    <       0.74073622 Ry

     iteration #  3     ecut=    35.00 Ry     beta= 0.70
     Davidson diagonalization with overlap
     ethr =  4.63E-03,  avg # of iterations =  2.0

     negative rho (up, down):  8.851E-02 0.000E+00

     total cpu time spent up to now is        2.7 secs

     total energy              =    -198.69341642 Ry
     Harris-Foulkes estimate   =    -198.69462567 Ry
     estimated scf accuracy    <       0.00249933 Ry

     iteration #  4     ecut=    35.00 Ry     beta= 0.70
     Davidson diagonalization with overlap
     ethr =  1.56E-05,  avg # of iterations =  2.1

     negative rho (up, down):  8.867E-02 0.000E+00

     total cpu time spent up to now is        3.3 secs

     total energy              =    -198.69409605 Ry
     Harris-Foulkes estimate   =    -198.69411980 Ry
     estimated scf accuracy    <       0.00004965 Ry

     iteration #  5     ecut=    35.00 Ry     beta= 0.70
     Davidson diagonalization with overlap
     ethr =  3.10E-07,  avg # of iterations =  2.0

     negative rho (up, down):  8.871E-02 0.000E+00

     total cpu time spent up to now is        3.8 secs

     total energy              =    -198.69410701 Ry
     Harris-Foulkes estimate   =    -198.69410695 Ry
     estimated scf accuracy    <       0.00000021 Ry

     iteration #  6     ecut=    35.00 Ry     beta= 0.70
     Davidson diagonalization with overlap
     ethr =  1.30E-09,  avg # of iterations =  2.1

     negative rho (up, down):  8.871E-02 0.000E+00

     total cpu time spent up to now is        4.3 secs

     End of self-consistent calculation

          k = 0.0000 0.0000 0.0000 (   331 PWs)   bands (ev):

   -29.4142 -29.4142 -29.4142  12.7726  17.2759  17.2759  17.2759  19.0688
    19.0688  38.4567  43.6244  43.6245

          k =-0.0833 0.0833-0.0833 (   331 PWs)   bands (ev):

   -29.4496 -29.4191 -29.4191  13.0390  17.1809  17.3700  17.3700  19.0250
    19.0250  38.7275  41.9192  43.9161

          k =-0.1667 0.1667-0.1667 (   320 PWs)   bands (ev):

   -29.5456 -29.4324 -29.4324  13.7534  17.0193  17.5607  17.5607  18.9967
    18.9967  38.5358  39.8031  44.6633

          k =-0.2500 0.2500-0.2500 (   323 PWs)   bands (ev):

   -29.6758 -29.4507 -29.4507  14.5218  17.2541  17.5995  17.5995  19.2355
    19.2355  35.6930  39.5238  45.3222

          k =-0.3333 0.3333-0.3333 (   332 PWs)   bands (ev):

   -29.8043 -29.4691 -29.4691  14.7505  17.4469  17.4469  18.4896  19.7404
    19.7404  32.5368  38.7085  44.6085

          k =-0.4167 0.4167-0.4167 (   329 PWs)   bands (ev):

   -29.8970 -29.4825 -29.4825  14.6667  17.2849  17.2849  20.2174  20.2174
    20.2828  29.6904  37.9633  43.3765

          k = 0.5000-0.5000 0.5000 (   332 PWs)   bands (ev):

   -29.9309 -29.4875 -29.4875  14.6111  17.2209  17.2209  20.4095  20.4095
    21.3160  28.3119  37.6887  42.8807

          k = 0.0000 0.1667 0.0000 (   327 PWs)   bands (ev):

   -29.4484 -29.4271 -29.4271  13.1281  17.0738  17.4453  17.4453  18.8611
    19.1500  38.8492  42.3366  43.3478

          k =-0.0833 0.2500-0.0833 (   325 PWs)   bands (ev):

   -29.5200 -29.4432 -29.4364  13.7013  16.8575  17.6446  17.6543  18.6975
    19.2262  39.1806  40.2718  43.1581

          k =-0.1667 0.3333-0.1667 (   324 PWs)   bands (ev):

   -29.6365 -29.4631 -29.4521  14.5131  16.7955  17.6621  17.7778  18.9350
    19.4437  36.8835  39.7951  43.0051

          k =-0.2500 0.4167-0.2500 (   325 PWs)   bands (ev):

   -29.7624 -29.4813 -29.4731  14.9262  17.3959  17.4692  17.6876  19.7766
    19.8778  33.7089  39.1274  42.5655

          k =-0.3333 0.5000-0.3333 (   331 PWs)   bands (ev):

   -29.8644 -29.4941 -29.4932  14.8772  17.1817  17.5145  18.5655  20.2913
    21.0896  30.6265  38.3138  42.0733

          k = 0.5833-0.4167 0.5833 (   329 PWs)   bands (ev):

   -29.9161 -29.5087 -29.4955  14.7961  17.0748  17.3949  19.2868  20.4225
    22.4281  28.4776  37.8666  41.9392

          k = 0.5000-0.3333 0.5000 (   331 PWs)   bands (ev):

   -29.9051 -29.5134 -29.4875  14.8227  17.1202  17.3925  19.2606  20.1652
    22.1656  29.0083  37.9101  41.4844

          k = 0.4167-0.2500 0.4167 (   327 PWs)   bands (ev):

   -29.8338 -29.5066 -29.4713  14.9335  17.2858  17.5161  18.3853  19.6142
    20.9696  31.6325  38.4011  41.8953

          k = 0.3333-0.1667 0.3333 (   325 PWs)   bands (ev):

   -29.7211 -29.4896 -29.4514  14.8874  17.1628  17.5900  17.7043  19.0018
    20.0466  34.7899  39.1029  42.9128

          k = 0.2500-0.0833 0.2500 (   321 PWs)   bands (ev):

   -29.5966 -29.4664 -29.4331  14.2550  16.8275  17.6693  17.7323  18.6864
    19.4297  37.8393  39.5012  43.3030

          k = 0.1667-0.0000 0.1667 (   329 PWs)   bands (ev):

   -29.4971 -29.4407 -29.4213  13.4618  17.0032  17.5049  17.5511  18.8158
    19.1480  39.0575  40.5609  43.1714

          k = 0.0000 0.3333 0.0000 (   327 PWs)   bands (ev):

   -29.5411 -29.4625 -29.4625  14.0826  16.5534  17.9374  17.9374  18.3999
    19.3763  39.8566  40.7740  41.9751

          k =-0.0833 0.4167-0.0833 (   322 PWs)   bands (ev):

   -29.6249 -29.4848 -29.4816  14.7533  16.2903  17.8474  18.1982  18.7853
    19.5826  38.3407  40.2113  41.0540

          k =-0.1667 0.5000-0.1667 (   326 PWs)   bands (ev):

   -29.7311 -29.5061 -29.5048  15.2557  16.4014  17.4792  18.2114  19.9692
    19.9760  35.1347  39.5011  40.3554

          k =-0.2500 0.5833-0.2500 (   323 PWs)   bands (ev):

   -29.8239 -29.5358 -29.5165  15.2589  16.8029  17.4819  18.0570  20.3619
    21.6790  31.8499  38.4695  40.0213

          k = 0.6667-0.3333 0.6667 (   321 PWs)   bands (ev):

   -29.8787 -29.5635 -29.5172  15.2137  16.7359  17.8942  18.0532  20.4595
    23.6326  29.0628  37.6077  40.3278

          k = 0.5833-0.2500 0.5833 (   327 PWs)   bands (ev):

   -29.8835 -29.5806 -29.5067  15.2717  16.7438  17.8165  18.2723  20.1567
    24.2056  28.5578  37.0402  40.3051

          k = 0.5000-0.1667 0.5000 (   329 PWs)   bands (ev):

   -29.8384 -29.5805 -29.4876  15.4318  16.9098  17.8357  17.8653  19.5500
    22.7665  31.0103  36.8583  40.5303

          k = 0.4167-0.0833 0.4167 (   325 PWs)   bands (ev):

   -29.7587 -29.5593 -29.4649  15.5619  16.8179  17.3500  18.0420  18.8386
    21.3487  34.1484  37.0857  41.5839

          k = 0.3333 0.0000 0.3333 (   325 PWs)   bands (ev):

   -29.6703 -29.5175 -29.4450  15.0721  16.5677  17.5808  18.1374  18.3866
    20.2195  36.8683  37.9034  43.4405

          k = 0.0000 0.5000 0.0000 (   311 PWs)   bands (ev):

   -29.6646 -29.5102 -29.5102  15.0407  15.9083  18.4151  18.7021  18.7021
    19.6987  39.4861  39.5018  39.5018

          k =-0.0833 0.5833-0.0833 (   321 PWs)   bands (ev):

   -29.7386 -29.5381 -29.5329  15.2640  15.6919  18.2582  18.9301  19.9759
    20.0078  36.6166  38.4085  38.7164

          k =-0.1667 0.6667-0.1667 (   327 PWs)   bands (ev):

   -29.8064 -29.5766 -29.5464  15.2848  15.8594  17.9967  18.8303  20.4048
    21.9551  33.3125  37.2581  37.9186

          k = 0.7500-0.2500 0.7500 (   327 PWs)   bands (ev):

   -29.8437 -29.6223 -29.5470  15.3251  16.1713  17.8163  18.6428  20.5116
    24.3373  30.2022  35.8758  38.2182

          k = 0.6667-0.1667 0.6667 (   326 PWs)   bands (ev):

   -29.8422 -29.6617 -29.5349  15.5313  16.4160  17.6542  18.4828  20.2053
    26.2235  28.3685  34.7324  39.3786

          k = 0.5833-0.0833 0.5833 (   330 PWs)   bands (ev):

   -29.8137 -29.6735 -29.5132  15.8759  16.6241  17.2875  18.3944  19.6141
    24.7142  30.7072  34.0143  40.7364

          k = 0.5000 0.0000 0.5000 (   327 PWs)   bands (ev):

   -29.7854 -29.6337 -29.4876  16.1641  16.6024  17.0286  18.3333  19.0127
    22.9250  33.7239  34.0369  40.9959

          k = 0.0000 0.6667 0.0000 (   323 PWs)   bands (ev):

   -29.7855 -29.5586 -29.5586  15.0348  15.3202  19.6100  19.6100  19.9853
    20.0317  36.9282  36.9282  37.0925

          k =-0.0833 0.7500-0.0833 (   325 PWs)   bands (ev):

   -29.8327 -29.5884 -29.5746  14.9441  15.1994  19.3377  19.6811  20.4021
    21.9788  34.6874  35.4504  36.1376

          k = 0.8333-0.1667 0.8333 (   326 PWs)   bands (ev):

   -29.8501 -29.6377 -29.5767  14.9942  15.4104  18.8172  19.4913  20.5748
    24.4655  31.7765  33.9379  36.2497

          k = 0.7500-0.0833 0.7500 (   329 PWs)   bands (ev):

   -29.8258 -29.7008 -29.5646  15.2145  15.8671  18.1758  19.2425  20.3266
    27.1846  29.1411  32.6710  37.3045

          k = 0.6667-0.0000 0.6667 (   323 PWs)   bands (ev):

   -29.7642 -29.7620 -29.5413  15.5919  16.4160  17.4688  18.9021  19.8932
    26.7689  29.8821  32.1117  39.0911

          k = 0.0000 0.8333 0.0000 (   322 PWs)   bands (ev):

   -29.8711 -29.5935 -29.5935  14.6434  14.9206  20.2865  20.4214  20.4214
    22.3863  33.7349  35.0019  35.0019

          k = 0.9167-0.0833 0.9167 (   328 PWs)   bands (ev):

   -29.8853 -29.6178 -29.5985  14.6264  14.9278  20.0871  20.1694  20.6643
    24.1334  32.3958  33.5234  34.8115

          k = 0.8333 0.0000 0.8333 (   326 PWs)   bands (ev):

   -29.8634 -29.6624 -29.5879  14.8457  15.2624  19.1824  19.8537  20.5313
    26.0943  31.1202  32.0169  35.6551

          k = 0.0000-1.0000 0.0000 (   326 PWs)   bands (ev):

   -29.9016 -29.6065 -29.6065  14.4702  14.7798  20.3808  20.7635  20.7635
    23.8106  31.9250  34.2727  34.2727

          k =-0.1667 0.3333 0.0000 (   319 PWs)   bands (ev):

   -29.5879 -29.4771 -29.4456  14.3578  16.5957  17.7327  17.9422  18.5827
    19.4942  38.8285  39.2386  42.5951

          k =-0.2500 0.4167-0.0833 (   326 PWs)   bands (ev):

   -29.6897 -29.5111 -29.4613  15.1119  16.5453  17.4874  18.1010  18.8971
    20.1554  36.1103  38.7440  42.0745

          k =-0.3333 0.5000-0.1667 (   327 PWs)   bands (ev):

   -29.7938 -29.5362 -29.4818  15.2892  17.1486  17.2305  17.9734  19.5973
    21.2483  32.8914  38.2442  40.7163

          k = 0.5833-0.4167 0.7500 (   329 PWs)   bands (ev):

   -29.8703 -29.5506 -29.4997  15.1752  16.8954  17.7328  18.1855  20.1446
    22.7724  29.8850  37.8874  39.9447

          k = 0.5000-0.3333 0.6667 (   326 PWs)   bands (ev):

   -29.8979 -29.5550 -29.5071  15.1191  16.8030  17.6970  18.5247  20.3238
    23.8691  28.2783  37.7641  39.7576

          k =-0.1667 0.5000 0.0000 (   325 PWs)   bands (ev):

   -29.6946 -29.5271 -29.4944  15.2946  16.0237  17.6549  18.6934  19.0717
    20.1390  37.3350  38.1203  40.5930

          k =-0.2500 0.5833-0.0833 (   324 PWs)   bands (ev):

   -29.7719 -29.5660 -29.5128  15.5533  16.1536  17.3629  18.7228  19.7050
    21.4138  34.3672  37.2959  39.0850

          k = 0.6667-0.3333 0.8333 (   329 PWs)   bands (ev):

   -29.8324 -29.5980 -29.5294  15.5048  16.4581  17.3508  18.5159  20.2220
    23.2868  31.1409  37.1322  37.7896

          k = 0.5833-0.2500 0.7500 (   325 PWs)   bands (ev):

   -29.8587 -29.6222 -29.5329  15.5550  16.4294  17.6582  18.3080  20.3108
    25.3123  28.5864  36.4881  37.7790

          k = 0.5000-0.1667 0.6667 (   326 PWs)   bands (ev):

   -29.8466 -29.6319 -29.5213  15.7056  16.4703  17.5617  18.2799  20.0190
    24.7996  29.4393  35.7468  38.6053

          k = 0.4167-0.0833 0.5833 (   326 PWs)   bands (ev):

   -29.8039 -29.6167 -29.5003  15.8993  16.7231  16.9187  18.4497  19.4359
    22.9675  32.4067  35.5046  39.6181

          k = 0.3333 0.0000 0.5000 (   323 PWs)   bands (ev):

   -29.7472 -29.5723 -29.4776  15.8769  16.3158  17.1205  18.6499  18.7365
    21.4008  35.2747  36.1266  40.8566

          k =-0.1667 0.6667-0.0000 (   326 PWs)   bands (ev):

   -29.7919 -29.5769 -29.5493  15.2933  15.4916  18.2970  19.6028  19.8088
    21.4724  35.6601  36.0587  37.2269

          k = 0.7500-0.2500 0.9167 (   328 PWs)   bands (ev):

   -29.8272 -29.6207 -29.5642  15.3069  15.6502  18.0293  19.4074  20.2870
    23.5369  32.6913  35.6067  35.7306

          k = 0.6667-0.1667 0.8333 (   328 PWs)   bands (ev):

   -29.8297 -29.6718 -29.5653  15.4256  16.0038  17.7163  19.0582  20.4090
    26.0346  29.7718  34.2533  36.2232

          k = 0.5833-0.0833 0.7500 (   328 PWs)   bands (ev):

   -29.8023 -29.7149 -29.5507  15.7286  16.3451  17.3000  18.8070  20.1239
    26.9390  29.1846  33.1406  37.3394

          k = 0.5000 0.0000 0.6667 (   326 PWs)   bands (ev):

   -29.7938 -29.6947 -29.5260  16.1599  16.6043  16.7133  18.7224  19.6486
    24.8695  32.0241  32.6956  38.5876

          k = 0.8333-0.1667 1.0000 (   324 PWs)   bands (ev):

   -29.8588 -29.6131 -29.5915  14.8810  15.1259  19.2058  20.1208  20.4188
    23.6648  33.6456  34.3182  34.3380

          k = 0.7500-0.0833 0.9167 (   327 PWs)   bands (ev):

   -29.8517 -29.6582 -29.5939  15.0182  15.3770  18.6924  19.7113  20.6120
    25.9197  31.5537  32.6024  34.6997

          k = 0.6667 0.0000 0.8333 (   335 PWs)   bands (ev):

   -29.8112 -29.7171 -29.5780  15.3165  15.8864  17.9434  19.2701  20.4182
    28.1320  29.1911  31.9207  35.8602

          k =-0.1667-1.0000-0.0000 (   328 PWs)   bands (ev):

   -29.8825 -29.6266 -29.6073  14.6997  14.9966  19.6911  20.0895  20.7631
    25.1146  31.8405  33.6368  33.6901

          k = 0.6667-0.3333 1.0000 (   332 PWs)   bands (ev):

   -29.8005 -29.6270 -29.5324  15.9602  15.9843  17.0804  19.2426  19.5953
    23.1693  33.8887  34.1938  37.6336

          k = 0.5833-0.2500 0.9167 (   329 PWs)   bands (ev):

   -29.8139 -29.6722 -29.5529  15.9368  16.2158  16.9996  18.9424  20.1131
    25.2595  30.8939  34.2414  36.2890

          k = 0.5000-0.1667 0.8333 (   324 PWs)   bands (ev):

   -29.8168 -29.6890 -29.5618  16.0066  16.1301  17.1407  18.7495  20.3142
    27.1972  28.5748  34.8829  35.2703

          k = 0.6667-0.1667 1.0000 (   326 PWs)   bands (ev):

   -29.8241 -29.6666 -29.5860  15.4659  15.7315  17.7164  19.4562  20.4112
    25.6008  32.6189  32.7920  34.2635

          k = 0.5833-0.0833 0.9167 (   328 PWs)   bands (ev):

   -29.7956 -29.7169 -29.5939  15.6024  16.1451  17.2763  19.0721  20.5922
    28.0020  29.9169  32.6658  33.8052

          k = 0.5000 0.0000 0.8333 (   327 PWs)   bands (ev):

   -29.7742 -29.7391 -29.5794  15.8212  16.5852  16.7009  18.9485  20.4049
    27.4406  30.4317  32.1213  34.9342

          k =-0.3333-1.0000 0.0000 (   330 PWs)   bands (ev):

   -29.8289 -29.6811 -29.6096  15.2612  15.6389  18.0774  19.3947  20.7654
    27.3921  31.6382  31.9915  32.8994

          k =-0.5000-1.0000 0.0000 (   328 PWs)   bands (ev):

   -29.7554 -29.7554 -29.6104  15.6301  16.6823  16.6823  18.9562  20.7656
    29.7901  29.7901  31.5152  32.6277

     the Fermi energy is    20.4160 ev

!    total energy              =    -198.69410706 Ry
     Harris-Foulkes estimate   =    -198.69410708 Ry
     estimated scf accuracy    <       0.00000004 Ry

     The total energy is the sum of the following terms:

     one-electron contribution =     -37.97853032 Ry
     hartree contribution      =      33.72579323 Ry
     xc contribution           =     -31.42429535 Ry
     ewald contribution        =    -163.01731824 Ry
     smearing contrib. (-TS)   =       0.00024362 Ry

     convergence has been achieved in   6 iterations

     Writing output data file Pd-kp-conv.save/
 
     init_run     :      0.53s CPU      0.57s WALL (       1 calls)
     electrons    :      3.06s CPU      3.66s WALL (       1 calls)

     Called by init_run:
     wfcinit      :      0.20s CPU      0.22s WALL (       1 calls)
     potinit      :      0.00s CPU      0.02s WALL (       1 calls)
     hinit0       :      0.31s CPU      0.31s WALL (       1 calls)

     Called by electrons:
     c_bands      :      2.55s CPU      3.08s WALL (       6 calls)
     sum_band     :      0.46s CPU      0.49s WALL (       6 calls)
     v_of_rho     :      0.02s CPU      0.02s WALL (       7 calls)
     newd         :      0.04s CPU      0.04s WALL (       7 calls)
     mix_rho      :      0.00s CPU      0.00s WALL (       6 calls)

     Called by c_bands:
     init_us_2    :      0.07s CPU      0.08s WALL (     936 calls)
     cegterg      :      2.36s CPU      2.56s WALL (     432 calls)

     Called by sum_band:
     sum_band:bec :      0.00s CPU      0.00s WALL (     432 calls)
     addusdens    :      0.04s CPU      0.04s WALL (       6 calls)

     Called by *egterg:
     h_psi        :      1.91s CPU      2.07s WALL (    1502 calls)
     s_psi        :      0.03s CPU      0.04s WALL (    1502 calls)
     g_psi        :      0.02s CPU      0.02s WALL (     998 calls)
     cdiaghg      :      0.36s CPU      0.38s WALL (    1430 calls)

     Called by h_psi:
     h_psi:pot    :      1.90s CPU      2.06s WALL (    1502 calls)
     h_psi:calbec :      0.05s CPU      0.05s WALL (    1502 calls)
     vloc_psi     :      1.81s CPU      1.96s WALL (    1502 calls)
     add_vuspsi   :      0.03s CPU      0.04s WALL (    1502 calls)

     General routines
     calbec       :      0.05s CPU      0.06s WALL (    1934 calls)
     fft          :      0.01s CPU      0.01s WALL (      78 calls)
     ffts         :      0.00s CPU      0.00s WALL (       6 calls)
     fftw         :      1.87s CPU      2.01s WALL (   32896 calls)
 
     Parallel routines
     fft_scatt_xy :      0.34s CPU      0.37s WALL (   32980 calls)
     fft_scatt_yz :      0.48s CPU      0.53s WALL (   32980 calls)
 
     PWSCF        :     3.70s CPU         4.60s WALL

 
   This run was terminated on:  21:18: 9   2Dec2021            

=------------------------------------------------------------------------------=
   JOB DONE.
=------------------------------------------------------------------------------=
