
     Program PWSCF v.6.3 starts on  2Dec2021 at 21:37:51 

     This program is part of the open-source Quantum ESPRESSO suite
     for quantum simulation of materials; please cite
         "P. Giannozzi et al., J. Phys.:Condens. Matter 21 395502 (2009);
         "P. Giannozzi et al., J. Phys.:Condens. Matter 29 465901 (2017);
          URL http://www.quantum-espresso.org", 
     in publications or presentations arising from this work. More details at
     http://www.quantum-espresso.org/quote

     Parallel version (MPI & OpenMP), running on       2 processor cores
     Number of MPI processes:                 2
     Threads/MPI process:                     1

     MPI processes distributed on     1 nodes
     R & G space division:  proc/nbgrp/npool/nimage =       2
     Reading input from pw-input.in

     Current dimensions of program PWSCF are:
     Max number of different atomic species (ntypx) = 10
     Max number of k-points (npk) =  40000
     Max angular momentum in pseudopotentials (lmaxx) =  3

     Subspace diagonalization in iterative solution of the eigenvalue problem:
     a serial algorithm will be used

 
     Parallelization info
     --------------------
     sticks:   dense  smooth     PW     G-vecs:    dense   smooth      PW
     Min         150     150     54                 1738     1738     350
     Max         151     151     55                 1741     1741     351
     Sum         301     301    109                 3479     3479     701
 

     Title: 
     Pd-kp-conv                                                                 


     bravais-lattice index     =            2
     lattice parameter (alat)  =       7.9000  a.u.
     unit-cell volume          =     123.2598 (a.u.)^3
     number of atoms/cell      =            1
     number of atomic types    =            1
     number of electrons       =        16.00
     number of Kohn-Sham states=           12
     kinetic-energy cutoff     =      35.0000  Ry
     charge density cutoff     =     140.0000  Ry
     convergence threshold     =      1.0E-07
     mixing beta               =       0.7000
     number of iterations used =            8  plain     mixing
     Exchange-correlation      =  SLA  PW   PBX  PBC ( 1  4  3  4 0 0)

     celldm(1)=   7.900000  celldm(2)=   0.000000  celldm(3)=   0.000000
     celldm(4)=   0.000000  celldm(5)=   0.000000  celldm(6)=   0.000000

     crystal axes: (cart. coord. in units of alat)
               a(1) = (  -0.500000   0.000000   0.500000 )  
               a(2) = (   0.000000   0.500000   0.500000 )  
               a(3) = (  -0.500000   0.500000   0.000000 )  

     reciprocal axes: (cart. coord. in units 2 pi/alat)
               b(1) = ( -1.000000 -1.000000  1.000000 )  
               b(2) = (  1.000000  1.000000  1.000000 )  
               b(3) = ( -1.000000  1.000000 -1.000000 )  


     PseudoPot. # 1 for Pd read from file:
     ./pd_pbe_v1.4.uspp.F.UPF
     MD5 check sum: 2d733d2bc2cbfd217af676df1668a4bc
     Pseudo is Ultrasoft + core correction, Zval = 16.0
     Generated by new atomic code, or converted to UPF format
     Using radial grid of  887 points,  6 beta functions with: 
                l(1) =   0
                l(2) =   0
                l(3) =   1
                l(4) =   1
                l(5) =   2
                l(6) =   2
     Q(r) pseudized with  8 coefficients,  rinner =    1.130   1.130   1.130
                                                       1.130   1.130

     atomic species   valence    mass     pseudopotential
        Pd            16.00   106.40000     Pd( 1.00)

     48 Sym. Ops., with inversion, found



   Cartesian axes

     site n.     atom                  positions (alat units)
         1           Pd  tau(   1) = (   0.0000000   0.0000000   0.0000000  )

     number of k points=    16  Marzari-Vanderbilt smearing, width (Ry)=  0.0200
                       cart. coord. in units 2pi/alat
        k(    1) = (   0.0000000   0.0000000   0.0000000), wk =   0.0092593
        k(    2) = (  -0.1666667   0.1666667  -0.1666667), wk =   0.0740741
        k(    3) = (  -0.3333333   0.3333333  -0.3333333), wk =   0.0740741
        k(    4) = (   0.5000000  -0.5000000   0.5000000), wk =   0.0370370
        k(    5) = (   0.0000000   0.3333333   0.0000000), wk =   0.0555556
        k(    6) = (  -0.1666667   0.5000000  -0.1666667), wk =   0.2222222
        k(    7) = (   0.6666667  -0.3333333   0.6666667), wk =   0.2222222
        k(    8) = (   0.5000000  -0.1666667   0.5000000), wk =   0.2222222
        k(    9) = (   0.3333333   0.0000000   0.3333333), wk =   0.1111111
        k(   10) = (   0.0000000   0.6666667   0.0000000), wk =   0.0555556
        k(   11) = (   0.8333333  -0.1666667   0.8333333), wk =   0.2222222
        k(   12) = (   0.6666667  -0.0000000   0.6666667), wk =   0.1111111
        k(   13) = (   0.0000000  -1.0000000   0.0000000), wk =   0.0277778
        k(   14) = (   0.6666667  -0.3333333   1.0000000), wk =   0.2222222
        k(   15) = (   0.5000000  -0.1666667   0.8333333), wk =   0.2222222
        k(   16) = (  -0.3333333  -1.0000000   0.0000000), wk =   0.1111111

     Dense  grid:     3479 G-vectors     FFT dimensions: (  24,  24,  24)

     Estimated max dynamical RAM per process >       8.09 MB

     Estimated total dynamical RAM >      16.18 MB

     Initial potential from superposition of free atoms
     Check: negative starting charge=   -0.079301

     starting charge   15.49999, renormalised to   16.00000

     negative rho (up, down):  8.186E-02 0.000E+00
     Starting wfcs are   12 randomized atomic wfcs

     total cpu time spent up to now is        0.5 secs

     Self-consistent Calculation

     iteration #  1     ecut=    35.00 Ry     beta= 0.70
     Davidson diagonalization with overlap
     ethr =  1.00E-02,  avg # of iterations =  3.6

     negative rho (up, down):  7.988E-02 0.000E+00

     total cpu time spent up to now is        0.8 secs

     total energy              =    -198.00589127 Ry
     Harris-Foulkes estimate   =    -199.07002366 Ry
     estimated scf accuracy    <       1.45072880 Ry

     iteration #  2     ecut=    35.00 Ry     beta= 0.70
     Davidson diagonalization with overlap
     ethr =  9.07E-03,  avg # of iterations =  2.0

     negative rho (up, down):  8.154E-02 0.000E+00

     total cpu time spent up to now is        1.0 secs

     total energy              =    -198.33805428 Ry
     Harris-Foulkes estimate   =    -199.21718835 Ry
     estimated scf accuracy    <       1.84612602 Ry

     iteration #  3     ecut=    35.00 Ry     beta= 0.70
     Davidson diagonalization with overlap
     ethr =  9.07E-03,  avg # of iterations =  2.0

     negative rho (up, down):  8.168E-02 0.000E+00

     total cpu time spent up to now is        1.2 secs

     total energy              =    -198.68531815 Ry
     Harris-Foulkes estimate   =    -198.68604780 Ry
     estimated scf accuracy    <       0.00163326 Ry

     iteration #  4     ecut=    35.00 Ry     beta= 0.70
     Davidson diagonalization with overlap
     ethr =  1.02E-05,  avg # of iterations =  2.8

     negative rho (up, down):  8.179E-02 0.000E+00

     total cpu time spent up to now is        1.4 secs

     total energy              =    -198.68590549 Ry
     Harris-Foulkes estimate   =    -198.68591118 Ry
     estimated scf accuracy    <       0.00001568 Ry

     iteration #  5     ecut=    35.00 Ry     beta= 0.70
     Davidson diagonalization with overlap
     ethr =  9.80E-08,  avg # of iterations =  1.9

     negative rho (up, down):  8.183E-02 0.000E+00

     total cpu time spent up to now is        1.6 secs

     total energy              =    -198.68590917 Ry
     Harris-Foulkes estimate   =    -198.68590920 Ry
     estimated scf accuracy    <       0.00000047 Ry

     iteration #  6     ecut=    35.00 Ry     beta= 0.70
     Davidson diagonalization with overlap
     ethr =  2.91E-09,  avg # of iterations =  2.0

     negative rho (up, down):  8.183E-02 0.000E+00

     total cpu time spent up to now is        1.7 secs

     End of self-consistent calculation

          k = 0.0000 0.0000 0.0000 (   411 PWs)   bands (ev):

   -35.4366 -35.4366 -35.4366   8.1909  11.7780  11.7780  11.7780  12.9058
    12.9058  31.1674  34.6939  34.6939

          k =-0.1667 0.1667-0.1667 (   426 PWs)   bands (ev):

   -35.4828 -35.4436 -35.4436   8.9784  11.6261  11.9627  11.9627  12.8708
    12.8708  29.6256  32.0297  34.9342

          k =-0.3333 0.3333-0.3333 (   425 PWs)   bands (ev):

   -35.5743 -35.4574 -35.4574   9.9855  11.8978  11.8978  12.7376  13.3390
    13.3390  23.6392  31.1161  34.1123

          k = 0.5000-0.5000 0.5000 (   434 PWs)   bands (ev):

   -35.6197 -35.4644 -35.4644   9.9581  11.7551  11.7551  13.7434  13.7434
    15.2848  19.6193  30.3902  33.0611

          k = 0.0000 0.3333 0.0000 (   435 PWs)   bands (ev):

   -35.4813 -35.4545 -35.4545   9.2423  11.3300  12.2043  12.2043  12.5109
    13.0999  31.6266  32.1872  32.1872

          k =-0.1667 0.5000-0.1667 (   439 PWs)   bands (ev):

   -35.5487 -35.4705 -35.4703  10.3241  11.2279  11.9263  12.3836  13.4763
    13.5889  26.0749  30.6035  30.9814

          k = 0.6667-0.3333 0.6667 (   428 PWs)   bands (ev):

   -35.6014 -35.4912 -35.4750  10.3915  11.4745  12.1891  12.3401  13.7732
    16.5747  20.5500  28.8843  30.6583

          k = 0.5000-0.1667 0.5000 (   431 PWs)   bands (ev):

   -35.5869 -35.4970 -35.4645  10.5199  11.5737  12.1737  12.2182  13.2251
    15.6638  22.2893  27.8139  31.9340

          k = 0.3333 0.0000 0.3333 (   441 PWs)   bands (ev):

   -35.5271 -35.4743 -35.4489  10.0630  11.3399  11.9981  12.3343  12.5021
    13.6675  27.9593  28.4864  34.1826

          k = 0.0000 0.6667 0.0000 (   432 PWs)   bands (ev):

   -35.5683 -35.4895 -35.4895  10.2901  10.5312  13.2642  13.2642  13.5095
    13.8088  27.7398  27.9241  27.9241

          k = 0.8333-0.1667 0.8333 (   431 PWs)   bands (ev):

   -35.5919 -35.5174 -35.4964  10.3158  10.5900  12.8166  13.1928  13.8440
    17.2033  23.3277  24.7900  27.4160

          k = 0.6667-0.0000 0.6667 (   431 PWs)   bands (ev):

   -35.5614 -35.5611 -35.4840  10.7084  11.2607  11.9318  12.8348  13.4334
    19.0002  21.5715  23.2018  29.5327

          k = 0.0000-1.0000 0.0000 (   444 PWs)   bands (ev):

   -35.6106 -35.5073 -35.5073   9.9725  10.1687  13.7220  13.9592  13.9592
    17.2123  22.5770  25.9795  25.9795

          k = 0.6667-0.3333 1.0000 (   431 PWs)   bands (ev):

   -35.5738 -35.5134 -35.4803  10.9447  10.9592  11.6618  13.0593  13.2548
    15.9591  25.0464  25.1994  28.3801

          k = 0.5000-0.1667 0.8333 (   428 PWs)   bands (ev):

   -35.5802 -35.5354 -35.4908  11.0159  11.0328  11.7211  12.7413  13.6915
    19.5008  20.2079  25.6633  26.3828

          k =-0.3333-1.0000 0.0000 (   430 PWs)   bands (ev):

   -35.5847 -35.5330 -35.5077  10.5173  10.7286  12.3324  13.1429  13.9603
    19.7114  22.5595  23.5883  24.3390

     the Fermi energy is    13.7797 ev

!    total energy              =    -198.68590926 Ry
     Harris-Foulkes estimate   =    -198.68590930 Ry
     estimated scf accuracy    <       0.00000004 Ry

     The total energy is the sum of the following terms:

     one-electron contribution =     -60.25832383 Ry
     hartree contribution      =      41.37981503 Ry
     xc contribution           =     -31.23481808 Ry
     ewald contribution        =    -148.57274574 Ry
     smearing contrib. (-TS)   =       0.00016336 Ry

     convergence has been achieved in   6 iterations

     Writing output data file Pd-kp-conv.save/
 
     init_run     :      0.41s CPU      0.45s WALL (       1 calls)
     electrons    :      1.12s CPU      1.25s WALL (       1 calls)

     Called by init_run:
     wfcinit      :      0.07s CPU      0.07s WALL (       1 calls)
     potinit      :      0.01s CPU      0.02s WALL (       1 calls)
     hinit0       :      0.33s CPU      0.33s WALL (       1 calls)

     Called by electrons:
     c_bands      :      0.86s CPU      0.92s WALL (       6 calls)
     sum_band     :      0.19s CPU      0.21s WALL (       6 calls)
     v_of_rho     :      0.03s CPU      0.03s WALL (       7 calls)
     newd         :      0.04s CPU      0.05s WALL (       7 calls)
     mix_rho      :      0.00s CPU      0.00s WALL (       6 calls)

     Called by c_bands:
     init_us_2    :      0.02s CPU      0.02s WALL (     208 calls)
     cegterg      :      0.80s CPU      0.86s WALL (      96 calls)

     Called by sum_band:
     sum_band:bec :      0.00s CPU      0.00s WALL (      96 calls)
     addusdens    :      0.04s CPU      0.05s WALL (       6 calls)

     Called by *egterg:
     h_psi        :      0.70s CPU      0.74s WALL (     341 calls)
     s_psi        :      0.01s CPU      0.01s WALL (     341 calls)
     g_psi        :      0.01s CPU      0.01s WALL (     229 calls)
     cdiaghg      :      0.09s CPU      0.10s WALL (     325 calls)

     Called by h_psi:
     h_psi:pot    :      0.69s CPU      0.74s WALL (     341 calls)
     h_psi:calbec :      0.01s CPU      0.01s WALL (     341 calls)
     vloc_psi     :      0.67s CPU      0.71s WALL (     341 calls)
     add_vuspsi   :      0.01s CPU      0.01s WALL (     341 calls)

     General routines
     calbec       :      0.02s CPU      0.02s WALL (     437 calls)
     fft          :      0.01s CPU      0.01s WALL (      78 calls)
     ffts         :      0.00s CPU      0.00s WALL (       6 calls)
     fftw         :      0.68s CPU      0.72s WALL (    7314 calls)
 
     Parallel routines
     fft_scatt_xy :      0.13s CPU      0.13s WALL (    7398 calls)
     fft_scatt_yz :      0.15s CPU      0.16s WALL (    7398 calls)
 
     PWSCF        :     1.62s CPU         2.21s WALL

 
   This run was terminated on:  21:37:54   2Dec2021            

=------------------------------------------------------------------------------=
   JOB DONE.
=------------------------------------------------------------------------------=
