
     Program PWSCF v.6.3 starts on  2Dec2021 at 21:37:40 

     This program is part of the open-source Quantum ESPRESSO suite
     for quantum simulation of materials; please cite
         "P. Giannozzi et al., J. Phys.:Condens. Matter 21 395502 (2009);
         "P. Giannozzi et al., J. Phys.:Condens. Matter 29 465901 (2017);
          URL http://www.quantum-espresso.org", 
     in publications or presentations arising from this work. More details at
     http://www.quantum-espresso.org/quote

     Parallel version (MPI & OpenMP), running on       2 processor cores
     Number of MPI processes:                 2
     Threads/MPI process:                     1

     MPI processes distributed on     1 nodes
     R & G space division:  proc/nbgrp/npool/nimage =       2
     Reading input from pw-input.in

     Current dimensions of program PWSCF are:
     Max number of different atomic species (ntypx) = 10
     Max number of k-points (npk) =  40000
     Max angular momentum in pseudopotentials (lmaxx) =  3

     Subspace diagonalization in iterative solution of the eigenvalue problem:
     a serial algorithm will be used

 
     Parallelization info
     --------------------
     sticks:   dense  smooth     PW     G-vecs:    dense   smooth      PW
     Min         132     132     45                 1445     1445     304
     Max         133     133     46                 1446     1446     305
     Sum         265     265     91                 2891     2891     609
 

     Title: 
     Pd-kp-conv                                                                 


     bravais-lattice index     =            2
     lattice parameter (alat)  =       7.5000  a.u.
     unit-cell volume          =     105.4688 (a.u.)^3
     number of atoms/cell      =            1
     number of atomic types    =            1
     number of electrons       =        16.00
     number of Kohn-Sham states=           12
     kinetic-energy cutoff     =      35.0000  Ry
     charge density cutoff     =     140.0000  Ry
     convergence threshold     =      1.0E-07
     mixing beta               =       0.7000
     number of iterations used =            8  plain     mixing
     Exchange-correlation      =  SLA  PW   PBX  PBC ( 1  4  3  4 0 0)

     celldm(1)=   7.500000  celldm(2)=   0.000000  celldm(3)=   0.000000
     celldm(4)=   0.000000  celldm(5)=   0.000000  celldm(6)=   0.000000

     crystal axes: (cart. coord. in units of alat)
               a(1) = (  -0.500000   0.000000   0.500000 )  
               a(2) = (   0.000000   0.500000   0.500000 )  
               a(3) = (  -0.500000   0.500000   0.000000 )  

     reciprocal axes: (cart. coord. in units 2 pi/alat)
               b(1) = ( -1.000000 -1.000000  1.000000 )  
               b(2) = (  1.000000  1.000000  1.000000 )  
               b(3) = ( -1.000000  1.000000 -1.000000 )  


     PseudoPot. # 1 for Pd read from file:
     ./pd_pbe_v1.4.uspp.F.UPF
     MD5 check sum: 2d733d2bc2cbfd217af676df1668a4bc
     Pseudo is Ultrasoft + core correction, Zval = 16.0
     Generated by new atomic code, or converted to UPF format
     Using radial grid of  887 points,  6 beta functions with: 
                l(1) =   0
                l(2) =   0
                l(3) =   1
                l(4) =   1
                l(5) =   2
                l(6) =   2
     Q(r) pseudized with  8 coefficients,  rinner =    1.130   1.130   1.130
                                                       1.130   1.130

     atomic species   valence    mass     pseudopotential
        Pd            16.00   106.40000     Pd( 1.00)

     48 Sym. Ops., with inversion, found



   Cartesian axes

     site n.     atom                  positions (alat units)
         1           Pd  tau(   1) = (   0.0000000   0.0000000   0.0000000  )

     number of k points=    16  Marzari-Vanderbilt smearing, width (Ry)=  0.0200
                       cart. coord. in units 2pi/alat
        k(    1) = (   0.0000000   0.0000000   0.0000000), wk =   0.0092593
        k(    2) = (  -0.1666667   0.1666667  -0.1666667), wk =   0.0740741
        k(    3) = (  -0.3333333   0.3333333  -0.3333333), wk =   0.0740741
        k(    4) = (   0.5000000  -0.5000000   0.5000000), wk =   0.0370370
        k(    5) = (   0.0000000   0.3333333   0.0000000), wk =   0.0555556
        k(    6) = (  -0.1666667   0.5000000  -0.1666667), wk =   0.2222222
        k(    7) = (   0.6666667  -0.3333333   0.6666667), wk =   0.2222222
        k(    8) = (   0.5000000  -0.1666667   0.5000000), wk =   0.2222222
        k(    9) = (   0.3333333   0.0000000   0.3333333), wk =   0.1111111
        k(   10) = (   0.0000000   0.6666667   0.0000000), wk =   0.0555556
        k(   11) = (   0.8333333  -0.1666667   0.8333333), wk =   0.2222222
        k(   12) = (   0.6666667  -0.0000000   0.6666667), wk =   0.1111111
        k(   13) = (   0.0000000  -1.0000000   0.0000000), wk =   0.0277778
        k(   14) = (   0.6666667  -0.3333333   1.0000000), wk =   0.2222222
        k(   15) = (   0.5000000  -0.1666667   0.8333333), wk =   0.2222222
        k(   16) = (  -0.3333333  -1.0000000   0.0000000), wk =   0.1111111

     Dense  grid:     2891 G-vectors     FFT dimensions: (  20,  20,  20)

     Estimated max dynamical RAM per process >       6.76 MB

     Estimated total dynamical RAM >      13.52 MB

     Initial potential from superposition of free atoms
     Check: negative starting charge=   -0.084664

     starting charge   15.49999, renormalised to   16.00000

     negative rho (up, down):  8.740E-02 0.000E+00
     Starting wfcs are   12 randomized atomic wfcs

     total cpu time spent up to now is        0.5 secs

     Self-consistent Calculation

     iteration #  1     ecut=    35.00 Ry     beta= 0.70
     Davidson diagonalization with overlap
     ethr =  1.00E-02,  avg # of iterations =  3.6

     negative rho (up, down):  8.672E-02 0.000E+00

     total cpu time spent up to now is        0.7 secs

     total energy              =    -198.18021995 Ry
     Harris-Foulkes estimate   =    -199.04434542 Ry
     estimated scf accuracy    <       1.18994221 Ry

     iteration #  2     ecut=    35.00 Ry     beta= 0.70
     Davidson diagonalization with overlap
     ethr =  7.44E-03,  avg # of iterations =  2.0

     negative rho (up, down):  8.789E-02 0.000E+00

     total cpu time spent up to now is        0.8 secs

     total energy              =    -198.45494886 Ry
     Harris-Foulkes estimate   =    -199.04337995 Ry
     estimated scf accuracy    <       1.18132494 Ry

     iteration #  3     ecut=    35.00 Ry     beta= 0.70
     Davidson diagonalization with overlap
     ethr =  7.38E-03,  avg # of iterations =  2.0

     negative rho (up, down):  8.827E-02 0.000E+00

     total cpu time spent up to now is        1.0 secs

     total energy              =    -198.70004138 Ry
     Harris-Foulkes estimate   =    -198.70256784 Ry
     estimated scf accuracy    <       0.00513174 Ry

     iteration #  4     ecut=    35.00 Ry     beta= 0.70
     Davidson diagonalization with overlap
     ethr =  3.21E-05,  avg # of iterations =  2.2

     negative rho (up, down):  8.845E-02 0.000E+00

     total cpu time spent up to now is        1.1 secs

     total energy              =    -198.70140857 Ry
     Harris-Foulkes estimate   =    -198.70146290 Ry
     estimated scf accuracy    <       0.00012312 Ry

     iteration #  5     ecut=    35.00 Ry     beta= 0.70
     Davidson diagonalization with overlap
     ethr =  7.70E-07,  avg # of iterations =  2.1

     negative rho (up, down):  8.852E-02 0.000E+00

     total cpu time spent up to now is        1.2 secs

     total energy              =    -198.70143203 Ry
     Harris-Foulkes estimate   =    -198.70143171 Ry
     estimated scf accuracy    <       0.00000024 Ry

     iteration #  6     ecut=    35.00 Ry     beta= 0.70
     Davidson diagonalization with overlap
     ethr =  1.51E-09,  avg # of iterations =  2.6

     negative rho (up, down):  8.852E-02 0.000E+00

     total cpu time spent up to now is        1.4 secs

     End of self-consistent calculation

          k = 0.0000 0.0000 0.0000 (   339 PWs)   bands (ev):

   -32.3660 -32.3660 -32.3660  10.5594  14.6250  14.6250  14.6250  16.0865
    16.0865  35.0675  39.4950  39.4950

          k =-0.1667 0.1667-0.1667 (   362 PWs)   bands (ev):

   -32.4500 -32.3784 -32.3784  11.4478  14.4215  14.8598  14.8598  16.0304
    16.0304  34.3796  36.1860  40.1606

          k =-0.3333 0.3333-0.3333 (   359 PWs)   bands (ev):

   -32.6140 -32.4022 -32.4022  12.4596  14.7720  14.7720  15.7205  16.6378
    16.6378  28.2863  35.1610  39.6669

          k = 0.5000-0.5000 0.5000 (   368 PWs)   bands (ev):

   -32.6954 -32.4142 -32.4142  12.3753  14.5882  14.5882  17.1727  17.1727
    18.4159  24.1193  34.2944  38.2860

          k = 0.0000 0.3333 0.0000 (   355 PWs)   bands (ev):

   -32.4471 -32.3973 -32.3973  11.7457  14.0427  15.1690  15.1690  15.5562
    16.3368  36.0138  36.8273  37.3852

          k =-0.1667 0.5000-0.1667 (   366 PWs)   bands (ev):

   -32.5676 -32.4257 -32.4249  12.8835  13.9126  14.8035  15.3979  16.8226
    16.8843  30.8342  35.5044  35.7382

          k = 0.6667-0.3333 0.6667 (   368 PWs)   bands (ev):

   -32.6624 -32.4626 -32.4332  12.8950  14.2081  15.1415  15.2975  17.2122
    20.2240  24.9654  33.5571  35.7586

          k = 0.5000-0.1667 0.5000 (   373 PWs)   bands (ev):

   -32.6364 -32.4732 -32.4144  13.0684  14.3443  15.1194  15.1289  16.4858
    19.3266  26.8241  32.6006  36.4851

          k = 0.3333 0.0000 0.3333 (   369 PWs)   bands (ev):

   -32.5290 -32.4327 -32.3870  12.6551  14.0526  14.8914  15.3344  15.5442
    17.0432  32.7009  33.4346  39.0637

          k = 0.0000 0.6667 0.0000 (   355 PWs)   bands (ev):

   -32.6023 -32.4592 -32.4592  12.7606  13.0247  16.5367  16.5367  16.8682
    17.0098  32.6594  32.6594  32.6828

          k = 0.8333-0.1667 0.8333 (   368 PWs)   bands (ev):

   -32.6446 -32.5098 -32.4714  12.7544  13.0972  15.9194  16.4414  17.3036
    20.9585  27.7657  29.5564  32.0622

          k = 0.6667-0.0000 0.6667 (   375 PWs)   bands (ev):

   -32.5902 -32.5888 -32.4489  13.2511  13.9342  14.7976  15.9688  16.7601
    23.0363  25.8739  27.8576  34.5534

          k = 0.0000-1.0000 0.0000 (   360 PWs)   bands (ev):

   -32.6779 -32.4899 -32.4899  12.3196  12.5725  17.1494  17.4567  17.4567
    20.6375  27.4422  30.3493  30.3493

          k = 0.6667-0.3333 1.0000 (   367 PWs)   bands (ev):

   -32.6122 -32.5025 -32.4428  13.5520  13.5692  14.4703  16.2531  16.5247
    19.6793  29.6967  29.8871  33.2565

          k = 0.5000-0.1667 0.8333 (   370 PWs)   bands (ev):

   -32.6236 -32.5422 -32.4618  13.6142  13.6758  14.5279  15.8464  17.0997
    23.4860  24.5580  30.4933  31.0395

          k =-0.3333-1.0000 0.0000 (   374 PWs)   bands (ev):

   -32.6316 -32.5375 -32.4922  12.9895  13.2794  15.3039  16.3701  17.4568
    23.6874  27.3087  27.9773  28.8100

     the Fermi energy is    17.1886 ev

!    total energy              =    -198.70143212 Ry
     Harris-Foulkes estimate   =    -198.70143215 Ry
     estimated scf accuracy    <       0.00000006 Ry

     The total energy is the sum of the following terms:

     one-electron contribution =     -47.85347270 Ry
     hartree contribution      =      36.96145069 Ry
     xc contribution           =     -31.31283395 Ry
     ewald contribution        =    -156.49662553 Ry
     smearing contrib. (-TS)   =       0.00004937 Ry

     convergence has been achieved in   6 iterations

     Writing output data file Pd-kp-conv.save/
 
     init_run     :      0.38s CPU      0.40s WALL (       1 calls)
     electrons    :      0.80s CPU      1.10s WALL (       1 calls)

     Called by init_run:
     wfcinit      :      0.04s CPU      0.05s WALL (       1 calls)
     potinit      :      0.01s CPU      0.02s WALL (       1 calls)
     hinit0       :      0.31s CPU      0.32s WALL (       1 calls)

     Called by electrons:
     c_bands      :      0.62s CPU      0.67s WALL (       6 calls)
     sum_band     :      0.13s CPU      0.15s WALL (       6 calls)
     v_of_rho     :      0.02s CPU      0.02s WALL (       7 calls)
     newd         :      0.04s CPU      0.04s WALL (       7 calls)
     mix_rho      :      0.00s CPU      0.00s WALL (       6 calls)

     Called by c_bands:
     init_us_2    :      0.02s CPU      0.02s WALL (     208 calls)
     cegterg      :      0.57s CPU      0.62s WALL (      96 calls)

     Called by sum_band:
     sum_band:bec :      0.00s CPU      0.00s WALL (      96 calls)
     addusdens    :      0.04s CPU      0.04s WALL (       6 calls)

     Called by *egterg:
     h_psi        :      0.46s CPU      0.49s WALL (     345 calls)
     s_psi        :      0.01s CPU      0.01s WALL (     345 calls)
     g_psi        :      0.01s CPU      0.01s WALL (     233 calls)
     cdiaghg      :      0.09s CPU      0.10s WALL (     329 calls)

     Called by h_psi:
     h_psi:pot    :      0.45s CPU      0.49s WALL (     345 calls)
     h_psi:calbec :      0.01s CPU      0.01s WALL (     345 calls)
     vloc_psi     :      0.43s CPU      0.46s WALL (     345 calls)
     add_vuspsi   :      0.01s CPU      0.01s WALL (     345 calls)

     General routines
     calbec       :      0.01s CPU      0.02s WALL (     441 calls)
     fft          :      0.01s CPU      0.01s WALL (      78 calls)
     ffts         :      0.00s CPU      0.00s WALL (       6 calls)
     fftw         :      0.44s CPU      0.48s WALL (    7312 calls)
 
     Parallel routines
     fft_scatt_xy :      0.08s CPU      0.09s WALL (    7396 calls)
     fft_scatt_yz :      0.12s CPU      0.13s WALL (    7396 calls)
 
     PWSCF        :     1.26s CPU         1.86s WALL

 
   This run was terminated on:  21:37:42   2Dec2021            

=------------------------------------------------------------------------------=
   JOB DONE.
=------------------------------------------------------------------------------=
