
     Program PWSCF v.6.3 starts on  2Dec2021 at 21:37:46 

     This program is part of the open-source Quantum ESPRESSO suite
     for quantum simulation of materials; please cite
         "P. Giannozzi et al., J. Phys.:Condens. Matter 21 395502 (2009);
         "P. Giannozzi et al., J. Phys.:Condens. Matter 29 465901 (2017);
          URL http://www.quantum-espresso.org", 
     in publications or presentations arising from this work. More details at
     http://www.quantum-espresso.org/quote

     Parallel version (MPI & OpenMP), running on       2 processor cores
     Number of MPI processes:                 2
     Threads/MPI process:                     1

     MPI processes distributed on     1 nodes
     R & G space division:  proc/nbgrp/npool/nimage =       2
     Reading input from pw-input.in

     Current dimensions of program PWSCF are:
     Max number of different atomic species (ntypx) = 10
     Max number of k-points (npk) =  40000
     Max angular momentum in pseudopotentials (lmaxx) =  3

     Subspace diagonalization in iterative solution of the eigenvalue problem:
     a serial algorithm will be used

 
     Parallelization info
     --------------------
     sticks:   dense  smooth     PW     G-vecs:    dense   smooth      PW
     Min         141     141     48                 1570     1570     322
     Max         142     142     49                 1573     1573     323
     Sum         283     283     97                 3143     3143     645
 

     Title: 
     Pd-kp-conv                                                                 


     bravais-lattice index     =            2
     lattice parameter (alat)  =       7.7000  a.u.
     unit-cell volume          =     114.1333 (a.u.)^3
     number of atoms/cell      =            1
     number of atomic types    =            1
     number of electrons       =        16.00
     number of Kohn-Sham states=           12
     kinetic-energy cutoff     =      35.0000  Ry
     charge density cutoff     =     140.0000  Ry
     convergence threshold     =      1.0E-07
     mixing beta               =       0.7000
     number of iterations used =            8  plain     mixing
     Exchange-correlation      =  SLA  PW   PBX  PBC ( 1  4  3  4 0 0)

     celldm(1)=   7.700000  celldm(2)=   0.000000  celldm(3)=   0.000000
     celldm(4)=   0.000000  celldm(5)=   0.000000  celldm(6)=   0.000000

     crystal axes: (cart. coord. in units of alat)
               a(1) = (  -0.500000   0.000000   0.500000 )  
               a(2) = (   0.000000   0.500000   0.500000 )  
               a(3) = (  -0.500000   0.500000   0.000000 )  

     reciprocal axes: (cart. coord. in units 2 pi/alat)
               b(1) = ( -1.000000 -1.000000  1.000000 )  
               b(2) = (  1.000000  1.000000  1.000000 )  
               b(3) = ( -1.000000  1.000000 -1.000000 )  


     PseudoPot. # 1 for Pd read from file:
     ./pd_pbe_v1.4.uspp.F.UPF
     MD5 check sum: 2d733d2bc2cbfd217af676df1668a4bc
     Pseudo is Ultrasoft + core correction, Zval = 16.0
     Generated by new atomic code, or converted to UPF format
     Using radial grid of  887 points,  6 beta functions with: 
                l(1) =   0
                l(2) =   0
                l(3) =   1
                l(4) =   1
                l(5) =   2
                l(6) =   2
     Q(r) pseudized with  8 coefficients,  rinner =    1.130   1.130   1.130
                                                       1.130   1.130

     atomic species   valence    mass     pseudopotential
        Pd            16.00   106.40000     Pd( 1.00)

     48 Sym. Ops., with inversion, found



   Cartesian axes

     site n.     atom                  positions (alat units)
         1           Pd  tau(   1) = (   0.0000000   0.0000000   0.0000000  )

     number of k points=    16  Marzari-Vanderbilt smearing, width (Ry)=  0.0200
                       cart. coord. in units 2pi/alat
        k(    1) = (   0.0000000   0.0000000   0.0000000), wk =   0.0092593
        k(    2) = (  -0.1666667   0.1666667  -0.1666667), wk =   0.0740741
        k(    3) = (  -0.3333333   0.3333333  -0.3333333), wk =   0.0740741
        k(    4) = (   0.5000000  -0.5000000   0.5000000), wk =   0.0370370
        k(    5) = (   0.0000000   0.3333333   0.0000000), wk =   0.0555556
        k(    6) = (  -0.1666667   0.5000000  -0.1666667), wk =   0.2222222
        k(    7) = (   0.6666667  -0.3333333   0.6666667), wk =   0.2222222
        k(    8) = (   0.5000000  -0.1666667   0.5000000), wk =   0.2222222
        k(    9) = (   0.3333333   0.0000000   0.3333333), wk =   0.1111111
        k(   10) = (   0.0000000   0.6666667   0.0000000), wk =   0.0555556
        k(   11) = (   0.8333333  -0.1666667   0.8333333), wk =   0.2222222
        k(   12) = (   0.6666667  -0.0000000   0.6666667), wk =   0.1111111
        k(   13) = (   0.0000000  -1.0000000   0.0000000), wk =   0.0277778
        k(   14) = (   0.6666667  -0.3333333   1.0000000), wk =   0.2222222
        k(   15) = (   0.5000000  -0.1666667   0.8333333), wk =   0.2222222
        k(   16) = (  -0.3333333  -1.0000000   0.0000000), wk =   0.1111111

     Dense  grid:     3143 G-vectors     FFT dimensions: (  24,  24,  24)

     Estimated max dynamical RAM per process >       7.46 MB

     Estimated total dynamical RAM >      14.91 MB

     Initial potential from superposition of free atoms
     Check: negative starting charge=   -0.079204

     starting charge   15.49999, renormalised to   16.00000

     negative rho (up, down):  8.176E-02 0.000E+00
     Starting wfcs are   12 randomized atomic wfcs

     total cpu time spent up to now is        0.5 secs

     Self-consistent Calculation

     iteration #  1     ecut=    35.00 Ry     beta= 0.70
     Davidson diagonalization with overlap
     ethr =  1.00E-02,  avg # of iterations =  3.6

     negative rho (up, down):  8.046E-02 0.000E+00

     total cpu time spent up to now is        0.8 secs

     total energy              =    -198.09521591 Ry
     Harris-Foulkes estimate   =    -199.06116112 Ry
     estimated scf accuracy    <       1.32310063 Ry

     iteration #  2     ecut=    35.00 Ry     beta= 0.70
     Davidson diagonalization with overlap
     ethr =  8.27E-03,  avg # of iterations =  2.0

     negative rho (up, down):  8.178E-02 0.000E+00

     total cpu time spent up to now is        1.0 secs

     total energy              =    -198.40572631 Ry
     Harris-Foulkes estimate   =    -199.12997503 Ry
     estimated scf accuracy    <       1.48562052 Ry

     iteration #  3     ecut=    35.00 Ry     beta= 0.70
     Davidson diagonalization with overlap
     ethr =  8.27E-03,  avg # of iterations =  2.0

     negative rho (up, down):  8.197E-02 0.000E+00

     total cpu time spent up to now is        1.1 secs

     total energy              =    -198.69513140 Ry
     Harris-Foulkes estimate   =    -198.69661286 Ry
     estimated scf accuracy    <       0.00317842 Ry

     iteration #  4     ecut=    35.00 Ry     beta= 0.70
     Davidson diagonalization with overlap
     ethr =  1.99E-05,  avg # of iterations =  2.6

     negative rho (up, down):  8.211E-02 0.000E+00

     total cpu time spent up to now is        1.4 secs

     total energy              =    -198.69606771 Ry
     Harris-Foulkes estimate   =    -198.69609589 Ry
     estimated scf accuracy    <       0.00006694 Ry

     iteration #  5     ecut=    35.00 Ry     beta= 0.70
     Davidson diagonalization with overlap
     ethr =  4.18E-07,  avg # of iterations =  1.9

     negative rho (up, down):  8.217E-02 0.000E+00

     total cpu time spent up to now is        1.6 secs

     total energy              =    -198.69608094 Ry
     Harris-Foulkes estimate   =    -198.69608068 Ry
     estimated scf accuracy    <       0.00000027 Ry

     iteration #  6     ecut=    35.00 Ry     beta= 0.70
     Davidson diagonalization with overlap
     ethr =  1.71E-09,  avg # of iterations =  2.5

     negative rho (up, down):  8.217E-02 0.000E+00

     total cpu time spent up to now is        1.7 secs

     total energy              =    -198.69608100 Ry
     Harris-Foulkes estimate   =    -198.69608106 Ry
     estimated scf accuracy    <       0.00000015 Ry

     iteration #  7     ecut=    35.00 Ry     beta= 0.70
     Davidson diagonalization with overlap
     ethr =  9.06E-10,  avg # of iterations =  1.8

     negative rho (up, down):  8.217E-02 0.000E+00

     total cpu time spent up to now is        1.9 secs

     End of self-consistent calculation

          k = 0.0000 0.0000 0.0000 (   411 PWs)   bands (ev):

   -33.9898 -33.9898 -33.9898   9.3034  13.1249  13.1249  13.1249  14.4067
    14.4067  33.0363  37.0034  37.0034

          k =-0.1667 0.1667-0.1667 (   387 PWs)   bands (ev):

   -34.0512 -33.9983 -33.9983  10.1389  12.9509  13.3353  13.3353  14.3663
    14.3663  31.9009  34.0209  37.4469

          k =-0.3333 0.3333-0.3333 (   401 PWs)   bands (ev):

   -34.1738 -34.0167 -34.0167  11.1550  13.2595  13.2595  14.1447  14.8975
    14.8975  25.8369  33.0505  36.7597

          k = 0.5000-0.5000 0.5000 (   392 PWs)   bands (ev):

   -34.2342 -34.0254 -34.0254  11.1045  13.0987  13.0987  15.3627  15.3627
    16.7592  21.7421  32.2601  35.5587

          k = 0.0000 0.3333 0.0000 (   399 PWs)   bands (ev):

   -34.0492 -34.0129 -34.0129  10.4190  12.6163  13.6087  13.6087  13.9519
    14.6289  33.7258  34.4701  34.6684

          k =-0.1667 0.5000-0.1667 (   398 PWs)   bands (ev):

   -34.1392 -34.0339 -34.0334  11.5329  12.5003  13.2902  13.8112  15.0577
    15.1446  28.3335  33.0440  33.1426

          k = 0.6667-0.3333 0.6667 (   393 PWs)   bands (ev):

   -34.2098 -34.0614 -34.0398  11.5785  12.7722  13.5879  13.7398  15.3960
    18.2947  22.6329  31.1264  33.0845

          k = 0.5000-0.1667 0.5000 (   404 PWs)   bands (ev):

   -34.1905 -34.0694 -34.0259  11.7264  12.8881  13.5693  13.5947  14.7659
    17.3892  24.4306  30.0943  34.1041

          k = 0.3333 0.0000 0.3333 (   397 PWs)   bands (ev):

   -34.1102 -34.0391 -34.0050  11.2828  12.6275  13.3687  13.7560  13.9432
    15.2606  30.2248  30.8362  36.5042

          k = 0.0000 0.6667 0.0000 (   399 PWs)   bands (ev):

   -34.1654 -34.0590 -34.0590  11.4605  11.7170  14.8111  14.8111  15.0956
    15.3180  30.0948  30.1728  30.1728

          k = 0.8333-0.1667 0.8333 (   402 PWs)   bands (ev):

   -34.1969 -34.0968 -34.0682  11.4749  11.7800  14.2842  14.7282  15.4763
    18.9725  25.4348  27.0416  29.6224

          k = 0.6667-0.0000 0.6667 (   403 PWs)   bands (ev):

   -34.1563 -34.1555 -34.0517  11.9160  12.5272  13.2880  14.3170  15.0049
    20.9062  23.5987  25.4058  31.9159

          k = 0.0000-1.0000 0.0000 (   388 PWs)   bands (ev):

   -34.2215 -34.0821 -34.0821  11.0901  11.3131  15.3408  15.6093  15.6093
    18.8261  24.8785  28.0561  28.0561

          k = 0.6667-0.3333 1.0000 (   407 PWs)   bands (ev):

   -34.1729 -34.0916 -34.0471  12.1798  12.1969  12.9913  14.5691  14.7991
    17.7112  27.2548  27.4147  30.6980

          k = 0.5000-0.1667 0.8333 (   400 PWs)   bands (ev):

   -34.1811 -34.1210 -34.0612  12.2494  12.2852  13.0502  14.2101  15.3007
    21.3790  22.2629  27.9523  28.5899

          k =-0.3333-1.0000 0.0000 (   398 PWs)   bands (ev):

   -34.1871 -34.1175 -34.0836  11.6920  11.9387  13.7387  14.6701  15.6100
    21.5846  24.8093  25.6645  26.4557

     the Fermi energy is    15.3884 ev

!    total energy              =    -198.69608103 Ry
     Harris-Foulkes estimate   =    -198.69608103 Ry
     estimated scf accuracy    <          1.1E-10 Ry

     The total energy is the sum of the following terms:

     one-electron contribution =     -54.17425208 Ry
     hartree contribution      =      39.17819985 Ry
     xc contribution           =     -31.26824384 Ry
     ewald contribution        =    -152.43177811 Ry
     smearing contrib. (-TS)   =      -0.00000684 Ry

     convergence has been achieved in   7 iterations

     Writing output data file Pd-kp-conv.save/
 
     init_run     :      0.40s CPU      0.44s WALL (       1 calls)
     electrons    :      1.22s CPU      1.67s WALL (       1 calls)

     Called by init_run:
     wfcinit      :      0.06s CPU      0.08s WALL (       1 calls)
     potinit      :      0.01s CPU      0.02s WALL (       1 calls)
     hinit0       :      0.32s CPU      0.32s WALL (       1 calls)

     Called by electrons:
     c_bands      :      0.93s CPU      1.01s WALL (       7 calls)
     sum_band     :      0.22s CPU      0.26s WALL (       7 calls)
     v_of_rho     :      0.03s CPU      0.04s WALL (       8 calls)
     newd         :      0.05s CPU      0.05s WALL (       8 calls)
     mix_rho      :      0.00s CPU      0.00s WALL (       7 calls)

     Called by c_bands:
     init_us_2    :      0.02s CPU      0.02s WALL (     240 calls)
     cegterg      :      0.87s CPU      0.93s WALL (     112 calls)

     Called by sum_band:
     sum_band:bec :      0.00s CPU      0.00s WALL (     112 calls)
     addusdens    :      0.05s CPU      0.05s WALL (       7 calls)

     Called by *egterg:
     h_psi        :      0.75s CPU      0.80s WALL (     390 calls)
     s_psi        :      0.01s CPU      0.01s WALL (     390 calls)
     g_psi        :      0.01s CPU      0.01s WALL (     262 calls)
     cdiaghg      :      0.10s CPU      0.10s WALL (     374 calls)

     Called by h_psi:
     h_psi:pot    :      0.75s CPU      0.80s WALL (     390 calls)
     h_psi:calbec :      0.01s CPU      0.02s WALL (     390 calls)
     vloc_psi     :      0.72s CPU      0.77s WALL (     390 calls)
     add_vuspsi   :      0.01s CPU      0.01s WALL (     390 calls)

     General routines
     calbec       :      0.02s CPU      0.02s WALL (     502 calls)
     fft          :      0.01s CPU      0.01s WALL (      89 calls)
     ffts         :      0.00s CPU      0.00s WALL (       7 calls)
     fftw         :      0.74s CPU      0.82s WALL (    8296 calls)
 
     Parallel routines
     fft_scatt_xy :      0.14s CPU      0.15s WALL (    8392 calls)
     fft_scatt_yz :      0.16s CPU      0.21s WALL (    8392 calls)
 
     PWSCF        :     1.71s CPU         2.32s WALL

 
   This run was terminated on:  21:37:48   2Dec2021            

=------------------------------------------------------------------------------=
   JOB DONE.
=------------------------------------------------------------------------------=
