
     Program PWSCF v.6.3 starts on  2Dec2021 at 22:26:36 

     This program is part of the open-source Quantum ESPRESSO suite
     for quantum simulation of materials; please cite
         "P. Giannozzi et al., J. Phys.:Condens. Matter 21 395502 (2009);
         "P. Giannozzi et al., J. Phys.:Condens. Matter 29 465901 (2017);
          URL http://www.quantum-espresso.org", 
     in publications or presentations arising from this work. More details at
     http://www.quantum-espresso.org/quote

     Parallel version (MPI & OpenMP), running on       2 processor cores
     Number of MPI processes:                 2
     Threads/MPI process:                     1

     MPI processes distributed on     1 nodes
     R & G space division:  proc/nbgrp/npool/nimage =       2
     Reading input from pw-input.in

     Current dimensions of program PWSCF are:
     Max number of different atomic species (ntypx) = 10
     Max number of k-points (npk) =  40000
     Max angular momentum in pseudopotentials (lmaxx) =  3

     Subspace diagonalization in iterative solution of the eigenvalue problem:
     a serial algorithm will be used

 
     Parallelization info
     --------------------
     sticks:   dense  smooth     PW     G-vecs:    dense   smooth      PW
     Min         150     150     54                 1738     1738     362
     Max         151     151     55                 1741     1741     363
     Sum         301     301    109                 3479     3479     725
 

     Title: 
     Pd-kp-conv                                                                 


     bravais-lattice index     =            2
     lattice parameter (alat)  =       7.9000  a.u.
     unit-cell volume          =     123.2598 (a.u.)^3
     number of atoms/cell      =            1
     number of atomic types    =            1
     number of electrons       =        16.00
     number of Kohn-Sham states=           12
     kinetic-energy cutoff     =      35.0000  Ry
     charge density cutoff     =     140.0000  Ry
     convergence threshold     =      1.0E-07
     mixing beta               =       0.7000
     number of iterations used =            8  plain     mixing
     Exchange-correlation      =  SLA  PW   PBX  PBC ( 1  4  3  4 0 0)

     celldm(1)=   7.900000  celldm(2)=   0.000000  celldm(3)=   0.000000
     celldm(4)=   0.000000  celldm(5)=   0.000000  celldm(6)=   0.000000

     crystal axes: (cart. coord. in units of alat)
               a(1) = (  -0.500000   0.000000   0.500000 )  
               a(2) = (   0.000000   0.500000   0.500000 )  
               a(3) = (  -0.500000   0.500000   0.000000 )  

     reciprocal axes: (cart. coord. in units 2 pi/alat)
               b(1) = ( -1.000000 -1.000000  1.000000 )  
               b(2) = (  1.000000  1.000000  1.000000 )  
               b(3) = ( -1.000000  1.000000 -1.000000 )  


     PseudoPot. # 1 for Pd read from file:
     ./pd_pbe_v1.4.uspp.F.UPF
     MD5 check sum: 2d733d2bc2cbfd217af676df1668a4bc
     Pseudo is Ultrasoft + core correction, Zval = 16.0
     Generated by new atomic code, or converted to UPF format
     Using radial grid of  887 points,  6 beta functions with: 
                l(1) =   0
                l(2) =   0
                l(3) =   1
                l(4) =   1
                l(5) =   2
                l(6) =   2
     Q(r) pseudized with  8 coefficients,  rinner =    1.130   1.130   1.130
                                                       1.130   1.130

     atomic species   valence    mass     pseudopotential
        Pd            16.00   106.40000     Pd( 1.00)

     48 Sym. Ops., with inversion, found



   Cartesian axes

     site n.     atom                  positions (alat units)
         1           Pd  tau(   1) = (   0.0000000   0.0000000   0.0000000  )

     number of k points=    72  Marzari-Vanderbilt smearing, width (Ry)=  0.0300
                       cart. coord. in units 2pi/alat
        k(    1) = (   0.0000000   0.0000000   0.0000000), wk =   0.0011574
        k(    2) = (  -0.0833333   0.0833333  -0.0833333), wk =   0.0092593
        k(    3) = (  -0.1666667   0.1666667  -0.1666667), wk =   0.0092593
        k(    4) = (  -0.2500000   0.2500000  -0.2500000), wk =   0.0092593
        k(    5) = (  -0.3333333   0.3333333  -0.3333333), wk =   0.0092593
        k(    6) = (  -0.4166667   0.4166667  -0.4166667), wk =   0.0092593
        k(    7) = (   0.5000000  -0.5000000   0.5000000), wk =   0.0046296
        k(    8) = (   0.0000000   0.1666667   0.0000000), wk =   0.0069444
        k(    9) = (  -0.0833333   0.2500000  -0.0833333), wk =   0.0277778
        k(   10) = (  -0.1666667   0.3333333  -0.1666667), wk =   0.0277778
        k(   11) = (  -0.2500000   0.4166667  -0.2500000), wk =   0.0277778
        k(   12) = (  -0.3333333   0.5000000  -0.3333333), wk =   0.0277778
        k(   13) = (   0.5833333  -0.4166667   0.5833333), wk =   0.0277778
        k(   14) = (   0.5000000  -0.3333333   0.5000000), wk =   0.0277778
        k(   15) = (   0.4166667  -0.2500000   0.4166667), wk =   0.0277778
        k(   16) = (   0.3333333  -0.1666667   0.3333333), wk =   0.0277778
        k(   17) = (   0.2500000  -0.0833333   0.2500000), wk =   0.0277778
        k(   18) = (   0.1666667  -0.0000000   0.1666667), wk =   0.0138889
        k(   19) = (   0.0000000   0.3333333   0.0000000), wk =   0.0069444
        k(   20) = (  -0.0833333   0.4166667  -0.0833333), wk =   0.0277778
        k(   21) = (  -0.1666667   0.5000000  -0.1666667), wk =   0.0277778
        k(   22) = (  -0.2500000   0.5833333  -0.2500000), wk =   0.0277778
        k(   23) = (   0.6666667  -0.3333333   0.6666667), wk =   0.0277778
        k(   24) = (   0.5833333  -0.2500000   0.5833333), wk =   0.0277778
        k(   25) = (   0.5000000  -0.1666667   0.5000000), wk =   0.0277778
        k(   26) = (   0.4166667  -0.0833333   0.4166667), wk =   0.0277778
        k(   27) = (   0.3333333   0.0000000   0.3333333), wk =   0.0138889
        k(   28) = (   0.0000000   0.5000000   0.0000000), wk =   0.0069444
        k(   29) = (  -0.0833333   0.5833333  -0.0833333), wk =   0.0277778
        k(   30) = (  -0.1666667   0.6666667  -0.1666667), wk =   0.0277778
        k(   31) = (   0.7500000  -0.2500000   0.7500000), wk =   0.0277778
        k(   32) = (   0.6666667  -0.1666667   0.6666667), wk =   0.0277778
        k(   33) = (   0.5833333  -0.0833333   0.5833333), wk =   0.0277778
        k(   34) = (   0.5000000   0.0000000   0.5000000), wk =   0.0138889
        k(   35) = (   0.0000000   0.6666667   0.0000000), wk =   0.0069444
        k(   36) = (  -0.0833333   0.7500000  -0.0833333), wk =   0.0277778
        k(   37) = (   0.8333333  -0.1666667   0.8333333), wk =   0.0277778
        k(   38) = (   0.7500000  -0.0833333   0.7500000), wk =   0.0277778
        k(   39) = (   0.6666667  -0.0000000   0.6666667), wk =   0.0138889
        k(   40) = (   0.0000000   0.8333333   0.0000000), wk =   0.0069444
        k(   41) = (   0.9166667  -0.0833333   0.9166667), wk =   0.0277778
        k(   42) = (   0.8333333   0.0000000   0.8333333), wk =   0.0138889
        k(   43) = (   0.0000000  -1.0000000   0.0000000), wk =   0.0034722
        k(   44) = (  -0.1666667   0.3333333   0.0000000), wk =   0.0277778
        k(   45) = (  -0.2500000   0.4166667  -0.0833333), wk =   0.0555556
        k(   46) = (  -0.3333333   0.5000000  -0.1666667), wk =   0.0555556
        k(   47) = (   0.5833333  -0.4166667   0.7500000), wk =   0.0555556
        k(   48) = (   0.5000000  -0.3333333   0.6666667), wk =   0.0277778
        k(   49) = (  -0.1666667   0.5000000   0.0000000), wk =   0.0277778
        k(   50) = (  -0.2500000   0.5833333  -0.0833333), wk =   0.0555556
        k(   51) = (   0.6666667  -0.3333333   0.8333333), wk =   0.0555556
        k(   52) = (   0.5833333  -0.2500000   0.7500000), wk =   0.0555556
        k(   53) = (   0.5000000  -0.1666667   0.6666667), wk =   0.0555556
        k(   54) = (   0.4166667  -0.0833333   0.5833333), wk =   0.0555556
        k(   55) = (   0.3333333   0.0000000   0.5000000), wk =   0.0277778
        k(   56) = (  -0.1666667   0.6666667  -0.0000000), wk =   0.0277778
        k(   57) = (   0.7500000  -0.2500000   0.9166667), wk =   0.0555556
        k(   58) = (   0.6666667  -0.1666667   0.8333333), wk =   0.0555556
        k(   59) = (   0.5833333  -0.0833333   0.7500000), wk =   0.0555556
        k(   60) = (   0.5000000   0.0000000   0.6666667), wk =   0.0277778
        k(   61) = (   0.8333333  -0.1666667   1.0000000), wk =   0.0277778
        k(   62) = (   0.7500000  -0.0833333   0.9166667), wk =   0.0555556
        k(   63) = (   0.6666667   0.0000000   0.8333333), wk =   0.0277778
        k(   64) = (  -0.1666667  -1.0000000  -0.0000000), wk =   0.0138889
        k(   65) = (   0.6666667  -0.3333333   1.0000000), wk =   0.0277778
        k(   66) = (   0.5833333  -0.2500000   0.9166667), wk =   0.0555556
        k(   67) = (   0.5000000  -0.1666667   0.8333333), wk =   0.0277778
        k(   68) = (   0.6666667  -0.1666667   1.0000000), wk =   0.0277778
        k(   69) = (   0.5833333  -0.0833333   0.9166667), wk =   0.0555556
        k(   70) = (   0.5000000   0.0000000   0.8333333), wk =   0.0277778
        k(   71) = (  -0.3333333  -1.0000000   0.0000000), wk =   0.0138889
        k(   72) = (  -0.5000000  -1.0000000   0.0000000), wk =   0.0069444

     Dense  grid:     3479 G-vectors     FFT dimensions: (  24,  24,  24)

     Estimated max dynamical RAM per process >      10.29 MB

     Estimated total dynamical RAM >      20.59 MB

     Initial potential from superposition of free atoms
     Check: negative starting charge=   -0.079301

     starting charge   15.49999, renormalised to   16.00000

     negative rho (up, down):  8.186E-02 0.000E+00
     Starting wfcs are   12 randomized atomic wfcs

     total cpu time spent up to now is        0.7 secs

     Self-consistent Calculation

     iteration #  1     ecut=    35.00 Ry     beta= 0.70
     Davidson diagonalization with overlap
     ethr =  1.00E-02,  avg # of iterations =  3.5

     negative rho (up, down):  7.989E-02 0.000E+00

     total cpu time spent up to now is        1.7 secs

     total energy              =    -198.00821642 Ry
     Harris-Foulkes estimate   =    -199.06514469 Ry
     estimated scf accuracy    <       1.44127003 Ry

     iteration #  2     ecut=    35.00 Ry     beta= 0.70
     Davidson diagonalization with overlap
     ethr =  9.01E-03,  avg # of iterations =  2.0

     negative rho (up, down):  8.154E-02 0.000E+00

     total cpu time spent up to now is        2.5 secs

     total energy              =    -198.33205270 Ry
     Harris-Foulkes estimate   =    -199.20785652 Ry
     estimated scf accuracy    <       1.84105006 Ry

     iteration #  3     ecut=    35.00 Ry     beta= 0.70
     Davidson diagonalization with overlap
     ethr =  9.01E-03,  avg # of iterations =  2.0

     negative rho (up, down):  8.164E-02 0.000E+00

     total cpu time spent up to now is        3.2 secs

     total energy              =    -198.68592029 Ry
     Harris-Foulkes estimate   =    -198.68633671 Ry
     estimated scf accuracy    <       0.00094743 Ry

     iteration #  4     ecut=    35.00 Ry     beta= 0.70
     Davidson diagonalization with overlap
     ethr =  5.92E-06,  avg # of iterations =  2.7

     negative rho (up, down):  8.176E-02 0.000E+00

     total cpu time spent up to now is        4.0 secs

     total energy              =    -198.68634126 Ry
     Harris-Foulkes estimate   =    -198.68633989 Ry
     estimated scf accuracy    <       0.00000150 Ry

     iteration #  5     ecut=    35.00 Ry     beta= 0.70
     Davidson diagonalization with overlap
     ethr =  9.38E-09,  avg # of iterations =  2.0

     negative rho (up, down):  8.178E-02 0.000E+00

     total cpu time spent up to now is        4.8 secs

     End of self-consistent calculation

          k = 0.0000 0.0000 0.0000 (   411 PWs)   bands (ev):

   -35.3761 -35.3761 -35.3761   8.1964  11.8186  11.8186  11.8186  12.9512
    12.9512  31.1671  34.6970  34.6970

          k =-0.0833 0.0833-0.0833 (   423 PWs)   bands (ev):

   -35.3889 -35.3780 -35.3780   8.4059  11.7608  11.8793  11.8793  12.9263
    12.9263  31.1961  33.1191  34.7883

          k =-0.1667 0.1667-0.1667 (   426 PWs)   bands (ev):

   -35.4224 -35.3831 -35.3831   8.9846  11.6643  12.0038  12.0038  12.9157
    12.9157  29.6361  32.0306  34.9425

          k =-0.2500 0.2500-0.2500 (   429 PWs)   bands (ev):

   -35.4685 -35.3901 -35.3901   9.6845  11.8238  12.0326  12.0326  13.0701
    13.0701  26.6536  31.7406  34.8026

          k =-0.3333 0.3333-0.3333 (   425 PWs)   bands (ev):

   -35.5142 -35.3970 -35.3970  10.0076  11.9388  11.9388  12.7562  13.3849
    13.3849  23.6564  31.1168  34.1240

          k =-0.4167 0.4167-0.4167 (   422 PWs)   bands (ev):

   -35.5475 -35.4020 -35.4020  10.0111  11.8370  11.8370  13.6754  13.6754
    14.2845  21.0094  30.5857  33.3741

          k = 0.5000-0.5000 0.5000 (   434 PWs)   bands (ev):

   -35.5598 -35.4040 -35.4040   9.9859  11.7956  11.7956  13.7907  13.7907
    15.2895  19.6453  30.3898  33.0703

          k = 0.0000 0.1667 0.0000 (   427 PWs)   bands (ev):

   -35.3885 -35.3810 -35.3810   8.4760  11.6944  11.9267  11.9267  12.8272
    13.0022  31.3023  33.6730  34.0280

          k =-0.0833 0.2500-0.0833 (   433 PWs)   bands (ev):

   -35.4137 -35.3870 -35.3845   8.9360  11.5605  12.0586  12.0630  12.7320
    13.0535  30.6665  31.9962  33.4252

          k =-0.1667 0.3333-0.1667 (   435 PWs)   bands (ev):

   -35.4547 -35.3945 -35.3905   9.6335  11.5207  12.0795  12.1450  12.8928
    13.1942  27.8050  31.7499  32.8886

          k =-0.2500 0.4167-0.2500 (   431 PWs)   bands (ev):

   -35.4995 -35.4014 -35.3983  10.1025  11.9049  11.9883  12.0912  13.4653
    13.4756  24.7523  31.2287  32.4017

          k =-0.3333 0.5000-0.3333 (   429 PWs)   bands (ev):

   -35.5359 -35.4061 -35.4058  10.1518  11.7791  11.9836  12.7464  13.7188
    14.5520  21.9163  30.6433  32.1195

          k = 0.5833-0.4167 0.5833 (   430 PWs)   bands (ev):

   -35.5545 -35.4115 -35.4068  10.1171  11.7103  11.9091  13.2032  13.7989
    15.8531  19.8592  30.2641  32.1447

          k = 0.5000-0.3333 0.5000 (   431 PWs)   bands (ev):

   -35.5504 -35.4132 -35.4040  10.1314  11.7378  11.9079  13.2057  13.6448
    15.5170  20.3866  30.1616  31.8857

          k = 0.4167-0.2500 0.4167 (   431 PWs)   bands (ev):

   -35.5250 -35.4106 -35.3979  10.1711  11.8399  11.9866  12.6463  13.3088
    14.3179  22.8317  30.3194  32.3041

          k = 0.3333-0.1667 0.3333 (   429 PWs)   bands (ev):

   -35.4847 -35.4040 -35.3905  10.0170  11.7566  12.0467  12.1036  12.9292
    13.6007  25.7696  30.6580  33.2395

          k = 0.2500-0.0833 0.2500 (   435 PWs)   bands (ev):

   -35.4407 -35.3954 -35.3837   9.3976  11.5424  12.0796  12.1165  12.7272
    13.1890  28.8131  31.0293  33.9824

          k = 0.1667-0.0000 0.1667 (   425 PWs)   bands (ev):

   -35.4053 -35.3859 -35.3790   8.7424  11.6518  11.9679  11.9979  12.8017
    13.0059  31.0701  31.7695  33.9115

          k = 0.0000 0.3333 0.0000 (   435 PWs)   bands (ev):

   -35.4209 -35.3941 -35.3941   9.2486  11.3685  12.2458  12.2458  12.5532
    13.1459  31.6334  32.1979  32.1979

          k =-0.0833 0.4167-0.0833 (   432 PWs)   bands (ev):

   -35.4507 -35.4023 -35.4010   9.8260  11.1997  12.2011  12.4144  12.8044
    13.2775  29.1865  31.2535  31.6991

          k =-0.1667 0.5000-0.1667 (   439 PWs)   bands (ev):

   -35.4886 -35.4101 -35.4099  10.3425  11.2608  11.9652  12.4258  13.5230
    13.6246  26.0892  30.6151  30.9898

          k =-0.2500 0.5833-0.2500 (   433 PWs)   bands (ev):

   -35.5217 -35.4209 -35.4143  10.4361  11.5602  11.9645  12.3311  13.7606
    14.9289  23.1153  29.9154  30.3765

          k = 0.6667-0.3333 0.6667 (   428 PWs)   bands (ev):

   -35.5415 -35.4308 -35.4146  10.4211  11.5120  12.2307  12.3746  13.8206
    16.5956  20.5703  28.8958  30.6696

          k = 0.5833-0.2500 0.5833 (   434 PWs)   bands (ev):

   -35.5433 -35.4369 -35.4110  10.4564  11.5134  12.1832  12.5324  13.6399
    17.1082  20.0293  28.1598  31.5518

          k = 0.5000-0.1667 0.5000 (   431 PWs)   bands (ev):

   -35.5269 -35.4367 -35.4041  10.5479  11.6125  12.2154  12.2489  13.2704
    15.6925  22.3075  27.8269  31.9384

          k = 0.4167-0.0833 0.4167 (   428 PWs)   bands (ev):

   -35.4983 -35.4288 -35.3957  10.5657  11.5266  11.9114  12.3266  12.8275
    14.5186  25.1674  27.9008  32.8277

          k = 0.3333 0.0000 0.3333 (   441 PWs)   bands (ev):

   -35.4669 -35.4139 -35.3884  10.0728  11.3772  12.0376  12.3765  12.5454
    13.7107  27.9697  28.5022  34.1875

          k = 0.0000 0.5000 0.0000 (   431 PWs)   bands (ev):

   -35.4650 -35.4116 -35.4116  10.1332  10.9533  12.5893  12.7358  12.7358
    13.3484  29.9592  29.9592  30.8618

          k =-0.0833 0.5833-0.0833 (   435 PWs)   bands (ev):

   -35.4915 -35.4216 -35.4200  10.4102  10.8086  12.4771  12.8819  13.5415
    13.6512  27.5043  29.0746  29.5552

          k =-0.1667 0.6667-0.1667 (   429 PWs)   bands (ev):

   -35.5157 -35.4351 -35.4250  10.5018  10.9205  12.3067  12.8230  13.7862
    15.1427  24.5467  28.0460  28.7009

          k = 0.7500-0.2500 0.7500 (   431 PWs)   bands (ev):

   -35.5293 -35.4515 -35.4255  10.5413  11.1430  12.1921  12.7084  13.8523
    17.0406  21.8111  26.7318  28.9399

          k = 0.6667-0.1667 0.6667 (   428 PWs)   bands (ev):

   -35.5289 -35.4653 -35.4212  10.6751  11.3049  12.0952  12.6108  13.6705
    18.7586  19.9815  25.7052  29.8200

          k = 0.5833-0.0833 0.5833 (   427 PWs)   bands (ev):

   -35.5185 -35.4693 -35.4134  10.8899  11.4377  11.8628  12.5575  13.3092
    17.2593  22.1063  25.0749  31.2524

          k = 0.5000 0.0000 0.5000 (   423 PWs)   bands (ev):

   -35.5081 -35.4551 -35.4040  11.0364  11.3983  11.7143  12.5195  12.9337
    15.7322  24.8720  24.9578  32.3042

          k = 0.0000 0.6667 0.0000 (   432 PWs)   bands (ev):

   -35.5083 -35.4291 -35.4291  10.3160  10.5665  13.3089  13.3089  13.5568
    13.8265  27.7558  27.9341  27.9341

          k =-0.0833 0.7500-0.0833 (   438 PWs)   bands (ev):

   -35.5254 -35.4400 -35.4353  10.2954  10.4827  13.1853  13.3515  13.7851
    15.2917  25.7877  26.2980  27.3428

          k = 0.8333-0.1667 0.8333 (   431 PWs)   bands (ev):

   -35.5319 -35.4572 -35.4361  10.3476  10.6234  12.8543  13.2380  13.8915
    17.2225  23.3397  24.8086  27.4254

          k = 0.7500-0.0833 0.7500 (   433 PWs)   bands (ev):

   -35.5235 -35.4793 -35.4320  10.4985  10.9273  12.4349  13.0877  13.7434
    19.4237  21.0464  23.6677  28.1994

          k = 0.6667-0.0000 0.6667 (   431 PWs)   bands (ev):

   -35.5013 -35.5010 -35.4236  10.7427  11.2927  11.9678  12.8786  13.4792
    19.0188  21.5893  23.2193  29.5446

          k = 0.0000 0.8333 0.0000 (   440 PWs)   bands (ev):

   -35.5391 -35.4422 -35.4422  10.1082  10.2981  13.7117  13.8044  13.8044
    15.8722  24.3883  26.5082  26.5082

          k = 0.9167-0.0833 0.9167 (   439 PWs)   bands (ev):

   -35.5446 -35.4506 -35.4440  10.1079  10.3003  13.6410  13.6470  13.9472
    17.2440  23.1270  25.1838  26.3701

          k = 0.8333 0.0000 0.8333 (   432 PWs)   bands (ev):

   -35.5369 -35.4661 -35.4402  10.2599  10.5211  13.0889  13.4604  13.8679
    18.7252  22.4523  23.3400  26.9755

          k = 0.0000-1.0000 0.0000 (   444 PWs)   bands (ev):

   -35.5507 -35.4470 -35.4470  10.0026  10.2028  13.7700  14.0068  14.0068
    17.2185  22.5999  25.9866  25.9866

          k =-0.1667 0.3333 0.0000 (   431 PWs)   bands (ev):

   -35.4376 -35.3993 -35.3880   9.4747  11.3957  12.1230  12.2502  12.6668
    13.2262  29.9526  30.2008  33.6130

          k =-0.2500 0.4167-0.0833 (   432 PWs)   bands (ev):

   -35.4736 -35.4116 -35.3940  10.1447  11.3569  11.9778  12.3562  12.8730
    13.6711  27.0323  29.6212  32.8487

          k =-0.3333 0.5000-0.1667 (   430 PWs)   bands (ev):

   -35.5108 -35.4209 -35.4017  10.4151  11.7635  11.8168  12.2824  13.3132
    14.4944  24.0131  29.3185  31.5841

          k = 0.5833-0.4167 0.7500 (   430 PWs)   bands (ev):

   -35.5382 -35.4263 -35.4083  10.3794  11.6068  12.1299  12.4736  13.6384
    15.8237  21.2858  29.3096  30.5798

          k = 0.5000-0.3333 0.6667 (   430 PWs)   bands (ev):

   -35.5482 -35.4279 -35.4110  10.3483  11.5480  12.1056  12.7019  13.7408
    16.9348  19.7154  29.5060  30.0344

          k =-0.1667 0.5000 0.0000 (   432 PWs)   bands (ev):

   -35.4756 -35.4174 -35.4059  10.3247  11.0275  12.0788  12.7322  12.9957
    13.6618  28.2995  28.6701  31.3177

          k =-0.2500 0.5833-0.0833 (   432 PWs)   bands (ev):

   -35.5033 -35.4314 -35.4128  10.6377  11.1019  11.8852  12.7586  13.3815
    14.6270  25.4176  28.0794  29.8322

          k = 0.6667-0.3333 0.8333 (   435 PWs)   bands (ev):

   -35.5251 -35.4430 -35.4191  10.6386  11.3372  11.8780  12.6319  13.6848
    16.1471  22.5478  28.0480  28.5039

          k = 0.5833-0.2500 0.7500 (   429 PWs)   bands (ev):

   -35.5347 -35.4515 -35.4203  10.6698  11.3187  12.1035  12.5009  13.7346
    17.9530  20.1845  27.4108  28.5151

          k = 0.5000-0.1667 0.6667 (   426 PWs)   bands (ev):

   -35.5302 -35.4548 -35.4162  10.7619  11.3455  12.0457  12.4841  13.5591
    17.4201  20.9609  26.6938  29.3710

          k = 0.4167-0.0833 0.5833 (   425 PWs)   bands (ev):

   -35.5147 -35.4493 -35.4084  10.8787  11.4964  11.6112  12.5946  13.2045
    15.8003  23.6090  26.4226  30.4769

          k = 0.3333 0.0000 0.5000 (   426 PWs)   bands (ev):

   -35.4943 -35.4333 -35.4001  10.7673  11.2138  11.7552  12.7244  12.7601
    14.5588  26.3505  26.7918  31.7307

          k =-0.1667 0.6667-0.0000 (   436 PWs)   bands (ev):

   -35.5107 -35.4357 -35.4259  10.5003  10.6763  12.5038  13.3040  13.4522
    14.7459  26.7175  26.9991  27.9235

          k = 0.7500-0.2500 0.9167 (   431 PWs)   bands (ev):

   -35.5235 -35.4511 -35.4314  10.5454  10.7835  12.3306  13.1944  13.7232
    16.3799  24.0584  26.3314  26.8533

          k = 0.6667-0.1667 0.8333 (   432 PWs)   bands (ev):

   -35.5248 -35.4691 -35.4319  10.6316  11.0225  12.1281  12.9766  13.7939
    18.4168  21.5024  25.1525  27.2016

          k = 0.5833-0.0833 0.7500 (   427 PWs)   bands (ev):

   -35.5150 -35.4841 -35.4266  10.8352  11.2429  11.8581  12.8198  13.6226
    19.1949  20.8763  24.2240  28.0935

          k = 0.5000 0.0000 0.6667 (   423 PWs)   bands (ev):

   -35.5115 -35.4769 -35.4178  11.1082  11.4122  11.4700  12.7696  13.3311
    17.3595  23.3261  23.8814  29.2605

          k = 0.8333-0.1667 1.0000 (   435 PWs)   bands (ev):

   -35.5349 -35.4490 -35.4411  10.2738  10.4312  13.0927  13.6302  13.8021
    16.6591  24.3916  25.7295  25.7841

          k = 0.7500-0.0833 0.9167 (   434 PWs)   bands (ev):

   -35.5328 -35.4646 -35.4422  10.3758  10.5963  12.7701  13.3784  13.9167
    18.4789  22.9388  23.7737  26.0315

          k = 0.6667 0.0000 0.8333 (   431 PWs)   bands (ev):

   -35.5184 -35.4851 -35.4364  10.5760  10.9344  12.2819  13.1092  13.8011
    20.2594  21.1092  22.9497  26.8893

          k =-0.1667-1.0000-0.0000 (   436 PWs)   bands (ev):

   -35.5437 -35.4538 -35.4469  10.1624  10.3440  13.4025  13.6009  14.0074
    18.0457  22.5898  25.2517  25.3163

          k = 0.6667-0.3333 1.0000 (   431 PWs)   bands (ev):

   -35.5137 -35.4531 -35.4199  10.9733  10.9946  11.6966  13.1023  13.2996
    15.9868  25.0586  25.2156  28.3944

          k = 0.5833-0.2500 0.9167 (   428 PWs)   bands (ev):

   -35.5189 -35.4692 -35.4272  10.9696  11.1634  11.6482  12.9087  13.6178
    17.7165  22.3829  25.2925  27.1501

          k = 0.5000-0.1667 0.8333 (   428 PWs)   bands (ev):

   -35.5202 -35.4752 -35.4304  11.0504  11.0658  11.7561  12.7844  13.7381
    19.5188  20.2272  25.6770  26.3985

          k = 0.6667-0.1667 1.0000 (   427 PWs)   bands (ev):

   -35.5227 -35.4674 -35.4390  10.6801  10.8257  12.1273  13.2283  13.7977
    18.0582  23.9770  24.0459  25.3291

          k = 0.5833-0.0833 0.9167 (   428 PWs)   bands (ev):

   -35.5129 -35.4852 -35.4417  10.7788  11.0961  11.8403  12.9899  13.9055
    20.0731  21.6522  23.7072  25.0573

          k = 0.5000 0.0000 0.8333 (   432 PWs)   bands (ev):

   -35.5051 -35.4930 -35.4368  10.9287  11.3775  11.4611  12.9127  13.7933
    19.5468  22.1223  23.2888  25.9407

          k =-0.3333-1.0000 0.0000 (   430 PWs)   bands (ev):

   -35.5247 -35.4728 -35.4474  10.5492  10.7631  12.3697  13.1876  14.0079
    19.7267  22.5769  23.6020  24.3547

          k =-0.5000-1.0000 0.0000 (   444 PWs)   bands (ev):

   -35.4990 -35.4990 -35.4478  10.8012  11.4485  11.4485  12.9183  14.0077
    21.6603  21.6603  22.5770  23.9703

     the Fermi energy is    13.8785 ev

!    total energy              =    -198.68634157 Ry
     Harris-Foulkes estimate   =    -198.68634148 Ry
     estimated scf accuracy    <       0.00000007 Ry

     The total energy is the sum of the following terms:

     one-electron contribution =     -60.30370167 Ry
     hartree contribution      =      41.43241972 Ry
     xc contribution           =     -31.24352525 Ry
     ewald contribution        =    -148.57274574 Ry
     smearing contrib. (-TS)   =       0.00121137 Ry

     convergence has been achieved in   5 iterations

     Writing output data file Pd-kp-conv.save/
 
     init_run     :      0.62s CPU      0.66s WALL (       1 calls)
     electrons    :      3.75s CPU      4.38s WALL (       1 calls)

     Called by init_run:
     wfcinit      :      0.27s CPU      0.29s WALL (       1 calls)
     potinit      :      0.01s CPU      0.02s WALL (       1 calls)
     hinit0       :      0.32s CPU      0.33s WALL (       1 calls)

     Called by electrons:
     c_bands      :      3.11s CPU      3.32s WALL (       5 calls)
     sum_band     :      0.58s CPU      0.62s WALL (       5 calls)
     v_of_rho     :      0.03s CPU      0.03s WALL (       6 calls)
     newd         :      0.04s CPU      0.05s WALL (       6 calls)
     mix_rho      :      0.00s CPU      0.00s WALL (       5 calls)

     Called by c_bands:
     init_us_2    :      0.08s CPU      0.08s WALL (     792 calls)
     cegterg      :      2.90s CPU      3.10s WALL (     360 calls)

     Called by sum_band:
     sum_band:bec :      0.00s CPU      0.00s WALL (     360 calls)
     addusdens    :      0.04s CPU      0.04s WALL (       5 calls)

     Called by *egterg:
     h_psi        :      2.55s CPU      2.72s WALL (    1313 calls)
     s_psi        :      0.03s CPU      0.04s WALL (    1313 calls)
     g_psi        :      0.02s CPU      0.03s WALL (     881 calls)
     cdiaghg      :      0.32s CPU      0.34s WALL (    1241 calls)

     Called by h_psi:
     h_psi:pot    :      2.54s CPU      2.71s WALL (    1313 calls)
     h_psi:calbec :      0.05s CPU      0.05s WALL (    1313 calls)
     vloc_psi     :      2.44s CPU      2.61s WALL (    1313 calls)
     add_vuspsi   :      0.04s CPU      0.04s WALL (    1313 calls)

     General routines
     calbec       :      0.06s CPU      0.06s WALL (    1673 calls)
     fft          :      0.01s CPU      0.01s WALL (      67 calls)
     ffts         :      0.00s CPU      0.00s WALL (       5 calls)
     fftw         :      2.50s CPU      2.65s WALL (   28136 calls)
 
     Parallel routines
     fft_scatt_xy :      0.46s CPU      0.49s WALL (   28208 calls)
     fft_scatt_yz :      0.55s CPU      0.59s WALL (   28208 calls)
 
     PWSCF        :     4.49s CPU         5.40s WALL

 
   This run was terminated on:  22:26:41   2Dec2021            

=------------------------------------------------------------------------------=
   JOB DONE.
=------------------------------------------------------------------------------=
