
     Program PWSCF v.6.3 starts on  2Dec2021 at 22:49:31 

     This program is part of the open-source Quantum ESPRESSO suite
     for quantum simulation of materials; please cite
         "P. Giannozzi et al., J. Phys.:Condens. Matter 21 395502 (2009);
         "P. Giannozzi et al., J. Phys.:Condens. Matter 29 465901 (2017);
          URL http://www.quantum-espresso.org", 
     in publications or presentations arising from this work. More details at
     http://www.quantum-espresso.org/quote

     Parallel version (MPI & OpenMP), running on       2 processor cores
     Number of MPI processes:                 2
     Threads/MPI process:                     1

     MPI processes distributed on     1 nodes
     R & G space division:  proc/nbgrp/npool/nimage =       2
     Reading input from pw-input.in

     Current dimensions of program PWSCF are:
     Max number of different atomic species (ntypx) = 10
     Max number of k-points (npk) =  40000
     Max angular momentum in pseudopotentials (lmaxx) =  3

     Subspace diagonalization in iterative solution of the eigenvalue problem:
     a serial algorithm will be used

 
     Parallelization info
     --------------------
     sticks:   dense  smooth     PW     G-vecs:    dense   smooth      PW
     Min         105     105     42                 1042     1042     229
     Max         106     106     43                 1043     1043     230
     Sum         211     211     85                 2085     2085     459
 

     Title: 
     Pd-kp-conv                                                                 


     bravais-lattice index     =            2
     lattice parameter (alat)  =       6.7000  a.u.
     unit-cell volume          =      75.1908 (a.u.)^3
     number of atoms/cell      =            1
     number of atomic types    =            1
     number of electrons       =        16.00
     number of Kohn-Sham states=           12
     kinetic-energy cutoff     =      35.0000  Ry
     charge density cutoff     =     140.0000  Ry
     convergence threshold     =      1.0E-07
     mixing beta               =       0.7000
     number of iterations used =            8  plain     mixing
     Exchange-correlation      =  SLA  PW   PBX  PBC ( 1  4  3  4 0 0)

     celldm(1)=   6.700000  celldm(2)=   0.000000  celldm(3)=   0.000000
     celldm(4)=   0.000000  celldm(5)=   0.000000  celldm(6)=   0.000000

     crystal axes: (cart. coord. in units of alat)
               a(1) = (  -0.500000   0.000000   0.500000 )  
               a(2) = (   0.000000   0.500000   0.500000 )  
               a(3) = (  -0.500000   0.500000   0.000000 )  

     reciprocal axes: (cart. coord. in units 2 pi/alat)
               b(1) = ( -1.000000 -1.000000  1.000000 )  
               b(2) = (  1.000000  1.000000  1.000000 )  
               b(3) = ( -1.000000  1.000000 -1.000000 )  


     PseudoPot. # 1 for Pd read from file:
     ./pd_pbe_v1.4.uspp.F.UPF
     MD5 check sum: 2d733d2bc2cbfd217af676df1668a4bc
     Pseudo is Ultrasoft + core correction, Zval = 16.0
     Generated by new atomic code, or converted to UPF format
     Using radial grid of  887 points,  6 beta functions with: 
                l(1) =   0
                l(2) =   0
                l(3) =   1
                l(4) =   1
                l(5) =   2
                l(6) =   2
     Q(r) pseudized with  8 coefficients,  rinner =    1.130   1.130   1.130
                                                       1.130   1.130

     atomic species   valence    mass     pseudopotential
        Pd            16.00   106.40000     Pd( 1.00)

     48 Sym. Ops., with inversion, found



   Cartesian axes

     site n.     atom                  positions (alat units)
         1           Pd  tau(   1) = (   0.0000000   0.0000000   0.0000000  )

     number of k points=    72  Marzari-Vanderbilt smearing, width (Ry)=  0.0350
                       cart. coord. in units 2pi/alat
        k(    1) = (   0.0000000   0.0000000   0.0000000), wk =   0.0011574
        k(    2) = (  -0.0833333   0.0833333  -0.0833333), wk =   0.0092593
        k(    3) = (  -0.1666667   0.1666667  -0.1666667), wk =   0.0092593
        k(    4) = (  -0.2500000   0.2500000  -0.2500000), wk =   0.0092593
        k(    5) = (  -0.3333333   0.3333333  -0.3333333), wk =   0.0092593
        k(    6) = (  -0.4166667   0.4166667  -0.4166667), wk =   0.0092593
        k(    7) = (   0.5000000  -0.5000000   0.5000000), wk =   0.0046296
        k(    8) = (   0.0000000   0.1666667   0.0000000), wk =   0.0069444
        k(    9) = (  -0.0833333   0.2500000  -0.0833333), wk =   0.0277778
        k(   10) = (  -0.1666667   0.3333333  -0.1666667), wk =   0.0277778
        k(   11) = (  -0.2500000   0.4166667  -0.2500000), wk =   0.0277778
        k(   12) = (  -0.3333333   0.5000000  -0.3333333), wk =   0.0277778
        k(   13) = (   0.5833333  -0.4166667   0.5833333), wk =   0.0277778
        k(   14) = (   0.5000000  -0.3333333   0.5000000), wk =   0.0277778
        k(   15) = (   0.4166667  -0.2500000   0.4166667), wk =   0.0277778
        k(   16) = (   0.3333333  -0.1666667   0.3333333), wk =   0.0277778
        k(   17) = (   0.2500000  -0.0833333   0.2500000), wk =   0.0277778
        k(   18) = (   0.1666667  -0.0000000   0.1666667), wk =   0.0138889
        k(   19) = (   0.0000000   0.3333333   0.0000000), wk =   0.0069444
        k(   20) = (  -0.0833333   0.4166667  -0.0833333), wk =   0.0277778
        k(   21) = (  -0.1666667   0.5000000  -0.1666667), wk =   0.0277778
        k(   22) = (  -0.2500000   0.5833333  -0.2500000), wk =   0.0277778
        k(   23) = (   0.6666667  -0.3333333   0.6666667), wk =   0.0277778
        k(   24) = (   0.5833333  -0.2500000   0.5833333), wk =   0.0277778
        k(   25) = (   0.5000000  -0.1666667   0.5000000), wk =   0.0277778
        k(   26) = (   0.4166667  -0.0833333   0.4166667), wk =   0.0277778
        k(   27) = (   0.3333333   0.0000000   0.3333333), wk =   0.0138889
        k(   28) = (   0.0000000   0.5000000   0.0000000), wk =   0.0069444
        k(   29) = (  -0.0833333   0.5833333  -0.0833333), wk =   0.0277778
        k(   30) = (  -0.1666667   0.6666667  -0.1666667), wk =   0.0277778
        k(   31) = (   0.7500000  -0.2500000   0.7500000), wk =   0.0277778
        k(   32) = (   0.6666667  -0.1666667   0.6666667), wk =   0.0277778
        k(   33) = (   0.5833333  -0.0833333   0.5833333), wk =   0.0277778
        k(   34) = (   0.5000000   0.0000000   0.5000000), wk =   0.0138889
        k(   35) = (   0.0000000   0.6666667   0.0000000), wk =   0.0069444
        k(   36) = (  -0.0833333   0.7500000  -0.0833333), wk =   0.0277778
        k(   37) = (   0.8333333  -0.1666667   0.8333333), wk =   0.0277778
        k(   38) = (   0.7500000  -0.0833333   0.7500000), wk =   0.0277778
        k(   39) = (   0.6666667  -0.0000000   0.6666667), wk =   0.0138889
        k(   40) = (   0.0000000   0.8333333   0.0000000), wk =   0.0069444
        k(   41) = (   0.9166667  -0.0833333   0.9166667), wk =   0.0277778
        k(   42) = (   0.8333333   0.0000000   0.8333333), wk =   0.0138889
        k(   43) = (   0.0000000  -1.0000000   0.0000000), wk =   0.0034722
        k(   44) = (  -0.1666667   0.3333333   0.0000000), wk =   0.0277778
        k(   45) = (  -0.2500000   0.4166667  -0.0833333), wk =   0.0555556
        k(   46) = (  -0.3333333   0.5000000  -0.1666667), wk =   0.0555556
        k(   47) = (   0.5833333  -0.4166667   0.7500000), wk =   0.0555556
        k(   48) = (   0.5000000  -0.3333333   0.6666667), wk =   0.0277778
        k(   49) = (  -0.1666667   0.5000000   0.0000000), wk =   0.0277778
        k(   50) = (  -0.2500000   0.5833333  -0.0833333), wk =   0.0555556
        k(   51) = (   0.6666667  -0.3333333   0.8333333), wk =   0.0555556
        k(   52) = (   0.5833333  -0.2500000   0.7500000), wk =   0.0555556
        k(   53) = (   0.5000000  -0.1666667   0.6666667), wk =   0.0555556
        k(   54) = (   0.4166667  -0.0833333   0.5833333), wk =   0.0555556
        k(   55) = (   0.3333333   0.0000000   0.5000000), wk =   0.0277778
        k(   56) = (  -0.1666667   0.6666667  -0.0000000), wk =   0.0277778
        k(   57) = (   0.7500000  -0.2500000   0.9166667), wk =   0.0555556
        k(   58) = (   0.6666667  -0.1666667   0.8333333), wk =   0.0555556
        k(   59) = (   0.5833333  -0.0833333   0.7500000), wk =   0.0555556
        k(   60) = (   0.5000000   0.0000000   0.6666667), wk =   0.0277778
        k(   61) = (   0.8333333  -0.1666667   1.0000000), wk =   0.0277778
        k(   62) = (   0.7500000  -0.0833333   0.9166667), wk =   0.0555556
        k(   63) = (   0.6666667   0.0000000   0.8333333), wk =   0.0277778
        k(   64) = (  -0.1666667  -1.0000000  -0.0000000), wk =   0.0138889
        k(   65) = (   0.6666667  -0.3333333   1.0000000), wk =   0.0277778
        k(   66) = (   0.5833333  -0.2500000   0.9166667), wk =   0.0555556
        k(   67) = (   0.5000000  -0.1666667   0.8333333), wk =   0.0277778
        k(   68) = (   0.6666667  -0.1666667   1.0000000), wk =   0.0277778
        k(   69) = (   0.5833333  -0.0833333   0.9166667), wk =   0.0555556
        k(   70) = (   0.5000000   0.0000000   0.8333333), wk =   0.0277778
        k(   71) = (  -0.3333333  -1.0000000   0.0000000), wk =   0.0138889
        k(   72) = (  -0.5000000  -1.0000000   0.0000000), wk =   0.0069444

     Dense  grid:     2085 G-vectors     FFT dimensions: (  18,  18,  18)

     Estimated max dynamical RAM per process >       6.41 MB

     Estimated total dynamical RAM >      12.81 MB

     Initial potential from superposition of free atoms
     Check: negative starting charge=   -0.084526

     starting charge   15.49999, renormalised to   16.00000

     negative rho (up, down):  8.725E-02 0.000E+00
     Starting wfcs are   12 randomized atomic wfcs

     total cpu time spent up to now is        0.6 secs

     Self-consistent Calculation

     iteration #  1     ecut=    35.00 Ry     beta= 0.70
     Davidson diagonalization with overlap
     ethr =  1.00E-02,  avg # of iterations =  3.5

     negative rho (up, down):  8.906E-02 0.000E+00

     total cpu time spent up to now is        1.2 secs

     total energy              =    -198.36361323 Ry
     Harris-Foulkes estimate   =    -198.83017302 Ry
     estimated scf accuracy    <       0.66146010 Ry

     iteration #  2     ecut=    35.00 Ry     beta= 0.70
     Davidson diagonalization with overlap
     ethr =  4.13E-03,  avg # of iterations =  2.0

     negative rho (up, down):  8.987E-02 0.000E+00

     total cpu time spent up to now is        1.7 secs

     total energy              =    -198.54854705 Ry
     Harris-Foulkes estimate   =    -198.70754299 Ry
     estimated scf accuracy    <       0.27741314 Ry

     iteration #  3     ecut=    35.00 Ry     beta= 0.70
     Davidson diagonalization with overlap
     ethr =  1.73E-03,  avg # of iterations =  2.0

     negative rho (up, down):  9.060E-02 0.000E+00

     total cpu time spent up to now is        2.1 secs

     total energy              =    -198.61158867 Ry
     Harris-Foulkes estimate   =    -198.61206057 Ry
     estimated scf accuracy    <       0.00109640 Ry

     iteration #  4     ecut=    35.00 Ry     beta= 0.70
     Davidson diagonalization with overlap
     ethr =  6.85E-06,  avg # of iterations =  2.2

     negative rho (up, down):  9.073E-02 0.000E+00

     total cpu time spent up to now is        2.6 secs

     total energy              =    -198.61183624 Ry
     Harris-Foulkes estimate   =    -198.61184714 Ry
     estimated scf accuracy    <       0.00002031 Ry

     iteration #  5     ecut=    35.00 Ry     beta= 0.70
     Davidson diagonalization with overlap
     ethr =  1.27E-07,  avg # of iterations =  2.0

     negative rho (up, down):  9.077E-02 0.000E+00

     total cpu time spent up to now is        3.0 secs

     End of self-consistent calculation

          k = 0.0000 0.0000 0.0000 (   259 PWs)   bands (ev):

   -23.3421 -23.3421 -23.3421  17.5767  22.6498  22.6498  22.6498  25.1885
    25.1885  45.2228  51.7815  51.7815

          k =-0.0833 0.0833-0.0833 (   271 PWs)   bands (ev):

   -23.4193 -23.3527 -23.3527  17.9033  22.5108  22.7784  22.7784  25.1150
    25.1150  45.6883  49.9492  52.2431

          k =-0.1667 0.1667-0.1667 (   274 PWs)   bands (ev):

   -23.6266 -23.3801 -23.3801  18.7417  22.2934  23.0388  23.0388  25.0560
    25.0560  46.6540  47.1287  53.5049

          k =-0.2500 0.2500-0.2500 (   274 PWs)   bands (ev):

   -23.9036 -23.4174 -23.4174  19.4696  22.7159  23.0842  23.0842  25.3860
    25.3860  44.2002  47.0488  55.1090

          k =-0.3333 0.3333-0.3333 (   256 PWs)   bands (ev):

   -24.1736 -23.4540 -23.4540  19.4897  22.8632  22.8632  24.3663  26.1169
    26.1169  41.2813  45.9854  54.6181

          k =-0.4167 0.4167-0.4167 (   269 PWs)   bands (ev):

   -24.3683 -23.4816 -23.4816  19.2763  22.6317  22.6317  26.4576  26.8133
    26.8133  38.5028  44.8854  52.7899

          k = 0.5000-0.5000 0.5000 (   266 PWs)   bands (ev):

   -24.4385 -23.4915 -23.4915  19.1800  22.5416  22.5416  27.1001  27.1001
    27.5592  37.1561  44.4867  52.0815

          k = 0.0000 0.1667 0.0000 (   267 PWs)   bands (ev):

   -23.4174 -23.3694 -23.3694  18.0130  22.3557  22.8841  22.8841  24.8706
    25.3004  45.8604  50.3029  51.8003

          k =-0.0833 0.2500-0.0833 (   270 PWs)   bands (ev):

   -23.5713 -23.4030 -23.3887  18.6974  22.0478  23.1578  23.1743  24.6233
    25.3995  46.7540  48.1482  52.0782

          k =-0.1667 0.3333-0.1667 (   269 PWs)   bands (ev):

   -23.8195 -23.4437 -23.4207  19.5571  22.0155  23.1610  23.3409  24.9615
    25.6978  45.3625  47.4656  52.5926

          k =-0.2500 0.4167-0.2500 (   265 PWs)   bands (ev):

   -24.0856 -23.4807 -23.4640  19.7711  22.7963  22.9978  23.2044  26.1221
    26.3209  42.4333  46.7074  52.4113

          k =-0.3333 0.5000-0.3333 (   263 PWs)   bands (ev):

   -24.2993 -23.5067 -23.5044  19.5666  22.4726  22.9552  24.4339  26.9258
    27.7711  39.4064  45.5305  51.6145

          k = 0.5833-0.4167 0.5833 (   261 PWs)   bands (ev):

   -24.4073 -23.5373 -23.5084  19.4237  22.3237  22.7836  25.3872  27.1193
    29.2463  37.2636  44.9150  51.2545

          k = 0.5000-0.3333 0.5000 (   262 PWs)   bands (ev):

   -24.3840 -23.5475 -23.4916  19.4675  22.3900  22.7778  25.3428  26.7351
    29.0423  37.7932  45.0230  50.7502

          k = 0.4167-0.2500 0.4167 (   264 PWs)   bands (ev):

   -24.2354 -23.5343 -23.4583  19.6754  22.6293  22.9501  24.2077  25.9272
    27.7469  40.4239  45.8212  51.3686

          k = 0.3333-0.1667 0.3333 (   269 PWs)   bands (ev):

   -23.9984 -23.4999 -23.4179  19.8256  22.5784  23.0804  23.2189  25.0445
    26.5451  43.4357  46.9603  52.5786

          k = 0.2500-0.0833 0.2500 (   270 PWs)   bands (ev):

   -23.7351 -23.4516 -23.3807  19.3183  22.0279  23.1900  23.2721  24.5987
    25.6800  46.1711  47.2465  52.2198

          k = 0.1667-0.0000 0.1667 (   271 PWs)   bands (ev):

   -23.5217 -23.3979 -23.3568  18.4144  22.2557  22.9618  23.0328  24.7996
    25.2864  46.3635  48.5381  51.7894

          k = 0.0000 0.3333 0.0000 (   270 PWs)   bands (ev):

   -23.6170 -23.4432 -23.4432  19.1400  21.6142  23.5693  23.5693  24.1944
    25.6187  47.5381  48.6896  51.1300

          k =-0.0833 0.4167-0.0833 (   272 PWs)   bands (ev):

   -23.7948 -23.4900 -23.4833  19.8558  21.2566  23.4221  23.9313  24.7624
    25.9052  46.8205  48.3536  50.4641

          k =-0.1667 0.5000-0.1667 (   270 PWs)   bands (ev):

   -24.0184 -23.5344 -23.5305  20.1860  21.5072  22.9277  23.9425  26.3800
    26.4696  43.8982  47.6735  49.8407

          k =-0.2500 0.5833-0.2500 (   262 PWs)   bands (ev):

   -24.2128 -23.5971 -23.5538  20.0332  21.9509  23.0108  23.7151  27.0330
    28.5600  40.5781  46.4153  49.4020

          k = 0.6667-0.3333 0.6667 (   263 PWs)   bands (ev):

   -24.3280 -23.6557 -23.5545  19.9490  21.8387  23.4781  23.7549  27.1725
    30.8437  37.6840  45.5570  49.6628

          k = 0.5833-0.2500 0.5833 (   259 PWs)   bands (ev):

   -24.3376 -23.6918 -23.5318  20.0393  21.8507  23.3645  24.0423  26.7208
    31.5086  37.2357  45.2146  48.9533

          k = 0.5000-0.1667 0.5000 (   258 PWs)   bands (ev):

   -24.2434 -23.6918 -23.4917  20.2908  22.0858  23.4303  23.4744  25.8331
    30.0185  39.7834  45.3642  48.9239

          k = 0.4167-0.0833 0.4167 (   265 PWs)   bands (ev):

   -24.0767 -23.6478 -23.4454  20.5985  22.0867  22.7345  23.6785  24.8115
    28.3086  42.9065  45.9698  50.1082

          k = 0.3333 0.0000 0.3333 (   269 PWs)   bands (ev):

   -23.8906 -23.5600 -23.4046  20.2620  21.6571  23.0467  23.8340  24.1609
    26.7964  45.1367  47.0024  51.9996

          k = 0.0000 0.5000 0.0000 (   258 PWs)   bands (ev):

   -23.8789 -23.5430 -23.5430  20.0379  20.7176  24.2812  24.6386  24.6386
    26.0741  47.6780  48.7704  48.7704

          k =-0.0833 0.5833-0.0833 (   263 PWs)   bands (ev):

   -24.0331 -23.6010 -23.5897  20.0963  20.4494  24.0628  24.9564  26.3845
    26.5194  45.4214  47.5140  47.5363

          k =-0.1667 0.6667-0.1667 (   261 PWs)   bands (ev):

   -24.1742 -23.6826 -23.6165  19.9698  20.7031  23.7089  24.8070  27.0984
    28.9162  41.9819  46.0741  46.9407

          k = 0.7500-0.2500 0.7500 (   262 PWs)   bands (ev):

   -24.2516 -23.7804 -23.6172  19.9976  21.1125  23.4542  24.5310  27.2496
    31.8061  38.6230  44.7223  47.2877

          k = 0.6667-0.1667 0.6667 (   261 PWs)   bands (ev):

   -24.2489 -23.8646 -23.5911  20.2774  21.4607  23.2183  24.2971  26.7923
    33.8657  36.8620  43.5751  48.7258

          k = 0.5833-0.0833 0.5833 (   262 PWs)   bands (ev):

   -24.1898 -23.8895 -23.5455  20.7734  21.7513  22.7246  24.1668  25.9254
    32.3344  39.4260  42.8500  49.0699

          k = 0.5000 0.0000 0.5000 (   264 PWs)   bands (ev):

   -24.1319 -23.8055 -23.4922  21.2823  21.7459  22.3233  24.0751  25.0649
    30.2944  42.3614  43.2378  49.1975

          k = 0.0000 0.6667 0.0000 (   266 PWs)   bands (ev):

   -24.1306 -23.6427 -23.6427  19.6798  19.9196  25.9275  25.9275  26.3089
    26.5542  45.7442  45.7442  46.0262

          k =-0.0833 0.7500-0.0833 (   261 PWs)   bands (ev):

   -24.2281 -23.7055 -23.6753  19.4765  19.7719  25.5259  26.0271  27.0938
    28.8537  43.2472  44.6065  44.7579

          k = 0.8333-0.1667 0.8333 (   261 PWs)   bands (ev):

   -24.2634 -23.8114 -23.6793  19.4985  20.0842  24.8125  25.7441  27.3435
    31.9147  40.0711  43.0605  44.9017

          k = 0.7500-0.0833 0.7500 (   261 PWs)   bands (ev):

   -24.2117 -23.9469 -23.6535  19.7780  20.7363  23.9359  25.3777  26.9711
    35.1398  37.2285  41.6740  46.2519

          k = 0.6667-0.0000 0.6667 (   268 PWs)   bands (ev):

   -24.0844 -24.0769 -23.6048  20.2920  21.5171  22.9641  24.8827  26.3323
    34.5998  38.3947  40.9407  48.4803

          k = 0.0000 0.8333 0.0000 (   254 PWs)   bands (ev):

   -24.3074 -23.7146 -23.7146  19.0411  19.3868  26.9257  27.1083  27.1083
    29.0945  43.0447  43.3143  43.3143

          k = 0.9167-0.0833 0.9167 (   259 PWs)   bands (ev):

   -24.3364 -23.7663 -23.7244  18.9948  19.4081  26.5816  26.7436  27.4744
    31.2681  41.4831  41.8976  43.0698

          k = 0.8333 0.0000 0.8333 (   264 PWs)   bands (ev):

   -24.2902 -23.8634 -23.7023  19.2754  19.8887  25.3114  26.2679  27.2743
    33.7252  39.2570  41.1314  44.1713

          k = 0.0000-1.0000 0.0000 (   254 PWs)   bands (ev):

   -24.3712 -23.7409 -23.7409  18.7801  19.2003  27.0656  27.6192  27.6192
    30.6291  41.2883  42.3612  42.3612

          k =-0.1667 0.3333 0.0000 (   274 PWs)   bands (ev):

   -23.7168 -23.4748 -23.4072  19.4589  21.6784  23.2656  23.5698  24.4595
    25.7764  46.9313  47.5094  51.3207

          k =-0.2500 0.4167-0.0833 (   267 PWs)   bands (ev):

   -23.9314 -23.5456 -23.4389  20.2025  21.6803  22.8989  23.7857  24.9034
    26.7039  44.7014  47.3554  51.2229

          k =-0.3333 0.5000-0.1667 (   264 PWs)   bands (ev):

   -24.1505 -23.5977 -23.4810  20.1549  22.4124  22.6820  23.6042  25.8932
    28.1315  41.6818  46.4242  49.8384

          k = 0.5833-0.4167 0.7500 (   261 PWs)   bands (ev):

   -24.3103 -23.6275 -23.5178  19.9314  22.0583  23.2568  23.9300  26.6976
    29.9013  38.6012  45.6388  49.1546

          k = 0.5000-0.3333 0.6667 (   258 PWs)   bands (ev):

   -24.3684 -23.6366 -23.5327  19.8423  21.9295  23.2017  24.3764  26.9696
    31.0336  36.9830  45.3563  49.1120

          k =-0.1667 0.5000 0.0000 (   269 PWs)   bands (ev):

   -23.9413 -23.5790 -23.5088  20.3664  20.8886  23.1766  24.6245  25.1597
    26.6822  45.8198  47.3945  49.6406

          k =-0.2500 0.5833-0.0833 (   266 PWs)   bands (ev):

   -24.1032 -23.6607 -23.5470  20.4178  21.1470  22.8061  24.6594  26.0519
    28.3412  43.1443  46.2379  48.0086

          k = 0.6667-0.3333 0.8333 (   259 PWs)   bands (ev):

   -24.2291 -23.7284 -23.5806  20.2994  21.4793  22.8190  24.3608  26.8137
    30.6015  39.7629  45.7003  46.9460

          k = 0.5833-0.2500 0.7500 (   258 PWs)   bands (ev):

   -24.2843 -23.7803 -23.5875  20.3739  21.4256  23.2180  24.0578  26.9469
    32.8519  37.1071  45.0743  46.9418

          k = 0.5000-0.1667 0.6667 (   261 PWs)   bands (ev):

   -24.2591 -23.8009 -23.5634  20.6053  21.4671  23.0897  24.0141  26.5146
    32.3519  38.0491  44.5103  47.4516

          k = 0.4167-0.0833 0.5833 (   262 PWs)   bands (ev):

   -24.1700 -23.7689 -23.5195  20.8982  21.8125  22.2495  24.2580  25.6674
    30.3137  41.1882  44.4390  48.2036

          k = 0.3333 0.0000 0.5000 (   269 PWs)   bands (ev):

   -24.0523 -23.6754 -23.4727  21.1115  21.3211  22.3688  24.5419  24.6771
    28.3760  43.8261  45.4610  49.5237

          k =-0.1667 0.6667-0.0000 (   257 PWs)   bands (ev):

   -24.1438 -23.6819 -23.6230  20.0163  20.1685  24.1067  25.9179  26.2004
    28.3609  44.3117  45.0204  46.2761

          k = 0.7500-0.2500 0.9167 (   258 PWs)   bands (ev):

   -24.2164 -23.7750 -23.6542  19.9518  20.4090  23.7356  25.6254  26.9109
    30.8874  41.2297  44.4560  44.7311

          k = 0.6667-0.1667 0.8333 (   257 PWs)   bands (ev):

   -24.2208 -23.8849 -23.6558  20.0878  20.9090  23.3041  25.1171  27.0915
    33.8324  38.0633  43.2508  45.1265

          k = 0.5833-0.0833 0.7500 (   262 PWs)   bands (ev):

   -24.1636 -23.9772 -23.6248  20.4829  21.4159  22.7285  24.7494  26.6708
    34.7882  37.6543  41.9945  46.4101

          k = 0.5000 0.0000 0.6667 (   260 PWs)   bands (ev):

   -24.1473 -23.9339 -23.5734  21.0735  21.8197  21.9107  24.6289  25.9793
    32.5483  40.8885  41.3782  47.5215

          k = 0.8333-0.1667 1.0000 (   261 PWs)   bands (ev):

   -24.2816 -23.7571 -23.7115  19.3549  19.6794  25.3402  26.6599  27.1040
    30.8891  42.4787  42.7739  43.0992

          k = 0.7500-0.0833 0.9167 (   260 PWs)   bands (ev):

   -24.2660 -23.8541 -23.7162  19.5154  20.0451  24.6348  26.0562  27.3930
    33.5839  39.8350  41.6810  43.2410

          k = 0.6667 0.0000 0.8333 (   260 PWs)   bands (ev):

   -24.1798 -23.9812 -23.6819  19.9081  20.7709  23.6117  25.4107  27.1067
    36.2338  37.2406  40.9065  44.7218

          k =-0.1667-1.0000-0.0000 (   264 PWs)   bands (ev):

   -24.3302 -23.7845 -23.7445  19.0877  19.5074  26.0185  26.6202  27.6197
    32.4441  41.0696  41.8647  41.9433

          k = 0.6667-0.3333 1.0000 (   260 PWs)   bands (ev):

   -24.1614 -23.7894 -23.5875  20.8761  20.8807  22.4429  25.3818  25.9061
    30.5403  42.5108  43.2278  46.5450

          k = 0.5833-0.2500 0.9167 (   259 PWs)   bands (ev):

   -24.1883 -23.8854 -23.6310  20.7983  21.1902  22.3373  24.9485  26.6544
    32.9811  39.4575  43.0788  45.2537

          k = 0.5000-0.1667 0.8333 (   262 PWs)   bands (ev):

   -24.1945 -23.9216 -23.6497  20.8307  21.1485  22.5090  24.6676  26.9482
    35.0553  37.0043  43.9898  44.0121

          k = 0.6667-0.1667 1.0000 (   259 PWs)   bands (ev):

   -24.2088 -23.8722 -23.7011  20.1288  20.5375  23.3000  25.6814  27.0938
    33.3365  41.2106  41.3769  43.2411

          k = 0.5833-0.0833 0.9167 (   261 PWs)   bands (ev):

   -24.1474 -23.9800 -23.7184  20.2967  21.1279  22.6927  25.1175  27.3627
    36.0890  38.2158  41.6008  42.5236

          k = 0.5000 0.0000 0.8333 (   265 PWs)   bands (ev):

   -24.1030 -24.0273 -23.6876  20.5836  21.7629  21.8942  24.9410  27.0845
    35.4535  38.8932  40.8712  43.8657

          k =-0.3333-1.0000 0.0000 (   262 PWs)   bands (ev):

   -24.2175 -23.9024 -23.7511  19.8394  20.4144  23.7899  25.5852  27.6221
    35.2753  40.3710  40.5665  41.4770

          k =-0.5000-1.0000 0.0000 (   264 PWs)   bands (ev):

   -24.0612 -24.0612 -23.7546  20.3354  21.8687  21.8687  24.9432  27.6229
    38.0521  38.0521  40.3333  41.3224

     the Fermi energy is    27.1426 ev

!    total energy              =    -198.61184087 Ry
     Harris-Foulkes estimate   =    -198.61184086 Ry
     estimated scf accuracy    <       0.00000006 Ry

     The total energy is the sum of the following terms:

     one-electron contribution =     -19.95275708 Ry
     hartree contribution      =      28.19769967 Ry
     xc contribution           =     -31.67387427 Ry
     ewald contribution        =    -175.18278975 Ry
     smearing contrib. (-TS)   =      -0.00011944 Ry

     convergence has been achieved in   5 iterations

     Writing output data file Pd-kp-conv.save/
 
     init_run     :      0.47s CPU      0.52s WALL (       1 calls)
     electrons    :      2.22s CPU      2.79s WALL (       1 calls)

     Called by init_run:
     wfcinit      :      0.17s CPU      0.18s WALL (       1 calls)
     potinit      :      0.00s CPU      0.02s WALL (       1 calls)
     hinit0       :      0.29s CPU      0.30s WALL (       1 calls)

     Called by electrons:
     c_bands      :      1.87s CPU      2.03s WALL (       5 calls)
     sum_band     :      0.31s CPU      0.34s WALL (       5 calls)
     v_of_rho     :      0.01s CPU      0.01s WALL (       6 calls)
     newd         :      0.02s CPU      0.03s WALL (       6 calls)
     mix_rho      :      0.00s CPU      0.00s WALL (       5 calls)

     Called by c_bands:
     init_us_2    :      0.05s CPU      0.05s WALL (     792 calls)
     cegterg      :      1.73s CPU      1.88s WALL (     360 calls)

     Called by sum_band:
     sum_band:bec :      0.00s CPU      0.00s WALL (     360 calls)
     addusdens    :      0.02s CPU      0.02s WALL (       5 calls)

     Called by *egterg:
     h_psi        :      1.39s CPU      1.51s WALL (    1273 calls)
     s_psi        :      0.02s CPU      0.03s WALL (    1273 calls)
     g_psi        :      0.02s CPU      0.02s WALL (     841 calls)
     cdiaghg      :      0.30s CPU      0.32s WALL (    1201 calls)

     Called by h_psi:
     h_psi:pot    :      1.38s CPU      1.50s WALL (    1273 calls)
     h_psi:calbec :      0.04s CPU      0.04s WALL (    1273 calls)
     vloc_psi     :      1.31s CPU      1.42s WALL (    1273 calls)
     add_vuspsi   :      0.03s CPU      0.03s WALL (    1273 calls)

     General routines
     calbec       :      0.04s CPU      0.04s WALL (    1633 calls)
     fft          :      0.01s CPU      0.01s WALL (      67 calls)
     ffts         :      0.00s CPU      0.00s WALL (       5 calls)
     fftw         :      1.35s CPU      1.47s WALL (   27700 calls)
 
     Parallel routines
     fft_scatt_xy :      0.23s CPU      0.26s WALL (   27772 calls)
     fft_scatt_yz :      0.37s CPU      0.41s WALL (   27772 calls)
 
     PWSCF        :     2.81s CPU         3.65s WALL

 
   This run was terminated on:  22:49:34   2Dec2021            

=------------------------------------------------------------------------------=
   JOB DONE.
=------------------------------------------------------------------------------=
