
     Program PWSCF v.6.3 starts on  2Dec2021 at 23:11:40 

     This program is part of the open-source Quantum ESPRESSO suite
     for quantum simulation of materials; please cite
         "P. Giannozzi et al., J. Phys.:Condens. Matter 21 395502 (2009);
         "P. Giannozzi et al., J. Phys.:Condens. Matter 29 465901 (2017);
          URL http://www.quantum-espresso.org", 
     in publications or presentations arising from this work. More details at
     http://www.quantum-espresso.org/quote

     Parallel version (MPI & OpenMP), running on       2 processor cores
     Number of MPI processes:                 2
     Threads/MPI process:                     1

     MPI processes distributed on     1 nodes
     R & G space division:  proc/nbgrp/npool/nimage =       2
     Reading input from pw-input.in

     Current dimensions of program PWSCF are:
     Max number of different atomic species (ntypx) = 10
     Max number of k-points (npk) =  40000
     Max angular momentum in pseudopotentials (lmaxx) =  3

     Subspace diagonalization in iterative solution of the eigenvalue problem:
     a serial algorithm will be used

 
     Parallelization info
     --------------------
     sticks:   dense  smooth     PW     G-vecs:    dense   smooth      PW
     Min         126     126     42                 1318     1318     267
     Max         127     127     43                 1319     1319     270
     Sum         253     253     85                 2637     2637     537
 

     Title: 
     Pd-kp-conv                                                                 


     bravais-lattice index     =            2
     lattice parameter (alat)  =       7.2000  a.u.
     unit-cell volume          =      93.3120 (a.u.)^3
     number of atoms/cell      =            1
     number of atomic types    =            1
     number of electrons       =        16.00
     number of Kohn-Sham states=           12
     kinetic-energy cutoff     =      35.0000  Ry
     charge density cutoff     =     140.0000  Ry
     convergence threshold     =      1.0E-07
     mixing beta               =       0.7000
     number of iterations used =            8  plain     mixing
     Exchange-correlation      =  SLA  PW   PBX  PBC ( 1  4  3  4 0 0)

     celldm(1)=   7.200000  celldm(2)=   0.000000  celldm(3)=   0.000000
     celldm(4)=   0.000000  celldm(5)=   0.000000  celldm(6)=   0.000000

     crystal axes: (cart. coord. in units of alat)
               a(1) = (  -0.500000   0.000000   0.500000 )  
               a(2) = (   0.000000   0.500000   0.500000 )  
               a(3) = (  -0.500000   0.500000   0.000000 )  

     reciprocal axes: (cart. coord. in units 2 pi/alat)
               b(1) = ( -1.000000 -1.000000  1.000000 )  
               b(2) = (  1.000000  1.000000  1.000000 )  
               b(3) = ( -1.000000  1.000000 -1.000000 )  


     PseudoPot. # 1 for Pd read from file:
     ./pd_pbe_v1.4.uspp.F.UPF
     MD5 check sum: 2d733d2bc2cbfd217af676df1668a4bc
     Pseudo is Ultrasoft + core correction, Zval = 16.0
     Generated by new atomic code, or converted to UPF format
     Using radial grid of  887 points,  6 beta functions with: 
                l(1) =   0
                l(2) =   0
                l(3) =   1
                l(4) =   1
                l(5) =   2
                l(6) =   2
     Q(r) pseudized with  8 coefficients,  rinner =    1.130   1.130   1.130
                                                       1.130   1.130

     atomic species   valence    mass     pseudopotential
        Pd            16.00   106.40000     Pd( 1.00)

     48 Sym. Ops., with inversion, found



   Cartesian axes

     site n.     atom                  positions (alat units)
         1           Pd  tau(   1) = (   0.0000000   0.0000000   0.0000000  )

     number of k points=    16  Marzari-Vanderbilt smearing, width (Ry)=  0.0400
                       cart. coord. in units 2pi/alat
        k(    1) = (   0.0000000   0.0000000   0.0000000), wk =   0.0092593
        k(    2) = (  -0.1666667   0.1666667  -0.1666667), wk =   0.0740741
        k(    3) = (  -0.3333333   0.3333333  -0.3333333), wk =   0.0740741
        k(    4) = (   0.5000000  -0.5000000   0.5000000), wk =   0.0370370
        k(    5) = (   0.0000000   0.3333333   0.0000000), wk =   0.0555556
        k(    6) = (  -0.1666667   0.5000000  -0.1666667), wk =   0.2222222
        k(    7) = (   0.6666667  -0.3333333   0.6666667), wk =   0.2222222
        k(    8) = (   0.5000000  -0.1666667   0.5000000), wk =   0.2222222
        k(    9) = (   0.3333333   0.0000000   0.3333333), wk =   0.1111111
        k(   10) = (   0.0000000   0.6666667   0.0000000), wk =   0.0555556
        k(   11) = (   0.8333333  -0.1666667   0.8333333), wk =   0.2222222
        k(   12) = (   0.6666667  -0.0000000   0.6666667), wk =   0.1111111
        k(   13) = (   0.0000000  -1.0000000   0.0000000), wk =   0.0277778
        k(   14) = (   0.6666667  -0.3333333   1.0000000), wk =   0.2222222
        k(   15) = (   0.5000000  -0.1666667   0.8333333), wk =   0.2222222
        k(   16) = (  -0.3333333  -1.0000000   0.0000000), wk =   0.1111111

     Dense  grid:     2637 G-vectors     FFT dimensions: (  20,  20,  20)

     Estimated max dynamical RAM per process >       6.23 MB

     Estimated total dynamical RAM >      12.46 MB

     Initial potential from superposition of free atoms
     Check: negative starting charge=   -0.084445

     starting charge   15.49999, renormalised to   16.00000

     negative rho (up, down):  8.717E-02 0.000E+00
     Starting wfcs are   12 randomized atomic wfcs

     total cpu time spent up to now is        0.5 secs

     Self-consistent Calculation

     iteration #  1     ecut=    35.00 Ry     beta= 0.70
     Davidson diagonalization with overlap
     ethr =  1.00E-02,  avg # of iterations =  3.5

     negative rho (up, down):  8.680E-02 0.000E+00

     total cpu time spent up to now is        0.7 secs

     total energy              =    -198.28333157 Ry
     Harris-Foulkes estimate   =    -198.99952686 Ry
     estimated scf accuracy    <       0.99504113 Ry

     iteration #  2     ecut=    35.00 Ry     beta= 0.70
     Davidson diagonalization with overlap
     ethr =  6.22E-03,  avg # of iterations =  2.0

     negative rho (up, down):  8.805E-02 0.000E+00

     total cpu time spent up to now is        0.8 secs

     total energy              =    -198.52173393 Ry
     Harris-Foulkes estimate   =    -198.92015695 Ry
     estimated scf accuracy    <       0.76488207 Ry

     iteration #  3     ecut=    35.00 Ry     beta= 0.70
     Davidson diagonalization with overlap
     ethr =  4.78E-03,  avg # of iterations =  2.1

     negative rho (up, down):  8.857E-02 0.000E+00

     total cpu time spent up to now is        0.9 secs

     total energy              =    -198.69348463 Ry
     Harris-Foulkes estimate   =    -198.69572402 Ry
     estimated scf accuracy    <       0.00439684 Ry

     iteration #  4     ecut=    35.00 Ry     beta= 0.70
     Davidson diagonalization with overlap
     ethr =  2.75E-05,  avg # of iterations =  2.0

     negative rho (up, down):  8.872E-02 0.000E+00

     total cpu time spent up to now is        1.1 secs

     total energy              =    -198.69460914 Ry
     Harris-Foulkes estimate   =    -198.69468997 Ry
     estimated scf accuracy    <       0.00016702 Ry

     iteration #  5     ecut=    35.00 Ry     beta= 0.70
     Davidson diagonalization with overlap
     ethr =  1.04E-06,  avg # of iterations =  2.2

     negative rho (up, down):  8.878E-02 0.000E+00

     total cpu time spent up to now is        1.2 secs

     total energy              =    -198.69464056 Ry
     Harris-Foulkes estimate   =    -198.69464046 Ry
     estimated scf accuracy    <       0.00000018 Ry

     iteration #  6     ecut=    35.00 Ry     beta= 0.70
     Davidson diagonalization with overlap
     ethr =  1.14E-09,  avg # of iterations =  2.8

     negative rho (up, down):  8.878E-02 0.000E+00

     total cpu time spent up to now is        1.3 secs

     End of self-consistent calculation

          k = 0.0000 0.0000 0.0000 (   331 PWs)   bands (ev):

   -29.4839 -29.4839 -29.4839  12.7686  17.2332  17.2332  17.2332  19.0161
    19.0161  38.4630  43.6223  43.6223

          k =-0.1667 0.1667-0.1667 (   320 PWs)   bands (ev):

   -29.6149 -29.5020 -29.5020  13.7481  16.9801  17.5170  17.5170  18.9450
    18.9450  38.5273  39.8067  44.6559

          k =-0.3333 0.3333-0.3333 (   332 PWs)   bands (ev):

   -29.8727 -29.5387 -29.5387  14.7282  17.4023  17.4023  18.4722  19.6885
    19.6885  32.5162  38.7109  44.5956

          k = 0.5000-0.5000 0.5000 (   332 PWs)   bands (ev):

   -29.9988 -29.5570 -29.5570  14.5842  17.1767  17.1767  20.3555  20.3555
    21.3115  28.2810  37.6934  42.8723

          k = 0.0000 0.3333 0.0000 (   327 PWs)   bands (ev):

   -29.6104 -29.5321 -29.5321  14.0770  16.5138  17.8933  17.8933  18.3522
    19.3227  39.8544  40.7714  41.9638

          k =-0.1667 0.5000-0.1667 (   326 PWs)   bands (ev):

   -29.7997 -29.5755 -29.5743  15.2356  16.3691  17.4379  18.1654  19.9223
    19.9297  35.1183  39.4941  40.3415

          k = 0.6667-0.3333 0.6667 (   321 PWs)   bands (ev):

   -29.9468 -29.6328 -29.5866  15.1845  16.6959  17.8483  18.0189  20.4054
    23.6064  29.0377  37.5987  40.3151

          k = 0.5000-0.1667 0.5000 (   329 PWs)   bands (ev):

   -29.9067 -29.6496 -29.5571  15.4041  16.8685  17.8057  17.8191  19.4997
    22.7310  30.9877  36.8446  40.5277

          k = 0.3333 0.0000 0.3333 (   325 PWs)   bands (ev):

   -29.7392 -29.5868 -29.5147  15.0628  16.5298  17.5383  18.0923  18.3374
    20.1703  36.8583  37.8858  43.4359

          k = 0.0000 0.6667 0.0000 (   323 PWs)   bands (ev):

   -29.8539 -29.6278 -29.6278  15.0073  15.2851  19.5615  19.5615  19.9668
    19.9760  36.9164  36.9164  37.0734

          k = 0.8333-0.1667 0.8333 (   326 PWs)   bands (ev):

   -29.9183 -29.7067 -29.6459  14.9617  15.3768  18.7793  19.4399  20.5208
    24.4416  31.7630  33.9139  36.2388

          k = 0.6667-0.0000 0.6667 (   323 PWs)   bands (ev):

   -29.8327 -29.8305 -29.6106  15.5566  16.3836  17.4327  18.8521  19.8429
    26.7462  29.8596  32.0898  39.0763

          k = 0.0000-1.0000 0.0000 (   326 PWs)   bands (ev):

   -29.9696 -29.6756 -29.6756  14.4390  14.7464  20.3240  20.7103  20.7103
    23.8050  31.8953  34.2654  34.2654

          k = 0.6667-0.3333 1.0000 (   332 PWs)   bands (ev):

   -29.8689 -29.6960 -29.6018  15.9296  15.9490  17.0453  19.1940  19.5465
    23.1354  33.8741  34.1741  37.6179

          k = 0.5000-0.1667 0.8333 (   324 PWs)   bands (ev):

   -29.8852 -29.7578 -29.6311  15.9703  16.0974  17.1055  18.7008  20.2624
    27.1741  28.5517  34.8667  35.2508

          k =-0.3333-1.0000 0.0000 (   330 PWs)   bands (ev):

   -29.8972 -29.7500 -29.6787  15.2279  15.6047  18.0397  19.3433  20.7122
    27.3729  31.6177  31.9760  32.8782

     the Fermi energy is    20.3688 ev

!    total energy              =    -198.69464070 Ry
     Harris-Foulkes estimate   =    -198.69464071 Ry
     estimated scf accuracy    <          8.0E-09 Ry

     The total energy is the sum of the following terms:

     one-electron contribution =     -37.92876365 Ry
     hartree contribution      =      33.66082235 Ry
     xc contribution           =     -31.41215428 Ry
     ewald contribution        =    -163.01731824 Ry
     smearing contrib. (-TS)   =       0.00277311 Ry

     convergence has been achieved in   6 iterations

     Writing output data file Pd-kp-conv.save/
 
     init_run     :      0.37s CPU      0.38s WALL (       1 calls)
     electrons    :      0.78s CPU      1.22s WALL (       1 calls)

     Called by init_run:
     wfcinit      :      0.04s CPU      0.05s WALL (       1 calls)
     potinit      :      0.00s CPU      0.01s WALL (       1 calls)
     hinit0       :      0.31s CPU      0.31s WALL (       1 calls)

     Called by electrons:
     c_bands      :      0.61s CPU      0.65s WALL (       6 calls)
     sum_band     :      0.13s CPU      0.14s WALL (       6 calls)
     v_of_rho     :      0.02s CPU      0.02s WALL (       7 calls)
     newd         :      0.03s CPU      0.04s WALL (       7 calls)
     mix_rho      :      0.00s CPU      0.00s WALL (       6 calls)

     Called by c_bands:
     init_us_2    :      0.02s CPU      0.02s WALL (     208 calls)
     cegterg      :      0.56s CPU      0.60s WALL (      96 calls)

     Called by sum_band:
     sum_band:bec :      0.00s CPU      0.00s WALL (      96 calls)
     addusdens    :      0.03s CPU      0.03s WALL (       6 calls)

     Called by *egterg:
     h_psi        :      0.44s CPU      0.48s WALL (     344 calls)
     s_psi        :      0.01s CPU      0.01s WALL (     344 calls)
     g_psi        :      0.01s CPU      0.01s WALL (     232 calls)
     cdiaghg      :      0.09s CPU      0.09s WALL (     328 calls)

     Called by h_psi:
     h_psi:pot    :      0.44s CPU      0.48s WALL (     344 calls)
     h_psi:calbec :      0.01s CPU      0.01s WALL (     344 calls)
     vloc_psi     :      0.42s CPU      0.45s WALL (     344 calls)
     add_vuspsi   :      0.01s CPU      0.01s WALL (     344 calls)

     General routines
     calbec       :      0.01s CPU      0.01s WALL (     440 calls)
     fft          :      0.01s CPU      0.01s WALL (      78 calls)
     ffts         :      0.00s CPU      0.00s WALL (       6 calls)
     fftw         :      0.43s CPU      0.46s WALL (    7348 calls)
 
     Parallel routines
     fft_scatt_xy :      0.08s CPU      0.08s WALL (    7432 calls)
     fft_scatt_yz :      0.11s CPU      0.12s WALL (    7432 calls)
 
     PWSCF        :     1.23s CPU         1.79s WALL

 
   This run was terminated on:  23:11:42   2Dec2021            

=------------------------------------------------------------------------------=
   JOB DONE.
=------------------------------------------------------------------------------=
