
     Program PWSCF v.6.3 starts on  2Dec2021 at 21:59:56 

     This program is part of the open-source Quantum ESPRESSO suite
     for quantum simulation of materials; please cite
         "P. Giannozzi et al., J. Phys.:Condens. Matter 21 395502 (2009);
         "P. Giannozzi et al., J. Phys.:Condens. Matter 29 465901 (2017);
          URL http://www.quantum-espresso.org", 
     in publications or presentations arising from this work. More details at
     http://www.quantum-espresso.org/quote

     Parallel version (MPI & OpenMP), running on       2 processor cores
     Number of MPI processes:                 2
     Threads/MPI process:                     1

     MPI processes distributed on     1 nodes
     R & G space division:  proc/nbgrp/npool/nimage =       2
     Reading input from pw-input.in

     Current dimensions of program PWSCF are:
     Max number of different atomic species (ntypx) = 10
     Max number of k-points (npk) =  40000
     Max angular momentum in pseudopotentials (lmaxx) =  3

     Subspace diagonalization in iterative solution of the eigenvalue problem:
     a serial algorithm will be used

 
     Parallelization info
     --------------------
     sticks:   dense  smooth     PW     G-vecs:    dense   smooth      PW
     Min         150     150     54                 1738     1738     350
     Max         151     151     55                 1741     1741     351
     Sum         301     301    109                 3479     3479     701
 

     Title: 
     Pd-kp-conv                                                                 


     bravais-lattice index     =            2
     lattice parameter (alat)  =       7.9000  a.u.
     unit-cell volume          =     123.2598 (a.u.)^3
     number of atoms/cell      =            1
     number of atomic types    =            1
     number of electrons       =        16.00
     number of Kohn-Sham states=           12
     kinetic-energy cutoff     =      35.0000  Ry
     charge density cutoff     =     140.0000  Ry
     convergence threshold     =      1.0E-07
     mixing beta               =       0.7000
     number of iterations used =            8  plain     mixing
     Exchange-correlation      =  SLA  PW   PBX  PBC ( 1  4  3  4 0 0)

     celldm(1)=   7.900000  celldm(2)=   0.000000  celldm(3)=   0.000000
     celldm(4)=   0.000000  celldm(5)=   0.000000  celldm(6)=   0.000000

     crystal axes: (cart. coord. in units of alat)
               a(1) = (  -0.500000   0.000000   0.500000 )  
               a(2) = (   0.000000   0.500000   0.500000 )  
               a(3) = (  -0.500000   0.500000   0.000000 )  

     reciprocal axes: (cart. coord. in units 2 pi/alat)
               b(1) = ( -1.000000 -1.000000  1.000000 )  
               b(2) = (  1.000000  1.000000  1.000000 )  
               b(3) = ( -1.000000  1.000000 -1.000000 )  


     PseudoPot. # 1 for Pd read from file:
     ./pd_pbe_v1.4.uspp.F.UPF
     MD5 check sum: 2d733d2bc2cbfd217af676df1668a4bc
     Pseudo is Ultrasoft + core correction, Zval = 16.0
     Generated by new atomic code, or converted to UPF format
     Using radial grid of  887 points,  6 beta functions with: 
                l(1) =   0
                l(2) =   0
                l(3) =   1
                l(4) =   1
                l(5) =   2
                l(6) =   2
     Q(r) pseudized with  8 coefficients,  rinner =    1.130   1.130   1.130
                                                       1.130   1.130

     atomic species   valence    mass     pseudopotential
        Pd            16.00   106.40000     Pd( 1.00)

     48 Sym. Ops., with inversion, found



   Cartesian axes

     site n.     atom                  positions (alat units)
         1           Pd  tau(   1) = (   0.0000000   0.0000000   0.0000000  )

     number of k points=    16  Marzari-Vanderbilt smearing, width (Ry)=  0.0250
                       cart. coord. in units 2pi/alat
        k(    1) = (   0.0000000   0.0000000   0.0000000), wk =   0.0092593
        k(    2) = (  -0.1666667   0.1666667  -0.1666667), wk =   0.0740741
        k(    3) = (  -0.3333333   0.3333333  -0.3333333), wk =   0.0740741
        k(    4) = (   0.5000000  -0.5000000   0.5000000), wk =   0.0370370
        k(    5) = (   0.0000000   0.3333333   0.0000000), wk =   0.0555556
        k(    6) = (  -0.1666667   0.5000000  -0.1666667), wk =   0.2222222
        k(    7) = (   0.6666667  -0.3333333   0.6666667), wk =   0.2222222
        k(    8) = (   0.5000000  -0.1666667   0.5000000), wk =   0.2222222
        k(    9) = (   0.3333333   0.0000000   0.3333333), wk =   0.1111111
        k(   10) = (   0.0000000   0.6666667   0.0000000), wk =   0.0555556
        k(   11) = (   0.8333333  -0.1666667   0.8333333), wk =   0.2222222
        k(   12) = (   0.6666667  -0.0000000   0.6666667), wk =   0.1111111
        k(   13) = (   0.0000000  -1.0000000   0.0000000), wk =   0.0277778
        k(   14) = (   0.6666667  -0.3333333   1.0000000), wk =   0.2222222
        k(   15) = (   0.5000000  -0.1666667   0.8333333), wk =   0.2222222
        k(   16) = (  -0.3333333  -1.0000000   0.0000000), wk =   0.1111111

     Dense  grid:     3479 G-vectors     FFT dimensions: (  24,  24,  24)

     Estimated max dynamical RAM per process >       8.09 MB

     Estimated total dynamical RAM >      16.18 MB

     Initial potential from superposition of free atoms
     Check: negative starting charge=   -0.079301

     starting charge   15.49999, renormalised to   16.00000

     negative rho (up, down):  8.186E-02 0.000E+00
     Starting wfcs are   12 randomized atomic wfcs

     total cpu time spent up to now is        0.5 secs

     Self-consistent Calculation

     iteration #  1     ecut=    35.00 Ry     beta= 0.70
     Davidson diagonalization with overlap
     ethr =  1.00E-02,  avg # of iterations =  3.6

     negative rho (up, down):  7.988E-02 0.000E+00

     total cpu time spent up to now is        0.7 secs

     total energy              =    -198.00674113 Ry
     Harris-Foulkes estimate   =    -199.06995944 Ry
     estimated scf accuracy    <       1.44937609 Ry

     iteration #  2     ecut=    35.00 Ry     beta= 0.70
     Davidson diagonalization with overlap
     ethr =  9.06E-03,  avg # of iterations =  2.0

     negative rho (up, down):  8.154E-02 0.000E+00

     total cpu time spent up to now is        0.8 secs

     total energy              =    -198.33765566 Ry
     Harris-Foulkes estimate   =    -199.21514258 Ry
     estimated scf accuracy    <       1.84211773 Ry

     iteration #  3     ecut=    35.00 Ry     beta= 0.70
     Davidson diagonalization with overlap
     ethr =  9.06E-03,  avg # of iterations =  2.0

     negative rho (up, down):  8.167E-02 0.000E+00

     total cpu time spent up to now is        1.0 secs

     total energy              =    -198.68521762 Ry
     Harris-Foulkes estimate   =    -198.68588126 Ry
     estimated scf accuracy    <       0.00148791 Ry

     iteration #  4     ecut=    35.00 Ry     beta= 0.70
     Davidson diagonalization with overlap
     ethr =  9.30E-06,  avg # of iterations =  2.8

     negative rho (up, down):  8.179E-02 0.000E+00

     total cpu time spent up to now is        1.2 secs

     total energy              =    -198.68576868 Ry
     Harris-Foulkes estimate   =    -198.68577129 Ry
     estimated scf accuracy    <       0.00000934 Ry

     iteration #  5     ecut=    35.00 Ry     beta= 0.70
     Davidson diagonalization with overlap
     ethr =  5.84E-08,  avg # of iterations =  1.9

     negative rho (up, down):  8.183E-02 0.000E+00

     total cpu time spent up to now is        1.4 secs

     total energy              =    -198.68577095 Ry
     Harris-Foulkes estimate   =    -198.68577090 Ry
     estimated scf accuracy    <       0.00000029 Ry

     iteration #  6     ecut=    35.00 Ry     beta= 0.70
     Davidson diagonalization with overlap
     ethr =  1.80E-09,  avg # of iterations =  2.0

     negative rho (up, down):  8.183E-02 0.000E+00

     total cpu time spent up to now is        1.5 secs

     End of self-consistent calculation

          k = 0.0000 0.0000 0.0000 (   411 PWs)   bands (ev):

   -35.4307 -35.4307 -35.4307   8.1915  11.7821  11.7821  11.7821  12.9100
    12.9100  31.1677  34.6940  34.6940

          k =-0.1667 0.1667-0.1667 (   426 PWs)   bands (ev):

   -35.4769 -35.4378 -35.4378   8.9790  11.6300  11.9669  11.9669  12.8749
    12.8749  29.6267  32.0299  34.9349

          k =-0.3333 0.3333-0.3333 (   425 PWs)   bands (ev):

   -35.5685 -35.4516 -35.4516   9.9878  11.9018  11.9018  12.7395  13.3434
    13.3434  23.6409  31.1162  34.1135

          k = 0.5000-0.5000 0.5000 (   434 PWs)   bands (ev):

   -35.6140 -35.4586 -35.4586   9.9610  11.7590  11.7590  13.7480  13.7480
    15.2852  19.6219  30.3902  33.0620

          k = 0.0000 0.3333 0.0000 (   435 PWs)   bands (ev):

   -35.4755 -35.4487 -35.4487   9.2429  11.3339  12.2085  12.2085  12.5149
    13.1042  31.6275  32.1882  32.1882

          k =-0.1667 0.5000-0.1667 (   439 PWs)   bands (ev):

   -35.5429 -35.4647 -35.4645  10.3259  11.2312  11.9300  12.3877  13.4807
    13.5924  26.0763  30.6046  30.9822

          k = 0.6667-0.3333 0.6667 (   428 PWs)   bands (ev):

   -35.5957 -35.4853 -35.4692  10.3945  11.4780  12.1931  12.3436  13.7778
    16.5767  20.5520  28.8853  30.6594

          k = 0.5000-0.1667 0.5000 (   431 PWs)   bands (ev):

   -35.5811 -35.4912 -35.4587  10.5228  11.5774  12.1776  12.2212  13.2296
    15.6666  22.2911  27.8152  31.9345

          k = 0.3333 0.0000 0.3333 (   441 PWs)   bands (ev):

   -35.5213 -35.4685 -35.4431  10.0640  11.3437  12.0019  12.3385  12.5061
    13.6717  27.9602  28.4881  34.1831

          k = 0.0000 0.6667 0.0000 (   432 PWs)   bands (ev):

   -35.5626 -35.4837 -35.4837  10.2924  10.5348  13.2687  13.2687  13.5139
    13.8105  27.7413  27.9251  27.9251

          k = 0.8333-0.1667 0.8333 (   431 PWs)   bands (ev):

   -35.5861 -35.5116 -35.4906  10.3188  10.5933  12.8204  13.1971  13.8486
    17.2052  23.3289  24.7917  27.4169

          k = 0.6667-0.0000 0.6667 (   431 PWs)   bands (ev):

   -35.5556 -35.5553 -35.4781  10.7118  11.2638  11.9355  12.8389  13.4380
    19.0020  21.5733  23.2034  29.5338

          k = 0.0000-1.0000 0.0000 (   444 PWs)   bands (ev):

   -35.6048 -35.5014 -35.5014   9.9752  10.1722  13.7265  13.9640  13.9640
    17.2130  22.5791  25.9802  25.9802

          k = 0.6667-0.3333 1.0000 (   431 PWs)   bands (ev):

   -35.5680 -35.5076 -35.4745  10.9473  10.9629  11.6653  13.0633  13.2593
    15.9618  25.0475  25.2011  28.3815

          k = 0.5000-0.1667 0.8333 (   428 PWs)   bands (ev):

   -35.5745 -35.5296 -35.4850  11.0191  11.0362  11.7247  12.7453  13.6962
    19.5025  20.2098  25.6647  26.3842

          k =-0.3333-1.0000 0.0000 (   430 PWs)   bands (ev):

   -35.5789 -35.5272 -35.5019  10.5202  10.7321  12.3362  13.1471  13.9651
    19.7130  22.5611  23.5897  24.3403

     the Fermi energy is    13.7878 ev

!    total energy              =    -198.68577100 Ry
     Harris-Foulkes estimate   =    -198.68577102 Ry
     estimated scf accuracy    <       0.00000002 Ry

     The total energy is the sum of the following terms:

     one-electron contribution =     -60.26294721 Ry
     hartree contribution      =      41.38435275 Ry
     xc contribution           =     -31.23553325 Ry
     ewald contribution        =    -148.57274574 Ry
     smearing contrib. (-TS)   =       0.00110244 Ry

     convergence has been achieved in   6 iterations

     Writing output data file Pd-kp-conv.save/
 
     init_run     :      0.36s CPU      0.38s WALL (       1 calls)
     electrons    :      0.98s CPU      1.09s WALL (       1 calls)

     Called by init_run:
     wfcinit      :      0.05s CPU      0.06s WALL (       1 calls)
     potinit      :      0.01s CPU      0.01s WALL (       1 calls)
     hinit0       :      0.29s CPU      0.29s WALL (       1 calls)

     Called by electrons:
     c_bands      :      0.76s CPU      0.81s WALL (       6 calls)
     sum_band     :      0.16s CPU      0.18s WALL (       6 calls)
     v_of_rho     :      0.03s CPU      0.03s WALL (       7 calls)
     newd         :      0.03s CPU      0.04s WALL (       7 calls)
     mix_rho      :      0.00s CPU      0.00s WALL (       6 calls)

     Called by c_bands:
     init_us_2    :      0.02s CPU      0.02s WALL (     208 calls)
     cegterg      :      0.71s CPU      0.76s WALL (      96 calls)

     Called by sum_band:
     sum_band:bec :      0.00s CPU      0.00s WALL (      96 calls)
     addusdens    :      0.04s CPU      0.04s WALL (       6 calls)

     Called by *egterg:
     h_psi        :      0.58s CPU      0.62s WALL (     341 calls)
     s_psi        :      0.01s CPU      0.01s WALL (     341 calls)
     g_psi        :      0.01s CPU      0.01s WALL (     229 calls)
     cdiaghg      :      0.09s CPU      0.10s WALL (     325 calls)

     Called by h_psi:
     h_psi:pot    :      0.58s CPU      0.61s WALL (     341 calls)
     h_psi:calbec :      0.02s CPU      0.02s WALL (     341 calls)
     vloc_psi     :      0.55s CPU      0.58s WALL (     341 calls)
     add_vuspsi   :      0.01s CPU      0.01s WALL (     341 calls)

     General routines
     calbec       :      0.02s CPU      0.02s WALL (     437 calls)
     fft          :      0.01s CPU      0.01s WALL (      78 calls)
     ffts         :      0.00s CPU      0.00s WALL (       6 calls)
     fftw         :      0.57s CPU      0.61s WALL (    7330 calls)
 
     Parallel routines
     fft_scatt_xy :      0.10s CPU      0.10s WALL (    7414 calls)
     fft_scatt_yz :      0.17s CPU      0.18s WALL (    7414 calls)
 
     PWSCF        :     1.41s CPU         1.65s WALL

 
   This run was terminated on:  21:59:57   2Dec2021            

=------------------------------------------------------------------------------=
   JOB DONE.
=------------------------------------------------------------------------------=
