
     Program PWSCF v.6.3 starts on  2Dec2021 at 21:59:37 

     This program is part of the open-source Quantum ESPRESSO suite
     for quantum simulation of materials; please cite
         "P. Giannozzi et al., J. Phys.:Condens. Matter 21 395502 (2009);
         "P. Giannozzi et al., J. Phys.:Condens. Matter 29 465901 (2017);
          URL http://www.quantum-espresso.org", 
     in publications or presentations arising from this work. More details at
     http://www.quantum-espresso.org/quote

     Parallel version (MPI & OpenMP), running on       2 processor cores
     Number of MPI processes:                 2
     Threads/MPI process:                     1

     MPI processes distributed on     1 nodes
     R & G space division:  proc/nbgrp/npool/nimage =       2
     Reading input from pw-input.in

     Current dimensions of program PWSCF are:
     Max number of different atomic species (ntypx) = 10
     Max number of k-points (npk) =  40000
     Max angular momentum in pseudopotentials (lmaxx) =  3

     Subspace diagonalization in iterative solution of the eigenvalue problem:
     a serial algorithm will be used

 
     Parallelization info
     --------------------
     sticks:   dense  smooth     PW     G-vecs:    dense   smooth      PW
     Min         120     120     42                 1221     1221     264
     Max         121     121     43                 1224     1224     267
     Sum         241     241     85                 2445     2445     531
 

     Title: 
     Pd-kp-conv                                                                 


     bravais-lattice index     =            2
     lattice parameter (alat)  =       7.1000  a.u.
     unit-cell volume          =      89.4777 (a.u.)^3
     number of atoms/cell      =            1
     number of atomic types    =            1
     number of electrons       =        16.00
     number of Kohn-Sham states=           12
     kinetic-energy cutoff     =      35.0000  Ry
     charge density cutoff     =     140.0000  Ry
     convergence threshold     =      1.0E-07
     mixing beta               =       0.7000
     number of iterations used =            8  plain     mixing
     Exchange-correlation      =  SLA  PW   PBX  PBC ( 1  4  3  4 0 0)

     celldm(1)=   7.100000  celldm(2)=   0.000000  celldm(3)=   0.000000
     celldm(4)=   0.000000  celldm(5)=   0.000000  celldm(6)=   0.000000

     crystal axes: (cart. coord. in units of alat)
               a(1) = (  -0.500000   0.000000   0.500000 )  
               a(2) = (   0.000000   0.500000   0.500000 )  
               a(3) = (  -0.500000   0.500000   0.000000 )  

     reciprocal axes: (cart. coord. in units 2 pi/alat)
               b(1) = ( -1.000000 -1.000000  1.000000 )  
               b(2) = (  1.000000  1.000000  1.000000 )  
               b(3) = ( -1.000000  1.000000 -1.000000 )  


     PseudoPot. # 1 for Pd read from file:
     ./pd_pbe_v1.4.uspp.F.UPF
     MD5 check sum: 2d733d2bc2cbfd217af676df1668a4bc
     Pseudo is Ultrasoft + core correction, Zval = 16.0
     Generated by new atomic code, or converted to UPF format
     Using radial grid of  887 points,  6 beta functions with: 
                l(1) =   0
                l(2) =   0
                l(3) =   1
                l(4) =   1
                l(5) =   2
                l(6) =   2
     Q(r) pseudized with  8 coefficients,  rinner =    1.130   1.130   1.130
                                                       1.130   1.130

     atomic species   valence    mass     pseudopotential
        Pd            16.00   106.40000     Pd( 1.00)

     48 Sym. Ops., with inversion, found



   Cartesian axes

     site n.     atom                  positions (alat units)
         1           Pd  tau(   1) = (   0.0000000   0.0000000   0.0000000  )

     number of k points=    16  Marzari-Vanderbilt smearing, width (Ry)=  0.0250
                       cart. coord. in units 2pi/alat
        k(    1) = (   0.0000000   0.0000000   0.0000000), wk =   0.0092593
        k(    2) = (  -0.1666667   0.1666667  -0.1666667), wk =   0.0740741
        k(    3) = (  -0.3333333   0.3333333  -0.3333333), wk =   0.0740741
        k(    4) = (   0.5000000  -0.5000000   0.5000000), wk =   0.0370370
        k(    5) = (   0.0000000   0.3333333   0.0000000), wk =   0.0555556
        k(    6) = (  -0.1666667   0.5000000  -0.1666667), wk =   0.2222222
        k(    7) = (   0.6666667  -0.3333333   0.6666667), wk =   0.2222222
        k(    8) = (   0.5000000  -0.1666667   0.5000000), wk =   0.2222222
        k(    9) = (   0.3333333   0.0000000   0.3333333), wk =   0.1111111
        k(   10) = (   0.0000000   0.6666667   0.0000000), wk =   0.0555556
        k(   11) = (   0.8333333  -0.1666667   0.8333333), wk =   0.2222222
        k(   12) = (   0.6666667  -0.0000000   0.6666667), wk =   0.1111111
        k(   13) = (   0.0000000  -1.0000000   0.0000000), wk =   0.0277778
        k(   14) = (   0.6666667  -0.3333333   1.0000000), wk =   0.2222222
        k(   15) = (   0.5000000  -0.1666667   0.8333333), wk =   0.2222222
        k(   16) = (  -0.3333333  -1.0000000   0.0000000), wk =   0.1111111

     Dense  grid:     2445 G-vectors     FFT dimensions: (  20,  20,  20)

     Estimated max dynamical RAM per process >       5.88 MB

     Estimated total dynamical RAM >      11.76 MB

     Initial potential from superposition of free atoms
     Check: negative starting charge=   -0.083979

     starting charge   15.49999, renormalised to   16.00000

     negative rho (up, down):  8.669E-02 0.000E+00
     Starting wfcs are   12 randomized atomic wfcs

     total cpu time spent up to now is        0.4 secs

     Self-consistent Calculation

     iteration #  1     ecut=    35.00 Ry     beta= 0.70
     Davidson diagonalization with overlap
     ethr =  1.00E-02,  avg # of iterations =  3.6

     negative rho (up, down):  8.649E-02 0.000E+00

     total cpu time spent up to now is        0.6 secs

     total energy              =    -198.31311580 Ry
     Harris-Foulkes estimate   =    -198.97773908 Ry
     estimated scf accuracy    <       0.92654260 Ry

     iteration #  2     ecut=    35.00 Ry     beta= 0.70
     Davidson diagonalization with overlap
     ethr =  5.79E-03,  avg # of iterations =  2.0

     negative rho (up, down):  8.775E-02 0.000E+00

     total cpu time spent up to now is        0.7 secs

     total energy              =    -198.54027592 Ry
     Harris-Foulkes estimate   =    -198.87897794 Ry
     estimated scf accuracy    <       0.63816071 Ry

     iteration #  3     ecut=    35.00 Ry     beta= 0.70
     Davidson diagonalization with overlap
     ethr =  3.99E-03,  avg # of iterations =  2.1

     negative rho (up, down):  8.835E-02 0.000E+00

     total cpu time spent up to now is        0.8 secs

     total energy              =    -198.68680448 Ry
     Harris-Foulkes estimate   =    -198.68895393 Ry
     estimated scf accuracy    <       0.00419681 Ry

     iteration #  4     ecut=    35.00 Ry     beta= 0.70
     Davidson diagonalization with overlap
     ethr =  2.62E-05,  avg # of iterations =  2.2

     negative rho (up, down):  8.852E-02 0.000E+00

     total cpu time spent up to now is        0.9 secs

     total energy              =    -198.68781014 Ry
     Harris-Foulkes estimate   =    -198.68785587 Ry
     estimated scf accuracy    <       0.00009168 Ry

     iteration #  5     ecut=    35.00 Ry     beta= 0.70
     Davidson diagonalization with overlap
     ethr =  5.73E-07,  avg # of iterations =  2.0

     negative rho (up, down):  8.856E-02 0.000E+00

     total cpu time spent up to now is        1.1 secs

     total energy              =    -198.68782705 Ry
     Harris-Foulkes estimate   =    -198.68782716 Ry
     estimated scf accuracy    <       0.00000031 Ry

     iteration #  6     ecut=    35.00 Ry     beta= 0.70
     Davidson diagonalization with overlap
     ethr =  1.95E-09,  avg # of iterations =  2.3

     negative rho (up, down):  8.856E-02 0.000E+00

     total cpu time spent up to now is        1.2 secs

     End of self-consistent calculation

          k = 0.0000 0.0000 0.0000 (   331 PWs)   bands (ev):

   -28.4376 -28.4376 -28.4376  13.6029  18.1769  18.1769  18.1769  20.0860
    20.0860  39.6951  45.1169  45.1169

          k =-0.1667 0.1667-0.1667 (   311 PWs)   bands (ev):

   -28.5901 -28.4583 -28.4583  14.6151  17.9064  18.4797  18.4797  20.0063
    20.0063  40.0249  41.1265  46.2777

          k =-0.3333 0.3333-0.3333 (   308 PWs)   bands (ev):

   -28.8887 -28.5004 -28.5004  15.5611  18.3559  18.3559  19.4970  20.8028
    20.8028  34.0779  40.0127  46.3982

          k = 0.5000-0.5000 0.5000 (   302 PWs)   bands (ev):

   -29.0343 -28.5210 -28.5210  15.3896  18.1165  18.1165  21.5217  21.5217
    22.4020  29.8279  38.9324  44.5407

          k = 0.0000 0.3333 0.0000 (   307 PWs)   bands (ev):

   -28.5849 -28.4929 -28.4929  14.9559  17.4077  18.8817  18.8817  19.3696
    20.4147  41.2481  42.2103  43.6305

          k =-0.1667 0.5000-0.1667 (   313 PWs)   bands (ev):

   -28.8042 -28.5434 -28.5417  16.1033  17.2652  18.3953  19.1714  21.0486
    21.0545  36.6926  40.9563  42.0364

          k = 0.6667-0.3333 0.6667 (   315 PWs)   bands (ev):

   -28.9749 -28.6100 -28.5561  16.0169  17.5973  18.8298  19.0150  21.5718
    24.8646  30.5493  39.0548  41.9885

          k = 0.5000-0.1667 0.5000 (   314 PWs)   bands (ev):

   -28.9280 -28.6295 -28.5217  16.2571  17.7822  18.7905  18.7988  20.5978
    23.9930  32.5326  38.3895  42.0193

          k = 0.3333 0.0000 0.3333 (   317 PWs)   bands (ev):

   -28.7340 -28.5569 -28.4730  15.9660  17.4247  18.4993  19.0907  19.3530
    21.3168  38.3680  39.5167  45.0536

          k = 0.0000 0.6667 0.0000 (   315 PWs)   bands (ev):

   -28.8668 -28.6038 -28.6038  15.8293  16.0985  20.6638  20.6638  21.0692
    21.1135  38.4876  38.4876  38.6787

          k = 0.8333-0.1667 0.8333 (   311 PWs)   bands (ev):

   -28.9410 -28.6953 -28.6247  15.7612  16.2018  19.8262  20.5339  21.6964
    25.7406  33.2381  35.5277  37.7805

          k = 0.6667-0.0000 0.6667 (   309 PWs)   bands (ev):

   -28.8422 -28.8391 -28.5838  16.3897  17.2785  18.3941  19.9021  20.9658
    28.1223  31.3448  33.6547  40.7462

          k = 0.0000-1.0000 0.0000 (   302 PWs)   bands (ev):

   -29.0005 -28.6586 -28.6586  15.2062  15.5291  21.4896  21.9025  21.9025
    24.9938  33.5443  35.7103  35.7103

          k = 0.6667-0.3333 1.0000 (   318 PWs)   bands (ev):

   -28.8842 -28.6830 -28.5736  16.7990  16.8099  17.9844  20.2695  20.6483
    24.4179  35.4131  35.7643  39.2176

          k = 0.5000-0.1667 0.8333 (   312 PWs)   bands (ev):

   -28.9029 -28.7550 -28.6076  16.8250  16.9782  18.0455  19.7392  21.4160
    28.5481  30.0323  36.4824  36.8051

          k =-0.3333-1.0000 0.0000 (   308 PWs)   bands (ev):

   -28.9166 -28.7454 -28.6623  16.0408  16.4457  19.0383  20.4310  21.9022
    28.7481  33.2086  33.4575  34.3878

     the Fermi energy is    21.5257 ev

!    total energy              =    -198.68782717 Ry
     Harris-Foulkes estimate   =    -198.68782721 Ry
     estimated scf accuracy    <       0.00000004 Ry

     The total energy is the sum of the following terms:

     one-electron contribution =     -34.45545044 Ry
     hartree contribution      =      32.52833662 Ry
     xc contribution           =     -31.44783451 Ry
     ewald contribution        =    -165.31333683 Ry
     smearing contrib. (-TS)   =       0.00045799 Ry

     convergence has been achieved in   6 iterations

     Writing output data file Pd-kp-conv.save/
 
     init_run     :      0.32s CPU      0.34s WALL (       1 calls)
     electrons    :      0.72s CPU      0.80s WALL (       1 calls)

     Called by init_run:
     wfcinit      :      0.04s CPU      0.05s WALL (       1 calls)
     potinit      :      0.00s CPU      0.01s WALL (       1 calls)
     hinit0       :      0.27s CPU      0.27s WALL (       1 calls)

     Called by electrons:
     c_bands      :      0.56s CPU      0.60s WALL (       6 calls)
     sum_band     :      0.12s CPU      0.12s WALL (       6 calls)
     v_of_rho     :      0.02s CPU      0.02s WALL (       7 calls)
     newd         :      0.03s CPU      0.03s WALL (       7 calls)
     mix_rho      :      0.00s CPU      0.00s WALL (       6 calls)

     Called by c_bands:
     init_us_2    :      0.02s CPU      0.02s WALL (     208 calls)
     cegterg      :      0.53s CPU      0.56s WALL (      96 calls)

     Called by sum_band:
     sum_band:bec :      0.00s CPU      0.00s WALL (      96 calls)
     addusdens    :      0.03s CPU      0.03s WALL (       6 calls)

     Called by *egterg:
     h_psi        :      0.40s CPU      0.42s WALL (     338 calls)
     s_psi        :      0.01s CPU      0.01s WALL (     338 calls)
     g_psi        :      0.00s CPU      0.00s WALL (     226 calls)
     cdiaghg      :      0.09s CPU      0.09s WALL (     322 calls)

     Called by h_psi:
     h_psi:pot    :      0.40s CPU      0.42s WALL (     338 calls)
     h_psi:calbec :      0.01s CPU      0.02s WALL (     338 calls)
     vloc_psi     :      0.37s CPU      0.39s WALL (     338 calls)
     add_vuspsi   :      0.01s CPU      0.01s WALL (     338 calls)

     General routines
     calbec       :      0.02s CPU      0.02s WALL (     434 calls)
     fft          :      0.01s CPU      0.01s WALL (      78 calls)
     ffts         :      0.00s CPU      0.00s WALL (       6 calls)
     fftw         :      0.39s CPU      0.41s WALL (    7348 calls)
 
     Parallel routines
     fft_scatt_xy :      0.07s CPU      0.07s WALL (    7432 calls)
     fft_scatt_yz :      0.12s CPU      0.13s WALL (    7432 calls)
 
     PWSCF        :     1.11s CPU         1.35s WALL

 
   This run was terminated on:  21:59:38   2Dec2021            

=------------------------------------------------------------------------------=
   JOB DONE.
=------------------------------------------------------------------------------=
