
     Program PWSCF v.6.3 starts on  2Dec2021 at 20:32:11 

     This program is part of the open-source Quantum ESPRESSO suite
     for quantum simulation of materials; please cite
         "P. Giannozzi et al., J. Phys.:Condens. Matter 21 395502 (2009);
         "P. Giannozzi et al., J. Phys.:Condens. Matter 29 465901 (2017);
          URL http://www.quantum-espresso.org", 
     in publications or presentations arising from this work. More details at
     http://www.quantum-espresso.org/quote

     Parallel version (MPI & OpenMP), running on       2 processor cores
     Number of MPI processes:                 2
     Threads/MPI process:                     1

     MPI processes distributed on     1 nodes
     R & G space division:  proc/nbgrp/npool/nimage =       2
     Reading input from pw-input.in

     Current dimensions of program PWSCF are:
     Max number of different atomic species (ntypx) = 10
     Max number of k-points (npk) =  40000
     Max angular momentum in pseudopotentials (lmaxx) =  3

     Subspace diagonalization in iterative solution of the eigenvalue problem:
     a serial algorithm will be used

 
     Parallelization info
     --------------------
     sticks:   dense  smooth     PW     G-vecs:    dense   smooth      PW
     Min         126     126     45                 1365     1365     280
     Max         127     127     46                 1368     1368     281
     Sum         253     253     91                 2733     2733     561
 

     Title: 
     Pd-kp-conv                                                                 


     bravais-lattice index     =            2
     lattice parameter (alat)  =       7.3000  a.u.
     unit-cell volume          =      97.2542 (a.u.)^3
     number of atoms/cell      =            1
     number of atomic types    =            1
     number of electrons       =        16.00
     number of Kohn-Sham states=           12
     kinetic-energy cutoff     =      35.0000  Ry
     charge density cutoff     =     140.0000  Ry
     convergence threshold     =      1.0E-07
     mixing beta               =       0.7000
     number of iterations used =            8  plain     mixing
     Exchange-correlation      =  SLA  PW   PBX  PBC ( 1  4  3  4 0 0)

     celldm(1)=   7.300000  celldm(2)=   0.000000  celldm(3)=   0.000000
     celldm(4)=   0.000000  celldm(5)=   0.000000  celldm(6)=   0.000000

     crystal axes: (cart. coord. in units of alat)
               a(1) = (  -0.500000   0.000000   0.500000 )  
               a(2) = (   0.000000   0.500000   0.500000 )  
               a(3) = (  -0.500000   0.500000   0.000000 )  

     reciprocal axes: (cart. coord. in units 2 pi/alat)
               b(1) = ( -1.000000 -1.000000  1.000000 )  
               b(2) = (  1.000000  1.000000  1.000000 )  
               b(3) = ( -1.000000  1.000000 -1.000000 )  


     PseudoPot. # 1 for Pd read from file:
     ./pd_pbe_v1.4.uspp.F.UPF
     MD5 check sum: 2d733d2bc2cbfd217af676df1668a4bc
     Pseudo is Ultrasoft + core correction, Zval = 16.0
     Generated by new atomic code, or converted to UPF format
     Using radial grid of  887 points,  6 beta functions with: 
                l(1) =   0
                l(2) =   0
                l(3) =   1
                l(4) =   1
                l(5) =   2
                l(6) =   2
     Q(r) pseudized with  8 coefficients,  rinner =    1.130   1.130   1.130
                                                       1.130   1.130

     atomic species   valence    mass     pseudopotential
        Pd            16.00   106.40000     Pd( 1.00)

     48 Sym. Ops., with inversion, found



   Cartesian axes

     site n.     atom                  positions (alat units)
         1           Pd  tau(   1) = (   0.0000000   0.0000000   0.0000000  )

     number of k points=    72  Marzari-Vanderbilt smearing, width (Ry)=  0.0050
                       cart. coord. in units 2pi/alat
        k(    1) = (   0.0000000   0.0000000   0.0000000), wk =   0.0011574
        k(    2) = (  -0.0833333   0.0833333  -0.0833333), wk =   0.0092593
        k(    3) = (  -0.1666667   0.1666667  -0.1666667), wk =   0.0092593
        k(    4) = (  -0.2500000   0.2500000  -0.2500000), wk =   0.0092593
        k(    5) = (  -0.3333333   0.3333333  -0.3333333), wk =   0.0092593
        k(    6) = (  -0.4166667   0.4166667  -0.4166667), wk =   0.0092593
        k(    7) = (   0.5000000  -0.5000000   0.5000000), wk =   0.0046296
        k(    8) = (   0.0000000   0.1666667   0.0000000), wk =   0.0069444
        k(    9) = (  -0.0833333   0.2500000  -0.0833333), wk =   0.0277778
        k(   10) = (  -0.1666667   0.3333333  -0.1666667), wk =   0.0277778
        k(   11) = (  -0.2500000   0.4166667  -0.2500000), wk =   0.0277778
        k(   12) = (  -0.3333333   0.5000000  -0.3333333), wk =   0.0277778
        k(   13) = (   0.5833333  -0.4166667   0.5833333), wk =   0.0277778
        k(   14) = (   0.5000000  -0.3333333   0.5000000), wk =   0.0277778
        k(   15) = (   0.4166667  -0.2500000   0.4166667), wk =   0.0277778
        k(   16) = (   0.3333333  -0.1666667   0.3333333), wk =   0.0277778
        k(   17) = (   0.2500000  -0.0833333   0.2500000), wk =   0.0277778
        k(   18) = (   0.1666667  -0.0000000   0.1666667), wk =   0.0138889
        k(   19) = (   0.0000000   0.3333333   0.0000000), wk =   0.0069444
        k(   20) = (  -0.0833333   0.4166667  -0.0833333), wk =   0.0277778
        k(   21) = (  -0.1666667   0.5000000  -0.1666667), wk =   0.0277778
        k(   22) = (  -0.2500000   0.5833333  -0.2500000), wk =   0.0277778
        k(   23) = (   0.6666667  -0.3333333   0.6666667), wk =   0.0277778
        k(   24) = (   0.5833333  -0.2500000   0.5833333), wk =   0.0277778
        k(   25) = (   0.5000000  -0.1666667   0.5000000), wk =   0.0277778
        k(   26) = (   0.4166667  -0.0833333   0.4166667), wk =   0.0277778
        k(   27) = (   0.3333333   0.0000000   0.3333333), wk =   0.0138889
        k(   28) = (   0.0000000   0.5000000   0.0000000), wk =   0.0069444
        k(   29) = (  -0.0833333   0.5833333  -0.0833333), wk =   0.0277778
        k(   30) = (  -0.1666667   0.6666667  -0.1666667), wk =   0.0277778
        k(   31) = (   0.7500000  -0.2500000   0.7500000), wk =   0.0277778
        k(   32) = (   0.6666667  -0.1666667   0.6666667), wk =   0.0277778
        k(   33) = (   0.5833333  -0.0833333   0.5833333), wk =   0.0277778
        k(   34) = (   0.5000000   0.0000000   0.5000000), wk =   0.0138889
        k(   35) = (   0.0000000   0.6666667   0.0000000), wk =   0.0069444
        k(   36) = (  -0.0833333   0.7500000  -0.0833333), wk =   0.0277778
        k(   37) = (   0.8333333  -0.1666667   0.8333333), wk =   0.0277778
        k(   38) = (   0.7500000  -0.0833333   0.7500000), wk =   0.0277778
        k(   39) = (   0.6666667  -0.0000000   0.6666667), wk =   0.0138889
        k(   40) = (   0.0000000   0.8333333   0.0000000), wk =   0.0069444
        k(   41) = (   0.9166667  -0.0833333   0.9166667), wk =   0.0277778
        k(   42) = (   0.8333333   0.0000000   0.8333333), wk =   0.0138889
        k(   43) = (   0.0000000  -1.0000000   0.0000000), wk =   0.0034722
        k(   44) = (  -0.1666667   0.3333333   0.0000000), wk =   0.0277778
        k(   45) = (  -0.2500000   0.4166667  -0.0833333), wk =   0.0555556
        k(   46) = (  -0.3333333   0.5000000  -0.1666667), wk =   0.0555556
        k(   47) = (   0.5833333  -0.4166667   0.7500000), wk =   0.0555556
        k(   48) = (   0.5000000  -0.3333333   0.6666667), wk =   0.0277778
        k(   49) = (  -0.1666667   0.5000000   0.0000000), wk =   0.0277778
        k(   50) = (  -0.2500000   0.5833333  -0.0833333), wk =   0.0555556
        k(   51) = (   0.6666667  -0.3333333   0.8333333), wk =   0.0555556
        k(   52) = (   0.5833333  -0.2500000   0.7500000), wk =   0.0555556
        k(   53) = (   0.5000000  -0.1666667   0.6666667), wk =   0.0555556
        k(   54) = (   0.4166667  -0.0833333   0.5833333), wk =   0.0555556
        k(   55) = (   0.3333333   0.0000000   0.5000000), wk =   0.0277778
        k(   56) = (  -0.1666667   0.6666667  -0.0000000), wk =   0.0277778
        k(   57) = (   0.7500000  -0.2500000   0.9166667), wk =   0.0555556
        k(   58) = (   0.6666667  -0.1666667   0.8333333), wk =   0.0555556
        k(   59) = (   0.5833333  -0.0833333   0.7500000), wk =   0.0555556
        k(   60) = (   0.5000000   0.0000000   0.6666667), wk =   0.0277778
        k(   61) = (   0.8333333  -0.1666667   1.0000000), wk =   0.0277778
        k(   62) = (   0.7500000  -0.0833333   0.9166667), wk =   0.0555556
        k(   63) = (   0.6666667   0.0000000   0.8333333), wk =   0.0277778
        k(   64) = (  -0.1666667  -1.0000000  -0.0000000), wk =   0.0138889
        k(   65) = (   0.6666667  -0.3333333   1.0000000), wk =   0.0277778
        k(   66) = (   0.5833333  -0.2500000   0.9166667), wk =   0.0555556
        k(   67) = (   0.5000000  -0.1666667   0.8333333), wk =   0.0277778
        k(   68) = (   0.6666667  -0.1666667   1.0000000), wk =   0.0277778
        k(   69) = (   0.5833333  -0.0833333   0.9166667), wk =   0.0555556
        k(   70) = (   0.5000000   0.0000000   0.8333333), wk =   0.0277778
        k(   71) = (  -0.3333333  -1.0000000   0.0000000), wk =   0.0138889
        k(   72) = (  -0.5000000  -1.0000000   0.0000000), wk =   0.0069444

     Dense  grid:     2733 G-vectors     FFT dimensions: (  20,  20,  20)

     Estimated max dynamical RAM per process >       8.16 MB

     Estimated total dynamical RAM >      16.32 MB

     Initial potential from superposition of free atoms
     Check: negative starting charge=   -0.084718

     starting charge   15.49999, renormalised to   16.00000

     negative rho (up, down):  8.745E-02 0.000E+00
     Starting wfcs are   12 randomized atomic wfcs

     total cpu time spent up to now is        0.7 secs

     Self-consistent Calculation

     iteration #  1     ecut=    35.00 Ry     beta= 0.70
     Davidson diagonalization with overlap
     ethr =  1.00E-02,  avg # of iterations =  3.6

     negative rho (up, down):  8.697E-02 0.000E+00

     total cpu time spent up to now is        1.4 secs

     total energy              =    -198.25034750 Ry
     Harris-Foulkes estimate   =    -199.00969349 Ry
     estimated scf accuracy    <       1.05205914 Ry

     iteration #  2     ecut=    35.00 Ry     beta= 0.70
     Davidson diagonalization with overlap
     ethr =  6.58E-03,  avg # of iterations =  2.0

     negative rho (up, down):  8.820E-02 0.000E+00

     total cpu time spent up to now is        1.9 secs

     total energy              =    -198.51495105 Ry
     Harris-Foulkes estimate   =    -198.95899109 Ry
     estimated scf accuracy    <       0.86072160 Ry

     iteration #  3     ecut=    35.00 Ry     beta= 0.70
     Davidson diagonalization with overlap
     ethr =  5.38E-03,  avg # of iterations =  2.0

     negative rho (up, down):  8.859E-02 0.000E+00

     total cpu time spent up to now is        2.4 secs

     total energy              =    -198.69823023 Ry
     Harris-Foulkes estimate   =    -198.69939129 Ry
     estimated scf accuracy    <       0.00242558 Ry

     iteration #  4     ecut=    35.00 Ry     beta= 0.70
     Davidson diagonalization with overlap
     ethr =  1.52E-05,  avg # of iterations =  2.2

     negative rho (up, down):  8.875E-02 0.000E+00

     total cpu time spent up to now is        3.0 secs

     total energy              =    -198.69891234 Ry
     Harris-Foulkes estimate   =    -198.69893463 Ry
     estimated scf accuracy    <       0.00004783 Ry

     iteration #  5     ecut=    35.00 Ry     beta= 0.70
     Davidson diagonalization with overlap
     ethr =  2.99E-07,  avg # of iterations =  2.0

     negative rho (up, down):  8.879E-02 0.000E+00

     total cpu time spent up to now is        3.5 secs

     total energy              =    -198.69892387 Ry
     Harris-Foulkes estimate   =    -198.69892447 Ry
     estimated scf accuracy    <       0.00000148 Ry

     iteration #  6     ecut=    35.00 Ry     beta= 0.70
     Davidson diagonalization with overlap
     ethr =  9.23E-09,  avg # of iterations =  2.0

     negative rho (up, down):  8.880E-02 0.000E+00

     total cpu time spent up to now is        4.0 secs

     total energy              =    -198.69892426 Ry
     Harris-Foulkes estimate   =    -198.69892448 Ry
     estimated scf accuracy    <       0.00000050 Ry

     iteration #  7     ecut=    35.00 Ry     beta= 0.70
     Davidson diagonalization with overlap
     ethr =  3.10E-09,  avg # of iterations =  1.8

     negative rho (up, down):  8.880E-02 0.000E+00

     total cpu time spent up to now is        4.9 secs

     End of self-consistent calculation

          k = 0.0000 0.0000 0.0000 (   331 PWs)   bands (ev):

   -30.4184 -30.4184 -30.4184  11.9900  16.3696  16.3696  16.3696  18.0461
    18.0461  37.2766  42.1925  42.1925

          k =-0.0833 0.0833-0.0833 (   332 PWs)   bands (ev):

   -30.4489 -30.4226 -30.4226  12.2467  16.2809  16.4581  16.4581  18.0061
    18.0061  37.5122  40.5061  42.4534

          k =-0.1667 0.1667-0.1667 (   332 PWs)   bands (ev):

   -30.5313 -30.4343 -30.4343  12.9391  16.1297  16.6365  16.6365  17.9811
    17.9811  37.0970  38.5428  43.1062

          k =-0.2500 0.2500-0.2500 (   344 PWs)   bands (ev):

   -30.6436 -30.4503 -30.4503  13.7028  16.3456  16.6737  16.6737  18.2037
    18.2037  34.2066  38.2512  43.6100

          k =-0.3333 0.3333-0.3333 (   344 PWs)   bands (ev):

   -30.7542 -30.4663 -30.4663  13.9571  16.5318  16.5318  17.5215  18.6755
    18.6755  31.0532  37.4691  42.8881

          k =-0.4167 0.4167-0.4167 (   344 PWs)   bands (ev):

   -30.8345 -30.4778 -30.4778  13.8908  16.3808  16.3808  19.1192  19.1192
    19.2670  28.2242  36.7650  41.7462

          k = 0.5000-0.5000 0.5000 (   344 PWs)   bands (ev):

   -30.8636 -30.4821 -30.4821  13.8410  16.3206  16.3206  19.2984  19.2984
    20.2915  26.8469  36.5054  41.2845

          k = 0.0000 0.1667 0.0000 (   335 PWs)   bands (ev):

   -30.4480 -30.4297 -30.4297  12.3325  16.1808  16.5277  16.5277  17.8532
    18.1222  37.6272  40.9424  41.8561

          k =-0.0833 0.2500-0.0833 (   334 PWs)   bands (ev):

   -30.5094 -30.4436 -30.4376  12.8870  15.9790  16.7158  16.7242  17.7026
    18.1942  37.8323  38.9133  41.5880

          k =-0.1667 0.3333-0.1667 (   337 PWs)   bands (ev):

   -30.6096 -30.4608 -30.4513  13.6835  15.9188  16.7341  16.8405  17.9253
    18.3981  35.3981  38.4853  41.3476

          k =-0.2500 0.4167-0.2500 (   337 PWs)   bands (ev):

   -30.7182 -30.4766 -30.4695  14.1168  16.4820  16.5526  16.7576  18.7190
    18.8026  32.2189  37.8374  40.8878

          k =-0.3333 0.5000-0.3333 (   342 PWs)   bands (ev):

   -30.8062 -30.4876 -30.4870  14.0893  16.2863  16.5960  17.5909  19.1874
    19.9844  29.1601  37.0673  40.4369

          k = 0.5833-0.4167 0.5833 (   342 PWs)   bands (ev):

   -30.8509 -30.5004 -30.4889  14.0169  16.1858  16.4843  18.2702  19.3105
    21.3077  27.0211  36.6387  40.3328

          k = 0.5000-0.3333 0.5000 (   342 PWs)   bands (ev):

   -30.8412 -30.5045 -30.4821  14.0417  16.2279  16.4824  18.2484  19.0716
    21.0347  27.5515  36.6682  39.8956

          k = 0.4167-0.2500 0.4167 (   344 PWs)   bands (ev):

   -30.7798 -30.4985 -30.4684  14.1381  16.3822  16.5973  17.4212  18.5579
    19.8465  30.1553  37.1120  40.2880

          k = 0.3333-0.1667 0.3333 (   339 PWs)   bands (ev):

   -30.6825 -30.4837 -30.4510  14.0663  16.2594  16.6672  16.7728  17.9871
    18.9650  33.2978  37.7510  41.2849

          k = 0.2500-0.0833 0.2500 (   333 PWs)   bands (ev):

   -30.5753 -30.4635 -30.4348  13.4266  15.9504  16.7393  16.7993  17.6932
    18.3848  36.3723  38.1489  41.7665

          k = 0.1667-0.0000 0.1667 (   333 PWs)   bands (ev):

   -30.4896 -30.4412 -30.4246  12.6549  16.1155  16.5851  16.6278  17.8122
    18.1213  37.7766  39.1539  41.6651

          k = 0.0000 0.3333 0.0000 (   335 PWs)   bands (ev):

   -30.5276 -30.4602 -30.4602  13.2571  15.6953  16.9901  16.9901  17.4251
    18.3343  38.5217  39.4000  40.3812

          k =-0.0833 0.4167-0.0833 (   338 PWs)   bands (ev):

   -30.5999 -30.4797 -30.4767  13.9152  15.4478  16.9080  17.2346  17.7851
    18.5256  36.8514  38.8170  39.4402

          k =-0.1667 0.5000-0.1667 (   335 PWs)   bands (ev):

   -30.6912 -30.4978 -30.4968  14.4307  15.5457  16.5624  17.2487  18.8941
    18.9034  33.6356  38.1082  38.7438

          k =-0.2500 0.5833-0.2500 (   334 PWs)   bands (ev):

   -30.7712 -30.5235 -30.5071  14.4556  15.9331  16.5595  17.1043  19.2535
    20.5400  30.3857  37.0898  38.4262

          k = 0.6667-0.3333 0.6667 (   335 PWs)   bands (ev):

   -30.8187 -30.5474 -30.5077  14.4161  15.8716  16.9529  17.1029  19.3442
    22.4413  27.6297  36.2086  38.7344

          k = 0.5833-0.2500 0.5833 (   344 PWs)   bands (ev):

   -30.8228 -30.5624 -30.4987  14.4698  15.8783  16.8802  17.3110  19.0635
    23.0011  27.1176  35.6012  38.8534

          k = 0.5000-0.1667 0.5000 (   347 PWs)   bands (ev):

   -30.7839 -30.5622 -30.4823  14.6169  16.0324  16.8987  16.9264  18.4981
    21.5691  29.5460  35.3796  39.1145

          k = 0.4167-0.0833 0.4167 (   338 PWs)   bands (ev):

   -30.7149 -30.5436 -30.4626  14.7224  15.9356  16.4454  17.0916  17.8352
    20.1971  32.6557  35.5702  40.1414

          k = 0.3333 0.0000 0.3333 (   341 PWs)   bands (ev):

   -30.6388 -30.5076 -30.4454  14.2216  15.7069  16.6589  17.1788  17.4134
    19.1268  35.4225  36.3469  41.9066

          k = 0.0000 0.5000 0.0000 (   343 PWs)   bands (ev):

   -30.6345 -30.5020 -30.5020  14.2114  15.0892  17.4381  17.7036  17.7036
    18.6329  37.9231  37.9231  38.0754

          k =-0.0833 0.5833-0.0833 (   337 PWs)   bands (ev):

   -30.6977 -30.5257 -30.5213  14.4521  14.8852  17.2903  17.9183  18.9123
    18.9235  35.1106  36.8609  37.2159

          k =-0.1667 0.6667-0.1667 (   336 PWs)   bands (ev):

   -30.7562 -30.5588 -30.5328  14.4917  15.0410  17.0447  17.8274  19.2938
    20.8042  31.8508  35.7452  36.3901

          k = 0.7500-0.2500 0.7500 (   346 PWs)   bands (ev):

   -30.7887 -30.5982 -30.5337  14.5331  15.3374  16.8754  17.6524  19.3912
    23.1029  28.7939  34.3642  36.6803

          k = 0.6667-0.1667 0.6667 (   346 PWs)   bands (ev):

   -30.7876 -30.6321 -30.5231  14.7265  15.5665  16.7248  17.5042  19.1087
    24.9585  26.9559  33.2326  37.7941

          k = 0.5833-0.0833 0.5833 (   341 PWs)   bands (ev):

   -30.7627 -30.6420 -30.5043  15.0481  15.7628  16.3809  17.4234  18.5579
    23.4538  29.2574  32.5248  39.2982

          k = 0.5000 0.0000 0.5000 (   339 PWs)   bands (ev):

   -30.7383 -30.6077 -30.4822  15.3059  15.7373  16.1435  17.3652  17.9981
    21.7082  32.2566  32.5077  39.5793

          k = 0.0000 0.6667 0.0000 (   335 PWs)   bands (ev):

   -30.7380 -30.5433 -30.5433  14.2508  14.5369  18.5556  18.5556  18.9440
    18.9446  35.4360  35.4360  35.5604

          k =-0.0833 0.7500-0.0833 (   335 PWs)   bands (ev):

   -30.7790 -30.5691 -30.5571  14.1753  14.4217  18.3072  18.6215  19.2911
    20.8457  33.2320  33.9075  34.6786

          k = 0.8333-0.1667 0.8333 (   338 PWs)   bands (ev):

   -30.7943 -30.6115 -30.5591  14.2276  14.6185  17.8186  18.4459  19.4510
    23.2378  30.3754  32.4070  34.7857

          k = 0.7500-0.0833 0.7500 (   345 PWs)   bands (ev):

   -30.7735 -30.6657 -30.5488  14.4368  15.0469  17.2155  18.2137  19.2206
    25.8706  27.7862  31.1616  35.7924

          k = 0.6667-0.0000 0.6667 (   347 PWs)   bands (ev):

   -30.7206 -30.7184 -30.5288  14.7915  15.5608  16.5498  17.8960  18.8173
    25.4638  28.4769  30.6264  37.5049

          k = 0.0000 0.8333 0.0000 (   335 PWs)   bands (ev):

   -30.8124 -30.5736 -30.5736  13.8952  14.1597  19.1826  19.3094  19.3094
    21.2829  32.1719  33.5938  33.5938

          k = 0.9167-0.0833 0.9167 (   340 PWs)   bands (ev):

   -30.8248 -30.5945 -30.5779  13.8817  14.1654  19.0061  19.0750  19.5343
    22.9623  30.8436  32.1375  33.4122

          k = 0.8333 0.0000 0.8333 (   343 PWs)   bands (ev):

   -30.8059 -30.6328 -30.5687  14.0905  14.4783  18.1616  18.7828  19.4108
    24.8407  29.7218  30.5166  34.2146

          k = 0.0000-1.0000 0.0000 (   342 PWs)   bands (ev):

   -30.8395 -30.5848 -30.5848  13.7328  14.0266  19.2711  19.6250  19.6250
    22.6909  30.3585  32.9005  32.9005

          k =-0.1667 0.3333 0.0000 (   334 PWs)   bands (ev):

   -30.5679 -30.4729 -30.4456  13.5244  15.7340  16.7995  16.9951  17.5959
    18.4447  37.4015  37.7791  41.1125

          k =-0.2500 0.4167-0.0833 (   336 PWs)   bands (ev):

   -30.6555 -30.5021 -30.4593  14.2705  15.6832  16.5732  17.1445  17.8905
    19.0667  34.6180  37.2596  40.5375

          k =-0.3333 0.5000-0.1667 (   337 PWs)   bands (ev):

   -30.7452 -30.5238 -30.4771  14.4741  16.2578  16.3231  17.0264  18.5449
    20.1091  31.4077  36.8089  39.1920

          k = 0.5833-0.4167 0.7500 (   342 PWs)   bands (ev):

   -30.8113 -30.5364 -30.4927  14.3763  16.0204  16.8013  17.2290  19.0531
    21.5957  28.4349  36.5213  38.3846

          k = 0.5000-0.3333 0.6667 (   342 PWs)   bands (ev):

   -30.8354 -30.5401 -30.4990  14.3243  15.9337  16.7682  17.5498  19.2190
    22.6896  26.8332  36.4343  38.1567

          k =-0.1667 0.5000 0.0000 (   335 PWs)   bands (ev):

   -30.6598 -30.5161 -30.4877  14.4546  15.1984  16.7274  17.6980  18.0552
    19.0511  35.8611  36.5500  39.0621

          k =-0.2500 0.5833-0.0833 (   338 PWs)   bands (ev):

   -30.7265 -30.5497 -30.5039  14.7336  15.3138  16.4504  17.7268  18.6455
    20.2683  32.8785  35.7730  37.5638

          k = 0.6667-0.3333 0.8333 (   333 PWs)   bands (ev):

   -30.7786 -30.5769 -30.5180  14.6967  15.6102  16.4374  17.5355  19.1260
    22.0796  29.6992  35.6522  36.2409

          k = 0.5833-0.2500 0.7500 (   344 PWs)   bands (ev):

   -30.8017 -30.5981 -30.5213  14.7424  15.5836  16.7296  17.3405  19.2066
    24.0660  27.1692  35.0023  36.2353

          k = 0.5000-0.1667 0.6667 (   343 PWs)   bands (ev):

   -30.7911 -30.6064 -30.5114  14.8820  15.6229  16.6393  17.3144  18.9358
    23.5509  28.0087  34.2500  37.0877

          k = 0.4167-0.0833 0.5833 (   341 PWs)   bands (ev):

   -30.7541 -30.5932 -30.4932  15.0611  15.8594  16.0305  17.4733  18.3932
    21.7549  30.9326  33.9950  38.1305

          k = 0.3333 0.0000 0.5000 (   338 PWs)   bands (ev):

   -30.7051 -30.5549 -30.4737  15.0132  15.4703  16.2316  17.6609  17.7381
    20.2468  33.8058  34.5632  39.3674

          k =-0.1667 0.6667-0.0000 (   336 PWs)   bands (ev):

   -30.7437 -30.5591 -30.5353  14.4967  14.6971  17.3279  18.5480  18.7441
    20.3347  34.1863  34.5491  35.6861

          k = 0.7500-0.2500 0.9167 (   337 PWs)   bands (ev):

   -30.7743 -30.5967 -30.5483  14.5195  14.8447  17.0765  18.3683  19.1855
    22.3248  31.2526  34.0682  34.2508

          k = 0.6667-0.1667 0.8333 (   346 PWs)   bands (ev):

   -30.7769 -30.6408 -30.5493  14.6333  15.1768  16.7820  18.0428  19.2970
    24.7452  28.3847  32.7354  34.7218

          k = 0.5833-0.0833 0.7500 (   345 PWs)   bands (ev):

   -30.7531 -30.6779 -30.5366  14.9206  15.4944  16.3915  17.8088  19.0330
    25.6336  27.7810  31.6512  35.8041

          k = 0.5000 0.0000 0.6667 (   339 PWs)   bands (ev):

   -30.7455 -30.6603 -30.5154  15.3248  15.7362  15.8407  17.7295  18.5910
    23.5994  30.5556  31.2288  37.0527

          k = 0.8333-0.1667 1.0000 (   336 PWs)   bands (ev):

   -30.8017 -30.5904 -30.5718  14.1202  14.3518  18.1824  19.0324  19.3075
    22.4760  32.1071  32.8898  32.9100

          k = 0.7500-0.0833 0.9167 (   344 PWs)   bands (ev):

   -30.7959 -30.6293 -30.5740  14.2525  14.5861  17.7014  18.6507  19.4855
    24.6572  30.1434  31.0963  33.2580

          k = 0.6667 0.0000 0.8333 (   344 PWs)   bands (ev):

   -30.7607 -30.6797 -30.5601  14.5352  15.0641  16.9975  18.2413  19.3062
    26.7972  27.8408  30.4160  34.3667

          k =-0.1667-1.0000-0.0000 (   346 PWs)   bands (ev):

   -30.8226 -30.6020 -30.5856  13.9514  14.2294  18.6362  19.0015  19.6257
    23.9109  30.2903  32.2444  32.2991

          k = 0.6667-0.3333 1.0000 (   343 PWs)   bands (ev):

   -30.7513 -30.6022 -30.5208  15.1307  15.1575  16.1828  18.2161  18.5413
    21.9535  32.4255  32.6862  36.1091

          k = 0.5833-0.2500 0.9167 (   344 PWs)   bands (ev):

   -30.7630 -30.6411 -30.5386  15.1136  15.3777  16.1060  17.9351  19.0232
    23.9832  29.4644  32.7514  34.7700

          k = 0.5000-0.1667 0.8333 (   346 PWs)   bands (ev):

   -30.7658 -30.6557 -30.5462  15.1875  15.2865  16.2420  17.7544  19.2096
    25.8968  27.1703  33.3485  33.7933

          k = 0.6667-0.1667 1.0000 (   345 PWs)   bands (ev):

   -30.7721 -30.6365 -30.5671  14.6743  14.9186  16.7821  18.4144  19.2996
    24.3226  31.1814  31.3339  32.7618

          k = 0.5833-0.0833 0.9167 (   344 PWs)   bands (ev):

   -30.7473 -30.6797 -30.5739  14.8057  15.3060  16.3692  18.0568  19.4673
    26.6632  28.5304  31.1662  32.3423

          k = 0.5000 0.0000 0.8333 (   343 PWs)   bands (ev):

   -30.7287 -30.6988 -30.5614  15.0130  15.7172  15.8287  17.9416  19.2937
    26.1102  29.0290  30.6478  33.4323

          k =-0.3333-1.0000 0.0000 (   344 PWs)   bands (ev):

   -30.7762 -30.6489 -30.5873  14.4833  14.8310  17.1235  18.3583  19.6273
    26.0924  30.1273  30.5867  31.4695

          k =-0.5000-1.0000 0.0000 (   328 PWs)   bands (ev):

   -30.7123 -30.7123 -30.5873  14.8328  15.8124  15.8124  17.9520  19.6307
    28.4196  28.4196  30.0278  31.1757

     the Fermi energy is    19.2971 ev

!    total energy              =    -198.69892435 Ry
     Harris-Foulkes estimate   =    -198.69892435 Ry
     estimated scf accuracy    <          2.0E-10 Ry

     The total energy is the sum of the following terms:

     one-electron contribution =     -41.36275415 Ry
     hartree contribution      =      34.83694926 Ry
     xc contribution           =     -31.38885721 Ry
     ewald contribution        =    -160.78420429 Ry
     smearing contrib. (-TS)   =      -0.00005797 Ry

     convergence has been achieved in   7 iterations

     Writing output data file Pd-kp-conv.save/
 
     init_run     :      0.53s CPU      0.57s WALL (       1 calls)
     electrons    :      3.52s CPU      4.22s WALL (       1 calls)

     Called by init_run:
     wfcinit      :      0.20s CPU      0.22s WALL (       1 calls)
     potinit      :      0.01s CPU      0.02s WALL (       1 calls)
     hinit0       :      0.31s CPU      0.32s WALL (       1 calls)

     Called by electrons:
     c_bands      :      2.94s CPU      3.22s WALL (       7 calls)
     sum_band     :      0.52s CPU      0.57s WALL (       7 calls)
     v_of_rho     :      0.02s CPU      0.02s WALL (       8 calls)
     newd         :      0.04s CPU      0.04s WALL (       8 calls)
     mix_rho      :      0.00s CPU      0.00s WALL (       7 calls)

     Called by c_bands:
     init_us_2    :      0.08s CPU      0.09s WALL (    1080 calls)
     cegterg      :      2.70s CPU      2.92s WALL (     504 calls)

     Called by sum_band:
     sum_band:bec :      0.00s CPU      0.01s WALL (     504 calls)
     addusdens    :      0.04s CPU      0.04s WALL (       7 calls)

     Called by *egterg:
     h_psi        :      2.17s CPU      2.35s WALL (    1697 calls)
     s_psi        :      0.04s CPU      0.04s WALL (    1697 calls)
     g_psi        :      0.03s CPU      0.03s WALL (    1121 calls)
     cdiaghg      :      0.40s CPU      0.43s WALL (    1625 calls)

     Called by h_psi:
     h_psi:pot    :      2.16s CPU      2.34s WALL (    1697 calls)
     h_psi:calbec :      0.05s CPU      0.06s WALL (    1697 calls)
     vloc_psi     :      2.05s CPU      2.22s WALL (    1697 calls)
     add_vuspsi   :      0.04s CPU      0.04s WALL (    1697 calls)

     General routines
     calbec       :      0.06s CPU      0.07s WALL (    2201 calls)
     fft          :      0.01s CPU      0.01s WALL (      89 calls)
     ffts         :      0.00s CPU      0.00s WALL (       7 calls)
     fftw         :      2.12s CPU      2.30s WALL (   37210 calls)
 
     Parallel routines
     fft_scatt_xy :      0.38s CPU      0.41s WALL (   37306 calls)
     fft_scatt_yz :      0.56s CPU      0.62s WALL (   37306 calls)
 
     PWSCF        :     4.17s CPU         5.15s WALL

 
   This run was terminated on:  20:32:16   2Dec2021            

=------------------------------------------------------------------------------=
   JOB DONE.
=------------------------------------------------------------------------------=
