
     Program PWSCF v.6.3 starts on  2Dec2021 at 20:33:11 

     This program is part of the open-source Quantum ESPRESSO suite
     for quantum simulation of materials; please cite
         "P. Giannozzi et al., J. Phys.:Condens. Matter 21 395502 (2009);
         "P. Giannozzi et al., J. Phys.:Condens. Matter 29 465901 (2017);
          URL http://www.quantum-espresso.org", 
     in publications or presentations arising from this work. More details at
     http://www.quantum-espresso.org/quote

     Parallel version (MPI & OpenMP), running on       2 processor cores
     Number of MPI processes:                 2
     Threads/MPI process:                     1

     MPI processes distributed on     1 nodes
     R & G space division:  proc/nbgrp/npool/nimage =       2
     Reading input from pw-input.in

     Current dimensions of program PWSCF are:
     Max number of different atomic species (ntypx) = 10
     Max number of k-points (npk) =  40000
     Max angular momentum in pseudopotentials (lmaxx) =  3

     Subspace diagonalization in iterative solution of the eigenvalue problem:
     a serial algorithm will be used

 
     Parallelization info
     --------------------
     sticks:   dense  smooth     PW     G-vecs:    dense   smooth      PW
     Min         168     168     60                 2007     2007     410
     Max         169     169     61                 2008     2008     411
     Sum         337     337    121                 4015     4015     821
 

     Title: 
     Pd-kp-conv                                                                 


     bravais-lattice index     =            2
     lattice parameter (alat)  =       8.3000  a.u.
     unit-cell volume          =     142.9468 (a.u.)^3
     number of atoms/cell      =            1
     number of atomic types    =            1
     number of electrons       =        16.00
     number of Kohn-Sham states=           12
     kinetic-energy cutoff     =      35.0000  Ry
     charge density cutoff     =     140.0000  Ry
     convergence threshold     =      1.0E-07
     mixing beta               =       0.7000
     number of iterations used =            8  plain     mixing
     Exchange-correlation      =  SLA  PW   PBX  PBC ( 1  4  3  4 0 0)

     celldm(1)=   8.300000  celldm(2)=   0.000000  celldm(3)=   0.000000
     celldm(4)=   0.000000  celldm(5)=   0.000000  celldm(6)=   0.000000

     crystal axes: (cart. coord. in units of alat)
               a(1) = (  -0.500000   0.000000   0.500000 )  
               a(2) = (   0.000000   0.500000   0.500000 )  
               a(3) = (  -0.500000   0.500000   0.000000 )  

     reciprocal axes: (cart. coord. in units 2 pi/alat)
               b(1) = ( -1.000000 -1.000000  1.000000 )  
               b(2) = (  1.000000  1.000000  1.000000 )  
               b(3) = ( -1.000000  1.000000 -1.000000 )  


     PseudoPot. # 1 for Pd read from file:
     ./pd_pbe_v1.4.uspp.F.UPF
     MD5 check sum: 2d733d2bc2cbfd217af676df1668a4bc
     Pseudo is Ultrasoft + core correction, Zval = 16.0
     Generated by new atomic code, or converted to UPF format
     Using radial grid of  887 points,  6 beta functions with: 
                l(1) =   0
                l(2) =   0
                l(3) =   1
                l(4) =   1
                l(5) =   2
                l(6) =   2
     Q(r) pseudized with  8 coefficients,  rinner =    1.130   1.130   1.130
                                                       1.130   1.130

     atomic species   valence    mass     pseudopotential
        Pd            16.00   106.40000     Pd( 1.00)

     48 Sym. Ops., with inversion, found



   Cartesian axes

     site n.     atom                  positions (alat units)
         1           Pd  tau(   1) = (   0.0000000   0.0000000   0.0000000  )

     number of k points=    72  Marzari-Vanderbilt smearing, width (Ry)=  0.0050
                       cart. coord. in units 2pi/alat
        k(    1) = (   0.0000000   0.0000000   0.0000000), wk =   0.0011574
        k(    2) = (  -0.0833333   0.0833333  -0.0833333), wk =   0.0092593
        k(    3) = (  -0.1666667   0.1666667  -0.1666667), wk =   0.0092593
        k(    4) = (  -0.2500000   0.2500000  -0.2500000), wk =   0.0092593
        k(    5) = (  -0.3333333   0.3333333  -0.3333333), wk =   0.0092593
        k(    6) = (  -0.4166667   0.4166667  -0.4166667), wk =   0.0092593
        k(    7) = (   0.5000000  -0.5000000   0.5000000), wk =   0.0046296
        k(    8) = (   0.0000000   0.1666667   0.0000000), wk =   0.0069444
        k(    9) = (  -0.0833333   0.2500000  -0.0833333), wk =   0.0277778
        k(   10) = (  -0.1666667   0.3333333  -0.1666667), wk =   0.0277778
        k(   11) = (  -0.2500000   0.4166667  -0.2500000), wk =   0.0277778
        k(   12) = (  -0.3333333   0.5000000  -0.3333333), wk =   0.0277778
        k(   13) = (   0.5833333  -0.4166667   0.5833333), wk =   0.0277778
        k(   14) = (   0.5000000  -0.3333333   0.5000000), wk =   0.0277778
        k(   15) = (   0.4166667  -0.2500000   0.4166667), wk =   0.0277778
        k(   16) = (   0.3333333  -0.1666667   0.3333333), wk =   0.0277778
        k(   17) = (   0.2500000  -0.0833333   0.2500000), wk =   0.0277778
        k(   18) = (   0.1666667  -0.0000000   0.1666667), wk =   0.0138889
        k(   19) = (   0.0000000   0.3333333   0.0000000), wk =   0.0069444
        k(   20) = (  -0.0833333   0.4166667  -0.0833333), wk =   0.0277778
        k(   21) = (  -0.1666667   0.5000000  -0.1666667), wk =   0.0277778
        k(   22) = (  -0.2500000   0.5833333  -0.2500000), wk =   0.0277778
        k(   23) = (   0.6666667  -0.3333333   0.6666667), wk =   0.0277778
        k(   24) = (   0.5833333  -0.2500000   0.5833333), wk =   0.0277778
        k(   25) = (   0.5000000  -0.1666667   0.5000000), wk =   0.0277778
        k(   26) = (   0.4166667  -0.0833333   0.4166667), wk =   0.0277778
        k(   27) = (   0.3333333   0.0000000   0.3333333), wk =   0.0138889
        k(   28) = (   0.0000000   0.5000000   0.0000000), wk =   0.0069444
        k(   29) = (  -0.0833333   0.5833333  -0.0833333), wk =   0.0277778
        k(   30) = (  -0.1666667   0.6666667  -0.1666667), wk =   0.0277778
        k(   31) = (   0.7500000  -0.2500000   0.7500000), wk =   0.0277778
        k(   32) = (   0.6666667  -0.1666667   0.6666667), wk =   0.0277778
        k(   33) = (   0.5833333  -0.0833333   0.5833333), wk =   0.0277778
        k(   34) = (   0.5000000   0.0000000   0.5000000), wk =   0.0138889
        k(   35) = (   0.0000000   0.6666667   0.0000000), wk =   0.0069444
        k(   36) = (  -0.0833333   0.7500000  -0.0833333), wk =   0.0277778
        k(   37) = (   0.8333333  -0.1666667   0.8333333), wk =   0.0277778
        k(   38) = (   0.7500000  -0.0833333   0.7500000), wk =   0.0277778
        k(   39) = (   0.6666667  -0.0000000   0.6666667), wk =   0.0138889
        k(   40) = (   0.0000000   0.8333333   0.0000000), wk =   0.0069444
        k(   41) = (   0.9166667  -0.0833333   0.9166667), wk =   0.0277778
        k(   42) = (   0.8333333   0.0000000   0.8333333), wk =   0.0138889
        k(   43) = (   0.0000000  -1.0000000   0.0000000), wk =   0.0034722
        k(   44) = (  -0.1666667   0.3333333   0.0000000), wk =   0.0277778
        k(   45) = (  -0.2500000   0.4166667  -0.0833333), wk =   0.0555556
        k(   46) = (  -0.3333333   0.5000000  -0.1666667), wk =   0.0555556
        k(   47) = (   0.5833333  -0.4166667   0.7500000), wk =   0.0555556
        k(   48) = (   0.5000000  -0.3333333   0.6666667), wk =   0.0277778
        k(   49) = (  -0.1666667   0.5000000   0.0000000), wk =   0.0277778
        k(   50) = (  -0.2500000   0.5833333  -0.0833333), wk =   0.0555556
        k(   51) = (   0.6666667  -0.3333333   0.8333333), wk =   0.0555556
        k(   52) = (   0.5833333  -0.2500000   0.7500000), wk =   0.0555556
        k(   53) = (   0.5000000  -0.1666667   0.6666667), wk =   0.0555556
        k(   54) = (   0.4166667  -0.0833333   0.5833333), wk =   0.0555556
        k(   55) = (   0.3333333   0.0000000   0.5000000), wk =   0.0277778
        k(   56) = (  -0.1666667   0.6666667  -0.0000000), wk =   0.0277778
        k(   57) = (   0.7500000  -0.2500000   0.9166667), wk =   0.0555556
        k(   58) = (   0.6666667  -0.1666667   0.8333333), wk =   0.0555556
        k(   59) = (   0.5833333  -0.0833333   0.7500000), wk =   0.0555556
        k(   60) = (   0.5000000   0.0000000   0.6666667), wk =   0.0277778
        k(   61) = (   0.8333333  -0.1666667   1.0000000), wk =   0.0277778
        k(   62) = (   0.7500000  -0.0833333   0.9166667), wk =   0.0555556
        k(   63) = (   0.6666667   0.0000000   0.8333333), wk =   0.0277778
        k(   64) = (  -0.1666667  -1.0000000  -0.0000000), wk =   0.0138889
        k(   65) = (   0.6666667  -0.3333333   1.0000000), wk =   0.0277778
        k(   66) = (   0.5833333  -0.2500000   0.9166667), wk =   0.0555556
        k(   67) = (   0.5000000  -0.1666667   0.8333333), wk =   0.0277778
        k(   68) = (   0.6666667  -0.1666667   1.0000000), wk =   0.0277778
        k(   69) = (   0.5833333  -0.0833333   0.9166667), wk =   0.0555556
        k(   70) = (   0.5000000   0.0000000   0.8333333), wk =   0.0277778
        k(   71) = (  -0.3333333  -1.0000000   0.0000000), wk =   0.0138889
        k(   72) = (  -0.5000000  -1.0000000   0.0000000), wk =   0.0069444

     Dense  grid:     4015 G-vectors     FFT dimensions: (  24,  24,  24)

     Estimated max dynamical RAM per process >      11.70 MB

     Estimated total dynamical RAM >      23.41 MB

     Initial potential from superposition of free atoms
     Check: negative starting charge=   -0.082880

     starting charge   15.49999, renormalised to   16.00000

     negative rho (up, down):  8.555E-02 0.000E+00
     Starting wfcs are   12 randomized atomic wfcs

     total cpu time spent up to now is        0.8 secs

     Self-consistent Calculation

     iteration #  1     ecut=    35.00 Ry     beta= 0.70
     Davidson diagonalization with overlap
     ethr =  1.00E-02,  avg # of iterations =  3.3

     negative rho (up, down):  8.267E-02 0.000E+00

     total cpu time spent up to now is        1.7 secs

     total energy              =    -197.82755402 Ry
     Harris-Foulkes estimate   =    -199.06711898 Ry
     estimated scf accuracy    <       1.67580700 Ry

     iteration #  2     ecut=    35.00 Ry     beta= 0.70
     Davidson diagonalization with overlap
     ethr =  1.00E-02,  avg # of iterations =  2.0

     negative rho (up, down):  8.495E-02 0.000E+00

     total cpu time spent up to now is        2.5 secs

     total energy              =    -198.22792635 Ry
     Harris-Foulkes estimate   =    -199.39614758 Ry
     estimated scf accuracy    <       2.53244321 Ry

     iteration #  3     ecut=    35.00 Ry     beta= 0.70
     Davidson diagonalization with overlap
     ethr =  1.00E-02,  avg # of iterations =  2.0

     negative rho (up, down):  8.501E-02 0.000E+00

     total cpu time spent up to now is        3.3 secs

     total energy              =    -198.65855804 Ry
     Harris-Foulkes estimate   =    -198.65861840 Ry
     estimated scf accuracy    <       0.00029945 Ry

     iteration #  4     ecut=    35.00 Ry     beta= 0.70
     Davidson diagonalization with overlap
     ethr =  1.87E-06,  avg # of iterations =  3.3

     negative rho (up, down):  8.510E-02 0.000E+00

     total cpu time spent up to now is        4.2 secs

     total energy              =    -198.65876369 Ry
     Harris-Foulkes estimate   =    -198.65876656 Ry
     estimated scf accuracy    <       0.00001729 Ry

     iteration #  5     ecut=    35.00 Ry     beta= 0.70
     Davidson diagonalization with overlap
     ethr =  1.08E-07,  avg # of iterations =  1.1

     negative rho (up, down):  8.510E-02 0.000E+00

     total cpu time spent up to now is        4.9 secs

     total energy              =    -198.65876425 Ry
     Harris-Foulkes estimate   =    -198.65876433 Ry
     estimated scf accuracy    <       0.00000021 Ry

     iteration #  6     ecut=    35.00 Ry     beta= 0.70
     Davidson diagonalization with overlap
     ethr =  1.34E-09,  avg # of iterations =  2.1

     negative rho (up, down):  8.510E-02 0.000E+00

     total cpu time spent up to now is        5.7 secs

     End of self-consistent calculation

          k = 0.0000 0.0000 0.0000 (   531 PWs)   bands (ev):

   -37.8696 -37.8696 -37.8696   6.3241   9.4664   9.4664   9.4664  10.3558
    10.3558  27.8490  30.5512  30.5512

          k =-0.0833 0.0833-0.0833 (   528 PWs)   bands (ev):

   -37.8763 -37.8706 -37.8706   6.5100   9.4253   9.5154   9.5154  10.3382
    10.3382  27.7193  29.0880  30.5459

          k =-0.1667 0.1667-0.1667 (   513 PWs)   bands (ev):

   -37.8947 -37.8733 -37.8733   7.0277   9.3573   9.6154   9.6154  10.3332
    10.3332  25.6214  28.4978  30.4559

          k =-0.2500 0.2500-0.2500 (   507 PWs)   bands (ev):

   -37.9202 -37.8772 -37.8772   7.6720   9.5071   9.6409   9.6409  10.4549
    10.4549  22.7155  28.2374  30.1129

          k =-0.3333 0.3333-0.3333 (   492 PWs)   bands (ev):

   -37.9457 -37.8808 -37.8808   7.9914   9.5711   9.5711  10.3464  10.6994
    10.6994  19.8878  27.6998  29.4949

          k =-0.4167 0.4167-0.4167 (   498 PWs)   bands (ev):

   -37.9643 -37.8838 -37.8838   8.0121   9.4918   9.4918  10.9217  10.9217
    11.7735  17.3874  27.2478  28.9069

          k = 0.5000-0.5000 0.5000 (   502 PWs)   bands (ev):

   -37.9711 -37.8850 -37.8850   7.9962   9.4598   9.4598  11.0098  11.0098
    12.7921  16.0262  27.0810  28.6725

          k = 0.0000 0.1667 0.0000 (   523 PWs)   bands (ev):

   -37.8758 -37.8722 -37.8722   6.5721   9.3718   9.5542   9.5542  10.2641
    10.3966  27.8673  29.6676  29.7203

          k =-0.0833 0.2500-0.0833 (   511 PWs)   bands (ev):

   -37.8897 -37.8754 -37.8740   6.9828   9.2722   9.6600   9.6632  10.1934
    10.4386  26.6860  28.3038  29.0175

          k =-0.1667 0.3333-0.1667 (   502 PWs)   bands (ev):

   -37.9124 -37.8794 -37.8774   7.6166   9.2504   9.6831   9.7297  10.3245
    10.5505  23.8117  28.1015  28.4231

          k =-0.2500 0.4167-0.2500 (   504 PWs)   bands (ev):

   -37.9376 -37.8834 -37.8818   8.0635   9.5473   9.6533   9.6899  10.7606
    10.8181  20.9212  27.6729  27.9607

          k =-0.3333 0.5000-0.3333 (   496 PWs)   bands (ev):

   -37.9578 -37.8860 -37.8858   8.1274   9.4508   9.6078  10.2640  10.9554
    11.8354  18.2636  27.1718  27.7430

          k = 0.5833-0.4167 0.5833 (   499 PWs)   bands (ev):

   -37.9681 -37.8892 -37.8865   8.1051   9.3969   9.5496  10.6052  11.0161
    13.1531  16.2635  26.7470  27.8669

          k = 0.5000-0.3333 0.5000 (   496 PWs)   bands (ev):

   -37.9659 -37.8900 -37.8849   8.1153   9.4184   9.5490  10.6179  10.8989
    12.7803  16.7945  26.4766  27.8219

          k = 0.4167-0.2500 0.4167 (   502 PWs)   bands (ev):

   -37.9518 -37.8885 -37.8817   8.1378   9.4958   9.6099  10.2087  10.6403
    11.5494  19.1209  26.4670  28.3130

          k = 0.3333-0.1667 0.3333 (   503 PWs)   bands (ev):

   -37.9293 -37.8849 -37.8774   7.9759   9.4453   9.6737   9.6991  10.3462
    10.8852  21.8767  26.6980  29.1940

          k = 0.2500-0.0833 0.2500 (   507 PWs)   bands (ev):

   -37.9047 -37.8800 -37.8736   7.3992   9.2640   9.6813   9.7047  10.1903
    10.5484  24.7913  27.0668  29.9328

          k = 0.1667-0.0000 0.1667 (   517 PWs)   bands (ev):

   -37.8852 -37.8749 -37.8711   6.8095   9.3432   9.5857   9.6111  10.2450
    10.4011  27.3458  27.6977  29.8029

          k = 0.0000 0.3333 0.0000 (   504 PWs)   bands (ev):

   -37.8938 -37.8791 -37.8791   7.2642   9.1224   9.8085   9.8085  10.0590
    10.5107  27.8512  27.8512  27.9174

          k =-0.0833 0.4167-0.0833 (   504 PWs)   bands (ev):

   -37.9102 -37.8839 -37.8832   7.7900   8.9923   9.7817   9.9419  10.2619
    10.6127  25.1174  26.9617  27.9008

          k =-0.1667 0.5000-0.1667 (   503 PWs)   bands (ev):

   -37.9315 -37.8882 -37.8880   8.2711   9.0507   9.5995   9.9533  10.8048
    10.9512  22.1876  26.3795  27.1649

          k =-0.2500 0.5833-0.2500 (   503 PWs)   bands (ev):

   -37.9500 -37.8944 -37.8907   8.3685   9.3006   9.6117   9.8808  10.9867
    12.1093  19.4202  25.9738  26.1781

          k = 0.6667-0.3333 0.6667 (   508 PWs)   bands (ev):

   -37.9611 -37.9000 -37.8911   8.3587   9.2532   9.8030   9.9531  11.0323
    13.6679  17.0229  24.9219  26.4491

          k = 0.5833-0.2500 0.5833 (   499 PWs)   bands (ev):

   -37.9618 -37.9033 -37.8888   8.3874   9.2518   9.7669  10.0862  10.8951
    14.1702  16.4697  24.1914  27.2449

          k = 0.5000-0.1667 0.5000 (   502 PWs)   bands (ev):

   -37.9529 -37.9031 -37.8851   8.4577   9.3249   9.7925   9.8721  10.6095
    12.7551  18.6506  23.8515  28.1305

          k = 0.4167-0.0833 0.4167 (   504 PWs)   bands (ev):

   -37.9370 -37.8987 -37.8804   8.4580   9.2579   9.5790   9.8783  10.2659
    11.6647  21.3166  23.8952  28.9504

          k = 0.3333 0.0000 0.3333 (   503 PWs)   bands (ev):

   -37.9191 -37.8903 -37.8762   8.0062   9.1362   9.6589   9.9093  10.0525
    10.9715  23.9943  24.4354  30.1406

          k = 0.0000 0.5000 0.0000 (   504 PWs)   bands (ev):

   -37.9184 -37.8891 -37.8891   8.0835   8.7981  10.1197  10.1940  10.1940
    10.6678  25.8075  25.8075  26.9948

          k =-0.0833 0.5833-0.0833 (   497 PWs)   bands (ev):

   -37.9331 -37.8946 -37.8937   8.3500   8.6852  10.0184  10.3094  10.8190
    10.9938  23.5399  25.0277  25.4654

          k =-0.1667 0.6667-0.1667 (   500 PWs)   bands (ev):

   -37.9468 -37.9024 -37.8966   8.4379   8.7848   9.8828  10.2652  11.0063
    12.3009  20.7929  23.9992  24.7051

          k = 0.7500-0.2500 0.7500 (   497 PWs)   bands (ev):

   -37.9543 -37.9115 -37.8969   8.4694   8.9716   9.7936  10.1779  11.0572
    14.0002  18.2659  22.7657  24.9149

          k = 0.6667-0.1667 0.6667 (   505 PWs)   bands (ev):

   -37.9543 -37.9192 -37.8947   8.5736   9.1017   9.7211  10.1028  10.9170
    15.6609  16.4544  21.8218  25.6740

          k = 0.5833-0.0833 0.5833 (   501 PWs)   bands (ev):

   -37.9484 -37.9214 -37.8903   8.7427   9.2022   9.5470  10.0636  10.6376
    14.1539  18.4997  21.2464  26.9150

          k = 0.5000 0.0000 0.5000 (   500 PWs)   bands (ev):

   -37.9425 -37.9133 -37.8851   8.8555   9.1569   9.4356  10.0347  10.3452
    12.7427  21.0461  21.1398  28.4997

          k = 0.0000 0.6667 0.0000 (   500 PWs)   bands (ev):

   -37.9425 -37.8990 -37.8990   8.2899   8.4919  10.6405  10.6405  10.8298
    11.2513  23.6380  24.0386  24.0386

          k =-0.0833 0.7500-0.0833 (   493 PWs)   bands (ev):

   -37.9521 -37.9049 -37.9023   8.2832   8.4269  10.5714  10.6747  11.0061
    12.5139  21.8130  22.4920  23.5325

          k = 0.8333-0.1667 0.8333 (   489 PWs)   bands (ev):

   -37.9558 -37.9146 -37.9028   8.3254   8.5457  10.3185  10.5894  11.0866
    14.2129  19.6853  20.9666  23.6028

          k = 0.7500-0.0833 0.7500 (   496 PWs)   bands (ev):

   -37.9513 -37.9269 -37.9006   8.4437   8.7958   9.9879  10.4762  10.9726
    16.1876  17.6044  19.8676  24.2616

          k = 0.6667-0.0000 0.6667 (   506 PWs)   bands (ev):

   -37.9392 -37.9390 -37.8960   8.6342   9.0953   9.6149  10.3152  10.7680
    15.7585  18.1405  19.4350  25.4185

          k = 0.0000 0.8333 0.0000 (   488 PWs)   bands (ev):

   -37.9601 -37.9061 -37.9061   8.1361   8.2787  10.9518  11.0202  11.0202
    13.1499  20.4151  22.8230  22.8230

          k = 0.9167-0.0833 0.9167 (   490 PWs)   bands (ev):

   -37.9630 -37.9110 -37.9072   8.1389   8.2800  10.9024  10.9138  11.1291
    14.3868  19.2024  21.5822  22.7062

          k = 0.8333 0.0000 0.8333 (   494 PWs)   bands (ev):

   -37.9589 -37.9196 -37.9052   8.2587   8.4616  10.4994  10.7623  11.0670
    15.6826  18.6000  19.8034  23.2163

          k = 0.0000-1.0000 0.0000 (   492 PWs)   bands (ev):

   -37.9664 -37.9088 -37.9088   8.0544   8.2017  10.9967  11.1739  11.1739
    14.4778  18.6583  22.3844  22.3844

          k =-0.1667 0.3333 0.0000 (   508 PWs)   bands (ev):

   -37.9030 -37.8822 -37.8761   7.4673   9.1454   9.7158   9.8107  10.1463
    10.5759  25.9012  26.1324  29.6470

          k =-0.2500 0.4167-0.0833 (   502 PWs)   bands (ev):

   -37.9230 -37.8890 -37.8794   8.0787   9.1218   9.6094   9.8974  10.3109
    10.9420  23.0720  25.5444  28.8312

          k =-0.3333 0.5000-0.1667 (   508 PWs)   bands (ev):

   -37.9440 -37.8944 -37.8837   8.3406   9.4382   9.5129   9.8457  10.6524
    11.6751  20.2397  25.2768  27.5880

          k = 0.5833-0.4167 0.7500 (   502 PWs)   bands (ev):

   -37.9592 -37.8974 -37.8874   8.3210   9.3217   9.7259  10.0396  10.8966
    12.9391  17.6889  25.3252  26.5330

          k = 0.5000-0.3333 0.6667 (   500 PWs)   bands (ev):

   -37.9647 -37.8983 -37.8889   8.2976   9.2761   9.7057  10.2190  10.9720
    14.0829  16.1299  25.7275  25.7740

          k =-0.1667 0.5000 0.0000 (   504 PWs)   bands (ev):

   -37.9242 -37.8923 -37.8860   8.2493   8.8576   9.6904  10.1904  10.4185
    10.9381  24.2861  24.5974  27.2165

          k =-0.2500 0.5833-0.0833 (   499 PWs)   bands (ev):

   -37.9397 -37.9001 -37.8898   8.5393   8.9261   9.5400  10.2179  10.7073
    11.7959  21.5746  24.0658  25.7515

          k = 0.6667-0.3333 0.8333 (   497 PWs)   bands (ev):

   -37.9519 -37.9065 -37.8933   8.5430   9.1264   9.5407  10.1222  10.9322
    13.1769  18.9179  24.0001  24.5315

          k = 0.5833-0.2500 0.7500 (   496 PWs)   bands (ev):

   -37.9573 -37.9113 -37.8940   8.5660   9.1075   9.7316  10.0195  10.9674
    14.8883  16.6711  23.4124  24.5300

          k = 0.5000-0.1667 0.6667 (   498 PWs)   bands (ev):

   -37.9549 -37.9132 -37.8918   8.6382   9.1257   9.6909  10.0072  10.8329
    14.3452  17.4176  22.7650  25.3162

          k = 0.4167-0.0833 0.5833 (   500 PWs)   bands (ev):

   -37.9461 -37.9101 -37.8875   8.7324   9.2335   9.3475  10.0957  10.5612
    12.8218  19.8811  22.5102  26.3877

          k = 0.3333 0.0000 0.5000 (   507 PWs)   bands (ev):

   -37.9348 -37.9013 -37.8830   8.6294   9.0076   9.4409  10.2009  10.2102
    11.7007  22.4464  22.8261  27.6337

          k =-0.1667 0.6667-0.0000 (   491 PWs)   bands (ev):

   -37.9436 -37.9024 -37.8970   8.4436   8.5804  10.0375  10.6370  10.7670
    11.9496  22.7824  23.1123  23.9158

          k = 0.7500-0.2500 0.9167 (   497 PWs)   bands (ev):

   -37.9511 -37.9113 -37.9003   8.4822   8.6741   9.9004  10.5607  10.9605
    13.4064  20.3536  22.3454  23.0373

          k = 0.6667-0.1667 0.8333 (   495 PWs)   bands (ev):

   -37.9519 -37.9212 -37.9006   8.5495   8.8726   9.7413  10.3921  11.0126
    15.2389  18.0037  21.2669  23.3203

          k = 0.5833-0.0833 0.7500 (   498 PWs)   bands (ev):

   -37.9466 -37.9296 -37.8976   8.7098   9.0519   9.5284  10.2702  10.8802
    15.9372  17.4100  20.4261  24.1027

          k = 0.5000 0.0000 0.6667 (   501 PWs)   bands (ev):

   -37.9445 -37.9257 -37.8928   8.9218   9.1944   9.2148  10.2337  10.6541
    14.2318  19.6854  20.0994  25.1799

          k = 0.8333-0.1667 1.0000 (   492 PWs)   bands (ev):

   -37.9576 -37.9100 -37.9057   8.2718   8.3840  10.4953  10.8964  11.0185
    13.7513  20.4340  22.0308  22.1063

          k = 0.7500-0.0833 0.9167 (   492 PWs)   bands (ev):

   -37.9565 -37.9188 -37.9062   8.3540   8.5200  10.2489  10.7020  11.1056
    15.3879  19.1391  20.1505  22.2984

          k = 0.6667 0.0000 0.8333 (   491 PWs)   bands (ev):

   -37.9485 -37.9300 -37.9030   8.5107   8.7982   9.8656  10.4950  11.0171
    16.9931  17.6452  19.1775  23.0324

          k =-0.1667-1.0000-0.0000 (   494 PWs)   bands (ev):

   -37.9626 -37.9128 -37.9091   8.1847   8.3137  10.7349  10.8687  11.1742
    15.1268  18.6679  21.6312  21.6982

          k = 0.6667-0.3333 1.0000 (   501 PWs)   bands (ev):

   -37.9456 -37.9124 -37.8939   8.8338   8.8341   9.3917  10.4975  10.6315
    13.0033  21.2328  21.4181  24.3721

          k = 0.5833-0.2500 0.9167 (   496 PWs)   bands (ev):

   -37.9486 -37.9213 -37.8980   8.8221   8.9826   9.3584  10.3419  10.8776
    14.5737  18.7900  21.4492  23.2227

          k = 0.5000-0.1667 0.8333 (   500 PWs)   bands (ev):

   -37.9495 -37.9246 -37.8998   8.8881   8.9000   9.4501  10.2428  10.9693
    16.3276  16.7073  21.7332  22.5919

          k = 0.6667-0.1667 1.0000 (   499 PWs)   bands (ev):

   -37.9510 -37.9204 -37.9046   8.6037   8.6987   9.7392  10.5895  11.0149
    14.9173  20.1503  20.4114  21.5634

          k = 0.5833-0.0833 0.9167 (   498 PWs)   bands (ev):

   -37.9455 -37.9302 -37.9062   8.6832   8.9185   9.5115  10.4038  11.0973
    16.7481  18.1503  19.9132  21.3344

          k = 0.5000 0.0000 0.8333 (   499 PWs)   bands (ev):

   -37.9412 -37.9345 -37.9033   8.8050   9.1436   9.2085  10.3442  11.0115
    16.2314  18.6446  19.5166  22.1054

          k =-0.3333-1.0000 0.0000 (   490 PWs)   bands (ev):

   -37.9519 -37.9233 -37.9092   8.5000   8.6487   9.9341  10.5563  11.1757
    16.5449  18.7043  20.0376  20.7181

          k =-0.5000-1.0000 0.0000 (   488 PWs)   bands (ev):

   -37.9375 -37.9375 -37.9091   8.7062   9.1994   9.1994  10.3506  11.1764
    18.2540  18.2540  18.7371  20.3169

     the Fermi energy is    11.0173 ev

!    total energy              =    -198.65876430 Ry
     Harris-Foulkes estimate   =    -198.65876430 Ry
     estimated scf accuracy    <          5.1E-09 Ry

     The total energy is the sum of the following terms:

     one-electron contribution =     -71.76457717 Ry
     hartree contribution      =      45.71183338 Ry
     xc contribution           =     -31.19348518 Ry
     ewald contribution        =    -141.41261342 Ry
     smearing contrib. (-TS)   =       0.00007810 Ry

     convergence has been achieved in   6 iterations

     Writing output data file Pd-kp-conv.save/
 
     init_run     :      0.64s CPU      0.69s WALL (       1 calls)
     electrons    :      4.59s CPU      4.89s WALL (       1 calls)

     Called by init_run:
     wfcinit      :      0.28s CPU      0.30s WALL (       1 calls)
     potinit      :      0.01s CPU      0.02s WALL (       1 calls)
     hinit0       :      0.34s CPU      0.34s WALL (       1 calls)

     Called by electrons:
     c_bands      :      3.80s CPU      4.02s WALL (       6 calls)
     sum_band     :      0.72s CPU      0.76s WALL (       6 calls)
     v_of_rho     :      0.03s CPU      0.03s WALL (       7 calls)
     newd         :      0.05s CPU      0.06s WALL (       7 calls)
     mix_rho      :      0.00s CPU      0.00s WALL (       6 calls)

     Called by c_bands:
     init_us_2    :      0.11s CPU      0.11s WALL (     936 calls)
     cegterg      :      3.51s CPU      3.71s WALL (     432 calls)

     Called by sum_band:
     sum_band:bec :      0.00s CPU      0.00s WALL (     432 calls)
     addusdens    :      0.05s CPU      0.06s WALL (       6 calls)

     Called by *egterg:
     h_psi        :      3.04s CPU      3.23s WALL (    1489 calls)
     s_psi        :      0.04s CPU      0.05s WALL (    1489 calls)
     g_psi        :      0.03s CPU      0.03s WALL (     985 calls)
     cdiaghg      :      0.36s CPU      0.38s WALL (    1417 calls)

     Called by h_psi:
     h_psi:pot    :      3.03s CPU      3.21s WALL (    1489 calls)
     h_psi:calbec :      0.06s CPU      0.07s WALL (    1489 calls)
     vloc_psi     :      2.91s CPU      3.09s WALL (    1489 calls)
     add_vuspsi   :      0.05s CPU      0.05s WALL (    1489 calls)

     General routines
     calbec       :      0.07s CPU      0.08s WALL (    1921 calls)
     fft          :      0.01s CPU      0.02s WALL (      78 calls)
     ffts         :      0.00s CPU      0.00s WALL (       6 calls)
     fftw         :      2.99s CPU      3.17s WALL (   32850 calls)
 
     Parallel routines
     fft_scatt_xy :      0.53s CPU      0.57s WALL (   32934 calls)
     fft_scatt_yz :      0.71s CPU      0.75s WALL (   32934 calls)
 
     PWSCF        :     5.34s CPU         6.00s WALL

 
   This run was terminated on:  20:33:17   2Dec2021            

=------------------------------------------------------------------------------=
   JOB DONE.
=------------------------------------------------------------------------------=
