
     Program PWSCF v.6.3 starts on  2Dec2021 at 20:32:52 

     This program is part of the open-source Quantum ESPRESSO suite
     for quantum simulation of materials; please cite
         "P. Giannozzi et al., J. Phys.:Condens. Matter 21 395502 (2009);
         "P. Giannozzi et al., J. Phys.:Condens. Matter 29 465901 (2017);
          URL http://www.quantum-espresso.org", 
     in publications or presentations arising from this work. More details at
     http://www.quantum-espresso.org/quote

     Parallel version (MPI & OpenMP), running on       2 processor cores
     Number of MPI processes:                 2
     Threads/MPI process:                     1

     MPI processes distributed on     1 nodes
     R & G space division:  proc/nbgrp/npool/nimage =       2
     Reading input from pw-input.in

     Current dimensions of program PWSCF are:
     Max number of different atomic species (ntypx) = 10
     Max number of k-points (npk) =  40000
     Max angular momentum in pseudopotentials (lmaxx) =  3

     Subspace diagonalization in iterative solution of the eigenvalue problem:
     a serial algorithm will be used

 
     Parallelization info
     --------------------
     sticks:   dense  smooth     PW     G-vecs:    dense   smooth      PW
     Min         156     156     54                 1763     1763     362
     Max         157     157     55                 1764     1764     363
     Sum         313     313    109                 3527     3527     725
 

     Title: 
     Pd-kp-conv                                                                 


     bravais-lattice index     =            2
     lattice parameter (alat)  =       8.0000  a.u.
     unit-cell volume          =     128.0000 (a.u.)^3
     number of atoms/cell      =            1
     number of atomic types    =            1
     number of electrons       =        16.00
     number of Kohn-Sham states=           12
     kinetic-energy cutoff     =      35.0000  Ry
     charge density cutoff     =     140.0000  Ry
     convergence threshold     =      1.0E-07
     mixing beta               =       0.7000
     number of iterations used =            8  plain     mixing
     Exchange-correlation      =  SLA  PW   PBX  PBC ( 1  4  3  4 0 0)

     celldm(1)=   8.000000  celldm(2)=   0.000000  celldm(3)=   0.000000
     celldm(4)=   0.000000  celldm(5)=   0.000000  celldm(6)=   0.000000

     crystal axes: (cart. coord. in units of alat)
               a(1) = (  -0.500000   0.000000   0.500000 )  
               a(2) = (   0.000000   0.500000   0.500000 )  
               a(3) = (  -0.500000   0.500000   0.000000 )  

     reciprocal axes: (cart. coord. in units 2 pi/alat)
               b(1) = ( -1.000000 -1.000000  1.000000 )  
               b(2) = (  1.000000  1.000000  1.000000 )  
               b(3) = ( -1.000000  1.000000 -1.000000 )  


     PseudoPot. # 1 for Pd read from file:
     ./pd_pbe_v1.4.uspp.F.UPF
     MD5 check sum: 2d733d2bc2cbfd217af676df1668a4bc
     Pseudo is Ultrasoft + core correction, Zval = 16.0
     Generated by new atomic code, or converted to UPF format
     Using radial grid of  887 points,  6 beta functions with: 
                l(1) =   0
                l(2) =   0
                l(3) =   1
                l(4) =   1
                l(5) =   2
                l(6) =   2
     Q(r) pseudized with  8 coefficients,  rinner =    1.130   1.130   1.130
                                                       1.130   1.130

     atomic species   valence    mass     pseudopotential
        Pd            16.00   106.40000     Pd( 1.00)

     48 Sym. Ops., with inversion, found



   Cartesian axes

     site n.     atom                  positions (alat units)
         1           Pd  tau(   1) = (   0.0000000   0.0000000   0.0000000  )

     number of k points=    72  Marzari-Vanderbilt smearing, width (Ry)=  0.0050
                       cart. coord. in units 2pi/alat
        k(    1) = (   0.0000000   0.0000000   0.0000000), wk =   0.0011574
        k(    2) = (  -0.0833333   0.0833333  -0.0833333), wk =   0.0092593
        k(    3) = (  -0.1666667   0.1666667  -0.1666667), wk =   0.0092593
        k(    4) = (  -0.2500000   0.2500000  -0.2500000), wk =   0.0092593
        k(    5) = (  -0.3333333   0.3333333  -0.3333333), wk =   0.0092593
        k(    6) = (  -0.4166667   0.4166667  -0.4166667), wk =   0.0092593
        k(    7) = (   0.5000000  -0.5000000   0.5000000), wk =   0.0046296
        k(    8) = (   0.0000000   0.1666667   0.0000000), wk =   0.0069444
        k(    9) = (  -0.0833333   0.2500000  -0.0833333), wk =   0.0277778
        k(   10) = (  -0.1666667   0.3333333  -0.1666667), wk =   0.0277778
        k(   11) = (  -0.2500000   0.4166667  -0.2500000), wk =   0.0277778
        k(   12) = (  -0.3333333   0.5000000  -0.3333333), wk =   0.0277778
        k(   13) = (   0.5833333  -0.4166667   0.5833333), wk =   0.0277778
        k(   14) = (   0.5000000  -0.3333333   0.5000000), wk =   0.0277778
        k(   15) = (   0.4166667  -0.2500000   0.4166667), wk =   0.0277778
        k(   16) = (   0.3333333  -0.1666667   0.3333333), wk =   0.0277778
        k(   17) = (   0.2500000  -0.0833333   0.2500000), wk =   0.0277778
        k(   18) = (   0.1666667  -0.0000000   0.1666667), wk =   0.0138889
        k(   19) = (   0.0000000   0.3333333   0.0000000), wk =   0.0069444
        k(   20) = (  -0.0833333   0.4166667  -0.0833333), wk =   0.0277778
        k(   21) = (  -0.1666667   0.5000000  -0.1666667), wk =   0.0277778
        k(   22) = (  -0.2500000   0.5833333  -0.2500000), wk =   0.0277778
        k(   23) = (   0.6666667  -0.3333333   0.6666667), wk =   0.0277778
        k(   24) = (   0.5833333  -0.2500000   0.5833333), wk =   0.0277778
        k(   25) = (   0.5000000  -0.1666667   0.5000000), wk =   0.0277778
        k(   26) = (   0.4166667  -0.0833333   0.4166667), wk =   0.0277778
        k(   27) = (   0.3333333   0.0000000   0.3333333), wk =   0.0138889
        k(   28) = (   0.0000000   0.5000000   0.0000000), wk =   0.0069444
        k(   29) = (  -0.0833333   0.5833333  -0.0833333), wk =   0.0277778
        k(   30) = (  -0.1666667   0.6666667  -0.1666667), wk =   0.0277778
        k(   31) = (   0.7500000  -0.2500000   0.7500000), wk =   0.0277778
        k(   32) = (   0.6666667  -0.1666667   0.6666667), wk =   0.0277778
        k(   33) = (   0.5833333  -0.0833333   0.5833333), wk =   0.0277778
        k(   34) = (   0.5000000   0.0000000   0.5000000), wk =   0.0138889
        k(   35) = (   0.0000000   0.6666667   0.0000000), wk =   0.0069444
        k(   36) = (  -0.0833333   0.7500000  -0.0833333), wk =   0.0277778
        k(   37) = (   0.8333333  -0.1666667   0.8333333), wk =   0.0277778
        k(   38) = (   0.7500000  -0.0833333   0.7500000), wk =   0.0277778
        k(   39) = (   0.6666667  -0.0000000   0.6666667), wk =   0.0138889
        k(   40) = (   0.0000000   0.8333333   0.0000000), wk =   0.0069444
        k(   41) = (   0.9166667  -0.0833333   0.9166667), wk =   0.0277778
        k(   42) = (   0.8333333   0.0000000   0.8333333), wk =   0.0138889
        k(   43) = (   0.0000000  -1.0000000   0.0000000), wk =   0.0034722
        k(   44) = (  -0.1666667   0.3333333   0.0000000), wk =   0.0277778
        k(   45) = (  -0.2500000   0.4166667  -0.0833333), wk =   0.0555556
        k(   46) = (  -0.3333333   0.5000000  -0.1666667), wk =   0.0555556
        k(   47) = (   0.5833333  -0.4166667   0.7500000), wk =   0.0555556
        k(   48) = (   0.5000000  -0.3333333   0.6666667), wk =   0.0277778
        k(   49) = (  -0.1666667   0.5000000   0.0000000), wk =   0.0277778
        k(   50) = (  -0.2500000   0.5833333  -0.0833333), wk =   0.0555556
        k(   51) = (   0.6666667  -0.3333333   0.8333333), wk =   0.0555556
        k(   52) = (   0.5833333  -0.2500000   0.7500000), wk =   0.0555556
        k(   53) = (   0.5000000  -0.1666667   0.6666667), wk =   0.0555556
        k(   54) = (   0.4166667  -0.0833333   0.5833333), wk =   0.0555556
        k(   55) = (   0.3333333   0.0000000   0.5000000), wk =   0.0277778
        k(   56) = (  -0.1666667   0.6666667  -0.0000000), wk =   0.0277778
        k(   57) = (   0.7500000  -0.2500000   0.9166667), wk =   0.0555556
        k(   58) = (   0.6666667  -0.1666667   0.8333333), wk =   0.0555556
        k(   59) = (   0.5833333  -0.0833333   0.7500000), wk =   0.0555556
        k(   60) = (   0.5000000   0.0000000   0.6666667), wk =   0.0277778
        k(   61) = (   0.8333333  -0.1666667   1.0000000), wk =   0.0277778
        k(   62) = (   0.7500000  -0.0833333   0.9166667), wk =   0.0555556
        k(   63) = (   0.6666667   0.0000000   0.8333333), wk =   0.0277778
        k(   64) = (  -0.1666667  -1.0000000  -0.0000000), wk =   0.0138889
        k(   65) = (   0.6666667  -0.3333333   1.0000000), wk =   0.0277778
        k(   66) = (   0.5833333  -0.2500000   0.9166667), wk =   0.0555556
        k(   67) = (   0.5000000  -0.1666667   0.8333333), wk =   0.0277778
        k(   68) = (   0.6666667  -0.1666667   1.0000000), wk =   0.0277778
        k(   69) = (   0.5833333  -0.0833333   0.9166667), wk =   0.0555556
        k(   70) = (   0.5000000   0.0000000   0.8333333), wk =   0.0277778
        k(   71) = (  -0.3333333  -1.0000000   0.0000000), wk =   0.0138889
        k(   72) = (  -0.5000000  -1.0000000   0.0000000), wk =   0.0069444

     Dense  grid:     3527 G-vectors     FFT dimensions: (  24,  24,  24)

     Estimated max dynamical RAM per process >      10.51 MB

     Estimated total dynamical RAM >      21.01 MB

     Check: negative/imaginary core charge=   -0.000001    0.000000

     Initial potential from superposition of free atoms
     Check: negative starting charge=   -0.080332

     starting charge   15.49999, renormalised to   16.00000

     negative rho (up, down):  8.292E-02 0.000E+00
     Starting wfcs are   12 randomized atomic wfcs

     total cpu time spent up to now is        0.8 secs

     Self-consistent Calculation

     iteration #  1     ecut=    35.00 Ry     beta= 0.70
     Davidson diagonalization with overlap
     ethr =  1.00E-02,  avg # of iterations =  3.4

     negative rho (up, down):  8.035E-02 0.000E+00

     total cpu time spent up to now is        1.7 secs

     total energy              =    -197.96515107 Ry
     Harris-Foulkes estimate   =    -199.06666025 Ry
     estimated scf accuracy    <       1.49861149 Ry

     iteration #  2     ecut=    35.00 Ry     beta= 0.70
     Davidson diagonalization with overlap
     ethr =  9.37E-03,  avg # of iterations =  2.0

     negative rho (up, down):  8.253E-02 0.000E+00

     total cpu time spent up to now is        2.5 secs

     total energy              =    -198.29406780 Ry
     Harris-Foulkes estimate   =    -199.25540258 Ry
     estimated scf accuracy    <       2.04841785 Ry

     iteration #  3     ecut=    35.00 Ry     beta= 0.70
     Davidson diagonalization with overlap
     ethr =  9.37E-03,  avg # of iterations =  2.0

     negative rho (up, down):  8.261E-02 0.000E+00

     total cpu time spent up to now is        3.3 secs

     total energy              =    -198.67998246 Ry
     Harris-Foulkes estimate   =    -198.68039241 Ry
     estimated scf accuracy    <       0.00096548 Ry

     iteration #  4     ecut=    35.00 Ry     beta= 0.70
     Davidson diagonalization with overlap
     ethr =  6.03E-06,  avg # of iterations =  2.7

     negative rho (up, down):  8.275E-02 0.000E+00

     total cpu time spent up to now is        4.1 secs

     total energy              =    -198.68036832 Ry
     Harris-Foulkes estimate   =    -198.68036835 Ry
     estimated scf accuracy    <       0.00000514 Ry

     iteration #  5     ecut=    35.00 Ry     beta= 0.70
     Davidson diagonalization with overlap
     ethr =  3.21E-08,  avg # of iterations =  1.6

     negative rho (up, down):  8.276E-02 0.000E+00

     total cpu time spent up to now is        4.7 secs

     End of self-consistent calculation

          k = 0.0000 0.0000 0.0000 (   459 PWs)   bands (ev):

   -36.0571 -36.0571 -36.0571   7.6865  11.1796  11.1796  11.1796  12.2482
    12.2482  30.2852  33.6057  33.6057

          k =-0.0833 0.0833-0.0833 (   447 PWs)   bands (ev):

   -36.0673 -36.0585 -36.0585   7.8897  11.1283  11.2385  11.2385  12.2265
    12.2265  30.2778  32.0504  33.6711

          k =-0.1667 0.1667-0.1667 (   456 PWs)   bands (ev):

   -36.0971 -36.0629 -36.0629   8.4520  11.0385  11.3564  11.3564  12.2154
    12.2154  28.5662  31.0932  33.7558

          k =-0.2500 0.2500-0.2500 (   459 PWs)   bands (ev):

   -36.1366 -36.0691 -36.0691   9.1376  11.1955  11.3842  11.3842  12.3605
    12.3605  25.5951  30.8099  33.5503

          k =-0.3333 0.3333-0.3333 (   450 PWs)   bands (ev):

   -36.1759 -36.0750 -36.0750   9.4611  11.2973  11.2973  12.1031  12.6555
    12.6555  22.6374  30.2093  32.8856

          k =-0.4167 0.4167-0.4167 (   446 PWs)   bands (ev):

   -36.2046 -36.0794 -36.0794   9.4699  11.2024  11.2024  12.9268  12.9268
    13.6049  20.0255  29.7000  32.1820

          k = 0.5000-0.5000 0.5000 (   434 PWs)   bands (ev):

   -36.2152 -36.0805 -36.0805   9.4478  11.1661  11.1661  13.0349  13.0349
    14.6124  18.6627  29.5122  31.8980

          k = 0.0000 0.1667 0.0000 (   451 PWs)   bands (ev):

   -36.0673 -36.0610 -36.0610   7.9576  11.0646  11.2843  11.2843  12.1326
    12.2977  30.3892  32.6185  32.8896

          k =-0.0833 0.2500-0.0833 (   452 PWs)   bands (ev):

   -36.0893 -36.0661 -36.0640   8.4044  10.9413  11.4082  11.4125  12.0448
    12.3453  29.6133  31.0144  32.2529

          k =-0.1667 0.3333-0.1667 (   456 PWs)   bands (ev):

   -36.1247 -36.0726 -36.0694   9.0852  10.9056  11.4304  11.4903  12.1960
    12.4772  26.7344  30.7825  31.6939

          k =-0.2500 0.4167-0.2500 (   446 PWs)   bands (ev):

   -36.1631 -36.0787 -36.0760   9.5496  11.2668  11.3564  11.4413  12.7308
    12.7547  23.7186  30.2845  31.2112

          k =-0.3333 0.5000-0.3333 (   446 PWs)   bands (ev):

   -36.1946 -36.0828 -36.0827   9.6038  11.1496  11.3408  12.0751  12.9670
    13.8130  20.9259  29.7224  30.9475

          k = 0.5833-0.4167 0.5833 (   449 PWs)   bands (ev):

   -36.2108 -36.0876 -36.0836   9.5718  11.0853  11.2705  12.5002  13.0417
    15.1182  18.8815  29.3402  30.9922

          k = 0.5000-0.3333 0.5000 (   448 PWs)   bands (ev):

   -36.2073 -36.0889 -36.0811   9.5851  11.1111  11.2701  12.5057  12.8982
    14.7721  19.4098  29.2017  30.7801

          k = 0.4167-0.2500 0.4167 (   444 PWs)   bands (ev):

   -36.1850 -36.0866 -36.0758   9.6206  11.2058  11.3436  11.9874  12.5849
    13.5643  21.8270  29.3113  31.2188

          k = 0.3333-0.1667 0.3333 (   449 PWs)   bands (ev):

   -36.1504 -36.0810 -36.0694   9.4630  11.1305  11.4045  11.4524  12.2287
    12.8632  24.7214  29.6147  32.1441

          k = 0.2500-0.0833 0.2500 (   455 PWs)   bands (ev):

   -36.1126 -36.0735 -36.0633   8.8539  10.9247  11.4303  11.4626  12.0402
    12.4729  27.7382  29.9838  32.8949

          k = 0.1667-0.0000 0.1667 (   457 PWs)   bands (ev):

   -36.0822 -36.0653 -36.0594   8.2161  11.0261  11.3218  11.3498  12.1095
    12.3000  30.0873  30.6945  32.8123

          k = 0.0000 0.3333 0.0000 (   451 PWs)   bands (ev):

   -36.0957 -36.0721 -36.0721   8.7087  10.7614  11.5840  11.5840  11.8783
    12.4331  30.6437  31.0367  31.0367

          k =-0.0833 0.4167-0.0833 (   457 PWs)   bands (ev):

   -36.1212 -36.0795 -36.0785   9.2728  10.6021  11.5457  11.7431  12.1149
    12.5542  28.0982  30.1033  30.6875

          k =-0.1667 0.5000-0.1667 (   445 PWs)   bands (ev):

   -36.1537 -36.0860 -36.0859   9.7812  10.6626  11.3259  11.7564  12.7853
    12.8997  25.0391  29.4786  29.9757

          k =-0.2500 0.5833-0.2500 (   446 PWs)   bands (ev):

   -36.1824 -36.0954 -36.0900   9.8766  10.9514  11.3266  11.6679  13.0058
    14.1627  22.1161  28.8747  29.2500

          k = 0.6667-0.3333 0.6667 (   448 PWs)   bands (ev):

   -36.1996 -36.1042 -36.0904   9.8623  10.9028  11.5738  11.7185  13.0621
    15.8003  19.6067  27.8396  29.5380

          k = 0.5833-0.2500 0.5833 (   446 PWs)   bands (ev):

   -36.2010 -36.1094 -36.0871   9.8959  10.9031  11.5300  11.8702  12.8936
    16.3097  19.0621  27.0995  30.5254

          k = 0.5000-0.1667 0.5000 (   446 PWs)   bands (ev):

   -36.1868 -36.1092 -36.0811   9.9819  10.9944  11.5604  11.6061  12.5477
    14.8931  21.3167  26.7616  30.9235

          k = 0.4167-0.0833 0.4167 (   449 PWs)   bands (ev):

   -36.1622 -36.1024 -36.0739   9.9940  10.9117  11.2810  11.6641  12.1327
    13.7425  24.1290  26.8254  31.7940

          k = 0.3333 0.0000 0.3333 (   457 PWs)   bands (ev):

   -36.1351 -36.0894 -36.0675   9.5111  10.7700  11.3939  11.7079  11.8706
    12.9669  26.9090  27.4069  33.1055

          k = 0.0000 0.5000 0.0000 (   456 PWs)   bands (ev):

   -36.1336 -36.0877 -36.0877   9.5776  10.3705  11.9214  12.0443  12.0443
    12.6209  28.8450  28.8450  29.8364

          k =-0.0833 0.5833-0.0833 (   447 PWs)   bands (ev):

   -36.1562 -36.0962 -36.0947   9.8537  10.2343  11.8106  12.1833  12.8028
    12.9297  26.4402  27.9880  28.4666

          k =-0.1667 0.6667-0.1667 (   446 PWs)   bands (ev):

   -36.1773 -36.1080 -36.0991   9.9447  10.3437  11.6491  12.1298  13.0302
    14.3700  23.5351  26.9622  27.6280

          k = 0.7500-0.2500 0.7500 (   447 PWs)   bands (ev):

   -36.1891 -36.1220 -36.0997   9.9815  10.5579  11.5411  12.0232  13.0915
    16.2143  20.8520  25.6659  27.8594

          k = 0.6667-0.1667 0.6667 (   447 PWs)   bands (ev):

   -36.1888 -36.1339 -36.0960  10.1068  10.7108  11.4517  11.9318  12.9209
    17.9168  19.0254  24.6596  28.7068

          k = 0.5833-0.0833 0.5833 (   447 PWs)   bands (ev):

   -36.1798 -36.1375 -36.0892  10.3086  10.8338  11.2360  11.8830  12.5826
    16.4155  21.1285  24.0427  30.0879

          k = 0.5000 0.0000 0.5000 (   443 PWs)   bands (ev):

   -36.1706 -36.1252 -36.0810  10.4452  10.7909  11.0992  11.8485  12.2307
    14.9186  23.8435  23.9232  31.2664

          k = 0.0000 0.6667 0.0000 (   444 PWs)   bands (ev):

   -36.1707 -36.1028 -36.1028   9.7703  10.0057  12.5833  12.5833  12.8165
    13.1284  26.6546  26.8878  26.8878

          k =-0.0833 0.7500-0.0833 (   448 PWs)   bands (ev):

   -36.1856 -36.1121 -36.1080   9.7539   9.9273  12.4760  12.6247  13.0294
    14.5365  24.7247  25.2679  26.3197

          k = 0.8333-0.1667 0.8333 (   445 PWs)   bands (ev):

   -36.1915 -36.1268 -36.1088   9.8029  10.0626  12.1664  12.5203  13.1268
    16.4047  22.3583  23.7678  26.3990

          k = 0.7500-0.0833 0.7500 (   445 PWs)   bands (ev):

   -36.1842 -36.1458 -36.1051   9.9445  10.3522  11.7711  12.3813  12.9890
    18.5453  20.1169  22.6396  27.1419

          k = 0.6667-0.0000 0.6667 (   443 PWs)   bands (ev):

   -36.1651 -36.1645 -36.0979  10.1737  10.6997  11.3299  12.1851  12.7426
    18.1357  20.6520  22.1981  28.4361

          k = 0.0000 0.8333 0.0000 (   452 PWs)   bands (ev):

   -36.1979 -36.1141 -36.1141   9.5775   9.7524  12.9629  13.0451  13.0451
    15.1345  23.3151  25.5191  25.5191

          k = 0.9167-0.0833 0.9167 (   454 PWs)   bands (ev):

   -36.2025 -36.1215 -36.1157   9.5786   9.7541  12.8990  12.9016  13.1788
    16.4678  22.0662  24.2158  25.3868

          k = 0.8333 0.0000 0.8333 (   450 PWs)   bands (ev):

   -36.1956 -36.1347 -36.1124   9.7213   9.9649  12.3856  12.7281  13.1054
    17.8970  21.4167  22.3823  25.9661

          k = 0.0000-1.0000 0.0000 (   444 PWs)   bands (ev):

   -36.2073 -36.1180 -36.1180   9.4799   9.6627  13.0175  13.2352  13.2352
    16.4748  21.5352  25.0204  25.0204

          k =-0.1667 0.3333 0.0000 (   453 PWs)   bands (ev):

   -36.1100 -36.0767 -36.0671   8.9286  10.7861  11.4707  11.5885  11.9840
    12.5080  28.8775  29.1140  32.5546

          k =-0.2500 0.4167-0.0833 (   450 PWs)   bands (ev):

   -36.1409 -36.0875 -36.0723   9.5837  10.7513  11.3374  11.6898  12.1784
    12.9300  25.9686  28.5325  31.7751

          k =-0.3333 0.5000-0.1667 (   445 PWs)   bands (ev):

   -36.1730 -36.0955 -36.0790   9.8531  11.1349  11.1938  11.6225  12.5914
    13.7276  22.9936  28.2411  30.5193

          k = 0.5833-0.4167 0.7500 (   444 PWs)   bands (ev):

   -36.1966 -36.1002 -36.0847   9.8221  10.9904  11.4798  11.8148  12.8933
    15.0392  20.3098  28.2542  29.4954

          k = 0.5000-0.3333 0.6667 (   446 PWs)   bands (ev):

   -36.2055 -36.1016 -36.0871   9.7926  10.9353  11.4566  12.0295  12.9879
    16.1580  18.7419  28.5046  28.8923

          k =-0.1667 0.5000 0.0000 (   453 PWs)   bands (ev):

   -36.1426 -36.0927 -36.0827   9.7621  10.4401  11.4327  12.0408  12.2976
    12.9218  27.2275  27.5736  30.2249

          k =-0.2500 0.5833-0.0833 (   449 PWs)   bands (ev):

   -36.1665 -36.1047 -36.0887  10.0702  10.5132  11.2504  12.0693  12.6558
    13.8567  24.3822  27.0022  28.7413

          k = 0.6667-0.3333 0.8333 (   445 PWs)   bands (ev):

   -36.1853 -36.1146 -36.0939  10.0720  10.7417  11.2448  11.9522  12.9366
    15.3395  21.5659  26.9658  27.4350

          k = 0.5833-0.2500 0.7500 (   444 PWs)   bands (ev):

   -36.1938 -36.1220 -36.0950  10.1005  10.7229  11.4612  11.8293  12.9814
    17.1214  19.2304  26.3393  27.4435

          k = 0.5000-0.1667 0.6667 (   446 PWs)   bands (ev):

   -36.1899 -36.1249 -36.0915  10.1864  10.7470  11.4080  11.8139  12.8179
    16.5850  19.9989  25.6381  28.2847

          k = 0.4167-0.0833 0.5833 (   443 PWs)   bands (ev):

   -36.1763 -36.1201 -36.0849  10.2974  10.8850  10.9996  11.9183  12.4866
    14.9898  22.6014  25.3696  29.3865

          k = 0.3333 0.0000 0.5000 (   450 PWs)   bands (ev):

   -36.1588 -36.1064 -36.0778  10.1874  10.6161  11.1298  12.0419  12.0670
    13.7815  25.3040  25.7198  30.6410

          k =-0.1667 0.6667-0.0000 (   445 PWs)   bands (ev):

   -36.1728 -36.1083 -36.0999   9.9463  10.1097  11.8349  12.5791  12.7245
    13.9851  25.6656  25.9520  26.8445

          k = 0.7500-0.2500 0.9167 (   447 PWs)   bands (ev):

   -36.1841 -36.1217 -36.1046   9.9892  10.2135  11.6718  12.4805  12.9718
    15.5712  23.0607  25.2571  25.8269

          k = 0.6667-0.1667 0.8333 (   444 PWs)   bands (ev):

   -36.1850 -36.1372 -36.1051  10.0699  10.4428  11.4809  12.2770  13.0369
    17.5542  20.5564  24.1044  26.1575

          k = 0.5833-0.0833 0.7500 (   447 PWs)   bands (ev):

   -36.1768 -36.1502 -36.1007  10.2612  10.6511  11.2265  12.1299  12.8761
    18.3129  19.9350  23.1986  27.0205

          k = 0.5000 0.0000 0.6667 (   448 PWs)   bands (ev):

   -36.1738 -36.1441 -36.0931  10.5166  10.8130  10.8589  12.0841  12.6025
    16.5094  22.3383  22.8629  28.1662

          k = 0.8333-0.1667 1.0000 (   450 PWs)   bands (ev):

   -36.1941 -36.1199 -36.1132   9.7350   9.8776  12.3882  12.8882  13.0438
    15.8686  23.3237  24.7342  24.7956

          k = 0.7500-0.0833 0.9167 (   446 PWs)   bands (ev):

   -36.1921 -36.1334 -36.1140   9.8319  10.0351  12.0866  12.6532  13.1504
    17.6393  21.9188  22.7902  25.0275

          k = 0.6667 0.0000 0.8333 (   447 PWs)   bands (ev):

   -36.1797 -36.1510 -36.1091  10.0194  10.3573  11.6266  12.4015  13.0422
    19.3714  20.1766  21.9276  25.8516

          k =-0.1667-1.0000-0.0000 (   454 PWs)   bands (ev):

   -36.2017 -36.1241 -36.1184   9.6307   9.7948  12.6772  12.8595  13.2344
    17.2516  21.5303  24.2780  24.3445

          k = 0.6667-0.3333 1.0000 (   452 PWs)   bands (ev):

   -36.1756 -36.1236 -36.0948  10.3963  10.4092  11.0725  12.3974  12.5740
    15.1746  24.0311  24.1882  27.3146

          k = 0.5833-0.2500 0.9167 (   443 PWs)   bands (ev):

   -36.1800 -36.1372 -36.1011  10.3897  10.5752  11.0279  12.2139  12.8721
    16.8628  21.4109  24.2574  26.0929

          k = 0.5000-0.1667 0.8333 (   442 PWs)   bands (ev):

   -36.1812 -36.1424 -36.1038  10.4719  10.4760  11.1320  12.0972  12.9844
    18.6520  19.2741  24.6139  25.3739

          k = 0.6667-0.1667 1.0000 (   444 PWs)   bands (ev):

   -36.1835 -36.1359 -36.1111  10.1213  10.2504  11.4802  12.5140  13.0395
    17.2051  22.9487  23.0634  24.3114

          k = 0.5833-0.0833 0.9167 (   446 PWs)   bands (ev):

   -36.1749 -36.1511 -36.1137  10.2151  10.5068  11.2092  12.2898  13.1400
    19.1723  20.7057  22.6810  24.0531

          k = 0.5000 0.0000 0.8333 (   446 PWs)   bands (ev):

   -36.1682 -36.1579 -36.1093  10.3574  10.7728  10.8512  12.2182  13.0352
    18.6489  21.1788  22.2716  24.9064

          k =-0.3333-1.0000 0.0000 (   444 PWs)   bands (ev):

   -36.1853 -36.1405 -36.1182   9.9979  10.1916  11.7093  12.4757  13.2352
    18.8618  21.5326  22.6391  23.3744

          k =-0.5000-1.0000 0.0000 (   444 PWs)   bands (ev):

   -36.1628 -36.1628 -36.1185  10.2383  10.8400  10.8400  12.2242  13.2358
    20.7368  20.7368  21.5431  22.9839

     the Fermi energy is    13.0380 ev

!    total energy              =    -198.68036873 Ry
     Harris-Foulkes estimate   =    -198.68036872 Ry
     estimated scf accuracy    <       0.00000002 Ry

     The total energy is the sum of the following terms:

     one-electron contribution =     -63.24688182 Ry
     hartree contribution      =      42.50982824 Ry
     xc contribution           =     -31.22781097 Ry
     ewald contribution        =    -146.71558644 Ry
     smearing contrib. (-TS)   =       0.00008226 Ry

     convergence has been achieved in   5 iterations

     Writing output data file Pd-kp-conv.save/
 
     init_run     :      0.65s CPU      0.70s WALL (       1 calls)
     electrons    :      3.68s CPU      4.27s WALL (       1 calls)

     Called by init_run:
     wfcinit      :      0.30s CPU      0.32s WALL (       1 calls)
     potinit      :      0.01s CPU      0.02s WALL (       1 calls)
     hinit0       :      0.33s CPU      0.33s WALL (       1 calls)

     Called by electrons:
     c_bands      :      3.04s CPU      3.26s WALL (       5 calls)
     sum_band     :      0.58s CPU      0.61s WALL (       5 calls)
     v_of_rho     :      0.03s CPU      0.03s WALL (       6 calls)
     newd         :      0.04s CPU      0.05s WALL (       6 calls)
     mix_rho      :      0.00s CPU      0.00s WALL (       5 calls)

     Called by c_bands:
     init_us_2    :      0.08s CPU      0.09s WALL (     792 calls)
     cegterg      :      2.83s CPU      2.99s WALL (     360 calls)

     Called by sum_band:
     sum_band:bec :      0.00s CPU      0.00s WALL (     360 calls)
     addusdens    :      0.04s CPU      0.04s WALL (       5 calls)

     Called by *egterg:
     h_psi        :      2.51s CPU      2.66s WALL (    1272 calls)
     s_psi        :      0.03s CPU      0.04s WALL (    1272 calls)
     g_psi        :      0.02s CPU      0.03s WALL (     840 calls)
     cdiaghg      :      0.30s CPU      0.32s WALL (    1200 calls)

     Called by h_psi:
     h_psi:pot    :      2.50s CPU      2.64s WALL (    1272 calls)
     h_psi:calbec :      0.05s CPU      0.05s WALL (    1272 calls)
     vloc_psi     :      2.41s CPU      2.54s WALL (    1272 calls)
     add_vuspsi   :      0.04s CPU      0.04s WALL (    1272 calls)

     General routines
     calbec       :      0.06s CPU      0.06s WALL (    1632 calls)
     fft          :      0.01s CPU      0.01s WALL (      67 calls)
     ffts         :      0.00s CPU      0.00s WALL (       5 calls)
     fftw         :      2.46s CPU      2.60s WALL (   27588 calls)
 
     Parallel routines
     fft_scatt_xy :      0.45s CPU      0.48s WALL (   27660 calls)
     fft_scatt_yz :      0.54s CPU      0.57s WALL (   27660 calls)
 
     PWSCF        :     4.47s CPU         5.37s WALL

 
   This run was terminated on:  20:32:58   2Dec2021            

=------------------------------------------------------------------------------=
   JOB DONE.
=------------------------------------------------------------------------------=
