
     Program PWSCF v.6.3 starts on  2Dec2021 at 20:52: 4 

     This program is part of the open-source Quantum ESPRESSO suite
     for quantum simulation of materials; please cite
         "P. Giannozzi et al., J. Phys.:Condens. Matter 21 395502 (2009);
         "P. Giannozzi et al., J. Phys.:Condens. Matter 29 465901 (2017);
          URL http://www.quantum-espresso.org", 
     in publications or presentations arising from this work. More details at
     http://www.quantum-espresso.org/quote

     Parallel version (MPI & OpenMP), running on       2 processor cores
     Number of MPI processes:                 2
     Threads/MPI process:                     1

     MPI processes distributed on     1 nodes
     R & G space division:  proc/nbgrp/npool/nimage =       2
     Reading input from pw-input.in

     Current dimensions of program PWSCF are:
     Max number of different atomic species (ntypx) = 10
     Max number of k-points (npk) =  40000
     Max angular momentum in pseudopotentials (lmaxx) =  3

     Subspace diagonalization in iterative solution of the eigenvalue problem:
     a serial algorithm will be used

 
     Parallelization info
     --------------------
     sticks:   dense  smooth     PW     G-vecs:    dense   smooth      PW
     Min         156     156     48                 1763     1763     322
     Max         157     157     49                 1764     1764     323
     Sum         313     313     97                 3527     3527     645
 

     Title: 
     Pd-kp-conv                                                                 


     bravais-lattice index     =            2
     lattice parameter (alat)  =       8.0000  a.u.
     unit-cell volume          =     128.0000 (a.u.)^3
     number of atoms/cell      =            1
     number of atomic types    =            1
     number of electrons       =        16.00
     number of Kohn-Sham states=           12
     kinetic-energy cutoff     =      35.0000  Ry
     charge density cutoff     =     140.0000  Ry
     convergence threshold     =      1.0E-07
     mixing beta               =       0.7000
     number of iterations used =            8  plain     mixing
     Exchange-correlation      =  SLA  PW   PBX  PBC ( 1  4  3  4 0 0)

     celldm(1)=   8.000000  celldm(2)=   0.000000  celldm(3)=   0.000000
     celldm(4)=   0.000000  celldm(5)=   0.000000  celldm(6)=   0.000000

     crystal axes: (cart. coord. in units of alat)
               a(1) = (  -0.500000   0.000000   0.500000 )  
               a(2) = (   0.000000   0.500000   0.500000 )  
               a(3) = (  -0.500000   0.500000   0.000000 )  

     reciprocal axes: (cart. coord. in units 2 pi/alat)
               b(1) = ( -1.000000 -1.000000  1.000000 )  
               b(2) = (  1.000000  1.000000  1.000000 )  
               b(3) = ( -1.000000  1.000000 -1.000000 )  


     PseudoPot. # 1 for Pd read from file:
     ./pd_pbe_v1.4.uspp.F.UPF
     MD5 check sum: 2d733d2bc2cbfd217af676df1668a4bc
     Pseudo is Ultrasoft + core correction, Zval = 16.0
     Generated by new atomic code, or converted to UPF format
     Using radial grid of  887 points,  6 beta functions with: 
                l(1) =   0
                l(2) =   0
                l(3) =   1
                l(4) =   1
                l(5) =   2
                l(6) =   2
     Q(r) pseudized with  8 coefficients,  rinner =    1.130   1.130   1.130
                                                       1.130   1.130

     atomic species   valence    mass     pseudopotential
        Pd            16.00   106.40000     Pd( 1.00)

     48 Sym. Ops., with inversion, found



   Cartesian axes

     site n.     atom                  positions (alat units)
         1           Pd  tau(   1) = (   0.0000000   0.0000000   0.0000000  )

     number of k points=     8  Marzari-Vanderbilt smearing, width (Ry)=  0.0100
                       cart. coord. in units 2pi/alat
        k(    1) = (   0.0000000   0.0000000   0.0000000), wk =   0.0312500
        k(    2) = (  -0.2500000   0.2500000  -0.2500000), wk =   0.2500000
        k(    3) = (   0.5000000  -0.5000000   0.5000000), wk =   0.1250000
        k(    4) = (   0.0000000   0.5000000   0.0000000), wk =   0.1875000
        k(    5) = (   0.7500000  -0.2500000   0.7500000), wk =   0.7500000
        k(    6) = (   0.5000000   0.0000000   0.5000000), wk =   0.3750000
        k(    7) = (   0.0000000  -1.0000000   0.0000000), wk =   0.0937500
        k(    8) = (  -0.5000000  -1.0000000   0.0000000), wk =   0.1875000

     Dense  grid:     3527 G-vectors     FFT dimensions: (  24,  24,  24)

     Estimated max dynamical RAM per process >       7.88 MB

     Estimated total dynamical RAM >      15.76 MB

     Check: negative/imaginary core charge=   -0.000001    0.000000

     Initial potential from superposition of free atoms
     Check: negative starting charge=   -0.080332

     starting charge   15.49999, renormalised to   16.00000

     negative rho (up, down):  8.292E-02 0.000E+00
     Starting wfcs are   12 randomized atomic wfcs

     total cpu time spent up to now is        0.5 secs

     Self-consistent Calculation

     iteration #  1     ecut=    35.00 Ry     beta= 0.70
     Davidson diagonalization with overlap
     ethr =  1.00E-02,  avg # of iterations =  3.2

     negative rho (up, down):  8.038E-02 0.000E+00

     total cpu time spent up to now is        0.7 secs

     total energy              =    -197.94522866 Ry
     Harris-Foulkes estimate   =    -199.07022625 Ry
     estimated scf accuracy    <       1.53153561 Ry

     iteration #  2     ecut=    35.00 Ry     beta= 0.70
     Davidson diagonalization with overlap
     ethr =  9.57E-03,  avg # of iterations =  2.0

     negative rho (up, down):  8.256E-02 0.000E+00

     total cpu time spent up to now is        0.8 secs

     total energy              =    -198.28377244 Ry
     Harris-Foulkes estimate   =    -199.27707421 Ry
     estimated scf accuracy    <       2.12297277 Ry

     iteration #  3     ecut=    35.00 Ry     beta= 0.70
     Davidson diagonalization with overlap
     ethr =  9.57E-03,  avg # of iterations =  2.0

     negative rho (up, down):  8.260E-02 0.000E+00

     total cpu time spent up to now is        0.9 secs

     total energy              =    -198.68978799 Ry
     Harris-Foulkes estimate   =    -198.68985238 Ry
     estimated scf accuracy    <       0.00022714 Ry

     iteration #  4     ecut=    35.00 Ry     beta= 0.70
     Davidson diagonalization with overlap
     ethr =  1.42E-06,  avg # of iterations =  4.0

     negative rho (up, down):  8.269E-02 0.000E+00

     total cpu time spent up to now is        1.1 secs

     total energy              =    -198.69014544 Ry
     Harris-Foulkes estimate   =    -198.69014682 Ry
     estimated scf accuracy    <       0.00000895 Ry

     iteration #  5     ecut=    35.00 Ry     beta= 0.70
     Davidson diagonalization with overlap
     ethr =  5.59E-08,  avg # of iterations =  1.1

     negative rho (up, down):  8.269E-02 0.000E+00

     total cpu time spent up to now is        1.1 secs

     total energy              =    -198.69014614 Ry
     Harris-Foulkes estimate   =    -198.69014620 Ry
     estimated scf accuracy    <       0.00000019 Ry

     iteration #  6     ecut=    35.00 Ry     beta= 0.70
     Davidson diagonalization with overlap
     ethr =  1.18E-09,  avg # of iterations =  2.0

     negative rho (up, down):  8.269E-02 0.000E+00

     total cpu time spent up to now is        1.2 secs

     End of self-consistent calculation

          k = 0.0000 0.0000 0.0000 (   459 PWs)   bands (ev):

   -36.0041 -36.0041 -36.0041   7.6936  11.2144  11.2144  11.2144  12.2918
    12.2918  30.2881  33.6135  33.6135

          k =-0.2500 0.2500-0.2500 (   459 PWs)   bands (ev):

   -36.0839 -36.0162 -36.0162   9.1493  11.2233  11.4210  11.4210  12.4025
    12.4025  25.6098  30.8165  33.5620

          k = 0.5000-0.5000 0.5000 (   434 PWs)   bands (ev):

   -36.1627 -36.0276 -36.0276   9.4723  11.2035  11.2035  13.0775  13.0775
    14.6200  18.6854  29.5186  31.9055

          k = 0.0000 0.5000 0.0000 (   456 PWs)   bands (ev):

   -36.0808 -36.0348 -36.0348   9.5923  10.4024  11.9536  12.0810  12.0810
    12.6657  28.8561  28.8561  29.8520

          k = 0.7500-0.2500 0.7500 (   447 PWs)   bands (ev):

   -36.1365 -36.0692 -36.0468  10.0107  10.5907  11.5716  12.0632  13.1340
    16.2353  20.8669  25.6824  27.8697

          k = 0.5000 0.0000 0.5000 (   443 PWs)   bands (ev):

   -36.1180 -36.0724 -36.0281  10.4693  10.8220  11.1322  11.8899  12.2683
    14.9471  23.8582  23.9392  31.2762

          k = 0.0000-1.0000 0.0000 (   444 PWs)   bands (ev):

   -36.1548 -36.0653 -36.0653   9.5108   9.6924  13.0636  13.2758  13.2758
    16.4812  21.5581  25.0277  25.0277

          k =-0.5000-1.0000 0.0000 (   444 PWs)   bands (ev):

   -36.1102 -36.1102 -36.0658  10.2717  10.8708  10.8708  12.2662  13.2764
    20.7508  20.7508  21.5564  23.0068

     the Fermi energy is    13.2079 ev

!    total energy              =    -198.69014617 Ry
     Harris-Foulkes estimate   =    -198.69014617 Ry
     estimated scf accuracy    <          4.2E-09 Ry

     The total energy is the sum of the following terms:

     one-electron contribution =     -63.29864104 Ry
     hartree contribution      =      42.56023657 Ry
     xc contribution           =     -31.23561103 Ry
     ewald contribution        =    -146.71558644 Ry
     smearing contrib. (-TS)   =      -0.00054423 Ry

     convergence has been achieved in   6 iterations

     Writing output data file Pd-kp-conv.save/
 
     init_run     :      0.38s CPU      0.42s WALL (       1 calls)
     electrons    :      0.67s CPU      1.06s WALL (       1 calls)

     Called by init_run:
     wfcinit      :      0.04s CPU      0.05s WALL (       1 calls)
     potinit      :      0.01s CPU      0.02s WALL (       1 calls)
     hinit0       :      0.33s CPU      0.33s WALL (       1 calls)

     Called by electrons:
     c_bands      :      0.46s CPU      0.49s WALL (       6 calls)
     sum_band     :      0.13s CPU      0.14s WALL (       6 calls)
     v_of_rho     :      0.03s CPU      0.04s WALL (       7 calls)
     newd         :      0.05s CPU      0.05s WALL (       7 calls)
     mix_rho      :      0.00s CPU      0.00s WALL (       6 calls)

     Called by c_bands:
     init_us_2    :      0.01s CPU      0.01s WALL (     104 calls)
     cegterg      :      0.43s CPU      0.46s WALL (      48 calls)

     Called by sum_band:
     sum_band:bec :      0.00s CPU      0.00s WALL (      48 calls)
     addusdens    :      0.05s CPU      0.05s WALL (       6 calls)

     Called by *egterg:
     h_psi        :      0.37s CPU      0.39s WALL (     171 calls)
     s_psi        :      0.01s CPU      0.01s WALL (     171 calls)
     g_psi        :      0.00s CPU      0.00s WALL (     115 calls)
     cdiaghg      :      0.05s CPU      0.05s WALL (     163 calls)

     Called by h_psi:
     h_psi:pot    :      0.37s CPU      0.39s WALL (     171 calls)
     h_psi:calbec :      0.01s CPU      0.01s WALL (     171 calls)
     vloc_psi     :      0.35s CPU      0.37s WALL (     171 calls)
     add_vuspsi   :      0.01s CPU      0.01s WALL (     171 calls)

     General routines
     calbec       :      0.01s CPU      0.01s WALL (     219 calls)
     fft          :      0.01s CPU      0.01s WALL (      78 calls)
     ffts         :      0.00s CPU      0.00s WALL (       6 calls)
     fftw         :      0.36s CPU      0.38s WALL (    3628 calls)
 
     Parallel routines
     fft_scatt_xy :      0.07s CPU      0.07s WALL (    3712 calls)
     fft_scatt_yz :      0.08s CPU      0.08s WALL (    3712 calls)
 
     PWSCF        :     1.16s CPU         1.66s WALL

 
   This run was terminated on:  20:52: 5   2Dec2021            

=------------------------------------------------------------------------------=
   JOB DONE.
=------------------------------------------------------------------------------=
