
     Program PWSCF v.6.3 starts on  2Dec2021 at 20:37:57 

     This program is part of the open-source Quantum ESPRESSO suite
     for quantum simulation of materials; please cite
         "P. Giannozzi et al., J. Phys.:Condens. Matter 21 395502 (2009);
         "P. Giannozzi et al., J. Phys.:Condens. Matter 29 465901 (2017);
          URL http://www.quantum-espresso.org", 
     in publications or presentations arising from this work. More details at
     http://www.quantum-espresso.org/quote

     Parallel version (MPI & OpenMP), running on       2 processor cores
     Number of MPI processes:                 2
     Threads/MPI process:                     1

     MPI processes distributed on     1 nodes
     R & G space division:  proc/nbgrp/npool/nimage =       2
     Reading input from pw-input.in

     Current dimensions of program PWSCF are:
     Max number of different atomic species (ntypx) = 10
     Max number of k-points (npk) =  40000
     Max angular momentum in pseudopotentials (lmaxx) =  3

     Subspace diagonalization in iterative solution of the eigenvalue problem:
     a serial algorithm will be used

 
     Parallelization info
     --------------------
     sticks:   dense  smooth     PW     G-vecs:    dense   smooth      PW
     Min         126     126     45                 1369     1369     304
     Max         127     127     46                 1372     1372     305
     Sum         253     253     91                 2741     2741     609
 

     Title: 
     Pd-kp-conv                                                                 


     bravais-lattice index     =            2
     lattice parameter (alat)  =       7.4000  a.u.
     unit-cell volume          =     101.3060 (a.u.)^3
     number of atoms/cell      =            1
     number of atomic types    =            1
     number of electrons       =        16.00
     number of Kohn-Sham states=           12
     kinetic-energy cutoff     =      35.0000  Ry
     charge density cutoff     =     140.0000  Ry
     convergence threshold     =      1.0E-07
     mixing beta               =       0.7000
     number of iterations used =            8  plain     mixing
     Exchange-correlation      =  SLA  PW   PBX  PBC ( 1  4  3  4 0 0)

     celldm(1)=   7.400000  celldm(2)=   0.000000  celldm(3)=   0.000000
     celldm(4)=   0.000000  celldm(5)=   0.000000  celldm(6)=   0.000000

     crystal axes: (cart. coord. in units of alat)
               a(1) = (  -0.500000   0.000000   0.500000 )  
               a(2) = (   0.000000   0.500000   0.500000 )  
               a(3) = (  -0.500000   0.500000   0.000000 )  

     reciprocal axes: (cart. coord. in units 2 pi/alat)
               b(1) = ( -1.000000 -1.000000  1.000000 )  
               b(2) = (  1.000000  1.000000  1.000000 )  
               b(3) = ( -1.000000  1.000000 -1.000000 )  


     PseudoPot. # 1 for Pd read from file:
     ./pd_pbe_v1.4.uspp.F.UPF
     MD5 check sum: 2d733d2bc2cbfd217af676df1668a4bc
     Pseudo is Ultrasoft + core correction, Zval = 16.0
     Generated by new atomic code, or converted to UPF format
     Using radial grid of  887 points,  6 beta functions with: 
                l(1) =   0
                l(2) =   0
                l(3) =   1
                l(4) =   1
                l(5) =   2
                l(6) =   2
     Q(r) pseudized with  8 coefficients,  rinner =    1.130   1.130   1.130
                                                       1.130   1.130

     atomic species   valence    mass     pseudopotential
        Pd            16.00   106.40000     Pd( 1.00)

     48 Sym. Ops., with inversion, found



   Cartesian axes

     site n.     atom                  positions (alat units)
         1           Pd  tau(   1) = (   0.0000000   0.0000000   0.0000000  )

     number of k points=   195  Marzari-Vanderbilt smearing, width (Ry)=  0.0050

     Number of k-points >= 100: set verbosity='high' to print them.

     Dense  grid:     2741 G-vectors     FFT dimensions: (  20,  20,  20)

     Estimated max dynamical RAM per process >      12.27 MB

     Estimated total dynamical RAM >      24.54 MB

     Initial potential from superposition of free atoms
     Check: negative starting charge=   -0.084791

     starting charge   15.49999, renormalised to   16.00000

     negative rho (up, down):  8.753E-02 0.000E+00
     Starting wfcs are   12 randomized atomic wfcs

     total cpu time spent up to now is        1.0 secs

     Self-consistent Calculation

     iteration #  1     ecut=    35.00 Ry     beta= 0.70
     Davidson diagonalization with overlap
     ethr =  1.00E-02,  avg # of iterations =  3.6

     negative rho (up, down):  8.696E-02 0.000E+00

     total cpu time spent up to now is        2.8 secs

     total energy              =    -198.21114107 Ry
     Harris-Foulkes estimate   =    -199.02506875 Ry
     estimated scf accuracy    <       1.12441933 Ry

     iteration #  2     ecut=    35.00 Ry     beta= 0.70
     Davidson diagonalization with overlap
     ethr =  7.03E-03,  avg # of iterations =  2.0

     negative rho (up, down):  8.817E-02 0.000E+00

     total cpu time spent up to now is        4.2 secs

     total energy              =    -198.49369998 Ry
     Harris-Foulkes estimate   =    -199.00184799 Ry
     estimated scf accuracy    <       0.99896191 Ry

     iteration #  3     ecut=    35.00 Ry     beta= 0.70
     Davidson diagonalization with overlap
     ethr =  6.24E-03,  avg # of iterations =  2.0

     negative rho (up, down):  8.846E-02 0.000E+00

     total cpu time spent up to now is        5.6 secs

     total energy              =    -198.70063766 Ry
     Harris-Foulkes estimate   =    -198.70136517 Ry
     estimated scf accuracy    <       0.00158036 Ry

     iteration #  4     ecut=    35.00 Ry     beta= 0.70
     Davidson diagonalization with overlap
     ethr =  9.88E-06,  avg # of iterations =  2.3

     negative rho (up, down):  8.862E-02 0.000E+00

     total cpu time spent up to now is        7.3 secs

     total energy              =    -198.70118111 Ry
     Harris-Foulkes estimate   =    -198.70118277 Ry
     estimated scf accuracy    <       0.00001076 Ry

     iteration #  5     ecut=    35.00 Ry     beta= 0.70
     Davidson diagonalization with overlap
     ethr =  6.72E-08,  avg # of iterations =  1.9

     negative rho (up, down):  8.867E-02 0.000E+00

     total cpu time spent up to now is        8.7 secs

     total energy              =    -198.70118318 Ry
     Harris-Foulkes estimate   =    -198.70118294 Ry
     estimated scf accuracy    <       0.00000019 Ry

     iteration #  6     ecut=    35.00 Ry     beta= 0.70
     Davidson diagonalization with overlap
     ethr =  1.21E-09,  avg # of iterations =  2.1

     negative rho (up, down):  8.867E-02 0.000E+00

     total cpu time spent up to now is       10.2 secs

     End of self-consistent calculation

     Number of k-points >= 100: set verbosity='high' to print the bands.

     the Fermi energy is    18.2836 ev

!    total energy              =    -198.70118320 Ry
     Harris-Foulkes estimate   =    -198.70118320 Ry
     estimated scf accuracy    <          2.4E-09 Ry

     The total energy is the sum of the following terms:

     one-electron contribution =     -44.69403286 Ry
     hartree contribution      =      35.96462220 Ry
     xc contribution           =     -31.36031618 Ry
     ewald contribution        =    -158.61144480 Ry
     smearing contrib. (-TS)   =      -0.00001156 Ry

     convergence has been achieved in   6 iterations

     Writing output data file Pd-kp-conv.save/
 
     init_run     :      0.78s CPU      0.88s WALL (       1 calls)
     electrons    :      8.14s CPU      9.22s WALL (       1 calls)

     Called by init_run:
     wfcinit      :      0.45s CPU      0.52s WALL (       1 calls)
     potinit      :      0.00s CPU      0.02s WALL (       1 calls)
     hinit0       :      0.31s CPU      0.32s WALL (       1 calls)

     Called by electrons:
     c_bands      :      6.89s CPU      7.83s WALL (       6 calls)
     sum_band     :      1.21s CPU      1.29s WALL (       6 calls)
     v_of_rho     :      0.02s CPU      0.02s WALL (       7 calls)
     newd         :      0.04s CPU      0.04s WALL (       7 calls)
     mix_rho      :      0.00s CPU      0.00s WALL (       6 calls)

     Called by c_bands:
     init_us_2    :      0.21s CPU      0.23s WALL (    2535 calls)
     cegterg      :      6.28s CPU      6.76s WALL (    1170 calls)

     Called by sum_band:
     sum_band:bec :      0.01s CPU      0.01s WALL (    1170 calls)
     addusdens    :      0.04s CPU      0.04s WALL (       6 calls)

     Called by *egterg:
     h_psi        :      5.00s CPU      5.41s WALL (    4074 calls)
     s_psi        :      0.09s CPU      0.10s WALL (    4074 calls)
     g_psi        :      0.06s CPU      0.07s WALL (    2709 calls)
     cdiaghg      :      0.95s CPU      1.01s WALL (    3879 calls)

     Called by h_psi:
     h_psi:pot    :      4.97s CPU      5.38s WALL (    4074 calls)
     h_psi:calbec :      0.13s CPU      0.14s WALL (    4074 calls)
     vloc_psi     :      4.71s CPU      5.10s WALL (    4074 calls)
     add_vuspsi   :      0.10s CPU      0.10s WALL (    4074 calls)

     General routines
     calbec       :      0.15s CPU      0.17s WALL (    5244 calls)
     fft          :      0.01s CPU      0.01s WALL (      78 calls)
     ffts         :      0.00s CPU      0.00s WALL (       6 calls)
     fftw         :      4.90s CPU      5.29s WALL (   87306 calls)
 
     Parallel routines
     fft_scatt_xy :      0.87s CPU      0.94s WALL (   87390 calls)
     fft_scatt_yz :      1.30s CPU      1.41s WALL (   87390 calls)
 
     PWSCF        :     9.08s CPU        10.98s WALL

 
   This run was terminated on:  20:38: 8   2Dec2021            

=------------------------------------------------------------------------------=
   JOB DONE.
=------------------------------------------------------------------------------=
