
     Program PWSCF v.6.3 starts on  2Dec2021 at 20:55:52 

     This program is part of the open-source Quantum ESPRESSO suite
     for quantum simulation of materials; please cite
         "P. Giannozzi et al., J. Phys.:Condens. Matter 21 395502 (2009);
         "P. Giannozzi et al., J. Phys.:Condens. Matter 29 465901 (2017);
          URL http://www.quantum-espresso.org", 
     in publications or presentations arising from this work. More details at
     http://www.quantum-espresso.org/quote

     Parallel version (MPI & OpenMP), running on       2 processor cores
     Number of MPI processes:                 2
     Threads/MPI process:                     1

     MPI processes distributed on     1 nodes
     R & G space division:  proc/nbgrp/npool/nimage =       2
     Reading input from pw-input.in

     Current dimensions of program PWSCF are:
     Max number of different atomic species (ntypx) = 10
     Max number of k-points (npk) =  40000
     Max angular momentum in pseudopotentials (lmaxx) =  3

     Subspace diagonalization in iterative solution of the eigenvalue problem:
     a serial algorithm will be used

 
     Parallelization info
     --------------------
     sticks:   dense  smooth     PW     G-vecs:    dense   smooth      PW
     Min         156     156     54                 1763     1763     362
     Max         157     157     55                 1764     1764     363
     Sum         313     313    109                 3527     3527     725
 

     Title: 
     Pd-kp-conv                                                                 


     bravais-lattice index     =            2
     lattice parameter (alat)  =       8.0000  a.u.
     unit-cell volume          =     128.0000 (a.u.)^3
     number of atoms/cell      =            1
     number of atomic types    =            1
     number of electrons       =        16.00
     number of Kohn-Sham states=           12
     kinetic-energy cutoff     =      35.0000  Ry
     charge density cutoff     =     140.0000  Ry
     convergence threshold     =      1.0E-07
     mixing beta               =       0.7000
     number of iterations used =            8  plain     mixing
     Exchange-correlation      =  SLA  PW   PBX  PBC ( 1  4  3  4 0 0)

     celldm(1)=   8.000000  celldm(2)=   0.000000  celldm(3)=   0.000000
     celldm(4)=   0.000000  celldm(5)=   0.000000  celldm(6)=   0.000000

     crystal axes: (cart. coord. in units of alat)
               a(1) = (  -0.500000   0.000000   0.500000 )  
               a(2) = (   0.000000   0.500000   0.500000 )  
               a(3) = (  -0.500000   0.500000   0.000000 )  

     reciprocal axes: (cart. coord. in units 2 pi/alat)
               b(1) = ( -1.000000 -1.000000  1.000000 )  
               b(2) = (  1.000000  1.000000  1.000000 )  
               b(3) = ( -1.000000  1.000000 -1.000000 )  


     PseudoPot. # 1 for Pd read from file:
     ./pd_pbe_v1.4.uspp.F.UPF
     MD5 check sum: 2d733d2bc2cbfd217af676df1668a4bc
     Pseudo is Ultrasoft + core correction, Zval = 16.0
     Generated by new atomic code, or converted to UPF format
     Using radial grid of  887 points,  6 beta functions with: 
                l(1) =   0
                l(2) =   0
                l(3) =   1
                l(4) =   1
                l(5) =   2
                l(6) =   2
     Q(r) pseudized with  8 coefficients,  rinner =    1.130   1.130   1.130
                                                       1.130   1.130

     atomic species   valence    mass     pseudopotential
        Pd            16.00   106.40000     Pd( 1.00)

     48 Sym. Ops., with inversion, found



   Cartesian axes

     site n.     atom                  positions (alat units)
         1           Pd  tau(   1) = (   0.0000000   0.0000000   0.0000000  )

     number of k points=    72  Marzari-Vanderbilt smearing, width (Ry)=  0.0100
                       cart. coord. in units 2pi/alat
        k(    1) = (   0.0000000   0.0000000   0.0000000), wk =   0.0011574
        k(    2) = (  -0.0833333   0.0833333  -0.0833333), wk =   0.0092593
        k(    3) = (  -0.1666667   0.1666667  -0.1666667), wk =   0.0092593
        k(    4) = (  -0.2500000   0.2500000  -0.2500000), wk =   0.0092593
        k(    5) = (  -0.3333333   0.3333333  -0.3333333), wk =   0.0092593
        k(    6) = (  -0.4166667   0.4166667  -0.4166667), wk =   0.0092593
        k(    7) = (   0.5000000  -0.5000000   0.5000000), wk =   0.0046296
        k(    8) = (   0.0000000   0.1666667   0.0000000), wk =   0.0069444
        k(    9) = (  -0.0833333   0.2500000  -0.0833333), wk =   0.0277778
        k(   10) = (  -0.1666667   0.3333333  -0.1666667), wk =   0.0277778
        k(   11) = (  -0.2500000   0.4166667  -0.2500000), wk =   0.0277778
        k(   12) = (  -0.3333333   0.5000000  -0.3333333), wk =   0.0277778
        k(   13) = (   0.5833333  -0.4166667   0.5833333), wk =   0.0277778
        k(   14) = (   0.5000000  -0.3333333   0.5000000), wk =   0.0277778
        k(   15) = (   0.4166667  -0.2500000   0.4166667), wk =   0.0277778
        k(   16) = (   0.3333333  -0.1666667   0.3333333), wk =   0.0277778
        k(   17) = (   0.2500000  -0.0833333   0.2500000), wk =   0.0277778
        k(   18) = (   0.1666667  -0.0000000   0.1666667), wk =   0.0138889
        k(   19) = (   0.0000000   0.3333333   0.0000000), wk =   0.0069444
        k(   20) = (  -0.0833333   0.4166667  -0.0833333), wk =   0.0277778
        k(   21) = (  -0.1666667   0.5000000  -0.1666667), wk =   0.0277778
        k(   22) = (  -0.2500000   0.5833333  -0.2500000), wk =   0.0277778
        k(   23) = (   0.6666667  -0.3333333   0.6666667), wk =   0.0277778
        k(   24) = (   0.5833333  -0.2500000   0.5833333), wk =   0.0277778
        k(   25) = (   0.5000000  -0.1666667   0.5000000), wk =   0.0277778
        k(   26) = (   0.4166667  -0.0833333   0.4166667), wk =   0.0277778
        k(   27) = (   0.3333333   0.0000000   0.3333333), wk =   0.0138889
        k(   28) = (   0.0000000   0.5000000   0.0000000), wk =   0.0069444
        k(   29) = (  -0.0833333   0.5833333  -0.0833333), wk =   0.0277778
        k(   30) = (  -0.1666667   0.6666667  -0.1666667), wk =   0.0277778
        k(   31) = (   0.7500000  -0.2500000   0.7500000), wk =   0.0277778
        k(   32) = (   0.6666667  -0.1666667   0.6666667), wk =   0.0277778
        k(   33) = (   0.5833333  -0.0833333   0.5833333), wk =   0.0277778
        k(   34) = (   0.5000000   0.0000000   0.5000000), wk =   0.0138889
        k(   35) = (   0.0000000   0.6666667   0.0000000), wk =   0.0069444
        k(   36) = (  -0.0833333   0.7500000  -0.0833333), wk =   0.0277778
        k(   37) = (   0.8333333  -0.1666667   0.8333333), wk =   0.0277778
        k(   38) = (   0.7500000  -0.0833333   0.7500000), wk =   0.0277778
        k(   39) = (   0.6666667  -0.0000000   0.6666667), wk =   0.0138889
        k(   40) = (   0.0000000   0.8333333   0.0000000), wk =   0.0069444
        k(   41) = (   0.9166667  -0.0833333   0.9166667), wk =   0.0277778
        k(   42) = (   0.8333333   0.0000000   0.8333333), wk =   0.0138889
        k(   43) = (   0.0000000  -1.0000000   0.0000000), wk =   0.0034722
        k(   44) = (  -0.1666667   0.3333333   0.0000000), wk =   0.0277778
        k(   45) = (  -0.2500000   0.4166667  -0.0833333), wk =   0.0555556
        k(   46) = (  -0.3333333   0.5000000  -0.1666667), wk =   0.0555556
        k(   47) = (   0.5833333  -0.4166667   0.7500000), wk =   0.0555556
        k(   48) = (   0.5000000  -0.3333333   0.6666667), wk =   0.0277778
        k(   49) = (  -0.1666667   0.5000000   0.0000000), wk =   0.0277778
        k(   50) = (  -0.2500000   0.5833333  -0.0833333), wk =   0.0555556
        k(   51) = (   0.6666667  -0.3333333   0.8333333), wk =   0.0555556
        k(   52) = (   0.5833333  -0.2500000   0.7500000), wk =   0.0555556
        k(   53) = (   0.5000000  -0.1666667   0.6666667), wk =   0.0555556
        k(   54) = (   0.4166667  -0.0833333   0.5833333), wk =   0.0555556
        k(   55) = (   0.3333333   0.0000000   0.5000000), wk =   0.0277778
        k(   56) = (  -0.1666667   0.6666667  -0.0000000), wk =   0.0277778
        k(   57) = (   0.7500000  -0.2500000   0.9166667), wk =   0.0555556
        k(   58) = (   0.6666667  -0.1666667   0.8333333), wk =   0.0555556
        k(   59) = (   0.5833333  -0.0833333   0.7500000), wk =   0.0555556
        k(   60) = (   0.5000000   0.0000000   0.6666667), wk =   0.0277778
        k(   61) = (   0.8333333  -0.1666667   1.0000000), wk =   0.0277778
        k(   62) = (   0.7500000  -0.0833333   0.9166667), wk =   0.0555556
        k(   63) = (   0.6666667   0.0000000   0.8333333), wk =   0.0277778
        k(   64) = (  -0.1666667  -1.0000000  -0.0000000), wk =   0.0138889
        k(   65) = (   0.6666667  -0.3333333   1.0000000), wk =   0.0277778
        k(   66) = (   0.5833333  -0.2500000   0.9166667), wk =   0.0555556
        k(   67) = (   0.5000000  -0.1666667   0.8333333), wk =   0.0277778
        k(   68) = (   0.6666667  -0.1666667   1.0000000), wk =   0.0277778
        k(   69) = (   0.5833333  -0.0833333   0.9166667), wk =   0.0555556
        k(   70) = (   0.5000000   0.0000000   0.8333333), wk =   0.0277778
        k(   71) = (  -0.3333333  -1.0000000   0.0000000), wk =   0.0138889
        k(   72) = (  -0.5000000  -1.0000000   0.0000000), wk =   0.0069444

     Dense  grid:     3527 G-vectors     FFT dimensions: (  24,  24,  24)

     Estimated max dynamical RAM per process >      10.51 MB

     Estimated total dynamical RAM >      21.01 MB

     Check: negative/imaginary core charge=   -0.000001    0.000000

     Initial potential from superposition of free atoms
     Check: negative starting charge=   -0.080332

     starting charge   15.49999, renormalised to   16.00000

     negative rho (up, down):  8.292E-02 0.000E+00
     Starting wfcs are   12 randomized atomic wfcs

     total cpu time spent up to now is        0.6 secs

     Self-consistent Calculation

     iteration #  1     ecut=    35.00 Ry     beta= 0.70
     Davidson diagonalization with overlap
     ethr =  1.00E-02,  avg # of iterations =  3.4

     negative rho (up, down):  8.035E-02 0.000E+00

     total cpu time spent up to now is        1.5 secs

     total energy              =    -197.96407698 Ry
     Harris-Foulkes estimate   =    -199.06674758 Ry
     estimated scf accuracy    <       1.50020451 Ry

     iteration #  2     ecut=    35.00 Ry     beta= 0.70
     Davidson diagonalization with overlap
     ethr =  9.38E-03,  avg # of iterations =  2.0

     negative rho (up, down):  8.253E-02 0.000E+00

     total cpu time spent up to now is        2.3 secs

     total energy              =    -198.29254624 Ry
     Harris-Foulkes estimate   =    -199.25594866 Ry
     estimated scf accuracy    <       2.05338195 Ry

     iteration #  3     ecut=    35.00 Ry     beta= 0.70
     Davidson diagonalization with overlap
     ethr =  9.38E-03,  avg # of iterations =  2.0

     negative rho (up, down):  8.261E-02 0.000E+00

     total cpu time spent up to now is        3.1 secs

     total energy              =    -198.67987937 Ry
     Harris-Foulkes estimate   =    -198.68029314 Ry
     estimated scf accuracy    <       0.00096372 Ry

     iteration #  4     ecut=    35.00 Ry     beta= 0.70
     Davidson diagonalization with overlap
     ethr =  6.02E-06,  avg # of iterations =  2.7

     negative rho (up, down):  8.274E-02 0.000E+00

     total cpu time spent up to now is        4.0 secs

     total energy              =    -198.68027407 Ry
     Harris-Foulkes estimate   =    -198.68027353 Ry
     estimated scf accuracy    <       0.00000308 Ry

     iteration #  5     ecut=    35.00 Ry     beta= 0.70
     Davidson diagonalization with overlap
     ethr =  1.92E-08,  avg # of iterations =  1.9

     negative rho (up, down):  8.275E-02 0.000E+00

     total cpu time spent up to now is        4.8 secs

     End of self-consistent calculation

          k = 0.0000 0.0000 0.0000 (   459 PWs)   bands (ev):

   -36.0540 -36.0540 -36.0540   7.6867  11.1822  11.1822  11.1822  12.2496
    12.2496  30.2861  33.6052  33.6052

          k =-0.0833 0.0833-0.0833 (   447 PWs)   bands (ev):

   -36.0642 -36.0554 -36.0554   7.8899  11.1309  11.2411  11.2411  12.2279
    12.2279  30.2787  32.0500  33.6707

          k =-0.1667 0.1667-0.1667 (   456 PWs)   bands (ev):

   -36.0940 -36.0598 -36.0598   8.4522  11.0409  11.3589  11.3589  12.2168
    12.2168  28.5667  31.0935  33.7558

          k =-0.2500 0.2500-0.2500 (   459 PWs)   bands (ev):

   -36.1335 -36.0660 -36.0660   9.1382  11.1974  11.3864  11.3864  12.3623
    12.3623  25.5957  30.8101  33.5507

          k =-0.3333 0.3333-0.3333 (   450 PWs)   bands (ev):

   -36.1728 -36.0720 -36.0720   9.4625  11.2992  11.2992  12.1042  12.6576
    12.6576  22.6382  30.2092  32.8862

          k =-0.4167 0.4167-0.4167 (   446 PWs)   bands (ev):

   -36.2015 -36.0763 -36.0763   9.4716  11.2041  11.2041  12.9291  12.9291
    13.6053  20.0266  29.6998  32.1826

          k = 0.5000-0.5000 0.5000 (   434 PWs)   bands (ev):

   -36.2122 -36.0774 -36.0774   9.4496  11.1679  11.1679  13.0373  13.0373
    14.6124  18.6643  29.5119  31.8985

          k = 0.0000 0.1667 0.0000 (   451 PWs)   bands (ev):

   -36.0643 -36.0579 -36.0579   7.9578  11.0671  11.2869  11.2869  12.1340
    12.2991  30.3902  32.6179  32.8894

          k =-0.0833 0.2500-0.0833 (   452 PWs)   bands (ev):

   -36.0862 -36.0630 -36.0609   8.4046  10.9437  11.4108  11.4150  12.0462
    12.3467  29.6139  31.0146  32.2530

          k =-0.1667 0.3333-0.1667 (   456 PWs)   bands (ev):

   -36.1216 -36.0695 -36.0663   9.0856  10.9079  11.4325  11.4926  12.1978
    12.4789  26.7349  30.7829  31.6943

          k =-0.2500 0.4167-0.2500 (   446 PWs)   bands (ev):

   -36.1601 -36.0756 -36.0729   9.5508  11.2688  11.3578  11.4433  12.7328
    12.7565  23.7193  30.2845  31.2117

          k =-0.3333 0.5000-0.3333 (   446 PWs)   bands (ev):

   -36.1915 -36.0797 -36.0796   9.6055  11.1513  11.3427  12.0768  12.9692
    13.8142  20.9269  29.7223  30.9480

          k = 0.5833-0.4167 0.5833 (   449 PWs)   bands (ev):

   -36.2078 -36.0845 -36.0805   9.5737  11.0870  11.2722  12.5021  13.0441
    15.1187  18.8829  29.3401  30.9928

          k = 0.5000-0.3333 0.5000 (   448 PWs)   bands (ev):

   -36.2043 -36.0858 -36.0780   9.5869  11.1128  11.2718  12.5075  12.9005
    14.7729  19.4111  29.2017  30.7805

          k = 0.4167-0.2500 0.4167 (   444 PWs)   bands (ev):

   -36.1820 -36.0835 -36.0727   9.6222  11.2077  11.3454  11.9887  12.5871
    13.5660  21.8279  29.3116  31.2190

          k = 0.3333-0.1667 0.3333 (   449 PWs)   bands (ev):

   -36.1473 -36.0780 -36.0663   9.4639  11.1325  11.4062  11.4544  12.2306
    12.8651  24.7220  29.6151  32.1444

          k = 0.2500-0.0833 0.2500 (   455 PWs)   bands (ev):

   -36.1095 -36.0704 -36.0602   8.8542  10.9271  11.4325  11.4651  12.0417
    12.4746  27.7387  29.9843  32.8951

          k = 0.1667-0.0000 0.1667 (   457 PWs)   bands (ev):

   -36.0792 -36.0622 -36.0563   8.2163  11.0286  11.3244  11.3523  12.1108
    12.3015  30.0883  30.6942  32.8123

          k = 0.0000 0.3333 0.0000 (   451 PWs)   bands (ev):

   -36.0926 -36.0690 -36.0690   8.7089  10.7638  11.5866  11.5866  11.8796
    12.4345  30.6448  31.0369  31.0369

          k =-0.0833 0.4167-0.0833 (   457 PWs)   bands (ev):

   -36.1182 -36.0764 -36.0754   9.2731  10.6044  11.5476  11.7456  12.1168
    12.5557  28.0987  30.1036  30.6878

          k =-0.1667 0.5000-0.1667 (   445 PWs)   bands (ev):

   -36.1506 -36.0829 -36.0828   9.7821  10.6645  11.3277  11.7586  12.7872
    12.9015  25.0397  29.4790  29.9757

          k =-0.2500 0.5833-0.2500 (   446 PWs)   bands (ev):

   -36.1793 -36.0924 -36.0869   9.8783  10.9526  11.3286  11.6699  13.0080
    14.1641  22.1169  28.8748  29.2505

          k = 0.6667-0.3333 0.6667 (   448 PWs)   bands (ev):

   -36.1965 -36.1011 -36.0873   9.8642  10.9042  11.5756  11.7205  13.0645
    15.8012  19.6078  27.8399  29.5385

          k = 0.5833-0.2500 0.5833 (   446 PWs)   bands (ev):

   -36.1980 -36.1063 -36.0840   9.8978  10.9046  11.5317  11.8721  12.8960
    16.3104  19.0633  27.1000  30.5256

          k = 0.5000-0.1667 0.5000 (   446 PWs)   bands (ev):

   -36.1837 -36.1061 -36.0780   9.9837  10.9962  11.5620  11.6075  12.5501
    14.8945  21.3177  26.7622  30.9236

          k = 0.4167-0.0833 0.4167 (   449 PWs)   bands (ev):

   -36.1591 -36.0993 -36.0708   9.9952  10.9139  11.2823  11.6658  12.1349
    13.7443  24.1297  26.8261  31.7940

          k = 0.3333 0.0000 0.3333 (   457 PWs)   bands (ev):

   -36.1320 -36.0863 -36.0644   9.5116  10.7724  11.3957  11.7105  11.8719
    12.9688  26.9091  27.4080  33.1056

          k = 0.0000 0.5000 0.0000 (   456 PWs)   bands (ev):

   -36.1305 -36.0846 -36.0846   9.5780  10.3729  11.9224  12.0470  12.0470
    12.6223  28.8454  28.8454  29.8362

          k =-0.0833 0.5833-0.0833 (   447 PWs)   bands (ev):

   -36.1532 -36.0931 -36.0917   9.8543  10.2366  11.8125  12.1857  12.8046
    12.9314  26.4407  27.9884  28.4669

          k =-0.1667 0.6667-0.1667 (   446 PWs)   bands (ev):

   -36.1743 -36.1049 -36.0960   9.9461  10.3453  11.6512  12.1318  13.0323
    14.3714  23.5357  26.9626  27.6284

          k = 0.7500-0.2500 0.7500 (   447 PWs)   bands (ev):

   -36.1860 -36.1189 -36.0966   9.9832  10.5592  11.5433  12.0250  13.0939
    16.2154  20.8528  25.6664  27.8598

          k = 0.6667-0.1667 0.6667 (   447 PWs)   bands (ev):

   -36.1858 -36.1308 -36.0929  10.1087  10.7120  11.4539  11.9334  12.9235
    17.9175  19.0266  24.6602  28.7072

          k = 0.5833-0.0833 0.5833 (   447 PWs)   bands (ev):

   -36.1767 -36.1344 -36.0861  10.3106  10.8352  11.2378  11.8844  12.5853
    16.4166  21.1295  24.0433  30.0884

          k = 0.5000 0.0000 0.5000 (   443 PWs)   bands (ev):

   -36.1676 -36.1221 -36.0779  10.4469  10.7932  11.1001  11.8498  12.2334
    14.9202  23.8438  23.9244  31.2665

          k = 0.0000 0.6667 0.0000 (   444 PWs)   bands (ev):

   -36.1676 -36.0998 -36.0998   9.7710  10.0080  12.5861  12.5861  12.8179
    13.1291  26.6551  26.8882  26.8882

          k =-0.0833 0.7500-0.0833 (   448 PWs)   bands (ev):

   -36.1826 -36.1090 -36.1049   9.7547   9.9295  12.4784  12.6268  13.0316
    14.5375  24.7253  25.2682  26.3200

          k = 0.8333-0.1667 0.8333 (   445 PWs)   bands (ev):

   -36.1884 -36.1237 -36.1057   9.8042  10.0643  12.1687  12.5221  13.1293
    16.4057  22.3589  23.7683  26.3993

          k = 0.7500-0.0833 0.7500 (   445 PWs)   bands (ev):

   -36.1811 -36.1427 -36.1020   9.9460  10.3537  11.7735  12.3828  12.9918
    18.5464  20.1176  22.6401  27.1422

          k = 0.6667-0.0000 0.6667 (   443 PWs)   bands (ev):

   -36.1621 -36.1614 -36.0948  10.1754  10.7010  11.3323  12.1864  12.7455
    18.1366  20.6531  22.1985  28.4365

          k = 0.0000 0.8333 0.0000 (   452 PWs)   bands (ev):

   -36.1949 -36.1110 -36.1110   9.5782   9.7546  12.9644  13.0481  13.0481
    15.1351  23.3157  25.5193  25.5193

          k = 0.9167-0.0833 0.9167 (   454 PWs)   bands (ev):

   -36.1994 -36.1184 -36.1126   9.5794   9.7563  12.9017  12.9031  13.1816
    16.4685  22.0669  24.2161  25.3870

          k = 0.8333 0.0000 0.8333 (   450 PWs)   bands (ev):

   -36.1926 -36.1317 -36.1093   9.7225   9.9667  12.3881  12.7295  13.1083
    17.8980  21.4173  22.3826  25.9664

          k = 0.0000-1.0000 0.0000 (   444 PWs)   bands (ev):

   -36.2042 -36.1149 -36.1149   9.4806   9.6649  13.0189  13.2382  13.2382
    16.4754  21.5358  25.0206  25.0206

          k =-0.1667 0.3333 0.0000 (   453 PWs)   bands (ev):

   -36.1069 -36.0737 -36.0640   8.9289  10.7885  11.4729  11.5911  11.9854
    12.5096  28.8774  29.1150  32.5550

          k =-0.2500 0.4167-0.0833 (   450 PWs)   bands (ev):

   -36.1379 -36.0844 -36.0693   9.5843  10.7535  11.3391  11.6920  12.1802
    12.9319  25.9691  28.5331  31.7752

          k =-0.3333 0.5000-0.1667 (   445 PWs)   bands (ev):

   -36.1699 -36.0924 -36.0759   9.8546  11.1368  11.1953  11.6244  12.5935
    13.7293  22.9944  28.2416  30.5195

          k = 0.5833-0.4167 0.7500 (   444 PWs)   bands (ev):

   -36.1935 -36.0971 -36.0816   9.8239  10.9919  11.4816  11.8166  12.8955
    15.0403  20.3108  28.2546  29.4958

          k = 0.5000-0.3333 0.6667 (   446 PWs)   bands (ev):

   -36.2024 -36.0985 -36.0840   9.7945  10.9369  11.4583  12.0314  12.9903
    16.1586  18.7433  28.5047  28.8929

          k =-0.1667 0.5000 0.0000 (   453 PWs)   bands (ev):

   -36.1395 -36.0896 -36.0796   9.7625  10.4425  11.4345  12.0435  12.2990
    12.9237  27.2277  27.5744  30.2250

          k =-0.2500 0.5833-0.0833 (   449 PWs)   bands (ev):

   -36.1635 -36.1016 -36.0856  10.0714  10.5149  11.2523  12.0714  12.6577
    13.8584  24.3829  27.0027  28.7417

          k = 0.6667-0.3333 0.8333 (   445 PWs)   bands (ev):

   -36.1823 -36.1115 -36.0908  10.0737  10.7429  11.2469  11.9541  12.9389
    15.3408  21.5667  26.9664  27.4354

          k = 0.5833-0.2500 0.7500 (   444 PWs)   bands (ev):

   -36.1907 -36.1189 -36.0919  10.1024  10.7241  11.4633  11.8310  12.9839
    17.1222  19.2315  26.3398  27.4439

          k = 0.5000-0.1667 0.6667 (   446 PWs)   bands (ev):

   -36.1868 -36.1218 -36.0885  10.1884  10.7483  11.4099  11.8156  12.8203
    16.5860  20.0000  25.6387  28.2851

          k = 0.4167-0.0833 0.5833 (   443 PWs)   bands (ev):

   -36.1732 -36.1170 -36.0818  10.2992  10.8867  11.0010  11.9199  12.4890
    14.9913  22.6022  25.3702  29.3868

          k = 0.3333 0.0000 0.5000 (   450 PWs)   bands (ev):

   -36.1557 -36.1033 -36.0747  10.1883  10.6184  11.1314  12.0432  12.0697
    13.7833  25.3042  25.7209  30.6413

          k =-0.1667 0.6667-0.0000 (   445 PWs)   bands (ev):

   -36.1697 -36.1052 -36.0968   9.9469  10.1120  11.8370  12.5819  12.7259
    13.9865  25.6659  25.9527  26.8449

          k = 0.7500-0.2500 0.9167 (   447 PWs)   bands (ev):

   -36.1810 -36.1186 -36.1015   9.9905  10.2152  11.6739  12.4824  12.9742
    15.5724  23.0613  25.2577  25.8273

          k = 0.6667-0.1667 0.8333 (   444 PWs)   bands (ev):

   -36.1820 -36.1341 -36.1020  10.0715  10.4442  11.4831  12.2786  13.0396
    17.5553  20.5571  24.1050  26.1579

          k = 0.5833-0.0833 0.7500 (   447 PWs)   bands (ev):

   -36.1737 -36.1472 -36.0976  10.2629  10.6525  11.2288  12.1313  12.8789
    18.3137  19.9360  23.1991  27.0209

          k = 0.5000 0.0000 0.6667 (   448 PWs)   bands (ev):

   -36.1707 -36.1410 -36.0900  10.5185  10.8140  10.8612  12.0854  12.6054
    16.5105  22.3394  22.8632  28.1666

          k = 0.8333-0.1667 1.0000 (   450 PWs)   bands (ev):

   -36.1910 -36.1168 -36.1101   9.7357   9.8798  12.3905  12.8897  13.0467
    15.8696  23.3243  24.7348  24.7957

          k = 0.7500-0.0833 0.9167 (   446 PWs)   bands (ev):

   -36.1890 -36.1303 -36.1109   9.8329  10.0371  12.0890  12.6547  13.1533
    17.6403  21.9194  22.7907  25.0278

          k = 0.6667 0.0000 0.8333 (   447 PWs)   bands (ev):

   -36.1766 -36.1479 -36.1060  10.0208  10.3590  11.6290  12.4029  13.0451
    19.3725  20.1773  21.9280  25.8519

          k =-0.1667-1.0000-0.0000 (   454 PWs)   bands (ev):

   -36.1986 -36.1211 -36.1153   9.6314   9.7970  12.6798  12.8609  13.2374
    17.2524  21.5309  24.2785  24.3446

          k = 0.6667-0.3333 1.0000 (   452 PWs)   bands (ev):

   -36.1726 -36.1205 -36.0917  10.3971  10.4114  11.0744  12.3987  12.5768
    15.1760  24.0314  24.1892  27.3150

          k = 0.5833-0.2500 0.9167 (   443 PWs)   bands (ev):

   -36.1770 -36.1341 -36.0980  10.3913  10.5767  11.0300  12.2154  12.8748
    16.8639  21.4117  24.2580  26.0932

          k = 0.5000-0.1667 0.8333 (   442 PWs)   bands (ev):

   -36.1781 -36.1393 -36.1007  10.4729  10.4781  11.1342  12.0987  12.9871
    18.6528  19.2752  24.6146  25.3742

          k = 0.6667-0.1667 1.0000 (   444 PWs)   bands (ev):

   -36.1804 -36.1328 -36.1080  10.1221  10.2527  11.4824  12.5154  13.0424
    17.2061  22.9492  23.0642  24.3117

          k = 0.5833-0.0833 0.9167 (   446 PWs)   bands (ev):

   -36.1719 -36.1481 -36.1106  10.2160  10.5090  11.2115  12.2912  13.1429
    19.1733  20.7065  22.6816  24.0534

          k = 0.5000 0.0000 0.8333 (   446 PWs)   bands (ev):

   -36.1651 -36.1548 -36.1062  10.3584  10.7749  10.8535  12.2195  13.0381
    18.6498  21.1799  22.2720  24.9068

          k =-0.3333-1.0000 0.0000 (   444 PWs)   bands (ev):

   -36.1822 -36.1374 -36.1151   9.9987  10.1938  11.7117  12.4770  13.2382
    18.8628  21.5332  22.6399  23.3745

          k =-0.5000-1.0000 0.0000 (   444 PWs)   bands (ev):

   -36.1597 -36.1597 -36.1154  10.2391  10.8423  10.8423  12.2255  13.2387
    20.7378  20.7378  21.5437  22.9839

     the Fermi energy is    13.0532 ev

!    total energy              =    -198.68027437 Ry
     Harris-Foulkes estimate   =    -198.68027436 Ry
     estimated scf accuracy    <       0.00000007 Ry

     The total energy is the sum of the following terms:

     one-electron contribution =     -63.24663866 Ry
     hartree contribution      =      42.50960693 Ry
     xc contribution           =     -31.22770385 Ry
     ewald contribution        =    -146.71558644 Ry
     smearing contrib. (-TS)   =       0.00004765 Ry

     convergence has been achieved in   5 iterations

     Writing output data file Pd-kp-conv.save/
 
     init_run     :      0.49s CPU      0.51s WALL (       1 calls)
     electrons    :      3.72s CPU      4.20s WALL (       1 calls)

     Called by init_run:
     wfcinit      :      0.22s CPU      0.23s WALL (       1 calls)
     potinit      :      0.00s CPU      0.01s WALL (       1 calls)
     hinit0       :      0.25s CPU      0.25s WALL (       1 calls)

     Called by electrons:
     c_bands      :      3.07s CPU      3.46s WALL (       5 calls)
     sum_band     :      0.59s CPU      0.63s WALL (       5 calls)
     v_of_rho     :      0.02s CPU      0.03s WALL (       6 calls)
     newd         :      0.04s CPU      0.05s WALL (       6 calls)
     mix_rho      :      0.00s CPU      0.00s WALL (       5 calls)

     Called by c_bands:
     init_us_2    :      0.08s CPU      0.09s WALL (     792 calls)
     cegterg      :      2.84s CPU      3.03s WALL (     360 calls)

     Called by sum_band:
     sum_band:bec :      0.00s CPU      0.00s WALL (     360 calls)
     addusdens    :      0.04s CPU      0.05s WALL (       5 calls)

     Called by *egterg:
     h_psi        :      2.45s CPU      2.62s WALL (    1295 calls)
     s_psi        :      0.03s CPU      0.04s WALL (    1295 calls)
     g_psi        :      0.02s CPU      0.03s WALL (     863 calls)
     cdiaghg      :      0.31s CPU      0.33s WALL (    1223 calls)

     Called by h_psi:
     h_psi:pot    :      2.44s CPU      2.60s WALL (    1295 calls)
     h_psi:calbec :      0.05s CPU      0.05s WALL (    1295 calls)
     vloc_psi     :      2.34s CPU      2.50s WALL (    1295 calls)
     add_vuspsi   :      0.04s CPU      0.04s WALL (    1295 calls)

     General routines
     calbec       :      0.06s CPU      0.06s WALL (    1655 calls)
     fft          :      0.01s CPU      0.01s WALL (      67 calls)
     ffts         :      0.00s CPU      0.00s WALL (       5 calls)
     fftw         :      2.40s CPU      2.57s WALL (   27750 calls)
 
     Parallel routines
     fft_scatt_xy :      0.44s CPU      0.48s WALL (   27822 calls)
     fft_scatt_yz :      0.53s CPU      0.57s WALL (   27822 calls)
 
     PWSCF        :     4.29s CPU         5.13s WALL

 
   This run was terminated on:  20:55:57   2Dec2021            

=------------------------------------------------------------------------------=
   JOB DONE.
=------------------------------------------------------------------------------=
