
     Program PWSCF v.6.3 starts on  2Dec2021 at 20:55:58 

     This program is part of the open-source Quantum ESPRESSO suite
     for quantum simulation of materials; please cite
         "P. Giannozzi et al., J. Phys.:Condens. Matter 21 395502 (2009);
         "P. Giannozzi et al., J. Phys.:Condens. Matter 29 465901 (2017);
          URL http://www.quantum-espresso.org", 
     in publications or presentations arising from this work. More details at
     http://www.quantum-espresso.org/quote

     Parallel version (MPI & OpenMP), running on       2 processor cores
     Number of MPI processes:                 2
     Threads/MPI process:                     1

     MPI processes distributed on     1 nodes
     R & G space division:  proc/nbgrp/npool/nimage =       2
     Reading input from pw-input.in

     Current dimensions of program PWSCF are:
     Max number of different atomic species (ntypx) = 10
     Max number of k-points (npk) =  40000
     Max angular momentum in pseudopotentials (lmaxx) =  3

     Subspace diagonalization in iterative solution of the eigenvalue problem:
     a serial algorithm will be used

 
     Parallelization info
     --------------------
     sticks:   dense  smooth     PW     G-vecs:    dense   smooth      PW
     Min         156     156     54                 1859     1859     362
     Max         157     157     55                 1860     1860     363
     Sum         313     313    109                 3719     3719     725
 

     Title: 
     Pd-kp-conv                                                                 


     bravais-lattice index     =            2
     lattice parameter (alat)  =       8.1000  a.u.
     unit-cell volume          =     132.8602 (a.u.)^3
     number of atoms/cell      =            1
     number of atomic types    =            1
     number of electrons       =        16.00
     number of Kohn-Sham states=           12
     kinetic-energy cutoff     =      35.0000  Ry
     charge density cutoff     =     140.0000  Ry
     convergence threshold     =      1.0E-07
     mixing beta               =       0.7000
     number of iterations used =            8  plain     mixing
     Exchange-correlation      =  SLA  PW   PBX  PBC ( 1  4  3  4 0 0)

     celldm(1)=   8.100000  celldm(2)=   0.000000  celldm(3)=   0.000000
     celldm(4)=   0.000000  celldm(5)=   0.000000  celldm(6)=   0.000000

     crystal axes: (cart. coord. in units of alat)
               a(1) = (  -0.500000   0.000000   0.500000 )  
               a(2) = (   0.000000   0.500000   0.500000 )  
               a(3) = (  -0.500000   0.500000   0.000000 )  

     reciprocal axes: (cart. coord. in units 2 pi/alat)
               b(1) = ( -1.000000 -1.000000  1.000000 )  
               b(2) = (  1.000000  1.000000  1.000000 )  
               b(3) = ( -1.000000  1.000000 -1.000000 )  


     PseudoPot. # 1 for Pd read from file:
     ./pd_pbe_v1.4.uspp.F.UPF
     MD5 check sum: 2d733d2bc2cbfd217af676df1668a4bc
     Pseudo is Ultrasoft + core correction, Zval = 16.0
     Generated by new atomic code, or converted to UPF format
     Using radial grid of  887 points,  6 beta functions with: 
                l(1) =   0
                l(2) =   0
                l(3) =   1
                l(4) =   1
                l(5) =   2
                l(6) =   2
     Q(r) pseudized with  8 coefficients,  rinner =    1.130   1.130   1.130
                                                       1.130   1.130

     atomic species   valence    mass     pseudopotential
        Pd            16.00   106.40000     Pd( 1.00)

     48 Sym. Ops., with inversion, found



   Cartesian axes

     site n.     atom                  positions (alat units)
         1           Pd  tau(   1) = (   0.0000000   0.0000000   0.0000000  )

     number of k points=    72  Marzari-Vanderbilt smearing, width (Ry)=  0.0100
                       cart. coord. in units 2pi/alat
        k(    1) = (   0.0000000   0.0000000   0.0000000), wk =   0.0011574
        k(    2) = (  -0.0833333   0.0833333  -0.0833333), wk =   0.0092593
        k(    3) = (  -0.1666667   0.1666667  -0.1666667), wk =   0.0092593
        k(    4) = (  -0.2500000   0.2500000  -0.2500000), wk =   0.0092593
        k(    5) = (  -0.3333333   0.3333333  -0.3333333), wk =   0.0092593
        k(    6) = (  -0.4166667   0.4166667  -0.4166667), wk =   0.0092593
        k(    7) = (   0.5000000  -0.5000000   0.5000000), wk =   0.0046296
        k(    8) = (   0.0000000   0.1666667   0.0000000), wk =   0.0069444
        k(    9) = (  -0.0833333   0.2500000  -0.0833333), wk =   0.0277778
        k(   10) = (  -0.1666667   0.3333333  -0.1666667), wk =   0.0277778
        k(   11) = (  -0.2500000   0.4166667  -0.2500000), wk =   0.0277778
        k(   12) = (  -0.3333333   0.5000000  -0.3333333), wk =   0.0277778
        k(   13) = (   0.5833333  -0.4166667   0.5833333), wk =   0.0277778
        k(   14) = (   0.5000000  -0.3333333   0.5000000), wk =   0.0277778
        k(   15) = (   0.4166667  -0.2500000   0.4166667), wk =   0.0277778
        k(   16) = (   0.3333333  -0.1666667   0.3333333), wk =   0.0277778
        k(   17) = (   0.2500000  -0.0833333   0.2500000), wk =   0.0277778
        k(   18) = (   0.1666667  -0.0000000   0.1666667), wk =   0.0138889
        k(   19) = (   0.0000000   0.3333333   0.0000000), wk =   0.0069444
        k(   20) = (  -0.0833333   0.4166667  -0.0833333), wk =   0.0277778
        k(   21) = (  -0.1666667   0.5000000  -0.1666667), wk =   0.0277778
        k(   22) = (  -0.2500000   0.5833333  -0.2500000), wk =   0.0277778
        k(   23) = (   0.6666667  -0.3333333   0.6666667), wk =   0.0277778
        k(   24) = (   0.5833333  -0.2500000   0.5833333), wk =   0.0277778
        k(   25) = (   0.5000000  -0.1666667   0.5000000), wk =   0.0277778
        k(   26) = (   0.4166667  -0.0833333   0.4166667), wk =   0.0277778
        k(   27) = (   0.3333333   0.0000000   0.3333333), wk =   0.0138889
        k(   28) = (   0.0000000   0.5000000   0.0000000), wk =   0.0069444
        k(   29) = (  -0.0833333   0.5833333  -0.0833333), wk =   0.0277778
        k(   30) = (  -0.1666667   0.6666667  -0.1666667), wk =   0.0277778
        k(   31) = (   0.7500000  -0.2500000   0.7500000), wk =   0.0277778
        k(   32) = (   0.6666667  -0.1666667   0.6666667), wk =   0.0277778
        k(   33) = (   0.5833333  -0.0833333   0.5833333), wk =   0.0277778
        k(   34) = (   0.5000000   0.0000000   0.5000000), wk =   0.0138889
        k(   35) = (   0.0000000   0.6666667   0.0000000), wk =   0.0069444
        k(   36) = (  -0.0833333   0.7500000  -0.0833333), wk =   0.0277778
        k(   37) = (   0.8333333  -0.1666667   0.8333333), wk =   0.0277778
        k(   38) = (   0.7500000  -0.0833333   0.7500000), wk =   0.0277778
        k(   39) = (   0.6666667  -0.0000000   0.6666667), wk =   0.0138889
        k(   40) = (   0.0000000   0.8333333   0.0000000), wk =   0.0069444
        k(   41) = (   0.9166667  -0.0833333   0.9166667), wk =   0.0277778
        k(   42) = (   0.8333333   0.0000000   0.8333333), wk =   0.0138889
        k(   43) = (   0.0000000  -1.0000000   0.0000000), wk =   0.0034722
        k(   44) = (  -0.1666667   0.3333333   0.0000000), wk =   0.0277778
        k(   45) = (  -0.2500000   0.4166667  -0.0833333), wk =   0.0555556
        k(   46) = (  -0.3333333   0.5000000  -0.1666667), wk =   0.0555556
        k(   47) = (   0.5833333  -0.4166667   0.7500000), wk =   0.0555556
        k(   48) = (   0.5000000  -0.3333333   0.6666667), wk =   0.0277778
        k(   49) = (  -0.1666667   0.5000000   0.0000000), wk =   0.0277778
        k(   50) = (  -0.2500000   0.5833333  -0.0833333), wk =   0.0555556
        k(   51) = (   0.6666667  -0.3333333   0.8333333), wk =   0.0555556
        k(   52) = (   0.5833333  -0.2500000   0.7500000), wk =   0.0555556
        k(   53) = (   0.5000000  -0.1666667   0.6666667), wk =   0.0555556
        k(   54) = (   0.4166667  -0.0833333   0.5833333), wk =   0.0555556
        k(   55) = (   0.3333333   0.0000000   0.5000000), wk =   0.0277778
        k(   56) = (  -0.1666667   0.6666667  -0.0000000), wk =   0.0277778
        k(   57) = (   0.7500000  -0.2500000   0.9166667), wk =   0.0555556
        k(   58) = (   0.6666667  -0.1666667   0.8333333), wk =   0.0555556
        k(   59) = (   0.5833333  -0.0833333   0.7500000), wk =   0.0555556
        k(   60) = (   0.5000000   0.0000000   0.6666667), wk =   0.0277778
        k(   61) = (   0.8333333  -0.1666667   1.0000000), wk =   0.0277778
        k(   62) = (   0.7500000  -0.0833333   0.9166667), wk =   0.0555556
        k(   63) = (   0.6666667   0.0000000   0.8333333), wk =   0.0277778
        k(   64) = (  -0.1666667  -1.0000000  -0.0000000), wk =   0.0138889
        k(   65) = (   0.6666667  -0.3333333   1.0000000), wk =   0.0277778
        k(   66) = (   0.5833333  -0.2500000   0.9166667), wk =   0.0555556
        k(   67) = (   0.5000000  -0.1666667   0.8333333), wk =   0.0277778
        k(   68) = (   0.6666667  -0.1666667   1.0000000), wk =   0.0277778
        k(   69) = (   0.5833333  -0.0833333   0.9166667), wk =   0.0555556
        k(   70) = (   0.5000000   0.0000000   0.8333333), wk =   0.0277778
        k(   71) = (  -0.3333333  -1.0000000   0.0000000), wk =   0.0138889
        k(   72) = (  -0.5000000  -1.0000000   0.0000000), wk =   0.0069444

     Dense  grid:     3719 G-vectors     FFT dimensions: (  24,  24,  24)

     Estimated max dynamical RAM per process >      10.94 MB

     Estimated total dynamical RAM >      21.88 MB

     Initial potential from superposition of free atoms
     Check: negative starting charge=   -0.081280

     starting charge   15.49999, renormalised to   16.00000

     negative rho (up, down):  8.390E-02 0.000E+00
     Starting wfcs are   12 randomized atomic wfcs

     total cpu time spent up to now is        0.8 secs

     Self-consistent Calculation

     iteration #  1     ecut=    35.00 Ry     beta= 0.70
     Davidson diagonalization with overlap
     ethr =  1.00E-02,  avg # of iterations =  3.4

     negative rho (up, down):  8.120E-02 0.000E+00

     total cpu time spent up to now is        1.7 secs

     total energy              =    -197.91817052 Ry
     Harris-Foulkes estimate   =    -199.06799818 Ry
     estimated scf accuracy    <       1.56093871 Ry

     iteration #  2     ecut=    35.00 Ry     beta= 0.70
     Davidson diagonalization with overlap
     ethr =  9.76E-03,  avg # of iterations =  2.0

     negative rho (up, down):  8.344E-02 0.000E+00

     total cpu time spent up to now is        2.5 secs

     total energy              =    -198.26301061 Ry
     Harris-Foulkes estimate   =    -199.30301348 Ry
     estimated scf accuracy    <       2.23534327 Ry

     iteration #  3     ecut=    35.00 Ry     beta= 0.70
     Davidson diagonalization with overlap
     ethr =  9.76E-03,  avg # of iterations =  2.0

     negative rho (up, down):  8.350E-02 0.000E+00

     total cpu time spent up to now is        3.2 secs

     total energy              =    -198.67324188 Ry
     Harris-Foulkes estimate   =    -198.67342679 Ry
     estimated scf accuracy    <       0.00045384 Ry

     iteration #  4     ecut=    35.00 Ry     beta= 0.70
     Davidson diagonalization with overlap
     ethr =  2.84E-06,  avg # of iterations =  2.9

     negative rho (up, down):  8.362E-02 0.000E+00

     total cpu time spent up to now is        4.1 secs

     total energy              =    -198.67353389 Ry
     Harris-Foulkes estimate   =    -198.67353380 Ry
     estimated scf accuracy    <       0.00000444 Ry

     iteration #  5     ecut=    35.00 Ry     beta= 0.70
     Davidson diagonalization with overlap
     ethr =  2.77E-08,  avg # of iterations =  1.2

     negative rho (up, down):  8.363E-02 0.000E+00

     total cpu time spent up to now is        4.8 secs

     End of self-consistent calculation

          k = 0.0000 0.0000 0.0000 (   459 PWs)   bands (ev):

   -36.6904 -36.6904 -36.6904   7.2062  10.5846  10.5846  10.5846  11.5880
    11.5880  29.4417  32.5510  32.5510

          k =-0.0833 0.0833-0.0833 (   477 PWs)   bands (ev):

   -36.7003 -36.6920 -36.6920   7.4033  10.5344  10.6385  10.6385  11.5658
    11.5658  29.3961  31.0218  32.5919

          k =-0.1667 0.1667-0.1667 (   483 PWs)   bands (ev):

   -36.7254 -36.6963 -36.6963   7.9502  10.4525  10.7487  10.7487  11.5564
    11.5564  27.5430  30.1940  32.6132

          k =-0.2500 0.2500-0.2500 (   477 PWs)   bands (ev):

   -36.7597 -36.7015 -36.7015   8.6226  10.6054  10.7759  10.7759  11.6938
    11.6938  24.5891  29.9177  32.3540

          k =-0.3333 0.3333-0.3333 (   468 PWs)   bands (ev):

   -36.7934 -36.7067 -36.7067   8.9475  10.6941  10.6941  11.4877  11.9710
    11.9710  21.6738  29.3385  31.7046

          k =-0.4167 0.4167-0.4167 (   470 PWs)   bands (ev):

   -36.8184 -36.7106 -36.7106   8.9609  10.6043  10.6043  12.2249  12.2249
    12.9624  19.0982  28.8492  31.0431

          k = 0.5000-0.5000 0.5000 (   464 PWs)   bands (ev):

   -36.8274 -36.7119 -36.7119   8.9411  10.5690  10.5690  12.3263  12.3263
    13.9720  17.7368  28.6688  30.7770

          k = 0.0000 0.1667 0.0000 (   487 PWs)   bands (ev):

   -36.7001 -36.6944 -36.6944   7.4693  10.4751  10.6801  10.6801  11.4786
    11.6323  29.5161  31.5992  31.7925

          k =-0.0833 0.2500-0.0833 (   476 PWs)   bands (ev):

   -36.7187 -36.6989 -36.6971   7.9035  10.3595  10.7983  10.8024  11.3971
    11.6780  28.6008  30.0738  31.1290

          k =-0.1667 0.3333-0.1667 (   475 PWs)   bands (ev):

   -36.7494 -36.7046 -36.7016   8.5685  10.3281  10.8204  10.8762  11.5415
    11.8024  25.7148  29.8542  30.5542

          k =-0.2500 0.4167-0.2500 (   468 PWs)   bands (ev):

   -36.7825 -36.7098 -36.7075   9.0295  10.6667  10.7608  10.8297  12.0413
    12.0765  22.7393  29.3786  30.0773

          k =-0.3333 0.5000-0.3333 (   466 PWs)   bands (ev):

   -36.8098 -36.7133 -36.7132   9.0881  10.5571  10.7355  11.4427  12.2626
    13.1184  19.9908  28.8380  29.8306

          k = 0.5833-0.4167 0.5833 (   463 PWs)   bands (ev):

   -36.8237 -36.7172 -36.7141   9.0605  10.4966  10.6696  11.8388  12.3325
    14.4264  17.9622  28.4480  29.8972

          k = 0.5000-0.3333 0.5000 (   459 PWs)   bands (ev):

   -36.8206 -36.7184 -36.7118   9.0726  10.5207  10.6694  11.8471  12.1992
    14.0714  18.4909  28.2692  29.7368

          k = 0.4167-0.2500 0.4167 (   467 PWs)   bands (ev):

   -36.8015 -36.7165 -36.7074   9.1026  10.6093  10.7379  11.3660  11.9046
    12.8569  20.8776  28.3342  30.1953

          k = 0.3333-0.1667 0.3333 (   466 PWs)   bands (ev):

   -36.7716 -36.7116 -36.7017   8.9415  10.5428  10.7998  10.8405  11.5702
    12.1709  23.7266  28.6087  31.1082

          k = 0.2500-0.0833 0.2500 (   475 PWs)   bands (ev):

   -36.7389 -36.7052 -36.6966   8.3417  10.3462  10.8195  10.8497  11.3928
    11.7991  26.7121  28.9769  31.8600

          k = 0.1667-0.0000 0.1667 (   477 PWs)   bands (ev):

   -36.7126 -36.6980 -36.6930   7.7204  10.4396  10.7175  10.7439  11.4565
    11.6358  29.1428  29.6578  31.7624

          k = 0.0000 0.3333 0.0000 (   471 PWs)   bands (ev):

   -36.7242 -36.7041 -36.7041   8.1999  10.1905  10.9646  10.9646  11.2421
    11.7598  29.6985  29.9273  29.9273

          k =-0.0833 0.4167-0.0833 (   471 PWs)   bands (ev):

   -36.7464 -36.7104 -36.7094   8.7510  10.0422  10.9298  11.1148  11.4668
    11.8745  27.0600  29.0074  29.7196

          k =-0.1667 0.5000-0.1667 (   462 PWs)   bands (ev):

   -36.7742 -36.7161 -36.7159   9.2524  10.1003  10.7231  11.1273  12.0920
    12.2179  24.0422  28.3968  29.0023

          k =-0.2500 0.5833-0.2500 (   462 PWs)   bands (ev):

   -36.7992 -36.7242 -36.7194   9.3503  10.3754  10.7276  11.0446  12.2992
    13.4422  21.1710  27.8723  28.1779

          k = 0.6667-0.3333 0.6667 (   458 PWs)   bands (ev):

   -36.8140 -36.7316 -36.7197   9.3384  10.3279  10.9566  11.1027  12.3517
    15.0515  18.6991  26.8271  28.4606

          k = 0.5833-0.2500 0.5833 (   458 PWs)   bands (ev):

   -36.8152 -36.7361 -36.7169   9.3701  10.3278  10.9148  11.2472  12.1949
    15.5574  18.1515  26.0873  29.3094

          k = 0.5000-0.1667 0.5000 (   461 PWs)   bands (ev):

   -36.8030 -36.7360 -36.7117   9.4500  10.4123  10.9432  11.0008  11.8706
    14.1422  20.3811  25.7468  29.9524

          k = 0.4167-0.0833 0.4167 (   465 PWs)   bands (ev):

   -36.7816 -36.7302 -36.7055   9.4565  10.3352  10.6862  11.0404  11.4806
    13.0143  23.1448  25.8028  30.8050

          k = 0.3333 0.0000 0.3333 (   475 PWs)   bands (ev):

   -36.7583 -36.7191 -36.7001   8.9819  10.2011  10.7880  11.0802  11.2348
    12.2676  25.8943  26.3688  32.0726

          k = 0.0000 0.5000 0.0000 (   456 PWs)   bands (ev):

   -36.7566 -36.7171 -36.7171   9.0531   9.8249  11.2921  11.3992  11.3992
    11.9377  27.7847  27.7847  28.8523

          k =-0.0833 0.5833-0.0833 (   460 PWs)   bands (ev):

   -36.7763 -36.7249 -36.7236   9.3276   9.6955  11.1849  11.5289  12.1075
    12.2515  25.4279  26.9541  27.4245

          k =-0.1667 0.6667-0.1667 (   463 PWs)   bands (ev):

   -36.7948 -36.7352 -36.7274   9.4192   9.8000  11.0327  11.4778  12.3214
    13.6437  22.5757  25.9288  26.6071

          k = 0.7500-0.2500 0.7500 (   459 PWs)   bands (ev):

   -36.8050 -36.7470 -36.7277   9.4550  10.0044  10.9316  11.3790  12.3790
    15.4371  19.9452  24.6523  26.8312

          k = 0.6667-0.1667 0.6667 (   458 PWs)   bands (ev):

   -36.8048 -36.7574 -36.7245   9.5731  10.1493  10.8481  11.2936  12.2203
    17.1234  18.1240  23.6668  27.6479

          k = 0.5833-0.0833 0.5833 (   458 PWs)   bands (ev):

   -36.7968 -36.7605 -36.7186   9.7634  10.2647  10.6463  11.2477  11.9036
    15.6213  20.2061  23.0641  28.9802

          k = 0.5000 0.0000 0.5000 (   463 PWs)   bands (ev):

   -36.7890 -36.7500 -36.7117   9.8902  10.2216  10.5176  11.2146  11.5723
    14.1543  22.8655  22.9471  30.6691

          k = 0.0000 0.6667 0.0000 (   472 PWs)   bands (ev):

   -36.7893 -36.7307 -36.7307   9.2524   9.4795  11.9037  11.9037  12.1195
    12.4695  25.6034  25.8925  25.8925

          k =-0.0833 0.7500-0.0833 (   462 PWs)   bands (ev):

   -36.8021 -36.7387 -36.7350   9.2404   9.4054  11.8106  11.9424  12.3211
    13.8260  23.7103  24.2936  25.3462

          k = 0.8333-0.1667 0.8333 (   466 PWs)   bands (ev):

   -36.8071 -36.7517 -36.7358   9.2879   9.5336  11.5205  11.8437  12.4126
    15.6343  21.4253  22.7837  25.4223

          k = 0.7500-0.0833 0.7500 (   465 PWs)   bands (ev):

   -36.8009 -36.7679 -36.7327   9.4220   9.8095  11.1486  11.7140  12.2834
    17.7177  19.2368  21.6665  26.1355

          k = 0.6667-0.0000 0.6667 (   456 PWs)   bands (ev):

   -36.7842 -36.7839 -36.7263   9.6381  10.1397  10.7327  11.5321  12.0520
    17.3021  19.7701  21.2297  27.3821

          k = 0.0000 0.8333 0.0000 (   460 PWs)   bands (ev):

   -36.8125 -36.7403 -36.7403   9.0747   9.2400  12.2574  12.3377  12.3377
    14.4380  22.2990  24.5775  24.5775

          k = 0.9167-0.0833 0.9167 (   460 PWs)   bands (ev):

   -36.8166 -36.7466 -36.7417   9.0767   9.2418  12.2013  12.2055  12.4614
    15.7367  21.0622  23.2955  24.4507

          k = 0.8333 0.0000 0.8333 (   464 PWs)   bands (ev):

   -36.8109 -36.7582 -36.7389   9.2118   9.4409  11.7273  12.0397  12.3917
    17.1183  20.4323  21.4766  25.0056

          k = 0.0000-1.0000 0.0000 (   468 PWs)   bands (ev):

   -36.8213 -36.7440 -36.7440   8.9818   9.1544  12.3084  12.5129  12.5129
    15.7731  20.5258  24.1000  24.1000

          k =-0.1667 0.3333 0.0000 (   473 PWs)   bands (ev):

   -36.7366 -36.7081 -36.6998   8.4140  10.2151  10.8584  10.9681  11.3411
    11.8310  27.8447  28.0775  31.5435

          k =-0.2500 0.4167-0.0833 (   471 PWs)   bands (ev):

   -36.7634 -36.7174 -36.7043   9.0550  10.1834  10.7340  11.0638  11.5251
    12.2335  24.9570  27.4928  30.7501

          k =-0.3333 0.5000-0.1667 (   466 PWs)   bands (ev):

   -36.7910 -36.7243 -36.7101   9.3246  10.5432  10.6066  11.0016  11.9133
    13.0078  22.0288  27.2107  29.5011

          k = 0.5833-0.4167 0.7500 (   462 PWs)   bands (ev):

   -36.8115 -36.7282 -36.7151   9.2983  10.4088  10.8673  11.1951  12.1945
    14.3014  19.3891  27.2399  28.4628

          k = 0.5000-0.3333 0.6667 (   462 PWs)   bands (ev):

   -36.8191 -36.7295 -36.7172   9.2714  10.3569  10.8447  11.3977  12.2821
    15.4271  17.8256  27.5424  27.8049

          k =-0.1667 0.5000 0.0000 (   466 PWs)   bands (ev):

   -36.7647 -36.7218 -36.7131   9.2310   9.8894  10.8244  11.3953  11.6406
    12.2269  26.2032  26.5334  29.1795

          k =-0.2500 0.5833-0.0833 (   464 PWs)   bands (ev):

   -36.7854 -36.7323 -36.7183   9.5352   9.9598  10.6536  11.4224  11.9740
    13.1338  23.4001  25.9773  27.7000

          k = 0.6667-0.3333 0.8333 (   463 PWs)   bands (ev):

   -36.8018 -36.7407 -36.7229   9.5387  10.1779  10.6502  11.3129  12.2352
    14.5800  20.6373  25.9329  26.4196

          k = 0.5833-0.2500 0.7500 (   464 PWs)   bands (ev):

   -36.8090 -36.7472 -36.7240   9.5654  10.1594  10.8572  11.1966  12.2767
    16.3370  18.3314  25.3185  26.4251

          k = 0.5000-0.1667 0.6667 (   465 PWs)   bands (ev):

   -36.8057 -36.7497 -36.7210   9.6467  10.1815  10.8086  11.1821  12.1234
    15.7985  19.0923  24.6343  27.2495

          k = 0.4167-0.0833 0.5833 (   463 PWs)   bands (ev):

   -36.7939 -36.7455 -36.7151   9.7510  10.3092  10.4226  11.2812  11.8139
    14.2282  21.6480  24.3699  28.3436

          k = 0.3333 0.0000 0.5000 (   464 PWs)   bands (ev):

   -36.7786 -36.7337 -36.7089   9.6413  10.0562  10.5404  11.3979  11.4194
    13.0521  24.3067  24.7066  29.5971

          k =-0.1667 0.6667-0.0000 (   464 PWs)   bands (ev):

   -36.7909 -36.7354 -36.7281   9.4207   9.5774  11.2074  11.8999  12.0386
    13.2701  24.6615  24.9587  25.8193

          k = 0.7500-0.2500 0.9167 (   463 PWs)   bands (ev):

   -36.8007 -36.7469 -36.7322   9.4636   9.6771  11.0536  11.8086  12.2681
    14.8107  22.1141  24.2380  24.8513

          k = 0.6667-0.1667 0.8333 (   465 PWs)   bands (ev):

   -36.8017 -36.7603 -36.7326   9.5399   9.8948  10.8741  11.6174  12.3283
    16.7413  19.6613  23.1104  25.1653

          k = 0.5833-0.0833 0.7500 (   461 PWs)   bands (ev):

   -36.7944 -36.7715 -36.7287   9.7206  10.0931  10.6347  11.4797  12.1781
    17.4800  19.0480  22.2272  26.0007

          k = 0.5000 0.0000 0.6667 (   471 PWs)   bands (ev):

   -36.7919 -36.7663 -36.7223   9.9604  10.2473  10.2857  11.4365  11.9215
    15.7093  21.4072  21.8956  27.1240

          k = 0.8333-0.1667 1.0000 (   461 PWs)   bands (ev):

   -36.8093 -36.7454 -36.7396   9.2246   9.3583  11.7267  12.1904  12.3358
    15.1247  22.3117  23.7891  23.8552

          k = 0.7500-0.0833 0.9167 (   464 PWs)   bands (ev):

   -36.8077 -36.7571 -36.7403   9.3167   9.5073  11.4450  11.9696  12.4351
    16.8483  20.9480  21.8621  24.0732

          k = 0.6667 0.0000 0.8333 (   460 PWs)   bands (ev):

   -36.7970 -36.7722 -36.7358   9.4940   9.8137  11.0124  11.7345  12.3342
    18.5356  19.2921  20.9609  24.8657

          k =-0.1667-1.0000-0.0000 (   460 PWs)   bands (ev):

   -36.8160 -36.7490 -36.7439   9.1262   9.2804  11.9995  12.1621  12.5138
    16.5044  20.5270  23.3531  23.4195

          k = 0.6667-0.3333 1.0000 (   467 PWs)   bands (ev):

   -36.7934 -36.7485 -36.7236   9.8503   9.8609  10.4860  11.7325  11.8952
    14.4119  23.0535  23.2176  26.2869

          k = 0.5833-0.2500 0.9167 (   463 PWs)   bands (ev):

   -36.7972 -36.7604 -36.7291   9.8431  10.0198  10.4454  11.5587  12.1747
    16.0589  20.4919  23.2751  25.0886

          k = 0.5000-0.1667 0.8333 (   464 PWs)   bands (ev):

   -36.7983 -36.7648 -36.7316   9.9228   9.9233  10.5452  11.4481  12.2796
    17.8348  18.3744  23.6059  24.4002

          k = 0.6667-0.1667 1.0000 (   471 PWs)   bands (ev):

   -36.8004 -36.7593 -36.7381   9.5913   9.7092  10.8725  11.8400  12.3312
    16.4016  21.9708  22.1339  23.3470

          k = 0.5833-0.0833 0.9167 (   463 PWs)   bands (ev):

   -36.7929 -36.7723 -36.7400   9.6805   9.9533  10.6173  11.6304  12.4253
    18.3222  19.8102  21.7101  23.1004

          k = 0.5000 0.0000 0.8333 (   464 PWs)   bands (ev):

   -36.7871 -36.7780 -36.7363   9.8157  10.2045  10.2791  11.5621  12.3278
    17.8009  20.2896  21.3066  23.9252

          k =-0.3333-1.0000 0.0000 (   462 PWs)   bands (ev):

   -36.8017 -36.7632 -36.7441   9.4756   9.6537  11.0898  11.8037  12.5144
    18.0477  20.5425  21.7276  22.4438

          k =-0.5000-1.0000 0.0000 (   464 PWs)   bands (ev):

   -36.7825 -36.7825 -36.7443   9.7035  10.2680  10.2680  11.5680  12.5143
    19.8654  19.8654  20.5616  22.0478

     the Fermi energy is    12.3455 ev

!    total energy              =    -198.67353407 Ry
     Harris-Foulkes estimate   =    -198.67353405 Ry
     estimated scf accuracy    <       0.00000005 Ry

     The total energy is the sum of the following terms:

     one-electron contribution =     -66.14054034 Ry
     hartree contribution      =      43.58611269 Ry
     xc contribution           =     -31.21479725 Ry
     ewald contribution        =    -144.90428288 Ry
     smearing contrib. (-TS)   =      -0.00002627 Ry

     convergence has been achieved in   5 iterations

     Writing output data file Pd-kp-conv.save/
 
     init_run     :      0.63s CPU      0.69s WALL (       1 calls)
     electrons    :      3.74s CPU      4.33s WALL (       1 calls)

     Called by init_run:
     wfcinit      :      0.28s CPU      0.31s WALL (       1 calls)
     potinit      :      0.00s CPU      0.02s WALL (       1 calls)
     hinit0       :      0.33s CPU      0.33s WALL (       1 calls)

     Called by electrons:
     c_bands      :      3.10s CPU      3.29s WALL (       5 calls)
     sum_band     :      0.58s CPU      0.62s WALL (       5 calls)
     v_of_rho     :      0.02s CPU      0.03s WALL (       6 calls)
     newd         :      0.05s CPU      0.05s WALL (       6 calls)
     mix_rho      :      0.00s CPU      0.00s WALL (       5 calls)

     Called by c_bands:
     init_us_2    :      0.08s CPU      0.09s WALL (     792 calls)
     cegterg      :      2.88s CPU      3.06s WALL (     360 calls)

     Called by sum_band:
     sum_band:bec :      0.00s CPU      0.00s WALL (     360 calls)
     addusdens    :      0.04s CPU      0.04s WALL (       5 calls)

     Called by *egterg:
     h_psi        :      2.54s CPU      2.69s WALL (    1261 calls)
     s_psi        :      0.04s CPU      0.04s WALL (    1261 calls)
     g_psi        :      0.03s CPU      0.03s WALL (     829 calls)
     cdiaghg      :      0.31s CPU      0.33s WALL (    1189 calls)

     Called by h_psi:
     h_psi:pot    :      2.52s CPU      2.68s WALL (    1261 calls)
     h_psi:calbec :      0.05s CPU      0.05s WALL (    1261 calls)
     vloc_psi     :      2.43s CPU      2.58s WALL (    1261 calls)
     add_vuspsi   :      0.04s CPU      0.04s WALL (    1261 calls)

     General routines
     calbec       :      0.06s CPU      0.06s WALL (    1621 calls)
     fft          :      0.01s CPU      0.01s WALL (      67 calls)
     ffts         :      0.00s CPU      0.00s WALL (       5 calls)
     fftw         :      2.48s CPU      2.62s WALL (   28098 calls)
 
     Parallel routines
     fft_scatt_xy :      0.45s CPU      0.48s WALL (   28170 calls)
     fft_scatt_yz :      0.54s CPU      0.58s WALL (   28170 calls)
 
     PWSCF        :     4.48s CPU         5.35s WALL

 
   This run was terminated on:  20:56: 3   2Dec2021            

=------------------------------------------------------------------------------=
   JOB DONE.
=------------------------------------------------------------------------------=
