
     Program PWSCF v.6.3 starts on  2Dec2021 at 22:45:49 

     This program is part of the open-source Quantum ESPRESSO suite
     for quantum simulation of materials; please cite
         "P. Giannozzi et al., J. Phys.:Condens. Matter 21 395502 (2009);
         "P. Giannozzi et al., J. Phys.:Condens. Matter 29 465901 (2017);
          URL http://www.quantum-espresso.org", 
     in publications or presentations arising from this work. More details at
     http://www.quantum-espresso.org/quote

     Parallel version (MPI & OpenMP), running on       2 processor cores
     Number of MPI processes:                 2
     Threads/MPI process:                     1

     MPI processes distributed on     1 nodes
     R & G space division:  proc/nbgrp/npool/nimage =       2
     Reading input from pw-input.in

     Current dimensions of program PWSCF are:
     Max number of different atomic species (ntypx) = 10
     Max number of k-points (npk) =  40000
     Max angular momentum in pseudopotentials (lmaxx) =  3

     Subspace diagonalization in iterative solution of the eigenvalue problem:
     a serial algorithm will be used

 
     Parallelization info
     --------------------
     sticks:   dense  smooth     PW     G-vecs:    dense   smooth      PW
     Min         117     117     36                 1138     1138     205
     Max         118     118     37                 1139     1139     206
     Sum         235     235     73                 2277     2277     411
 

     Title: 
     Pd-kp-conv                                                                 


     bravais-lattice index     =            2
     lattice parameter (alat)  =       6.9000  a.u.
     unit-cell volume          =      82.1273 (a.u.)^3
     number of atoms/cell      =            1
     number of atomic types    =            1
     number of electrons       =        16.00
     number of Kohn-Sham states=           12
     kinetic-energy cutoff     =      35.0000  Ry
     charge density cutoff     =     140.0000  Ry
     convergence threshold     =      1.0E-07
     mixing beta               =       0.7000
     number of iterations used =            8  plain     mixing
     Exchange-correlation      =  SLA  PW   PBX  PBC ( 1  4  3  4 0 0)

     celldm(1)=   6.900000  celldm(2)=   0.000000  celldm(3)=   0.000000
     celldm(4)=   0.000000  celldm(5)=   0.000000  celldm(6)=   0.000000

     crystal axes: (cart. coord. in units of alat)
               a(1) = (  -0.500000   0.000000   0.500000 )  
               a(2) = (   0.000000   0.500000   0.500000 )  
               a(3) = (  -0.500000   0.500000   0.000000 )  

     reciprocal axes: (cart. coord. in units 2 pi/alat)
               b(1) = ( -1.000000 -1.000000  1.000000 )  
               b(2) = (  1.000000  1.000000  1.000000 )  
               b(3) = ( -1.000000  1.000000 -1.000000 )  


     PseudoPot. # 1 for Pd read from file:
     ./pd_pbe_v1.4.uspp.F.UPF
     MD5 check sum: 2d733d2bc2cbfd217af676df1668a4bc
     Pseudo is Ultrasoft + core correction, Zval = 16.0
     Generated by new atomic code, or converted to UPF format
     Using radial grid of  887 points,  6 beta functions with: 
                l(1) =   0
                l(2) =   0
                l(3) =   1
                l(4) =   1
                l(5) =   2
                l(6) =   2
     Q(r) pseudized with  8 coefficients,  rinner =    1.130   1.130   1.130
                                                       1.130   1.130

     atomic species   valence    mass     pseudopotential
        Pd            16.00   106.40000     Pd( 1.00)

     48 Sym. Ops., with inversion, found



   Cartesian axes

     site n.     atom                  positions (alat units)
         1           Pd  tau(   1) = (   0.0000000   0.0000000   0.0000000  )

     number of k points=     4  Marzari-Vanderbilt smearing, width (Ry)=  0.0350
                       cart. coord. in units 2pi/alat
        k(    1) = (   0.0000000   0.0000000   0.0000000), wk =   0.0740741
        k(    2) = (  -0.3333333   0.3333333  -0.3333333), wk =   0.5925926
        k(    3) = (   0.0000000   0.6666667   0.0000000), wk =   0.4444444
        k(    4) = (   0.6666667  -0.0000000   0.6666667), wk =   0.8888889

     Dense  grid:     2277 G-vectors     FFT dimensions: (  20,  20,  20)

     Estimated max dynamical RAM per process >       5.21 MB

     Estimated total dynamical RAM >      10.42 MB

     Initial potential from superposition of free atoms
     Check: negative starting charge=   -0.082546

     starting charge   15.49999, renormalised to   16.00000

     negative rho (up, down):  8.521E-02 0.000E+00
     Starting wfcs are   12 randomized atomic wfcs

     total cpu time spent up to now is        0.4 secs

     Self-consistent Calculation

     iteration #  1     ecut=    35.00 Ry     beta= 0.70
     Davidson diagonalization with overlap
     ethr =  1.00E-02,  avg # of iterations =  4.0

     negative rho (up, down):  8.586E-02 0.000E+00

     total cpu time spent up to now is        0.5 secs

     total energy              =    -198.26922562 Ry
     Harris-Foulkes estimate   =    -198.86224623 Ry
     estimated scf accuracy    <       0.83726406 Ry

     iteration #  2     ecut=    35.00 Ry     beta= 0.70
     Davidson diagonalization with overlap
     ethr =  5.23E-03,  avg # of iterations =  2.0

     negative rho (up, down):  8.695E-02 0.000E+00

     total cpu time spent up to now is        0.6 secs

     total energy              =    -198.44050625 Ry
     Harris-Foulkes estimate   =    -198.73628753 Ry
     estimated scf accuracy    <       0.55785885 Ry

     iteration #  3     ecut=    35.00 Ry     beta= 0.70
     Davidson diagonalization with overlap
     ethr =  3.49E-03,  avg # of iterations =  2.0

     negative rho (up, down):  8.824E-02 0.000E+00

     total cpu time spent up to now is        0.6 secs

     total energy              =    -198.57569662 Ry
     Harris-Foulkes estimate   =    -198.58370027 Ry
     estimated scf accuracy    <       0.01310717 Ry

     iteration #  4     ecut=    35.00 Ry     beta= 0.70
     Davidson diagonalization with overlap
     ethr =  8.19E-05,  avg # of iterations =  2.0

     negative rho (up, down):  8.807E-02 0.000E+00

     total cpu time spent up to now is        0.7 secs

     total energy              =    -198.58100791 Ry
     Harris-Foulkes estimate   =    -198.58385285 Ry
     estimated scf accuracy    <       0.01197028 Ry

     iteration #  5     ecut=    35.00 Ry     beta= 0.70
     Davidson diagonalization with overlap
     ethr =  7.48E-05,  avg # of iterations =  1.0

     negative rho (up, down):  8.792E-02 0.000E+00

     total cpu time spent up to now is        0.7 secs

     total energy              =    -198.58039669 Ry
     Harris-Foulkes estimate   =    -198.58154936 Ry
     estimated scf accuracy    <       0.00271372 Ry

     iteration #  6     ecut=    35.00 Ry     beta= 0.70
     Davidson diagonalization with overlap
     ethr =  1.70E-05,  avg # of iterations =  2.0

     negative rho (up, down):  8.794E-02 0.000E+00

     total cpu time spent up to now is        0.7 secs

     total energy              =    -198.58091205 Ry
     Harris-Foulkes estimate   =    -198.58091829 Ry
     estimated scf accuracy    <       0.00002337 Ry

     iteration #  7     ecut=    35.00 Ry     beta= 0.70
     Davidson diagonalization with overlap
     ethr =  1.46E-07,  avg # of iterations =  2.0

     negative rho (up, down):  8.798E-02 0.000E+00

     total cpu time spent up to now is        0.8 secs

     total energy              =    -198.58091631 Ry
     Harris-Foulkes estimate   =    -198.58091453 Ry
     estimated scf accuracy    <       0.00000316 Ry

     iteration #  8     ecut=    35.00 Ry     beta= 0.70
     Davidson diagonalization with overlap
     ethr =  1.98E-08,  avg # of iterations =  1.2

     negative rho (up, down):  8.800E-02 0.000E+00

     total cpu time spent up to now is        0.8 secs

     total energy              =    -198.58091148 Ry
     Harris-Foulkes estimate   =    -198.58091683 Ry
     estimated scf accuracy    <       0.00001296 Ry

     iteration #  9     ecut=    35.00 Ry     beta= 0.70
     Davidson diagonalization with overlap
     ethr =  1.98E-08,  avg # of iterations =  2.0

     negative rho (up, down):  8.798E-02 0.000E+00

     total cpu time spent up to now is        0.9 secs

     End of self-consistent calculation

          k = 0.0000 0.0000 0.0000 (   283 PWs)   bands (ev):

   -26.1363 -26.1363 -26.1363  15.4407  20.2418  20.2418  20.2418  22.3979
    22.3979  42.3422  48.2802  48.2802

          k =-0.3333 0.3333-0.3333 (   287 PWs)   bands (ev):

   -26.7467 -26.2203 -26.2203  17.3820  20.4205  20.4205  21.7469  23.2246
    23.2246  37.4611  42.8185  50.2852

          k = 0.0000 0.6667 0.0000 (   302 PWs)   bands (ev):

   -26.7159 -26.3593 -26.3593  17.5929  17.8690  23.0828  23.0828  23.4884
    23.5740  41.8923  41.8923  42.1158

          k = 0.6667-0.0000 0.6667 (   284 PWs)   bands (ev):

   -26.6824 -26.6775 -26.3320  18.1858  19.2218  20.5014  22.1629  23.4307
    31.1284  34.6157  37.0431  44.3665

     the Fermi energy is    23.5249 ev

!    total energy              =    -198.58091381 Ry
     Harris-Foulkes estimate   =    -198.58091388 Ry
     estimated scf accuracy    <       0.00000010 Ry

     The total energy is the sum of the following terms:

     one-electron contribution =     -27.20351363 Ry
     hartree contribution      =      30.27319062 Ry
     xc contribution           =     -31.53728604 Ry
     ewald contribution        =    -170.10502774 Ry
     smearing contrib. (-TS)   =      -0.00827702 Ry

     convergence has been achieved in   9 iterations

     Writing output data file Pd-kp-conv.save/
 
     init_run     :      0.32s CPU      0.34s WALL (       1 calls)
     electrons    :      0.39s CPU      0.48s WALL (       1 calls)

     Called by init_run:
     wfcinit      :      0.01s CPU      0.01s WALL (       1 calls)
     potinit      :      0.00s CPU      0.01s WALL (       1 calls)
     hinit0       :      0.30s CPU      0.30s WALL (       1 calls)

     Called by electrons:
     c_bands      :      0.22s CPU      0.24s WALL (       9 calls)
     sum_band     :      0.09s CPU      0.10s WALL (       9 calls)
     v_of_rho     :      0.03s CPU      0.03s WALL (      10 calls)
     newd         :      0.05s CPU      0.05s WALL (      10 calls)
     mix_rho      :      0.00s CPU      0.00s WALL (       9 calls)

     Called by c_bands:
     init_us_2    :      0.01s CPU      0.01s WALL (      76 calls)
     cegterg      :      0.21s CPU      0.22s WALL (      36 calls)

     Called by sum_band:
     sum_band:bec :      0.00s CPU      0.00s WALL (      36 calls)
     addusdens    :      0.05s CPU      0.05s WALL (       9 calls)

     Called by *egterg:
     h_psi        :      0.16s CPU      0.18s WALL (     113 calls)
     s_psi        :      0.00s CPU      0.00s WALL (     113 calls)
     g_psi        :      0.00s CPU      0.00s WALL (      73 calls)
     cdiaghg      :      0.03s CPU      0.03s WALL (     109 calls)

     Called by h_psi:
     h_psi:pot    :      0.16s CPU      0.18s WALL (     113 calls)
     h_psi:calbec :      0.00s CPU      0.01s WALL (     113 calls)
     vloc_psi     :      0.15s CPU      0.17s WALL (     113 calls)
     add_vuspsi   :      0.00s CPU      0.00s WALL (     113 calls)

     General routines
     calbec       :      0.00s CPU      0.01s WALL (     149 calls)
     fft          :      0.01s CPU      0.01s WALL (     111 calls)
     ffts         :      0.00s CPU      0.00s WALL (       9 calls)
     fftw         :      0.16s CPU      0.17s WALL (    2546 calls)
 
     Parallel routines
     fft_scatt_xy :      0.03s CPU      0.04s WALL (    2666 calls)
     fft_scatt_yz :      0.04s CPU      0.05s WALL (    2666 calls)
 
     PWSCF        :     0.79s CPU         1.29s WALL

 
   This run was terminated on:  22:45:50   2Dec2021            

=------------------------------------------------------------------------------=
   JOB DONE.
=------------------------------------------------------------------------------=
