
     Program PWSCF v.6.3 starts on  2Dec2021 at 22:46:21 

     This program is part of the open-source Quantum ESPRESSO suite
     for quantum simulation of materials; please cite
         "P. Giannozzi et al., J. Phys.:Condens. Matter 21 395502 (2009);
         "P. Giannozzi et al., J. Phys.:Condens. Matter 29 465901 (2017);
          URL http://www.quantum-espresso.org", 
     in publications or presentations arising from this work. More details at
     http://www.quantum-espresso.org/quote

     Parallel version (MPI & OpenMP), running on       2 processor cores
     Number of MPI processes:                 2
     Threads/MPI process:                     1

     MPI processes distributed on     1 nodes
     R & G space division:  proc/nbgrp/npool/nimage =       2
     Reading input from pw-input.in

     Current dimensions of program PWSCF are:
     Max number of different atomic species (ntypx) = 10
     Max number of k-points (npk) =  40000
     Max angular momentum in pseudopotentials (lmaxx) =  3

     Subspace diagonalization in iterative solution of the eigenvalue problem:
     a serial algorithm will be used

 
     Parallelization info
     --------------------
     sticks:   dense  smooth     PW     G-vecs:    dense   smooth      PW
     Min         174     174     54                 2055     2055     362
     Max         175     175     55                 2056     2056     363
     Sum         349     349    109                 4111     4111     725
 

     Title: 
     Pd-kp-conv                                                                 


     bravais-lattice index     =            2
     lattice parameter (alat)  =       8.4000  a.u.
     unit-cell volume          =     148.1760 (a.u.)^3
     number of atoms/cell      =            1
     number of atomic types    =            1
     number of electrons       =        16.00
     number of Kohn-Sham states=           12
     kinetic-energy cutoff     =      35.0000  Ry
     charge density cutoff     =     140.0000  Ry
     convergence threshold     =      1.0E-07
     mixing beta               =       0.7000
     number of iterations used =            8  plain     mixing
     Exchange-correlation      =  SLA  PW   PBX  PBC ( 1  4  3  4 0 0)

     celldm(1)=   8.400000  celldm(2)=   0.000000  celldm(3)=   0.000000
     celldm(4)=   0.000000  celldm(5)=   0.000000  celldm(6)=   0.000000

     crystal axes: (cart. coord. in units of alat)
               a(1) = (  -0.500000   0.000000   0.500000 )  
               a(2) = (   0.000000   0.500000   0.500000 )  
               a(3) = (  -0.500000   0.500000   0.000000 )  

     reciprocal axes: (cart. coord. in units 2 pi/alat)
               b(1) = ( -1.000000 -1.000000  1.000000 )  
               b(2) = (  1.000000  1.000000  1.000000 )  
               b(3) = ( -1.000000  1.000000 -1.000000 )  


     PseudoPot. # 1 for Pd read from file:
     ./pd_pbe_v1.4.uspp.F.UPF
     MD5 check sum: 2d733d2bc2cbfd217af676df1668a4bc
     Pseudo is Ultrasoft + core correction, Zval = 16.0
     Generated by new atomic code, or converted to UPF format
     Using radial grid of  887 points,  6 beta functions with: 
                l(1) =   0
                l(2) =   0
                l(3) =   1
                l(4) =   1
                l(5) =   2
                l(6) =   2
     Q(r) pseudized with  8 coefficients,  rinner =    1.130   1.130   1.130
                                                       1.130   1.130

     atomic species   valence    mass     pseudopotential
        Pd            16.00   106.40000     Pd( 1.00)

     48 Sym. Ops., with inversion, found



   Cartesian axes

     site n.     atom                  positions (alat units)
         1           Pd  tau(   1) = (   0.0000000   0.0000000   0.0000000  )

     number of k points=     4  Marzari-Vanderbilt smearing, width (Ry)=  0.0350
                       cart. coord. in units 2pi/alat
        k(    1) = (   0.0000000   0.0000000   0.0000000), wk =   0.0740741
        k(    2) = (  -0.3333333   0.3333333  -0.3333333), wk =   0.5925926
        k(    3) = (   0.0000000   0.6666667   0.0000000), wk =   0.4444444
        k(    4) = (   0.6666667  -0.0000000   0.6666667), wk =   0.8888889

     Dense  grid:     4111 G-vectors     FFT dimensions: (  24,  24,  24)

     Estimated max dynamical RAM per process >       8.77 MB

     Estimated total dynamical RAM >      17.55 MB

     Check: negative/imaginary core charge=   -0.000001    0.000000

     Initial potential from superposition of free atoms
     Check: negative starting charge=   -0.083520

     starting charge   15.49999, renormalised to   16.00000

     negative rho (up, down):  8.621E-02 0.000E+00
     Starting wfcs are   12 randomized atomic wfcs

     total cpu time spent up to now is        0.5 secs

     Self-consistent Calculation

     iteration #  1     ecut=    35.00 Ry     beta= 0.70
     Davidson diagonalization with overlap
     ethr =  1.00E-02,  avg # of iterations =  3.0

     negative rho (up, down):  8.332E-02 0.000E+00

     total cpu time spent up to now is        0.6 secs

     total energy              =    -197.77686810 Ry
     Harris-Foulkes estimate   =    -199.05557584 Ry
     estimated scf accuracy    <       1.72603759 Ry

     iteration #  2     ecut=    35.00 Ry     beta= 0.70
     Davidson diagonalization with overlap
     ethr =  1.00E-02,  avg # of iterations =  2.0

     negative rho (up, down):  8.558E-02 0.000E+00

     total cpu time spent up to now is        0.7 secs

     total energy              =    -198.20412844 Ry
     Harris-Foulkes estimate   =    -199.42314734 Ry
     estimated scf accuracy    <       2.64645322 Ry

     iteration #  3     ecut=    35.00 Ry     beta= 0.70
     Davidson diagonalization with overlap
     ethr =  1.00E-02,  avg # of iterations =  2.0

     negative rho (up, down):  8.574E-02 0.000E+00

     total cpu time spent up to now is        0.7 secs

     total energy              =    -198.61253938 Ry
     Harris-Foulkes estimate   =    -198.61253616 Ry
     estimated scf accuracy    <       0.00012048 Ry

     iteration #  4     ecut=    35.00 Ry     beta= 0.70
     Davidson diagonalization with overlap
     ethr =  7.53E-07,  avg # of iterations =  3.5

     negative rho (up, down):  8.587E-02 0.000E+00

     total cpu time spent up to now is        0.8 secs

     total energy              =    -198.61275425 Ry
     Harris-Foulkes estimate   =    -198.61274974 Ry
     estimated scf accuracy    <       0.00001403 Ry

     iteration #  5     ecut=    35.00 Ry     beta= 0.70
     Davidson diagonalization with overlap
     ethr =  8.77E-08,  avg # of iterations =  2.0

     negative rho (up, down):  8.588E-02 0.000E+00

     total cpu time spent up to now is        0.9 secs

     total energy              =    -198.61275549 Ry
     Harris-Foulkes estimate   =    -198.61275566 Ry
     estimated scf accuracy    <       0.00000068 Ry

     iteration #  6     ecut=    35.00 Ry     beta= 0.70
     Davidson diagonalization with overlap
     ethr =  4.25E-09,  avg # of iterations =  1.8

     negative rho (up, down):  8.587E-02 0.000E+00

     total cpu time spent up to now is        0.9 secs

     End of self-consistent calculation

          k = 0.0000 0.0000 0.0000 (   531 PWs)   bands (ev):

   -38.5740 -38.5740 -38.5740   5.8940   8.8381   8.8381   8.8381   9.6518
     9.6518  27.0941  29.5716  29.5716

          k =-0.3333 0.3333-0.3333 (   516 PWs)   bands (ev):

   -38.6391 -38.5838 -38.5838   7.4825   8.9300   8.9300   9.7599   9.9801
     9.9801  19.0117  26.9043  28.4289

          k = 0.0000 0.6667 0.0000 (   512 PWs)   bands (ev):

   -38.6365 -38.5991 -38.5991   7.7531   7.9330   9.9358   9.9358  10.0937
    10.6341  22.6697  23.1435  23.1435

          k = 0.6667-0.0000 0.6667 (   528 PWs)   bands (ev):

   -38.6338 -38.6335 -38.5969   8.0650   8.5074   8.9950   9.6186  10.0513
    14.9922  17.3457  18.5461  24.4685

     the Fermi energy is    10.2405 ev

!    total energy              =    -198.61275561 Ry
     Harris-Foulkes estimate   =    -198.61275563 Ry
     estimated scf accuracy    <       0.00000003 Ry

     The total energy is the sum of the following terms:

     one-electron contribution =     -74.32750553 Ry
     hartree contribution      =      46.60725910 Ry
     xc contribution           =     -31.16294988 Ry
     ewald contribution        =    -139.72912994 Ry
     smearing contrib. (-TS)   =      -0.00042936 Ry

     convergence has been achieved in   6 iterations

     Writing output data file Pd-kp-conv.save/
 
     init_run     :      0.38s CPU      0.40s WALL (       1 calls)
     electrons    :      0.41s CPU      0.49s WALL (       1 calls)

     Called by init_run:
     wfcinit      :      0.02s CPU      0.02s WALL (       1 calls)
     potinit      :      0.01s CPU      0.02s WALL (       1 calls)
     hinit0       :      0.34s CPU      0.34s WALL (       1 calls)

     Called by electrons:
     c_bands      :      0.23s CPU      0.25s WALL (       6 calls)
     sum_band     :      0.10s CPU      0.10s WALL (       6 calls)
     v_of_rho     :      0.03s CPU      0.03s WALL (       7 calls)
     newd         :      0.06s CPU      0.06s WALL (       7 calls)
     mix_rho      :      0.00s CPU      0.00s WALL (       6 calls)

     Called by c_bands:
     init_us_2    :      0.01s CPU      0.01s WALL (      52 calls)
     cegterg      :      0.22s CPU      0.23s WALL (      24 calls)

     Called by sum_band:
     sum_band:bec :      0.00s CPU      0.00s WALL (      24 calls)
     addusdens    :      0.05s CPU      0.06s WALL (       6 calls)

     Called by *egterg:
     h_psi        :      0.19s CPU      0.20s WALL (      85 calls)
     s_psi        :      0.00s CPU      0.00s WALL (      85 calls)
     g_psi        :      0.00s CPU      0.00s WALL (      57 calls)
     cdiaghg      :      0.02s CPU      0.03s WALL (      81 calls)

     Called by h_psi:
     h_psi:pot    :      0.19s CPU      0.20s WALL (      85 calls)
     h_psi:calbec :      0.00s CPU      0.00s WALL (      85 calls)
     vloc_psi     :      0.18s CPU      0.19s WALL (      85 calls)
     add_vuspsi   :      0.00s CPU      0.00s WALL (      85 calls)

     General routines
     calbec       :      0.00s CPU      0.01s WALL (     109 calls)
     fft          :      0.01s CPU      0.02s WALL (      78 calls)
     ffts         :      0.00s CPU      0.00s WALL (       6 calls)
     fftw         :      0.18s CPU      0.19s WALL (    1844 calls)
 
     Parallel routines
     fft_scatt_xy :      0.04s CPU      0.04s WALL (    1928 calls)
     fft_scatt_yz :      0.04s CPU      0.05s WALL (    1928 calls)
 
     PWSCF        :     0.87s CPU         1.36s WALL

 
   This run was terminated on:  22:46:23   2Dec2021            

=------------------------------------------------------------------------------=
   JOB DONE.
=------------------------------------------------------------------------------=
