
     Program PWSCF v.6.3 starts on  2Dec2021 at 22:46:17 

     This program is part of the open-source Quantum ESPRESSO suite
     for quantum simulation of materials; please cite
         "P. Giannozzi et al., J. Phys.:Condens. Matter 21 395502 (2009);
         "P. Giannozzi et al., J. Phys.:Condens. Matter 29 465901 (2017);
          URL http://www.quantum-espresso.org", 
     in publications or presentations arising from this work. More details at
     http://www.quantum-espresso.org/quote

     Parallel version (MPI & OpenMP), running on       2 processor cores
     Number of MPI processes:                 2
     Threads/MPI process:                     1

     MPI processes distributed on     1 nodes
     R & G space division:  proc/nbgrp/npool/nimage =       2
     Reading input from pw-input.in

     Current dimensions of program PWSCF are:
     Max number of different atomic species (ntypx) = 10
     Max number of k-points (npk) =  40000
     Max angular momentum in pseudopotentials (lmaxx) =  3

     Subspace diagonalization in iterative solution of the eigenvalue problem:
     a serial algorithm will be used

 
     Parallelization info
     --------------------
     sticks:   dense  smooth     PW     G-vecs:    dense   smooth      PW
     Min         156     156     54                 1917     1917     350
     Max         157     157     55                 1922     1922     351
     Sum         313     313    109                 3839     3839     701
 

     Title: 
     Pd-kp-conv                                                                 


     bravais-lattice index     =            2
     lattice parameter (alat)  =       8.2000  a.u.
     unit-cell volume          =     137.8420 (a.u.)^3
     number of atoms/cell      =            1
     number of atomic types    =            1
     number of electrons       =        16.00
     number of Kohn-Sham states=           12
     kinetic-energy cutoff     =      35.0000  Ry
     charge density cutoff     =     140.0000  Ry
     convergence threshold     =      1.0E-07
     mixing beta               =       0.7000
     number of iterations used =            8  plain     mixing
     Exchange-correlation      =  SLA  PW   PBX  PBC ( 1  4  3  4 0 0)

     celldm(1)=   8.200000  celldm(2)=   0.000000  celldm(3)=   0.000000
     celldm(4)=   0.000000  celldm(5)=   0.000000  celldm(6)=   0.000000

     crystal axes: (cart. coord. in units of alat)
               a(1) = (  -0.500000   0.000000   0.500000 )  
               a(2) = (   0.000000   0.500000   0.500000 )  
               a(3) = (  -0.500000   0.500000   0.000000 )  

     reciprocal axes: (cart. coord. in units 2 pi/alat)
               b(1) = ( -1.000000 -1.000000  1.000000 )  
               b(2) = (  1.000000  1.000000  1.000000 )  
               b(3) = ( -1.000000  1.000000 -1.000000 )  


     PseudoPot. # 1 for Pd read from file:
     ./pd_pbe_v1.4.uspp.F.UPF
     MD5 check sum: 2d733d2bc2cbfd217af676df1668a4bc
     Pseudo is Ultrasoft + core correction, Zval = 16.0
     Generated by new atomic code, or converted to UPF format
     Using radial grid of  887 points,  6 beta functions with: 
                l(1) =   0
                l(2) =   0
                l(3) =   1
                l(4) =   1
                l(5) =   2
                l(6) =   2
     Q(r) pseudized with  8 coefficients,  rinner =    1.130   1.130   1.130
                                                       1.130   1.130

     atomic species   valence    mass     pseudopotential
        Pd            16.00   106.40000     Pd( 1.00)

     48 Sym. Ops., with inversion, found



   Cartesian axes

     site n.     atom                  positions (alat units)
         1           Pd  tau(   1) = (   0.0000000   0.0000000   0.0000000  )

     number of k points=     4  Marzari-Vanderbilt smearing, width (Ry)=  0.0350
                       cart. coord. in units 2pi/alat
        k(    1) = (   0.0000000   0.0000000   0.0000000), wk =   0.0740741
        k(    2) = (  -0.3333333   0.3333333  -0.3333333), wk =   0.5925926
        k(    3) = (   0.0000000   0.6666667   0.0000000), wk =   0.4444444
        k(    4) = (   0.6666667  -0.0000000   0.6666667), wk =   0.8888889

     Dense  grid:     3839 G-vectors     FFT dimensions: (  24,  24,  24)

     Estimated max dynamical RAM per process >       8.28 MB

     Estimated total dynamical RAM >      16.57 MB

     Initial potential from superposition of free atoms
     Check: negative starting charge=   -0.082129

     starting charge   15.49999, renormalised to   16.00000

     negative rho (up, down):  8.478E-02 0.000E+00
     Starting wfcs are   12 randomized atomic wfcs

     total cpu time spent up to now is        0.5 secs

     Self-consistent Calculation

     iteration #  1     ecut=    35.00 Ry     beta= 0.70
     Davidson diagonalization with overlap
     ethr =  1.00E-02,  avg # of iterations =  3.0

     negative rho (up, down):  8.207E-02 0.000E+00

     total cpu time spent up to now is        0.6 secs

     total energy              =    -197.85989356 Ry
     Harris-Foulkes estimate   =    -199.05577247 Ry
     estimated scf accuracy    <       1.62100785 Ry

     iteration #  2     ecut=    35.00 Ry     beta= 0.70
     Davidson diagonalization with overlap
     ethr =  1.00E-02,  avg # of iterations =  2.0

     negative rho (up, down):  8.433E-02 0.000E+00

     total cpu time spent up to now is        0.7 secs

     total energy              =    -198.23430579 Ry
     Harris-Foulkes estimate   =    -199.33741827 Ry
     estimated scf accuracy    <       2.37975255 Ry

     iteration #  3     ecut=    35.00 Ry     beta= 0.70
     Davidson diagonalization with overlap
     ethr =  1.00E-02,  avg # of iterations =  2.0

     negative rho (up, down):  8.447E-02 0.000E+00

     total cpu time spent up to now is        0.8 secs

     total energy              =    -198.62493551 Ry
     Harris-Foulkes estimate   =    -198.62575271 Ry
     estimated scf accuracy    <       0.00194099 Ry

     iteration #  4     ecut=    35.00 Ry     beta= 0.70
     Davidson diagonalization with overlap
     ethr =  1.21E-05,  avg # of iterations =  2.8

     negative rho (up, down):  8.464E-02 0.000E+00

     total cpu time spent up to now is        0.8 secs

     total energy              =    -198.62550370 Ry
     Harris-Foulkes estimate   =    -198.62551110 Ry
     estimated scf accuracy    <       0.00003103 Ry

     iteration #  5     ecut=    35.00 Ry     beta= 0.70
     Davidson diagonalization with overlap
     ethr =  1.94E-07,  avg # of iterations =  2.0

     negative rho (up, down):  8.465E-02 0.000E+00

     total cpu time spent up to now is        0.9 secs

     total energy              =    -198.62551022 Ry
     Harris-Foulkes estimate   =    -198.62551235 Ry
     estimated scf accuracy    <       0.00000519 Ry

     iteration #  6     ecut=    35.00 Ry     beta= 0.70
     Davidson diagonalization with overlap
     ethr =  3.24E-08,  avg # of iterations =  2.0

     negative rho (up, down):  8.465E-02 0.000E+00

     total cpu time spent up to now is        1.0 secs

     End of self-consistent calculation

          k = 0.0000 0.0000 0.0000 (   531 PWs)   bands (ev):

   -37.4760 -37.4760 -37.4760   6.7267   9.8865   9.8865   9.8865  10.8052
    10.8052  28.6239  31.5053  31.5053

          k =-0.3333 0.3333-0.3333 (   492 PWs)   bands (ev):

   -37.5636 -37.4893 -37.4893   8.3842   9.9875   9.9875  10.8378  11.1731
    11.1731  20.7013  28.4799  30.5389

          k = 0.0000 0.6667 0.0000 (   480 PWs)   bands (ev):

   -37.5596 -37.5098 -37.5098   8.6648   8.8640  11.1214  11.1214  11.3034
    11.7845  24.5427  24.9093  24.9093

          k = 0.6667-0.0000 0.6667 (   480 PWs)   bands (ev):

   -37.5555 -37.5554 -37.5061   9.0127   9.4949  10.0478  10.7631  11.2558
    16.4510  18.8820  20.2462  26.3372

     the Fermi energy is    11.4314 ev

!    total energy              =    -198.62551121 Ry
     Harris-Foulkes estimate   =    -198.62551126 Ry
     estimated scf accuracy    <       0.00000005 Ry

     The total energy is the sum of the following terms:

     one-electron contribution =     -68.79225448 Ry
     hartree contribution      =      44.48311757 Ry
     xc contribution           =     -31.17870313 Ry
     ewald contribution        =    -143.13715749 Ry
     smearing contrib. (-TS)   =      -0.00051369 Ry

     convergence has been achieved in   6 iterations

     Writing output data file Pd-kp-conv.save/
 
     init_run     :      0.37s CPU      0.40s WALL (       1 calls)
     electrons    :      0.42s CPU      0.51s WALL (       1 calls)

     Called by init_run:
     wfcinit      :      0.02s CPU      0.02s WALL (       1 calls)
     potinit      :      0.01s CPU      0.02s WALL (       1 calls)
     hinit0       :      0.33s CPU      0.33s WALL (       1 calls)

     Called by electrons:
     c_bands      :      0.24s CPU      0.27s WALL (       6 calls)
     sum_band     :      0.10s CPU      0.11s WALL (       6 calls)
     v_of_rho     :      0.04s CPU      0.04s WALL (       7 calls)
     newd         :      0.06s CPU      0.06s WALL (       7 calls)
     mix_rho      :      0.00s CPU      0.00s WALL (       6 calls)

     Called by c_bands:
     init_us_2    :      0.01s CPU      0.01s WALL (      52 calls)
     cegterg      :      0.22s CPU      0.24s WALL (      24 calls)

     Called by sum_band:
     sum_band:bec :      0.00s CPU      0.00s WALL (      24 calls)
     addusdens    :      0.05s CPU      0.06s WALL (       6 calls)

     Called by *egterg:
     h_psi        :      0.19s CPU      0.21s WALL (      83 calls)
     s_psi        :      0.00s CPU      0.00s WALL (      83 calls)
     g_psi        :      0.00s CPU      0.00s WALL (      55 calls)
     cdiaghg      :      0.02s CPU      0.02s WALL (      79 calls)

     Called by h_psi:
     h_psi:pot    :      0.19s CPU      0.21s WALL (      83 calls)
     h_psi:calbec :      0.00s CPU      0.00s WALL (      83 calls)
     vloc_psi     :      0.19s CPU      0.20s WALL (      83 calls)
     add_vuspsi   :      0.00s CPU      0.00s WALL (      83 calls)

     General routines
     calbec       :      0.00s CPU      0.01s WALL (     107 calls)
     fft          :      0.01s CPU      0.02s WALL (      78 calls)
     ffts         :      0.00s CPU      0.00s WALL (       6 calls)
     fftw         :      0.19s CPU      0.20s WALL (    1832 calls)
 
     Parallel routines
     fft_scatt_xy :      0.04s CPU      0.04s WALL (    1916 calls)
     fft_scatt_yz :      0.05s CPU      0.05s WALL (    1916 calls)
 
     PWSCF        :     0.87s CPU         1.37s WALL

 
   This run was terminated on:  22:46:18   2Dec2021            

=------------------------------------------------------------------------------=
   JOB DONE.
=------------------------------------------------------------------------------=
