
     Program PWSCF v.6.3 starts on  2Dec2021 at 20:28:39 

     This program is part of the open-source Quantum ESPRESSO suite
     for quantum simulation of materials; please cite
         "P. Giannozzi et al., J. Phys.:Condens. Matter 21 395502 (2009);
         "P. Giannozzi et al., J. Phys.:Condens. Matter 29 465901 (2017);
          URL http://www.quantum-espresso.org", 
     in publications or presentations arising from this work. More details at
     http://www.quantum-espresso.org/quote

     Parallel version (MPI & OpenMP), running on       2 processor cores
     Number of MPI processes:                 2
     Threads/MPI process:                     1

     MPI processes distributed on     1 nodes
     R & G space division:  proc/nbgrp/npool/nimage =       2
     Reading input from pw-input.in

     Current dimensions of program PWSCF are:
     Max number of different atomic species (ntypx) = 10
     Max number of k-points (npk) =  40000
     Max angular momentum in pseudopotentials (lmaxx) =  3

     Subspace diagonalization in iterative solution of the eigenvalue problem:
     a serial algorithm will be used

 
     Parallelization info
     --------------------
     sticks:   dense  smooth     PW     G-vecs:    dense   smooth      PW
     Min         105     105     36                 1042     1042     205
     Max         106     106     37                 1043     1043     206
     Sum         211     211     73                 2085     2085     411
 

     Title: 
     Pd-kp-conv                                                                 


     bravais-lattice index     =            2
     lattice parameter (alat)  =       6.7000  a.u.
     unit-cell volume          =      75.1908 (a.u.)^3
     number of atoms/cell      =            1
     number of atomic types    =            1
     number of electrons       =        16.00
     number of Kohn-Sham states=           12
     kinetic-energy cutoff     =      35.0000  Ry
     charge density cutoff     =     140.0000  Ry
     convergence threshold     =      1.0E-07
     mixing beta               =       0.7000
     number of iterations used =            8  plain     mixing
     Exchange-correlation      =  SLA  PW   PBX  PBC ( 1  4  3  4 0 0)

     celldm(1)=   6.700000  celldm(2)=   0.000000  celldm(3)=   0.000000
     celldm(4)=   0.000000  celldm(5)=   0.000000  celldm(6)=   0.000000

     crystal axes: (cart. coord. in units of alat)
               a(1) = (  -0.500000   0.000000   0.500000 )  
               a(2) = (   0.000000   0.500000   0.500000 )  
               a(3) = (  -0.500000   0.500000   0.000000 )  

     reciprocal axes: (cart. coord. in units 2 pi/alat)
               b(1) = ( -1.000000 -1.000000  1.000000 )  
               b(2) = (  1.000000  1.000000  1.000000 )  
               b(3) = ( -1.000000  1.000000 -1.000000 )  


     PseudoPot. # 1 for Pd read from file:
     ./pd_pbe_v1.4.uspp.F.UPF
     MD5 check sum: 2d733d2bc2cbfd217af676df1668a4bc
     Pseudo is Ultrasoft + core correction, Zval = 16.0
     Generated by new atomic code, or converted to UPF format
     Using radial grid of  887 points,  6 beta functions with: 
                l(1) =   0
                l(2) =   0
                l(3) =   1
                l(4) =   1
                l(5) =   2
                l(6) =   2
     Q(r) pseudized with  8 coefficients,  rinner =    1.130   1.130   1.130
                                                       1.130   1.130

     atomic species   valence    mass     pseudopotential
        Pd            16.00   106.40000     Pd( 1.00)

     48 Sym. Ops., with inversion, found



   Cartesian axes

     site n.     atom                  positions (alat units)
         1           Pd  tau(   1) = (   0.0000000   0.0000000   0.0000000  )

     number of k points=     8  Marzari-Vanderbilt smearing, width (Ry)=  0.0050
                       cart. coord. in units 2pi/alat
        k(    1) = (   0.0000000   0.0000000   0.0000000), wk =   0.0312500
        k(    2) = (  -0.2500000   0.2500000  -0.2500000), wk =   0.2500000
        k(    3) = (   0.5000000  -0.5000000   0.5000000), wk =   0.1250000
        k(    4) = (   0.0000000   0.5000000   0.0000000), wk =   0.1875000
        k(    5) = (   0.7500000  -0.2500000   0.7500000), wk =   0.7500000
        k(    6) = (   0.5000000   0.0000000   0.5000000), wk =   0.3750000
        k(    7) = (   0.0000000  -1.0000000   0.0000000), wk =   0.0937500
        k(    8) = (  -0.5000000  -1.0000000   0.0000000), wk =   0.1875000

     Dense  grid:     2085 G-vectors     FFT dimensions: (  18,  18,  18)

     Estimated max dynamical RAM per process >       4.87 MB

     Estimated total dynamical RAM >       9.74 MB

     Initial potential from superposition of free atoms
     Check: negative starting charge=   -0.084526

     starting charge   15.49999, renormalised to   16.00000

     negative rho (up, down):  8.725E-02 0.000E+00
     Starting wfcs are   12 randomized atomic wfcs

     total cpu time spent up to now is        0.4 secs

     Self-consistent Calculation

     iteration #  1     ecut=    35.00 Ry     beta= 0.70
     Davidson diagonalization with overlap
     ethr =  1.00E-02,  avg # of iterations =  3.4

     negative rho (up, down):  8.885E-02 0.000E+00

     total cpu time spent up to now is        0.5 secs

     total energy              =    -198.39252155 Ry
     Harris-Foulkes estimate   =    -198.83919536 Ry
     estimated scf accuracy    <       0.63242409 Ry

     iteration #  2     ecut=    35.00 Ry     beta= 0.70
     Davidson diagonalization with overlap
     ethr =  3.95E-03,  avg # of iterations =  2.0

     negative rho (up, down):  8.972E-02 0.000E+00

     total cpu time spent up to now is        0.6 secs

     total energy              =    -198.57126693 Ry
     Harris-Foulkes estimate   =    -198.71380346 Ry
     estimated scf accuracy    <       0.24564563 Ry

     iteration #  3     ecut=    35.00 Ry     beta= 0.70
     Davidson diagonalization with overlap
     ethr =  1.54E-03,  avg # of iterations =  2.0

     negative rho (up, down):  9.014E-02 0.000E+00

     total cpu time spent up to now is        0.7 secs

     total energy              =    -198.62245716 Ry
     Harris-Foulkes estimate   =    -198.62246585 Ry
     estimated scf accuracy    <       0.00013103 Ry

     iteration #  4     ecut=    35.00 Ry     beta= 0.70
     Davidson diagonalization with overlap
     ethr =  8.19E-07,  avg # of iterations =  2.2

     negative rho (up, down):  9.031E-02 0.000E+00

     total cpu time spent up to now is        0.8 secs

     total energy              =    -198.62251214 Ry
     Harris-Foulkes estimate   =    -198.62251363 Ry
     estimated scf accuracy    <       0.00000820 Ry

     iteration #  5     ecut=    35.00 Ry     beta= 0.70
     Davidson diagonalization with overlap
     ethr =  5.12E-08,  avg # of iterations =  1.9

     negative rho (up, down):  9.033E-02 0.000E+00

     total cpu time spent up to now is        0.8 secs

     End of self-consistent calculation

          k = 0.0000 0.0000 0.0000 (   259 PWs)   bands (ev):

   -23.1554 -23.1554 -23.1554  17.5909  22.7625  22.7625  22.7625  25.3296
    25.3296  45.2202  51.7851  51.7851

          k =-0.2500 0.2500-0.2500 (   274 PWs)   bands (ev):

   -23.7217 -23.2313 -23.2313  19.5102  22.7910  23.2011  23.2011  25.5228
    25.5228  44.2311  47.0702  55.1415

          k = 0.5000-0.5000 0.5000 (   266 PWs)   bands (ev):

   -24.2610 -23.3059 -23.3059  19.2512  22.6564  22.6564  27.2477  27.2477
    27.5785  37.2456  44.4835  52.1014

          k = 0.0000 0.5000 0.0000 (   258 PWs)   bands (ev):

   -23.6968 -23.3579 -23.3579  20.0837  20.8139  24.3689  24.7608  24.7608
    26.2213  47.7119  48.8076  48.8077

          k = 0.7500-0.2500 0.7500 (   262 PWs)   bands (ev):

   -24.0725 -23.5973 -23.4326  20.0815  21.2020  23.5469  24.6580  27.3980
    31.8873  38.6793  44.7789  47.3242

          k = 0.5000 0.0000 0.5000 (   264 PWs)   bands (ev):

   -23.9518 -23.6227 -23.3066  21.3627  21.8406  22.4040  24.2015  25.1924
    30.4034  42.4092  43.3099  49.2108

          k = 0.0000-1.0000 0.0000 (   254 PWs)   bands (ev):

   -24.1930 -23.5573 -23.5573  18.8570  19.2872  27.2205  27.7661  27.7661
    30.6531  41.3792  42.3806  42.3806

          k =-0.5000-1.0000 0.0000 (   264 PWs)   bands (ev):

   -23.8805 -23.8805 -23.5712  20.4210  21.9627  21.9627  25.0716  27.7698
    38.1101  38.1101  40.3817  41.4057

     the Fermi energy is    27.4432 ev

!    total energy              =    -198.62251318 Ry
     Harris-Foulkes estimate   =    -198.62251318 Ry
     estimated scf accuracy    <       0.00000003 Ry

     The total energy is the sum of the following terms:

     one-electron contribution =     -20.10063573 Ry
     hartree contribution      =      28.36626114 Ry
     xc contribution           =     -31.70529494 Ry
     ewald contribution        =    -175.18278975 Ry
     smearing contrib. (-TS)   =      -0.00005390 Ry

     convergence has been achieved in   5 iterations

     Writing output data file Pd-kp-conv.save/
 
     init_run     :      0.32s CPU      0.35s WALL (       1 calls)
     electrons    :      0.32s CPU      0.38s WALL (       1 calls)

     Called by init_run:
     wfcinit      :      0.02s CPU      0.02s WALL (       1 calls)
     potinit      :      0.00s CPU      0.01s WALL (       1 calls)
     hinit0       :      0.29s CPU      0.30s WALL (       1 calls)

     Called by electrons:
     c_bands      :      0.23s CPU      0.26s WALL (       5 calls)
     sum_band     :      0.06s CPU      0.07s WALL (       5 calls)
     v_of_rho     :      0.01s CPU      0.01s WALL (       6 calls)
     newd         :      0.02s CPU      0.03s WALL (       6 calls)
     mix_rho      :      0.00s CPU      0.00s WALL (       5 calls)

     Called by c_bands:
     init_us_2    :      0.01s CPU      0.01s WALL (      88 calls)
     cegterg      :      0.21s CPU      0.24s WALL (      40 calls)

     Called by sum_band:
     sum_band:bec :      0.00s CPU      0.00s WALL (      40 calls)
     addusdens    :      0.02s CPU      0.02s WALL (       5 calls)

     Called by *egterg:
     h_psi        :      0.16s CPU      0.19s WALL (     140 calls)
     s_psi        :      0.00s CPU      0.00s WALL (     140 calls)
     g_psi        :      0.00s CPU      0.00s WALL (      92 calls)
     cdiaghg      :      0.04s CPU      0.04s WALL (     132 calls)

     Called by h_psi:
     h_psi:pot    :      0.16s CPU      0.19s WALL (     140 calls)
     h_psi:calbec :      0.00s CPU      0.01s WALL (     140 calls)
     vloc_psi     :      0.15s CPU      0.18s WALL (     140 calls)
     add_vuspsi   :      0.00s CPU      0.00s WALL (     140 calls)

     General routines
     calbec       :      0.01s CPU      0.01s WALL (     180 calls)
     fft          :      0.01s CPU      0.01s WALL (      67 calls)
     ffts         :      0.00s CPU      0.00s WALL (       5 calls)
     fftw         :      0.16s CPU      0.18s WALL (    3010 calls)
 
     Parallel routines
     fft_scatt_xy :      0.03s CPU      0.03s WALL (    3082 calls)
     fft_scatt_yz :      0.04s CPU      0.05s WALL (    3082 calls)
 
     PWSCF        :     0.73s CPU         0.90s WALL

 
   This run was terminated on:  20:28:40   2Dec2021            

=------------------------------------------------------------------------------=
   JOB DONE.
=------------------------------------------------------------------------------=
