
     Program PWSCF v.6.3 starts on  2Dec2021 at 20:28:57 

     This program is part of the open-source Quantum ESPRESSO suite
     for quantum simulation of materials; please cite
         "P. Giannozzi et al., J. Phys.:Condens. Matter 21 395502 (2009);
         "P. Giannozzi et al., J. Phys.:Condens. Matter 29 465901 (2017);
          URL http://www.quantum-espresso.org", 
     in publications or presentations arising from this work. More details at
     http://www.quantum-espresso.org/quote

     Parallel version (MPI & OpenMP), running on       2 processor cores
     Number of MPI processes:                 2
     Threads/MPI process:                     1

     MPI processes distributed on     1 nodes
     R & G space division:  proc/nbgrp/npool/nimage =       2
     Reading input from pw-input.in

     Current dimensions of program PWSCF are:
     Max number of different atomic species (ntypx) = 10
     Max number of k-points (npk) =  40000
     Max angular momentum in pseudopotentials (lmaxx) =  3

     Subspace diagonalization in iterative solution of the eigenvalue problem:
     a serial algorithm will be used

 
     Parallelization info
     --------------------
     sticks:   dense  smooth     PW     G-vecs:    dense   smooth      PW
     Min         141     141     45                 1559     1559     304
     Max         142     142     46                 1560     1560     305
     Sum         283     283     91                 3119     3119     609
 

     Title: 
     Pd-kp-conv                                                                 


     bravais-lattice index     =            2
     lattice parameter (alat)  =       7.6000  a.u.
     unit-cell volume          =     109.7440 (a.u.)^3
     number of atoms/cell      =            1
     number of atomic types    =            1
     number of electrons       =        16.00
     number of Kohn-Sham states=           12
     kinetic-energy cutoff     =      35.0000  Ry
     charge density cutoff     =     140.0000  Ry
     convergence threshold     =      1.0E-07
     mixing beta               =       0.7000
     number of iterations used =            8  plain     mixing
     Exchange-correlation      =  SLA  PW   PBX  PBC ( 1  4  3  4 0 0)

     celldm(1)=   7.600000  celldm(2)=   0.000000  celldm(3)=   0.000000
     celldm(4)=   0.000000  celldm(5)=   0.000000  celldm(6)=   0.000000

     crystal axes: (cart. coord. in units of alat)
               a(1) = (  -0.500000   0.000000   0.500000 )  
               a(2) = (   0.000000   0.500000   0.500000 )  
               a(3) = (  -0.500000   0.500000   0.000000 )  

     reciprocal axes: (cart. coord. in units 2 pi/alat)
               b(1) = ( -1.000000 -1.000000  1.000000 )  
               b(2) = (  1.000000  1.000000  1.000000 )  
               b(3) = ( -1.000000  1.000000 -1.000000 )  


     PseudoPot. # 1 for Pd read from file:
     ./pd_pbe_v1.4.uspp.F.UPF
     MD5 check sum: 2d733d2bc2cbfd217af676df1668a4bc
     Pseudo is Ultrasoft + core correction, Zval = 16.0
     Generated by new atomic code, or converted to UPF format
     Using radial grid of  887 points,  6 beta functions with: 
                l(1) =   0
                l(2) =   0
                l(3) =   1
                l(4) =   1
                l(5) =   2
                l(6) =   2
     Q(r) pseudized with  8 coefficients,  rinner =    1.130   1.130   1.130
                                                       1.130   1.130

     atomic species   valence    mass     pseudopotential
        Pd            16.00   106.40000     Pd( 1.00)

     48 Sym. Ops., with inversion, found



   Cartesian axes

     site n.     atom                  positions (alat units)
         1           Pd  tau(   1) = (   0.0000000   0.0000000   0.0000000  )

     number of k points=     8  Marzari-Vanderbilt smearing, width (Ry)=  0.0050
                       cart. coord. in units 2pi/alat
        k(    1) = (   0.0000000   0.0000000   0.0000000), wk =   0.0312500
        k(    2) = (  -0.2500000   0.2500000  -0.2500000), wk =   0.2500000
        k(    3) = (   0.5000000  -0.5000000   0.5000000), wk =   0.1250000
        k(    4) = (   0.0000000   0.5000000   0.0000000), wk =   0.1875000
        k(    5) = (   0.7500000  -0.2500000   0.7500000), wk =   0.7500000
        k(    6) = (   0.5000000   0.0000000   0.5000000), wk =   0.3750000
        k(    7) = (   0.0000000  -1.0000000   0.0000000), wk =   0.0937500
        k(    8) = (  -0.5000000  -1.0000000   0.0000000), wk =   0.1875000

     Dense  grid:     3119 G-vectors     FFT dimensions: (  24,  24,  24)

     Estimated max dynamical RAM per process >       7.09 MB

     Estimated total dynamical RAM >      14.18 MB

     Initial potential from superposition of free atoms
     Check: negative starting charge=   -0.079189

     starting charge   15.49999, renormalised to   16.00000

     negative rho (up, down):  8.174E-02 0.000E+00
     Starting wfcs are   12 randomized atomic wfcs

     total cpu time spent up to now is        0.5 secs

     Self-consistent Calculation

     iteration #  1     ecut=    35.00 Ry     beta= 0.70
     Davidson diagonalization with overlap
     ethr =  1.00E-02,  avg # of iterations =  3.5

     negative rho (up, down):  8.053E-02 0.000E+00

     total cpu time spent up to now is        0.7 secs

     total energy              =    -198.12062956 Ry
     Harris-Foulkes estimate   =    -199.05104956 Ry
     estimated scf accuracy    <       1.27901631 Ry

     iteration #  2     ecut=    35.00 Ry     beta= 0.70
     Davidson diagonalization with overlap
     ethr =  7.99E-03,  avg # of iterations =  2.0

     negative rho (up, down):  8.188E-02 0.000E+00

     total cpu time spent up to now is        0.8 secs

     total energy              =    -198.45060842 Ry
     Harris-Foulkes estimate   =    -199.09045458 Ry
     estimated scf accuracy    <       1.28322245 Ry

     iteration #  3     ecut=    35.00 Ry     beta= 0.70
     Davidson diagonalization with overlap
     ethr =  7.99E-03,  avg # of iterations =  2.0

     negative rho (up, down):  8.189E-02 0.000E+00

     total cpu time spent up to now is        0.9 secs

     total energy              =    -198.70958276 Ry
     Harris-Foulkes estimate   =    -198.70958335 Ry
     estimated scf accuracy    <       0.00006991 Ry

     iteration #  4     ecut=    35.00 Ry     beta= 0.70
     Davidson diagonalization with overlap
     ethr =  4.37E-07,  avg # of iterations =  3.4

     negative rho (up, down):  8.198E-02 0.000E+00

     total cpu time spent up to now is        1.0 secs

     total energy              =    -198.70990626 Ry
     Harris-Foulkes estimate   =    -198.70990555 Ry
     estimated scf accuracy    <       0.00000708 Ry

     iteration #  5     ecut=    35.00 Ry     beta= 0.70
     Davidson diagonalization with overlap
     ethr =  4.42E-08,  avg # of iterations =  1.2

     negative rho (up, down):  8.200E-02 0.000E+00

     total cpu time spent up to now is        1.1 secs

     total energy              =    -198.70990678 Ry
     Harris-Foulkes estimate   =    -198.70990676 Ry
     estimated scf accuracy    <       0.00000012 Ry

     iteration #  6     ecut=    35.00 Ry     beta= 0.70
     Davidson diagonalization with overlap
     ethr =  7.35E-10,  avg # of iterations =  1.9

     negative rho (up, down):  8.200E-02 0.000E+00

     total cpu time spent up to now is        1.2 secs

     End of self-consistent calculation

          k = 0.0000 0.0000 0.0000 (   387 PWs)   bands (ev):

   -33.0160 -33.0160 -33.0160   9.9292  13.9742  13.9742  13.9742  15.3675
    15.3675  34.0290  38.2388  38.2388

          k =-0.2500 0.2500-0.2500 (   380 PWs)   bands (ev):

   -33.1605 -33.0371 -33.0371  11.5375  13.9469  14.2340  14.2340  15.5015
    15.5015  30.1785  34.7851  38.9303

          k = 0.5000-0.5000 0.5000 (   392 PWs)   bands (ev):

   -33.3026 -33.0581 -33.0581  11.8023  13.9467  13.9467  16.3872  16.3872
    17.5807  22.9768  33.2585  36.9168

          k = 0.0000 0.5000 0.0000 (   375 PWs)   bands (ev):

   -33.1546 -33.0701 -33.0701  12.0216  12.9208  14.8706  15.0826  15.0826
    15.8526  33.6631  33.6631  34.2479

          k = 0.7500-0.2500 0.7500 (   390 PWs)   bands (ev):

   -33.2547 -33.1327 -33.0913  12.4340  13.1331  14.3940  15.0518  16.4627
    19.8467  25.0401  30.2908  32.5352

          k = 0.5000 0.0000 0.5000 (   379 PWs)   bands (ev):

   -33.2216 -33.1384 -33.0580  13.0367  13.4498  13.8102  14.8228  15.3250
    18.5124  28.3085  28.4437  35.7124

          k = 0.0000-1.0000 0.0000 (   388 PWs)   bands (ev):

   -33.2877 -33.1245 -33.1245  11.7828  12.0235  16.3720  16.6479  16.6479
    19.7238  26.2025  29.1956  29.1956

          k =-0.5000-1.0000 0.0000 (   380 PWs)   bands (ev):

   -33.2062 -33.2062 -33.1262  12.7224  13.5092  13.5092  15.3063  16.6512
    24.7764  24.7764  26.0345  27.3172

     the Fermi energy is    16.5049 ev

!    total energy              =    -198.70990680 Ry
     Harris-Foulkes estimate   =    -198.70990680 Ry
     estimated scf accuracy    <          1.5E-09 Ry

     The total energy is the sum of the following terms:

     one-electron contribution =     -51.19650375 Ry
     hartree contribution      =      38.24184747 Ry
     xc contribution           =     -31.31789010 Ry
     ewald contribution        =    -154.43745938 Ry
     smearing contrib. (-TS)   =       0.00009896 Ry

     convergence has been achieved in   6 iterations

     Writing output data file Pd-kp-conv.save/
 
     init_run     :      0.37s CPU      0.40s WALL (       1 calls)
     electrons    :      0.62s CPU      1.00s WALL (       1 calls)

     Called by init_run:
     wfcinit      :      0.03s CPU      0.04s WALL (       1 calls)
     potinit      :      0.01s CPU      0.02s WALL (       1 calls)
     hinit0       :      0.32s CPU      0.32s WALL (       1 calls)

     Called by electrons:
     c_bands      :      0.43s CPU      0.45s WALL (       6 calls)
     sum_band     :      0.12s CPU      0.13s WALL (       6 calls)
     v_of_rho     :      0.03s CPU      0.03s WALL (       7 calls)
     newd         :      0.05s CPU      0.05s WALL (       7 calls)
     mix_rho      :      0.00s CPU      0.00s WALL (       6 calls)

     Called by c_bands:
     init_us_2    :      0.01s CPU      0.01s WALL (     104 calls)
     cegterg      :      0.40s CPU      0.42s WALL (      48 calls)

     Called by sum_band:
     sum_band:bec :      0.00s CPU      0.00s WALL (      48 calls)
     addusdens    :      0.04s CPU      0.04s WALL (       6 calls)

     Called by *egterg:
     h_psi        :      0.34s CPU      0.36s WALL (     168 calls)
     s_psi        :      0.00s CPU      0.00s WALL (     168 calls)
     g_psi        :      0.00s CPU      0.00s WALL (     112 calls)
     cdiaghg      :      0.05s CPU      0.05s WALL (     160 calls)

     Called by h_psi:
     h_psi:pot    :      0.34s CPU      0.36s WALL (     168 calls)
     h_psi:calbec :      0.01s CPU      0.01s WALL (     168 calls)
     vloc_psi     :      0.33s CPU      0.35s WALL (     168 calls)
     add_vuspsi   :      0.00s CPU      0.01s WALL (     168 calls)

     General routines
     calbec       :      0.01s CPU      0.01s WALL (     216 calls)
     fft          :      0.01s CPU      0.01s WALL (      78 calls)
     ffts         :      0.00s CPU      0.00s WALL (       6 calls)
     fftw         :      0.33s CPU      0.35s WALL (    3604 calls)
 
     Parallel routines
     fft_scatt_xy :      0.06s CPU      0.07s WALL (    3688 calls)
     fft_scatt_yz :      0.07s CPU      0.08s WALL (    3688 calls)
 
     PWSCF        :     1.09s CPU         1.57s WALL

 
   This run was terminated on:  20:28:59   2Dec2021            

=------------------------------------------------------------------------------=
   JOB DONE.
=------------------------------------------------------------------------------=
