
     Program PWSCF v.6.3 starts on  2Dec2021 at 20:28:51 

     This program is part of the open-source Quantum ESPRESSO suite
     for quantum simulation of materials; please cite
         "P. Giannozzi et al., J. Phys.:Condens. Matter 21 395502 (2009);
         "P. Giannozzi et al., J. Phys.:Condens. Matter 29 465901 (2017);
          URL http://www.quantum-espresso.org", 
     in publications or presentations arising from this work. More details at
     http://www.quantum-espresso.org/quote

     Parallel version (MPI & OpenMP), running on       2 processor cores
     Number of MPI processes:                 2
     Threads/MPI process:                     1

     MPI processes distributed on     1 nodes
     R & G space division:  proc/nbgrp/npool/nimage =       2
     Reading input from pw-input.in

     Current dimensions of program PWSCF are:
     Max number of different atomic species (ntypx) = 10
     Max number of k-points (npk) =  40000
     Max angular momentum in pseudopotentials (lmaxx) =  3

     Subspace diagonalization in iterative solution of the eigenvalue problem:
     a serial algorithm will be used

 
     Parallelization info
     --------------------
     sticks:   dense  smooth     PW     G-vecs:    dense   smooth      PW
     Min         126     126     42                 1365     1365     264
     Max         127     127     43                 1368     1368     267
     Sum         253     253     85                 2733     2733     531
 

     Title: 
     Pd-kp-conv                                                                 


     bravais-lattice index     =            2
     lattice parameter (alat)  =       7.3000  a.u.
     unit-cell volume          =      97.2542 (a.u.)^3
     number of atoms/cell      =            1
     number of atomic types    =            1
     number of electrons       =        16.00
     number of Kohn-Sham states=           12
     kinetic-energy cutoff     =      35.0000  Ry
     charge density cutoff     =     140.0000  Ry
     convergence threshold     =      1.0E-07
     mixing beta               =       0.7000
     number of iterations used =            8  plain     mixing
     Exchange-correlation      =  SLA  PW   PBX  PBC ( 1  4  3  4 0 0)

     celldm(1)=   7.300000  celldm(2)=   0.000000  celldm(3)=   0.000000
     celldm(4)=   0.000000  celldm(5)=   0.000000  celldm(6)=   0.000000

     crystal axes: (cart. coord. in units of alat)
               a(1) = (  -0.500000   0.000000   0.500000 )  
               a(2) = (   0.000000   0.500000   0.500000 )  
               a(3) = (  -0.500000   0.500000   0.000000 )  

     reciprocal axes: (cart. coord. in units 2 pi/alat)
               b(1) = ( -1.000000 -1.000000  1.000000 )  
               b(2) = (  1.000000  1.000000  1.000000 )  
               b(3) = ( -1.000000  1.000000 -1.000000 )  


     PseudoPot. # 1 for Pd read from file:
     ./pd_pbe_v1.4.uspp.F.UPF
     MD5 check sum: 2d733d2bc2cbfd217af676df1668a4bc
     Pseudo is Ultrasoft + core correction, Zval = 16.0
     Generated by new atomic code, or converted to UPF format
     Using radial grid of  887 points,  6 beta functions with: 
                l(1) =   0
                l(2) =   0
                l(3) =   1
                l(4) =   1
                l(5) =   2
                l(6) =   2
     Q(r) pseudized with  8 coefficients,  rinner =    1.130   1.130   1.130
                                                       1.130   1.130

     atomic species   valence    mass     pseudopotential
        Pd            16.00   106.40000     Pd( 1.00)

     48 Sym. Ops., with inversion, found



   Cartesian axes

     site n.     atom                  positions (alat units)
         1           Pd  tau(   1) = (   0.0000000   0.0000000   0.0000000  )

     number of k points=     8  Marzari-Vanderbilt smearing, width (Ry)=  0.0050
                       cart. coord. in units 2pi/alat
        k(    1) = (   0.0000000   0.0000000   0.0000000), wk =   0.0312500
        k(    2) = (  -0.2500000   0.2500000  -0.2500000), wk =   0.2500000
        k(    3) = (   0.5000000  -0.5000000   0.5000000), wk =   0.1250000
        k(    4) = (   0.0000000   0.5000000   0.0000000), wk =   0.1875000
        k(    5) = (   0.7500000  -0.2500000   0.7500000), wk =   0.7500000
        k(    6) = (   0.5000000   0.0000000   0.5000000), wk =   0.3750000
        k(    7) = (   0.0000000  -1.0000000   0.0000000), wk =   0.0937500
        k(    8) = (  -0.5000000  -1.0000000   0.0000000), wk =   0.1875000

     Dense  grid:     2733 G-vectors     FFT dimensions: (  20,  20,  20)

     Estimated max dynamical RAM per process >       6.17 MB

     Estimated total dynamical RAM >      12.34 MB

     Initial potential from superposition of free atoms
     Check: negative starting charge=   -0.084718

     starting charge   15.49999, renormalised to   16.00000

     negative rho (up, down):  8.745E-02 0.000E+00
     Starting wfcs are   12 randomized atomic wfcs

     total cpu time spent up to now is        0.5 secs

     Self-consistent Calculation

     iteration #  1     ecut=    35.00 Ry     beta= 0.70
     Davidson diagonalization with overlap
     ethr =  1.00E-02,  avg # of iterations =  3.4

     negative rho (up, down):  8.696E-02 0.000E+00

     total cpu time spent up to now is        0.6 secs

     total energy              =    -198.25442635 Ry
     Harris-Foulkes estimate   =    -199.01421353 Ry
     estimated scf accuracy    <       1.05286160 Ry

     iteration #  2     ecut=    35.00 Ry     beta= 0.70
     Davidson diagonalization with overlap
     ethr =  6.58E-03,  avg # of iterations =  2.0

     negative rho (up, down):  8.829E-02 0.000E+00

     total cpu time spent up to now is        0.7 secs

     total energy              =    -198.56499287 Ry
     Harris-Foulkes estimate   =    -198.95980253 Ry
     estimated scf accuracy    <       0.74218667 Ry

     iteration #  3     ecut=    35.00 Ry     beta= 0.70
     Davidson diagonalization with overlap
     ethr =  4.64E-03,  avg # of iterations =  2.1

     negative rho (up, down):  8.843E-02 0.000E+00

     total cpu time spent up to now is        0.7 secs

     total energy              =    -198.70936118 Ry
     Harris-Foulkes estimate   =    -198.70948586 Ry
     estimated scf accuracy    <       0.00027198 Ry

     iteration #  4     ecut=    35.00 Ry     beta= 0.70
     Davidson diagonalization with overlap
     ethr =  1.70E-06,  avg # of iterations =  2.6

     negative rho (up, down):  8.856E-02 0.000E+00

     total cpu time spent up to now is        0.8 secs

     total energy              =    -198.70958145 Ry
     Harris-Foulkes estimate   =    -198.70958082 Ry
     estimated scf accuracy    <       0.00000538 Ry

     iteration #  5     ecut=    35.00 Ry     beta= 0.70
     Davidson diagonalization with overlap
     ethr =  3.37E-08,  avg # of iterations =  2.0

     negative rho (up, down):  8.857E-02 0.000E+00

     total cpu time spent up to now is        0.9 secs

     End of self-consistent calculation

          k = 0.0000 0.0000 0.0000 (   331 PWs)   bands (ev):

   -30.2855 -30.2855 -30.2855  12.0026  16.4534  16.4534  16.4534  18.1497
    18.1497  37.2782  42.2016  42.2016

          k =-0.2500 0.2500-0.2500 (   344 PWs)   bands (ev):

   -30.5122 -30.3176 -30.3176  13.7295  16.4080  16.7611  16.7611  18.3043
    18.3043  34.2404  38.2603  43.6373

          k = 0.5000-0.5000 0.5000 (   344 PWs)   bands (ev):

   -30.7336 -30.3496 -30.3496  13.8963  16.4079  16.4079  19.4037  19.4037
    20.3059  26.9069  36.5094  41.3008

          k = 0.0000 0.5000 0.0000 (   343 PWs)   bands (ev):

   -30.5030 -30.3696 -30.3696  14.2434  15.1634  17.5098  17.7931  17.7931
    18.7401  37.9500  37.9500  38.1046

          k = 0.7500-0.2500 0.7500 (   346 PWs)   bands (ev):

   -30.6582 -30.4664 -30.4015  14.5987  15.4086  16.9458  17.7472  19.4966
    23.1582  28.8323  34.4049  36.7055

          k = 0.5000 0.0000 0.5000 (   339 PWs)   bands (ev):

   -30.6075 -30.4760 -30.3496  15.3614  15.8094  16.2137  17.4611  18.0908
    21.7831  32.2908  32.5529  39.5941

          k = 0.0000-1.0000 0.0000 (   342 PWs)   bands (ev):

   -30.7093 -30.4529 -30.4529  13.7974  14.0945  19.3826  19.7280  19.7280
    22.7060  30.4184  32.9158  32.9158

          k =-0.5000-1.0000 0.0000 (   328 PWs)   bands (ev):

   -30.5813 -30.5813 -30.4554  14.9035  15.8837  15.8837  18.0494  19.7337
    28.4577  28.4577  30.0606  31.2323

     the Fermi energy is    19.5401 ev

!    total energy              =    -198.70958208 Ry
     Harris-Foulkes estimate   =    -198.70958209 Ry
     estimated scf accuracy    <       0.00000009 Ry

     The total energy is the sum of the following terms:

     one-electron contribution =     -41.47626099 Ry
     hartree contribution      =      34.96101463 Ry
     xc contribution           =     -31.41017332 Ry
     ewald contribution        =    -160.78420429 Ry
     smearing contrib. (-TS)   =       0.00004189 Ry

     convergence has been achieved in   5 iterations

     Writing output data file Pd-kp-conv.save/
 
     init_run     :      0.35s CPU      0.37s WALL (       1 calls)
     electrons    :      0.40s CPU      0.47s WALL (       1 calls)

     Called by init_run:
     wfcinit      :      0.02s CPU      0.03s WALL (       1 calls)
     potinit      :      0.00s CPU      0.01s WALL (       1 calls)
     hinit0       :      0.31s CPU      0.32s WALL (       1 calls)

     Called by electrons:
     c_bands      :      0.28s CPU      0.30s WALL (       5 calls)
     sum_band     :      0.08s CPU      0.08s WALL (       5 calls)
     v_of_rho     :      0.02s CPU      0.02s WALL (       6 calls)
     newd         :      0.03s CPU      0.03s WALL (       6 calls)
     mix_rho      :      0.00s CPU      0.00s WALL (       5 calls)

     Called by c_bands:
     init_us_2    :      0.01s CPU      0.01s WALL (      88 calls)
     cegterg      :      0.26s CPU      0.28s WALL (      40 calls)

     Called by sum_band:
     sum_band:bec :      0.00s CPU      0.00s WALL (      40 calls)
     addusdens    :      0.03s CPU      0.03s WALL (       5 calls)

     Called by *egterg:
     h_psi        :      0.21s CPU      0.22s WALL (     145 calls)
     s_psi        :      0.00s CPU      0.00s WALL (     145 calls)
     g_psi        :      0.00s CPU      0.00s WALL (      97 calls)
     cdiaghg      :      0.04s CPU      0.04s WALL (     137 calls)

     Called by h_psi:
     h_psi:pot    :      0.21s CPU      0.22s WALL (     145 calls)
     h_psi:calbec :      0.01s CPU      0.01s WALL (     145 calls)
     vloc_psi     :      0.19s CPU      0.21s WALL (     145 calls)
     add_vuspsi   :      0.00s CPU      0.00s WALL (     145 calls)

     General routines
     calbec       :      0.01s CPU      0.01s WALL (     185 calls)
     fft          :      0.01s CPU      0.01s WALL (      67 calls)
     ffts         :      0.00s CPU      0.00s WALL (       5 calls)
     fftw         :      0.20s CPU      0.21s WALL (    3132 calls)
 
     Parallel routines
     fft_scatt_xy :      0.04s CPU      0.04s WALL (    3204 calls)
     fft_scatt_yz :      0.05s CPU      0.06s WALL (    3204 calls)
 
     PWSCF        :     0.84s CPU         1.07s WALL

 
   This run was terminated on:  20:28:52   2Dec2021            

=------------------------------------------------------------------------------=
   JOB DONE.
=------------------------------------------------------------------------------=
