
     Program PWSCF v.6.3 starts on  2Dec2021 at 22:25:24 

     This program is part of the open-source Quantum ESPRESSO suite
     for quantum simulation of materials; please cite
         "P. Giannozzi et al., J. Phys.:Condens. Matter 21 395502 (2009);
         "P. Giannozzi et al., J. Phys.:Condens. Matter 29 465901 (2017);
          URL http://www.quantum-espresso.org", 
     in publications or presentations arising from this work. More details at
     http://www.quantum-espresso.org/quote

     Parallel version (MPI & OpenMP), running on       2 processor cores
     Number of MPI processes:                 2
     Threads/MPI process:                     1

     MPI processes distributed on     1 nodes
     R & G space division:  proc/nbgrp/npool/nimage =       2
     Reading input from pw-input.in

     Current dimensions of program PWSCF are:
     Max number of different atomic species (ntypx) = 10
     Max number of k-points (npk) =  40000
     Max angular momentum in pseudopotentials (lmaxx) =  3

     Subspace diagonalization in iterative solution of the eigenvalue problem:
     a serial algorithm will be used

 
     Parallelization info
     --------------------
     sticks:   dense  smooth     PW     G-vecs:    dense   smooth      PW
     Min          99      99     36                  957      957     205
     Max         100     100     37                  960      960     206
     Sum         199     199     73                 1917     1917     411
 

     Title: 
     Pd-kp-conv                                                                 


     bravais-lattice index     =            2
     lattice parameter (alat)  =       6.5000  a.u.
     unit-cell volume          =      68.6562 (a.u.)^3
     number of atoms/cell      =            1
     number of atomic types    =            1
     number of electrons       =        16.00
     number of Kohn-Sham states=           12
     kinetic-energy cutoff     =      35.0000  Ry
     charge density cutoff     =     140.0000  Ry
     convergence threshold     =      1.0E-07
     mixing beta               =       0.7000
     number of iterations used =            8  plain     mixing
     Exchange-correlation      =  SLA  PW   PBX  PBC ( 1  4  3  4 0 0)

     celldm(1)=   6.500000  celldm(2)=   0.000000  celldm(3)=   0.000000
     celldm(4)=   0.000000  celldm(5)=   0.000000  celldm(6)=   0.000000

     crystal axes: (cart. coord. in units of alat)
               a(1) = (  -0.500000   0.000000   0.500000 )  
               a(2) = (   0.000000   0.500000   0.500000 )  
               a(3) = (  -0.500000   0.500000   0.000000 )  

     reciprocal axes: (cart. coord. in units 2 pi/alat)
               b(1) = ( -1.000000 -1.000000  1.000000 )  
               b(2) = (  1.000000  1.000000  1.000000 )  
               b(3) = ( -1.000000  1.000000 -1.000000 )  


     PseudoPot. # 1 for Pd read from file:
     ./pd_pbe_v1.4.uspp.F.UPF
     MD5 check sum: 2d733d2bc2cbfd217af676df1668a4bc
     Pseudo is Ultrasoft + core correction, Zval = 16.0
     Generated by new atomic code, or converted to UPF format
     Using radial grid of  887 points,  6 beta functions with: 
                l(1) =   0
                l(2) =   0
                l(3) =   1
                l(4) =   1
                l(5) =   2
                l(6) =   2
     Q(r) pseudized with  8 coefficients,  rinner =    1.130   1.130   1.130
                                                       1.130   1.130

     atomic species   valence    mass     pseudopotential
        Pd            16.00   106.40000     Pd( 1.00)

     48 Sym. Ops., with inversion, found



   Cartesian axes

     site n.     atom                  positions (alat units)
         1           Pd  tau(   1) = (   0.0000000   0.0000000   0.0000000  )

     number of k points=    72  Marzari-Vanderbilt smearing, width (Ry)=  0.0300
                       cart. coord. in units 2pi/alat
        k(    1) = (   0.0000000   0.0000000   0.0000000), wk =   0.0011574
        k(    2) = (  -0.0833333   0.0833333  -0.0833333), wk =   0.0092593
        k(    3) = (  -0.1666667   0.1666667  -0.1666667), wk =   0.0092593
        k(    4) = (  -0.2500000   0.2500000  -0.2500000), wk =   0.0092593
        k(    5) = (  -0.3333333   0.3333333  -0.3333333), wk =   0.0092593
        k(    6) = (  -0.4166667   0.4166667  -0.4166667), wk =   0.0092593
        k(    7) = (   0.5000000  -0.5000000   0.5000000), wk =   0.0046296
        k(    8) = (   0.0000000   0.1666667   0.0000000), wk =   0.0069444
        k(    9) = (  -0.0833333   0.2500000  -0.0833333), wk =   0.0277778
        k(   10) = (  -0.1666667   0.3333333  -0.1666667), wk =   0.0277778
        k(   11) = (  -0.2500000   0.4166667  -0.2500000), wk =   0.0277778
        k(   12) = (  -0.3333333   0.5000000  -0.3333333), wk =   0.0277778
        k(   13) = (   0.5833333  -0.4166667   0.5833333), wk =   0.0277778
        k(   14) = (   0.5000000  -0.3333333   0.5000000), wk =   0.0277778
        k(   15) = (   0.4166667  -0.2500000   0.4166667), wk =   0.0277778
        k(   16) = (   0.3333333  -0.1666667   0.3333333), wk =   0.0277778
        k(   17) = (   0.2500000  -0.0833333   0.2500000), wk =   0.0277778
        k(   18) = (   0.1666667  -0.0000000   0.1666667), wk =   0.0138889
        k(   19) = (   0.0000000   0.3333333   0.0000000), wk =   0.0069444
        k(   20) = (  -0.0833333   0.4166667  -0.0833333), wk =   0.0277778
        k(   21) = (  -0.1666667   0.5000000  -0.1666667), wk =   0.0277778
        k(   22) = (  -0.2500000   0.5833333  -0.2500000), wk =   0.0277778
        k(   23) = (   0.6666667  -0.3333333   0.6666667), wk =   0.0277778
        k(   24) = (   0.5833333  -0.2500000   0.5833333), wk =   0.0277778
        k(   25) = (   0.5000000  -0.1666667   0.5000000), wk =   0.0277778
        k(   26) = (   0.4166667  -0.0833333   0.4166667), wk =   0.0277778
        k(   27) = (   0.3333333   0.0000000   0.3333333), wk =   0.0138889
        k(   28) = (   0.0000000   0.5000000   0.0000000), wk =   0.0069444
        k(   29) = (  -0.0833333   0.5833333  -0.0833333), wk =   0.0277778
        k(   30) = (  -0.1666667   0.6666667  -0.1666667), wk =   0.0277778
        k(   31) = (   0.7500000  -0.2500000   0.7500000), wk =   0.0277778
        k(   32) = (   0.6666667  -0.1666667   0.6666667), wk =   0.0277778
        k(   33) = (   0.5833333  -0.0833333   0.5833333), wk =   0.0277778
        k(   34) = (   0.5000000   0.0000000   0.5000000), wk =   0.0138889
        k(   35) = (   0.0000000   0.6666667   0.0000000), wk =   0.0069444
        k(   36) = (  -0.0833333   0.7500000  -0.0833333), wk =   0.0277778
        k(   37) = (   0.8333333  -0.1666667   0.8333333), wk =   0.0277778
        k(   38) = (   0.7500000  -0.0833333   0.7500000), wk =   0.0277778
        k(   39) = (   0.6666667  -0.0000000   0.6666667), wk =   0.0138889
        k(   40) = (   0.0000000   0.8333333   0.0000000), wk =   0.0069444
        k(   41) = (   0.9166667  -0.0833333   0.9166667), wk =   0.0277778
        k(   42) = (   0.8333333   0.0000000   0.8333333), wk =   0.0138889
        k(   43) = (   0.0000000  -1.0000000   0.0000000), wk =   0.0034722
        k(   44) = (  -0.1666667   0.3333333   0.0000000), wk =   0.0277778
        k(   45) = (  -0.2500000   0.4166667  -0.0833333), wk =   0.0555556
        k(   46) = (  -0.3333333   0.5000000  -0.1666667), wk =   0.0555556
        k(   47) = (   0.5833333  -0.4166667   0.7500000), wk =   0.0555556
        k(   48) = (   0.5000000  -0.3333333   0.6666667), wk =   0.0277778
        k(   49) = (  -0.1666667   0.5000000   0.0000000), wk =   0.0277778
        k(   50) = (  -0.2500000   0.5833333  -0.0833333), wk =   0.0555556
        k(   51) = (   0.6666667  -0.3333333   0.8333333), wk =   0.0555556
        k(   52) = (   0.5833333  -0.2500000   0.7500000), wk =   0.0555556
        k(   53) = (   0.5000000  -0.1666667   0.6666667), wk =   0.0555556
        k(   54) = (   0.4166667  -0.0833333   0.5833333), wk =   0.0555556
        k(   55) = (   0.3333333   0.0000000   0.5000000), wk =   0.0277778
        k(   56) = (  -0.1666667   0.6666667  -0.0000000), wk =   0.0277778
        k(   57) = (   0.7500000  -0.2500000   0.9166667), wk =   0.0555556
        k(   58) = (   0.6666667  -0.1666667   0.8333333), wk =   0.0555556
        k(   59) = (   0.5833333  -0.0833333   0.7500000), wk =   0.0555556
        k(   60) = (   0.5000000   0.0000000   0.6666667), wk =   0.0277778
        k(   61) = (   0.8333333  -0.1666667   1.0000000), wk =   0.0277778
        k(   62) = (   0.7500000  -0.0833333   0.9166667), wk =   0.0555556
        k(   63) = (   0.6666667   0.0000000   0.8333333), wk =   0.0277778
        k(   64) = (  -0.1666667  -1.0000000  -0.0000000), wk =   0.0138889
        k(   65) = (   0.6666667  -0.3333333   1.0000000), wk =   0.0277778
        k(   66) = (   0.5833333  -0.2500000   0.9166667), wk =   0.0555556
        k(   67) = (   0.5000000  -0.1666667   0.8333333), wk =   0.0277778
        k(   68) = (   0.6666667  -0.1666667   1.0000000), wk =   0.0277778
        k(   69) = (   0.5833333  -0.0833333   0.9166667), wk =   0.0555556
        k(   70) = (   0.5000000   0.0000000   0.8333333), wk =   0.0277778
        k(   71) = (  -0.3333333  -1.0000000   0.0000000), wk =   0.0138889
        k(   72) = (  -0.5000000  -1.0000000   0.0000000), wk =   0.0069444

     Dense  grid:     1917 G-vectors     FFT dimensions: (  18,  18,  18)

     Estimated max dynamical RAM per process >       5.95 MB

     Estimated total dynamical RAM >      11.90 MB

     Initial potential from superposition of free atoms
     Check: negative starting charge=   -0.084237

     starting charge   15.49999, renormalised to   16.00000

     negative rho (up, down):  8.695E-02 0.000E+00
     Starting wfcs are   12 randomized atomic wfcs

     total cpu time spent up to now is        0.6 secs

     Self-consistent Calculation

     iteration #  1     ecut=    35.00 Ry     beta= 0.70
     Davidson diagonalization with overlap
     ethr =  1.00E-02,  avg # of iterations =  3.5

     negative rho (up, down):  8.927E-02 0.000E+00

     total cpu time spent up to now is        1.2 secs

     total energy              =    -198.34718480 Ry
     Harris-Foulkes estimate   =    -198.72005758 Ry
     estimated scf accuracy    <       0.53427563 Ry

     iteration #  2     ecut=    35.00 Ry     beta= 0.70
     Davidson diagonalization with overlap
     ethr =  3.34E-03,  avg # of iterations =  2.0

     negative rho (up, down):  9.021E-02 0.000E+00

     total cpu time spent up to now is        1.6 secs

     total energy              =    -198.49773245 Ry
     Harris-Foulkes estimate   =    -198.59910829 Ry
     estimated scf accuracy    <       0.17049784 Ry

     iteration #  3     ecut=    35.00 Ry     beta= 0.70
     Davidson diagonalization with overlap
     ethr =  1.07E-03,  avg # of iterations =  2.0

     negative rho (up, down):  9.105E-02 0.000E+00

     total cpu time spent up to now is        2.0 secs

     total energy              =    -198.53705059 Ry
     Harris-Foulkes estimate   =    -198.53733944 Ry
     estimated scf accuracy    <       0.00075528 Ry

     iteration #  4     ecut=    35.00 Ry     beta= 0.70
     Davidson diagonalization with overlap
     ethr =  4.72E-06,  avg # of iterations =  2.1

     negative rho (up, down):  9.117E-02 0.000E+00

     total cpu time spent up to now is        2.5 secs

     total energy              =    -198.53718897 Ry
     Harris-Foulkes estimate   =    -198.53719543 Ry
     estimated scf accuracy    <       0.00001109 Ry

     iteration #  5     ecut=    35.00 Ry     beta= 0.70
     Davidson diagonalization with overlap
     ethr =  6.93E-08,  avg # of iterations =  2.0

     negative rho (up, down):  9.119E-02 0.000E+00

     total cpu time spent up to now is        2.9 secs

     total energy              =    -198.53719185 Ry
     Harris-Foulkes estimate   =    -198.53719191 Ry
     estimated scf accuracy    <       0.00000014 Ry

     iteration #  6     ecut=    35.00 Ry     beta= 0.70
     Davidson diagonalization with overlap
     ethr =  8.63E-10,  avg # of iterations =  2.0

     negative rho (up, down):  9.119E-02 0.000E+00

     total cpu time spent up to now is        3.4 secs

     End of self-consistent calculation

          k = 0.0000 0.0000 0.0000 (   259 PWs)   bands (ev):

   -20.3461 -20.3461 -20.3461  20.0221  25.2425  25.2425  25.2425  28.1708
    28.1708  48.4000  55.5984  55.5984

          k =-0.0833 0.0833-0.0833 (   256 PWs)   bands (ev):

   -20.4508 -20.3595 -20.3595  20.3799  25.0834  25.3902  25.3902  28.0861
    28.0861  48.9551  53.6926  56.1381

          k =-0.1667 0.1667-0.1667 (   250 PWs)   bands (ev):

   -20.7330 -20.3959 -20.3959  21.2709  24.8523  25.6874  25.6874  28.0105
    28.0105  50.2182  50.7919  57.6292

          k =-0.2500 0.2500-0.2500 (   244 PWs)   bands (ev):

   -21.1085 -20.4454 -20.4454  21.9224  25.4280  25.7352  25.7352  28.3882
    28.3882  48.0502  50.8191  59.6536

          k =-0.3333 0.3333-0.3333 (   238 PWs)   bands (ev):

   -21.4731 -20.4942 -20.4942  21.8053  25.4779  25.4779  27.3188  29.2350
    29.2350  45.4091  49.5962  59.3843

          k =-0.4167 0.4167-0.4167 (   241 PWs)   bands (ev):

   -21.7337 -20.5303 -20.5303  21.5209  25.2116  25.2116  29.5664  30.0552
    30.0552  42.8356  48.1947  57.2430

          k = 0.5000-0.5000 0.5000 (   242 PWs)   bands (ev):

   -21.8278 -20.5434 -20.5434  21.4023  25.1079  25.1079  30.3938  30.3938
    30.7090  41.5503  47.6929  56.4279

          k = 0.0000 0.1667 0.0000 (   258 PWs)   bands (ev):

   -20.4483 -20.3827 -20.3827  20.5005  24.8990  25.5127  25.5127  27.7983
    28.3017  49.1550  54.0425  55.7292

          k =-0.0833 0.2500-0.0833 (   249 PWs)   bands (ev):

   -20.6579 -20.4273 -20.4080  21.2381  24.5476  25.8264  25.8463  27.5065
    28.4148  50.2573  51.8689  56.2170

          k =-0.1667 0.3333-0.1667 (   240 PWs)   bands (ev):

   -20.9950 -20.4814 -20.4502  22.0811  24.5661  25.8196  26.0353  27.9045
    28.7564  49.2187  51.2302  57.1096

          k =-0.2500 0.4167-0.2500 (   240 PWs)   bands (ev):

   -21.3543 -20.5306 -20.5079  22.1432  25.3958  25.7506  25.8743  29.2448
    29.4783  46.5257  50.4593  57.1543

          k =-0.3333 0.5000-0.3333 (   239 PWs)   bands (ev):

   -21.6412 -20.5652 -20.5615  21.8524  25.0217  25.5841  27.3433  30.1884
    31.0866  43.6940  48.9946  56.1701

          k = 0.5833-0.4167 0.5833 (   242 PWs)   bands (ev):

   -21.7858 -20.6065 -20.5663  21.6768  24.8516  25.3846  28.4028  30.4160
    32.6566  41.6209  48.2397  55.6813

          k = 0.5000-0.3333 0.5000 (   241 PWs)   bands (ev):

   -21.7546 -20.6204 -20.5437  21.7300  24.9287  25.3767  28.3575  29.9604
    32.4754  42.1408  48.3809  55.1682

          k = 0.4167-0.2500 0.4167 (   244 PWs)   bands (ev):

   -21.5555 -20.6030 -20.4997  21.9902  25.2059  25.5731  27.1122  29.0110
    31.1032  44.6694  49.3955  55.9278

          k = 0.3333-0.1667 0.3333 (   243 PWs)   bands (ev):

   -21.2367 -20.5573 -20.4455  22.2574  25.2401  25.7659  25.8842  27.9863
    29.7410  47.4308  50.8251  57.2646

          k = 0.2500-0.0833 0.2500 (   241 PWs)   bands (ev):

   -20.8805 -20.4930 -20.3957  21.8765  24.5492  25.8659  25.9515  27.4741
    28.7382  49.9570  50.9559  56.4477

          k = 0.1667-0.0000 0.1667 (   249 PWs)   bands (ev):

   -20.5902 -20.4208 -20.3643  20.9352  24.7875  25.5981  25.6867  27.7141
    28.2842  49.7801  52.2491  55.8156

          k = 0.0000 0.3333 0.0000 (   246 PWs)   bands (ev):

   -20.7201 -20.4819 -20.4819  21.7072  24.0416  26.3018  26.3018  27.0110
    28.6695  51.1539  52.4352  55.4111

          k =-0.0833 0.4167-0.0833 (   239 PWs)   bands (ev):

   -20.9613 -20.5442 -20.5353  22.4181  23.6453  26.1271  26.7167  27.6893
    29.0020  50.7348  52.2558  54.9474

          k =-0.1667 0.5000-0.1667 (   237 PWs)   bands (ev):

   -21.2625 -20.6038 -20.5980  22.5877  24.0115  25.5817  26.7249  29.5465
    29.6580  48.0393  51.6643  54.4233

          k =-0.2500 0.5833-0.2500 (   236 PWs)   bands (ev):

   -21.5241 -20.6885 -20.6287  22.3523  24.4414  25.7350  26.4572  30.3169
    31.9774  44.8291  50.1959  53.9308

          k = 0.6667-0.3333 0.6667 (   241 PWs)   bands (ev):

   -21.6787 -20.7677 -20.6289  22.2525  24.2998  26.1812  26.5688  30.4774
    34.4350  41.9435  49.2645  54.1459

          k = 0.5833-0.2500 0.5833 (   242 PWs)   bands (ev):

   -21.6916 -20.8170 -20.5980  22.3625  24.3103  26.0479  26.8944  29.9418
    35.1498  41.5329  48.9944  53.2072

          k = 0.5000-0.1667 0.5000 (   244 PWs)   bands (ev):

   -21.5655 -20.8174 -20.5446  22.6638  24.5763  26.1210  26.2723  28.9000
    33.6260  44.0871  49.3373  53.0632

          k = 0.4167-0.0833 0.4167 (   244 PWs)   bands (ev):

   -21.3415 -20.7580 -20.4822  23.0690  24.6597  25.3752  26.4061  27.7159
    31.7591  47.0641  50.2544  54.2894

          k = 0.3333 0.0000 0.3333 (   236 PWs)   bands (ev):

   -21.0907 -20.6394 -20.4273  22.8790  24.1158  25.6973  26.5952  26.9617
    30.0365  48.9923  51.3138  55.9866

          k = 0.0000 0.5000 0.0000 (   234 PWs)   bands (ev):

   -21.0749 -20.6160 -20.6160  22.5119  23.0174  27.1867  27.5305  27.5305
    29.1977  51.5822  53.2326  53.2327

          k =-0.0833 0.5833-0.0833 (   237 PWs)   bands (ev):

   -21.2820 -20.6937 -20.6779  22.4373  22.7468  26.9236  27.8957  29.5570
    29.7168  49.6145  51.7824  51.9609

          k =-0.1667 0.6667-0.1667 (   237 PWs)   bands (ev):

   -21.4711 -20.8043 -20.7133  22.2266  23.0459  26.5229  27.7174  30.3945
    32.3798  46.1969  50.2816  51.3186

          k = 0.7500-0.2500 0.7500 (   238 PWs)   bands (ev):

   -21.5747 -20.9368 -20.7135  22.2469  23.5105  26.2300  27.3938  30.5692
    35.5249  42.7573  48.9483  51.6836

          k = 0.6667-0.1667 0.6667 (   239 PWs)   bands (ev):

   -21.5712 -21.0512 -20.6782  22.5621  23.9226  25.9556  27.1199  30.0253
    37.6643  41.0622  47.8385  53.2574

          k = 0.5833-0.0833 0.5833 (   240 PWs)   bands (ev):

   -21.4924 -21.0851 -20.6166  23.1335  24.2585  25.4042  26.9668  29.0097
    36.1195  43.7313  47.1537  53.0403

          k = 0.5000 0.0000 0.5000 (   238 PWs)   bands (ev):

   -21.4151 -20.9713 -20.5446  23.7657  24.2497  24.9431  26.8599  28.0115
    33.9612  46.5255  47.7900  53.1014

          k = 0.0000 0.6667 0.0000 (   238 PWs)   bands (ev):

   -21.4122 -20.7490 -20.7490  21.9281  22.1161  29.0211  29.0211  29.4848
    29.7581  50.0281  50.0281  50.2912

          k =-0.0833 0.7500-0.0833 (   236 PWs)   bands (ev):

   -21.5426 -20.8338 -20.7926  21.6566  21.9614  28.5793  29.1348  30.3881
    32.2892  47.3978  48.9485  49.0398

          k = 0.8333-0.1667 0.8333 (   237 PWs)   bands (ev):

   -21.5895 -20.9778 -20.7973  21.6575  22.3369  27.7702  28.8020  30.6786
    35.6371  44.1076  47.5110  49.1089

          k = 0.7500-0.0833 0.7500 (   237 PWs)   bands (ev):

   -21.5196 -21.1622 -20.7622  21.9633  23.1057  26.7730  28.3706  30.2352
    39.1024  41.1977  46.0800  50.6087

          k = 0.6667-0.0000 0.6667 (   236 PWs)   bands (ev):

   -21.3493 -21.3374 -20.6964  22.5434  24.0244  25.6637  27.7948  29.4863
    38.4623  42.6439  45.2491  53.0553

          k = 0.0000 0.8333 0.0000 (   242 PWs)   bands (ev):

   -21.6487 -20.8455 -20.8455  21.1502  21.5169  30.1900  30.3965  30.3965
    32.4705  47.3527  47.3527  47.5876

          k = 0.9167-0.0833 0.9167 (   236 PWs)   bands (ev):

   -21.6867 -20.9154 -20.8581  21.0886  21.5501  29.7833  29.9733  30.8306
    34.8549  45.5453  46.3623  47.0816

          k = 0.8333 0.0000 0.8333 (   236 PWs)   bands (ev):

   -21.6243 -21.0481 -20.8281  21.3968  22.1177  28.3354  29.4125  30.5924
    37.5543  43.1849  45.6388  48.3166

          k = 0.0000-1.0000 0.0000 (   230 PWs)   bands (ev):

   -21.7328 -20.8802 -20.8802  20.8455  21.3096  30.3552  31.0010  31.0010
    34.0675  45.8964  46.2849  46.2849

          k =-0.1667 0.3333 0.0000 (   238 PWs)   bands (ev):

   -20.8554 -20.5242 -20.4317  22.0455  24.1244  25.9452  26.2985  27.3233
    28.8531  50.7014  51.3247  55.5291

          k =-0.2500 0.4167-0.0833 (   239 PWs)   bands (ev):

   -21.1459 -20.6199 -20.4742  22.7261  24.1968  25.5108  26.5438  27.8372
    29.9280  48.6810  51.4923  55.6759

          k =-0.3333 0.5000-0.1667 (   241 PWs)   bands (ev):

   -21.4409 -20.6898 -20.5303  22.5301  24.9491  25.3736  26.3396  28.9772
    31.5441  45.9097  50.2979  54.3139

          k = 0.5833-0.4167 0.7500 (   242 PWs)   bands (ev):

   -21.6553 -20.7297 -20.5795  22.2505  24.5417  25.9306  26.7699  29.9150
    33.4509  42.8968  49.2668  53.6020

          k = 0.5000-0.3333 0.6667 (   240 PWs)   bands (ev):

   -21.7332 -20.7417 -20.5993  22.1451  24.3942  25.8647  27.2682  30.2365
    34.6117  41.2948  48.9130  53.5925

          k =-0.1667 0.5000 0.0000 (   237 PWs)   bands (ev):

   -21.1588 -20.6644 -20.5690  22.8831  23.2233  25.8688  27.5129  28.1489
    29.9047  49.8076  51.8761  54.0512

          k =-0.2500 0.5833-0.0833 (   240 PWs)   bands (ev):

   -21.3763 -20.7749 -20.6198  22.7700  23.5793  25.4702  27.5551  29.1667
    31.7806  47.3634  50.5454  52.3342

          k = 0.6667-0.3333 0.8333 (   242 PWs)   bands (ev):

   -21.5452 -20.8666 -20.6650  22.6219  23.9074  25.5025  27.2072  30.0521
    34.2439  43.9897  49.7593  51.3844

          k = 0.5833-0.2500 0.7500 (   243 PWs)   bands (ev):

   -21.6194 -20.9370 -20.6739  22.7131  23.8390  25.9512  26.8518  30.2064
    36.6062  41.3171  49.1222  51.4088

          k = 0.5000-0.1667 0.6667 (   242 PWs)   bands (ev):

   -21.5855 -20.9650 -20.6411  22.9931  23.8746  25.8116  26.7995  29.6986
    36.1090  42.3055  48.6920  51.6926

          k = 0.4167-0.0833 0.5833 (   239 PWs)   bands (ev):

   -21.4663 -20.9218 -20.5818  23.3372  24.2596  24.8806  27.0867  28.7121
    33.9703  45.4666  48.7808  52.2806

          k = 0.3333 0.0000 0.5000 (   239 PWs)   bands (ev):

   -21.3082 -20.7952 -20.5189  23.7258  23.7409  24.8979  27.4187  27.5675
    31.8360  47.8890  50.0336  53.6877

          k =-0.1667 0.6667-0.0000 (   233 PWs)   bands (ev):

   -21.4301 -20.8027 -20.7226  22.3046  22.4093  26.9644  29.0085  29.3436
    31.7885  48.4819  49.3910  50.6277

          k = 0.7500-0.2500 0.9167 (   239 PWs)   bands (ev):

   -21.5272 -20.9288 -20.7644  22.1869  22.7048  26.5390  28.6701  30.1674
    34.5551  45.3899  48.7162  49.1269

          k = 0.6667-0.1667 0.8333 (   238 PWs)   bands (ev):

   -21.5327 -21.0780 -20.7663  22.3268  23.2941  26.0469  28.0735  30.3769
    37.7170  42.1347  47.6174  49.4702

          k = 0.5833-0.0833 0.7500 (   238 PWs)   bands (ev):

   -21.4555 -21.2035 -20.7242  22.7642  23.9016  25.3911  27.6404  29.8822
    38.6713  41.8595  46.3137  50.8090

          k = 0.5000 0.0000 0.6667 (   240 PWs)   bands (ev):

   -21.4351 -21.1450 -20.6547  23.4290  24.3970  24.4454  27.5048  29.0746
    36.3644  45.2908  45.5945  51.7664

          k = 0.8333-0.1667 1.0000 (   238 PWs)   bands (ev):

   -21.6138 -20.9034 -20.8413  21.5049  21.8597  28.3589  29.8761  30.3924
    34.5067  46.5860  46.8885  47.5593

          k = 0.7500-0.0833 0.9167 (   236 PWs)   bands (ev):

   -21.5922 -21.0354 -20.8478  21.6742  22.2945  27.5604  29.1632  30.7330
    37.4193  43.8494  46.1537  47.4031

          k = 0.6667 0.0000 0.8333 (   236 PWs)   bands (ev):

   -21.4761 -21.2085 -20.8014  22.1100  23.1475  26.3989  28.4055  30.3939
    40.2827  41.1825  45.3116  49.0466

          k =-0.1667-1.0000-0.0000 (   236 PWs)   bands (ev):

   -21.6779 -20.9400 -20.8857  21.1937  21.6672  29.1382  29.8259  31.0014
    36.1281  45.4982  45.8605  46.0622

          k = 0.6667-0.3333 1.0000 (   237 PWs)   bands (ev):

   -21.4539 -20.9488 -20.6744  23.2394  23.2663  25.0706  28.3898  28.9929
    34.2135  46.6795  47.6780  50.8046

          k = 0.5833-0.2500 0.9167 (   239 PWs)   bands (ev):

   -21.4896 -21.0787 -20.7331  23.1424  23.6082  24.9538  27.8793  29.8637
    36.8251  43.6696  47.3866  49.5851

          k = 0.5000-0.1667 0.8333 (   238 PWs)   bands (ev):

   -21.4973 -21.1276 -20.7583  23.1538  23.5969  25.1421  27.5477  30.2075
    38.9653  41.1650  48.2528  48.4345

          k = 0.6667-0.1667 1.0000 (   237 PWs)   bands (ev):

   -21.5161 -21.0599 -20.8280  22.3770  22.8592  26.0394  28.7272  30.3814
    37.1966  45.4312  45.5355  47.6371

          k = 0.5833-0.0833 0.9167 (   239 PWs)   bands (ev):

   -21.4325 -21.2062 -20.8518  22.5591  23.5513  25.3465  28.0621  30.6973
    40.1121  42.2999  45.9724  46.7918

          k = 0.5000 0.0000 0.8333 (   241 PWs)   bands (ev):

   -21.3734 -21.2702 -20.8099  22.8792  24.2968  24.4281  27.8583  30.3698
    39.4231  43.0939  45.1404  48.2258

          k =-0.3333-1.0000 0.0000 (   244 PWs)   bands (ev):

   -21.5266 -21.1007 -20.8962  22.0441  22.7198  26.5986  28.6047  31.0040
    39.2141  44.4776  44.8576  45.7488

          k =-0.5000-1.0000 0.0000 (   252 PWs)   bands (ev):

   -21.3160 -21.3160 -20.9015  22.6074  24.3980  24.3980  27.8548  31.0047
    42.1472  42.1472  44.6295  45.5952

     the Fermi energy is    30.4042 ev

!    total energy              =    -198.53719188 Ry
     Harris-Foulkes estimate   =    -198.53719188 Ry
     estimated scf accuracy    <          2.0E-10 Ry

     The total energy is the sum of the following terms:

     one-electron contribution =     -12.16480346 Ry
     hartree contribution      =      26.01530421 Ry
     xc contribution           =     -31.81498680 Ry
     ewald contribution        =    -180.57302943 Ry
     smearing contrib. (-TS)   =       0.00032359 Ry

     convergence has been achieved in   6 iterations

     Writing output data file Pd-kp-conv.save/
 
     init_run     :      0.46s CPU      0.49s WALL (       1 calls)
     electrons    :      2.51s CPU      3.15s WALL (       1 calls)

     Called by init_run:
     wfcinit      :      0.16s CPU      0.18s WALL (       1 calls)
     potinit      :      0.00s CPU      0.01s WALL (       1 calls)
     hinit0       :      0.29s CPU      0.30s WALL (       1 calls)

     Called by electrons:
     c_bands      :      2.10s CPU      2.31s WALL (       6 calls)
     sum_band     :      0.35s CPU      0.40s WALL (       6 calls)
     v_of_rho     :      0.01s CPU      0.02s WALL (       7 calls)
     newd         :      0.03s CPU      0.03s WALL (       7 calls)
     mix_rho      :      0.00s CPU      0.00s WALL (       6 calls)

     Called by c_bands:
     init_us_2    :      0.05s CPU      0.06s WALL (     936 calls)
     cegterg      :      1.95s CPU      2.15s WALL (     432 calls)

     Called by sum_band:
     sum_band:bec :      0.00s CPU      0.00s WALL (     432 calls)
     addusdens    :      0.02s CPU      0.02s WALL (       6 calls)

     Called by *egterg:
     h_psi        :      1.54s CPU      1.70s WALL (    1490 calls)
     s_psi        :      0.03s CPU      0.03s WALL (    1490 calls)
     g_psi        :      0.02s CPU      0.02s WALL (     986 calls)
     cdiaghg      :      0.34s CPU      0.37s WALL (    1418 calls)

     Called by h_psi:
     h_psi:pot    :      1.53s CPU      1.69s WALL (    1490 calls)
     h_psi:calbec :      0.04s CPU      0.04s WALL (    1490 calls)
     vloc_psi     :      1.45s CPU      1.60s WALL (    1490 calls)
     add_vuspsi   :      0.03s CPU      0.03s WALL (    1490 calls)

     General routines
     calbec       :      0.04s CPU      0.05s WALL (    1922 calls)
     fft          :      0.01s CPU      0.01s WALL (      78 calls)
     ffts         :      0.00s CPU      0.00s WALL (       6 calls)
     fftw         :      1.49s CPU      1.66s WALL (   32566 calls)
 
     Parallel routines
     fft_scatt_xy :      0.27s CPU      0.30s WALL (   32650 calls)
     fft_scatt_yz :      0.39s CPU      0.44s WALL (   32650 calls)
 
     PWSCF        :     3.08s CPU         4.10s WALL

 
   This run was terminated on:  22:25:28   2Dec2021            

=------------------------------------------------------------------------------=
   JOB DONE.
=------------------------------------------------------------------------------=
