
     Program PWSCF v.6.3 starts on  2Dec2021 at 22:24: 8 

     This program is part of the open-source Quantum ESPRESSO suite
     for quantum simulation of materials; please cite
         "P. Giannozzi et al., J. Phys.:Condens. Matter 21 395502 (2009);
         "P. Giannozzi et al., J. Phys.:Condens. Matter 29 465901 (2017);
          URL http://www.quantum-espresso.org", 
     in publications or presentations arising from this work. More details at
     http://www.quantum-espresso.org/quote

     Parallel version (MPI & OpenMP), running on       2 processor cores
     Number of MPI processes:                 2
     Threads/MPI process:                     1

     MPI processes distributed on     1 nodes
     R & G space division:  proc/nbgrp/npool/nimage =       2
     Reading input from pw-input.in

     Current dimensions of program PWSCF are:
     Max number of different atomic species (ntypx) = 10
     Max number of k-points (npk) =  40000
     Max angular momentum in pseudopotentials (lmaxx) =  3

     Subspace diagonalization in iterative solution of the eigenvalue problem:
     a serial algorithm will be used

 
     Parallelization info
     --------------------
     sticks:   dense  smooth     PW     G-vecs:    dense   smooth      PW
     Min         105     105     42                  994      994     229
     Max         106     106     43                  995      995     230
     Sum         211     211     85                 1989     1989     459
 

     Title: 
     Pd-kp-conv                                                                 


     bravais-lattice index     =            2
     lattice parameter (alat)  =       6.6000  a.u.
     unit-cell volume          =      71.8740 (a.u.)^3
     number of atoms/cell      =            1
     number of atomic types    =            1
     number of electrons       =        16.00
     number of Kohn-Sham states=           12
     kinetic-energy cutoff     =      35.0000  Ry
     charge density cutoff     =     140.0000  Ry
     convergence threshold     =      1.0E-07
     mixing beta               =       0.7000
     number of iterations used =            8  plain     mixing
     Exchange-correlation      =  SLA  PW   PBX  PBC ( 1  4  3  4 0 0)

     celldm(1)=   6.600000  celldm(2)=   0.000000  celldm(3)=   0.000000
     celldm(4)=   0.000000  celldm(5)=   0.000000  celldm(6)=   0.000000

     crystal axes: (cart. coord. in units of alat)
               a(1) = (  -0.500000   0.000000   0.500000 )  
               a(2) = (   0.000000   0.500000   0.500000 )  
               a(3) = (  -0.500000   0.500000   0.000000 )  

     reciprocal axes: (cart. coord. in units 2 pi/alat)
               b(1) = ( -1.000000 -1.000000  1.000000 )  
               b(2) = (  1.000000  1.000000  1.000000 )  
               b(3) = ( -1.000000  1.000000 -1.000000 )  


     PseudoPot. # 1 for Pd read from file:
     ./pd_pbe_v1.4.uspp.F.UPF
     MD5 check sum: 2d733d2bc2cbfd217af676df1668a4bc
     Pseudo is Ultrasoft + core correction, Zval = 16.0
     Generated by new atomic code, or converted to UPF format
     Using radial grid of  887 points,  6 beta functions with: 
                l(1) =   0
                l(2) =   0
                l(3) =   1
                l(4) =   1
                l(5) =   2
                l(6) =   2
     Q(r) pseudized with  8 coefficients,  rinner =    1.130   1.130   1.130
                                                       1.130   1.130

     atomic species   valence    mass     pseudopotential
        Pd            16.00   106.40000     Pd( 1.00)

     48 Sym. Ops., with inversion, found



   Cartesian axes

     site n.     atom                  positions (alat units)
         1           Pd  tau(   1) = (   0.0000000   0.0000000   0.0000000  )

     number of k points=    35  Marzari-Vanderbilt smearing, width (Ry)=  0.0300
                       cart. coord. in units 2pi/alat
        k(    1) = (   0.0000000   0.0000000   0.0000000), wk =   0.0027435
        k(    2) = (  -0.1111111   0.1111111  -0.1111111), wk =   0.0219479
        k(    3) = (  -0.2222222   0.2222222  -0.2222222), wk =   0.0219479
        k(    4) = (  -0.3333333   0.3333333  -0.3333333), wk =   0.0219479
        k(    5) = (  -0.4444444   0.4444444  -0.4444444), wk =   0.0219479
        k(    6) = (   0.0000000   0.2222222   0.0000000), wk =   0.0164609
        k(    7) = (  -0.1111111   0.3333333  -0.1111111), wk =   0.0658436
        k(    8) = (  -0.2222222   0.4444444  -0.2222222), wk =   0.0658436
        k(    9) = (  -0.3333333   0.5555556  -0.3333333), wk =   0.0658436
        k(   10) = (   0.5555556  -0.3333333   0.5555556), wk =   0.0658436
        k(   11) = (   0.4444444  -0.2222222   0.4444444), wk =   0.0658436
        k(   12) = (   0.3333333  -0.1111111   0.3333333), wk =   0.0658436
        k(   13) = (   0.2222222  -0.0000000   0.2222222), wk =   0.0329218
        k(   14) = (   0.0000000   0.4444444   0.0000000), wk =   0.0164609
        k(   15) = (  -0.1111111   0.5555556  -0.1111111), wk =   0.0658436
        k(   16) = (  -0.2222222   0.6666667  -0.2222222), wk =   0.0658436
        k(   17) = (   0.6666667  -0.2222222   0.6666667), wk =   0.0658436
        k(   18) = (   0.5555556  -0.1111111   0.5555556), wk =   0.0658436
        k(   19) = (   0.4444444   0.0000000   0.4444444), wk =   0.0329218
        k(   20) = (   0.0000000   0.6666667   0.0000000), wk =   0.0164609
        k(   21) = (  -0.1111111   0.7777778  -0.1111111), wk =   0.0658436
        k(   22) = (   0.7777778  -0.1111111   0.7777778), wk =   0.0658436
        k(   23) = (   0.6666667  -0.0000000   0.6666667), wk =   0.0329218
        k(   24) = (   0.0000000   0.8888889   0.0000000), wk =   0.0164609
        k(   25) = (   0.8888889   0.0000000   0.8888889), wk =   0.0329218
        k(   26) = (  -0.2222222   0.4444444   0.0000000), wk =   0.0658436
        k(   27) = (  -0.3333333   0.5555556  -0.1111111), wk =   0.1316872
        k(   28) = (   0.5555556  -0.3333333   0.7777778), wk =   0.1316872
        k(   29) = (  -0.2222222   0.6666667   0.0000000), wk =   0.0658436
        k(   30) = (   0.6666667  -0.2222222   0.8888889), wk =   0.1316872
        k(   31) = (   0.5555556  -0.1111111   0.7777778), wk =   0.1316872
        k(   32) = (   0.4444444   0.0000000   0.6666667), wk =   0.0658436
        k(   33) = (   0.7777778  -0.1111111   1.0000000), wk =   0.0658436
        k(   34) = (   0.6666667  -0.0000000   0.8888889), wk =   0.0658436
        k(   35) = (   0.5555556  -0.1111111   1.0000000), wk =   0.0658436

     Dense  grid:     1989 G-vectors     FFT dimensions: (  18,  18,  18)

     Estimated max dynamical RAM per process >       5.31 MB

     Estimated total dynamical RAM >      10.61 MB

     Initial potential from superposition of free atoms
     Check: negative starting charge=   -0.084505

     starting charge   15.49999, renormalised to   16.00000

     negative rho (up, down):  8.723E-02 0.000E+00
     Starting wfcs are   12 randomized atomic wfcs

     total cpu time spent up to now is        0.5 secs

     Self-consistent Calculation

     iteration #  1     ecut=    35.00 Ry     beta= 0.70
     Davidson diagonalization with overlap
     ethr =  1.00E-02,  avg # of iterations =  3.6

     negative rho (up, down):  8.924E-02 0.000E+00

     total cpu time spent up to now is        0.8 secs

     total energy              =    -198.36415616 Ry
     Harris-Foulkes estimate   =    -198.78125288 Ry
     estimated scf accuracy    <       0.59408317 Ry

     iteration #  2     ecut=    35.00 Ry     beta= 0.70
     Davidson diagonalization with overlap
     ethr =  3.71E-03,  avg # of iterations =  2.0

     negative rho (up, down):  9.015E-02 0.000E+00

     total cpu time spent up to now is        1.1 secs

     total energy              =    -198.52935001 Ry
     Harris-Foulkes estimate   =    -198.65420330 Ry
     estimated scf accuracy    <       0.21303536 Ry

     iteration #  3     ecut=    35.00 Ry     beta= 0.70
     Davidson diagonalization with overlap
     ethr =  1.33E-03,  avg # of iterations =  2.0

     negative rho (up, down):  9.103E-02 0.000E+00

     total cpu time spent up to now is        1.3 secs

     total energy              =    -198.57859326 Ry
     Harris-Foulkes estimate   =    -198.57915316 Ry
     estimated scf accuracy    <       0.00126625 Ry

     iteration #  4     ecut=    35.00 Ry     beta= 0.70
     Davidson diagonalization with overlap
     ethr =  7.91E-06,  avg # of iterations =  2.2

     negative rho (up, down):  9.112E-02 0.000E+00

     total cpu time spent up to now is        1.5 secs

     total energy              =    -198.57886011 Ry
     Harris-Foulkes estimate   =    -198.57889941 Ry
     estimated scf accuracy    <       0.00006318 Ry

     iteration #  5     ecut=    35.00 Ry     beta= 0.70
     Davidson diagonalization with overlap
     ethr =  3.95E-07,  avg # of iterations =  2.0

     negative rho (up, down):  9.115E-02 0.000E+00

     total cpu time spent up to now is        1.7 secs

     total energy              =    -198.57887724 Ry
     Harris-Foulkes estimate   =    -198.57888008 Ry
     estimated scf accuracy    <       0.00000503 Ry

     iteration #  6     ecut=    35.00 Ry     beta= 0.70
     Davidson diagonalization with overlap
     ethr =  3.14E-08,  avg # of iterations =  2.0

     negative rho (up, down):  9.115E-02 0.000E+00

     total cpu time spent up to now is        1.9 secs

     total energy              =    -198.57887846 Ry
     Harris-Foulkes estimate   =    -198.57887853 Ry
     estimated scf accuracy    <       0.00000014 Ry

     iteration #  7     ecut=    35.00 Ry     beta= 0.70
     Davidson diagonalization with overlap
     ethr =  8.80E-10,  avg # of iterations =  2.0

     negative rho (up, down):  9.115E-02 0.000E+00

     total cpu time spent up to now is        2.2 secs

     End of self-consistent calculation

          k = 0.0000 0.0000 0.0000 (   259 PWs)   bands (ev):

   -21.9219 -21.9219 -21.9219  18.7532  23.8897  23.8897  23.8897  26.6145
    26.6145  46.7716  53.6477  53.6477

          k =-0.1111 0.1111-0.1111 (   265 PWs)   bands (ev):

   -22.0781 -21.9422 -21.9422  19.3441  23.6498  24.1201  24.1201  26.4952
    26.4952  47.6336  50.8226  54.5207

          k =-0.2222 0.2222-0.2222 (   259 PWs)   bands (ev):

   -22.4637 -21.9931 -21.9931  20.5042  23.7010  24.3801  24.3801  26.6420
    26.6420  47.0167  48.9014  56.7318

          k =-0.3333 0.3333-0.3333 (   256 PWs)   bands (ev):

   -22.8886 -22.0507 -22.0507  20.6012  24.1145  24.1145  25.7840  27.6054
    27.6054  43.2954  47.7212  56.9332

          k =-0.4444 0.4444-0.4444 (   254 PWs)   bands (ev):

   -23.1580 -22.0879 -22.0879  20.2946  23.8156  23.8156  28.5302  28.5302
    28.5377  39.8990  46.2496  54.5398

          k = 0.0000 0.2222 0.0000 (   262 PWs)   bands (ev):

   -22.0737 -21.9767 -21.9767  19.5443  23.3455  24.3345  24.3345  26.0372
    26.8286  47.9746  51.4995  53.6968

          k =-0.1111 0.3333-0.1111 (   258 PWs)   bands (ev):

   -22.3595 -22.0385 -22.0181  20.6205  22.9154  24.5827  24.7649  26.0110
    27.1040  48.6140  49.3824  53.9516

          k =-0.2222 0.4444-0.2222 (   251 PWs)   bands (ev):

   -22.7538 -22.0982 -22.0845  21.0777  23.7452  24.0235  24.7048  27.7282
    27.8946  44.8962  48.8795  53.8207

          k =-0.3333 0.5556-0.3333 (   250 PWs)   bands (ev):

   -23.0582 -22.1581 -22.1283  20.7695  23.4802  24.3541  25.5790  28.6523
    30.3652  40.8791  47.2551  53.0332

          k = 0.5556-0.3333 0.5556 (   252 PWs)   bands (ev):

   -23.1412 -22.2032 -22.1153  20.6875  23.3866  24.1755  26.4033  28.4756
    31.7900  39.2295  46.7741  52.2690

          k = 0.4444-0.2222 0.4444 (   253 PWs)   bands (ev):

   -22.9703 -22.1963 -22.0648  20.9599  23.6950  24.3356  25.3598  27.3504
    30.1307  42.2555  47.5783  52.4984

          k = 0.3333-0.1111 0.3333 (   260 PWs)   bands (ev):

   -22.6232 -22.1357 -22.0001  21.2103  23.3794  24.3273  24.7174  26.0693
    28.2195  46.1321  49.0627  54.2438

          k = 0.2222-0.0000 0.2222 (   255 PWs)   bands (ev):

   -22.2675 -22.0355 -21.9515  20.2188  23.2261  24.4611  24.4739  25.9456
    26.9785  48.7392  49.0977  53.6911

          k = 0.0000 0.4444 0.0000 (   250 PWs)   bands (ev):

   -22.4418 -22.1144 -22.1144  21.0932  22.1375  25.4083  25.6017  25.6017
    27.3932  49.8653  50.8567  51.8760

          k =-0.1111 0.5556-0.1111 (   254 PWs)   bands (ev):

   -22.7056 -22.2002 -22.1849  21.3318  21.8725  24.8891  25.9783  27.9357
    28.0416  46.9791  49.8269  50.4278

          k =-0.2222 0.6667-0.2222 (   248 PWs)   bands (ev):

   -22.9380 -22.3231 -22.2172  21.1377  22.4050  24.5814  25.6826  28.7750
    31.4490  42.3827  47.9324  49.9035

          k = 0.6667-0.2222 0.6667 (   248 PWs)   bands (ev):

   -23.0180 -22.4426 -22.1972  21.3116  22.6939  24.6987  25.3392  28.5334
    34.7902  38.9308  46.5529  51.1279

          k = 0.5556-0.1111 0.5556 (   250 PWs)   bands (ev):

   -22.9345 -22.4785 -22.1337  21.8715  22.9452  24.2545  25.2297  27.3349
    33.3619  41.5893  45.8915  50.7467

          k = 0.4444 0.0000 0.4444 (   256 PWs)   bands (ev):

   -22.7806 -22.3567 -22.0557  22.4416  22.7857  23.7705  25.3392  26.0085
    30.6811  45.2312  46.9510  51.6937

          k = 0.0000 0.6667 0.0000 (   246 PWs)   bands (ev):

   -22.8372 -22.2690 -22.2690  20.7632  20.9736  27.4056  27.4056  27.8340
    28.0852  47.8193  47.8193  48.0959

          k =-0.1111 0.7778-0.1111 (   245 PWs)   bands (ev):

   -22.9736 -22.3775 -22.3121  20.5019  20.8842  26.7538  27.4272  28.8319
    31.5334  44.1878  46.2337  46.6935

          k = 0.7778-0.1111 0.7778 (   251 PWs)   bands (ev):

   -22.9621 -22.5687 -22.2946  20.7000  21.6080  25.6213  26.9523  28.7229
    35.9481  40.0216  44.2425  47.7603

          k = 0.6667-0.0000 0.6667 (   256 PWs)   bands (ev):

   -22.7833 -22.7739 -22.2245  21.3738  22.7191  24.2543  26.2776  27.8378
    36.4610  40.4354  43.0228  50.6936

          k = 0.0000 0.8889 0.0000 (   250 PWs)   bands (ev):

   -23.0819 -22.3693 -22.3693  19.9037  20.2986  28.5676  28.9733  28.9733
    31.5210  44.3545  44.7239  44.7239

          k = 0.8889 0.0000 0.8889 (   250 PWs)   bands (ev):

   -23.0725 -22.4503 -22.3623  20.0380  20.5315  27.7708  28.2175  29.0617
    34.1020  42.6013  43.4680  45.1527

          k =-0.2222 0.4444 0.0000 (   256 PWs)   bands (ev):

   -22.5836 -22.1836 -22.0533  21.6393  22.3962  24.1648  25.5942  26.1150
    28.2903  47.3874  49.3946  53.0695

          k =-0.3333 0.5556-0.1111 (   249 PWs)   bands (ev):

   -22.8506 -22.3070 -22.1151  21.6684  23.1441  23.5788  25.5061  27.3073
    30.6159  44.0167  47.9633  50.6118

          k = 0.5556-0.3333 0.7778 (   251 PWs)   bands (ev):

   -23.0300 -22.3651 -22.1699  21.4224  22.7868  24.6487  25.1600  28.3207
    33.4029  39.8876  47.3567  49.6879

          k =-0.2222 0.6667 0.0000 (   251 PWs)   bands (ev):

   -22.8612 -22.3496 -22.2326  21.3790  21.4462  24.8341  27.3859  27.4546
    30.7838  45.6837  46.6409  48.4236

          k = 0.6667-0.2222 0.8889 (   252 PWs)   bands (ev):

   -22.9350 -22.5011 -22.2802  21.3247  21.9885  24.3640  26.6696  28.5008
    34.3657  41.5188  46.2638  46.4824

          k = 0.5556-0.1111 0.7778 (   250 PWs)   bands (ev):

   -22.8946 -22.6252 -22.2618  21.7205  22.5095  23.8825  26.0859  28.3590
    36.7825  39.3444  44.6956  47.6919

          k = 0.4444 0.0000 0.6667 (   250 PWs)   bands (ev):

   -22.8682 -22.5501 -22.1891  22.4563  22.7282  22.9907  26.1974  27.4113
    33.7105  43.7021  43.8374  49.1451

          k = 0.7778-0.1111 1.0000 (   247 PWs)   bands (ev):

   -23.0126 -22.4566 -22.3697  20.4712  20.8745  26.3623  27.8819  28.9710
    34.3303  43.6224  43.8611  44.4080

          k = 0.6667-0.0000 0.8889 (   254 PWs)   bands (ev):

   -22.9172 -22.6209 -22.3505  20.9205  21.7046  25.0525  26.9500  28.9572
    37.6423  40.2238  43.0498  45.4628

          k = 0.5556-0.1111 1.0000 (   249 PWs)   bands (ev):

   -22.8343 -22.6748 -22.3639  21.4966  22.5308  23.5774  26.4720  28.9620
    37.7593  41.2865  42.8481  44.5532

     the Fermi energy is    28.6865 ev

!    total energy              =    -198.57887849 Ry
     Harris-Foulkes estimate   =    -198.57887849 Ry
     estimated scf accuracy    <          9.7E-11 Ry

     The total energy is the sum of the following terms:

     one-electron contribution =     -16.08246284 Ry
     hartree contribution      =      27.07713726 Ry
     xc contribution           =     -31.73602836 Ry
     ewald contribution        =    -177.83707445 Ry
     smearing contrib. (-TS)   =      -0.00045010 Ry

     convergence has been achieved in   7 iterations

     Writing output data file Pd-kp-conv.save/
 
     init_run     :      0.38s CPU      0.41s WALL (       1 calls)
     electrons    :      1.51s CPU      2.04s WALL (       1 calls)

     Called by init_run:
     wfcinit      :      0.08s CPU      0.09s WALL (       1 calls)
     potinit      :      0.00s CPU      0.01s WALL (       1 calls)
     hinit0       :      0.29s CPU      0.30s WALL (       1 calls)

     Called by electrons:
     c_bands      :      1.24s CPU      1.36s WALL (       7 calls)
     sum_band     :      0.23s CPU      0.25s WALL (       7 calls)
     v_of_rho     :      0.02s CPU      0.02s WALL (       8 calls)
     newd         :      0.03s CPU      0.03s WALL (       8 calls)
     mix_rho      :      0.00s CPU      0.00s WALL (       7 calls)

     Called by c_bands:
     init_us_2    :      0.03s CPU      0.03s WALL (     525 calls)
     cegterg      :      1.15s CPU      1.26s WALL (     245 calls)

     Called by sum_band:
     sum_band:bec :      0.00s CPU      0.00s WALL (     245 calls)
     addusdens    :      0.03s CPU      0.03s WALL (       7 calls)

     Called by *egterg:
     h_psi        :      0.90s CPU      0.99s WALL (     833 calls)
     s_psi        :      0.02s CPU      0.02s WALL (     833 calls)
     g_psi        :      0.01s CPU      0.01s WALL (     553 calls)
     cdiaghg      :      0.20s CPU      0.21s WALL (     798 calls)

     Called by h_psi:
     h_psi:pot    :      0.89s CPU      0.98s WALL (     833 calls)
     h_psi:calbec :      0.02s CPU      0.03s WALL (     833 calls)
     vloc_psi     :      0.84s CPU      0.93s WALL (     833 calls)
     add_vuspsi   :      0.02s CPU      0.02s WALL (     833 calls)

     General routines
     calbec       :      0.03s CPU      0.03s WALL (    1078 calls)
     fft          :      0.01s CPU      0.01s WALL (      89 calls)
     ffts         :      0.00s CPU      0.00s WALL (       7 calls)
     fftw         :      0.88s CPU      0.97s WALL (   18252 calls)
 
     Parallel routines
     fft_scatt_xy :      0.15s CPU      0.17s WALL (   18348 calls)
     fft_scatt_yz :      0.25s CPU      0.28s WALL (   18348 calls)
 
     PWSCF        :     1.97s CPU         2.71s WALL

 
   This run was terminated on:  22:24:10   2Dec2021            

=------------------------------------------------------------------------------=
   JOB DONE.
=------------------------------------------------------------------------------=
