
     Program PWSCF v.6.3 starts on  2Dec2021 at 21:53:10 

     This program is part of the open-source Quantum ESPRESSO suite
     for quantum simulation of materials; please cite
         "P. Giannozzi et al., J. Phys.:Condens. Matter 21 395502 (2009);
         "P. Giannozzi et al., J. Phys.:Condens. Matter 29 465901 (2017);
          URL http://www.quantum-espresso.org", 
     in publications or presentations arising from this work. More details at
     http://www.quantum-espresso.org/quote

     Parallel version (MPI & OpenMP), running on       2 processor cores
     Number of MPI processes:                 2
     Threads/MPI process:                     1

     MPI processes distributed on     1 nodes
     R & G space division:  proc/nbgrp/npool/nimage =       2
     Reading input from pw-input.in

     Current dimensions of program PWSCF are:
     Max number of different atomic species (ntypx) = 10
     Max number of k-points (npk) =  40000
     Max angular momentum in pseudopotentials (lmaxx) =  3

     Subspace diagonalization in iterative solution of the eigenvalue problem:
     a serial algorithm will be used

 
     Parallelization info
     --------------------
     sticks:   dense  smooth     PW     G-vecs:    dense   smooth      PW
     Min         141     141     48                 1570     1570     322
     Max         142     142     49                 1573     1573     323
     Sum         283     283     97                 3143     3143     645
 

     Title: 
     Pd-kp-conv                                                                 


     bravais-lattice index     =            2
     lattice parameter (alat)  =       7.7000  a.u.
     unit-cell volume          =     114.1333 (a.u.)^3
     number of atoms/cell      =            1
     number of atomic types    =            1
     number of electrons       =        16.00
     number of Kohn-Sham states=           12
     kinetic-energy cutoff     =      35.0000  Ry
     charge density cutoff     =     140.0000  Ry
     convergence threshold     =      1.0E-07
     mixing beta               =       0.7000
     number of iterations used =            8  plain     mixing
     Exchange-correlation      =  SLA  PW   PBX  PBC ( 1  4  3  4 0 0)

     celldm(1)=   7.700000  celldm(2)=   0.000000  celldm(3)=   0.000000
     celldm(4)=   0.000000  celldm(5)=   0.000000  celldm(6)=   0.000000

     crystal axes: (cart. coord. in units of alat)
               a(1) = (  -0.500000   0.000000   0.500000 )  
               a(2) = (   0.000000   0.500000   0.500000 )  
               a(3) = (  -0.500000   0.500000   0.000000 )  

     reciprocal axes: (cart. coord. in units 2 pi/alat)
               b(1) = ( -1.000000 -1.000000  1.000000 )  
               b(2) = (  1.000000  1.000000  1.000000 )  
               b(3) = ( -1.000000  1.000000 -1.000000 )  


     PseudoPot. # 1 for Pd read from file:
     ./pd_pbe_v1.4.uspp.F.UPF
     MD5 check sum: 2d733d2bc2cbfd217af676df1668a4bc
     Pseudo is Ultrasoft + core correction, Zval = 16.0
     Generated by new atomic code, or converted to UPF format
     Using radial grid of  887 points,  6 beta functions with: 
                l(1) =   0
                l(2) =   0
                l(3) =   1
                l(4) =   1
                l(5) =   2
                l(6) =   2
     Q(r) pseudized with  8 coefficients,  rinner =    1.130   1.130   1.130
                                                       1.130   1.130

     atomic species   valence    mass     pseudopotential
        Pd            16.00   106.40000     Pd( 1.00)

     48 Sym. Ops., with inversion, found



   Cartesian axes

     site n.     atom                  positions (alat units)
         1           Pd  tau(   1) = (   0.0000000   0.0000000   0.0000000  )

     number of k points=   413  Marzari-Vanderbilt smearing, width (Ry)=  0.0200

     Number of k-points >= 100: set verbosity='high' to print them.

     Dense  grid:     3143 G-vectors     FFT dimensions: (  24,  24,  24)

     Estimated max dynamical RAM per process >      21.92 MB

     Estimated total dynamical RAM >      43.84 MB

     Initial potential from superposition of free atoms
     Check: negative starting charge=   -0.079204

     starting charge   15.49999, renormalised to   16.00000

     negative rho (up, down):  8.176E-02 0.000E+00
     Starting wfcs are   12 randomized atomic wfcs

     total cpu time spent up to now is        1.8 secs

     Self-consistent Calculation

     iteration #  1     ecut=    35.00 Ry     beta= 0.70
     Davidson diagonalization with overlap
     ethr =  1.00E-02,  avg # of iterations =  3.6

     negative rho (up, down):  8.047E-02 0.000E+00

     total cpu time spent up to now is        7.2 secs

     total energy              =    -198.09355730 Ry
     Harris-Foulkes estimate   =    -199.05524286 Ry
     estimated scf accuracy    <       1.31768062 Ry

     iteration #  2     ecut=    35.00 Ry     beta= 0.70
     Davidson diagonalization with overlap
     ethr =  8.24E-03,  avg # of iterations =  2.0

     negative rho (up, down):  8.178E-02 0.000E+00

     total cpu time spent up to now is       11.4 secs

     total energy              =    -198.40002110 Ry
     Harris-Foulkes estimate   =    -199.12393747 Ry
     estimated scf accuracy    <       1.48672421 Ry

     iteration #  3     ecut=    35.00 Ry     beta= 0.70
     Davidson diagonalization with overlap
     ethr =  8.24E-03,  avg # of iterations =  2.0

     negative rho (up, down):  8.190E-02 0.000E+00

     total cpu time spent up to now is       15.3 secs

     total energy              =    -198.69572676 Ry
     Harris-Foulkes estimate   =    -198.69635039 Ry
     estimated scf accuracy    <       0.00138311 Ry

     iteration #  4     ecut=    35.00 Ry     beta= 0.70
     Davidson diagonalization with overlap
     ethr =  8.64E-06,  avg # of iterations =  2.5

     negative rho (up, down):  8.204E-02 0.000E+00

     total cpu time spent up to now is       19.7 secs

     total energy              =    -198.69626571 Ry
     Harris-Foulkes estimate   =    -198.69626403 Ry
     estimated scf accuracy    <       0.00000320 Ry

     iteration #  5     ecut=    35.00 Ry     beta= 0.70
     Davidson diagonalization with overlap
     ethr =  2.00E-08,  avg # of iterations =  1.9

     negative rho (up, down):  8.208E-02 0.000E+00

     total cpu time spent up to now is       23.4 secs

     total energy              =    -198.69626645 Ry
     Harris-Foulkes estimate   =    -198.69626623 Ry
     estimated scf accuracy    <       0.00000015 Ry

     iteration #  6     ecut=    35.00 Ry     beta= 0.70
     Davidson diagonalization with overlap
     ethr =  9.41E-10,  avg # of iterations =  2.0

     negative rho (up, down):  8.208E-02 0.000E+00

     total cpu time spent up to now is       27.2 secs

     End of self-consistent calculation

     Number of k-points >= 100: set verbosity='high' to print the bands.

     the Fermi energy is    15.4935 ev

!    total energy              =    -198.69626646 Ry
     Harris-Foulkes estimate   =    -198.69626646 Ry
     estimated scf accuracy    <          8.3E-10 Ry

     The total energy is the sum of the following terms:

     one-electron contribution =     -54.24633831 Ry
     hartree contribution      =      39.26482208 Ry
     xc contribution           =     -31.28300226 Ry
     ewald contribution        =    -152.43177811 Ry
     smearing contrib. (-TS)   =       0.00003015 Ry

     convergence has been achieved in   6 iterations

     Writing output data file Pd-kp-conv.save/
 
     init_run     :      1.63s CPU      1.74s WALL (       1 calls)
     electrons    :     23.61s CPU     25.39s WALL (       1 calls)

     Called by init_run:
     wfcinit      :      1.28s CPU      1.36s WALL (       1 calls)
     potinit      :      0.01s CPU      0.02s WALL (       1 calls)
     hinit0       :      0.33s CPU      0.33s WALL (       1 calls)

     Called by electrons:
     c_bands      :     19.95s CPU     21.43s WALL (       6 calls)
     sum_band     :      3.60s CPU      3.87s WALL (       6 calls)
     v_of_rho     :      0.03s CPU      0.03s WALL (       7 calls)
     newd         :      0.04s CPU      0.05s WALL (       7 calls)
     mix_rho      :      0.00s CPU      0.00s WALL (       6 calls)

     Called by c_bands:
     init_us_2    :      0.49s CPU      0.52s WALL (    5369 calls)
     cegterg      :     18.60s CPU     19.69s WALL (    2478 calls)

     Called by sum_band:
     sum_band:bec :      0.02s CPU      0.02s WALL (    2478 calls)
     addusdens    :      0.04s CPU      0.05s WALL (       6 calls)

     Called by *egterg:
     h_psi        :     15.99s CPU     16.95s WALL (    8671 calls)
     s_psi        :      0.21s CPU      0.23s WALL (    8671 calls)
     g_psi        :      0.15s CPU      0.15s WALL (    5780 calls)
     cdiaghg      :      2.06s CPU      2.18s WALL (    8258 calls)

     Called by h_psi:
     h_psi:pot    :     15.92s CPU     16.87s WALL (    8671 calls)
     h_psi:calbec :      0.30s CPU      0.32s WALL (    8671 calls)
     vloc_psi     :     15.34s CPU     16.25s WALL (    8671 calls)
     add_vuspsi   :      0.22s CPU      0.24s WALL (    8671 calls)

     General routines
     calbec       :      0.35s CPU      0.38s WALL (   11149 calls)
     fft          :      0.01s CPU      0.01s WALL (      78 calls)
     ffts         :      0.00s CPU      0.00s WALL (       6 calls)
     fftw         :     15.74s CPU     16.72s WALL (  185388 calls)
 
     Parallel routines
     fft_scatt_xy :      2.94s CPU      3.14s WALL (  185472 calls)
     fft_scatt_yz :      3.26s CPU      3.53s WALL (  185472 calls)
 
     PWSCF        :    25.49s CPU        28.77s WALL

 
   This run was terminated on:  21:53:39   2Dec2021            

=------------------------------------------------------------------------------=
   JOB DONE.
=------------------------------------------------------------------------------=
