
     Program PWSCF v.6.3 starts on  2Dec2021 at 21:27:12 

     This program is part of the open-source Quantum ESPRESSO suite
     for quantum simulation of materials; please cite
         "P. Giannozzi et al., J. Phys.:Condens. Matter 21 395502 (2009);
         "P. Giannozzi et al., J. Phys.:Condens. Matter 29 465901 (2017);
          URL http://www.quantum-espresso.org", 
     in publications or presentations arising from this work. More details at
     http://www.quantum-espresso.org/quote

     Parallel version (MPI & OpenMP), running on       2 processor cores
     Number of MPI processes:                 2
     Threads/MPI process:                     1

     MPI processes distributed on     1 nodes
     R & G space division:  proc/nbgrp/npool/nimage =       2
     Reading input from pw-input.in

     Current dimensions of program PWSCF are:
     Max number of different atomic species (ntypx) = 10
     Max number of k-points (npk) =  40000
     Max angular momentum in pseudopotentials (lmaxx) =  3

     Subspace diagonalization in iterative solution of the eigenvalue problem:
     a serial algorithm will be used

 
     Parallelization info
     --------------------
     sticks:   dense  smooth     PW     G-vecs:    dense   smooth      PW
     Min         105     105     42                  994      994     229
     Max         106     106     43                  995      995     230
     Sum         211     211     85                 1989     1989     459
 

     Title: 
     Pd-kp-conv                                                                 


     bravais-lattice index     =            2
     lattice parameter (alat)  =       6.6000  a.u.
     unit-cell volume          =      71.8740 (a.u.)^3
     number of atoms/cell      =            1
     number of atomic types    =            1
     number of electrons       =        16.00
     number of Kohn-Sham states=           12
     kinetic-energy cutoff     =      35.0000  Ry
     charge density cutoff     =     140.0000  Ry
     convergence threshold     =      1.0E-07
     mixing beta               =       0.7000
     number of iterations used =            8  plain     mixing
     Exchange-correlation      =  SLA  PW   PBX  PBC ( 1  4  3  4 0 0)

     celldm(1)=   6.600000  celldm(2)=   0.000000  celldm(3)=   0.000000
     celldm(4)=   0.000000  celldm(5)=   0.000000  celldm(6)=   0.000000

     crystal axes: (cart. coord. in units of alat)
               a(1) = (  -0.500000   0.000000   0.500000 )  
               a(2) = (   0.000000   0.500000   0.500000 )  
               a(3) = (  -0.500000   0.500000   0.000000 )  

     reciprocal axes: (cart. coord. in units 2 pi/alat)
               b(1) = ( -1.000000 -1.000000  1.000000 )  
               b(2) = (  1.000000  1.000000  1.000000 )  
               b(3) = ( -1.000000  1.000000 -1.000000 )  


     PseudoPot. # 1 for Pd read from file:
     ./pd_pbe_v1.4.uspp.F.UPF
     MD5 check sum: 2d733d2bc2cbfd217af676df1668a4bc
     Pseudo is Ultrasoft + core correction, Zval = 16.0
     Generated by new atomic code, or converted to UPF format
     Using radial grid of  887 points,  6 beta functions with: 
                l(1) =   0
                l(2) =   0
                l(3) =   1
                l(4) =   1
                l(5) =   2
                l(6) =   2
     Q(r) pseudized with  8 coefficients,  rinner =    1.130   1.130   1.130
                                                       1.130   1.130

     atomic species   valence    mass     pseudopotential
        Pd            16.00   106.40000     Pd( 1.00)

     48 Sym. Ops., with inversion, found



   Cartesian axes

     site n.     atom                  positions (alat units)
         1           Pd  tau(   1) = (   0.0000000   0.0000000   0.0000000  )

     number of k points=   413  Marzari-Vanderbilt smearing, width (Ry)=  0.0150

     Number of k-points >= 100: set verbosity='high' to print them.

     Dense  grid:     1989 G-vectors     FFT dimensions: (  18,  18,  18)

     Estimated max dynamical RAM per process >      13.96 MB

     Estimated total dynamical RAM >      27.92 MB

     Initial potential from superposition of free atoms
     Check: negative starting charge=   -0.084505

     starting charge   15.49999, renormalised to   16.00000

     negative rho (up, down):  8.723E-02 0.000E+00
     Starting wfcs are   12 randomized atomic wfcs

     total cpu time spent up to now is        1.3 secs

     Self-consistent Calculation

     iteration #  1     ecut=    35.00 Ry     beta= 0.70
     Davidson diagonalization with overlap
     ethr =  1.00E-02,  avg # of iterations =  3.5

     negative rho (up, down):  8.929E-02 0.000E+00

     total cpu time spent up to now is        4.9 secs

     total energy              =    -198.35735358 Ry
     Harris-Foulkes estimate   =    -198.77878109 Ry
     estimated scf accuracy    <       0.60053944 Ry

     iteration #  2     ecut=    35.00 Ry     beta= 0.70
     Davidson diagonalization with overlap
     ethr =  3.75E-03,  avg # of iterations =  2.0

     negative rho (up, down):  9.015E-02 0.000E+00

     total cpu time spent up to now is        7.8 secs

     total energy              =    -198.52725657 Ry
     Harris-Foulkes estimate   =    -198.65802007 Ry
     estimated scf accuracy    <       0.22471729 Ry

     iteration #  3     ecut=    35.00 Ry     beta= 0.70
     Davidson diagonalization with overlap
     ethr =  1.40E-03,  avg # of iterations =  2.0

     negative rho (up, down):  9.088E-02 0.000E+00

     total cpu time spent up to now is       10.6 secs

     total energy              =    -198.57763771 Ry
     Harris-Foulkes estimate   =    -198.57790988 Ry
     estimated scf accuracy    <       0.00071483 Ry

     iteration #  4     ecut=    35.00 Ry     beta= 0.70
     Davidson diagonalization with overlap
     ethr =  4.47E-06,  avg # of iterations =  2.2

     negative rho (up, down):  9.101E-02 0.000E+00

     total cpu time spent up to now is       13.1 secs

     total energy              =    -198.57778688 Ry
     Harris-Foulkes estimate   =    -198.57779212 Ry
     estimated scf accuracy    <       0.00000985 Ry

     iteration #  5     ecut=    35.00 Ry     beta= 0.70
     Davidson diagonalization with overlap
     ethr =  6.15E-08,  avg # of iterations =  2.0

     negative rho (up, down):  9.104E-02 0.000E+00

     total cpu time spent up to now is       15.6 secs

     End of self-consistent calculation

     Number of k-points >= 100: set verbosity='high' to print the bands.

     the Fermi energy is    28.7477 ev

!    total energy              =    -198.57778932 Ry
     Harris-Foulkes estimate   =    -198.57778935 Ry
     estimated scf accuracy    <       0.00000009 Ry

     The total energy is the sum of the following terms:

     one-electron contribution =     -16.12072955 Ry
     hartree contribution      =      27.12522620 Ry
     xc contribution           =     -31.74522507 Ry
     ewald contribution        =    -177.83707445 Ry
     smearing contrib. (-TS)   =       0.00001355 Ry

     convergence has been achieved in   5 iterations

     Writing output data file Pd-kp-conv.save/
 
     init_run     :      1.08s CPU      1.17s WALL (       1 calls)
     electrons    :     12.21s CPU     14.38s WALL (       1 calls)

     Called by init_run:
     wfcinit      :      0.77s CPU      0.85s WALL (       1 calls)
     potinit      :      0.00s CPU      0.01s WALL (       1 calls)
     hinit0       :      0.30s CPU      0.30s WALL (       1 calls)

     Called by electrons:
     c_bands      :     10.50s CPU     12.04s WALL (       5 calls)
     sum_band     :      1.68s CPU      1.83s WALL (       5 calls)
     v_of_rho     :      0.01s CPU      0.01s WALL (       6 calls)
     newd         :      0.02s CPU      0.03s WALL (       6 calls)
     mix_rho      :      0.00s CPU      0.00s WALL (       5 calls)

     Called by c_bands:
     init_us_2    :      0.27s CPU      0.30s WALL (    4543 calls)
     cegterg      :      9.69s CPU     10.57s WALL (    2065 calls)

     Called by sum_band:
     sum_band:bec :      0.02s CPU      0.02s WALL (    2065 calls)
     addusdens    :      0.02s CPU      0.02s WALL (       5 calls)

     Called by *egterg:
     h_psi        :      7.60s CPU      8.34s WALL (    7305 calls)
     s_psi        :      0.13s CPU      0.14s WALL (    7305 calls)
     g_psi        :      0.08s CPU      0.09s WALL (    4827 calls)
     cdiaghg      :      1.71s CPU      1.83s WALL (    6892 calls)

     Called by h_psi:
     h_psi:pot    :      7.55s CPU      8.28s WALL (    7305 calls)
     h_psi:calbec :      0.19s CPU      0.21s WALL (    7305 calls)
     vloc_psi     :      7.16s CPU      7.86s WALL (    7305 calls)
     add_vuspsi   :      0.14s CPU      0.15s WALL (    7305 calls)

     General routines
     calbec       :      0.22s CPU      0.24s WALL (    9370 calls)
     fft          :      0.01s CPU      0.01s WALL (      67 calls)
     ffts         :      0.00s CPU      0.00s WALL (       5 calls)
     fftw         :      7.47s CPU      8.20s WALL (  158366 calls)
 
     Parallel routines
     fft_scatt_xy :      1.29s CPU      1.42s WALL (  158438 calls)
     fft_scatt_yz :      2.06s CPU      2.29s WALL (  158438 calls)
 
     PWSCF        :    13.50s CPU        17.31s WALL

 
   This run was terminated on:  21:27:29   2Dec2021            

=------------------------------------------------------------------------------=
   JOB DONE.
=------------------------------------------------------------------------------=
