
     Program PWSCF v.6.3 starts on  2Dec2021 at 22:21:44 

     This program is part of the open-source Quantum ESPRESSO suite
     for quantum simulation of materials; please cite
         "P. Giannozzi et al., J. Phys.:Condens. Matter 21 395502 (2009);
         "P. Giannozzi et al., J. Phys.:Condens. Matter 29 465901 (2017);
          URL http://www.quantum-espresso.org", 
     in publications or presentations arising from this work. More details at
     http://www.quantum-espresso.org/quote

     Parallel version (MPI & OpenMP), running on       2 processor cores
     Number of MPI processes:                 2
     Threads/MPI process:                     1

     MPI processes distributed on     1 nodes
     R & G space division:  proc/nbgrp/npool/nimage =       2
     Reading input from pw-input.in

     Current dimensions of program PWSCF are:
     Max number of different atomic species (ntypx) = 10
     Max number of k-points (npk) =  40000
     Max angular momentum in pseudopotentials (lmaxx) =  3

     Subspace diagonalization in iterative solution of the eigenvalue problem:
     a serial algorithm will be used

 
     Parallelization info
     --------------------
     sticks:   dense  smooth     PW     G-vecs:    dense   smooth      PW
     Min         105     105     36                  994      994     193
     Max         106     106     37                  995      995     194
     Sum         211     211     73                 1989     1989     387
 

     Title: 
     Pd-kp-conv                                                                 


     bravais-lattice index     =            2
     lattice parameter (alat)  =       6.6000  a.u.
     unit-cell volume          =      71.8740 (a.u.)^3
     number of atoms/cell      =            1
     number of atomic types    =            1
     number of electrons       =        16.00
     number of Kohn-Sham states=           12
     kinetic-energy cutoff     =      35.0000  Ry
     charge density cutoff     =     140.0000  Ry
     convergence threshold     =      1.0E-07
     mixing beta               =       0.7000
     number of iterations used =            8  plain     mixing
     Exchange-correlation      =  SLA  PW   PBX  PBC ( 1  4  3  4 0 0)

     celldm(1)=   6.600000  celldm(2)=   0.000000  celldm(3)=   0.000000
     celldm(4)=   0.000000  celldm(5)=   0.000000  celldm(6)=   0.000000

     crystal axes: (cart. coord. in units of alat)
               a(1) = (  -0.500000   0.000000   0.500000 )  
               a(2) = (   0.000000   0.500000   0.500000 )  
               a(3) = (  -0.500000   0.500000   0.000000 )  

     reciprocal axes: (cart. coord. in units 2 pi/alat)
               b(1) = ( -1.000000 -1.000000  1.000000 )  
               b(2) = (  1.000000  1.000000  1.000000 )  
               b(3) = ( -1.000000  1.000000 -1.000000 )  


     PseudoPot. # 1 for Pd read from file:
     ./pd_pbe_v1.4.uspp.F.UPF
     MD5 check sum: 2d733d2bc2cbfd217af676df1668a4bc
     Pseudo is Ultrasoft + core correction, Zval = 16.0
     Generated by new atomic code, or converted to UPF format
     Using radial grid of  887 points,  6 beta functions with: 
                l(1) =   0
                l(2) =   0
                l(3) =   1
                l(4) =   1
                l(5) =   2
                l(6) =   2
     Q(r) pseudized with  8 coefficients,  rinner =    1.130   1.130   1.130
                                                       1.130   1.130

     atomic species   valence    mass     pseudopotential
        Pd            16.00   106.40000     Pd( 1.00)

     48 Sym. Ops., with inversion, found



   Cartesian axes

     site n.     atom                  positions (alat units)
         1           Pd  tau(   1) = (   0.0000000   0.0000000   0.0000000  )

     number of k points=     4  Marzari-Vanderbilt smearing, width (Ry)=  0.0300
                       cart. coord. in units 2pi/alat
        k(    1) = (   0.0000000   0.0000000   0.0000000), wk =   0.0740741
        k(    2) = (  -0.3333333   0.3333333  -0.3333333), wk =   0.5925926
        k(    3) = (   0.0000000   0.6666667   0.0000000), wk =   0.4444444
        k(    4) = (   0.6666667  -0.0000000   0.6666667), wk =   0.8888889

     Dense  grid:     1989 G-vectors     FFT dimensions: (  18,  18,  18)

     Estimated max dynamical RAM per process >       4.60 MB

     Estimated total dynamical RAM >       9.19 MB

     Initial potential from superposition of free atoms
     Check: negative starting charge=   -0.084505

     starting charge   15.49999, renormalised to   16.00000

     negative rho (up, down):  8.723E-02 0.000E+00
     Starting wfcs are   12 randomized atomic wfcs

     total cpu time spent up to now is        0.5 secs

     Self-consistent Calculation

     iteration #  1     ecut=    35.00 Ry     beta= 0.70
     Davidson diagonalization with overlap
     ethr =  1.00E-02,  avg # of iterations =  3.2

     negative rho (up, down):  8.991E-02 0.000E+00

     total cpu time spent up to now is        0.5 secs

     total energy              =    -198.25695862 Ry
     Harris-Foulkes estimate   =    -198.71167715 Ry
     estimated scf accuracy    <       0.65281124 Ry

     iteration #  2     ecut=    35.00 Ry     beta= 0.70
     Davidson diagonalization with overlap
     ethr =  4.08E-03,  avg # of iterations =  2.2

     negative rho (up, down):  9.075E-02 0.000E+00

     total cpu time spent up to now is        0.6 secs

     total energy              =    -198.43465814 Ry
     Harris-Foulkes estimate   =    -198.57987685 Ry
     estimated scf accuracy    <       0.25069285 Ry

     iteration #  3     ecut=    35.00 Ry     beta= 0.70
     Davidson diagonalization with overlap
     ethr =  1.57E-03,  avg # of iterations =  2.0

     negative rho (up, down):  9.166E-02 0.000E+00

     total cpu time spent up to now is        0.6 secs

     total energy              =    -198.48198069 Ry
     Harris-Foulkes estimate   =    -198.48254673 Ry
     estimated scf accuracy    <       0.00133609 Ry

     iteration #  4     ecut=    35.00 Ry     beta= 0.70
     Davidson diagonalization with overlap
     ethr =  8.35E-06,  avg # of iterations =  2.0

     negative rho (up, down):  9.165E-02 0.000E+00

     total cpu time spent up to now is        0.7 secs

     total energy              =    -198.48229596 Ry
     Harris-Foulkes estimate   =    -198.48246189 Ry
     estimated scf accuracy    <       0.00039173 Ry

     iteration #  5     ecut=    35.00 Ry     beta= 0.70
     Davidson diagonalization with overlap
     ethr =  2.45E-06,  avg # of iterations =  1.8

     negative rho (up, down):  9.172E-02 0.000E+00

     total cpu time spent up to now is        0.7 secs

     total energy              =    -198.48236864 Ry
     Harris-Foulkes estimate   =    -198.48237010 Ry
     estimated scf accuracy    <       0.00000317 Ry

     iteration #  6     ecut=    35.00 Ry     beta= 0.70
     Davidson diagonalization with overlap
     ethr =  1.98E-08,  avg # of iterations =  2.0

     negative rho (up, down):  9.174E-02 0.000E+00

     total cpu time spent up to now is        0.7 secs

     total energy              =    -198.48236961 Ry
     Harris-Foulkes estimate   =    -198.48237011 Ry
     estimated scf accuracy    <       0.00000131 Ry

     iteration #  7     ecut=    35.00 Ry     beta= 0.70
     Davidson diagonalization with overlap
     ethr =  8.20E-09,  avg # of iterations =  1.2

     negative rho (up, down):  9.174E-02 0.000E+00

     total cpu time spent up to now is        0.8 secs

     End of self-consistent calculation

          k = 0.0000 0.0000 0.0000 (   259 PWs)   bands (ev):

   -22.0050 -22.0050 -22.0050  18.7410  23.8486  23.8486  23.8486  26.5233
    26.5233  46.7940  53.6208  53.6208

          k =-0.3333 0.3333-0.3333 (   256 PWs)   bands (ev):

   -22.9685 -22.1334 -22.1334  20.5781  24.0537  24.0537  25.7595  27.5336
    27.5336  43.2629  47.7181  56.9196

          k = 0.0000 0.6667 0.0000 (   246 PWs)   bands (ev):

   -22.9171 -22.3511 -22.3511  20.7059  20.9430  27.3582  27.3582  27.8069
    27.9877  47.7965  47.7965  48.0426

          k = 0.6667-0.0000 0.6667 (   256 PWs)   bands (ev):

   -22.8637 -22.8542 -22.3067  21.3242  22.6721  24.2215  26.1903  27.7887
    36.4251  40.4115  42.9731  50.6631

     the Fermi energy is    27.8345 ev

!    total energy              =    -198.48236983 Ry
     Harris-Foulkes estimate   =    -198.48236983 Ry
     estimated scf accuracy    <          3.1E-09 Ry

     The total energy is the sum of the following terms:

     one-electron contribution =     -15.91592313 Ry
     hartree contribution      =      26.99825137 Ry
     xc contribution           =     -31.72353178 Ry
     ewald contribution        =    -177.83707445 Ry
     smearing contrib. (-TS)   =      -0.00409184 Ry

     convergence has been achieved in   7 iterations

     Writing output data file Pd-kp-conv.save/
 
     init_run     :      0.31s CPU      0.38s WALL (       1 calls)
     electrons    :      0.28s CPU      0.31s WALL (       1 calls)

     Called by init_run:
     wfcinit      :      0.01s CPU      0.06s WALL (       1 calls)
     potinit      :      0.00s CPU      0.01s WALL (       1 calls)
     hinit0       :      0.29s CPU      0.30s WALL (       1 calls)

     Called by electrons:
     c_bands      :      0.16s CPU      0.18s WALL (       7 calls)
     sum_band     :      0.07s CPU      0.07s WALL (       7 calls)
     v_of_rho     :      0.02s CPU      0.02s WALL (       8 calls)
     newd         :      0.03s CPU      0.04s WALL (       8 calls)
     mix_rho      :      0.00s CPU      0.00s WALL (       7 calls)

     Called by c_bands:
     init_us_2    :      0.00s CPU      0.00s WALL (      60 calls)
     cegterg      :      0.15s CPU      0.16s WALL (      28 calls)

     Called by sum_band:
     sum_band:bec :      0.00s CPU      0.00s WALL (      28 calls)
     addusdens    :      0.03s CPU      0.03s WALL (       7 calls)

     Called by *egterg:
     h_psi        :      0.12s CPU      0.13s WALL (      90 calls)
     s_psi        :      0.00s CPU      0.00s WALL (      90 calls)
     g_psi        :      0.00s CPU      0.00s WALL (      58 calls)
     cdiaghg      :      0.02s CPU      0.03s WALL (      86 calls)

     Called by h_psi:
     h_psi:pot    :      0.12s CPU      0.13s WALL (      90 calls)
     h_psi:calbec :      0.00s CPU      0.00s WALL (      90 calls)
     vloc_psi     :      0.11s CPU      0.12s WALL (      90 calls)
     add_vuspsi   :      0.00s CPU      0.00s WALL (      90 calls)

     General routines
     calbec       :      0.00s CPU      0.00s WALL (     118 calls)
     fft          :      0.01s CPU      0.01s WALL (      89 calls)
     ffts         :      0.00s CPU      0.00s WALL (       7 calls)
     fftw         :      0.11s CPU      0.12s WALL (    2048 calls)
 
     Parallel routines
     fft_scatt_xy :      0.02s CPU      0.02s WALL (    2144 calls)
     fft_scatt_yz :      0.03s CPU      0.04s WALL (    2144 calls)
 
     PWSCF        :     0.67s CPU         0.84s WALL

 
   This run was terminated on:  22:21:45   2Dec2021            

=------------------------------------------------------------------------------=
   JOB DONE.
=------------------------------------------------------------------------------=
