
     Program PWSCF v.6.3 starts on  2Dec2021 at 22:22: 8 

     This program is part of the open-source Quantum ESPRESSO suite
     for quantum simulation of materials; please cite
         "P. Giannozzi et al., J. Phys.:Condens. Matter 21 395502 (2009);
         "P. Giannozzi et al., J. Phys.:Condens. Matter 29 465901 (2017);
          URL http://www.quantum-espresso.org", 
     in publications or presentations arising from this work. More details at
     http://www.quantum-espresso.org/quote

     Parallel version (MPI & OpenMP), running on       2 processor cores
     Number of MPI processes:                 2
     Threads/MPI process:                     1

     MPI processes distributed on     1 nodes
     R & G space division:  proc/nbgrp/npool/nimage =       2
     Reading input from pw-input.in

     Current dimensions of program PWSCF are:
     Max number of different atomic species (ntypx) = 10
     Max number of k-points (npk) =  40000
     Max angular momentum in pseudopotentials (lmaxx) =  3

     Subspace diagonalization in iterative solution of the eigenvalue problem:
     a serial algorithm will be used

 
     Parallelization info
     --------------------
     sticks:   dense  smooth     PW     G-vecs:    dense   smooth      PW
     Min         150     150     45                 1738     1738     304
     Max         151     151     46                 1741     1741     305
     Sum         301     301     91                 3479     3479     609
 

     Title: 
     Pd-kp-conv                                                                 


     bravais-lattice index     =            2
     lattice parameter (alat)  =       7.9000  a.u.
     unit-cell volume          =     123.2598 (a.u.)^3
     number of atoms/cell      =            1
     number of atomic types    =            1
     number of electrons       =        16.00
     number of Kohn-Sham states=           12
     kinetic-energy cutoff     =      35.0000  Ry
     charge density cutoff     =     140.0000  Ry
     convergence threshold     =      1.0E-07
     mixing beta               =       0.7000
     number of iterations used =            8  plain     mixing
     Exchange-correlation      =  SLA  PW   PBX  PBC ( 1  4  3  4 0 0)

     celldm(1)=   7.900000  celldm(2)=   0.000000  celldm(3)=   0.000000
     celldm(4)=   0.000000  celldm(5)=   0.000000  celldm(6)=   0.000000

     crystal axes: (cart. coord. in units of alat)
               a(1) = (  -0.500000   0.000000   0.500000 )  
               a(2) = (   0.000000   0.500000   0.500000 )  
               a(3) = (  -0.500000   0.500000   0.000000 )  

     reciprocal axes: (cart. coord. in units 2 pi/alat)
               b(1) = ( -1.000000 -1.000000  1.000000 )  
               b(2) = (  1.000000  1.000000  1.000000 )  
               b(3) = ( -1.000000  1.000000 -1.000000 )  


     PseudoPot. # 1 for Pd read from file:
     ./pd_pbe_v1.4.uspp.F.UPF
     MD5 check sum: 2d733d2bc2cbfd217af676df1668a4bc
     Pseudo is Ultrasoft + core correction, Zval = 16.0
     Generated by new atomic code, or converted to UPF format
     Using radial grid of  887 points,  6 beta functions with: 
                l(1) =   0
                l(2) =   0
                l(3) =   1
                l(4) =   1
                l(5) =   2
                l(6) =   2
     Q(r) pseudized with  8 coefficients,  rinner =    1.130   1.130   1.130
                                                       1.130   1.130

     atomic species   valence    mass     pseudopotential
        Pd            16.00   106.40000     Pd( 1.00)

     48 Sym. Ops., with inversion, found



   Cartesian axes

     site n.     atom                  positions (alat units)
         1           Pd  tau(   1) = (   0.0000000   0.0000000   0.0000000  )

     number of k points=     4  Marzari-Vanderbilt smearing, width (Ry)=  0.0300
                       cart. coord. in units 2pi/alat
        k(    1) = (   0.0000000   0.0000000   0.0000000), wk =   0.0740741
        k(    2) = (  -0.3333333   0.3333333  -0.3333333), wk =   0.5925926
        k(    3) = (   0.0000000   0.6666667   0.0000000), wk =   0.4444444
        k(    4) = (   0.6666667  -0.0000000   0.6666667), wk =   0.8888889

     Dense  grid:     3479 G-vectors     FFT dimensions: (  24,  24,  24)

     Estimated max dynamical RAM per process >       7.62 MB

     Estimated total dynamical RAM >      15.23 MB

     Initial potential from superposition of free atoms
     Check: negative starting charge=   -0.079301

     starting charge   15.49999, renormalised to   16.00000

     negative rho (up, down):  8.186E-02 0.000E+00
     Starting wfcs are   12 randomized atomic wfcs

     total cpu time spent up to now is        0.5 secs

     Self-consistent Calculation

     iteration #  1     ecut=    35.00 Ry     beta= 0.70
     Davidson diagonalization with overlap
     ethr =  1.00E-02,  avg # of iterations =  4.0

     negative rho (up, down):  8.015E-02 0.000E+00

     total cpu time spent up to now is        0.6 secs

     total energy              =    -197.98295857 Ry
     Harris-Foulkes estimate   =    -199.04598173 Ry
     estimated scf accuracy    <       1.45080397 Ry

     iteration #  2     ecut=    35.00 Ry     beta= 0.70
     Davidson diagonalization with overlap
     ethr =  9.07E-03,  avg # of iterations =  2.0

     negative rho (up, down):  8.164E-02 0.000E+00

     total cpu time spent up to now is        0.7 secs

     total energy              =    -198.30421623 Ry
     Harris-Foulkes estimate   =    -199.20797986 Ry
     estimated scf accuracy    <       1.91436600 Ry

     iteration #  3     ecut=    35.00 Ry     beta= 0.70
     Davidson diagonalization with overlap
     ethr =  9.07E-03,  avg # of iterations =  2.0

     negative rho (up, down):  8.185E-02 0.000E+00

     total cpu time spent up to now is        0.7 secs

     total energy              =    -198.63904119 Ry
     Harris-Foulkes estimate   =    -198.64098430 Ry
     estimated scf accuracy    <       0.00426404 Ry

     iteration #  4     ecut=    35.00 Ry     beta= 0.70
     Davidson diagonalization with overlap
     ethr =  2.67E-05,  avg # of iterations =  2.5

     negative rho (up, down):  8.202E-02 0.000E+00

     total cpu time spent up to now is        0.8 secs

     total energy              =    -198.64034704 Ry
     Harris-Foulkes estimate   =    -198.64039269 Ry
     estimated scf accuracy    <       0.00010475 Ry

     iteration #  5     ecut=    35.00 Ry     beta= 0.70
     Davidson diagonalization with overlap
     ethr =  6.55E-07,  avg # of iterations =  2.0

     negative rho (up, down):  8.202E-02 0.000E+00

     total cpu time spent up to now is        0.9 secs

     total energy              =    -198.64037154 Ry
     Harris-Foulkes estimate   =    -198.64037638 Ry
     estimated scf accuracy    <       0.00001028 Ry

     iteration #  6     ecut=    35.00 Ry     beta= 0.70
     Davidson diagonalization with overlap
     ethr =  6.43E-08,  avg # of iterations =  2.0

     negative rho (up, down):  8.202E-02 0.000E+00

     total cpu time spent up to now is        0.9 secs

     total energy              =    -198.64037375 Ry
     Harris-Foulkes estimate   =    -198.64037380 Ry
     estimated scf accuracy    <       0.00000013 Ry

     iteration #  7     ecut=    35.00 Ry     beta= 0.70
     Davidson diagonalization with overlap
     ethr =  8.08E-10,  avg # of iterations =  2.0

     negative rho (up, down):  8.202E-02 0.000E+00

     total cpu time spent up to now is        1.0 secs

     End of self-consistent calculation

          k = 0.0000 0.0000 0.0000 (   411 PWs)   bands (ev):

   -35.4872 -35.4872 -35.4872   8.1781  11.7446  11.7446  11.7446  12.8519
    12.8519  31.1657  34.6750  34.6750

          k =-0.3333 0.3333-0.3333 (   425 PWs)   bands (ev):

   -35.6246 -35.5080 -35.5080   9.9640  11.8562  11.8562  12.7158  13.2927
    13.2927  23.6185  31.0980  34.1012

          k = 0.0000 0.6667 0.0000 (   432 PWs)   bands (ev):

   -35.6187 -35.5400 -35.5400  10.2529  10.5014  13.2279  13.2279  13.4534
    13.7864  27.7133  27.9106  27.9106

          k = 0.6667-0.0000 0.6667 (   431 PWs)   bands (ev):

   -35.6118 -35.6114 -35.5345  10.6731  11.2228  11.9017  12.7819  13.3963
    18.9785  21.5560  23.1733  29.5168

     the Fermi energy is    13.5326 ev

!    total energy              =    -198.64037378 Ry
     Harris-Foulkes estimate   =    -198.64037378 Ry
     estimated scf accuracy    <          4.0E-10 Ry

     The total energy is the sum of the following terms:

     one-electron contribution =     -60.16171101 Ry
     hartree contribution      =      41.32475262 Ry
     xc contribution           =     -31.22840297 Ry
     ewald contribution        =    -148.57274574 Ry
     smearing contrib. (-TS)   =      -0.00226668 Ry

     convergence has been achieved in   7 iterations

     Writing output data file Pd-kp-conv.save/
 
     init_run     :      0.36s CPU      0.39s WALL (       1 calls)
     electrons    :      0.44s CPU      0.83s WALL (       1 calls)

     Called by init_run:
     wfcinit      :      0.01s CPU      0.02s WALL (       1 calls)
     potinit      :      0.01s CPU      0.02s WALL (       1 calls)
     hinit0       :      0.32s CPU      0.33s WALL (       1 calls)

     Called by electrons:
     c_bands      :      0.25s CPU      0.27s WALL (       7 calls)
     sum_band     :      0.11s CPU      0.11s WALL (       7 calls)
     v_of_rho     :      0.04s CPU      0.04s WALL (       8 calls)
     newd         :      0.06s CPU      0.06s WALL (       8 calls)
     mix_rho      :      0.00s CPU      0.00s WALL (       7 calls)

     Called by c_bands:
     init_us_2    :      0.01s CPU      0.01s WALL (      60 calls)
     cegterg      :      0.24s CPU      0.25s WALL (      28 calls)

     Called by sum_band:
     sum_band:bec :      0.00s CPU      0.00s WALL (      28 calls)
     addusdens    :      0.05s CPU      0.06s WALL (       7 calls)

     Called by *egterg:
     h_psi        :      0.20s CPU      0.22s WALL (      98 calls)
     s_psi        :      0.00s CPU      0.00s WALL (      98 calls)
     g_psi        :      0.00s CPU      0.00s WALL (      66 calls)
     cdiaghg      :      0.03s CPU      0.03s WALL (      94 calls)

     Called by h_psi:
     h_psi:pot    :      0.20s CPU      0.21s WALL (      98 calls)
     h_psi:calbec :      0.00s CPU      0.00s WALL (      98 calls)
     vloc_psi     :      0.19s CPU      0.21s WALL (      98 calls)
     add_vuspsi   :      0.00s CPU      0.00s WALL (      98 calls)

     General routines
     calbec       :      0.00s CPU      0.01s WALL (     126 calls)
     fft          :      0.01s CPU      0.02s WALL (      89 calls)
     ffts         :      0.00s CPU      0.00s WALL (       7 calls)
     fftw         :      0.20s CPU      0.21s WALL (    2102 calls)
 
     Parallel routines
     fft_scatt_xy :      0.04s CPU      0.04s WALL (    2198 calls)
     fft_scatt_yz :      0.05s CPU      0.05s WALL (    2198 calls)
 
     PWSCF        :     0.89s CPU         1.37s WALL

 
   This run was terminated on:  22:22: 9   2Dec2021            

=------------------------------------------------------------------------------=
   JOB DONE.
=------------------------------------------------------------------------------=
