
     Program PWSCF v.6.3 starts on  2Dec2021 at 22:21:57 

     This program is part of the open-source Quantum ESPRESSO suite
     for quantum simulation of materials; please cite
         "P. Giannozzi et al., J. Phys.:Condens. Matter 21 395502 (2009);
         "P. Giannozzi et al., J. Phys.:Condens. Matter 29 465901 (2017);
          URL http://www.quantum-espresso.org", 
     in publications or presentations arising from this work. More details at
     http://www.quantum-espresso.org/quote

     Parallel version (MPI & OpenMP), running on       2 processor cores
     Number of MPI processes:                 2
     Threads/MPI process:                     1

     MPI processes distributed on     1 nodes
     R & G space division:  proc/nbgrp/npool/nimage =       2
     Reading input from pw-input.in

     Current dimensions of program PWSCF are:
     Max number of different atomic species (ntypx) = 10
     Max number of k-points (npk) =  40000
     Max angular momentum in pseudopotentials (lmaxx) =  3

     Subspace diagonalization in iterative solution of the eigenvalue problem:
     a serial algorithm will be used

 
     Parallelization info
     --------------------
     sticks:   dense  smooth     PW     G-vecs:    dense   smooth      PW
     Min         126     126     42                 1369     1369     264
     Max         127     127     43                 1372     1372     267
     Sum         253     253     85                 2741     2741     531
 

     Title: 
     Pd-kp-conv                                                                 


     bravais-lattice index     =            2
     lattice parameter (alat)  =       7.4000  a.u.
     unit-cell volume          =     101.3060 (a.u.)^3
     number of atoms/cell      =            1
     number of atomic types    =            1
     number of electrons       =        16.00
     number of Kohn-Sham states=           12
     kinetic-energy cutoff     =      35.0000  Ry
     charge density cutoff     =     140.0000  Ry
     convergence threshold     =      1.0E-07
     mixing beta               =       0.7000
     number of iterations used =            8  plain     mixing
     Exchange-correlation      =  SLA  PW   PBX  PBC ( 1  4  3  4 0 0)

     celldm(1)=   7.400000  celldm(2)=   0.000000  celldm(3)=   0.000000
     celldm(4)=   0.000000  celldm(5)=   0.000000  celldm(6)=   0.000000

     crystal axes: (cart. coord. in units of alat)
               a(1) = (  -0.500000   0.000000   0.500000 )  
               a(2) = (   0.000000   0.500000   0.500000 )  
               a(3) = (  -0.500000   0.500000   0.000000 )  

     reciprocal axes: (cart. coord. in units 2 pi/alat)
               b(1) = ( -1.000000 -1.000000  1.000000 )  
               b(2) = (  1.000000  1.000000  1.000000 )  
               b(3) = ( -1.000000  1.000000 -1.000000 )  


     PseudoPot. # 1 for Pd read from file:
     ./pd_pbe_v1.4.uspp.F.UPF
     MD5 check sum: 2d733d2bc2cbfd217af676df1668a4bc
     Pseudo is Ultrasoft + core correction, Zval = 16.0
     Generated by new atomic code, or converted to UPF format
     Using radial grid of  887 points,  6 beta functions with: 
                l(1) =   0
                l(2) =   0
                l(3) =   1
                l(4) =   1
                l(5) =   2
                l(6) =   2
     Q(r) pseudized with  8 coefficients,  rinner =    1.130   1.130   1.130
                                                       1.130   1.130

     atomic species   valence    mass     pseudopotential
        Pd            16.00   106.40000     Pd( 1.00)

     48 Sym. Ops., with inversion, found



   Cartesian axes

     site n.     atom                  positions (alat units)
         1           Pd  tau(   1) = (   0.0000000   0.0000000   0.0000000  )

     number of k points=     4  Marzari-Vanderbilt smearing, width (Ry)=  0.0300
                       cart. coord. in units 2pi/alat
        k(    1) = (   0.0000000   0.0000000   0.0000000), wk =   0.0740741
        k(    2) = (  -0.3333333   0.3333333  -0.3333333), wk =   0.5925926
        k(    3) = (   0.0000000   0.6666667   0.0000000), wk =   0.4444444
        k(    4) = (   0.6666667  -0.0000000   0.6666667), wk =   0.8888889

     Dense  grid:     2741 G-vectors     FFT dimensions: (  20,  20,  20)

     Estimated max dynamical RAM per process >       6.08 MB

     Estimated total dynamical RAM >      12.16 MB

     Initial potential from superposition of free atoms
     Check: negative starting charge=   -0.084791

     starting charge   15.49999, renormalised to   16.00000

     negative rho (up, down):  8.753E-02 0.000E+00
     Starting wfcs are   12 randomized atomic wfcs

     total cpu time spent up to now is        0.5 secs

     Self-consistent Calculation

     iteration #  1     ecut=    35.00 Ry     beta= 0.70
     Davidson diagonalization with overlap
     ethr =  1.00E-02,  avg # of iterations =  4.0

     negative rho (up, down):  8.715E-02 0.000E+00

     total cpu time spent up to now is        0.5 secs

     total energy              =    -198.16362508 Ry
     Harris-Foulkes estimate   =    -198.99536525 Ry
     estimated scf accuracy    <       1.15140987 Ry

     iteration #  2     ecut=    35.00 Ry     beta= 0.70
     Davidson diagonalization with overlap
     ethr =  7.20E-03,  avg # of iterations =  2.0

     negative rho (up, down):  8.824E-02 0.000E+00

     total cpu time spent up to now is        0.6 secs

     total energy              =    -198.36895306 Ry
     Harris-Foulkes estimate   =    -198.98333582 Ry
     estimated scf accuracy    <       1.26621956 Ry

     iteration #  3     ecut=    35.00 Ry     beta= 0.70
     Davidson diagonalization with overlap
     ethr =  7.20E-03,  avg # of iterations =  2.0

     negative rho (up, down):  8.908E-02 0.000E+00

     total cpu time spent up to now is        0.6 secs

     total energy              =    -198.63397934 Ry
     Harris-Foulkes estimate   =    -198.64581463 Ry
     estimated scf accuracy    <       0.02037776 Ry

     iteration #  4     ecut=    35.00 Ry     beta= 0.70
     Davidson diagonalization with overlap
     ethr =  1.27E-04,  avg # of iterations =  2.0

     negative rho (up, down):  8.905E-02 0.000E+00

     total cpu time spent up to now is        0.7 secs

     total energy              =    -198.64345089 Ry
     Harris-Foulkes estimate   =    -198.64492739 Ry
     estimated scf accuracy    <       0.01181171 Ry

     iteration #  5     ecut=    35.00 Ry     beta= 0.70
     Davidson diagonalization with overlap
     ethr =  7.38E-05,  avg # of iterations =  1.0

     negative rho (up, down):  8.880E-02 0.000E+00

     total cpu time spent up to now is        0.7 secs

     total energy              =    -198.64011053 Ry
     Harris-Foulkes estimate   =    -198.64357576 Ry
     estimated scf accuracy    <       0.00674682 Ry

     iteration #  6     ecut=    35.00 Ry     beta= 0.70
     Davidson diagonalization with overlap
     ethr =  4.22E-05,  avg # of iterations =  2.0

     negative rho (up, down):  8.890E-02 0.000E+00

     total cpu time spent up to now is        0.8 secs

     total energy              =    -198.64181730 Ry
     Harris-Foulkes estimate   =    -198.64219019 Ry
     estimated scf accuracy    <       0.00111784 Ry

     iteration #  7     ecut=    35.00 Ry     beta= 0.70
     Davidson diagonalization with overlap
     ethr =  6.99E-06,  avg # of iterations =  1.2

     negative rho (up, down):  8.896E-02 0.000E+00

     total cpu time spent up to now is        0.8 secs

     total energy              =    -198.64195034 Ry
     Harris-Foulkes estimate   =    -198.64195428 Ry
     estimated scf accuracy    <       0.00001766 Ry

     iteration #  8     ecut=    35.00 Ry     beta= 0.70
     Davidson diagonalization with overlap
     ethr =  1.10E-07,  avg # of iterations =  1.8

     negative rho (up, down):  8.901E-02 0.000E+00

     total cpu time spent up to now is        0.9 secs

     total energy              =    -198.64195111 Ry
     Harris-Foulkes estimate   =    -198.64195179 Ry
     estimated scf accuracy    <       0.00000345 Ry

     iteration #  9     ecut=    35.00 Ry     beta= 0.70
     Davidson diagonalization with overlap
     ethr =  2.16E-08,  avg # of iterations =  1.0

     negative rho (up, down):  8.901E-02 0.000E+00

     total cpu time spent up to now is        0.9 secs

     total energy              =    -198.64195108 Ry
     Harris-Foulkes estimate   =    -198.64195127 Ry
     estimated scf accuracy    <       0.00000080 Ry

     iteration # 10     ecut=    35.00 Ry     beta= 0.70
     Davidson diagonalization with overlap
     ethr =  5.03E-09,  avg # of iterations =  1.0

     negative rho (up, down):  8.901E-02 0.000E+00

     total cpu time spent up to now is        0.9 secs

     total energy              =    -198.64195109 Ry
     Harris-Foulkes estimate   =    -198.64195113 Ry
     estimated scf accuracy    <       0.00000011 Ry

     iteration # 11     ecut=    35.00 Ry     beta= 0.70
     Davidson diagonalization with overlap
     ethr =  7.19E-10,  avg # of iterations =  2.0

     negative rho (up, down):  8.901E-02 0.000E+00

     total cpu time spent up to now is        1.0 secs

     End of self-consistent calculation

          k = 0.0000 0.0000 0.0000 (   339 PWs)   bands (ev):

   -31.4620 -31.4620 -31.4620  11.2414  15.4514  15.4514  15.4514  16.9851
    16.9851  36.1546  40.7958  40.7958

          k =-0.3333 0.3333-0.3333 (   359 PWs)   bands (ev):

   -31.7501 -31.5035 -31.5035  13.1729  15.5926  15.5926  16.5779  17.5870
    17.5870  29.6136  36.2748  41.2306

          k = 0.0000 0.6667 0.0000 (   355 PWs)   bands (ev):

   -31.7364 -31.5697 -31.5697  13.4491  13.7425  17.4923  17.4923  17.8199
    17.9286  33.9988  33.9988  34.0554

          k = 0.6667-0.0000 0.6667 (   353 PWs)   bands (ev):

   -31.7214 -31.7196 -31.5571  13.9729  14.6935  15.6318  16.8549  17.7357
    24.1956  27.1265  29.1752  35.9745

     the Fermi energy is    17.8440 ev

!    total energy              =    -198.64195111 Ry
     Harris-Foulkes estimate   =    -198.64195111 Ry
     estimated scf accuracy    <          1.2E-09 Ry

     The total energy is the sum of the following terms:

     one-electron contribution =     -44.53552666 Ry
     hartree contribution      =      35.85517555 Ry
     xc contribution           =     -31.34379575 Ry
     ewald contribution        =    -158.61144480 Ry
     smearing contrib. (-TS)   =      -0.00635944 Ry

     convergence has been achieved in  11 iterations

     Writing output data file Pd-kp-conv.save/
 
     init_run     :      0.34s CPU      0.36s WALL (       1 calls)
     electrons    :      0.47s CPU      0.88s WALL (       1 calls)

     Called by init_run:
     wfcinit      :      0.01s CPU      0.01s WALL (       1 calls)
     potinit      :      0.00s CPU      0.02s WALL (       1 calls)
     hinit0       :      0.31s CPU      0.32s WALL (       1 calls)

     Called by electrons:
     c_bands      :      0.26s CPU      0.28s WALL (      11 calls)
     sum_band     :      0.12s CPU      0.13s WALL (      11 calls)
     v_of_rho     :      0.03s CPU      0.04s WALL (      12 calls)
     newd         :      0.06s CPU      0.07s WALL (      12 calls)
     mix_rho      :      0.01s CPU      0.01s WALL (      11 calls)

     Called by c_bands:
     init_us_2    :      0.01s CPU      0.01s WALL (      92 calls)
     cegterg      :      0.24s CPU      0.26s WALL (      44 calls)

     Called by sum_band:
     sum_band:bec :      0.00s CPU      0.00s WALL (      44 calls)
     addusdens    :      0.07s CPU      0.07s WALL (      11 calls)

     Called by *egterg:
     h_psi        :      0.19s CPU      0.21s WALL (     128 calls)
     s_psi        :      0.00s CPU      0.00s WALL (     128 calls)
     g_psi        :      0.00s CPU      0.00s WALL (      80 calls)
     cdiaghg      :      0.03s CPU      0.03s WALL (     124 calls)

     Called by h_psi:
     h_psi:pot    :      0.19s CPU      0.20s WALL (     128 calls)
     h_psi:calbec :      0.00s CPU      0.01s WALL (     128 calls)
     vloc_psi     :      0.18s CPU      0.19s WALL (     128 calls)
     add_vuspsi   :      0.00s CPU      0.00s WALL (     128 calls)

     General routines
     calbec       :      0.01s CPU      0.01s WALL (     172 calls)
     fft          :      0.01s CPU      0.02s WALL (     133 calls)
     ffts         :      0.00s CPU      0.00s WALL (      11 calls)
     fftw         :      0.19s CPU      0.20s WALL (    3004 calls)
 
     Parallel routines
     fft_scatt_xy :      0.04s CPU      0.04s WALL (    3148 calls)
     fft_scatt_yz :      0.05s CPU      0.06s WALL (    3148 calls)
 
     PWSCF        :     0.88s CPU         1.39s WALL

 
   This run was terminated on:  22:21:59   2Dec2021            

=------------------------------------------------------------------------------=
   JOB DONE.
=------------------------------------------------------------------------------=
