
     Program PWSCF v.6.3 starts on  2Dec2021 at 22:22:10 

     This program is part of the open-source Quantum ESPRESSO suite
     for quantum simulation of materials; please cite
         "P. Giannozzi et al., J. Phys.:Condens. Matter 21 395502 (2009);
         "P. Giannozzi et al., J. Phys.:Condens. Matter 29 465901 (2017);
          URL http://www.quantum-espresso.org", 
     in publications or presentations arising from this work. More details at
     http://www.quantum-espresso.org/quote

     Parallel version (MPI & OpenMP), running on       2 processor cores
     Number of MPI processes:                 2
     Threads/MPI process:                     1

     MPI processes distributed on     1 nodes
     R & G space division:  proc/nbgrp/npool/nimage =       2
     Reading input from pw-input.in

     Current dimensions of program PWSCF are:
     Max number of different atomic species (ntypx) = 10
     Max number of k-points (npk) =  40000
     Max angular momentum in pseudopotentials (lmaxx) =  3

     Subspace diagonalization in iterative solution of the eigenvalue problem:
     a serial algorithm will be used

 
     Parallelization info
     --------------------
     sticks:   dense  smooth     PW     G-vecs:    dense   smooth      PW
     Min         156     156     45                 1763     1763     304
     Max         157     157     46                 1764     1764     305
     Sum         313     313     91                 3527     3527     609
 

     Title: 
     Pd-kp-conv                                                                 


     bravais-lattice index     =            2
     lattice parameter (alat)  =       8.0000  a.u.
     unit-cell volume          =     128.0000 (a.u.)^3
     number of atoms/cell      =            1
     number of atomic types    =            1
     number of electrons       =        16.00
     number of Kohn-Sham states=           12
     kinetic-energy cutoff     =      35.0000  Ry
     charge density cutoff     =     140.0000  Ry
     convergence threshold     =      1.0E-07
     mixing beta               =       0.7000
     number of iterations used =            8  plain     mixing
     Exchange-correlation      =  SLA  PW   PBX  PBC ( 1  4  3  4 0 0)

     celldm(1)=   8.000000  celldm(2)=   0.000000  celldm(3)=   0.000000
     celldm(4)=   0.000000  celldm(5)=   0.000000  celldm(6)=   0.000000

     crystal axes: (cart. coord. in units of alat)
               a(1) = (  -0.500000   0.000000   0.500000 )  
               a(2) = (   0.000000   0.500000   0.500000 )  
               a(3) = (  -0.500000   0.500000   0.000000 )  

     reciprocal axes: (cart. coord. in units 2 pi/alat)
               b(1) = ( -1.000000 -1.000000  1.000000 )  
               b(2) = (  1.000000  1.000000  1.000000 )  
               b(3) = ( -1.000000  1.000000 -1.000000 )  


     PseudoPot. # 1 for Pd read from file:
     ./pd_pbe_v1.4.uspp.F.UPF
     MD5 check sum: 2d733d2bc2cbfd217af676df1668a4bc
     Pseudo is Ultrasoft + core correction, Zval = 16.0
     Generated by new atomic code, or converted to UPF format
     Using radial grid of  887 points,  6 beta functions with: 
                l(1) =   0
                l(2) =   0
                l(3) =   1
                l(4) =   1
                l(5) =   2
                l(6) =   2
     Q(r) pseudized with  8 coefficients,  rinner =    1.130   1.130   1.130
                                                       1.130   1.130

     atomic species   valence    mass     pseudopotential
        Pd            16.00   106.40000     Pd( 1.00)

     48 Sym. Ops., with inversion, found



   Cartesian axes

     site n.     atom                  positions (alat units)
         1           Pd  tau(   1) = (   0.0000000   0.0000000   0.0000000  )

     number of k points=     4  Marzari-Vanderbilt smearing, width (Ry)=  0.0300
                       cart. coord. in units 2pi/alat
        k(    1) = (   0.0000000   0.0000000   0.0000000), wk =   0.0740741
        k(    2) = (  -0.3333333   0.3333333  -0.3333333), wk =   0.5925926
        k(    3) = (   0.0000000   0.6666667   0.0000000), wk =   0.4444444
        k(    4) = (   0.6666667  -0.0000000   0.6666667), wk =   0.8888889

     Dense  grid:     3527 G-vectors     FFT dimensions: (  24,  24,  24)

     Estimated max dynamical RAM per process >       7.72 MB

     Estimated total dynamical RAM >      15.44 MB

     Check: negative/imaginary core charge=   -0.000001    0.000000

     Initial potential from superposition of free atoms
     Check: negative starting charge=   -0.080332

     starting charge   15.49999, renormalised to   16.00000

     negative rho (up, down):  8.292E-02 0.000E+00
     Starting wfcs are   12 randomized atomic wfcs

     total cpu time spent up to now is        0.5 secs

     Self-consistent Calculation

     iteration #  1     ecut=    35.00 Ry     beta= 0.70
     Davidson diagonalization with overlap
     ethr =  1.00E-02,  avg # of iterations =  3.2

     negative rho (up, down):  8.045E-02 0.000E+00

     total cpu time spent up to now is        0.6 secs

     total energy              =    -197.94148993 Ry
     Harris-Foulkes estimate   =    -199.05029335 Ry
     estimated scf accuracy    <       1.50969052 Ry

     iteration #  2     ecut=    35.00 Ry     beta= 0.70
     Davidson diagonalization with overlap
     ethr =  9.44E-03,  avg # of iterations =  2.0

     negative rho (up, down):  8.264E-02 0.000E+00

     total cpu time spent up to now is        0.7 secs

     total energy              =    -198.29206944 Ry
     Harris-Foulkes estimate   =    -199.25268031 Ry
     estimated scf accuracy    <       2.04138213 Ry

     iteration #  3     ecut=    35.00 Ry     beta= 0.70
     Davidson diagonalization with overlap
     ethr =  9.44E-03,  avg # of iterations =  2.0

     negative rho (up, down):  8.280E-02 0.000E+00

     total cpu time spent up to now is        0.7 secs

     total energy              =    -198.63529130 Ry
     Harris-Foulkes estimate   =    -198.63635195 Ry
     estimated scf accuracy    <       0.00243798 Ry

     iteration #  4     ecut=    35.00 Ry     beta= 0.70
     Davidson diagonalization with overlap
     ethr =  1.52E-05,  avg # of iterations =  3.0

     negative rho (up, down):  8.298E-02 0.000E+00

     total cpu time spent up to now is        0.8 secs

     total energy              =    -198.63617673 Ry
     Harris-Foulkes estimate   =    -198.63617364 Ry
     estimated scf accuracy    <       0.00001869 Ry

     iteration #  5     ecut=    35.00 Ry     beta= 0.70
     Davidson diagonalization with overlap
     ethr =  1.17E-07,  avg # of iterations =  1.8

     negative rho (up, down):  8.298E-02 0.000E+00

     total cpu time spent up to now is        0.8 secs

     total energy              =    -198.63617852 Ry
     Harris-Foulkes estimate   =    -198.63617849 Ry
     estimated scf accuracy    <       0.00000013 Ry

     iteration #  6     ecut=    35.00 Ry     beta= 0.70
     Davidson diagonalization with overlap
     ethr =  8.43E-10,  avg # of iterations =  2.0

     negative rho (up, down):  8.298E-02 0.000E+00

     total cpu time spent up to now is        0.9 secs

     End of self-consistent calculation

          k = 0.0000 0.0000 0.0000 (   459 PWs)   bands (ev):

   -36.1819 -36.1819 -36.1819   7.6666  11.0967  11.0967  11.0967  12.1373
    12.1373  30.2850  33.5810  33.5810

          k =-0.3333 0.3333-0.3333 (   450 PWs)   bands (ev):

   -36.2999 -36.1997 -36.1997   9.4123  11.2048  11.2048  12.0581  12.5524
    12.5524  22.5959  30.1893  32.8604

          k = 0.0000 0.6667 0.0000 (   444 PWs)   bands (ev):

   -36.2948 -36.2274 -36.2274   9.6995   9.9325  12.4926  12.4926  12.7011
    13.0840  26.6092  26.8621  26.8621

          k = 0.6667-0.0000 0.6667 (   443 PWs)   bands (ev):

   -36.2893 -36.2886 -36.2225  10.0957  10.6208  11.2556  12.0769  12.6499
    18.0917  20.6160  22.1477  28.4057

     the Fermi energy is    12.7882 ev

!    total energy              =    -198.63617855 Ry
     Harris-Foulkes estimate   =    -198.63617854 Ry
     estimated scf accuracy    <          2.9E-09 Ry

     The total energy is the sum of the following terms:

     one-electron contribution =     -63.09638124 Ry
     hartree contribution      =      42.38732230 Ry
     xc contribution           =     -31.21032142 Ry
     ewald contribution        =    -146.71558644 Ry
     smearing contrib. (-TS)   =      -0.00121175 Ry

     convergence has been achieved in   6 iterations

     Writing output data file Pd-kp-conv.save/
 
     init_run     :      0.37s CPU      0.39s WALL (       1 calls)
     electrons    :      0.38s CPU      0.42s WALL (       1 calls)

     Called by init_run:
     wfcinit      :      0.01s CPU      0.02s WALL (       1 calls)
     potinit      :      0.01s CPU      0.02s WALL (       1 calls)
     hinit0       :      0.33s CPU      0.33s WALL (       1 calls)

     Called by electrons:
     c_bands      :      0.22s CPU      0.23s WALL (       6 calls)
     sum_band     :      0.09s CPU      0.10s WALL (       6 calls)
     v_of_rho     :      0.03s CPU      0.03s WALL (       7 calls)
     newd         :      0.05s CPU      0.05s WALL (       7 calls)
     mix_rho      :      0.00s CPU      0.00s WALL (       6 calls)

     Called by c_bands:
     init_us_2    :      0.01s CPU      0.01s WALL (      52 calls)
     cegterg      :      0.20s CPU      0.21s WALL (      24 calls)

     Called by sum_band:
     sum_band:bec :      0.00s CPU      0.00s WALL (      24 calls)
     addusdens    :      0.05s CPU      0.05s WALL (       6 calls)

     Called by *egterg:
     h_psi        :      0.17s CPU      0.18s WALL (      84 calls)
     s_psi        :      0.00s CPU      0.00s WALL (      84 calls)
     g_psi        :      0.00s CPU      0.00s WALL (      56 calls)
     cdiaghg      :      0.02s CPU      0.02s WALL (      80 calls)

     Called by h_psi:
     h_psi:pot    :      0.17s CPU      0.18s WALL (      84 calls)
     h_psi:calbec :      0.00s CPU      0.00s WALL (      84 calls)
     vloc_psi     :      0.16s CPU      0.17s WALL (      84 calls)
     add_vuspsi   :      0.00s CPU      0.00s WALL (      84 calls)

     General routines
     calbec       :      0.00s CPU      0.00s WALL (     108 calls)
     fft          :      0.01s CPU      0.01s WALL (      78 calls)
     ffts         :      0.00s CPU      0.00s WALL (       6 calls)
     fftw         :      0.17s CPU      0.18s WALL (    1802 calls)
 
     Parallel routines
     fft_scatt_xy :      0.03s CPU      0.04s WALL (    1886 calls)
     fft_scatt_yz :      0.04s CPU      0.04s WALL (    1886 calls)
 
     PWSCF        :     0.84s CPU         0.99s WALL

 
   This run was terminated on:  22:22:11   2Dec2021            

=------------------------------------------------------------------------------=
   JOB DONE.
=------------------------------------------------------------------------------=
