
     Program PWSCF v.6.3 starts on  2Dec2021 at 22:22:18 

     This program is part of the open-source Quantum ESPRESSO suite
     for quantum simulation of materials; please cite
         "P. Giannozzi et al., J. Phys.:Condens. Matter 21 395502 (2009);
         "P. Giannozzi et al., J. Phys.:Condens. Matter 29 465901 (2017);
          URL http://www.quantum-espresso.org", 
     in publications or presentations arising from this work. More details at
     http://www.quantum-espresso.org/quote

     Parallel version (MPI & OpenMP), running on       2 processor cores
     Number of MPI processes:                 2
     Threads/MPI process:                     1

     MPI processes distributed on     1 nodes
     R & G space division:  proc/nbgrp/npool/nimage =       2
     Reading input from pw-input.in

     Current dimensions of program PWSCF are:
     Max number of different atomic species (ntypx) = 10
     Max number of k-points (npk) =  40000
     Max angular momentum in pseudopotentials (lmaxx) =  3

     Subspace diagonalization in iterative solution of the eigenvalue problem:
     a serial algorithm will be used

 
     Parallelization info
     --------------------
     sticks:   dense  smooth     PW     G-vecs:    dense   smooth      PW
     Min         174     174     54                 2055     2055     362
     Max         175     175     55                 2056     2056     363
     Sum         349     349    109                 4111     4111     725
 

     Title: 
     Pd-kp-conv                                                                 


     bravais-lattice index     =            2
     lattice parameter (alat)  =       8.4000  a.u.
     unit-cell volume          =     148.1760 (a.u.)^3
     number of atoms/cell      =            1
     number of atomic types    =            1
     number of electrons       =        16.00
     number of Kohn-Sham states=           12
     kinetic-energy cutoff     =      35.0000  Ry
     charge density cutoff     =     140.0000  Ry
     convergence threshold     =      1.0E-07
     mixing beta               =       0.7000
     number of iterations used =            8  plain     mixing
     Exchange-correlation      =  SLA  PW   PBX  PBC ( 1  4  3  4 0 0)

     celldm(1)=   8.400000  celldm(2)=   0.000000  celldm(3)=   0.000000
     celldm(4)=   0.000000  celldm(5)=   0.000000  celldm(6)=   0.000000

     crystal axes: (cart. coord. in units of alat)
               a(1) = (  -0.500000   0.000000   0.500000 )  
               a(2) = (   0.000000   0.500000   0.500000 )  
               a(3) = (  -0.500000   0.500000   0.000000 )  

     reciprocal axes: (cart. coord. in units 2 pi/alat)
               b(1) = ( -1.000000 -1.000000  1.000000 )  
               b(2) = (  1.000000  1.000000  1.000000 )  
               b(3) = ( -1.000000  1.000000 -1.000000 )  


     PseudoPot. # 1 for Pd read from file:
     ./pd_pbe_v1.4.uspp.F.UPF
     MD5 check sum: 2d733d2bc2cbfd217af676df1668a4bc
     Pseudo is Ultrasoft + core correction, Zval = 16.0
     Generated by new atomic code, or converted to UPF format
     Using radial grid of  887 points,  6 beta functions with: 
                l(1) =   0
                l(2) =   0
                l(3) =   1
                l(4) =   1
                l(5) =   2
                l(6) =   2
     Q(r) pseudized with  8 coefficients,  rinner =    1.130   1.130   1.130
                                                       1.130   1.130

     atomic species   valence    mass     pseudopotential
        Pd            16.00   106.40000     Pd( 1.00)

     48 Sym. Ops., with inversion, found



   Cartesian axes

     site n.     atom                  positions (alat units)
         1           Pd  tau(   1) = (   0.0000000   0.0000000   0.0000000  )

     number of k points=     4  Marzari-Vanderbilt smearing, width (Ry)=  0.0300
                       cart. coord. in units 2pi/alat
        k(    1) = (   0.0000000   0.0000000   0.0000000), wk =   0.0740741
        k(    2) = (  -0.3333333   0.3333333  -0.3333333), wk =   0.5925926
        k(    3) = (   0.0000000   0.6666667   0.0000000), wk =   0.4444444
        k(    4) = (   0.6666667  -0.0000000   0.6666667), wk =   0.8888889

     Dense  grid:     4111 G-vectors     FFT dimensions: (  24,  24,  24)

     Estimated max dynamical RAM per process >       8.77 MB

     Estimated total dynamical RAM >      17.55 MB

     Check: negative/imaginary core charge=   -0.000001    0.000000

     Initial potential from superposition of free atoms
     Check: negative starting charge=   -0.083520

     starting charge   15.49999, renormalised to   16.00000

     negative rho (up, down):  8.621E-02 0.000E+00
     Starting wfcs are   12 randomized atomic wfcs

     total cpu time spent up to now is        0.5 secs

     Self-consistent Calculation

     iteration #  1     ecut=    35.00 Ry     beta= 0.70
     Davidson diagonalization with overlap
     ethr =  1.00E-02,  avg # of iterations =  3.0

     negative rho (up, down):  8.332E-02 0.000E+00

     total cpu time spent up to now is        0.6 secs

     total energy              =    -197.77583646 Ry
     Harris-Foulkes estimate   =    -199.05446103 Ry
     estimated scf accuracy    <       1.72582970 Ry

     iteration #  2     ecut=    35.00 Ry     beta= 0.70
     Davidson diagonalization with overlap
     ethr =  1.00E-02,  avg # of iterations =  2.0

     negative rho (up, down):  8.558E-02 0.000E+00

     total cpu time spent up to now is        0.7 secs

     total energy              =    -198.20490321 Ry
     Harris-Foulkes estimate   =    -199.42599601 Ry
     estimated scf accuracy    <       2.65237366 Ry

     iteration #  3     ecut=    35.00 Ry     beta= 0.70
     Davidson diagonalization with overlap
     ethr =  1.00E-02,  avg # of iterations =  2.0

     negative rho (up, down):  8.574E-02 0.000E+00

     total cpu time spent up to now is        0.7 secs

     total energy              =    -198.61250326 Ry
     Harris-Foulkes estimate   =    -198.61249827 Ry
     estimated scf accuracy    <       0.00012015 Ry

     iteration #  4     ecut=    35.00 Ry     beta= 0.70
     Davidson diagonalization with overlap
     ethr =  7.51E-07,  avg # of iterations =  3.5

     negative rho (up, down):  8.587E-02 0.000E+00

     total cpu time spent up to now is        0.8 secs

     total energy              =    -198.61271942 Ry
     Harris-Foulkes estimate   =    -198.61271405 Ry
     estimated scf accuracy    <       0.00001318 Ry

     iteration #  5     ecut=    35.00 Ry     beta= 0.70
     Davidson diagonalization with overlap
     ethr =  8.24E-08,  avg # of iterations =  2.0

     negative rho (up, down):  8.587E-02 0.000E+00

     total cpu time spent up to now is        0.9 secs

     total energy              =    -198.61272040 Ry
     Harris-Foulkes estimate   =    -198.61272045 Ry
     estimated scf accuracy    <       0.00000030 Ry

     iteration #  6     ecut=    35.00 Ry     beta= 0.70
     Davidson diagonalization with overlap
     ethr =  1.87E-09,  avg # of iterations =  1.5

     negative rho (up, down):  8.587E-02 0.000E+00

     total cpu time spent up to now is        0.9 secs

     End of self-consistent calculation

          k = 0.0000 0.0000 0.0000 (   531 PWs)   bands (ev):

   -38.5721 -38.5721 -38.5721   5.8940   8.8396   8.8396   8.8396   9.6526
     9.6526  27.0952  29.5711  29.5711

          k =-0.3333 0.3333-0.3333 (   516 PWs)   bands (ev):

   -38.6372 -38.5819 -38.5819   7.4834   8.9311   8.9311   9.7604   9.9812
     9.9812  19.0120  26.9039  28.4292

          k = 0.0000 0.6667 0.0000 (   512 PWs)   bands (ev):

   -38.6346 -38.5972 -38.5972   7.7534   7.9344   9.9374   9.9374  10.0945
    10.6345  22.6699  23.1436  23.1436

          k = 0.6667-0.0000 0.6667 (   528 PWs)   bands (ev):

   -38.6319 -38.6317 -38.5950   8.0660   8.5081   8.9965   9.6193  10.0529
    14.9926  17.3465  18.5459  24.4686

     the Fermi energy is    10.2091 ev

!    total energy              =    -198.61272044 Ry
     Harris-Foulkes estimate   =    -198.61272044 Ry
     estimated scf accuracy    <          4.9E-09 Ry

     The total energy is the sum of the following terms:

     one-electron contribution =     -74.32772199 Ry
     hartree contribution      =      46.60709778 Ry
     xc contribution           =     -31.16296947 Ry
     ewald contribution        =    -139.72912994 Ry
     smearing contrib. (-TS)   =       0.00000318 Ry

     convergence has been achieved in   6 iterations

     Writing output data file Pd-kp-conv.save/
 
     init_run     :      0.38s CPU      0.40s WALL (       1 calls)
     electrons    :      0.41s CPU      0.48s WALL (       1 calls)

     Called by init_run:
     wfcinit      :      0.02s CPU      0.02s WALL (       1 calls)
     potinit      :      0.01s CPU      0.02s WALL (       1 calls)
     hinit0       :      0.34s CPU      0.34s WALL (       1 calls)

     Called by electrons:
     c_bands      :      0.23s CPU      0.25s WALL (       6 calls)
     sum_band     :      0.10s CPU      0.10s WALL (       6 calls)
     v_of_rho     :      0.03s CPU      0.03s WALL (       7 calls)
     newd         :      0.06s CPU      0.06s WALL (       7 calls)
     mix_rho      :      0.00s CPU      0.00s WALL (       6 calls)

     Called by c_bands:
     init_us_2    :      0.01s CPU      0.01s WALL (      52 calls)
     cegterg      :      0.21s CPU      0.23s WALL (      24 calls)

     Called by sum_band:
     sum_band:bec :      0.00s CPU      0.00s WALL (      24 calls)
     addusdens    :      0.05s CPU      0.06s WALL (       6 calls)

     Called by *egterg:
     h_psi        :      0.18s CPU      0.19s WALL (      84 calls)
     s_psi        :      0.00s CPU      0.00s WALL (      84 calls)
     g_psi        :      0.00s CPU      0.00s WALL (      56 calls)
     cdiaghg      :      0.02s CPU      0.02s WALL (      80 calls)

     Called by h_psi:
     h_psi:pot    :      0.18s CPU      0.19s WALL (      84 calls)
     h_psi:calbec :      0.00s CPU      0.00s WALL (      84 calls)
     vloc_psi     :      0.17s CPU      0.18s WALL (      84 calls)
     add_vuspsi   :      0.00s CPU      0.00s WALL (      84 calls)

     General routines
     calbec       :      0.01s CPU      0.01s WALL (     108 calls)
     fft          :      0.01s CPU      0.02s WALL (      78 calls)
     ffts         :      0.00s CPU      0.00s WALL (       6 calls)
     fftw         :      0.17s CPU      0.19s WALL (    1840 calls)
 
     Parallel routines
     fft_scatt_xy :      0.03s CPU      0.04s WALL (    1924 calls)
     fft_scatt_yz :      0.04s CPU      0.05s WALL (    1924 calls)
 
     PWSCF        :     0.88s CPU         1.21s WALL

 
   This run was terminated on:  22:22:19   2Dec2021            

=------------------------------------------------------------------------------=
   JOB DONE.
=------------------------------------------------------------------------------=
