 *******************************************************************************
 ** Site#: 22750        For non-commercial use only    Version 18.151L 64BITS **
 *******************************************************************************
 ** Cite this program as: MOPAC2016, Version: 18.151L, James J. P. Stewart,   **
 ** Stewart Computational Chemistry, web-site: HTTP://OpenMOPAC.net.          **
 *******************************************************************************
 **                                                                           **
 **                                MOPAC2016                                  **
 **                                                                           **
 *******************************************************************************

                              RM1 CALCULATION RESULTS

 *******************************************************************************
 *  CALCULATION DONE:                                Tue Nov  2 13:28:13 2021  *
 *  RM1        - The RM1 Hamiltonian to be used
 *
 *
 *
 *                 CHARGE ON SYSTEM = 0
 *
 *
 *
 *  PRECISE    - CRITERIA TO BE INCREASED BY 100 TIMES
 *  XYZ        - CARTESIAN COORDINATE SYSTEM TO BE USED
 *  T=         - A TIME OF 172800.0 SECONDS REQUESTED
 *  DUMP=N     - RESTART FILE WRITTEN EVERY  7200.000 SECONDS
 *******************************************************************************
CHARGE=0 RM1 PRECISE XYZ
 Molecula CBr SemiEmp Opt

   ATOM   CHEMICAL          X               Y               Z
  NUMBER   SYMBOL      (ANGSTROMS)     (ANGSTROMS)     (ANGSTROMS)
 
     1       C          0.00000000  *   0.00000000  *  -1.53955800  *
     2      Br          0.00000000  *   0.00000000  *   0.26392400  *
 


          CARTESIAN COORDINATES 

    NO.       ATOM           X           Y           Z

     1         C          0.0000      0.0000     -1.5396
     2        Br          0.0000      0.0000      0.2639

  C: (RM1): G.B. ROCHA, R.O. FREIRE, A.M.SIMAS, J.J.P. STEWART, J. COMP. CHEM. 27, 1101 (2006)
 Br: (RM1): G.B. ROCHA, R.O. FREIRE, A.M.SIMAS, J.J.P. STEWART, J. COMP. CHEM. 27, 1101 (2006)

           Empirical Formula: C Br  =     2 atoms



      MOLECULAR POINT GROUP   :   C*v 


          UHF CALCULATION, NO. OF ALPHA ELECTRONS =    6
                           NO. OF BETA  ELECTRONS =    5

          Geometry optimization using EF

          DIAGONAL MATRIX USED AS START HESSIAN

 CYCLE:     1 TIME:   0.008 TIME LEFT:  2.00D  GRAD.:    53.391 HEAT:  128.4240
 CYCLE:     2 TIME:   0.008 TIME LEFT:  2.00D  GRAD.:     5.203 HEAT:  126.0104
 CYCLE:     3 TIME:   0.008 TIME LEFT:  2.00D  GRAD.:     0.230 HEAT:  125.9819
 CYCLE:     4 TIME:   0.004 TIME LEFT:  2.00D  GRAD.:     0.011 HEAT:  125.9818

     GRADIENT =  0.01142  IS LESS THAN CUTOFF =  0.05000



 -------------------------------------------------------------------------------
 CHARGE=0 RM1 PRECISE XYZ
 Molecula CBr SemiEmp Opt



     GEOMETRY OPTIMISED USING EIGENVECTOR FOLLOWING (EF).     
     SCF FIELD WAS ACHIEVED                                   


                              RM1 CALCULATION
                                                       MOPAC2016 (Version: 18.151L)
                                                       Tue Nov  2 13:28:14 2021




          FINAL HEAT OF FORMATION =        125.98176 KCAL/MOL =     527.10770 KJ/MOL


          TOTAL ENERGY            =       -478.09074 EV
          ELECTRONIC ENERGY       =       -667.53400 EV  POINT GROUP:     C*v 
          CORE-CORE REPULSION     =        189.44327 EV
          COSMO AREA              =         79.28 SQUARE ANGSTROMS
          COSMO VOLUME            =         62.73 CUBIC ANGSTROMS

          GRADIENT NORM           =          0.01142 = 0.00807 PER ATOM
          IONIZATION POTENTIAL    =          9.534076 EV
          ALPHA SOMO LUMO (EV)    =         -9.534 -0.973
          BETA  SOMO LUMO (EV)    =        -11.483 -0.302
          NO. OF ALPHA ELECTRONS  =          6
          NO. OF BETA  ELECTRONS  =          5
          MOLECULAR WEIGHT        =         91.9150

          MOLECULAR DIMENSIONS (Angstroms)

            Atom       Atom       Distance
           Br     2    C     1     1.93176
           Br     2    C     1     0.00000
            C     1   Br     2     0.00000


          SCF CALCULATIONS        =          6
 
          WALL-CLOCK TIME         =          0.062 SECONDS
          COMPUTATION TIME        =          0.031 SECONDS




   ATOM   CHEMICAL          X               Y               Z
  NUMBER   SYMBOL      (ANGSTROMS)     (ANGSTROMS)     (ANGSTROMS)
 
     1       C          0.00000000  *   0.00000000  *  -1.60369945  *
     2      Br          0.00000000  *  -0.00000000  *   0.32806545  *

                             CARTESIAN COORDINATES

   1    C        0.000000000     0.000000000    -1.603699454
   2   Br        0.000000000    -0.000000000     0.328065454


           Empirical Formula: C Br  =     2 atoms



      MOLECULAR POINT GROUP   :   C*v 


          ALPHA EIGENVALUES  
 -22.99281 -21.92015 -12.10432 -12.00052 -11.68065  -9.53408  -0.97321   0.25796


           BETA EIGENVALUES 
 -22.95737 -20.87052 -11.74722 -11.57128 -11.48342  -0.30194   0.80096   0.84731


              NET ATOMIC CHARGES AND DIPOLE CONTRIBUTIONS

  ATOM NO.   TYPE          CHARGE      No. of ELECS.   s-Pop       p-Pop       
    1          C           0.225413        3.7746     1.92987     1.84471
    2         Br          -0.225413        7.2254     1.99876     5.22665
 DIPOLE           X         Y         Z       TOTAL
 POINT-CHG.    -0.000     0.000    -2.092     2.092
 HYBRID         0.000     0.000     1.193     1.193
 SUM            0.000     0.000    -0.899     0.899


          ATOMIC ORBITAL ELECTRON POPULATIONS

     Atom    s        px        py        pz   
    1  C   1.92987   1.03335   0.11311   0.69825
    2 Br   1.99876   1.96665   1.88689   1.37311


                    (SZ)    =    0.500000
                    (S**2)  =    0.756931


          ATOMIC ORBITAL SPIN POPULATIONS

    Atom   Total    s     px     py     pz   
         Atomic
    1  C  1.0513 -0.002  0.967  0.018  0.069
    2 Br -0.0513 -0.000  0.033 -0.018 -0.066
 *******************************************************************************
 ** Site#: 22750        For non-commercial use only    Version 18.151L 64BITS **
 *******************************************************************************
 ** Cite this program as: MOPAC2016, Version: 18.151L, James J. P. Stewart,   **
 ** Stewart Computational Chemistry, web-site: HTTP://OpenMOPAC.net.          **
 *******************************************************************************
 **                                                                           **
 **                                MOPAC2016                                  **
 **                                                                           **
 *******************************************************************************

                              RM1 CALCULATION RESULTS

 *******************************************************************************
 *  CALCULATION DONE:                                Tue Nov  2 13:28:14 2021  *
 *  RM1        - The RM1 Hamiltonian to be used
 *
 *
 *
 *                 CHARGE ON SYSTEM = 0
 *
 *
 *
 *  OLDGEO     - PREVIOUS GEOMETRY TO BE USED
 *  FORCE      - FORCE CALCULATION SPECIFIED
 *  T=         - A TIME OF 172800.0 SECONDS REQUESTED
 *  DUMP=N     - RESTART FILE WRITTEN EVERY  7200.000 SECONDS
 *******************************************************************************
FORCE OLDGEO CHARGE=0 RM1
 Molecula CBr SemiEmp Opt

   ATOM   CHEMICAL          X               Y               Z
  NUMBER   SYMBOL      (ANGSTROMS)     (ANGSTROMS)     (ANGSTROMS)
 
     1       C          0.00000000  *   0.00000000  *  -1.60369945  *
     2      Br          0.00000000  *  -0.00000000  *   0.32806545  *
 


          CARTESIAN COORDINATES 

    NO.       ATOM           X           Y           Z

     1         C          0.0000      0.0000     -1.6037
     2        Br          0.0000     -0.0000      0.3281

  C: (RM1): G.B. ROCHA, R.O. FREIRE, A.M.SIMAS, J.J.P. STEWART, J. COMP. CHEM. 27, 1101 (2006)
 Br: (RM1): G.B. ROCHA, R.O. FREIRE, A.M.SIMAS, J.J.P. STEWART, J. COMP. CHEM. 27, 1101 (2006)

           Empirical Formula: C Br  =     2 atoms



      MOLECULAR POINT GROUP   :   C*v 


          UHF CALCULATION, NO. OF ALPHA ELECTRONS =    6
                           NO. OF BETA  ELECTRONS =    5


          HEAT OF FORMATION =     125.981763 KCALS/MOLE


          CARTESIAN COORDINATE DERIVATIVES

   NUMBER  ATOM         X            Y            Z

     1       C     -0.007311     0.000000     0.000000
     2      Br      0.007311     0.000000     0.000000
 


          GRADIENT NORM =   0.01034


          TIME FOR SCF CALCULATION =    0.00

          TIME FOR DERIVATIVES     =    0.00

          MOLECULAR WEIGHT =   91.91



          ROTATIONAL CONSTANTS IN CM(-1)

          A =    0.00000000   B =    0.43264004   C =    0.43264004



           PRINCIPAL MOMENTS OF INERTIA IN UNITS OF 10**(-40)*GRAM-CM**2

          A =        0.0000   B =       64.7022   C =       64.7022


          ORIENTATION OF MOLECULE IN FORCE CALCULATION

    NO.       ATOM         X         Y         Z

     1          C      -1.6793    0.0000    0.0000
     2         Br       0.2524    0.0000    0.0000


    FIRST DERIVATIVES WILL BE USED IN THE CALCULATION OF SECOND DERIVATIVES

          ESTIMATED TIME TO COMPLETE CALCULATION =        0.05 SECONDS

    FOR POINT-GROUP C*v  THERE ARE  84 UNIQUE SYMMETRY FUNCTIONS.

 STEP:   1 TIME =     0.00 SECS, INTEGRAL =      0.00 TIME LEFT: 172799.99
 STEP:   2 TIME =     0.00 SECS, INTEGRAL =      0.01 TIME LEFT: 172799.99
 STEP:   3 TIME =     0.00 SECS, INTEGRAL =      0.01 TIME LEFT: 172799.98
 STEP:   4 TIME =     0.00 SECS, INTEGRAL =      0.01 TIME LEFT: 172799.98
 STEP:   5 TIME =     0.01 SECS, INTEGRAL =      0.02 TIME LEFT: 172799.98
 STEP:   6 TIME =     0.00 SECS, INTEGRAL =      0.02 TIME LEFT: 172799.97

(To convert to Hartree/Bohr^2, multiply by (10^(-21) x N x a0^2)/(4.184 x 627.51) =  0.0642)


           FORCE MATRIX IN MILLIDYNES/ANGSTROM


                  C  1      Br  2
 ------------------------------
     C    1   2.147166
    Br    2   2.148292   2.149418


          HEAT OF FORMATION =     125.981763 KCALS/MOLE

          ZERO POINT ENERGY       0.845 KCAL/MOL


           NORMAL COORDINATE ANALYSIS (Total motion = 1 Angstrom)


   Root No.       1

                 1 Sig 

                 590.9
  
           1    0.8693
           2   -0.0000
           3   -0.0000
           4   -0.1307
           5   -0.0000
           6    0.0000


           MASS-WEIGHTED COORDINATE ANALYSIS (NORMAL COORDINATES)


   Root No.       1

                 1 Sig 

                 590.9
  
           1    0.9324
           2   -0.0000
           3   -0.0000
           4   -0.3615
           5    0.0000
           6    0.0000


          DESCRIPTION OF VIBRATIONS


 VIBRATION    1    1Sig      ATOM PAIR     ENERGY CONTRIBUTION    RADIAL
 FREQ.       590.94         C 1 -- Br2        +100.0% (100.0%)    100.0%
 T-DIPOLE    4.8250
 TRAVEL      0.0808
 RED. MASS  10.4415
 EFF. MASS  17.4799

           FORCE CONSTANT IN CARTESIAN COORDINATES (Millidynes/A)

    ATOM   CHEMICAL       X               Y               Z
   NUMBER   SYMBOL  FORCE CONSTANT  FORCE CONSTANT  FORCE CONSTANT

      1       C        2.148289        0.002392        0.002392
      2      Br        2.148289        0.002392        0.002392

 **********************
 *                    *
 * JOB ENDED NORMALLY *
 *                    *
 **********************



 TOTAL JOB TIME:             0.23 SECONDS

 == MOPAC DONE ==
