 *******************************************************************************
 ** Site#: 22750        For non-commercial use only    Version 18.151L 64BITS **
 *******************************************************************************
 ** Cite this program as: MOPAC2016, Version: 18.151L, James J. P. Stewart,   **
 ** Stewart Computational Chemistry, web-site: HTTP://OpenMOPAC.net.          **
 *******************************************************************************
 **                                                                           **
 **                                MOPAC2016                                  **
 **                                                                           **
 *******************************************************************************

                              RM1 CALCULATION RESULTS

 *******************************************************************************
 *  CALCULATION DONE:                                Tue Nov  2 13:58:13 2021  *
 *  RM1        - The RM1 Hamiltonian to be used
 *
 *
 *
 *                 CHARGE ON SYSTEM = 0
 *
 *
 *
 *  PRECISE    - CRITERIA TO BE INCREASED BY 100 TIMES
 *  XYZ        - CARTESIAN COORDINATE SYSTEM TO BE USED
 *  T=         - A TIME OF 172800.0 SECONDS REQUESTED
 *  DUMP=N     - RESTART FILE WRITTEN EVERY  7200.000 SECONDS
 *******************************************************************************
CHARGE=0 RM1 PRECISE XYZ
 CBr2
 Se parte de MP2
   ATOM   CHEMICAL          X               Y               Z
  NUMBER   SYMBOL      (ANGSTROMS)     (ANGSTROMS)     (ANGSTROMS)
 
     1       C          0.00000000  *   0.00000000  *   0.98477000  *
     2      Br          0.00000000  *   1.52837600  *  -0.08440900  *
     3      Br          0.00000000  *  -1.52837600  *  -0.08440900  *
 


          CARTESIAN COORDINATES 

    NO.       ATOM           X           Y           Z

     1         C          0.0000      0.0000      0.9848
     2        Br          0.0000      1.5284     -0.0844
     3        Br          0.0000     -1.5284     -0.0844

  C: (RM1): G.B. ROCHA, R.O. FREIRE, A.M.SIMAS, J.J.P. STEWART, J. COMP. CHEM. 27, 1101 (2006)
 Br: (RM1): G.B. ROCHA, R.O. FREIRE, A.M.SIMAS, J.J.P. STEWART, J. COMP. CHEM. 27, 1101 (2006)

           Empirical Formula: C Br2  =     3 atoms



      MOLECULAR POINT GROUP   :   C2v 


      RHF CALCULATION, NO. OF DOUBLY OCCUPIED LEVELS = 9


          Geometry optimization using EF

          DIAGONAL MATRIX USED AS START HESSIAN

 CYCLE:     1 TIME:   0.008 TIME LEFT:  2.00D  GRAD.:    49.111 HEAT:  91.32921
 CYCLE:     2 TIME:   0.008 TIME LEFT:  2.00D  GRAD.:     3.900 HEAT:  89.02444
 CYCLE:     3 TIME:   0.008 TIME LEFT:  2.00D  GRAD.:     1.161 HEAT:  88.99900
 CYCLE:     4 TIME:   0.008 TIME LEFT:  2.00D  GRAD.:     0.576 HEAT:  88.99280
 CYCLE:     5 TIME:   0.004 TIME LEFT:  2.00D  GRAD.:     0.096 HEAT:  88.99203
 CYCLE:     6 TIME:   0.008 TIME LEFT:  2.00D  GRAD.:     0.009 HEAT:  88.99202

     GRADIENT =  0.00856  IS LESS THAN CUTOFF =  0.05000



 -------------------------------------------------------------------------------
 CHARGE=0 RM1 PRECISE XYZ
 CBr2
 Se parte de MP2


     GEOMETRY OPTIMISED USING EIGENVECTOR FOLLOWING (EF).     
     SCF FIELD WAS ACHIEVED                                   


                              RM1 CALCULATION
                                                       MOPAC2016 (Version: 18.151L)
                                                       Tue Nov  2 13:58:13 2021




          FINAL HEAT OF FORMATION =         88.99202 KCAL/MOL =     372.34263 KJ/MOL


          TOTAL ENERGY            =       -837.97075 EV
          ELECTRONIC ENERGY       =      -1428.70760 EV  POINT GROUP:     C2v 
          CORE-CORE REPULSION     =        590.73686 EV
          COSMO AREA              =        106.32 SQUARE ANGSTROMS
          COSMO VOLUME            =         92.75 CUBIC ANGSTROMS

          GRADIENT NORM           =          0.00856 = 0.00494 PER ATOM
          IONIZATION POTENTIAL    =         10.500537 EV
          HOMO LUMO ENERGIES (EV) =        -10.501 -1.611
          NO. OF FILLED LEVELS    =          9
          MOLECULAR WEIGHT        =        171.8190

          MOLECULAR DIMENSIONS (Angstroms)

            Atom       Atom       Distance
           Br     3   Br     2     3.18345
           Br     2    C     1     1.12009
           Br     2    C     1     0.00000


          SCF CALCULATIONS        =          8
 
          WALL-CLOCK TIME         =          0.066 SECONDS
          COMPUTATION TIME        =          0.032 SECONDS




   ATOM   CHEMICAL          X               Y               Z
  NUMBER   SYMBOL      (ANGSTROMS)     (ANGSTROMS)     (ANGSTROMS)
 
     1       C          0.00000000  *  -0.00000000  *   1.02741167  *
     2      Br          0.00000000  *   1.59172528  *  -0.09267527  *
     3      Br         -0.00000000  *  -1.59172528  *  -0.09267527  *

                             CARTESIAN COORDINATES

   1    C        0.000000000    -0.000000003     1.027411666
   2   Br        0.000000000     1.591725281    -0.092675269
   3   Br       -0.000000000    -1.591725279    -0.092675268


           Empirical Formula: C Br2  =     3 atoms



      MOLECULAR POINT GROUP   :   C2v 


                  EIGENVALUES  
 -24.55041 -23.42497 -23.10883 -14.65640 -13.08660 -12.64011 -11.48203 -11.08209
 -10.50054  -1.61077  -0.65902  -0.22800


              NET ATOMIC CHARGES AND DIPOLE CONTRIBUTIONS

  ATOM NO.   TYPE          CHARGE      No. of ELECS.   s-Pop       p-Pop       
    1          C           0.359879        3.6401     1.84140     1.79872
    2         Br          -0.179940        7.1799     1.99890     5.18104
    3         Br          -0.179940        7.1799     1.99890     5.18104
 DIPOLE           X         Y         Z       TOTAL
 POINT-CHG.     0.000    -0.000     1.936     1.936
 HYBRID        -0.000    -0.000    -1.665     1.665
 SUM           -0.000    -0.000     0.271     0.271


          ATOMIC ORBITAL ELECTRON POPULATIONS

     Atom    s        px        py        pz   
    1  C   1.84140   0.22662   0.68057   0.89154
    2 Br   1.99890   1.88669   1.52325   1.77110
    3 Br   1.99890   1.88669   1.52325   1.77110
 *******************************************************************************
 ** Site#: 22750        For non-commercial use only    Version 18.151L 64BITS **
 *******************************************************************************
 ** Cite this program as: MOPAC2016, Version: 18.151L, James J. P. Stewart,   **
 ** Stewart Computational Chemistry, web-site: HTTP://OpenMOPAC.net.          **
 *******************************************************************************
 **                                                                           **
 **                                MOPAC2016                                  **
 **                                                                           **
 *******************************************************************************

                              RM1 CALCULATION RESULTS

 *******************************************************************************
 *  CALCULATION DONE:                                Tue Nov  2 13:58:13 2021  *
 *  RM1        - The RM1 Hamiltonian to be used
 *
 *
 *
 *                 CHARGE ON SYSTEM = 0
 *
 *
 *
 *  OLDGEO     - PREVIOUS GEOMETRY TO BE USED
 *  FORCE      - FORCE CALCULATION SPECIFIED
 *  T=         - A TIME OF 172800.0 SECONDS REQUESTED
 *  DUMP=N     - RESTART FILE WRITTEN EVERY  7200.000 SECONDS
 *******************************************************************************
FORCE OLDGEO CHARGE=0 RM1
 CBr2
 Se parte de MP2
   ATOM   CHEMICAL          X               Y               Z
  NUMBER   SYMBOL      (ANGSTROMS)     (ANGSTROMS)     (ANGSTROMS)
 
     1       C          0.00000000  *  -0.00000000  *   1.02741167  *
     2      Br          0.00000000  *   1.59172528  *  -0.09267527  *
     3      Br         -0.00000000  *  -1.59172528  *  -0.09267527  *
 


          CARTESIAN COORDINATES 

    NO.       ATOM           X           Y           Z

     1         C          0.0000     -0.0000      1.0274
     2        Br          0.0000      1.5917     -0.0927
     3        Br         -0.0000     -1.5917     -0.0927

  C: (RM1): G.B. ROCHA, R.O. FREIRE, A.M.SIMAS, J.J.P. STEWART, J. COMP. CHEM. 27, 1101 (2006)
 Br: (RM1): G.B. ROCHA, R.O. FREIRE, A.M.SIMAS, J.J.P. STEWART, J. COMP. CHEM. 27, 1101 (2006)

           Empirical Formula: C Br2  =     3 atoms



      MOLECULAR POINT GROUP   :   C2v 


      RHF CALCULATION, NO. OF DOUBLY OCCUPIED LEVELS = 9



          HEAT OF FORMATION =      88.992024 KCALS/MOLE


          CARTESIAN COORDINATE DERIVATIVES

   NUMBER  ATOM         X            Y            Z

     1       C      0.003250     0.004623     0.000000
     2      Br     -0.004733    -0.000182     0.000000
     3      Br      0.001483    -0.004441     0.000000
 


          GRADIENT NORM =   0.00873


          TIME FOR SCF CALCULATION =    0.00

          TIME FOR DERIVATIVES     =    0.00

          MOLECULAR WEIGHT =  171.82



          ROTATIONAL CONSTANTS IN CM(-1)

          A =    1.20278110   B =    0.04163531   C =    0.04024229



           PRINCIPAL MOMENTS OF INERTIA IN UNITS OF 10**(-40)*GRAM-CM**2

          A =       23.2734   B =      672.3325   C =      695.6059


          ORIENTATION OF MOLECULE IN FORCE CALCULATION

    NO.       ATOM         X         Y         Z

     1          C      -0.5995   -0.8520    0.0000
     2         Br       1.3468   -0.8520    0.0000
     3         Br      -1.2567    0.9801    0.0000


    FIRST DERIVATIVES WILL BE USED IN THE CALCULATION OF SECOND DERIVATIVES

          ESTIMATED TIME TO COMPLETE CALCULATION =        0.14 SECONDS

    FOR POINT-GROUP C2v  THERE ARE   4 UNIQUE SYMMETRY FUNCTIONS.

 STEP:   1 TIME =     0.00 SECS, INTEGRAL =      0.00 TIME LEFT: 172799.99
 STEP:   2 TIME =     0.00 SECS, INTEGRAL =      0.01 TIME LEFT: 172799.98
 STEP:   3 TIME =     0.00 SECS, INTEGRAL =      0.01 TIME LEFT: 172799.98
 STEP:   4 TIME =     0.00 SECS, INTEGRAL =      0.02 TIME LEFT: 172799.98
 STEP:   5 TIME =     0.00 SECS, INTEGRAL =      0.02 TIME LEFT: 172799.97
 STEP:   6 TIME =     0.00 SECS, INTEGRAL =      0.02 TIME LEFT: 172799.97
 STEP:   7                       INTEGRAL =      0.02 TIME LEFT: 172799.97
 STEP:   8                       INTEGRAL =      0.02 TIME LEFT: 172799.97
 STEP:   9                       INTEGRAL =      0.02 TIME LEFT: 172799.97

(To convert to Hartree/Bohr^2, multiply by (10^(-21) x N x a0^2)/(4.184 x 627.51) =  0.0642)


           FORCE MATRIX IN MILLIDYNES/ANGSTROM


                  C  1      Br  2      Br  3
 ------------------------------------------
     C    1   3.356683
    Br    2   2.178108   2.370190
    Br    3   2.178116   0.312554   2.370190


          HEAT OF FORMATION =      88.992024 KCALS/MOLE

          ZERO POINT ENERGY       1.920 KCAL/MOL


           NORMAL COORDINATE ANALYSIS (Total motion = 1 Angstrom)


   Root No.       1         2         3

                 1 A1      2 A1      1 B2  

                 139.7     526.4     676.9
  
           1   -0.2077    0.4653    0.6908
           2   -0.2951    0.6612   -0.4861
           3   -0.0000   -0.0000   -0.0000
           4   -0.2448   -0.0955   -0.0776
           5    0.2054   -0.0071   -0.0000
           6    0.0000    0.0000    0.0000
           7    0.2760    0.0256   -0.0262
           8   -0.1611   -0.0923    0.0731
           9   -0.0000    0.0000   -0.0000


           MASS-WEIGHTED COORDINATE ANALYSIS (NORMAL COORDINATES)


   Root No.       1         2         3

                 1 A1      2 A1      1 B2  

                 139.7     526.4     676.9
  
           1   -0.1702    0.5283    0.7754
           2   -0.2418    0.7507   -0.5456
           3   -0.0000   -0.0000    0.0000
           4   -0.5174   -0.2797   -0.2247
           5    0.4342   -0.0208   -0.0000
           6    0.0000    0.0000    0.0000
           7    0.5834    0.0749   -0.0759
           8   -0.3405   -0.2703    0.2116
           9   -0.0000    0.0000   -0.0000


          DESCRIPTION OF VIBRATIONS


 VIBRATION    1    1A1       ATOM PAIR     ENERGY CONTRIBUTION    RADIAL
 FREQ.       139.75        Br2 -- Br3         +51.8% (137.0%)    100.0%
 T-DIPOLE    0.4509         C 1 -- Br2         +24.1% ( 93.5%)     20.9%
 TRAVEL      0.0685         C 1 -- Br3         +24.1% ( 93.5%)     20.9%
 RED. MASS  33.3624
 EFF. MASS 102.8913

 VIBRATION    2    2A1       ATOM PAIR     ENERGY CONTRIBUTION    RADIAL
 FREQ.       526.37         C 1 -- Br2         +49.1% ( 92.6%)     52.3%
 T-DIPOLE    3.9100         C 1 -- Br3         +49.1% ( 92.6%)     52.3%
 TRAVEL      0.0824        Br2 -- Br3          +1.7% ( 17.3%)    100.0%
 RED. MASS   9.5177
 EFF. MASS  18.8775

 VIBRATION    3    1B2       ATOM PAIR     ENERGY CONTRIBUTION    RADIAL
 FREQ.       676.91         C 1 -- Br3         +49.7% ( 95.1%)     77.1%
 T-DIPOLE    6.1173         C 1 -- Br2         +49.7% ( 95.1%)     77.1%
 TRAVEL      0.0785        Br2 -- Br3          +0.6% ( 10.1%)      0.0%
 RED. MASS  10.1145
 EFF. MASS  16.1494

           FORCE CONSTANT IN CARTESIAN COORDINATES (Millidynes/A)

    ATOM   CHEMICAL       X               Y               Z
   NUMBER   SYMBOL  FORCE CONSTANT  FORCE CONSTANT  FORCE CONSTANT

      1       C        2.500740        2.078478        0.007455
      2      Br        2.356292        0.178703        0.000815
      3      Br        0.510162        2.024833        0.000815

 **********************
 *                    *
 * JOB ENDED NORMALLY *
 *                    *
 **********************



 TOTAL JOB TIME:             0.24 SECONDS

 == MOPAC DONE ==
