
     Program PWSCF v.6.3 starts on  2Dec2021 at 21:59:34 

     This program is part of the open-source Quantum ESPRESSO suite
     for quantum simulation of materials; please cite
         "P. Giannozzi et al., J. Phys.:Condens. Matter 21 395502 (2009);
         "P. Giannozzi et al., J. Phys.:Condens. Matter 29 465901 (2017);
          URL http://www.quantum-espresso.org", 
     in publications or presentations arising from this work. More details at
     http://www.quantum-espresso.org/quote

     Parallel version (MPI & OpenMP), running on       2 processor cores
     Number of MPI processes:                 2
     Threads/MPI process:                     1

     MPI processes distributed on     1 nodes
     R & G space division:  proc/nbgrp/npool/nimage =       2
     Reading input from pw-input.in

     Current dimensions of program PWSCF are:
     Max number of different atomic species (ntypx) = 10
     Max number of k-points (npk) =  40000
     Max angular momentum in pseudopotentials (lmaxx) =  3

     Subspace diagonalization in iterative solution of the eigenvalue problem:
     a serial algorithm will be used

 
     Parallelization info
     --------------------
     sticks:   dense  smooth     PW     G-vecs:    dense   smooth      PW
     Min         120     120     42                 1210     1210     264
     Max         121     121     43                 1211     1211     267
     Sum         241     241     85                 2421     2421     531
 

     Title: 
     Pd-kp-conv                                                                 


     bravais-lattice index     =            2
     lattice parameter (alat)  =       7.0000  a.u.
     unit-cell volume          =      85.7500 (a.u.)^3
     number of atoms/cell      =            1
     number of atomic types    =            1
     number of electrons       =        16.00
     number of Kohn-Sham states=           12
     kinetic-energy cutoff     =      35.0000  Ry
     charge density cutoff     =     140.0000  Ry
     convergence threshold     =      1.0E-07
     mixing beta               =       0.7000
     number of iterations used =            8  plain     mixing
     Exchange-correlation      =  SLA  PW   PBX  PBC ( 1  4  3  4 0 0)

     celldm(1)=   7.000000  celldm(2)=   0.000000  celldm(3)=   0.000000
     celldm(4)=   0.000000  celldm(5)=   0.000000  celldm(6)=   0.000000

     crystal axes: (cart. coord. in units of alat)
               a(1) = (  -0.500000   0.000000   0.500000 )  
               a(2) = (   0.000000   0.500000   0.500000 )  
               a(3) = (  -0.500000   0.500000   0.000000 )  

     reciprocal axes: (cart. coord. in units 2 pi/alat)
               b(1) = ( -1.000000 -1.000000  1.000000 )  
               b(2) = (  1.000000  1.000000  1.000000 )  
               b(3) = ( -1.000000  1.000000 -1.000000 )  


     PseudoPot. # 1 for Pd read from file:
     ./pd_pbe_v1.4.uspp.F.UPF
     MD5 check sum: 2d733d2bc2cbfd217af676df1668a4bc
     Pseudo is Ultrasoft + core correction, Zval = 16.0
     Generated by new atomic code, or converted to UPF format
     Using radial grid of  887 points,  6 beta functions with: 
                l(1) =   0
                l(2) =   0
                l(3) =   1
                l(4) =   1
                l(5) =   2
                l(6) =   2
     Q(r) pseudized with  8 coefficients,  rinner =    1.130   1.130   1.130
                                                       1.130   1.130

     atomic species   valence    mass     pseudopotential
        Pd            16.00   106.40000     Pd( 1.00)

     48 Sym. Ops., with inversion, found



   Cartesian axes

     site n.     atom                  positions (alat units)
         1           Pd  tau(   1) = (   0.0000000   0.0000000   0.0000000  )

     number of k points=    16  Marzari-Vanderbilt smearing, width (Ry)=  0.0250
                       cart. coord. in units 2pi/alat
        k(    1) = (   0.0000000   0.0000000   0.0000000), wk =   0.0092593
        k(    2) = (  -0.1666667   0.1666667  -0.1666667), wk =   0.0740741
        k(    3) = (  -0.3333333   0.3333333  -0.3333333), wk =   0.0740741
        k(    4) = (   0.5000000  -0.5000000   0.5000000), wk =   0.0370370
        k(    5) = (   0.0000000   0.3333333   0.0000000), wk =   0.0555556
        k(    6) = (  -0.1666667   0.5000000  -0.1666667), wk =   0.2222222
        k(    7) = (   0.6666667  -0.3333333   0.6666667), wk =   0.2222222
        k(    8) = (   0.5000000  -0.1666667   0.5000000), wk =   0.2222222
        k(    9) = (   0.3333333   0.0000000   0.3333333), wk =   0.1111111
        k(   10) = (   0.0000000   0.6666667   0.0000000), wk =   0.0555556
        k(   11) = (   0.8333333  -0.1666667   0.8333333), wk =   0.2222222
        k(   12) = (   0.6666667  -0.0000000   0.6666667), wk =   0.1111111
        k(   13) = (   0.0000000  -1.0000000   0.0000000), wk =   0.0277778
        k(   14) = (   0.6666667  -0.3333333   1.0000000), wk =   0.2222222
        k(   15) = (   0.5000000  -0.1666667   0.8333333), wk =   0.2222222
        k(   16) = (  -0.3333333  -1.0000000   0.0000000), wk =   0.1111111

     Dense  grid:     2421 G-vectors     FFT dimensions: (  20,  20,  20)

     Estimated max dynamical RAM per process >       5.80 MB

     Estimated total dynamical RAM >      11.60 MB

     Initial potential from superposition of free atoms
     Check: negative starting charge=   -0.083349

     starting charge   15.49999, renormalised to   16.00000

     negative rho (up, down):  8.604E-02 0.000E+00
     Starting wfcs are   12 randomized atomic wfcs

     total cpu time spent up to now is        0.4 secs

     Self-consistent Calculation

     iteration #  1     ecut=    35.00 Ry     beta= 0.70
     Davidson diagonalization with overlap
     ethr =  1.00E-02,  avg # of iterations =  3.7

     negative rho (up, down):  8.605E-02 0.000E+00

     total cpu time spent up to now is        0.6 secs

     total energy              =    -198.33556721 Ry
     Harris-Foulkes estimate   =    -198.95167053 Ry
     estimated scf accuracy    <       0.86195933 Ry

     iteration #  2     ecut=    35.00 Ry     beta= 0.70
     Davidson diagonalization with overlap
     ethr =  5.39E-03,  avg # of iterations =  2.0

     negative rho (up, down):  8.732E-02 0.000E+00

     total cpu time spent up to now is        0.7 secs

     total energy              =    -198.55656666 Ry
     Harris-Foulkes estimate   =    -198.83899495 Ry
     estimated scf accuracy    <       0.52038118 Ry

     iteration #  3     ecut=    35.00 Ry     beta= 0.70
     Davidson diagonalization with overlap
     ethr =  3.25E-03,  avg # of iterations =  2.0

     negative rho (up, down):  8.793E-02 0.000E+00

     total cpu time spent up to now is        0.8 secs

     total energy              =    -198.67604647 Ry
     Harris-Foulkes estimate   =    -198.67758475 Ry
     estimated scf accuracy    <       0.00308665 Ry

     iteration #  4     ecut=    35.00 Ry     beta= 0.70
     Davidson diagonalization with overlap
     ethr =  1.93E-05,  avg # of iterations =  2.0

     negative rho (up, down):  8.810E-02 0.000E+00

     total cpu time spent up to now is        1.0 secs

     total energy              =    -198.67676617 Ry
     Harris-Foulkes estimate   =    -198.67679277 Ry
     estimated scf accuracy    <       0.00005266 Ry

     iteration #  5     ecut=    35.00 Ry     beta= 0.70
     Davidson diagonalization with overlap
     ethr =  3.29E-07,  avg # of iterations =  2.1

     negative rho (up, down):  8.813E-02 0.000E+00

     total cpu time spent up to now is        1.1 secs

     total energy              =    -198.67677605 Ry
     Harris-Foulkes estimate   =    -198.67677612 Ry
     estimated scf accuracy    <       0.00000021 Ry

     iteration #  6     ecut=    35.00 Ry     beta= 0.70
     Davidson diagonalization with overlap
     ethr =  1.33E-09,  avg # of iterations =  2.1

     negative rho (up, down):  8.813E-02 0.000E+00

     total cpu time spent up to now is        1.2 secs

     End of self-consistent calculation

          k = 0.0000 0.0000 0.0000 (   307 PWs)   bands (ev):

   -27.2954 -27.2954 -27.2954  14.4963  19.1951  19.1951  19.1951  21.2421
    21.2421  40.9852  46.6753  46.6753

          k =-0.1667 0.1667-0.1667 (   310 PWs)   bands (ev):

   -27.4739 -27.3202 -27.3202  15.5435  18.9038  19.5153  19.5153  21.1493
    21.1493  41.5906  42.5098  47.9690

          k =-0.3333 0.3333-0.3333 (   302 PWs)   bands (ev):

   -27.8210 -27.3686 -27.3686  16.4539  19.3808  19.3808  20.5953  22.0026
    22.0026  35.7354  41.3828  48.2978

          k = 0.5000-0.5000 0.5000 (   302 PWs)   bands (ev):

   -27.9902 -27.3926 -27.3926  16.2513  19.1231  19.1231  22.7781  22.7781
    23.5656  31.4829  40.2273  46.2924

          k = 0.0000 0.3333 0.0000 (   303 PWs)   bands (ev):

   -27.4678 -27.3603 -27.3603  15.8970  18.3662  19.9451  19.9451  20.4648
    21.5903  42.7112  43.7167  45.3779

          k =-0.1667 0.5000-0.1667 (   298 PWs)   bands (ev):

   -27.7224 -27.4183 -27.4164  17.0318  18.2282  19.4251  20.2545  22.2539
    22.2773  38.3569  42.4991  43.8291

          k = 0.6667-0.3333 0.6667 (   301 PWs)   bands (ev):

   -27.9203 -27.4958 -27.4328  16.9118  18.5648  19.8862  20.0870  22.8343
    26.2145  32.1669  40.5764  43.7558

          k = 0.5000-0.1667 0.5000 (   299 PWs)   bands (ev):

   -27.8659 -27.5185 -27.3929  17.1737  18.7631  19.8495  19.8522  21.7817
    25.3513  34.1816  40.0134  43.5967

          k = 0.3333 0.0000 0.3333 (   303 PWs)   bands (ev):

   -27.6411 -27.4342 -27.3365  16.9337  18.3881  19.5333  20.1685  20.4451
    22.5538  39.9487  41.2436  46.7940

          k = 0.0000 0.6667 0.0000 (   310 PWs)   bands (ev):

   -27.7949 -27.4885 -27.4885  16.7079  16.9720  21.8534  21.8534  22.2509
    22.3406  40.1506  40.1506  40.3735

          k = 0.8333-0.1667 0.8333 (   303 PWs)   bands (ev):

   -27.8809 -27.5949 -27.5124  16.6159  17.0873  20.9527  21.7127  22.9688
    27.1323  34.8020  37.2452  39.4125

          k = 0.6667-0.0000 0.6667 (   284 PWs)   bands (ev):

   -27.7657 -27.7619 -27.4647  17.2829  18.2409  19.4300  21.0325  22.1798
    29.5931  32.9370  35.3187  42.5164

          k = 0.0000-1.0000 0.0000 (   302 PWs)   bands (ev):

   -27.9502 -27.5520 -27.5520  16.0246  16.3687  22.7451  23.1876  23.1876
    26.2648  35.3029  37.2373  37.2373

          k = 0.6667-0.3333 1.0000 (   305 PWs)   bands (ev):

   -27.8147 -27.5806 -27.4533  17.7292  17.7358  18.9952  21.4265  21.8374
    25.7980  37.0420  37.4605  40.9073

          k = 0.5000-0.1667 0.8333 (   294 PWs)   bands (ev):

   -27.8363 -27.6640 -27.4928  17.7397  17.9254  19.0573  20.8585  22.6653
    30.0196  31.6146  38.1982  38.4544

          k =-0.3333-1.0000 0.0000 (   294 PWs)   bands (ev):

   -27.8518 -27.6529 -27.5567  16.9095  17.3499  20.1144  21.5974  23.1906
    30.2217  34.8966  35.0337  35.9954

     the Fermi energy is    22.7860 ev

!    total energy              =    -198.67677611 Ry
     Harris-Foulkes estimate   =    -198.67677613 Ry
     estimated scf accuracy    <       0.00000003 Ry

     The total energy is the sum of the following terms:

     one-electron contribution =     -30.93355450 Ry
     hartree contribution      =      31.42446127 Ry
     xc contribution           =     -31.49300210 Ry
     ewald contribution        =    -167.67495590 Ry
     smearing contrib. (-TS)   =       0.00027512 Ry

     convergence has been achieved in   6 iterations

     Writing output data file Pd-kp-conv.save/
 
     init_run     :      0.31s CPU      0.35s WALL (       1 calls)
     electrons    :      0.70s CPU      0.80s WALL (       1 calls)

     Called by init_run:
     wfcinit      :      0.03s CPU      0.05s WALL (       1 calls)
     potinit      :      0.00s CPU      0.01s WALL (       1 calls)
     hinit0       :      0.27s CPU      0.27s WALL (       1 calls)

     Called by electrons:
     c_bands      :      0.55s CPU      0.60s WALL (       6 calls)
     sum_band     :      0.11s CPU      0.12s WALL (       6 calls)
     v_of_rho     :      0.02s CPU      0.02s WALL (       7 calls)
     newd         :      0.03s CPU      0.03s WALL (       7 calls)
     mix_rho      :      0.00s CPU      0.00s WALL (       6 calls)

     Called by c_bands:
     init_us_2    :      0.01s CPU      0.02s WALL (     208 calls)
     cegterg      :      0.51s CPU      0.56s WALL (      96 calls)

     Called by sum_band:
     sum_band:bec :      0.00s CPU      0.00s WALL (      96 calls)
     addusdens    :      0.03s CPU      0.03s WALL (       6 calls)

     Called by *egterg:
     h_psi        :      0.38s CPU      0.42s WALL (     333 calls)
     s_psi        :      0.01s CPU      0.01s WALL (     333 calls)
     g_psi        :      0.00s CPU      0.00s WALL (     221 calls)
     cdiaghg      :      0.09s CPU      0.09s WALL (     317 calls)

     Called by h_psi:
     h_psi:pot    :      0.38s CPU      0.42s WALL (     333 calls)
     h_psi:calbec :      0.01s CPU      0.02s WALL (     333 calls)
     vloc_psi     :      0.36s CPU      0.39s WALL (     333 calls)
     add_vuspsi   :      0.01s CPU      0.01s WALL (     333 calls)

     General routines
     calbec       :      0.02s CPU      0.02s WALL (     429 calls)
     fft          :      0.01s CPU      0.01s WALL (      78 calls)
     ffts         :      0.00s CPU      0.00s WALL (       6 calls)
     fftw         :      0.38s CPU      0.41s WALL (    7342 calls)
 
     Parallel routines
     fft_scatt_xy :      0.06s CPU      0.07s WALL (    7426 calls)
     fft_scatt_yz :      0.12s CPU      0.13s WALL (    7426 calls)
 
     PWSCF        :     1.08s CPU         1.35s WALL

 
   This run was terminated on:  21:59:36   2Dec2021            

=------------------------------------------------------------------------------=
   JOB DONE.
=------------------------------------------------------------------------------=
