
     Program PWSCF v.6.3 starts on  2Dec2021 at 21:59:53 

     This program is part of the open-source Quantum ESPRESSO suite
     for quantum simulation of materials; please cite
         "P. Giannozzi et al., J. Phys.:Condens. Matter 21 395502 (2009);
         "P. Giannozzi et al., J. Phys.:Condens. Matter 29 465901 (2017);
          URL http://www.quantum-espresso.org", 
     in publications or presentations arising from this work. More details at
     http://www.quantum-espresso.org/quote

     Parallel version (MPI & OpenMP), running on       2 processor cores
     Number of MPI processes:                 2
     Threads/MPI process:                     1

     MPI processes distributed on     1 nodes
     R & G space division:  proc/nbgrp/npool/nimage =       2
     Reading input from pw-input.in

     Current dimensions of program PWSCF are:
     Max number of different atomic species (ntypx) = 10
     Max number of k-points (npk) =  40000
     Max angular momentum in pseudopotentials (lmaxx) =  3

     Subspace diagonalization in iterative solution of the eigenvalue problem:
     a serial algorithm will be used

 
     Parallelization info
     --------------------
     sticks:   dense  smooth     PW     G-vecs:    dense   smooth      PW
     Min         147     147     48                 1643     1643     322
     Max         148     148     49                 1644     1644     323
     Sum         295     295     97                 3287     3287     645
 

     Title: 
     Pd-kp-conv                                                                 


     bravais-lattice index     =            2
     lattice parameter (alat)  =       7.8000  a.u.
     unit-cell volume          =     118.6380 (a.u.)^3
     number of atoms/cell      =            1
     number of atomic types    =            1
     number of electrons       =        16.00
     number of Kohn-Sham states=           12
     kinetic-energy cutoff     =      35.0000  Ry
     charge density cutoff     =     140.0000  Ry
     convergence threshold     =      1.0E-07
     mixing beta               =       0.7000
     number of iterations used =            8  plain     mixing
     Exchange-correlation      =  SLA  PW   PBX  PBC ( 1  4  3  4 0 0)

     celldm(1)=   7.800000  celldm(2)=   0.000000  celldm(3)=   0.000000
     celldm(4)=   0.000000  celldm(5)=   0.000000  celldm(6)=   0.000000

     crystal axes: (cart. coord. in units of alat)
               a(1) = (  -0.500000   0.000000   0.500000 )  
               a(2) = (   0.000000   0.500000   0.500000 )  
               a(3) = (  -0.500000   0.500000   0.000000 )  

     reciprocal axes: (cart. coord. in units 2 pi/alat)
               b(1) = ( -1.000000 -1.000000  1.000000 )  
               b(2) = (  1.000000  1.000000  1.000000 )  
               b(3) = ( -1.000000  1.000000 -1.000000 )  


     PseudoPot. # 1 for Pd read from file:
     ./pd_pbe_v1.4.uspp.F.UPF
     MD5 check sum: 2d733d2bc2cbfd217af676df1668a4bc
     Pseudo is Ultrasoft + core correction, Zval = 16.0
     Generated by new atomic code, or converted to UPF format
     Using radial grid of  887 points,  6 beta functions with: 
                l(1) =   0
                l(2) =   0
                l(3) =   1
                l(4) =   1
                l(5) =   2
                l(6) =   2
     Q(r) pseudized with  8 coefficients,  rinner =    1.130   1.130   1.130
                                                       1.130   1.130

     atomic species   valence    mass     pseudopotential
        Pd            16.00   106.40000     Pd( 1.00)

     48 Sym. Ops., with inversion, found



   Cartesian axes

     site n.     atom                  positions (alat units)
         1           Pd  tau(   1) = (   0.0000000   0.0000000   0.0000000  )

     number of k points=    16  Marzari-Vanderbilt smearing, width (Ry)=  0.0250
                       cart. coord. in units 2pi/alat
        k(    1) = (   0.0000000   0.0000000   0.0000000), wk =   0.0092593
        k(    2) = (  -0.1666667   0.1666667  -0.1666667), wk =   0.0740741
        k(    3) = (  -0.3333333   0.3333333  -0.3333333), wk =   0.0740741
        k(    4) = (   0.5000000  -0.5000000   0.5000000), wk =   0.0370370
        k(    5) = (   0.0000000   0.3333333   0.0000000), wk =   0.0555556
        k(    6) = (  -0.1666667   0.5000000  -0.1666667), wk =   0.2222222
        k(    7) = (   0.6666667  -0.3333333   0.6666667), wk =   0.2222222
        k(    8) = (   0.5000000  -0.1666667   0.5000000), wk =   0.2222222
        k(    9) = (   0.3333333   0.0000000   0.3333333), wk =   0.1111111
        k(   10) = (   0.0000000   0.6666667   0.0000000), wk =   0.0555556
        k(   11) = (   0.8333333  -0.1666667   0.8333333), wk =   0.2222222
        k(   12) = (   0.6666667  -0.0000000   0.6666667), wk =   0.1111111
        k(   13) = (   0.0000000  -1.0000000   0.0000000), wk =   0.0277778
        k(   14) = (   0.6666667  -0.3333333   1.0000000), wk =   0.2222222
        k(   15) = (   0.5000000  -0.1666667   0.8333333), wk =   0.2222222
        k(   16) = (  -0.3333333  -1.0000000   0.0000000), wk =   0.1111111

     Dense  grid:     3287 G-vectors     FFT dimensions: (  24,  24,  24)

     Estimated max dynamical RAM per process >       7.73 MB

     Estimated total dynamical RAM >      15.46 MB

     Initial potential from superposition of free atoms
     Check: negative starting charge=   -0.079046

     starting charge   15.49999, renormalised to   16.00000

     negative rho (up, down):  8.160E-02 0.000E+00
     Starting wfcs are   12 randomized atomic wfcs

     total cpu time spent up to now is        0.4 secs

     Self-consistent Calculation

     iteration #  1     ecut=    35.00 Ry     beta= 0.70
     Davidson diagonalization with overlap
     ethr =  1.00E-02,  avg # of iterations =  3.5

     negative rho (up, down):  8.025E-02 0.000E+00

     total cpu time spent up to now is        0.7 secs

     total energy              =    -198.05299167 Ry
     Harris-Foulkes estimate   =    -199.06629393 Ry
     estimated scf accuracy    <       1.38464746 Ry

     iteration #  2     ecut=    35.00 Ry     beta= 0.70
     Davidson diagonalization with overlap
     ethr =  8.65E-03,  avg # of iterations =  2.0

     negative rho (up, down):  8.153E-02 0.000E+00

     total cpu time spent up to now is        0.8 secs

     total energy              =    -198.38140928 Ry
     Harris-Foulkes estimate   =    -199.17022146 Ry
     estimated scf accuracy    <       1.63155073 Ry

     iteration #  3     ecut=    35.00 Ry     beta= 0.70
     Davidson diagonalization with overlap
     ethr =  8.65E-03,  avg # of iterations =  2.0

     negative rho (up, down):  8.168E-02 0.000E+00

     total cpu time spent up to now is        1.0 secs

     total energy              =    -198.69069501 Ry
     Harris-Foulkes estimate   =    -198.69149804 Ry
     estimated scf accuracy    <       0.00177994 Ry

     iteration #  4     ecut=    35.00 Ry     beta= 0.70
     Davidson diagonalization with overlap
     ethr =  1.11E-05,  avg # of iterations =  2.9

     negative rho (up, down):  8.181E-02 0.000E+00

     total cpu time spent up to now is        1.2 secs

     total energy              =    -198.69132411 Ry
     Harris-Foulkes estimate   =    -198.69132983 Ry
     estimated scf accuracy    <       0.00001715 Ry

     iteration #  5     ecut=    35.00 Ry     beta= 0.70
     Davidson diagonalization with overlap
     ethr =  1.07E-07,  avg # of iterations =  1.9

     negative rho (up, down):  8.187E-02 0.000E+00

     total cpu time spent up to now is        1.3 secs

     total energy              =    -198.69132790 Ry
     Harris-Foulkes estimate   =    -198.69132770 Ry
     estimated scf accuracy    <       0.00000023 Ry

     iteration #  6     ecut=    35.00 Ry     beta= 0.70
     Davidson diagonalization with overlap
     ethr =  1.46E-09,  avg # of iterations =  2.3

     negative rho (up, down):  8.186E-02 0.000E+00

     total cpu time spent up to now is        1.5 secs

     End of self-consistent calculation

          k = 0.0000 0.0000 0.0000 (   411 PWs)   bands (ev):

   -34.7258 -34.7258 -34.7258   8.7312  12.4393  12.4393  12.4393  13.6413
    13.6413  32.0832  35.8271  35.8271

          k =-0.1667 0.1667-0.1667 (   408 PWs)   bands (ev):

   -34.7788 -34.7336 -34.7336   9.5423  12.2774  12.6366  12.6366  13.6037
    13.6037  30.7406  33.0051  36.1671

          k =-0.3333 0.3333-0.3333 (   419 PWs)   bands (ev):

   -34.8850 -34.7495 -34.7495  10.5575  12.5658  12.5658  13.4240  14.1027
    14.1027  24.7108  32.0627  35.4068

          k = 0.5000-0.5000 0.5000 (   410 PWs)   bands (ev):

   -34.9370 -34.7573 -34.7573  10.5213  12.4147  12.4147  14.5367  14.5367
    16.0014  20.6553  31.3055  34.2839

          k = 0.0000 0.3333 0.0000 (   407 PWs)   bands (ev):

   -34.7769 -34.7459 -34.7459   9.8141  11.9628  12.8948  12.8948  13.2186
    13.8495  32.6556  33.3643  33.4011

          k =-0.1667 0.5000-0.1667 (   416 PWs)   bands (ev):

   -34.8551 -34.7642 -34.7639  10.9143  11.8521  12.5958  13.0850  14.2518
    14.3504  27.1775  31.7954  32.0394

          k = 0.6667-0.3333 0.6667 (   409 PWs)   bands (ev):

   -34.9162 -34.7881 -34.7694  10.9738  12.1114  12.8768  13.0259  14.5685
    17.4130  21.5650  29.9838  31.8439

          k = 0.5000-0.1667 0.5000 (   418 PWs)   bands (ev):

   -34.8995 -34.7951 -34.7573  11.1112  12.2195  12.8586  12.8919  13.9805
    16.5055  23.3328  28.9288  32.9951

          k = 0.3333 0.0000 0.3333 (   417 PWs)   bands (ev):

   -34.8301 -34.7687 -34.7393  10.6565  11.9726  12.6711  13.0328  13.2093
    14.4478  29.0680  29.6341  35.3163

          k = 0.0000 0.6667 0.0000 (   432 PWs)   bands (ev):

   -34.8780 -34.7866 -34.7866  10.8628  11.1131  14.0218  14.0218  14.2851
    14.5443  28.8915  29.0216  29.0216

          k = 0.8333-0.1667 0.8333 (   417 PWs)   bands (ev):

   -34.9050 -34.8188 -34.7943  10.8852  11.1745  13.5360  13.9452  14.6435
    18.0656  24.3567  25.8873  28.4930

          k = 0.6667-0.0000 0.6667 (   403 PWs)   bands (ev):

   -34.8697 -34.8690 -34.7795  11.3032  11.8824  12.5977  13.5621  14.2051
    19.9301  22.5593  24.2773  30.6962

          k = 0.0000-1.0000 0.0000 (   412 PWs)   bands (ev):

   -34.9264 -34.8060 -34.8060  10.5211  10.7319  14.5174  14.7691  14.7691
    17.9973  23.6993  26.9932  26.9932

          k = 0.6667-0.3333 1.0000 (   417 PWs)   bands (ev):

   -34.8843 -34.8141 -34.7756  11.5495  11.5673  12.3142  13.7993  14.0125
    16.8138  26.1247  26.2795  29.5123

          k = 0.5000-0.1667 0.8333 (   416 PWs)   bands (ev):

   -34.8915 -34.8395 -34.7880  11.6213  11.6473  12.3730  13.4616  14.4800
    20.4153  21.2100  26.7802  27.4597

          k =-0.3333-1.0000 0.0000 (   418 PWs)   bands (ev):

   -34.8967 -34.8367 -34.8075  11.0937  11.3228  13.0220  13.8912  14.7688
    20.6233  23.6572  24.6006  25.3710

     the Fermi energy is    14.5710 ev

!    total energy              =    -198.69132794 Ry
     Harris-Foulkes estimate   =    -198.69132797 Ry
     estimated scf accuracy    <       0.00000004 Ry

     The total energy is the sum of the following terms:

     one-electron contribution =     -57.25345370 Ry
     hartree contribution      =      40.29048253 Ry
     xc contribution           =     -31.25177689 Ry
     ewald contribution        =    -150.47752455 Ry
     smearing contrib. (-TS)   =       0.00094468 Ry

     convergence has been achieved in   6 iterations

     Writing output data file Pd-kp-conv.save/
 
     init_run     :      0.36s CPU      0.38s WALL (       1 calls)
     electrons    :      0.97s CPU      1.09s WALL (       1 calls)

     Called by init_run:
     wfcinit      :      0.05s CPU      0.06s WALL (       1 calls)
     potinit      :      0.01s CPU      0.01s WALL (       1 calls)
     hinit0       :      0.29s CPU      0.29s WALL (       1 calls)

     Called by electrons:
     c_bands      :      0.74s CPU      0.80s WALL (       6 calls)
     sum_band     :      0.17s CPU      0.18s WALL (       6 calls)
     v_of_rho     :      0.03s CPU      0.03s WALL (       7 calls)
     newd         :      0.04s CPU      0.04s WALL (       7 calls)
     mix_rho      :      0.00s CPU      0.00s WALL (       6 calls)

     Called by c_bands:
     init_us_2    :      0.02s CPU      0.02s WALL (     208 calls)
     cegterg      :      0.69s CPU      0.74s WALL (      96 calls)

     Called by sum_band:
     sum_band:bec :      0.00s CPU      0.00s WALL (      96 calls)
     addusdens    :      0.04s CPU      0.04s WALL (       6 calls)

     Called by *egterg:
     h_psi        :      0.56s CPU      0.60s WALL (     346 calls)
     s_psi        :      0.01s CPU      0.01s WALL (     346 calls)
     g_psi        :      0.01s CPU      0.01s WALL (     234 calls)
     cdiaghg      :      0.09s CPU      0.10s WALL (     330 calls)

     Called by h_psi:
     h_psi:pot    :      0.56s CPU      0.60s WALL (     346 calls)
     h_psi:calbec :      0.02s CPU      0.02s WALL (     346 calls)
     vloc_psi     :      0.53s CPU      0.57s WALL (     346 calls)
     add_vuspsi   :      0.01s CPU      0.01s WALL (     346 calls)

     General routines
     calbec       :      0.02s CPU      0.02s WALL (     442 calls)
     fft          :      0.01s CPU      0.01s WALL (      78 calls)
     ffts         :      0.00s CPU      0.00s WALL (       6 calls)
     fftw         :      0.56s CPU      0.60s WALL (    7298 calls)
 
     Parallel routines
     fft_scatt_xy :      0.10s CPU      0.11s WALL (    7382 calls)
     fft_scatt_yz :      0.15s CPU      0.16s WALL (    7382 calls)
 
     PWSCF        :     1.40s CPU         1.66s WALL

 
   This run was terminated on:  21:59:55   2Dec2021            

=------------------------------------------------------------------------------=
   JOB DONE.
=------------------------------------------------------------------------------=
