
     Program PWSCF v.6.4.1 starts on  5Dec2021 at 22:55:29 

     This program is part of the open-source Quantum ESPRESSO suite
     for quantum simulation of materials; please cite
         "P. Giannozzi et al., J. Phys.:Condens. Matter 21 395502 (2009);
         "P. Giannozzi et al., J. Phys.:Condens. Matter 29 465901 (2017);
          URL http://www.quantum-espresso.org", 
     in publications or presentations arising from this work. More details at
     http://www.quantum-espresso.org/quote

     Parallel version (MPI), running on     1 processors

     MPI processes distributed on     1 nodes
     Reading input from pw.in

     Current dimensions of program PWSCF are:
     Max number of different atomic species (ntypx) = 10
     Max number of k-points (npk) =  40000
     Max angular momentum in pseudopotentials (lmaxx) =  3

     gamma-point specific algorithms are used

     Subspace diagonalization in iterative solution of the eigenvalue problem:
     a serial algorithm will be used


     G-vector sticks info
     --------------------
     sticks:   dense  smooth     PW     G-vecs:    dense   smooth      PW
     Sum        7685    7685   1917               505887   505887   63077


     Title: 
     CHFBr2-mol-scf                                                             


     bravais-lattice index     =            0
     lattice parameter (alat)  =      28.3459  a.u.
     unit-cell volume          =   22775.6292 (a.u.)^3
     number of atoms/cell      =            5
     number of atomic types    =            4
     number of electrons       =        26.00
     number of Kohn-Sham states=           46
     kinetic-energy cutoff     =      30.0000  Ry
     charge density cutoff     =     120.0000  Ry
     convergence threshold     =      1.0E-07
     mixing beta               =       0.7000
     number of iterations used =            8  plain     mixing
     Exchange-correlation      =  SLA  PW   PBX  PBC ( 1  4  3  4 0 0)
     nstep                     =           50


     celldm(1)=  28.345892  celldm(2)=   0.000000  celldm(3)=   0.000000
     celldm(4)=   0.000000  celldm(5)=   0.000000  celldm(6)=   0.000000

     crystal axes: (cart. coord. in units of alat)
               a(1) = (   1.000000   0.000000   0.000000 )  
               a(2) = (   0.000000   1.000000   0.000000 )  
               a(3) = (   0.000000   0.000000   1.000000 )  

     reciprocal axes: (cart. coord. in units 2 pi/alat)
               b(1) = (  1.000000  0.000000  0.000000 )  
               b(2) = (  0.000000  1.000000  0.000000 )  
               b(3) = (  0.000000  0.000000  1.000000 )  


     PseudoPot. # 1 for H  read from file:
     ./h_pbe_v1.4.uspp.F.UPF
     MD5 check sum: 761ae9a214b05c3daf00ab9f6b793d6f
     Pseudo is Ultrasoft, Zval =  1.0
     Generated by new atomic code, or converted to UPF format
     Using radial grid of  615 points,  2 beta functions with: 
                l(1) =   0
                l(2) =   0
     Q(r) pseudized with  8 coefficients,  rinner =    0.700

     PseudoPot. # 2 for C  read from file:
     ./c_pbe_v1.2.uspp.F.UPF
     MD5 check sum: d1aef80898a10debaa0f26306b886e00
     Pseudo is Ultrasoft + core correction, Zval =  4.0
     Generated by new atomic code, or converted to UPF format
     Using radial grid of  721 points,  4 beta functions with: 
                l(1) =   0
                l(2) =   0
                l(3) =   1
                l(4) =   1
     Q(r) pseudized with  8 coefficients,  rinner =    1.100   1.100   1.100


     PseudoPot. # 3 for F  read from file:
     ./f_pbe_v1.4.uspp.F.UPF
     MD5 check sum: 4c38b6a325caf53ec0e86aed9459de46
     Pseudo is Ultrasoft, Zval =  7.0
     Generated by new atomic code, or converted to UPF format
     Using radial grid of  799 points,  4 beta functions with: 
                l(1) =   0
                l(2) =   0
                l(3) =   1
                l(4) =   1
     Q(r) pseudized with  8 coefficients,  rinner =    0.950   0.950   0.950


     PseudoPot. # 4 for Br read from file:
     ./br_pbe_v1.4.uspp.F.UPF
     MD5 check sum: d3ffb7b29f6225aa16fe06858fb2a80b
     Pseudo is Ultrasoft + core correction, Zval =  7.0
     Generated by new atomic code, or converted to UPF format
     Using radial grid of  879 points,  6 beta functions with: 
                l(1) =   0
                l(2) =   0
                l(3) =   1
                l(4) =   1
                l(5) =   2
                l(6) =   2
     Q(r) pseudized with  8 coefficients,  rinner =    1.100   1.100   1.100
                                                       1.100   1.100

     atomic species   valence    mass     pseudopotential
        H              1.00     1.00790     H ( 1.00)
        C              4.00    12.01100     C ( 1.00)
        F              7.00    18.99840     F ( 1.00)
        Br             7.00    79.90400     Br( 1.00)

     No symmetry found



   Cartesian axes

     site n.     atom                  positions (alat units)
         1           C   tau(   1) = (   1.1419551   0.6593081   1.9399405  )
         2           H   tau(   2) = (   1.0798684   0.6322707   1.9649753  )
         3           F   tau(   3) = (   1.1513765   0.7444506   1.9679364  )
         4           Br  tau(   4) = (   1.1377887   0.6567699   1.8124106  )
         5           Br  tau(   5) = (   1.2375482   0.5885706   1.9862369  )

     number of k points=     1
                       cart. coord. in units 2pi/alat
        k(    1) = (   0.0000000   0.0000000   0.0000000), wk =   2.0000000

     Dense  grid:   252944 G-vectors     FFT dimensions: ( 100, 100, 100)

     Estimated max dynamical RAM per process >       1.01 GB

     Initial potential from superposition of free atoms

     starting charge   25.99991, renormalised to   26.00000

     negative rho (up, down):  4.210E-02 0.000E+00
     Starting wfcs are   17 randomized atomic wfcs +   29 random wfcs

     total cpu time spent up to now is        4.8 secs

     Self-consistent Calculation

     iteration #  1     ecut=    30.00 Ry     beta= 0.70
     Davidson diagonalization with overlap
     ethr =  1.00E-02,  avg # of iterations =  8.0

     Threshold (ethr) on eigenvalues was too large:
     Diagonalizing with lowered threshold

     Davidson diagonalization with overlap
     ethr =  7.07E-04,  avg # of iterations =  1.0

     negative rho (up, down):  5.621E-02 0.000E+00

     total cpu time spent up to now is       19.2 secs

     total energy              =    -154.89420078 Ry
     Harris-Foulkes estimate   =    -154.98923239 Ry
     estimated scf accuracy    <       0.18385482 Ry

     iteration #  2     ecut=    30.00 Ry     beta= 0.70
     Davidson diagonalization with overlap
     ethr =  7.07E-04,  avg # of iterations =  3.0

     negative rho (up, down):  6.014E-02 0.000E+00

     total cpu time spent up to now is       23.9 secs

     total energy              =    -154.90231829 Ry
     Harris-Foulkes estimate   =    -154.95450857 Ry
     estimated scf accuracy    <       0.08884659 Ry

     iteration #  3     ecut=    30.00 Ry     beta= 0.70
     Davidson diagonalization with overlap
     ethr =  3.42E-04,  avg # of iterations =  3.0

     negative rho (up, down):  6.547E-02 0.000E+00

     total cpu time spent up to now is       28.5 secs

     total energy              =    -154.92787825 Ry
     Harris-Foulkes estimate   =    -154.93602405 Ry
     estimated scf accuracy    <       0.01828822 Ry

     iteration #  4     ecut=    30.00 Ry     beta= 0.70
     Davidson diagonalization with overlap
     ethr =  7.03E-05,  avg # of iterations =  8.0

     negative rho (up, down):  6.661E-02 0.000E+00

     total cpu time spent up to now is       34.7 secs

     total energy              =    -154.93118387 Ry
     Harris-Foulkes estimate   =    -154.93134605 Ry
     estimated scf accuracy    <       0.00030550 Ry

     iteration #  5     ecut=    30.00 Ry     beta= 0.70
     Davidson diagonalization with overlap
     ethr =  1.18E-06,  avg # of iterations =  5.0

     negative rho (up, down):  6.714E-02 0.000E+00

     total cpu time spent up to now is       42.2 secs

     total energy              =    -154.93126445 Ry
     Harris-Foulkes estimate   =    -154.93132802 Ry
     estimated scf accuracy    <       0.00013731 Ry

     iteration #  6     ecut=    30.00 Ry     beta= 0.70
     Davidson diagonalization with overlap
     ethr =  5.28E-07,  avg # of iterations =  2.0

     negative rho (up, down):  6.724E-02 0.000E+00

     total cpu time spent up to now is       47.0 secs

     total energy              =    -154.93129345 Ry
     Harris-Foulkes estimate   =    -154.93129525 Ry
     estimated scf accuracy    <       0.00000402 Ry

     iteration #  7     ecut=    30.00 Ry     beta= 0.70
     Davidson diagonalization with overlap
     ethr =  1.55E-08,  avg # of iterations =  2.0

     negative rho (up, down):  6.726E-02 0.000E+00

     total cpu time spent up to now is       51.6 secs

     End of self-consistent calculation

          k = 0.0000 0.0000 0.0000 ( 31539 PWs)   bands (ev):

   -31.5634 -21.7131 -20.3172 -16.6775 -13.6270 -12.5243 -12.3479  -9.4552
    -9.2513  -7.7852  -7.2882  -7.2286  -6.8630  -2.0631  -0.9443  -0.7863
    -0.2144  -0.0299  -0.0200   0.0114   0.0379   0.0856   0.4072   0.4844
     0.5967   0.6455   0.6574   0.6834   0.6994   0.7026   0.7230   0.7305
     0.7425   0.7629   0.9665   1.2531   1.3203   1.3312   1.3447   1.3649
     1.3910   1.4123   1.4775   1.7110   1.8613   1.9014

     highest occupied, lowest unoccupied level (ev):    -6.8630   -2.0631

!    total energy              =    -154.93129428 Ry
     Harris-Foulkes estimate   =    -154.93129432 Ry
     estimated scf accuracy    <       0.00000008 Ry

     The total energy is the sum of the following terms:

     one-electron contribution =    -294.90257805 Ry
     hartree contribution      =     150.93077985 Ry
     xc contribution           =     -65.76691114 Ry
     ewald contribution        =      54.80741507 Ry

     convergence has been achieved in   7 iterations

     negative rho (up, down):  6.726E-02 0.000E+00

     Forces acting on atoms (cartesian axes, Ry/au):

     atom    1 type  2   force =    -0.00010453    0.00065766    0.00018332
     atom    2 type  1   force =    -0.01812624   -0.00856905    0.00699899
     atom    3 type  3   force =     0.00132241    0.02433664    0.00866832
     atom    4 type  4   force =    -0.00278541   -0.00042424   -0.02757485
     atom    5 type  4   force =     0.01969376   -0.01600101    0.01172421

     Total force =     0.051675     Total SCF correction =     0.000532

     BFGS Geometry Optimization

     number of scf cycles    =   1
     number of bfgs steps    =   0

     energy   new            =    -154.9312942760 Ry

     new trust radius        =       0.0279523500 bohr
     new conv_thr            =       0.0000001000 Ry


ATOMIC_POSITIONS (angstrom)
C       17.129270586   9.889968939  29.099204122
H       16.188434428   9.479525634  29.478333091
F       17.271346672  11.179636949  29.523632357
Br      17.065356203   9.851324038  27.171566527
Br      18.573643942   8.820092093  29.799757991



     Writing output data file CHFBr2-mol-scf.save/
     Message from routine punch:
     wavefunctions written to file
     NEW-OLD atomic charge density approx. for the potential

     negative rho (up, down):  6.767E-02 0.000E+00

     total cpu time spent up to now is       55.1 secs

     Self-consistent Calculation

     iteration #  1     ecut=    30.00 Ry     beta= 0.70
     Davidson diagonalization with overlap
     ethr =  1.00E-06,  avg # of iterations =  4.0

     negative rho (up, down):  6.716E-02 0.000E+00

     total cpu time spent up to now is       60.9 secs

     total energy              =    -154.93294376 Ry
     Harris-Foulkes estimate   =    -154.93324899 Ry
     estimated scf accuracy    <       0.00050359 Ry

     iteration #  2     ecut=    30.00 Ry     beta= 0.70
     Davidson diagonalization with overlap
     ethr =  1.94E-06,  avg # of iterations =  3.0

     negative rho (up, down):  6.741E-02 0.000E+00

     total cpu time spent up to now is       65.7 secs

     total energy              =    -154.93299027 Ry
     Harris-Foulkes estimate   =    -154.93327692 Ry
     estimated scf accuracy    <       0.00059411 Ry

     iteration #  3     ecut=    30.00 Ry     beta= 0.70
     Davidson diagonalization with overlap
     ethr =  1.94E-06,  avg # of iterations =  2.0

     negative rho (up, down):  6.763E-02 0.000E+00

     total cpu time spent up to now is       70.3 secs

     total energy              =    -154.93312418 Ry
     Harris-Foulkes estimate   =    -154.93313036 Ry
     estimated scf accuracy    <       0.00001743 Ry

     iteration #  4     ecut=    30.00 Ry     beta= 0.70
     Davidson diagonalization with overlap
     ethr =  6.70E-08,  avg # of iterations =  2.0

     negative rho (up, down):  6.769E-02 0.000E+00

     total cpu time spent up to now is       74.6 secs

     total energy              =    -154.93312728 Ry
     Harris-Foulkes estimate   =    -154.93312739 Ry
     estimated scf accuracy    <       0.00000041 Ry

     iteration #  5     ecut=    30.00 Ry     beta= 0.70
     Davidson diagonalization with overlap
     ethr =  1.58E-09,  avg # of iterations =  2.0

     negative rho (up, down):  6.771E-02 0.000E+00

     total cpu time spent up to now is       79.1 secs

     End of self-consistent calculation

          k = 0.0000 0.0000 0.0000 ( 31539 PWs)   bands (ev):

   -31.4008 -21.6309 -20.2903 -16.6581 -13.5212 -12.4410 -12.2500  -9.4331
    -9.2416  -7.7766  -7.2950  -7.2391  -6.8859  -2.1920  -1.0489  -0.7922
    -0.2240  -0.0323  -0.0243   0.0015   0.0351   0.0778   0.3554   0.4766
     0.5935   0.6425   0.6521   0.6797   0.6969   0.7006   0.7211   0.7284
     0.7407   0.7557   0.9255   1.2468   1.3177   1.3282   1.3407   1.3615
     1.3871   1.4080   1.4609   1.7023   1.8580   1.8964

     highest occupied, lowest unoccupied level (ev):    -6.8859   -2.1920

!    total energy              =    -154.93312735 Ry
     Harris-Foulkes estimate   =    -154.93312736 Ry
     estimated scf accuracy    <       0.00000001 Ry

     The total energy is the sum of the following terms:

     one-electron contribution =    -292.97660778 Ry
     hartree contribution      =     149.98268353 Ry
     xc contribution           =     -65.72355351 Ry
     ewald contribution        =      53.78435041 Ry

     convergence has been achieved in   5 iterations

     negative rho (up, down):  6.771E-02 0.000E+00

     Forces acting on atoms (cartesian axes, Ry/au):

     atom    1 type  2   force =    -0.00365039    0.00629269    0.00456389
     atom    2 type  1   force =    -0.00436962   -0.00181040    0.00180185
     atom    3 type  3   force =    -0.00049739    0.00322292    0.00136475
     atom    4 type  4   force =    -0.00166893    0.00029290   -0.01437549
     atom    5 type  4   force =     0.01018633   -0.00799811    0.00664501

     Total force =     0.023093     Total SCF correction =     0.000225

     number of scf cycles    =   2
     number of bfgs steps    =   1

     energy   old            =    -154.9312942760 Ry
     energy   new            =    -154.9331273472 Ry

     CASE: energy  _new < energy  _old

     new trust radius        =       0.0275043771 bohr
     new conv_thr            =       0.0000000144 Ry


ATOMIC_POSITIONS (angstrom)
C       17.126156180   9.895374744  29.103101986
H       16.183309083   9.477319917  29.480409661
F       17.271026066  11.184268585  29.525466552
Br      17.063719815   9.851540350  27.157193258
Br      18.583840687   8.812044056  29.806322629



     Writing output data file CHFBr2-mol-scf.save/
     Message from routine punch:
     wavefunctions written to file
     NEW-OLD atomic charge density approx. for the potential

     negative rho (up, down):  6.768E-02 0.000E+00

     total cpu time spent up to now is       82.6 secs

     Self-consistent Calculation

     iteration #  1     ecut=    30.00 Ry     beta= 0.70
     Davidson diagonalization with overlap
     ethr =  1.00E-06,  avg # of iterations =  4.0

     negative rho (up, down):  6.744E-02 0.000E+00

     total cpu time spent up to now is       88.3 secs

     total energy              =    -154.93351276 Ry
     Harris-Foulkes estimate   =    -154.93375981 Ry
     estimated scf accuracy    <       0.00034987 Ry

     iteration #  2     ecut=    30.00 Ry     beta= 0.70
     Davidson diagonalization with overlap
     ethr =  1.35E-06,  avg # of iterations =  2.0

     negative rho (up, down):  6.755E-02 0.000E+00

     total cpu time spent up to now is       93.0 secs

     total energy              =    -154.93355939 Ry
     Harris-Foulkes estimate   =    -154.93382924 Ry
     estimated scf accuracy    <       0.00060514 Ry

     iteration #  3     ecut=    30.00 Ry     beta= 0.70
     Davidson diagonalization with overlap
     ethr =  1.35E-06,  avg # of iterations =  2.0

     negative rho (up, down):  6.758E-02 0.000E+00

     total cpu time spent up to now is       97.6 secs

     total energy              =    -154.93367693 Ry
     Harris-Foulkes estimate   =    -154.93367754 Ry
     estimated scf accuracy    <       0.00000326 Ry

     iteration #  4     ecut=    30.00 Ry     beta= 0.70
     Davidson diagonalization with overlap
     ethr =  1.26E-08,  avg # of iterations =  2.0

     negative rho (up, down):  6.759E-02 0.000E+00

     total cpu time spent up to now is      102.1 secs

     total energy              =    -154.93367732 Ry
     Harris-Foulkes estimate   =    -154.93367771 Ry
     estimated scf accuracy    <       0.00000073 Ry

     iteration #  5     ecut=    30.00 Ry     beta= 0.70
     Davidson diagonalization with overlap
     ethr =  2.79E-09,  avg # of iterations =  2.0

     negative rho (up, down):  6.759E-02 0.000E+00

     total cpu time spent up to now is      106.6 secs

     total energy              =    -154.93367750 Ry
     Harris-Foulkes estimate   =    -154.93367755 Ry
     estimated scf accuracy    <       0.00000011 Ry

     iteration #  6     ecut=    30.00 Ry     beta= 0.70
     Davidson diagonalization with overlap
     ethr =  4.05E-10,  avg # of iterations =  2.0

     negative rho (up, down):  6.759E-02 0.000E+00

     total cpu time spent up to now is      110.9 secs

     End of self-consistent calculation

          k = 0.0000 0.0000 0.0000 ( 31539 PWs)   bands (ev):

   -31.4569 -21.5202 -20.2407 -16.6918 -13.5371 -12.4272 -12.2537  -9.4367
    -9.2287  -7.7537  -7.2931  -7.2320  -6.8885  -2.3168  -1.1653  -0.7939
    -0.2259  -0.0325  -0.0266  -0.0042   0.0348   0.0730   0.3484   0.4750
     0.5920   0.6431   0.6511   0.6792   0.6972   0.7009   0.7211   0.7284
     0.7406   0.7512   0.9263   1.2466   1.3176   1.3280   1.3404   1.3612
     1.3852   1.4092   1.4614   1.7004   1.8573   1.8930

     highest occupied, lowest unoccupied level (ev):    -6.8885   -2.3168

!    total energy              =    -154.93367752 Ry
     Harris-Foulkes estimate   =    -154.93367752 Ry
     estimated scf accuracy    <          1.5E-09 Ry

     The total energy is the sum of the following terms:

     one-electron contribution =    -291.64090758 Ry
     hartree contribution      =     149.30421441 Ry
     xc contribution           =     -65.69558175 Ry
     ewald contribution        =      53.09859739 Ry

     convergence has been achieved in   6 iterations

     negative rho (up, down):  6.759E-02 0.000E+00

     Forces acting on atoms (cartesian axes, Ry/au):

     atom    1 type  2   force =     0.00062414    0.00078126   -0.00003069
     atom    2 type  1   force =     0.00033280    0.00085929    0.00017381
     atom    3 type  3   force =    -0.00106589   -0.00143341   -0.00012053
     atom    4 type  4   force =    -0.00097887    0.00068019   -0.00206607
     atom    5 type  4   force =     0.00108782   -0.00088733    0.00204348

     Total force =     0.004114     Total SCF correction =     0.000044

     number of scf cycles    =   3
     number of bfgs steps    =   2

     energy   old            =    -154.9331273472 Ry
     energy   new            =    -154.9336775209 Ry

     CASE: energy  _new < energy  _old

     new trust radius        =       0.0043839901 bohr
     new conv_thr            =       0.0000000021 Ry


ATOMIC_POSITIONS (angstrom)
C       17.126393704   9.896069539  29.103248680
H       16.183082799   9.477636720  29.480679710
F       17.270398215  11.183895627  29.525571831
Br      17.063041100   9.851946332  27.155054801
Br      18.585136014   8.810999435  29.807939065



     Writing output data file CHFBr2-mol-scf.save/
     Message from routine punch:
     wavefunctions written to file
     NEW-OLD atomic charge density approx. for the potential

     negative rho (up, down):  6.758E-02 0.000E+00

     total cpu time spent up to now is      114.4 secs

     Self-consistent Calculation

     iteration #  1     ecut=    30.00 Ry     beta= 0.70
     Davidson diagonalization with overlap
     ethr =  1.00E-06,  avg # of iterations =  2.0

     Threshold (ethr) on eigenvalues was too large:
     Diagonalizing with lowered threshold

     Davidson diagonalization with overlap
     ethr =  1.53E-08,  avg # of iterations =  3.0

     negative rho (up, down):  6.754E-02 0.000E+00

     total cpu time spent up to now is      122.5 secs

     total energy              =    -154.93369252 Ry
     Harris-Foulkes estimate   =    -154.93369531 Ry
     estimated scf accuracy    <       0.00000445 Ry

     iteration #  2     ecut=    30.00 Ry     beta= 0.70
     Davidson diagonalization with overlap
     ethr =  1.71E-08,  avg # of iterations =  2.0

     negative rho (up, down):  6.754E-02 0.000E+00

     total cpu time spent up to now is      127.0 secs

     total energy              =    -154.93369293 Ry
     Harris-Foulkes estimate   =    -154.93369585 Ry
     estimated scf accuracy    <       0.00000629 Ry

     iteration #  3     ecut=    30.00 Ry     beta= 0.70
     Davidson diagonalization with overlap
     ethr =  1.71E-08,  avg # of iterations =  2.0

     negative rho (up, down):  6.753E-02 0.000E+00

     total cpu time spent up to now is      131.5 secs

     total energy              =    -154.93369428 Ry
     Harris-Foulkes estimate   =    -154.93369430 Ry
     estimated scf accuracy    <       0.00000011 Ry

     iteration #  4     ecut=    30.00 Ry     beta= 0.70
     Davidson diagonalization with overlap
     ethr =  4.11E-10,  avg # of iterations =  2.0

     negative rho (up, down):  6.753E-02 0.000E+00

     total cpu time spent up to now is      135.9 secs

     total energy              =    -154.93369429 Ry
     Harris-Foulkes estimate   =    -154.93369429 Ry
     estimated scf accuracy    <          4.5E-09 Ry

     iteration #  5     ecut=    30.00 Ry     beta= 0.70
     Davidson diagonalization with overlap
     ethr =  1.73E-11,  avg # of iterations =  2.0

     negative rho (up, down):  6.753E-02 0.000E+00

     total cpu time spent up to now is      140.6 secs

     End of self-consistent calculation

          k = 0.0000 0.0000 0.0000 ( 31539 PWs)   bands (ev):

   -31.4772 -21.5046 -20.2351 -16.6972 -13.5427 -12.4305 -12.2613  -9.4363
    -9.2273  -7.7499  -7.2908  -7.2313  -6.8900  -2.3330  -1.1768  -0.7942
    -0.2263  -0.0324  -0.0267  -0.0040   0.0349   0.0729   0.3519   0.4747
     0.5920   0.6434   0.6513   0.6793   0.6975   0.7010   0.7212   0.7287
     0.7408   0.7510   0.9295   1.2467   1.3177   1.3281   1.3405   1.3614
     1.3852   1.4096   1.4626   1.7002   1.8574   1.8929

     highest occupied, lowest unoccupied level (ev):    -6.8900   -2.3330

!    total energy              =    -154.93369430 Ry
     Harris-Foulkes estimate   =    -154.93369430 Ry
     estimated scf accuracy    <          1.3E-09 Ry

     The total energy is the sum of the following terms:

     one-electron contribution =    -291.50759048 Ry
     hartree contribution      =     149.23502984 Ry
     xc contribution           =     -65.69306868 Ry
     ewald contribution        =      53.03193503 Ry

     convergence has been achieved in   5 iterations

     negative rho (up, down):  6.753E-02 0.000E+00

     Forces acting on atoms (cartesian axes, Ry/au):

     atom    1 type  2   force =     0.00030943   -0.00080610   -0.00049880
     atom    2 type  1   force =     0.00101849    0.00089552   -0.00021464
     atom    3 type  3   force =    -0.00067338   -0.00066461   -0.00001569
     atom    4 type  4   force =    -0.00074756    0.00064283   -0.00061770
     atom    5 type  4   force =     0.00009301   -0.00006765    0.00134682

     Total force =     0.002637     Total SCF correction =     0.000055

     number of scf cycles    =   4
     number of bfgs steps    =   3

     energy   old            =    -154.9336775209 Ry
     energy   new            =    -154.9336942958 Ry

     CASE: energy  _new < energy  _old

     new trust radius        =       0.0038340361 bohr
     new conv_thr            =       0.0000000010 Ry


ATOMIC_POSITIONS (angstrom)
C       17.126712747   9.895727364  29.102930806
H       16.183720942   9.478439854  29.480649619
F       17.269611162  11.183330290  29.525643288
Br      17.062150226   9.852625066  27.153523818
Br      18.585856754   8.810425078  29.809746555



     Writing output data file CHFBr2-mol-scf.save/
     Message from routine punch:
     wavefunctions written to file
     NEW-OLD atomic charge density approx. for the potential

     negative rho (up, down):  6.752E-02 0.000E+00

     total cpu time spent up to now is      144.0 secs

     Self-consistent Calculation

     iteration #  1     ecut=    30.00 Ry     beta= 0.70
     Davidson diagonalization with overlap
     ethr =  1.00E-06,  avg # of iterations =  2.0

     Threshold (ethr) on eigenvalues was too large:
     Diagonalizing with lowered threshold

     Davidson diagonalization with overlap
     ethr =  6.30E-09,  avg # of iterations =  2.0

     negative rho (up, down):  6.752E-02 0.000E+00

     total cpu time spent up to now is      152.5 secs

     total energy              =    -154.93370375 Ry
     Harris-Foulkes estimate   =    -154.93370427 Ry
     estimated scf accuracy    <       0.00000162 Ry

     iteration #  2     ecut=    30.00 Ry     beta= 0.70
     Davidson diagonalization with overlap
     ethr =  6.21E-09,  avg # of iterations =  2.0

     negative rho (up, down):  6.752E-02 0.000E+00

     total cpu time spent up to now is      156.9 secs

     total energy              =    -154.93370386 Ry
     Harris-Foulkes estimate   =    -154.93370407 Ry
     estimated scf accuracy    <       0.00000038 Ry

     iteration #  3     ecut=    30.00 Ry     beta= 0.70
     Davidson diagonalization with overlap
     ethr =  1.48E-09,  avg # of iterations =  2.0

     negative rho (up, down):  6.751E-02 0.000E+00

     total cpu time spent up to now is      161.6 secs

     total energy              =    -154.93370394 Ry
     Harris-Foulkes estimate   =    -154.93370405 Ry
     estimated scf accuracy    <       0.00000024 Ry

     iteration #  4     ecut=    30.00 Ry     beta= 0.70
     Davidson diagonalization with overlap
     ethr =  9.39E-10,  avg # of iterations =  2.0

     negative rho (up, down):  6.751E-02 0.000E+00

     total cpu time spent up to now is      165.9 secs

     total energy              =    -154.93370399 Ry
     Harris-Foulkes estimate   =    -154.93370400 Ry
     estimated scf accuracy    <          7.5E-09 Ry

     iteration #  5     ecut=    30.00 Ry     beta= 0.70
     Davidson diagonalization with overlap
     ethr =  2.89E-11,  avg # of iterations =  2.0

     negative rho (up, down):  6.751E-02 0.000E+00

     total cpu time spent up to now is      170.5 secs

     End of self-consistent calculation

          k = 0.0000 0.0000 0.0000 ( 31539 PWs)   bands (ev):

   -31.4806 -21.4965 -20.2340 -16.7014 -13.5427 -12.4299 -12.2622  -9.4342
    -9.2264  -7.7475  -7.2901  -7.2323  -6.8936  -2.3437  -1.1822  -0.7943
    -0.2263  -0.0324  -0.0269  -0.0037   0.0349   0.0729   0.3531   0.4750
     0.5919   0.6434   0.6513   0.6792   0.6976   0.7009   0.7212   0.7288
     0.7409   0.7508   0.9303   1.2469   1.3177   1.3282   1.3405   1.3614
     1.3852   1.4097   1.4628   1.7006   1.8574   1.8931

     highest occupied, lowest unoccupied level (ev):    -6.8936   -2.3437

!    total energy              =    -154.93370399 Ry
     Harris-Foulkes estimate   =    -154.93370399 Ry
     estimated scf accuracy    <          4.1E-10 Ry

     The total energy is the sum of the following terms:

     one-electron contribution =    -291.42489076 Ry
     hartree contribution      =     149.19300880 Ry
     xc contribution           =     -65.69194473 Ry
     ewald contribution        =      52.99012269 Ry

     convergence has been achieved in   5 iterations

     negative rho (up, down):  6.751E-02 0.000E+00

     Forces acting on atoms (cartesian axes, Ry/au):

     atom    1 type  2   force =     0.00088589   -0.00063849   -0.00078831
     atom    2 type  1   force =     0.00042724    0.00020932   -0.00016298
     atom    3 type  3   force =    -0.00032056   -0.00046403   -0.00010966
     atom    4 type  4   force =    -0.00049892    0.00050345    0.00028842
     atom    5 type  4   force =    -0.00049365    0.00038975    0.00077252

     Total force =     0.001994     Total SCF correction =     0.000030

     bfgs converged in   5 scf cycles and   4 bfgs steps
     (criteria: energy <  1.0E-04 Ry, force <  1.0E-03 Ry/Bohr)

     End of BFGS Geometry Optimization

     Final energy   =    -154.9337039923 Ry
Begin final coordinates

ATOMIC_POSITIONS (angstrom)
C       17.126712747   9.895727364  29.102930806
H       16.183720942   9.478439854  29.480649619
F       17.269611162  11.183330290  29.525643288
Br      17.062150226   9.852625066  27.153523818
Br      18.585856754   8.810425078  29.809746555
End final coordinates



     Writing output data file CHFBr2-mol-scf.save/

     init_run     :      4.40s CPU      4.66s WALL (       1 calls)
     electrons    :    140.45s CPU    151.75s WALL (       5 calls)
     update_pot   :      2.96s CPU      2.97s WALL (       4 calls)
     forces       :      9.69s CPU     10.68s WALL (       5 calls)

     Called by init_run:
     wfcinit      :      1.25s CPU      1.28s WALL (       1 calls)
     potinit      :      0.66s CPU      0.69s WALL (       1 calls)
     hinit0       :      1.83s CPU      1.86s WALL (       1 calls)

     Called by electrons:
     c_bands      :     91.35s CPU     93.10s WALL (      31 calls)
     sum_band     :     26.42s CPU     31.30s WALL (      31 calls)
     v_of_rho     :     12.26s CPU     12.35s WALL (      33 calls)
     newd         :     13.36s CPU     18.67s WALL (      33 calls)
     mix_rho      :      0.91s CPU      0.92s WALL (      31 calls)

     Called by c_bands:
     init_us_2    :      0.55s CPU      0.58s WALL (      63 calls)
     regterg      :     90.04s CPU     91.78s WALL (      31 calls)

     Called by sum_band:
     sum_band:bec :      0.00s CPU      0.00s WALL (      31 calls)
     addusdens    :     14.43s CPU     19.21s WALL (      31 calls)

     Called by *egterg:
     h_psi        :     43.69s CPU     43.98s WALL (     116 calls)
     s_psi        :      6.40s CPU      6.42s WALL (     116 calls)
     g_psi        :      0.35s CPU      0.35s WALL (      84 calls)
     rdiaghg      :      0.24s CPU      0.24s WALL (     108 calls)

     Called by h_psi:
     h_psi:pot    :     43.49s CPU     43.76s WALL (     116 calls)
     h_psi:calbec :      8.67s CPU      8.70s WALL (     116 calls)
     vloc_psi     :     28.41s CPU     28.63s WALL (     116 calls)
     add_vuspsi   :      6.41s CPU      6.43s WALL (     116 calls)

     General routines
     calbec       :     14.39s CPU     14.45s WALL (     167 calls)
     fft          :      4.02s CPU      4.05s WALL (     349 calls)
     ffts         :      0.30s CPU      0.30s WALL (      31 calls)
     fftw         :     28.32s CPU     28.50s WALL (    4219 calls)
     davcio       :      0.00s CPU      0.02s WALL (       4 calls)

     Parallel routines

     PWSCF        :   2m39.45s CPU   2m52.64s WALL


   This run was terminated on:  22:58:21   5Dec2021            

=------------------------------------------------------------------------------=
   JOB DONE.
=------------------------------------------------------------------------------=
