
     Program PWSCF v.6.3 starts on  2Dec2021 at 20:32:46 

     This program is part of the open-source Quantum ESPRESSO suite
     for quantum simulation of materials; please cite
         "P. Giannozzi et al., J. Phys.:Condens. Matter 21 395502 (2009);
         "P. Giannozzi et al., J. Phys.:Condens. Matter 29 465901 (2017);
          URL http://www.quantum-espresso.org", 
     in publications or presentations arising from this work. More details at
     http://www.quantum-espresso.org/quote

     Parallel version (MPI & OpenMP), running on       2 processor cores
     Number of MPI processes:                 2
     Threads/MPI process:                     1

     MPI processes distributed on     1 nodes
     R & G space division:  proc/nbgrp/npool/nimage =       2
     Reading input from pw-input.in

     Current dimensions of program PWSCF are:
     Max number of different atomic species (ntypx) = 10
     Max number of k-points (npk) =  40000
     Max angular momentum in pseudopotentials (lmaxx) =  3

     Subspace diagonalization in iterative solution of the eigenvalue problem:
     a serial algorithm will be used

 
     Parallelization info
     --------------------
     sticks:   dense  smooth     PW     G-vecs:    dense   smooth      PW
     Min         150     150     54                 1738     1738     362
     Max         151     151     55                 1741     1741     363
     Sum         301     301    109                 3479     3479     725
 

     Title: 
     Pd-kp-conv                                                                 


     bravais-lattice index     =            2
     lattice parameter (alat)  =       7.9000  a.u.
     unit-cell volume          =     123.2598 (a.u.)^3
     number of atoms/cell      =            1
     number of atomic types    =            1
     number of electrons       =        16.00
     number of Kohn-Sham states=           12
     kinetic-energy cutoff     =      35.0000  Ry
     charge density cutoff     =     140.0000  Ry
     convergence threshold     =      1.0E-07
     mixing beta               =       0.7000
     number of iterations used =            8  plain     mixing
     Exchange-correlation      =  SLA  PW   PBX  PBC ( 1  4  3  4 0 0)

     celldm(1)=   7.900000  celldm(2)=   0.000000  celldm(3)=   0.000000
     celldm(4)=   0.000000  celldm(5)=   0.000000  celldm(6)=   0.000000

     crystal axes: (cart. coord. in units of alat)
               a(1) = (  -0.500000   0.000000   0.500000 )  
               a(2) = (   0.000000   0.500000   0.500000 )  
               a(3) = (  -0.500000   0.500000   0.000000 )  

     reciprocal axes: (cart. coord. in units 2 pi/alat)
               b(1) = ( -1.000000 -1.000000  1.000000 )  
               b(2) = (  1.000000  1.000000  1.000000 )  
               b(3) = ( -1.000000  1.000000 -1.000000 )  


     PseudoPot. # 1 for Pd read from file:
     ./pd_pbe_v1.4.uspp.F.UPF
     MD5 check sum: 2d733d2bc2cbfd217af676df1668a4bc
     Pseudo is Ultrasoft + core correction, Zval = 16.0
     Generated by new atomic code, or converted to UPF format
     Using radial grid of  887 points,  6 beta functions with: 
                l(1) =   0
                l(2) =   0
                l(3) =   1
                l(4) =   1
                l(5) =   2
                l(6) =   2
     Q(r) pseudized with  8 coefficients,  rinner =    1.130   1.130   1.130
                                                       1.130   1.130

     atomic species   valence    mass     pseudopotential
        Pd            16.00   106.40000     Pd( 1.00)

     48 Sym. Ops., with inversion, found



   Cartesian axes

     site n.     atom                  positions (alat units)
         1           Pd  tau(   1) = (   0.0000000   0.0000000   0.0000000  )

     number of k points=    72  Marzari-Vanderbilt smearing, width (Ry)=  0.0050
                       cart. coord. in units 2pi/alat
        k(    1) = (   0.0000000   0.0000000   0.0000000), wk =   0.0011574
        k(    2) = (  -0.0833333   0.0833333  -0.0833333), wk =   0.0092593
        k(    3) = (  -0.1666667   0.1666667  -0.1666667), wk =   0.0092593
        k(    4) = (  -0.2500000   0.2500000  -0.2500000), wk =   0.0092593
        k(    5) = (  -0.3333333   0.3333333  -0.3333333), wk =   0.0092593
        k(    6) = (  -0.4166667   0.4166667  -0.4166667), wk =   0.0092593
        k(    7) = (   0.5000000  -0.5000000   0.5000000), wk =   0.0046296
        k(    8) = (   0.0000000   0.1666667   0.0000000), wk =   0.0069444
        k(    9) = (  -0.0833333   0.2500000  -0.0833333), wk =   0.0277778
        k(   10) = (  -0.1666667   0.3333333  -0.1666667), wk =   0.0277778
        k(   11) = (  -0.2500000   0.4166667  -0.2500000), wk =   0.0277778
        k(   12) = (  -0.3333333   0.5000000  -0.3333333), wk =   0.0277778
        k(   13) = (   0.5833333  -0.4166667   0.5833333), wk =   0.0277778
        k(   14) = (   0.5000000  -0.3333333   0.5000000), wk =   0.0277778
        k(   15) = (   0.4166667  -0.2500000   0.4166667), wk =   0.0277778
        k(   16) = (   0.3333333  -0.1666667   0.3333333), wk =   0.0277778
        k(   17) = (   0.2500000  -0.0833333   0.2500000), wk =   0.0277778
        k(   18) = (   0.1666667  -0.0000000   0.1666667), wk =   0.0138889
        k(   19) = (   0.0000000   0.3333333   0.0000000), wk =   0.0069444
        k(   20) = (  -0.0833333   0.4166667  -0.0833333), wk =   0.0277778
        k(   21) = (  -0.1666667   0.5000000  -0.1666667), wk =   0.0277778
        k(   22) = (  -0.2500000   0.5833333  -0.2500000), wk =   0.0277778
        k(   23) = (   0.6666667  -0.3333333   0.6666667), wk =   0.0277778
        k(   24) = (   0.5833333  -0.2500000   0.5833333), wk =   0.0277778
        k(   25) = (   0.5000000  -0.1666667   0.5000000), wk =   0.0277778
        k(   26) = (   0.4166667  -0.0833333   0.4166667), wk =   0.0277778
        k(   27) = (   0.3333333   0.0000000   0.3333333), wk =   0.0138889
        k(   28) = (   0.0000000   0.5000000   0.0000000), wk =   0.0069444
        k(   29) = (  -0.0833333   0.5833333  -0.0833333), wk =   0.0277778
        k(   30) = (  -0.1666667   0.6666667  -0.1666667), wk =   0.0277778
        k(   31) = (   0.7500000  -0.2500000   0.7500000), wk =   0.0277778
        k(   32) = (   0.6666667  -0.1666667   0.6666667), wk =   0.0277778
        k(   33) = (   0.5833333  -0.0833333   0.5833333), wk =   0.0277778
        k(   34) = (   0.5000000   0.0000000   0.5000000), wk =   0.0138889
        k(   35) = (   0.0000000   0.6666667   0.0000000), wk =   0.0069444
        k(   36) = (  -0.0833333   0.7500000  -0.0833333), wk =   0.0277778
        k(   37) = (   0.8333333  -0.1666667   0.8333333), wk =   0.0277778
        k(   38) = (   0.7500000  -0.0833333   0.7500000), wk =   0.0277778
        k(   39) = (   0.6666667  -0.0000000   0.6666667), wk =   0.0138889
        k(   40) = (   0.0000000   0.8333333   0.0000000), wk =   0.0069444
        k(   41) = (   0.9166667  -0.0833333   0.9166667), wk =   0.0277778
        k(   42) = (   0.8333333   0.0000000   0.8333333), wk =   0.0138889
        k(   43) = (   0.0000000  -1.0000000   0.0000000), wk =   0.0034722
        k(   44) = (  -0.1666667   0.3333333   0.0000000), wk =   0.0277778
        k(   45) = (  -0.2500000   0.4166667  -0.0833333), wk =   0.0555556
        k(   46) = (  -0.3333333   0.5000000  -0.1666667), wk =   0.0555556
        k(   47) = (   0.5833333  -0.4166667   0.7500000), wk =   0.0555556
        k(   48) = (   0.5000000  -0.3333333   0.6666667), wk =   0.0277778
        k(   49) = (  -0.1666667   0.5000000   0.0000000), wk =   0.0277778
        k(   50) = (  -0.2500000   0.5833333  -0.0833333), wk =   0.0555556
        k(   51) = (   0.6666667  -0.3333333   0.8333333), wk =   0.0555556
        k(   52) = (   0.5833333  -0.2500000   0.7500000), wk =   0.0555556
        k(   53) = (   0.5000000  -0.1666667   0.6666667), wk =   0.0555556
        k(   54) = (   0.4166667  -0.0833333   0.5833333), wk =   0.0555556
        k(   55) = (   0.3333333   0.0000000   0.5000000), wk =   0.0277778
        k(   56) = (  -0.1666667   0.6666667  -0.0000000), wk =   0.0277778
        k(   57) = (   0.7500000  -0.2500000   0.9166667), wk =   0.0555556
        k(   58) = (   0.6666667  -0.1666667   0.8333333), wk =   0.0555556
        k(   59) = (   0.5833333  -0.0833333   0.7500000), wk =   0.0555556
        k(   60) = (   0.5000000   0.0000000   0.6666667), wk =   0.0277778
        k(   61) = (   0.8333333  -0.1666667   1.0000000), wk =   0.0277778
        k(   62) = (   0.7500000  -0.0833333   0.9166667), wk =   0.0555556
        k(   63) = (   0.6666667   0.0000000   0.8333333), wk =   0.0277778
        k(   64) = (  -0.1666667  -1.0000000  -0.0000000), wk =   0.0138889
        k(   65) = (   0.6666667  -0.3333333   1.0000000), wk =   0.0277778
        k(   66) = (   0.5833333  -0.2500000   0.9166667), wk =   0.0555556
        k(   67) = (   0.5000000  -0.1666667   0.8333333), wk =   0.0277778
        k(   68) = (   0.6666667  -0.1666667   1.0000000), wk =   0.0277778
        k(   69) = (   0.5833333  -0.0833333   0.9166667), wk =   0.0555556
        k(   70) = (   0.5000000   0.0000000   0.8333333), wk =   0.0277778
        k(   71) = (  -0.3333333  -1.0000000   0.0000000), wk =   0.0138889
        k(   72) = (  -0.5000000  -1.0000000   0.0000000), wk =   0.0069444

     Dense  grid:     3479 G-vectors     FFT dimensions: (  24,  24,  24)

     Estimated max dynamical RAM per process >      10.29 MB

     Estimated total dynamical RAM >      20.59 MB

     Initial potential from superposition of free atoms
     Check: negative starting charge=   -0.079301

     starting charge   15.49999, renormalised to   16.00000

     negative rho (up, down):  8.186E-02 0.000E+00
     Starting wfcs are   12 randomized atomic wfcs

     total cpu time spent up to now is        0.8 secs

     Self-consistent Calculation

     iteration #  1     ecut=    35.00 Ry     beta= 0.70
     Davidson diagonalization with overlap
     ethr =  1.00E-02,  avg # of iterations =  3.5

     negative rho (up, down):  7.988E-02 0.000E+00

     total cpu time spent up to now is        1.7 secs

     total energy              =    -198.00982596 Ry
     Harris-Foulkes estimate   =    -199.06417986 Ry
     estimated scf accuracy    <       1.43769820 Ry

     iteration #  2     ecut=    35.00 Ry     beta= 0.70
     Davidson diagonalization with overlap
     ethr =  8.99E-03,  avg # of iterations =  2.0

     negative rho (up, down):  8.154E-02 0.000E+00

     total cpu time spent up to now is        2.4 secs

     total energy              =    -198.33249304 Ry
     Harris-Foulkes estimate   =    -199.21003223 Ry
     estimated scf accuracy    <       1.84735405 Ry

     iteration #  3     ecut=    35.00 Ry     beta= 0.70
     Davidson diagonalization with overlap
     ethr =  8.99E-03,  avg # of iterations =  2.0

     negative rho (up, down):  8.164E-02 0.000E+00

     total cpu time spent up to now is        3.1 secs

     total energy              =    -198.68607028 Ry
     Harris-Foulkes estimate   =    -198.68662145 Ry
     estimated scf accuracy    <       0.00126739 Ry

     iteration #  4     ecut=    35.00 Ry     beta= 0.70
     Davidson diagonalization with overlap
     ethr =  7.92E-06,  avg # of iterations =  2.6

     negative rho (up, down):  8.178E-02 0.000E+00

     total cpu time spent up to now is        4.0 secs

     total energy              =    -198.68653788 Ry
     Harris-Foulkes estimate   =    -198.68653768 Ry
     estimated scf accuracy    <       0.00000435 Ry

     iteration #  5     ecut=    35.00 Ry     beta= 0.70
     Davidson diagonalization with overlap
     ethr =  2.72E-08,  avg # of iterations =  1.9

     negative rho (up, down):  8.179E-02 0.000E+00

     total cpu time spent up to now is        4.6 secs

     total energy              =    -198.68653854 Ry
     Harris-Foulkes estimate   =    -198.68653853 Ry
     estimated scf accuracy    <       0.00000013 Ry

     iteration #  6     ecut=    35.00 Ry     beta= 0.70
     Davidson diagonalization with overlap
     ethr =  8.09E-10,  avg # of iterations =  1.8

     negative rho (up, down):  8.179E-02 0.000E+00

     total cpu time spent up to now is        5.3 secs

     End of self-consistent calculation

          k = 0.0000 0.0000 0.0000 (   411 PWs)   bands (ev):

   -35.3785 -35.3785 -35.3785   8.1960  11.8154  11.8154  11.8154  12.9515
    12.9515  31.1642  34.6985  34.6985

          k =-0.0833 0.0833-0.0833 (   423 PWs)   bands (ev):

   -35.3914 -35.3805 -35.3805   8.4056  11.7577  11.8762  11.8762  12.9267
    12.9267  31.1932  33.1202  34.7896

          k =-0.1667 0.1667-0.1667 (   426 PWs)   bands (ev):

   -35.4249 -35.3856 -35.3856   8.9842  11.6613  12.0009  12.0009  12.9158
    12.9158  29.6354  32.0293  34.9432

          k =-0.2500 0.2500-0.2500 (   429 PWs)   bands (ev):

   -35.4710 -35.3925 -35.3925   9.6835  11.8213  12.0304  12.0304  13.0693
    13.0693  26.6530  31.7396  34.8025

          k =-0.3333 0.3333-0.3333 (   425 PWs)   bands (ev):

   -35.5167 -35.3994 -35.3994  10.0057  11.9373  11.9373  12.7549  13.3834
    13.3834  23.6555  31.1164  34.1232

          k =-0.4167 0.4167-0.4167 (   422 PWs)   bands (ev):

   -35.5499 -35.4044 -35.4044  10.0087  11.8358  11.8358  13.6736  13.6736
    14.2840  21.0080  30.5855  33.3732

          k = 0.5000-0.5000 0.5000 (   434 PWs)   bands (ev):

   -35.5623 -35.4065 -35.4065   9.9834  11.7945  11.7945  13.7888  13.7888
    15.2895  19.6434  30.3898  33.0694

          k = 0.0000 0.1667 0.0000 (   427 PWs)   bands (ev):

   -35.3909 -35.3835 -35.3835   8.4756  11.6913  11.9235  11.9235  12.8276
    13.0025  31.2993  33.6746  34.0289

          k =-0.0833 0.2500-0.0833 (   433 PWs)   bands (ev):

   -35.4161 -35.3895 -35.3870   8.9356  11.5574  12.0556  12.0599  12.7322
    13.0537  30.6652  31.9956  33.4256

          k =-0.1667 0.3333-0.1667 (   435 PWs)   bands (ev):

   -35.4572 -35.3969 -35.3930   9.6329  11.5178  12.0777  12.1425  12.8918
    13.1938  27.8045  31.7487  32.8885

          k =-0.2500 0.4167-0.2500 (   431 PWs)   bands (ev):

   -35.5019 -35.4038 -35.4008  10.1008  11.9028  11.9874  12.0894  13.4641
    13.4740  24.7515  31.2282  32.4013

          k =-0.3333 0.5000-0.3333 (   429 PWs)   bands (ev):

   -35.5384 -35.4086 -35.4083  10.1495  11.7782  11.9824  12.7448  13.7171
    14.5508  21.9151  30.6432  32.1188

          k = 0.5833-0.4167 0.5833 (   430 PWs)   bands (ev):

   -35.5569 -35.4140 -35.4092  10.1146  11.7094  11.9081  13.2015  13.7970
    15.8527  19.8575  30.2641  32.1438

          k = 0.5000-0.3333 0.5000 (   431 PWs)   bands (ev):

   -35.5529 -35.4157 -35.4065  10.1289  11.7368  11.9069  13.2041  13.6428
    15.5164  20.3851  30.1614  31.8850

          k = 0.4167-0.2500 0.4167 (   431 PWs)   bands (ev):

   -35.5274 -35.4131 -35.4004  10.1689  11.8385  11.9854  12.6451  13.3070
    14.3165  22.8307  30.3189  32.3035

          k = 0.3333-0.1667 0.3333 (   429 PWs)   bands (ev):

   -35.4871 -35.4065 -35.3930  10.0157  11.7540  12.0456  12.1018  12.9280
    13.5995  25.7689  30.6573  33.2391

          k = 0.2500-0.0833 0.2500 (   435 PWs)   bands (ev):

   -35.4432 -35.3979 -35.3861   9.3970  11.5393  12.0773  12.1136  12.7272
    13.1886  28.8126  31.0283  33.9821

          k = 0.1667-0.0000 0.1667 (   425 PWs)   bands (ev):

   -35.4077 -35.3884 -35.3814   8.7420  11.6487  11.9647  11.9949  12.8021
    13.0061  31.0673  31.7706  33.9119

          k = 0.0000 0.3333 0.0000 (   435 PWs)   bands (ev):

   -35.4234 -35.3965 -35.3965   9.2483  11.3654  12.2426  12.2426  12.5535
    13.1463  31.6303  32.1979  32.1979

          k =-0.0833 0.4167-0.0833 (   432 PWs)   bands (ev):

   -35.4532 -35.4048 -35.4035   9.8257  11.1967  12.1997  12.4115  12.8029
    13.2775  29.1861  31.2534  31.6983

          k =-0.1667 0.5000-0.1667 (   439 PWs)   bands (ev):

   -35.4910 -35.4126 -35.4124  10.3415  11.2585  11.9638  12.4238  13.5221
    13.6229  26.0885  30.6148  30.9897

          k =-0.2500 0.5833-0.2500 (   433 PWs)   bands (ev):

   -35.5242 -35.4233 -35.4168  10.4340  11.5601  11.9618  12.3297  13.7590
    14.9275  23.1144  29.9154  30.3761

          k = 0.6667-0.3333 0.6667 (   428 PWs)   bands (ev):

   -35.5439 -35.4333 -35.4171  10.4186  11.5117  12.2297  12.3723  13.8186
    16.5948  20.5690  28.8956  30.6691

          k = 0.5833-0.2500 0.5833 (   434 PWs)   bands (ev):

   -35.5457 -35.4394 -35.4134  10.4538  11.5128  12.1824  12.5305  13.6377
    17.1076  20.0277  28.1593  31.5512

          k = 0.5000-0.1667 0.5000 (   431 PWs)   bands (ev):

   -35.5293 -35.4391 -35.4065  10.5455  11.6113  12.2146  12.2476  13.2681
    15.6912  22.3065  27.8263  31.9381

          k = 0.4167-0.0833 0.4167 (   428 PWs)   bands (ev):

   -35.5007 -35.4312 -35.3981  10.5640  11.5238  11.9111  12.3258  12.8254
    14.5171  25.1667  27.8999  32.8274

          k = 0.3333 0.0000 0.3333 (   441 PWs)   bands (ev):

   -35.4693 -35.4164 -35.3909  10.0721  11.3742  12.0363  12.3732  12.5457
    13.7094  27.9702  28.5003  34.1872

          k = 0.0000 0.5000 0.0000 (   431 PWs)   bands (ev):

   -35.4674 -35.4141 -35.4141  10.1331  10.9502  12.5893  12.7325  12.7325
    13.3488  29.9590  29.9590  30.8627

          k =-0.0833 0.5833-0.0833 (   435 PWs)   bands (ev):

   -35.4939 -35.4241 -35.4225  10.4103  10.8057  12.4752  12.8794  13.5410
    13.6495  27.5039  29.0743  29.5553

          k =-0.1667 0.6667-0.1667 (   429 PWs)   bands (ev):

   -35.5182 -35.4376 -35.4275  10.5006  10.9192  12.3043  12.8215  13.7847
    15.1413  24.5461  28.0459  28.7006

          k = 0.7500-0.2500 0.7500 (   431 PWs)   bands (ev):

   -35.5317 -35.4539 -35.4280  10.5394  11.1426  12.1892  12.7075  13.8501
    17.0395  21.8102  26.7316  28.9396

          k = 0.6667-0.1667 0.6667 (   428 PWs)   bands (ev):

   -35.5313 -35.4677 -35.4236  10.6729  11.3047  12.0924  12.6102  13.6680
    18.7580  19.9799  25.7049  29.8197

          k = 0.5833-0.0833 0.5833 (   427 PWs)   bands (ev):

   -35.5209 -35.4718 -35.4159  10.8874  11.4370  11.8608  12.5574  13.3063
    17.2582  22.1051  25.0744  31.2522

          k = 0.5000 0.0000 0.5000 (   423 PWs)   bands (ev):

   -35.5106 -35.4575 -35.4064  11.0342  11.3952  11.7148  12.5199  12.9303
    15.7308  24.8722  24.9559  32.3039

          k = 0.0000 0.6667 0.0000 (   432 PWs)   bands (ev):

   -35.5107 -35.4316 -35.4316  10.3165  10.5635  13.3054  13.3054  13.5572
    13.8259  27.7557  27.9338  27.9338

          k =-0.0833 0.7500-0.0833 (   438 PWs)   bands (ev):

   -35.5278 -35.4425 -35.4378  10.2958  10.4798  13.1823  13.3499  13.7835
    15.2905  25.7871  26.2981  27.3426

          k = 0.8333-0.1667 0.8333 (   431 PWs)   bands (ev):

   -35.5343 -35.4597 -35.4386  10.3470  10.6216  12.8513  13.2373  13.8891
    17.2211  23.3390  24.8087  27.4252

          k = 0.7500-0.0833 0.7500 (   433 PWs)   bands (ev):

   -35.5260 -35.4817 -35.4344  10.4973  10.9261  12.4318  13.0877  13.7403
    19.4222  21.0456  23.6678  28.1992

          k = 0.6667-0.0000 0.6667 (   431 PWs)   bands (ev):

   -35.5038 -35.5034 -35.4261  10.7411  11.2921  11.9647  12.8791  13.4757
    19.0179  21.5874  23.2197  29.5444

          k = 0.0000 0.8333 0.0000 (   440 PWs)   bands (ev):

   -35.5416 -35.4447 -35.4447  10.1089  10.2951  13.7121  13.8008  13.8008
    15.8713  24.3882  26.5080  26.5080

          k = 0.9167-0.0833 0.9167 (   439 PWs)   bands (ev):

   -35.5471 -35.4531 -35.4464  10.1085  10.2974  13.6376  13.6471  13.9439
    17.2426  23.1271  25.1836  26.3699

          k = 0.8333 0.0000 0.8333 (   432 PWs)   bands (ev):

   -35.5393 -35.4685 -35.4427  10.2597  10.5190  13.0857  13.4609  13.8643
    18.7235  22.4519  23.3403  26.9754

          k = 0.0000-1.0000 0.0000 (   444 PWs)   bands (ev):

   -35.5531 -35.4494 -35.4494  10.0032  10.1998  13.7704  14.0032  14.0032
    17.2172  22.6001  25.9865  25.9865

          k =-0.1667 0.3333 0.0000 (   431 PWs)   bands (ev):

   -35.4401 -35.4018 -35.3904   9.4743  11.3925  12.1209  12.2469  12.6668
    13.2259  29.9533  30.1988  33.6121

          k =-0.2500 0.4167-0.0833 (   432 PWs)   bands (ev):

   -35.4761 -35.4141 -35.3964  10.1439  11.3540  11.9767  12.3539  12.8720
    13.6699  27.0318  29.6203  32.8485

          k =-0.3333 0.5000-0.1667 (   430 PWs)   bands (ev):

   -35.5133 -35.4233 -35.4041  10.4131  11.7620  11.8156  12.2809  13.3116
    14.4929  24.0122  29.3179  31.5839

          k = 0.5833-0.4167 0.7500 (   430 PWs)   bands (ev):

   -35.5407 -35.4287 -35.4108  10.3770  11.6061  12.1289  12.4717  13.6365
    15.8226  21.2846  29.3091  30.5793

          k = 0.5000-0.3333 0.6667 (   430 PWs)   bands (ev):

   -35.5507 -35.4303 -35.4135  10.3457  11.5474  12.1047  12.7000  13.7387
    16.9344  19.7137  29.5060  30.0335

          k =-0.1667 0.5000 0.0000 (   432 PWs)   bands (ev):

   -35.4781 -35.4198 -35.4084  10.3245  11.0245  12.0775  12.7289  12.9955
    13.6606  28.2998  28.6688  31.3177

          k =-0.2500 0.5833-0.0833 (   432 PWs)   bands (ev):

   -35.5057 -35.4339 -35.4153  10.6366  11.1000  11.8834  12.7569  13.3802
    14.6255  25.4170  28.0787  29.8322

          k = 0.6667-0.3333 0.8333 (   435 PWs)   bands (ev):

   -35.5276 -35.4454 -35.4215  10.6364  11.3371  11.8753  12.6308  13.6828
    16.1458  22.5469  28.0473  28.5038

          k = 0.5833-0.2500 0.7500 (   429 PWs)   bands (ev):

   -35.5371 -35.4540 -35.4228  10.6673  11.3186  12.1010  12.5001  13.7322
    17.9523  20.1831  27.4103  28.5147

          k = 0.5000-0.1667 0.6667 (   426 PWs)   bands (ev):

   -35.5326 -35.4573 -35.4187  10.7593  11.3452  12.0436  12.4835  13.5566
    17.4192  20.9597  26.6933  29.3706

          k = 0.4167-0.0833 0.5833 (   425 PWs)   bands (ev):

   -35.5172 -35.4517 -35.4109  10.8763  11.4951  11.6101  12.5940  13.2020
    15.7989  23.6082  26.4219  30.4767

          k = 0.3333 0.0000 0.5000 (   426 PWs)   bands (ev):

   -35.4968 -35.4357 -35.4026  10.7663  11.2108  11.7545  12.7247  12.7567
    14.5573  26.3508  26.7900  31.7306

          k =-0.1667 0.6667-0.0000 (   436 PWs)   bands (ev):

   -35.5131 -35.4382 -35.4283  10.5007  10.6733  12.5015  13.3006  13.4524
    14.7444  26.7174  26.9981  27.9236

          k = 0.7500-0.2500 0.9167 (   431 PWs)   bands (ev):

   -35.5259 -35.4535 -35.4338  10.5446  10.7819  12.3280  13.1934  13.7209
    16.3786  24.0578  26.3310  26.8533

          k = 0.6667-0.1667 0.8333 (   432 PWs)   bands (ev):

   -35.5272 -35.4715 -35.4344  10.6303  11.0215  12.1252  12.9763  13.7911
    18.4156  21.5015  25.1523  27.2014

          k = 0.5833-0.0833 0.7500 (   427 PWs)   bands (ev):

   -35.5174 -35.4866 -35.4291  10.8337  11.2422  11.8552  12.8199  13.6193
    19.1941  20.8749  24.2238  28.0932

          k = 0.5000 0.0000 0.6667 (   423 PWs)   bands (ev):

   -35.5140 -35.4793 -35.4203  11.1062  11.4121  11.4670  12.7700  13.3276
    17.3584  23.3243  23.8817  29.2602

          k = 0.8333-0.1667 1.0000 (   435 PWs)   bands (ev):

   -35.5373 -35.4515 -35.4436  10.2744  10.4282  13.0901  13.6301  13.7986
    16.6578  24.3913  25.7288  25.7844

          k = 0.7500-0.0833 0.9167 (   434 PWs)   bands (ev):

   -35.5353 -35.4671 -35.4446  10.3758  10.5939  12.7671  13.3786  13.9132
    18.4774  22.9383  23.7738  26.0313

          k = 0.6667 0.0000 0.8333 (   431 PWs)   bands (ev):

   -35.5209 -35.4875 -35.4388  10.5754  10.9327  12.2789  13.1096  13.7975
    20.2576  21.1083  22.9501  26.8891

          k =-0.1667-1.0000-0.0000 (   436 PWs)   bands (ev):

   -35.5461 -35.4563 -35.4493  10.1630  10.3410  13.3992  13.6013  14.0038
    18.0441  22.5899  25.2510  25.3165

          k = 0.6667-0.3333 1.0000 (   431 PWs)   bands (ev):

   -35.5162 -35.4556 -35.4224  10.9737  10.9916  11.6945  13.1026  13.2962
    15.9854  25.0587  25.2141  28.3943

          k = 0.5833-0.2500 0.9167 (   428 PWs)   bands (ev):

   -35.5213 -35.4716 -35.4297  10.9684  11.1623  11.6455  12.9085  13.6147
    17.7154  22.3820  25.2919  27.1501

          k = 0.5000-0.1667 0.8333 (   428 PWs)   bands (ev):

   -35.5227 -35.4777 -35.4329  11.0507  11.0630  11.7534  12.7843  13.7350
    19.5181  20.2258  25.6762  26.3987

          k = 0.6667-0.1667 1.0000 (   427 PWs)   bands (ev):

   -35.5252 -35.4698 -35.4415  10.6807  10.8227  12.1245  13.2285  13.7942
    18.0569  23.9767  24.0445  25.3296

          k = 0.5833-0.0833 0.9167 (   428 PWs)   bands (ev):

   -35.5153 -35.4876 -35.4442  10.7792  11.0934  11.8374  12.9902  13.9019
    20.0718  21.6512  23.7067  25.0576

          k = 0.5000 0.0000 0.8333 (   432 PWs)   bands (ev):

   -35.5076 -35.4955 -35.4392  10.9291  11.3748  11.4581  12.9131  13.7897
    19.5457  22.1206  23.2889  25.9407

          k =-0.3333-1.0000 0.0000 (   430 PWs)   bands (ev):

   -35.5271 -35.4752 -35.4498  10.5499  10.7601  12.3666  13.1881  14.0043
    19.7250  22.5768  23.6007  24.3556

          k =-0.5000-1.0000 0.0000 (   444 PWs)   bands (ev):

   -35.5014 -35.5014 -35.4503  10.8019  11.4455  11.4455  12.9187  14.0041
    21.6587  21.6587  22.5766  23.9715

     the Fermi energy is    13.7929 ev

!    total energy              =    -198.68653856 Ry
     Harris-Foulkes estimate   =    -198.68653856 Ry
     estimated scf accuracy    <          1.2E-09 Ry

     The total energy is the sum of the following terms:

     one-electron contribution =     -60.30149843 Ry
     hartree contribution      =      41.43112236 Ry
     xc contribution           =     -31.24345082 Ry
     ewald contribution        =    -148.57274574 Ry
     smearing contrib. (-TS)   =       0.00003406 Ry

     convergence has been achieved in   6 iterations

     Writing output data file Pd-kp-conv.save/
 
     init_run     :      0.61s CPU      0.66s WALL (       1 calls)
     electrons    :      4.29s CPU      4.89s WALL (       1 calls)

     Called by init_run:
     wfcinit      :      0.27s CPU      0.28s WALL (       1 calls)
     potinit      :      0.01s CPU      0.02s WALL (       1 calls)
     hinit0       :      0.32s CPU      0.33s WALL (       1 calls)

     Called by electrons:
     c_bands      :      3.54s CPU      3.73s WALL (       6 calls)
     sum_band     :      0.69s CPU      0.73s WALL (       6 calls)
     v_of_rho     :      0.03s CPU      0.03s WALL (       7 calls)
     newd         :      0.05s CPU      0.05s WALL (       7 calls)
     mix_rho      :      0.00s CPU      0.00s WALL (       6 calls)

     Called by c_bands:
     init_us_2    :      0.09s CPU      0.10s WALL (     936 calls)
     cegterg      :      3.28s CPU      3.47s WALL (     432 calls)

     Called by sum_band:
     sum_band:bec :      0.00s CPU      0.00s WALL (     432 calls)
     addusdens    :      0.05s CPU      0.05s WALL (       6 calls)

     Called by *egterg:
     h_psi        :      2.86s CPU      3.02s WALL (    1501 calls)
     s_psi        :      0.04s CPU      0.04s WALL (    1501 calls)
     g_psi        :      0.03s CPU      0.03s WALL (     997 calls)
     cdiaghg      :      0.36s CPU      0.38s WALL (    1429 calls)

     Called by h_psi:
     h_psi:pot    :      2.85s CPU      3.01s WALL (    1501 calls)
     h_psi:calbec :      0.06s CPU      0.06s WALL (    1501 calls)
     vloc_psi     :      2.74s CPU      2.90s WALL (    1501 calls)
     add_vuspsi   :      0.04s CPU      0.04s WALL (    1501 calls)

     General routines
     calbec       :      0.07s CPU      0.07s WALL (    1933 calls)
     fft          :      0.01s CPU      0.01s WALL (      78 calls)
     ffts         :      0.00s CPU      0.00s WALL (       6 calls)
     fftw         :      2.82s CPU      2.99s WALL (   32104 calls)
 
     Parallel routines
     fft_scatt_xy :      0.52s CPU      0.55s WALL (   32188 calls)
     fft_scatt_yz :      0.62s CPU      0.66s WALL (   32188 calls)
 
     PWSCF        :     5.01s CPU         5.93s WALL

 
   This run was terminated on:  20:32:52   2Dec2021            

=------------------------------------------------------------------------------=
   JOB DONE.
=------------------------------------------------------------------------------=
