
     Program PWSCF v.6.3 starts on  2Dec2021 at 20:33:17 

     This program is part of the open-source Quantum ESPRESSO suite
     for quantum simulation of materials; please cite
         "P. Giannozzi et al., J. Phys.:Condens. Matter 21 395502 (2009);
         "P. Giannozzi et al., J. Phys.:Condens. Matter 29 465901 (2017);
          URL http://www.quantum-espresso.org", 
     in publications or presentations arising from this work. More details at
     http://www.quantum-espresso.org/quote

     Parallel version (MPI & OpenMP), running on       2 processor cores
     Number of MPI processes:                 2
     Threads/MPI process:                     1

     MPI processes distributed on     1 nodes
     R & G space division:  proc/nbgrp/npool/nimage =       2
     Reading input from pw-input.in

     Current dimensions of program PWSCF are:
     Max number of different atomic species (ntypx) = 10
     Max number of k-points (npk) =  40000
     Max angular momentum in pseudopotentials (lmaxx) =  3

     Subspace diagonalization in iterative solution of the eigenvalue problem:
     a serial algorithm will be used

 
     Parallelization info
     --------------------
     sticks:   dense  smooth     PW     G-vecs:    dense   smooth      PW
     Min         174     174     60                 2055     2055     434
     Max         175     175     61                 2056     2056     435
     Sum         349     349    121                 4111     4111     869
 

     Title: 
     Pd-kp-conv                                                                 


     bravais-lattice index     =            2
     lattice parameter (alat)  =       8.4000  a.u.
     unit-cell volume          =     148.1760 (a.u.)^3
     number of atoms/cell      =            1
     number of atomic types    =            1
     number of electrons       =        16.00
     number of Kohn-Sham states=           12
     kinetic-energy cutoff     =      35.0000  Ry
     charge density cutoff     =     140.0000  Ry
     convergence threshold     =      1.0E-07
     mixing beta               =       0.7000
     number of iterations used =            8  plain     mixing
     Exchange-correlation      =  SLA  PW   PBX  PBC ( 1  4  3  4 0 0)

     celldm(1)=   8.400000  celldm(2)=   0.000000  celldm(3)=   0.000000
     celldm(4)=   0.000000  celldm(5)=   0.000000  celldm(6)=   0.000000

     crystal axes: (cart. coord. in units of alat)
               a(1) = (  -0.500000   0.000000   0.500000 )  
               a(2) = (   0.000000   0.500000   0.500000 )  
               a(3) = (  -0.500000   0.500000   0.000000 )  

     reciprocal axes: (cart. coord. in units 2 pi/alat)
               b(1) = ( -1.000000 -1.000000  1.000000 )  
               b(2) = (  1.000000  1.000000  1.000000 )  
               b(3) = ( -1.000000  1.000000 -1.000000 )  


     PseudoPot. # 1 for Pd read from file:
     ./pd_pbe_v1.4.uspp.F.UPF
     MD5 check sum: 2d733d2bc2cbfd217af676df1668a4bc
     Pseudo is Ultrasoft + core correction, Zval = 16.0
     Generated by new atomic code, or converted to UPF format
     Using radial grid of  887 points,  6 beta functions with: 
                l(1) =   0
                l(2) =   0
                l(3) =   1
                l(4) =   1
                l(5) =   2
                l(6) =   2
     Q(r) pseudized with  8 coefficients,  rinner =    1.130   1.130   1.130
                                                       1.130   1.130

     atomic species   valence    mass     pseudopotential
        Pd            16.00   106.40000     Pd( 1.00)

     48 Sym. Ops., with inversion, found



   Cartesian axes

     site n.     atom                  positions (alat units)
         1           Pd  tau(   1) = (   0.0000000   0.0000000   0.0000000  )

     number of k points=    72  Marzari-Vanderbilt smearing, width (Ry)=  0.0050
                       cart. coord. in units 2pi/alat
        k(    1) = (   0.0000000   0.0000000   0.0000000), wk =   0.0011574
        k(    2) = (  -0.0833333   0.0833333  -0.0833333), wk =   0.0092593
        k(    3) = (  -0.1666667   0.1666667  -0.1666667), wk =   0.0092593
        k(    4) = (  -0.2500000   0.2500000  -0.2500000), wk =   0.0092593
        k(    5) = (  -0.3333333   0.3333333  -0.3333333), wk =   0.0092593
        k(    6) = (  -0.4166667   0.4166667  -0.4166667), wk =   0.0092593
        k(    7) = (   0.5000000  -0.5000000   0.5000000), wk =   0.0046296
        k(    8) = (   0.0000000   0.1666667   0.0000000), wk =   0.0069444
        k(    9) = (  -0.0833333   0.2500000  -0.0833333), wk =   0.0277778
        k(   10) = (  -0.1666667   0.3333333  -0.1666667), wk =   0.0277778
        k(   11) = (  -0.2500000   0.4166667  -0.2500000), wk =   0.0277778
        k(   12) = (  -0.3333333   0.5000000  -0.3333333), wk =   0.0277778
        k(   13) = (   0.5833333  -0.4166667   0.5833333), wk =   0.0277778
        k(   14) = (   0.5000000  -0.3333333   0.5000000), wk =   0.0277778
        k(   15) = (   0.4166667  -0.2500000   0.4166667), wk =   0.0277778
        k(   16) = (   0.3333333  -0.1666667   0.3333333), wk =   0.0277778
        k(   17) = (   0.2500000  -0.0833333   0.2500000), wk =   0.0277778
        k(   18) = (   0.1666667  -0.0000000   0.1666667), wk =   0.0138889
        k(   19) = (   0.0000000   0.3333333   0.0000000), wk =   0.0069444
        k(   20) = (  -0.0833333   0.4166667  -0.0833333), wk =   0.0277778
        k(   21) = (  -0.1666667   0.5000000  -0.1666667), wk =   0.0277778
        k(   22) = (  -0.2500000   0.5833333  -0.2500000), wk =   0.0277778
        k(   23) = (   0.6666667  -0.3333333   0.6666667), wk =   0.0277778
        k(   24) = (   0.5833333  -0.2500000   0.5833333), wk =   0.0277778
        k(   25) = (   0.5000000  -0.1666667   0.5000000), wk =   0.0277778
        k(   26) = (   0.4166667  -0.0833333   0.4166667), wk =   0.0277778
        k(   27) = (   0.3333333   0.0000000   0.3333333), wk =   0.0138889
        k(   28) = (   0.0000000   0.5000000   0.0000000), wk =   0.0069444
        k(   29) = (  -0.0833333   0.5833333  -0.0833333), wk =   0.0277778
        k(   30) = (  -0.1666667   0.6666667  -0.1666667), wk =   0.0277778
        k(   31) = (   0.7500000  -0.2500000   0.7500000), wk =   0.0277778
        k(   32) = (   0.6666667  -0.1666667   0.6666667), wk =   0.0277778
        k(   33) = (   0.5833333  -0.0833333   0.5833333), wk =   0.0277778
        k(   34) = (   0.5000000   0.0000000   0.5000000), wk =   0.0138889
        k(   35) = (   0.0000000   0.6666667   0.0000000), wk =   0.0069444
        k(   36) = (  -0.0833333   0.7500000  -0.0833333), wk =   0.0277778
        k(   37) = (   0.8333333  -0.1666667   0.8333333), wk =   0.0277778
        k(   38) = (   0.7500000  -0.0833333   0.7500000), wk =   0.0277778
        k(   39) = (   0.6666667  -0.0000000   0.6666667), wk =   0.0138889
        k(   40) = (   0.0000000   0.8333333   0.0000000), wk =   0.0069444
        k(   41) = (   0.9166667  -0.0833333   0.9166667), wk =   0.0277778
        k(   42) = (   0.8333333   0.0000000   0.8333333), wk =   0.0138889
        k(   43) = (   0.0000000  -1.0000000   0.0000000), wk =   0.0034722
        k(   44) = (  -0.1666667   0.3333333   0.0000000), wk =   0.0277778
        k(   45) = (  -0.2500000   0.4166667  -0.0833333), wk =   0.0555556
        k(   46) = (  -0.3333333   0.5000000  -0.1666667), wk =   0.0555556
        k(   47) = (   0.5833333  -0.4166667   0.7500000), wk =   0.0555556
        k(   48) = (   0.5000000  -0.3333333   0.6666667), wk =   0.0277778
        k(   49) = (  -0.1666667   0.5000000   0.0000000), wk =   0.0277778
        k(   50) = (  -0.2500000   0.5833333  -0.0833333), wk =   0.0555556
        k(   51) = (   0.6666667  -0.3333333   0.8333333), wk =   0.0555556
        k(   52) = (   0.5833333  -0.2500000   0.7500000), wk =   0.0555556
        k(   53) = (   0.5000000  -0.1666667   0.6666667), wk =   0.0555556
        k(   54) = (   0.4166667  -0.0833333   0.5833333), wk =   0.0555556
        k(   55) = (   0.3333333   0.0000000   0.5000000), wk =   0.0277778
        k(   56) = (  -0.1666667   0.6666667  -0.0000000), wk =   0.0277778
        k(   57) = (   0.7500000  -0.2500000   0.9166667), wk =   0.0555556
        k(   58) = (   0.6666667  -0.1666667   0.8333333), wk =   0.0555556
        k(   59) = (   0.5833333  -0.0833333   0.7500000), wk =   0.0555556
        k(   60) = (   0.5000000   0.0000000   0.6666667), wk =   0.0277778
        k(   61) = (   0.8333333  -0.1666667   1.0000000), wk =   0.0277778
        k(   62) = (   0.7500000  -0.0833333   0.9166667), wk =   0.0555556
        k(   63) = (   0.6666667   0.0000000   0.8333333), wk =   0.0277778
        k(   64) = (  -0.1666667  -1.0000000  -0.0000000), wk =   0.0138889
        k(   65) = (   0.6666667  -0.3333333   1.0000000), wk =   0.0277778
        k(   66) = (   0.5833333  -0.2500000   0.9166667), wk =   0.0555556
        k(   67) = (   0.5000000  -0.1666667   0.8333333), wk =   0.0277778
        k(   68) = (   0.6666667  -0.1666667   1.0000000), wk =   0.0277778
        k(   69) = (   0.5833333  -0.0833333   0.9166667), wk =   0.0555556
        k(   70) = (   0.5000000   0.0000000   0.8333333), wk =   0.0277778
        k(   71) = (  -0.3333333  -1.0000000   0.0000000), wk =   0.0138889
        k(   72) = (  -0.5000000  -1.0000000   0.0000000), wk =   0.0069444

     Dense  grid:     4111 G-vectors     FFT dimensions: (  24,  24,  24)

     Estimated max dynamical RAM per process >      12.00 MB

     Estimated total dynamical RAM >      24.00 MB

     Check: negative/imaginary core charge=   -0.000001    0.000000

     Initial potential from superposition of free atoms
     Check: negative starting charge=   -0.083520

     starting charge   15.49999, renormalised to   16.00000

     negative rho (up, down):  8.621E-02 0.000E+00
     Starting wfcs are   12 randomized atomic wfcs

     total cpu time spent up to now is        0.8 secs

     Self-consistent Calculation

     iteration #  1     ecut=    35.00 Ry     beta= 0.70
     Davidson diagonalization with overlap
     ethr =  1.00E-02,  avg # of iterations =  3.3

     negative rho (up, down):  8.326E-02 0.000E+00

     total cpu time spent up to now is        1.7 secs

     total energy              =    -197.78140950 Ry
     Harris-Foulkes estimate   =    -199.06547090 Ry
     estimated scf accuracy    <       1.73247651 Ry

     iteration #  2     ecut=    35.00 Ry     beta= 0.70
     Davidson diagonalization with overlap
     ethr =  1.00E-02,  avg # of iterations =  2.0

     negative rho (up, down):  8.555E-02 0.000E+00

     total cpu time spent up to now is        2.5 secs

     total energy              =    -198.21484514 Ry
     Harris-Foulkes estimate   =    -199.44261605 Ry
     estimated scf accuracy    <       2.66814161 Ry

     iteration #  3     ecut=    35.00 Ry     beta= 0.70
     Davidson diagonalization with overlap
     ethr =  1.00E-02,  avg # of iterations =  2.0

     negative rho (up, down):  8.560E-02 0.000E+00

     total cpu time spent up to now is        3.3 secs

     total energy              =    -198.65063998 Ry
     Harris-Foulkes estimate   =    -198.65106307 Ry
     estimated scf accuracy    <       0.00139051 Ry

     iteration #  4     ecut=    35.00 Ry     beta= 0.70
     Davidson diagonalization with overlap
     ethr =  8.69E-06,  avg # of iterations =  2.8

     negative rho (up, down):  8.568E-02 0.000E+00

     total cpu time spent up to now is        4.1 secs

     total energy              =    -198.65094820 Ry
     Harris-Foulkes estimate   =    -198.65095469 Ry
     estimated scf accuracy    <       0.00003450 Ry

     iteration #  5     ecut=    35.00 Ry     beta= 0.70
     Davidson diagonalization with overlap
     ethr =  2.16E-07,  avg # of iterations =  1.5

     negative rho (up, down):  8.567E-02 0.000E+00

     total cpu time spent up to now is        4.8 secs

     total energy              =    -198.65095015 Ry
     Harris-Foulkes estimate   =    -198.65095047 Ry
     estimated scf accuracy    <       0.00000079 Ry

     iteration #  6     ecut=    35.00 Ry     beta= 0.70
     Davidson diagonalization with overlap
     ethr =  4.91E-09,  avg # of iterations =  2.0

     negative rho (up, down):  8.567E-02 0.000E+00

     total cpu time spent up to now is        5.6 secs

     End of self-consistent calculation

          k = 0.0000 0.0000 0.0000 (   531 PWs)   bands (ev):

   -38.4056 -38.4056 -38.4056   5.9197   8.9545   8.9545   8.9545   9.7925
     9.7925  27.0989  29.6019  29.6019

          k =-0.0833 0.0833-0.0833 (   531 PWs)   bands (ev):

   -38.4115 -38.4065 -38.4065   6.1004   8.9156   9.0008   9.0008   9.7763
     9.7763  26.9218  28.1808  29.5758

          k =-0.1667 0.1667-0.1667 (   525 PWs)   bands (ev):

   -38.4272 -38.4090 -38.4090   6.6045   8.8547   9.0950   9.0950   9.7714
     9.7714  24.7214  27.6984  29.4387

          k =-0.2500 0.2500-0.2500 (   522 PWs)   bands (ev):

   -38.4494 -38.4122 -38.4122   7.2351   9.0009   9.1199   9.1199   9.8870
     9.8870  21.8449  27.4461  29.0652

          k =-0.3333 0.3333-0.3333 (   516 PWs)   bands (ev):

   -38.4714 -38.4155 -38.4155   7.5519   9.0537   9.0537   9.8213  10.1160
    10.1160  19.0636  26.9283  28.4630

          k =-0.4167 0.4167-0.4167 (   522 PWs)   bands (ev):

   -38.4875 -38.4181 -38.4181   7.5753   8.9793   8.9793  10.3248  10.3248
    11.2249  16.6015  26.4935  27.9070

          k = 0.5000-0.5000 0.5000 (   502 PWs)   bands (ev):

   -38.4929 -38.4186 -38.4186   7.5617   8.9507   8.9507  10.4093  10.4093
    12.2486  15.2408  26.3329  27.6867

          k = 0.0000 0.1667 0.0000 (   532 PWs)   bands (ev):

   -38.4113 -38.4079 -38.4079   6.1608   8.8658   9.0372   9.0372   9.7053
     9.8310  27.0911  28.7424  28.7424

          k =-0.0833 0.2500-0.0833 (   526 PWs)   bands (ev):

   -38.4230 -38.4107 -38.4096   6.5605   8.7724   9.1375   9.1399   9.6411
     9.8701  25.7834  27.4708  28.0273

          k =-0.1667 0.3333-0.1667 (   527 PWs)   bands (ev):

   -38.4429 -38.4143 -38.4125   7.1793   8.7535   9.1601   9.2031   9.7655
     9.9758  22.9252  27.2739  27.4285

          k =-0.2500 0.4167-0.2500 (   517 PWs)   bands (ev):

   -38.4642 -38.4176 -38.4162   7.6198   9.0329   9.1440   9.1662  10.1738
    10.2420  20.0805  26.8696  26.9744

          k =-0.3333 0.5000-0.3333 (   521 PWs)   bands (ev):

   -38.4819 -38.4200 -38.4199   7.6852   8.9414   9.0885   9.7202  10.3559
    11.2473  17.4687  26.3862  26.7691

          k = 0.5833-0.4167 0.5833 (   520 PWs)   bands (ev):

   -38.4908 -38.4226 -38.4204   7.6648   8.8912   9.0342  10.0382  10.4132
    12.5687  15.4832  25.9315  26.9327

          k = 0.5000-0.3333 0.5000 (   516 PWs)   bands (ev):

   -38.4888 -38.4234 -38.4189   7.6746   8.9110   9.0340  10.0518  10.3037
    12.1878  16.0157  25.6155  26.9453

          k = 0.4167-0.2500 0.4167 (   515 PWs)   bands (ev):

   -38.4766 -38.4220 -38.4160   7.6944   8.9840   9.0914   9.6750  10.0612
    10.9517  18.3114  25.5785  27.4462

          k = 0.3333-0.1667 0.3333 (   522 PWs)   bands (ev):

   -38.4572 -38.4189 -38.4126   7.5323   8.9406   9.1561   9.1747   9.7844
    10.2965  21.0195  25.7944  28.3084

          k = 0.2500-0.0833 0.2500 (   523 PWs)   bands (ev):

   -38.4359 -38.4147 -38.4091   6.9665   8.7659   9.1585   9.1796   9.6381
     9.9748  23.8940  26.1640  29.0354

          k = 0.1667-0.0000 0.1667 (   533 PWs)   bands (ev):

   -38.4194 -38.4103 -38.4070   6.3917   8.8387   9.0671   9.0911   9.6879
     9.8350  26.4936  26.7717  28.8894

          k = 0.0000 0.3333 0.0000 (   528 PWs)   bands (ev):

   -38.4266 -38.4141 -38.4141   6.8348   8.6309   9.2766   9.2766   9.5158
     9.9374  26.8811  26.8811  27.0813

          k =-0.0833 0.4167-0.0833 (   522 PWs)   bands (ev):

   -38.4409 -38.4180 -38.4175   7.3484   8.5094   9.2535   9.4036   9.7081
    10.0350  24.2107  26.0084  27.0467

          k =-0.1667 0.5000-0.1667 (   522 PWs)   bands (ev):

   -38.4590 -38.4220 -38.4217   7.8201   8.5671   9.0825   9.4144  10.2150
    10.3710  21.3276  25.4406  26.2955

          k =-0.2500 0.5833-0.2500 (   519 PWs)   bands (ev):

   -38.4751 -38.4272 -38.4239   7.9168   8.8053   9.0986   9.3468  10.3860
    11.4979  18.6123  25.0765  25.2471

          k = 0.6667-0.3333 0.6667 (   524 PWs)   bands (ev):

   -38.4848 -38.4321 -38.4243   7.9078   8.7583   9.2739   9.4245  10.4288
    13.0319  16.2528  24.0285  25.5122

          k = 0.5833-0.2500 0.5833 (   524 PWs)   bands (ev):

   -38.4856 -38.4349 -38.4225   7.9343   8.7559   9.2396   9.5511  10.2995
    13.5328  15.6971  23.3064  26.2827

          k = 0.5000-0.1667 0.5000 (   520 PWs)   bands (ev):

   -38.4777 -38.4347 -38.4191   8.0013   8.8237   9.2639   9.3528  10.0320
    12.1192  17.8538  22.9689  27.2757

          k = 0.4167-0.0833 0.4167 (   522 PWs)   bands (ev):

   -38.4639 -38.4309 -38.4150   7.9992   8.7621   9.0689   9.3443   9.7089
    11.0475  20.4700  23.0082  28.0806

          k = 0.3333 0.0000 0.3333 (   521 PWs)   bands (ev):

   -38.4485 -38.4236 -38.4114   7.5581   8.6454   9.1393   9.3727   9.5087
    10.3779  23.1059  23.5381  29.2368

          k = 0.0000 0.5000 0.0000 (   528 PWs)   bands (ev):

   -38.4479 -38.4227 -38.4227   7.6377   8.3259   9.5814   9.6407   9.6407
    10.0860  24.8872  24.8872  26.1156

          k =-0.0833 0.5833-0.0833 (   519 PWs)   bands (ev):

   -38.4605 -38.4275 -38.4265   7.8999   8.2195   9.4818   9.7501  10.2282
    10.4174  22.6611  24.1316  24.5469

          k =-0.1667 0.6667-0.1667 (   523 PWs)   bands (ev):

   -38.4724 -38.4342 -38.4292   7.9852   8.3164   9.3545   9.7086  10.4040
    11.6849  19.9670  23.1003  23.8203

          k = 0.7500-0.2500 0.7500 (   516 PWs)   bands (ev):

   -38.4790 -38.4418 -38.4294   8.0151   8.4956   9.2709   9.6271  10.4514
    13.3397  17.4912  21.8899  24.0234

          k = 0.6667-0.1667 0.6667 (   518 PWs)   bands (ev):

   -38.4789 -38.4486 -38.4274   8.1135   8.6189   9.2033   9.5569  10.3207
    14.9893  15.6853  20.9667  24.7559

          k = 0.5833-0.0833 0.5833 (   519 PWs)   bands (ev):

   -38.4739 -38.4504 -38.4237   8.2730   8.7125   9.0413   9.5192  10.0582
    13.4798  17.7142  20.4048  25.9541

          k = 0.5000 0.0000 0.5000 (   524 PWs)   bands (ev):

   -38.4688 -38.4437 -38.4192   8.3798   8.6667   8.9362   9.4926   9.7825
    12.0954  20.2013  20.3066  27.4891

          k = 0.0000 0.6667 0.0000 (   512 PWs)   bands (ev):

   -38.4687 -38.4310 -38.4310   7.8455   8.0375  10.0619  10.0619  10.2393
    10.6910  22.7209  23.1763  23.1763

          k =-0.0833 0.7500-0.0833 (   515 PWs)   bands (ev):

   -38.4771 -38.4363 -38.4340   7.8405   7.9754  10.0022  10.0942  10.4043
    11.9112  20.9295  21.6587  22.6887

          k = 0.8333-0.1667 0.8333 (   513 PWs)   bands (ev):

   -38.4803 -38.4447 -38.4345   7.8808   8.0901   9.7655  10.0138  10.4790
    13.5591  18.8761  20.1301  22.7565

          k = 0.7500-0.0833 0.7500 (   514 PWs)   bands (ev):

   -38.4763 -38.4553 -38.4325   7.9923   8.3289   9.4542   9.9076  10.3727
    15.4831  16.8497  19.0386  23.3903

          k = 0.6667-0.0000 0.6667 (   528 PWs)   bands (ev):

   -38.4660 -38.4657 -38.4288   8.1716   8.6142   9.1016   9.7565  10.1798
    15.0469  17.3918  18.6058  24.5057

          k = 0.0000 0.8333 0.0000 (   504 PWs)   bands (ev):

   -38.4836 -38.4373 -38.4373   7.7025   7.8345  10.3537  10.4186  10.4186
    12.5559  19.5445  22.0063  22.0063

          k = 0.9167-0.0833 0.9167 (   510 PWs)   bands (ev):

   -38.4864 -38.4414 -38.4384   7.7054   7.8364  10.3081  10.3221  10.5186
    13.7654  18.3442  20.7863  21.8941

          k = 0.8333 0.0000 0.8333 (   508 PWs)   bands (ev):

   -38.4827 -38.4489 -38.4365   7.8184   8.0101   9.9366  10.1764  10.4620
    15.0238  17.7509  19.0311  22.3839

          k = 0.0000-1.0000 0.0000 (   524 PWs)   bands (ev):

   -38.4895 -38.4399 -38.4399   7.6249   7.7614  10.3945  10.5605  10.5605
    13.8809  17.7958  21.5855  21.5855

          k =-0.1667 0.3333 0.0000 (   520 PWs)   bands (ev):

   -38.4344 -38.4166 -38.4112   7.0327   8.6540   9.1918   9.2796   9.5974
    10.0003  24.9881  25.2235  28.7581

          k =-0.2500 0.4167-0.0833 (   521 PWs)   bands (ev):

   -38.4518 -38.4226 -38.4142   7.6301   8.6326   9.0920   9.3615   9.7536
    10.3506  22.1957  24.6338  27.9316

          k =-0.3333 0.5000-0.1667 (   521 PWs)   bands (ev):

   -38.4699 -38.4271 -38.4180   7.8883   8.9301   9.0094   9.3148  10.0746
    11.0654  19.4133  24.3723  26.6886

          k = 0.5833-0.4167 0.7500 (   515 PWs)   bands (ev):

   -38.4830 -38.4297 -38.4211   7.8714   8.8215   9.2016   9.5083  10.3025
    12.3139  16.9073  24.4255  25.6316

          k = 0.5000-0.3333 0.6667 (   518 PWs)   bands (ev):

   -38.4879 -38.4305 -38.4224   7.8491   8.7788   9.1818   9.6765  10.3723
    13.4669  15.3501  24.8280  24.8734

          k =-0.1667 0.5000 0.0000 (   519 PWs)   bands (ev):

   -38.4528 -38.4253 -38.4199   7.7981   8.3825   9.1688   9.6381   9.8578
    10.3481  23.3903  23.6991  26.2953

          k =-0.2500 0.5833-0.0833 (   521 PWs)   bands (ev):

   -38.4663 -38.4322 -38.4233   8.0804   8.4497   9.0272   9.6646  10.1263
    11.1832  20.7283  23.1763  24.8416

          k = 0.6667-0.3333 0.8333 (   516 PWs)   bands (ev):

   -38.4767 -38.4377 -38.4262   8.0844   8.6412   9.0306   9.5753  10.3360
    12.5327  18.1246  23.0988  23.6546

          k = 0.5833-0.2500 0.7500 (   520 PWs)   bands (ev):

   -38.4815 -38.4420 -38.4269   8.1057   8.6217   9.2135   9.4783  10.3677
    14.2216  15.9083  22.5248  23.6494

          k = 0.5000-0.1667 0.6667 (   523 PWs)   bands (ev):

   -38.4795 -38.4436 -38.4250   8.1738   8.6381   9.1763   9.4666  10.2417
    13.6770  16.6477  21.8964  24.4153

          k = 0.4167-0.0833 0.5833 (   520 PWs)   bands (ev):

   -38.4718 -38.4408 -38.4214   8.2638   8.7377   8.8525   9.5507   9.9874
    12.1771  19.0652  21.6473  25.4724

          k = 0.3333 0.0000 0.5000 (   525 PWs)   bands (ev):

   -38.4620 -38.4332 -38.4173   8.1644   8.5246   8.9342   9.6515   9.6560
    11.0826  21.5801  21.9566  26.7116

          k =-0.1667 0.6667-0.0000 (   522 PWs)   bands (ev):

   -38.4700 -38.4343 -38.4296   7.9919   8.1198   9.4989  10.0577  10.1827
    11.3439  21.9041  22.2557  23.0334

          k = 0.7500-0.2500 0.9167 (   516 PWs)   bands (ev):

   -38.4762 -38.4417 -38.4323   8.0288   8.2118   9.3706   9.9883  10.3624
    12.7615  19.5372  21.4690  22.1951

          k = 0.6667-0.1667 0.8333 (   514 PWs)   bands (ev):

   -38.4768 -38.4504 -38.4325   8.0922   8.4015   9.2209   9.8296  10.4103
    14.5477  17.2386  20.4141  22.4638

          k = 0.5833-0.0833 0.7500 (   515 PWs)   bands (ev):

   -38.4723 -38.4576 -38.4301   8.2436   8.5721   9.0201   9.7144  10.2861
    15.2253  16.6574  19.5934  23.2213

          k = 0.5000 0.0000 0.6667 (   515 PWs)   bands (ev):

   -38.4704 -38.4541 -38.4258   8.4432   8.7084   8.7228   9.6812  10.0743
    13.5531  18.8930  19.2671  24.2748

          k = 0.8333-0.1667 1.0000 (   511 PWs)   bands (ev):

   -38.4817 -38.4406 -38.4371   7.8316   7.9348   9.9289  10.3033  10.4173
    13.1198  19.5655  21.2148  21.2940

          k = 0.7500-0.0833 0.9167 (   509 PWs)   bands (ev):

   -38.4807 -38.4482 -38.4374   7.9092   8.0653   9.6997  10.1205  10.4977
    14.7163  18.2999  19.3623  21.4744

          k = 0.6667 0.0000 0.8333 (   517 PWs)   bands (ev):

   -38.4740 -38.4581 -38.4348   8.0563   8.3302   9.3376   9.9256  10.4142
    16.2844  16.8800  18.3576  22.1815

          k =-0.1667-1.0000-0.0000 (   508 PWs)   bands (ev):

   -38.4860 -38.4431 -38.4397   7.7495   7.8687  10.1566  10.2764  10.5612
    14.4941  17.8092  20.8317  20.8983

          k = 0.6667-0.3333 1.0000 (   512 PWs)   bands (ev):

   -38.4713 -38.4426 -38.4266   8.3613   8.3652   8.8885   9.9313  10.0539
    12.3572  20.3865  20.5873  23.4821

          k = 0.5833-0.2500 0.9167 (   514 PWs)   bands (ev):

   -38.4739 -38.4503 -38.4303   8.3515   8.5046   8.8586   9.7829  10.2842
    13.8912  18.0048  20.6029  22.3576

          k = 0.5000-0.1667 0.8333 (   520 PWs)   bands (ev):

   -38.4747 -38.4533 -38.4320   8.4123   8.4272   8.9466   9.6886  10.3698
    15.6353  15.9384  20.8660  21.7533

          k = 0.6667-0.1667 1.0000 (   505 PWs)   bands (ev):

   -38.4757 -38.4495 -38.4359   8.1481   8.2337   9.2190  10.0168  10.4132
    14.2352  19.3050  19.6158  20.7399

          k = 0.5833-0.0833 0.9167 (   512 PWs)   bands (ev):

   -38.4713 -38.4581 -38.4374   8.2231   8.4425   9.0035   9.8408  10.4896
    16.0220  17.3835  19.0846  20.5174

          k = 0.5000 0.0000 0.8333 (   511 PWs)   bands (ev):

   -38.4674 -38.4618 -38.4349   8.3384   8.6561   8.7167   9.7845  10.4100
    15.5080  17.8876  18.6885  21.2631

          k =-0.3333-1.0000 0.0000 (   508 PWs)   bands (ev):

   -38.4770 -38.4521 -38.4400   8.0496   8.1866   9.4020   9.9836  10.5627
    15.8545  17.8536  19.2567  19.9196

          k =-0.5000-1.0000 0.0000 (   516 PWs)   bands (ev):

   -38.4646 -38.4646 -38.4403   8.2454   8.7072   8.7072   9.7891  10.5623
    17.5117  17.5117  17.8911  19.5177

     the Fermi energy is    10.4179 ev

!    total energy              =    -198.65095033 Ry
     Harris-Foulkes estimate   =    -198.65095033 Ry
     estimated scf accuracy    <       0.00000001 Ry

     The total energy is the sum of the following terms:

     one-electron contribution =     -74.50445795 Ry
     hartree contribution      =      46.76863680 Ry
     xc contribution           =     -31.18605890 Ry
     ewald contribution        =    -139.72912994 Ry
     smearing contrib. (-TS)   =       0.00005967 Ry

     convergence has been achieved in   6 iterations

     Writing output data file Pd-kp-conv.save/
 
     init_run     :      0.65s CPU      0.70s WALL (       1 calls)
     electrons    :      4.49s CPU      4.87s WALL (       1 calls)

     Called by init_run:
     wfcinit      :      0.28s CPU      0.31s WALL (       1 calls)
     potinit      :      0.01s CPU      0.02s WALL (       1 calls)
     hinit0       :      0.34s CPU      0.34s WALL (       1 calls)

     Called by electrons:
     c_bands      :      3.71s CPU      4.00s WALL (       6 calls)
     sum_band     :      0.70s CPU      0.77s WALL (       6 calls)
     v_of_rho     :      0.03s CPU      0.03s WALL (       7 calls)
     newd         :      0.06s CPU      0.06s WALL (       7 calls)
     mix_rho      :      0.00s CPU      0.00s WALL (       6 calls)

     Called by c_bands:
     init_us_2    :      0.11s CPU      0.12s WALL (     936 calls)
     cegterg      :      3.40s CPU      3.60s WALL (     432 calls)

     Called by sum_band:
     sum_band:bec :      0.00s CPU      0.00s WALL (     432 calls)
     addusdens    :      0.05s CPU      0.06s WALL (       6 calls)

     Called by *egterg:
     h_psi        :      2.95s CPU      3.13s WALL (    1486 calls)
     s_psi        :      0.04s CPU      0.05s WALL (    1486 calls)
     g_psi        :      0.03s CPU      0.03s WALL (     982 calls)
     cdiaghg      :      0.35s CPU      0.37s WALL (    1414 calls)

     Called by h_psi:
     h_psi:pot    :      2.93s CPU      3.12s WALL (    1486 calls)
     h_psi:calbec :      0.06s CPU      0.06s WALL (    1486 calls)
     vloc_psi     :      2.82s CPU      2.99s WALL (    1486 calls)
     add_vuspsi   :      0.05s CPU      0.05s WALL (    1486 calls)

     General routines
     calbec       :      0.07s CPU      0.08s WALL (    1918 calls)
     fft          :      0.01s CPU      0.01s WALL (      78 calls)
     ffts         :      0.00s CPU      0.00s WALL (       6 calls)
     fftw         :      2.90s CPU      3.08s WALL (   32266 calls)
 
     Parallel routines
     fft_scatt_xy :      0.52s CPU      0.55s WALL (   32350 calls)
     fft_scatt_yz :      0.66s CPU      0.71s WALL (   32350 calls)
 
     PWSCF        :     5.25s CPU         5.95s WALL

 
   This run was terminated on:  20:33:23   2Dec2021            

=------------------------------------------------------------------------------=
   JOB DONE.
=------------------------------------------------------------------------------=
